way_id;shape;index;name;nb_lanes;legal_speed;speed_zone_30;oneway;shares_bike;bike_box;bus_lane;dedicated_bus_lane;length;nb_traffic_signals;nb_crossings;nb_stops;nb_give_ways;nb_lvl_crossings;roundabout;stop_id_orig;node_id_orig;coord_x_orig;coord_y_orig;stop_id_dest;node_id_dest;coord_x_dest;coord_y_dest;nb_neighbouring_ways_bus_stop;ordre_orig;ordre_dest;id_line;line_name;colour;operator;ref;from;to
573205707;"{\"type\":\"LineString\",\"coordinates\":[[-73.5166644,45.393351],[-73.5169161,45.3933324],[-73.5170041,45.3933282],[-73.5171998,45.3933179],[-73.5172392,45.3933119],[-73.5172645,45.3933059],[-73.5172914,45.3932977],[-73.5173378,45.393281]]}";1;"";1;50;false;true;true;false;true;false;54.0;0;1;1;0;0;false;75644;6133322651;-73.516755;45.393417;75051;6133324616;-73.512817;45.390189;1;0;1;9510242;Bus 32 : Service AM;"";EXO;32 AM;Stationnement incitatif Candiac;Stationnement incitatif Candiac
685125002;"{\"type\":\"LineString\",\"coordinates\":[[-73.5166644,45.393351],[-73.5162957,45.3933985]]}";2;"";1;50;false;false;true;false;true;false;30.0;0;0;0;0;0;false;75644;6133322651;-73.516755;45.393417;75051;6133324616;-73.512817;45.390189;0;0;1;9510242;Bus 32 : Service AM;"";EXO;32 AM;Stationnement incitatif Candiac;Stationnement incitatif Candiac
397170172;"{\"type\":\"LineString\",\"coordinates\":[[-73.5171372,45.3930185],[-73.517154,45.3930789],[-73.5171621,45.3931279],[-73.5171602,45.3931627],[-73.5171562,45.3931751],[-73.5171441,45.3931984],[-73.517116,45.3932253],[-73.517086,45.3932456],[-73.517048,45.3932638],[-73.5169849,45.3932805],[-73.5166644,45.393351]]}";3;"";1;50;false;true;true;false;true;false;63.0;0;1;0;0;0;false;75644;6133322651;-73.516755;45.393417;75051;6133324616;-73.512817;45.390189;0;0;1;9510242;Bus 32 : Service AM;"";EXO;32 AM;Stationnement incitatif Candiac;Stationnement incitatif Candiac
685125000;"{\"type\":\"LineString\",\"coordinates\":[[-73.5173378,45.393281],[-73.5172646,45.3931798],[-73.5171372,45.3930185]]}";4;Boulevard Montcalm Nord;2;50;false;false;true;false;false;false;34.0;0;0;0;0;0;false;75644;6133322651;-73.516755;45.393417;75051;6133324616;-73.512817;45.390189;0;0;1;9510242;Bus 32 : Service AM;"";EXO;32 AM;Stationnement incitatif Candiac;Stationnement incitatif Candiac
685125003;"{\"type\":\"LineString\",\"coordinates\":[[-73.5171372,45.3930185],[-73.5170727,45.3929397],[-73.517012,45.3928653]]}";5;Boulevard Montcalm Nord;2;50;false;false;true;false;false;false;20.0;0;1;0;0;0;false;75644;6133322651;-73.516755;45.393417;75051;6133324616;-73.512817;45.390189;0;0;1;9510242;Bus 32 : Service AM;"";EXO;32 AM;Stationnement incitatif Candiac;Stationnement incitatif Candiac
798090940;"{\"type\":\"LineString\",\"coordinates\":[[-73.517012,45.3928653],[-73.5169504,45.3927919]]}";6;Boulevard Montcalm Nord;2;50;false;false;true;false;false;false;10.0;0;0;0;0;0;false;75644;6133322651;-73.516755;45.393417;75051;6133324616;-73.512817;45.390189;0;0;1;9510242;Bus 32 : Service AM;"";EXO;32 AM;Stationnement incitatif Candiac;Stationnement incitatif Candiac
25654340;"{\"type\":\"LineString\",\"coordinates\":[[-73.5169504,45.3927919],[-73.516797,45.392551]]}";7;Boulevard Montcalm Nord;1;50;false;true;true;false;false;false;30.0;0;0;0;0;0;false;75644;6133322651;-73.516755;45.393417;75051;6133324616;-73.512817;45.390189;0;0;1;9510242;Bus 32 : Service AM;"";EXO;32 AM;Stationnement incitatif Candiac;Stationnement incitatif Candiac
798085661;"{\"type\":\"LineString\",\"coordinates\":[[-73.516797,45.392551],[-73.5166571,45.3924334],[-73.5166434,45.3924191],[-73.5166175,45.392392]]}";8;Boulevard Montcalm Nord;2;50;false;true;true;false;false;false;23.0;1;1;0;0;0;false;75644;6133322651;-73.516755;45.393417;75051;6133324616;-73.512817;45.390189;0;0;1;9510242;Bus 32 : Service AM;"";EXO;32 AM;Stationnement incitatif Candiac;Stationnement incitatif Candiac
798085663;"{\"type\":\"LineString\",\"coordinates\":[[-73.5166175,45.392392],[-73.5165695,45.3923404]]}";9;Boulevard Montcalm Nord;2;50;false;true;true;false;false;false;7.0;0;0;0;0;0;false;75644;6133322651;-73.516755;45.393417;75051;6133324616;-73.512817;45.390189;0;0;1;9510242;Bus 32 : Service AM;"";EXO;32 AM;Stationnement incitatif Candiac;Stationnement incitatif Candiac
798085655;"{\"type\":\"LineString\",\"coordinates\":[[-73.5165695,45.3923404],[-73.5165253,45.3922991],[-73.5163618,45.3921839],[-73.5162625,45.3921243],[-73.5161804,45.3920793],[-73.5160667,45.3920217]]}";10;Boulevard Montcalm Nord;1;50;false;true;true;false;false;false;54.0;0;0;0;0;0;false;75644;6133322651;-73.516755;45.393417;75051;6133324616;-73.512817;45.390189;0;0;1;9510242;Bus 32 : Service AM;"";EXO;32 AM;Stationnement incitatif Candiac;Stationnement incitatif Candiac
222469860;"{\"type\":\"LineString\",\"coordinates\":[[-73.5160667,45.3920217],[-73.5157023,45.3918583],[-73.5156789,45.3918481],[-73.5156097,45.3918183]]}";11;Boulevard Montcalm Nord;2;50;false;true;true;false;false;false;43.0;1;1;0;0;0;false;75644;6133322651;-73.516755;45.393417;75051;6133324616;-73.512817;45.390189;0;0;1;9510242;Bus 32 : Service AM;"";EXO;32 AM;Stationnement incitatif Candiac;Stationnement incitatif Candiac
798090943;"{\"type\":\"LineString\",\"coordinates\":[[-73.5156097,45.3918183],[-73.5155334,45.3917878]]}";12;Boulevard Montcalm Nord;2;50;false;true;true;false;false;false;7.0;0;0;0;0;0;false;75644;6133322651;-73.516755;45.393417;75051;6133324616;-73.512817;45.390189;0;0;1;9510242;Bus 32 : Service AM;"";EXO;32 AM;Stationnement incitatif Candiac;Stationnement incitatif Candiac
340489004;"{\"type\":\"LineString\",\"coordinates\":[[-73.5155334,45.3917878],[-73.5154548,45.3917554],[-73.5153116,45.3916882],[-73.5148603,45.3914812],[-73.51477,45.3914386],[-73.5146844,45.3913956],[-73.5146689,45.3913876],[-73.5146076,45.3913557]]}";13;Boulevard Montcalm Nord;2;50;false;true;true;false;false;false;87.0;0;2;0;0;0;false;75644;6133322651;-73.516755;45.393417;75051;6133324616;-73.512817;45.390189;0;0;1;9510242;Bus 32 : Service AM;"";EXO;32 AM;Stationnement incitatif Candiac;Stationnement incitatif Candiac
685444582;"{\"type\":\"LineString\",\"coordinates\":[[-73.5146076,45.3913557],[-73.5144957,45.3912961]]}";14;Boulevard Montcalm Sud;2;50;false;true;true;false;false;false;11.0;0;0;0;0;0;false;75644;6133322651;-73.516755;45.393417;75051;6133324616;-73.512817;45.390189;0;0;1;9510242;Bus 32 : Service AM;"";EXO;32 AM;Stationnement incitatif Candiac;Stationnement incitatif Candiac
25654339;"{\"type\":\"LineString\",\"coordinates\":[[-73.5144957,45.3912961],[-73.5144537,45.3912729],[-73.5141653,45.3911131],[-73.5135425,45.3907189],[-73.5135078,45.3906969]]}";15;Boulevard Montcalm Sud;2;50;false;true;true;false;false;false;103.0;0;2;0;0;0;false;75644;6133322651;-73.516755;45.393417;75051;6133324616;-73.512817;45.390189;0;0;1;9510242;Bus 32 : Service AM;"";EXO;32 AM;Stationnement incitatif Candiac;Stationnement incitatif Candiac
801794029;"{\"type\":\"LineString\",\"coordinates\":[[-73.5135078,45.3906969],[-73.5134407,45.3906542],[-73.5130242,45.3903662],[-73.5125859,45.3901456]]}";16;Boulevard Montcalm Sud;1;50;false;true;true;false;false;false;95.0;0;2;0;0;0;false;75644;6133322651;-73.516755;45.393417;75051;6133324616;-73.512817;45.390189;2;0;1;9510242;Bus 32 : Service AM;"";EXO;32 AM;Stationnement incitatif Candiac;Stationnement incitatif Candiac
801794019;"{\"type\":\"LineString\",\"coordinates\":[[-73.5125719,45.3901548],[-73.5129372,45.3904275]]}";1;Boulevard Montcalm Sud;1;50;false;true;true;false;false;false;42.0;0;1;0;0;0;false;75051;6133324616;-73.512817;45.390189;75457;6133322821;-73.513694;45.388436;2;1;2;9510242;Bus 32 : Service AM;"";EXO;32 AM;Stationnement incitatif Candiac;Stationnement incitatif Candiac
25654410;"{\"type\":\"LineString\",\"coordinates\":[[-73.5125052,45.390105],[-73.5125719,45.3901548]]}";2;Boulevard Montcalm Sud;1;50;false;true;true;false;false;false;8.0;0;1;0;0;0;false;75051;6133324616;-73.512817;45.390189;75457;6133322821;-73.513694;45.388436;0;1;2;9510242;Bus 32 : Service AM;"";EXO;32 AM;Stationnement incitatif Candiac;Stationnement incitatif Candiac
25654248;"{\"type\":\"LineString\",\"coordinates\":[[-73.5134084,45.3825624],[-73.5133908,45.3826261],[-73.5133853,45.3826492],[-73.5132042,45.3833816],[-73.5131874,45.3834624],[-73.5131757,45.3835351],[-73.513171,45.3836006],[-73.5131688,45.3836685],[-73.5131725,45.3837172],[-73.5131802,45.3837805],[-73.5131909,45.3838458],[-73.5132052,45.3839078],[-73.5132358,45.3840011],[-73.5132642,45.3840738],[-73.5132998,45.3841571],[-73.5133509,45.3842772],[-73.5133836,45.3843432],[-73.5134144,45.3844097],[-73.5136421,45.384913],[-73.5137168,45.385078],[-73.5138291,45.3853223],[-73.5138679,45.3854124],[-73.5139901,45.3856752],[-73.5140254,45.3857602],[-73.5140488,45.3858331],[-73.5140645,45.3859037],[-73.5140765,45.3859908],[-73.5140769,45.3860763],[-73.5140731,45.3861211],[-73.5140639,45.3861895],[-73.5140406,45.3863055],[-73.5140246,45.3863739],[-73.5140075,45.3864473],[-73.5139774,45.3865889],[-73.5139302,45.3868136],[-73.5139121,45.3869042],[-73.5139008,45.3869543],[-73.5138769,45.3870876],[-73.5138515,45.3872313],[-73.5138323,45.3873413],[-73.5138153,45.3874229],[-73.5138029,45.3874769],[-73.5137428,45.3877267],[-73.5136061,45.3882882],[-73.513589,45.388358],[-73.5135719,45.3884291],[-73.5134882,45.388772],[-73.5134338,45.3889964],[-73.5133983,45.3891579],[-73.5133834,45.3892186],[-73.5133659,45.3892645],[-73.5133433,45.3893056],[-73.5133131,45.3893406],[-73.5132643,45.3893888],[-73.5125431,45.3900691],[-73.5125052,45.390105]]}";3;Avenue de Barcelone;2;40;false;false;false;false;false;false;876.0;0;2;7;0;0;false;75051;6133324616;-73.512817;45.390189;75457;6133322821;-73.513694;45.388436;2;1;2;9510242;Bus 32 : Service AM;"";EXO;32 AM;Stationnement incitatif Candiac;Stationnement incitatif Candiac
685305041;"{\"type\":\"LineString\",\"coordinates\":[[-73.5137642,45.3810711],[-73.5137384,45.3811797],[-73.5135991,45.3817658],[-73.5134378,45.3824493],[-73.5134313,45.3824779],[-73.5134084,45.3825624]]}";1;Place de Chambord;2;40;false;false;false;false;false;false;168.0;0;1;2;0;0;false;75458;6133322820;-73.513488;45.382726;75482;6133322806;-73.514105;45.379884;2;5;6;9510242;Bus 32 : Service AM;"";EXO;32 AM;Stationnement incitatif Candiac;Stationnement incitatif Candiac
790548640;"{\"type\":\"LineString\",\"coordinates\":[[-73.5093982,45.3779594],[-73.5094308,45.3779244],[-73.50947,45.3778897],[-73.5095156,45.3778498],[-73.5095653,45.3778109],[-73.5096163,45.3777751],[-73.5096678,45.3777403],[-73.5097211,45.3777085],[-73.5097749,45.3776787],[-73.5098247,45.3776538],[-73.5098823,45.377629],[-73.5099506,45.3776037],[-73.510019,45.3775818],[-73.5100735,45.3775673],[-73.5101366,45.3775518],[-73.5102021,45.3775387],[-73.510265,45.3775286],[-73.5103173,45.3775212],[-73.510377,45.377515],[-73.5104327,45.3775117],[-73.5104888,45.3775111],[-73.5105535,45.3775123],[-73.5106253,45.3775147],[-73.5107003,45.3775201],[-73.5107904,45.3775295],[-73.5108727,45.3775399],[-73.511156,45.3775793],[-73.5112777,45.3775993],[-73.5113729,45.3776167],[-73.5114109,45.377625],[-73.5114438,45.3776322],[-73.5114553,45.3776347],[-73.511516,45.3776505],[-73.5115832,45.377669],[-73.5116471,45.3776875],[-73.5117148,45.3777098],[-73.5117755,45.3777325],[-73.5118351,45.3777563],[-73.5119028,45.3777858],[-73.5119795,45.3778217],[-73.5120588,45.3778611],[-73.5121476,45.3779084],[-73.5122267,45.3779512],[-73.5122818,45.3779782],[-73.5123278,45.3780009],[-73.5123827,45.3780232],[-73.512445,45.3780471],[-73.5125008,45.3780659],[-73.5125491,45.3780811],[-73.5125952,45.3780952],[-73.5126475,45.3781094],[-73.5127136,45.3781251],[-73.5127777,45.3781388],[-73.5128514,45.3781518],[-73.5129194,45.3781631],[-73.5129909,45.3781726],[-73.513732,45.3782588],[-73.5138039,45.3782672],[-73.5138676,45.3782748],[-73.5139256,45.3782838],[-73.5139757,45.3782946],[-73.5140236,45.37831],[-73.5140663,45.3783259],[-73.5141092,45.3783451],[-73.5141506,45.3783696],[-73.5141927,45.3783983],[-73.5142292,45.3784332],[-73.514257,45.3784662],[-73.5142794,45.3785019],[-73.5142968,45.3785394],[-73.51431,45.3785819],[-73.5143165,45.3786339],[-73.5143142,45.3786699],[-73.5143069,45.3787184],[-73.5142471,45.3789877],[-73.5142321,45.3790555],[-73.5142173,45.3791262],[-73.5140699,45.3797536],[-73.5137854,45.3809846],[-73.5137819,45.380999],[-73.5137642,45.3810711]]}";2;Place de Chambord;2;40;false;false;false;false;false;false;718.0;0;1;5;0;0;false;75458;6133322820;-73.513488;45.382726;75482;6133322806;-73.514105;45.379884;2;5;6;9510242;Bus 32 : Service AM;"";EXO;32 AM;Stationnement incitatif Candiac;Stationnement incitatif Candiac
790548640;"{\"type\":\"LineString\",\"coordinates\":[[-73.5093982,45.3779594],[-73.5094308,45.3779244],[-73.50947,45.3778897],[-73.5095156,45.3778498],[-73.5095653,45.3778109],[-73.5096163,45.3777751],[-73.5096678,45.3777403],[-73.5097211,45.3777085],[-73.5097749,45.3776787],[-73.5098247,45.3776538],[-73.5098823,45.377629],[-73.5099506,45.3776037],[-73.510019,45.3775818],[-73.5100735,45.3775673],[-73.5101366,45.3775518],[-73.5102021,45.3775387],[-73.510265,45.3775286],[-73.5103173,45.3775212],[-73.510377,45.377515],[-73.5104327,45.3775117],[-73.5104888,45.3775111],[-73.5105535,45.3775123],[-73.5106253,45.3775147],[-73.5107003,45.3775201],[-73.5107904,45.3775295],[-73.5108727,45.3775399],[-73.511156,45.3775793],[-73.5112777,45.3775993],[-73.5113729,45.3776167],[-73.5114109,45.377625],[-73.5114438,45.3776322],[-73.5114553,45.3776347],[-73.511516,45.3776505],[-73.5115832,45.377669],[-73.5116471,45.3776875],[-73.5117148,45.3777098],[-73.5117755,45.3777325],[-73.5118351,45.3777563],[-73.5119028,45.3777858],[-73.5119795,45.3778217],[-73.5120588,45.3778611],[-73.5121476,45.3779084],[-73.5122267,45.3779512],[-73.5122818,45.3779782],[-73.5123278,45.3780009],[-73.5123827,45.3780232],[-73.512445,45.3780471],[-73.5125008,45.3780659],[-73.5125491,45.3780811],[-73.5125952,45.3780952],[-73.5126475,45.3781094],[-73.5127136,45.3781251],[-73.5127777,45.3781388],[-73.5128514,45.3781518],[-73.5129194,45.3781631],[-73.5129909,45.3781726],[-73.513732,45.3782588],[-73.5138039,45.3782672],[-73.5138676,45.3782748],[-73.5139256,45.3782838],[-73.5139757,45.3782946],[-73.5140236,45.37831],[-73.5140663,45.3783259],[-73.5141092,45.3783451],[-73.5141506,45.3783696],[-73.5141927,45.3783983],[-73.5142292,45.3784332],[-73.514257,45.3784662],[-73.5142794,45.3785019],[-73.5142968,45.3785394],[-73.51431,45.3785819],[-73.5143165,45.3786339],[-73.5143142,45.3786699],[-73.5143069,45.3787184],[-73.5142471,45.3789877],[-73.5142321,45.3790555],[-73.5142173,45.3791262],[-73.5140699,45.3797536],[-73.5137854,45.3809846],[-73.5137819,45.380999],[-73.5137642,45.3810711]]}";1;Place de Chambord;2;40;false;false;false;false;false;false;359.0;0;1;5;0;0;false;75520;6133322786;-73.511586;45.377622;75096;6133323380;-73.508854;45.379199;1;7;8;9510242;Bus 32 : Service AM;"";EXO;32 AM;Stationnement incitatif Candiac;Stationnement incitatif Candiac
785206779;"{\"type\":\"LineString\",\"coordinates\":[[-73.5077753,45.3806522],[-73.5078362,45.3805916],[-73.5078645,45.3805623],[-73.5083978,45.3799724],[-73.5084746,45.3798853],[-73.5085249,45.3798211],[-73.5085721,45.3797593],[-73.5086146,45.3797018],[-73.5086544,45.3796479],[-73.508695,45.3795914],[-73.5087366,45.3795291],[-73.5087708,45.3794765],[-73.5088261,45.3793841],[-73.5088375,45.3793638],[-73.5088708,45.3793048],[-73.5089112,45.379231],[-73.5089818,45.3790882],[-73.5090349,45.3789718],[-73.509088,45.3788425],[-73.5091996,45.3784859],[-73.5092159,45.3784337],[-73.5092905,45.3781824],[-73.5093064,45.3781393],[-73.5093223,45.3780988],[-73.5093387,45.3780604],[-73.5093549,45.3780239],[-73.5093718,45.3779956],[-73.5093982,45.3779594]]}";2;Place de Chambord;2;40;false;false;false;false;false;false;164.5;0;3;3;0;0;false;75520;6133322786;-73.511586;45.377622;75096;6133323380;-73.508854;45.379199;1;7;8;9510242;Bus 32 : Service AM;"";EXO;32 AM;Stationnement incitatif Candiac;Stationnement incitatif Candiac
340489006;"{\"type\":\"LineString\",\"coordinates\":[[-73.5077753,45.3806522],[-73.507686,45.3806148],[-73.5076415,45.3805956],[-73.5073732,45.3804731],[-73.5069038,45.3802588],[-73.5052075,45.3794931],[-73.5051792,45.3794792]]}";1;Boulevard Jean-Leman;2;50;false;false;true;false;false;false;242.0;0;1;1;0;0;false;75083;6133324589;-73.50779;45.380539;75097;6133323379;-73.503635;45.378597;2;9;10;9510242;Bus 32 : Service AM;"";EXO;32 AM;Stationnement incitatif Candiac;Stationnement incitatif Candiac
685305038;"{\"type\":\"LineString\",\"coordinates\":[[-73.5051792,45.3794792],[-73.5050159,45.3793613],[-73.5049252,45.3793007],[-73.5047937,45.3792084],[-73.504693,45.379127],[-73.5046238,45.3790627],[-73.5045322,45.3789744],[-73.5044946,45.378936],[-73.5044496,45.3788897],[-73.5043979,45.3788316]]}";2;Boulevard Jean-Leman;1;50;false;true;true;false;false;false;95.0;0;0;0;0;0;false;75083;6133324589;-73.50779;45.380539;75097;6133323379;-73.503635;45.378597;0;9;10;9510242;Bus 32 : Service AM;"";EXO;32 AM;Stationnement incitatif Candiac;Stationnement incitatif Candiac
784454113;"{\"type\":\"LineString\",\"coordinates\":[[-73.5043979,45.3788316],[-73.5043427,45.3787599],[-73.5042306,45.3785982],[-73.5041828,45.378511]]}";3;Boulevard Jean-Leman;2;50;false;true;true;false;false;false;40.0;0;0;1;0;0;false;75083;6133324589;-73.50779;45.380539;75097;6133323379;-73.503635;45.378597;0;9;10;9510242;Bus 32 : Service AM;"";EXO;32 AM;Stationnement incitatif Candiac;Stationnement incitatif Candiac
784454175;"{\"type\":\"LineString\",\"coordinates\":[[-73.5040717,45.3785394],[-73.5041828,45.378511]]}";4;Avenue du Dauphiné;2;50;false;false;true;false;false;false;10.0;0;0;0;0;0;false;75083;6133324589;-73.50779;45.380539;75097;6133323379;-73.503635;45.378597;0;9;10;9510242;Bus 32 : Service AM;"";EXO;32 AM;Stationnement incitatif Candiac;Stationnement incitatif Candiac
784454173;"{\"type\":\"LineString\",\"coordinates\":[[-73.5032716,45.3787373],[-73.503344,45.3787228],[-73.5034592,45.3786964],[-73.5039484,45.3785632],[-73.503992,45.3785548],[-73.5040717,45.3785394]]}";5;Avenue du Dauphiné;2;50;false;false;true;false;false;false;67.0;0;2;1;0;0;false;75083;6133324589;-73.50779;45.380539;75097;6133323379;-73.503635;45.378597;2;9;10;9510242;Bus 32 : Service AM;"";EXO;32 AM;Stationnement incitatif Candiac;Stationnement incitatif Candiac
784454173;"{\"type\":\"LineString\",\"coordinates\":[[-73.5032716,45.3787373],[-73.503344,45.3787228],[-73.5034592,45.3786964],[-73.5039484,45.3785632],[-73.503992,45.3785548],[-73.5040717,45.3785394]]}";1;Avenue du Dauphiné;2;50;false;false;true;false;false;false;33.5;0;2;1;0;0;false;75097;6133323379;-73.503635;45.378597;75487;6133322805;-73.500187;45.377599;1;10;11;9510242;Bus 32 : Service AM;"";EXO;32 AM;Stationnement incitatif Candiac;Stationnement incitatif Candiac
26556896;"{\"type\":\"LineString\",\"coordinates\":[[-73.4999261,45.3775521],[-73.5000437,45.3776099],[-73.5003713,45.3777833],[-73.5008095,45.3780226],[-73.501737,45.378523],[-73.5018219,45.3785653],[-73.5018952,45.3785976],[-73.5019754,45.37863],[-73.5020477,45.3786561],[-73.5021247,45.3786794],[-73.5022181,45.3787051],[-73.5022988,45.3787244],[-73.5023897,45.3787435],[-73.5024798,45.3787582],[-73.5025642,45.3787678],[-73.5026579,45.378776],[-73.5027379,45.3787797],[-73.5028154,45.37878],[-73.5028992,45.3787787],[-73.5029915,45.378773],[-73.5030759,45.3787651],[-73.5031482,45.3787565],[-73.5032001,45.3787491],[-73.5032716,45.3787373]]}";2;Avenue du Dauphiné;2;40;false;false;true;false;false;false;152.5;0;1;1;0;0;false;75097;6133323379;-73.503635;45.378597;75487;6133322805;-73.500187;45.377599;1;10;11;9510242;Bus 32 : Service AM;"";EXO;32 AM;Stationnement incitatif Candiac;Stationnement incitatif Candiac
26556896;"{\"type\":\"LineString\",\"coordinates\":[[-73.4999261,45.3775521],[-73.5000437,45.3776099],[-73.5003713,45.3777833],[-73.5008095,45.3780226],[-73.501737,45.378523],[-73.5018219,45.3785653],[-73.5018952,45.3785976],[-73.5019754,45.37863],[-73.5020477,45.3786561],[-73.5021247,45.3786794],[-73.5022181,45.3787051],[-73.5022988,45.3787244],[-73.5023897,45.3787435],[-73.5024798,45.3787582],[-73.5025642,45.3787678],[-73.5026579,45.378776],[-73.5027379,45.3787797],[-73.5028154,45.37878],[-73.5028992,45.3787787],[-73.5029915,45.378773],[-73.5030759,45.3787651],[-73.5031482,45.3787565],[-73.5032001,45.3787491],[-73.5032716,45.3787373]]}";1;Avenue du Dauphiné;2;40;false;false;true;false;false;false;152.5;0;1;1;0;0;false;75487;6133322805;-73.500187;45.377599;75489;6133322804;-73.496718;45.380691;1;11;12;9510242;Bus 32 : Service AM;"";EXO;32 AM;Stationnement incitatif Candiac;Stationnement incitatif Candiac
790722506;"{\"type\":\"LineString\",\"coordinates\":[[-73.4960616,45.3832498],[-73.496087,45.3832176],[-73.4961211,45.3831704],[-73.4961505,45.3831245],[-73.4961726,45.3830879],[-73.496208,45.3830267],[-73.4962326,45.3829802],[-73.4962658,45.3829126],[-73.4962984,45.382838],[-73.4963559,45.3826997],[-73.4963866,45.3826167],[-73.4964124,45.382537],[-73.4964317,45.3824626],[-73.4964497,45.3823901],[-73.4964652,45.3823096],[-73.4964756,45.3822475],[-73.4964834,45.3821784],[-73.4964875,45.382115],[-73.4964949,45.3818629],[-73.4965024,45.3817634],[-73.4965114,45.3816823],[-73.4965188,45.3816103],[-73.4965252,45.3815676],[-73.4965355,45.3815121],[-73.4965554,45.3814219],[-73.496593,45.381274],[-73.4966262,45.3811625],[-73.4966618,45.3810589],[-73.4966923,45.380973],[-73.4967253,45.3808998],[-73.4967486,45.3808436],[-73.4967795,45.3807777],[-73.4968137,45.3807123],[-73.496856,45.3806334],[-73.4969113,45.3805404],[-73.4969768,45.3804326],[-73.4970439,45.3803319],[-73.4970998,45.3802503],[-73.4971505,45.3801846],[-73.4972036,45.3801156],[-73.4972754,45.3800308],[-73.4973408,45.3799562],[-73.4974148,45.3798769],[-73.4975091,45.3797778],[-73.4980553,45.3792723],[-73.498129,45.3792054],[-73.4981965,45.3791433],[-73.498792,45.3785951],[-73.4991784,45.3782381],[-73.4998429,45.3776283],[-73.4999261,45.3775521]]}";2;Avenue de Deauville;2;30;false;false;true;false;false;false;359.5;0;1;5;0;0;false;75487;6133322805;-73.500187;45.377599;75489;6133322804;-73.496718;45.380691;1;11;12;9510242;Bus 32 : Service AM;"";EXO;32 AM;Stationnement incitatif Candiac;Stationnement incitatif Candiac
790722506;"{\"type\":\"LineString\",\"coordinates\":[[-73.4960616,45.3832498],[-73.496087,45.3832176],[-73.4961211,45.3831704],[-73.4961505,45.3831245],[-73.4961726,45.3830879],[-73.496208,45.3830267],[-73.4962326,45.3829802],[-73.4962658,45.3829126],[-73.4962984,45.382838],[-73.4963559,45.3826997],[-73.4963866,45.3826167],[-73.4964124,45.382537],[-73.4964317,45.3824626],[-73.4964497,45.3823901],[-73.4964652,45.3823096],[-73.4964756,45.3822475],[-73.4964834,45.3821784],[-73.4964875,45.382115],[-73.4964949,45.3818629],[-73.4965024,45.3817634],[-73.4965114,45.3816823],[-73.4965188,45.3816103],[-73.4965252,45.3815676],[-73.4965355,45.3815121],[-73.4965554,45.3814219],[-73.496593,45.381274],[-73.4966262,45.3811625],[-73.4966618,45.3810589],[-73.4966923,45.380973],[-73.4967253,45.3808998],[-73.4967486,45.3808436],[-73.4967795,45.3807777],[-73.4968137,45.3807123],[-73.496856,45.3806334],[-73.4969113,45.3805404],[-73.4969768,45.3804326],[-73.4970439,45.3803319],[-73.4970998,45.3802503],[-73.4971505,45.3801846],[-73.4972036,45.3801156],[-73.4972754,45.3800308],[-73.4973408,45.3799562],[-73.4974148,45.3798769],[-73.4975091,45.3797778],[-73.4980553,45.3792723],[-73.498129,45.3792054],[-73.4981965,45.3791433],[-73.498792,45.3785951],[-73.4991784,45.3782381],[-73.4998429,45.3776283],[-73.4999261,45.3775521]]}";1;Avenue de Deauville;2;30;false;false;true;false;false;false;359.5;0;1;5;0;0;false;75490;6133322803;-73.49617;45.382893;75491;6133322802;-73.493233;45.384554;1;13;14;9510242;Bus 32 : Service AM;"";EXO;32 AM;Stationnement incitatif Candiac;Stationnement incitatif Candiac
790722502;"{\"type\":\"LineString\",\"coordinates\":[[-73.4956849,45.3836538],[-73.4957428,45.3836154],[-73.4957892,45.3835816],[-73.4958161,45.3835597],[-73.4958372,45.3835408],[-73.495885,45.3834918],[-73.4959357,45.3834386],[-73.4959722,45.3833915],[-73.4960028,45.3833458],[-73.4960616,45.3832498]]}";2;Avenue de Deauville;1;30;false;true;true;false;false;false;55.0;0;0;0;0;0;false;75490;6133322803;-73.49617;45.382893;75491;6133322802;-73.493233;45.384554;0;13;14;9510242;Bus 32 : Service AM;"";EXO;32 AM;Stationnement incitatif Candiac;Stationnement incitatif Candiac
790722503;"{\"type\":\"LineString\",\"coordinates\":[[-73.4954526,45.3838396],[-73.4954621,45.3838334],[-73.4955382,45.3837833],[-73.4955757,45.3837533],[-73.4956849,45.3836538]]}";3;Avenue de Deauville;2;30;false;false;true;false;false;false;28.0;0;1;1;0;0;false;75490;6133322803;-73.49617;45.382893;75491;6133322802;-73.493233;45.384554;0;13;14;9510242;Bus 32 : Service AM;"";EXO;32 AM;Stationnement incitatif Candiac;Stationnement incitatif Candiac
790722504;"{\"type\":\"LineString\",\"coordinates\":[[-73.4948817,45.3841853],[-73.494911,45.3841785],[-73.4949511,45.3841651],[-73.4949936,45.3841464],[-73.4950428,45.3841211],[-73.4950922,45.3840929],[-73.4951569,45.3840566],[-73.4952175,45.384021],[-73.495281,45.3839844],[-73.495335,45.3839486],[-73.495383,45.3839147],[-73.4954113,45.3838906],[-73.4954365,45.3838633],[-73.4954526,45.3838396]]}";4;Avenue de Deauville;1;30;false;true;true;false;false;false;60.0;0;0;0;0;0;false;75490;6133322803;-73.49617;45.382893;75491;6133322802;-73.493233;45.384554;0;13;14;9510242;Bus 32 : Service AM;"";EXO;32 AM;Stationnement incitatif Candiac;Stationnement incitatif Candiac
790722498;"{\"type\":\"LineString\",\"coordinates\":[[-73.4948301,45.3842161],[-73.4948817,45.3841853]]}";5;Avenue de Deauville;2;30;false;false;true;false;false;false;6.0;0;0;0;0;0;false;75490;6133322803;-73.49617;45.382893;75491;6133322802;-73.493233;45.384554;0;13;14;9510242;Bus 32 : Service AM;"";EXO;32 AM;Stationnement incitatif Candiac;Stationnement incitatif Candiac
790722499;"{\"type\":\"LineString\",\"coordinates\":[[-73.4941054,45.3844696],[-73.4941528,45.3844666],[-73.4941772,45.384464],[-73.4942021,45.3844596],[-73.4942649,45.3844441],[-73.494363,45.384413],[-73.4944897,45.3843694],[-73.4945915,45.3843283],[-73.4946774,45.384294],[-73.4947177,45.384277],[-73.4947496,45.3842613],[-73.4947865,45.3842426],[-73.4948301,45.3842161]]}";6;Avenue de Deauville;1;30;false;true;true;false;false;false;65.0;0;0;0;0;0;false;75490;6133322803;-73.49617;45.382893;75491;6133322802;-73.493233;45.384554;0;13;14;9510242;Bus 32 : Service AM;"";EXO;32 AM;Stationnement incitatif Candiac;Stationnement incitatif Candiac
790717725;"{\"type\":\"LineString\",\"coordinates\":[[-73.4902084,45.3840018],[-73.4905673,45.3841601],[-73.490688,45.3842114],[-73.4908436,45.3842785],[-73.4910035,45.384344],[-73.4910776,45.38437],[-73.4911559,45.3843945],[-73.4913142,45.3844348],[-73.4913426,45.384442],[-73.491419,45.3844631],[-73.4914753,45.3844794],[-73.4915084,45.3844876],[-73.4916329,45.3845177],[-73.4916766,45.3845296],[-73.4917164,45.384541],[-73.491757,45.3845524],[-73.4917984,45.3845615],[-73.4918448,45.3845705],[-73.4919515,45.3845869],[-73.4920479,45.3846006],[-73.492078,45.3846049],[-73.4921987,45.384619],[-73.4923138,45.38463],[-73.4924149,45.3846364],[-73.4925143,45.3846416],[-73.4926321,45.3846457],[-73.492701,45.3846477],[-73.4927417,45.3846474],[-73.4927806,45.3846445],[-73.49284,45.384639],[-73.4928993,45.3846357],[-73.4929932,45.3846322],[-73.4930296,45.3846305],[-73.4931049,45.3846255],[-73.4931765,45.38462],[-73.4932089,45.3846176],[-73.4933835,45.3845994],[-73.4934493,45.384594],[-73.4935057,45.3845896],[-73.493563,45.3845836],[-73.4936181,45.3845762],[-73.4936889,45.3845642],[-73.4937938,45.3845428],[-73.4939073,45.3845189],[-73.4939371,45.3845117],[-73.4940062,45.3844948],[-73.4940653,45.3844797],[-73.494096,45.3844719],[-73.4941054,45.3844696]]}";7;Avenue de Deauville;2;30;false;false;true;false;false;false;162.0;0;6;6;0;0;false;75490;6133322803;-73.49617;45.382893;75491;6133322802;-73.493233;45.384554;1;13;14;9510242;Bus 32 : Service AM;"";EXO;32 AM;Stationnement incitatif Candiac;Stationnement incitatif Candiac
790717725;"{\"type\":\"LineString\",\"coordinates\":[[-73.4902084,45.3840018],[-73.4905673,45.3841601],[-73.490688,45.3842114],[-73.4908436,45.3842785],[-73.4910035,45.384344],[-73.4910776,45.38437],[-73.4911559,45.3843945],[-73.4913142,45.3844348],[-73.4913426,45.384442],[-73.491419,45.3844631],[-73.4914753,45.3844794],[-73.4915084,45.3844876],[-73.4916329,45.3845177],[-73.4916766,45.3845296],[-73.4917164,45.384541],[-73.491757,45.3845524],[-73.4917984,45.3845615],[-73.4918448,45.3845705],[-73.4919515,45.3845869],[-73.4920479,45.3846006],[-73.492078,45.3846049],[-73.4921987,45.384619],[-73.4923138,45.38463],[-73.4924149,45.3846364],[-73.4925143,45.3846416],[-73.4926321,45.3846457],[-73.492701,45.3846477],[-73.4927417,45.3846474],[-73.4927806,45.3846445],[-73.49284,45.384639],[-73.4928993,45.3846357],[-73.4929932,45.3846322],[-73.4930296,45.3846305],[-73.4931049,45.3846255],[-73.4931765,45.38462],[-73.4932089,45.3846176],[-73.4933835,45.3845994],[-73.4934493,45.384594],[-73.4935057,45.3845896],[-73.493563,45.3845836],[-73.4936181,45.3845762],[-73.4936889,45.3845642],[-73.4937938,45.3845428],[-73.4939073,45.3845189],[-73.4939371,45.3845117],[-73.4940062,45.3844948],[-73.4940653,45.3844797],[-73.494096,45.3844719],[-73.4941054,45.3844696]]}";1;Avenue de Deauville;2;30;false;false;true;false;false;false;162.0;0;6;6;0;0;false;75491;6133322802;-73.493233;45.384554;75492;6133322801;-73.489936;45.383716;1;14;15;9510242;Bus 32 : Service AM;"";EXO;32 AM;Stationnement incitatif Candiac;Stationnement incitatif Candiac
790717726;"{\"type\":\"LineString\",\"coordinates\":[[-73.4893333,45.3836207],[-73.4893933,45.3836748],[-73.4894392,45.383717],[-73.4895043,45.3837683],[-73.4895594,45.3838086],[-73.4895966,45.383831],[-73.4896356,45.3838554],[-73.4896767,45.3838783],[-73.4897229,45.3838975],[-73.4897734,45.3839137],[-73.4898723,45.3839355],[-73.4899993,45.3839566],[-73.4901167,45.3839793],[-73.4901657,45.3839898],[-73.4902084,45.3840018]]}";2;Avenue de Deauville;1;50;false;true;true;false;false;false;42.0;0;0;1;0;0;false;75491;6133322802;-73.493233;45.384554;75492;6133322801;-73.489936;45.383716;1;14;15;9510242;Bus 32 : Service AM;"";EXO;32 AM;Stationnement incitatif Candiac;Stationnement incitatif Candiac
790717726;"{\"type\":\"LineString\",\"coordinates\":[[-73.4893333,45.3836207],[-73.4893933,45.3836748],[-73.4894392,45.383717],[-73.4895043,45.3837683],[-73.4895594,45.3838086],[-73.4895966,45.383831],[-73.4896356,45.3838554],[-73.4896767,45.3838783],[-73.4897229,45.3838975],[-73.4897734,45.3839137],[-73.4898723,45.3839355],[-73.4899993,45.3839566],[-73.4901167,45.3839793],[-73.4901657,45.3839898],[-73.4902084,45.3840018]]}";1;Avenue de Deauville;1;50;false;true;true;false;false;false;42.0;0;0;1;0;0;false;75492;6133322801;-73.489936;45.383716;75495;6133322798;-73.48796;45.382428;1;15;16;9510242;Bus 32 : Service AM;"";EXO;32 AM;Stationnement incitatif Candiac;Stationnement incitatif Candiac
26556778;"{\"type\":\"LineString\",\"coordinates\":[[-73.4917026,45.3801718],[-73.4906656,45.3804726],[-73.4898853,45.3806915],[-73.489774,45.3807231],[-73.4896501,45.3807601],[-73.4893513,45.3808466],[-73.4890203,45.3809455],[-73.4889122,45.3809828],[-73.4887823,45.3810331],[-73.4886509,45.3810931],[-73.4885834,45.3811284],[-73.4885188,45.3811662],[-73.4884541,45.3812069],[-73.4883889,45.381251],[-73.4883226,45.3813009],[-73.4882799,45.3813367],[-73.4882333,45.3813752],[-73.4882111,45.381395],[-73.4881611,45.3814475],[-73.4880946,45.3815283],[-73.4880484,45.3815887],[-73.4880078,45.381649],[-73.4879782,45.381699],[-73.4879505,45.3817486],[-73.4879282,45.3818017],[-73.4879046,45.3818601],[-73.4878866,45.3819114],[-73.4878703,45.3819746],[-73.487854,45.382055],[-73.4878473,45.3821216],[-73.4878427,45.3821932],[-73.4878438,45.3822528],[-73.4878469,45.3822939],[-73.4878592,45.3823727],[-73.4878697,45.3824179],[-73.487874,45.3824367],[-73.4878794,45.3824599],[-73.4878923,45.3825029],[-73.487907,45.3825509],[-73.4879243,45.3825934],[-73.4879494,45.3826498],[-73.4879774,45.3827071],[-73.4880121,45.3827675],[-73.488037,45.3828055],[-73.4880655,45.3828453],[-73.4881098,45.3828985],[-73.4881431,45.3829357],[-73.4881788,45.3829738],[-73.4882212,45.383016],[-73.4882914,45.3830788],[-73.48836,45.3831358],[-73.4884176,45.3831795],[-73.488472,45.3832178],[-73.4885345,45.3832561],[-73.4886077,45.3832975],[-73.4887033,45.3833457],[-73.4887988,45.3833902],[-73.4889266,45.3834461],[-73.4893333,45.3836207]]}";2;Avenue de Deauville;2;50;false;false;true;false;false;false;306.0;0;2;4;0;0;false;75492;6133322801;-73.489936;45.383716;75495;6133322798;-73.48796;45.382428;1;15;16;9510242;Bus 32 : Service AM;"";EXO;32 AM;Stationnement incitatif Candiac;Stationnement incitatif Candiac
26556778;"{\"type\":\"LineString\",\"coordinates\":[[-73.4917026,45.3801718],[-73.4906656,45.3804726],[-73.4898853,45.3806915],[-73.489774,45.3807231],[-73.4896501,45.3807601],[-73.4893513,45.3808466],[-73.4890203,45.3809455],[-73.4889122,45.3809828],[-73.4887823,45.3810331],[-73.4886509,45.3810931],[-73.4885834,45.3811284],[-73.4885188,45.3811662],[-73.4884541,45.3812069],[-73.4883889,45.381251],[-73.4883226,45.3813009],[-73.4882799,45.3813367],[-73.4882333,45.3813752],[-73.4882111,45.381395],[-73.4881611,45.3814475],[-73.4880946,45.3815283],[-73.4880484,45.3815887],[-73.4880078,45.381649],[-73.4879782,45.381699],[-73.4879505,45.3817486],[-73.4879282,45.3818017],[-73.4879046,45.3818601],[-73.4878866,45.3819114],[-73.4878703,45.3819746],[-73.487854,45.382055],[-73.4878473,45.3821216],[-73.4878427,45.3821932],[-73.4878438,45.3822528],[-73.4878469,45.3822939],[-73.4878592,45.3823727],[-73.4878697,45.3824179],[-73.487874,45.3824367],[-73.4878794,45.3824599],[-73.4878923,45.3825029],[-73.487907,45.3825509],[-73.4879243,45.3825934],[-73.4879494,45.3826498],[-73.4879774,45.3827071],[-73.4880121,45.3827675],[-73.488037,45.3828055],[-73.4880655,45.3828453],[-73.4881098,45.3828985],[-73.4881431,45.3829357],[-73.4881788,45.3829738],[-73.4882212,45.383016],[-73.4882914,45.3830788],[-73.48836,45.3831358],[-73.4884176,45.3831795],[-73.488472,45.3832178],[-73.4885345,45.3832561],[-73.4886077,45.3832975],[-73.4887033,45.3833457],[-73.4887988,45.3833902],[-73.4889266,45.3834461],[-73.4893333,45.3836207]]}";1;Avenue de Deauville;2;50;false;false;true;false;false;false;306.0;0;2;4;0;0;false;75493;6133322800;-73.488785;45.381105;75494;6133322799;-73.492118;45.380198;1;17;18;9510242;Bus 32 : Service AM;"";EXO;32 AM;Stationnement incitatif Candiac;Stationnement incitatif Candiac
519358934;"{\"type\":\"LineString\",\"coordinates\":[[-73.4917026,45.3801718],[-73.4919211,45.3801557],[-73.4921384,45.380136],[-73.4921873,45.3801244],[-73.4922359,45.3801105],[-73.4923423,45.3800696],[-73.4924227,45.3800327],[-73.4925853,45.3799407],[-73.4927222,45.3798568]]}";2;Avenue de Deauville;1;50;false;true;true;false;false;false;45.0;0;0;1;0;0;false;75493;6133322800;-73.488785;45.381105;75494;6133322799;-73.492118;45.380198;1;17;18;9510242;Bus 32 : Service AM;"";EXO;32 AM;Stationnement incitatif Candiac;Stationnement incitatif Candiac
519358934;"{\"type\":\"LineString\",\"coordinates\":[[-73.4917026,45.3801718],[-73.4919211,45.3801557],[-73.4921384,45.380136],[-73.4921873,45.3801244],[-73.4922359,45.3801105],[-73.4923423,45.3800696],[-73.4924227,45.3800327],[-73.4925853,45.3799407],[-73.4927222,45.3798568]]}";1;Avenue de Deauville;1;50;false;true;true;false;false;false;45.0;0;0;1;0;0;false;75494;6133322799;-73.492118;45.380198;75496;6133322797;-73.495241;45.378496;1;18;19;9510242;Bus 32 : Service AM;"";EXO;32 AM;Stationnement incitatif Candiac;Stationnement incitatif Candiac
519358935;"{\"type\":\"LineString\",\"coordinates\":[[-73.4975435,45.3762664],[-73.4974568,45.3763403],[-73.4972646,45.3765178],[-73.496897,45.3768503],[-73.4964533,45.3772631],[-73.4963972,45.3773159],[-73.4963294,45.377376],[-73.495813,45.377852],[-73.4957443,45.3779144],[-73.4953238,45.3783021],[-73.4952388,45.3783804],[-73.4951691,45.3784413],[-73.4950649,45.3785324],[-73.4949551,45.3786263],[-73.4948708,45.3786931],[-73.4947885,45.3787548],[-73.4947061,45.3788163],[-73.4946062,45.3788865],[-73.4945185,45.3789457],[-73.4943901,45.3790295],[-73.4942586,45.3791114],[-73.4940809,45.3792178],[-73.4939783,45.3792764],[-73.4938763,45.3793327],[-73.4937778,45.3793847],[-73.4936437,45.3794549],[-73.4935284,45.3795122],[-73.4933965,45.3795769],[-73.4932565,45.37964],[-73.4931463,45.3796882],[-73.4930998,45.3797078],[-73.4929267,45.3797764],[-73.4927222,45.3798568]]}";2;Avenue de Deauville;2;50;false;false;true;false;false;false;277.5;0;0;5;0;0;false;75494;6133322799;-73.492118;45.380198;75496;6133322797;-73.495241;45.378496;1;18;19;9510242;Bus 32 : Service AM;"";EXO;32 AM;Stationnement incitatif Candiac;Stationnement incitatif Candiac
519358935;"{\"type\":\"LineString\",\"coordinates\":[[-73.4975435,45.3762664],[-73.4974568,45.3763403],[-73.4972646,45.3765178],[-73.496897,45.3768503],[-73.4964533,45.3772631],[-73.4963972,45.3773159],[-73.4963294,45.377376],[-73.495813,45.377852],[-73.4957443,45.3779144],[-73.4953238,45.3783021],[-73.4952388,45.3783804],[-73.4951691,45.3784413],[-73.4950649,45.3785324],[-73.4949551,45.3786263],[-73.4948708,45.3786931],[-73.4947885,45.3787548],[-73.4947061,45.3788163],[-73.4946062,45.3788865],[-73.4945185,45.3789457],[-73.4943901,45.3790295],[-73.4942586,45.3791114],[-73.4940809,45.3792178],[-73.4939783,45.3792764],[-73.4938763,45.3793327],[-73.4937778,45.3793847],[-73.4936437,45.3794549],[-73.4935284,45.3795122],[-73.4933965,45.3795769],[-73.4932565,45.37964],[-73.4931463,45.3796882],[-73.4930998,45.3797078],[-73.4929267,45.3797764],[-73.4927222,45.3798568]]}";1;Avenue de Deauville;2;50;false;false;true;false;false;false;277.5;0;0;5;0;0;false;75496;6133322797;-73.495241;45.378496;75514;6133322788;-73.497732;45.376238;1;19;20;9510242;Bus 32 : Service AM;"";EXO;32 AM;Stationnement incitatif Candiac;Stationnement incitatif Candiac
26556961;"{\"type\":\"LineString\",\"coordinates\":[[-73.4975435,45.3762664],[-73.4976447,45.3761806],[-73.497918,45.3759283],[-73.4980254,45.3758293],[-73.4980676,45.3757903],[-73.4981683,45.3757029],[-73.4982268,45.3756572],[-73.4982891,45.375616],[-73.4983165,45.3756002],[-73.4983439,45.3755844],[-73.4984019,45.3755558],[-73.4984653,45.3755295],[-73.4984832,45.3755234],[-73.4985347,45.3755061],[-73.4986033,45.3754857],[-73.498677,45.3754676],[-73.4987487,45.3754562],[-73.4988283,45.3754468],[-73.4988478,45.3754458],[-73.4988948,45.375443],[-73.4989766,45.3754426],[-73.4990373,45.375444],[-73.4990529,45.3754443],[-73.49912,45.37545],[-73.4991692,45.3754561],[-73.4991899,45.3754587],[-73.4992528,45.3754694],[-73.4993128,45.3754827],[-73.4993725,45.3754983],[-73.4994331,45.3755186],[-73.4994938,45.3755428],[-73.4995596,45.3755721],[-73.4996312,45.3756092],[-73.4997083,45.3756511],[-73.4999595,45.3757874],[-73.5002626,45.3759519],[-73.5002772,45.3759597],[-73.5003449,45.3759957],[-73.5004447,45.3760488],[-73.5005347,45.3760984],[-73.5005873,45.376126],[-73.5006458,45.3761567],[-73.5007965,45.3762332],[-73.5009003,45.3762827],[-73.5009405,45.3763019],[-73.5010389,45.3763478],[-73.5010674,45.3763604],[-73.5011698,45.3764055]]}";2;Avenue de Deauville;2;50;false;false;true;false;false;false;178.5;0;1;2;0;0;false;75496;6133322797;-73.495241;45.378496;75514;6133322788;-73.497732;45.376238;1;19;20;9510242;Bus 32 : Service AM;"";EXO;32 AM;Stationnement incitatif Candiac;Stationnement incitatif Candiac
696045145;"{\"type\":\"LineString\",\"coordinates\":[[-73.5011698,45.3764055],[-73.5012574,45.3764416],[-73.5012836,45.3764524],[-73.5013517,45.3764804],[-73.5013695,45.3764873],[-73.501471,45.3765266],[-73.5015965,45.3765723],[-73.5016415,45.3765887],[-73.5017879,45.3766397],[-73.5020694,45.3767295],[-73.502168,45.3767572],[-73.5022727,45.3767865],[-73.5023458,45.3768065],[-73.5024711,45.3768382],[-73.502592,45.3768665],[-73.5026251,45.3768735],[-73.502657,45.3768803],[-73.5027158,45.3768928],[-73.5029134,45.3769326],[-73.5030103,45.3769521],[-73.5031248,45.3769732],[-73.5032483,45.376996],[-73.5037258,45.3770843],[-73.5038151,45.3771008],[-73.503845,45.3771058],[-73.5039105,45.3771247]]}";1;Avenue de Dompierre;2;50;false;false;true;false;false;false;115.0;0;4;2;0;0;false;75498;6133322796;-73.50364;45.377153;75500;6133322795;-73.504745;45.375349;1;22;23;9510242;Bus 32 : Service AM;"";EXO;32 AM;Stationnement incitatif Candiac;Stationnement incitatif Candiac
784454486;"{\"type\":\"LineString\",\"coordinates\":[[-73.5039105,45.3771247],[-73.504046,45.377162]]}";2;Avenue de Dompierre;2;50;false;false;true;false;false;false;12.0;0;0;0;0;0;false;75498;6133322796;-73.50364;45.377153;75500;6133322795;-73.504745;45.375349;0;22;23;9510242;Bus 32 : Service AM;"";EXO;32 AM;Stationnement incitatif Candiac;Stationnement incitatif Candiac
25649223;"{\"type\":\"LineString\",\"coordinates\":[[-73.504046,45.377162],[-73.5040787,45.3770716],[-73.5041006,45.3770168],[-73.5041949,45.3767353],[-73.5043167,45.3763608],[-73.5043669,45.3762185]]}";3;Boulevard Jean-Leman;1;30;false;true;true;false;false;false;108.0;0;1;0;0;0;false;75498;6133322796;-73.50364;45.377153;75500;6133322795;-73.504745;45.375349;0;22;23;9510242;Bus 32 : Service AM;"";EXO;32 AM;Stationnement incitatif Candiac;Stationnement incitatif Candiac
784454489;"{\"type\":\"LineString\",\"coordinates\":[[-73.5043669,45.3762185],[-73.504436,45.3760223],[-73.5044652,45.3759362],[-73.5044952,45.3758474],[-73.5045474,45.3756749]]}";4;Boulevard Jean-Leman;2;30;false;true;true;false;false;false;63.0;0;0;0;0;0;false;75498;6133322796;-73.50364;45.377153;75500;6133322795;-73.504745;45.375349;0;22;23;9510242;Bus 32 : Service AM;"";EXO;32 AM;Stationnement incitatif Candiac;Stationnement incitatif Candiac
784454101;"{\"type\":\"LineString\",\"coordinates\":[[-73.5045474,45.3756749],[-73.5046621,45.3753431],[-73.504671,45.3753211],[-73.5046967,45.3752577]]}";5;Boulevard Jean-Leman;3;30;false;true;true;false;false;false;24.0;1;1;0;0;0;false;75498;6133322796;-73.50364;45.377153;75500;6133322795;-73.504745;45.375349;1;22;23;9510242;Bus 32 : Service AM;"";EXO;32 AM;Stationnement incitatif Candiac;Stationnement incitatif Candiac
784454101;"{\"type\":\"LineString\",\"coordinates\":[[-73.5045474,45.3756749],[-73.5046621,45.3753431],[-73.504671,45.3753211],[-73.5046967,45.3752577]]}";1;Boulevard Jean-Leman;3;30;false;true;true;false;false;false;48.0;1;1;0;0;0;false;75500;6133322795;-73.504745;45.375349;75502;6133322794;-73.505708;45.375557;2;23;24;9510242;Bus 32 : Service AM;"";EXO;32 AM;Stationnement incitatif Candiac;Stationnement incitatif Candiac
25652366;"{\"type\":\"LineString\",\"coordinates\":[[-73.5046967,45.3752577],[-73.5047963,45.3752715]]}";2;Avenue Charlemagne;1;40;false;true;true;false;false;false;8.0;0;1;0;0;0;false;75500;6133322795;-73.504745;45.375349;75502;6133322794;-73.505708;45.375557;0;23;24;9510242;Bus 32 : Service AM;"";EXO;32 AM;Stationnement incitatif Candiac;Stationnement incitatif Candiac
785117383;"{\"type\":\"LineString\",\"coordinates\":[[-73.5047963,45.3752715],[-73.5048241,45.3752754],[-73.5049993,45.3752973],[-73.505144,45.37532],[-73.5052626,45.3753439],[-73.5053417,45.3753639],[-73.5054013,45.3753792],[-73.5055029,45.3754109],[-73.5055921,45.3754427],[-73.505658,45.3754671],[-73.5056868,45.3754785],[-73.5058441,45.375503]]}";3;Avenue Charlemagne;2;40;false;true;true;false;false;false;87.0;0;3;1;0;0;false;75500;6133322795;-73.504745;45.375349;75502;6133322794;-73.505708;45.375557;2;23;24;9510242;Bus 32 : Service AM;"";EXO;32 AM;Stationnement incitatif Candiac;Stationnement incitatif Candiac
790548640;"{\"type\":\"LineString\",\"coordinates\":[[-73.5093982,45.3779594],[-73.5094308,45.3779244],[-73.50947,45.3778897],[-73.5095156,45.3778498],[-73.5095653,45.3778109],[-73.5096163,45.3777751],[-73.5096678,45.3777403],[-73.5097211,45.3777085],[-73.5097749,45.3776787],[-73.5098247,45.3776538],[-73.5098823,45.377629],[-73.5099506,45.3776037],[-73.510019,45.3775818],[-73.5100735,45.3775673],[-73.5101366,45.3775518],[-73.5102021,45.3775387],[-73.510265,45.3775286],[-73.5103173,45.3775212],[-73.510377,45.377515],[-73.5104327,45.3775117],[-73.5104888,45.3775111],[-73.5105535,45.3775123],[-73.5106253,45.3775147],[-73.5107003,45.3775201],[-73.5107904,45.3775295],[-73.5108727,45.3775399],[-73.511156,45.3775793],[-73.5112777,45.3775993],[-73.5113729,45.3776167],[-73.5114109,45.377625],[-73.5114438,45.3776322],[-73.5114553,45.3776347],[-73.511516,45.3776505],[-73.5115832,45.377669],[-73.5116471,45.3776875],[-73.5117148,45.3777098],[-73.5117755,45.3777325],[-73.5118351,45.3777563],[-73.5119028,45.3777858],[-73.5119795,45.3778217],[-73.5120588,45.3778611],[-73.5121476,45.3779084],[-73.5122267,45.3779512],[-73.5122818,45.3779782],[-73.5123278,45.3780009],[-73.5123827,45.3780232],[-73.512445,45.3780471],[-73.5125008,45.3780659],[-73.5125491,45.3780811],[-73.5125952,45.3780952],[-73.5126475,45.3781094],[-73.5127136,45.3781251],[-73.5127777,45.3781388],[-73.5128514,45.3781518],[-73.5129194,45.3781631],[-73.5129909,45.3781726],[-73.513732,45.3782588],[-73.5138039,45.3782672],[-73.5138676,45.3782748],[-73.5139256,45.3782838],[-73.5139757,45.3782946],[-73.5140236,45.37831],[-73.5140663,45.3783259],[-73.5141092,45.3783451],[-73.5141506,45.3783696],[-73.5141927,45.3783983],[-73.5142292,45.3784332],[-73.514257,45.3784662],[-73.5142794,45.3785019],[-73.5142968,45.3785394],[-73.51431,45.3785819],[-73.5143165,45.3786339],[-73.5143142,45.3786699],[-73.5143069,45.3787184],[-73.5142471,45.3789877],[-73.5142321,45.3790555],[-73.5142173,45.3791262],[-73.5140699,45.3797536],[-73.5137854,45.3809846],[-73.5137819,45.380999],[-73.5137642,45.3810711]]}";1;Place de Chambord;2;40;false;false;false;false;false;false;718.0;0;1;5;0;0;false;75512;6133322789;-73.513922;45.381027;75537;6133322679;-73.513358;45.382446;2;27;28;9510242;Bus 32 : Service AM;"";EXO;32 AM;Stationnement incitatif Candiac;Stationnement incitatif Candiac
685305041;"{\"type\":\"LineString\",\"coordinates\":[[-73.5137642,45.3810711],[-73.5137384,45.3811797],[-73.5135991,45.3817658],[-73.5134378,45.3824493],[-73.5134313,45.3824779],[-73.5134084,45.3825624]]}";2;Place de Chambord;2;40;false;false;false;false;false;false;168.0;0;1;2;0;0;false;75512;6133322789;-73.513922;45.381027;75537;6133322679;-73.513358;45.382446;2;27;28;9510242;Bus 32 : Service AM;"";EXO;32 AM;Stationnement incitatif Candiac;Stationnement incitatif Candiac
801794021;"{\"type\":\"LineString\",\"coordinates\":[[-73.5125859,45.3901456],[-73.5125052,45.390105]]}";1;Boulevard Montcalm Sud;1;50;false;true;true;false;false;false;8.0;0;1;0;0;0;false;75101;6133323378;-73.512548;45.390024;75055;6133324613;-73.5132764;45.3907607;3;32;33;9510242;Bus 32 : Service AM;"";EXO;32 AM;Stationnement incitatif Candiac;Stationnement incitatif Candiac
25654410;"{\"type\":\"LineString\",\"coordinates\":[[-73.5125052,45.390105],[-73.5125719,45.3901548]]}";2;Boulevard Montcalm Sud;1;50;false;true;true;false;false;false;8.0;0;1;0;0;0;false;75101;6133323378;-73.512548;45.390024;75055;6133324613;-73.5132764;45.3907607;0;32;33;9510242;Bus 32 : Service AM;"";EXO;32 AM;Stationnement incitatif Candiac;Stationnement incitatif Candiac
801794019;"{\"type\":\"LineString\",\"coordinates\":[[-73.5125719,45.3901548],[-73.5129372,45.3904275]]}";3;Boulevard Montcalm Sud;1;50;false;true;true;false;false;false;42.0;0;1;0;0;0;false;75101;6133323378;-73.512548;45.390024;75055;6133324613;-73.5132764;45.3907607;0;32;33;9510242;Bus 32 : Service AM;"";EXO;32 AM;Stationnement incitatif Candiac;Stationnement incitatif Candiac
801794028;"{\"type\":\"LineString\",\"coordinates\":[[-73.5129372,45.3904275],[-73.5133627,45.3907323],[-73.5134074,45.3907644],[-73.5134461,45.3907899],[-73.513533,45.3908479],[-73.514078,45.3911824],[-73.5143593,45.3913407],[-73.5144054,45.3913666],[-73.5145161,45.3914272]]}";4;Boulevard Montcalm Sud;2;50;false;true;true;false;false;false;167.0;0;3;0;0;0;false;75101;6133323378;-73.512548;45.390024;75055;6133324613;-73.5132764;45.3907607;3;32;33;9510242;Bus 32 : Service AM;"";EXO;32 AM;Stationnement incitatif Candiac;Stationnement incitatif Candiac
801794029;"{\"type\":\"LineString\",\"coordinates\":[[-73.5135078,45.3906969],[-73.5134407,45.3906542],[-73.5130242,45.3903662],[-73.5125859,45.3901456]]}";1;Boulevard Montcalm Sud;1;50;false;true;true;false;false;false;95.0;0;2;0;0;0;false;75055;6133324613;-73.5132764;45.3907607;75644;6133322651;-73.516755;45.393417;2;33;34;9510242;Bus 32 : Service AM;"";EXO;32 AM;Stationnement incitatif Candiac;Stationnement incitatif Candiac
801794021;"{\"type\":\"LineString\",\"coordinates\":[[-73.5125859,45.3901456],[-73.5125052,45.390105]]}";2;Boulevard Montcalm Sud;1;50;false;true;true;false;false;false;8.0;0;1;0;0;0;false;75055;6133324613;-73.5132764;45.3907607;75644;6133322651;-73.516755;45.393417;0;33;34;9510242;Bus 32 : Service AM;"";EXO;32 AM;Stationnement incitatif Candiac;Stationnement incitatif Candiac
25654248;"{\"type\":\"LineString\",\"coordinates\":[[-73.5134084,45.3825624],[-73.5133908,45.3826261],[-73.5133853,45.3826492],[-73.5132042,45.3833816],[-73.5131874,45.3834624],[-73.5131757,45.3835351],[-73.513171,45.3836006],[-73.5131688,45.3836685],[-73.5131725,45.3837172],[-73.5131802,45.3837805],[-73.5131909,45.3838458],[-73.5132052,45.3839078],[-73.5132358,45.3840011],[-73.5132642,45.3840738],[-73.5132998,45.3841571],[-73.5133509,45.3842772],[-73.5133836,45.3843432],[-73.5134144,45.3844097],[-73.5136421,45.384913],[-73.5137168,45.385078],[-73.5138291,45.3853223],[-73.5138679,45.3854124],[-73.5139901,45.3856752],[-73.5140254,45.3857602],[-73.5140488,45.3858331],[-73.5140645,45.3859037],[-73.5140765,45.3859908],[-73.5140769,45.3860763],[-73.5140731,45.3861211],[-73.5140639,45.3861895],[-73.5140406,45.3863055],[-73.5140246,45.3863739],[-73.5140075,45.3864473],[-73.5139774,45.3865889],[-73.5139302,45.3868136],[-73.5139121,45.3869042],[-73.5139008,45.3869543],[-73.5138769,45.3870876],[-73.5138515,45.3872313],[-73.5138323,45.3873413],[-73.5138153,45.3874229],[-73.5138029,45.3874769],[-73.5137428,45.3877267],[-73.5136061,45.3882882],[-73.513589,45.388358],[-73.5135719,45.3884291],[-73.5134882,45.388772],[-73.5134338,45.3889964],[-73.5133983,45.3891579],[-73.5133834,45.3892186],[-73.5133659,45.3892645],[-73.5133433,45.3893056],[-73.5133131,45.3893406],[-73.5132643,45.3893888],[-73.5125431,45.3900691],[-73.5125052,45.390105]]}";3;Avenue de Barcelone;2;40;false;false;false;false;false;false;876.0;0;2;7;0;0;false;75055;6133324613;-73.5132764;45.3907607;75644;6133322651;-73.516755;45.393417;0;33;34;9510242;Bus 32 : Service AM;"";EXO;32 AM;Stationnement incitatif Candiac;Stationnement incitatif Candiac
25654410;"{\"type\":\"LineString\",\"coordinates\":[[-73.5125052,45.390105],[-73.5125719,45.3901548]]}";4;Boulevard Montcalm Sud;1;50;false;true;true;false;false;false;8.0;0;1;0;0;0;false;75055;6133324613;-73.5132764;45.3907607;75644;6133322651;-73.516755;45.393417;0;33;34;9510242;Bus 32 : Service AM;"";EXO;32 AM;Stationnement incitatif Candiac;Stationnement incitatif Candiac
801794019;"{\"type\":\"LineString\",\"coordinates\":[[-73.5125719,45.3901548],[-73.5129372,45.3904275]]}";5;Boulevard Montcalm Sud;1;50;false;true;true;false;false;false;42.0;0;1;0;0;0;false;75055;6133324613;-73.5132764;45.3907607;75644;6133322651;-73.516755;45.393417;0;33;34;9510242;Bus 32 : Service AM;"";EXO;32 AM;Stationnement incitatif Candiac;Stationnement incitatif Candiac
801794028;"{\"type\":\"LineString\",\"coordinates\":[[-73.5129372,45.3904275],[-73.5133627,45.3907323],[-73.5134074,45.3907644],[-73.5134461,45.3907899],[-73.513533,45.3908479],[-73.514078,45.3911824],[-73.5143593,45.3913407],[-73.5144054,45.3913666],[-73.5145161,45.3914272]]}";6;Boulevard Montcalm Sud;2;50;false;true;true;false;false;false;167.0;0;3;0;0;0;false;75055;6133324613;-73.5132764;45.3907607;75644;6133322651;-73.516755;45.393417;0;33;34;9510242;Bus 32 : Service AM;"";EXO;32 AM;Stationnement incitatif Candiac;Stationnement incitatif Candiac
45326714;"{\"type\":\"LineString\",\"coordinates\":[[-73.5145161,45.3914272],[-73.5145903,45.391462],[-73.5147022,45.3915145],[-73.5152889,45.3917817],[-73.5153234,45.3917961],[-73.5154647,45.3918574]]}";7;Boulevard Montcalm Nord;2;50;false;true;true;false;false;false;89.0;1;2;0;0;0;false;75055;6133324613;-73.5132764;45.3907607;75644;6133322651;-73.516755;45.393417;0;33;34;9510242;Bus 32 : Service AM;"";EXO;32 AM;Stationnement incitatif Candiac;Stationnement incitatif Candiac
605318958;"{\"type\":\"LineString\",\"coordinates\":[[-73.5154647,45.3918574],[-73.5155052,45.3918755]]}";8;Boulevard Montcalm Nord;2;50;false;true;true;false;false;false;4.0;0;0;0;0;0;false;75055;6133324613;-73.5132764;45.3907607;75644;6133322651;-73.516755;45.393417;0;33;34;9510242;Bus 32 : Service AM;"";EXO;32 AM;Stationnement incitatif Candiac;Stationnement incitatif Candiac
798085675;"{\"type\":\"LineString\",\"coordinates\":[[-73.5155052,45.3918755],[-73.5156058,45.3919198],[-73.5158382,45.3920236]]}";9;Boulevard Montcalm Nord;2;50;false;true;true;false;false;false;31.0;0;1;0;0;0;false;75055;6133324613;-73.5132764;45.3907607;75644;6133322651;-73.516755;45.393417;0;33;34;9510242;Bus 32 : Service AM;"";EXO;32 AM;Stationnement incitatif Candiac;Stationnement incitatif Candiac
798085677;"{\"type\":\"LineString\",\"coordinates\":[[-73.5158382,45.3920236],[-73.516085,45.3921339],[-73.5162099,45.3921965]]}";10;Boulevard Montcalm Nord;2;50;false;true;true;false;false;false;35.0;0;0;0;0;0;false;75055;6133324613;-73.5132764;45.3907607;75644;6133322651;-73.516755;45.393417;0;33;34;9510242;Bus 32 : Service AM;"";EXO;32 AM;Stationnement incitatif Candiac;Stationnement incitatif Candiac
798085667;"{\"type\":\"LineString\",\"coordinates\":[[-73.5162099,45.3921965],[-73.5163098,45.3922543],[-73.5163777,45.3922964],[-73.5164572,45.3923478],[-73.516498,45.392386]]}";11;Boulevard Montcalm Nord;2;50;false;true;true;false;false;false;31.0;1;0;0;0;0;false;75055;6133324613;-73.5132764;45.3907607;75644;6133322651;-73.516755;45.393417;0;33;34;9510242;Bus 32 : Service AM;"";EXO;32 AM;Stationnement incitatif Candiac;Stationnement incitatif Candiac
798085657;"{\"type\":\"LineString\",\"coordinates\":[[-73.516498,45.392386],[-73.5165496,45.3924353]]}";12;Boulevard Montcalm Nord;2;50;false;true;true;false;false;false;7.0;0;0;0;0;0;false;75055;6133324613;-73.5132764;45.3907607;75644;6133322651;-73.516755;45.393417;0;33;34;9510242;Bus 32 : Service AM;"";EXO;32 AM;Stationnement incitatif Candiac;Stationnement incitatif Candiac
798085664;"{\"type\":\"LineString\",\"coordinates\":[[-73.5165496,45.3924353],[-73.5165799,45.3924623],[-73.5166109,45.3924898],[-73.5166726,45.3925413],[-73.5167319,45.3925949],[-73.5167666,45.3926286],[-73.5169504,45.3927919]]}";13;Boulevard Montcalm Nord;1;50;false;true;true;false;false;false;51.0;0;1;0;0;0;false;75055;6133324613;-73.5132764;45.3907607;75644;6133322651;-73.516755;45.393417;0;33;34;9510242;Bus 32 : Service AM;"";EXO;32 AM;Stationnement incitatif Candiac;Stationnement incitatif Candiac
798090940;"{\"type\":\"LineString\",\"coordinates\":[[-73.517012,45.3928653],[-73.5169504,45.3927919]]}";14;Boulevard Montcalm Nord;2;50;false;false;true;false;false;false;10.0;0;0;0;0;0;false;75055;6133324613;-73.5132764;45.3907607;75644;6133322651;-73.516755;45.393417;0;33;34;9510242;Bus 32 : Service AM;"";EXO;32 AM;Stationnement incitatif Candiac;Stationnement incitatif Candiac
685125003;"{\"type\":\"LineString\",\"coordinates\":[[-73.5171372,45.3930185],[-73.5170727,45.3929397],[-73.517012,45.3928653]]}";15;Boulevard Montcalm Nord;2;50;false;false;true;false;false;false;20.0;0;1;0;0;0;false;75055;6133324613;-73.5132764;45.3907607;75644;6133322651;-73.516755;45.393417;0;33;34;9510242;Bus 32 : Service AM;"";EXO;32 AM;Stationnement incitatif Candiac;Stationnement incitatif Candiac
685125000;"{\"type\":\"LineString\",\"coordinates\":[[-73.5173378,45.393281],[-73.5172646,45.3931798],[-73.5171372,45.3930185]]}";16;Boulevard Montcalm Nord;2;50;false;false;true;false;false;false;34.0;0;0;0;0;0;false;75055;6133324613;-73.5132764;45.3907607;75644;6133322651;-73.516755;45.393417;0;33;34;9510242;Bus 32 : Service AM;"";EXO;32 AM;Stationnement incitatif Candiac;Stationnement incitatif Candiac
573205707;"{\"type\":\"LineString\",\"coordinates\":[[-73.5166644,45.393351],[-73.5169161,45.3933324],[-73.5170041,45.3933282],[-73.5171998,45.3933179],[-73.5172392,45.3933119],[-73.5172645,45.3933059],[-73.5172914,45.3932977],[-73.5173378,45.393281]]}";17;"";1;50;false;true;true;false;true;false;54.0;0;1;1;0;0;false;75055;6133324613;-73.5132764;45.3907607;75644;6133322651;-73.516755;45.393417;1;33;34;9510242;Bus 32 : Service AM;"";EXO;32 AM;Stationnement incitatif Candiac;Stationnement incitatif Candiac
