way_id;shape;index;name;nb_lanes;legal_speed;speed_zone_30;oneway;shares_bike;bike_box;bus_lane;dedicated_bus_lane;length;nb_traffic_signals;nb_crossings;nb_stops;nb_give_ways;nb_lvl_crossings;roundabout;stop_id_orig;node_id_orig;coord_x_orig;coord_y_orig;stop_id_dest;node_id_dest;coord_x_dest;coord_y_dest;nb_neighbouring_ways_bus_stop;ordre_orig;ordre_dest;id_line;line_name;colour;operator;ref;from;to
45590289;"{\"type\":\"LineString\",\"coordinates\":[[-73.7807617,45.5322214],[-73.7808222,45.5324642],[-73.7808609,45.5326124]]}";1;Rue Montgolfier;2;50;false;false;true;false;false;false;45.0;0;0;0;0;0;false;"49040;45001";6269510993;-73.78099;45.5326;41312;6269510998;-73.77844;45.532721;1;0;1;9312774;Bus : 40 E - Direction Métro Montmorency;"";STL;40E;Montgolfier / Notre-Dame;Métro Montmorency
694140517;"{\"type\":\"LineString\",\"coordinates\":[[-73.7806729,45.531894],[-73.7807617,45.5322214]]}";2;Rue Montgolfier;2;50;false;false;true;false;false;false;38.0;1;0;0;0;0;false;"49040;45001";6269510993;-73.78099;45.5326;41312;6269510998;-73.77844;45.532721;0;0;1;9312774;Bus : 40 E - Direction Métro Montmorency;"";STL;40E;Montgolfier / Notre-Dame;Métro Montmorency
45590569;"{\"type\":\"LineString\",\"coordinates\":[[-73.780612,45.5317752],[-73.7806729,45.531894]]}";3;Rue Montgolfier;1;50;false;false;true;false;false;false;15.0;2;0;0;0;0;false;"49040;45001";6269510993;-73.78099;45.5326;41312;6269510998;-73.77844;45.532721;0;0;1;9312774;Bus : 40 E - Direction Métro Montmorency;"";STL;40E;Montgolfier / Notre-Dame;Métro Montmorency
292641474;"{\"type\":\"LineString\",\"coordinates\":[[-73.780612,45.5317752],[-73.7804318,45.5318075],[-73.7797987,45.531921],[-73.7792105,45.5320264],[-73.7783189,45.5321863]]}";4;Boulevard Notre-Dame;1;50;false;true;true;false;false;false;185.0;2;0;0;0;0;false;"49040;45001";6269510993;-73.78099;45.5326;41312;6269510998;-73.77844;45.532721;0;0;1;9312774;Bus : 40 E - Direction Métro Montmorency;"";STL;40E;Montgolfier / Notre-Dame;Métro Montmorency
669709376;"{\"type\":\"LineString\",\"coordinates\":[[-73.7783189,45.5321863],[-73.7783586,45.5323024]]}";5;Avenue Clarendon;2;50;false;false;true;false;false;false;14.0;2;0;0;0;0;false;"49040;45001";6269510993;-73.78099;45.5326;41312;6269510998;-73.77844;45.532721;0;0;1;9312774;Bus : 40 E - Direction Métro Montmorency;"";STL;40E;Montgolfier / Notre-Dame;Métro Montmorency
480511032;"{\"type\":\"LineString\",\"coordinates\":[[-73.7783586,45.5323024],[-73.7786253,45.5330834]]}";6;Avenue Clarendon;2;50;false;false;true;false;false;false;45.0;1;0;0;0;0;false;"49040;45001";6269510993;-73.78099;45.5326;41312;6269510998;-73.77844;45.532721;1;0;1;9312774;Bus : 40 E - Direction Métro Montmorency;"";STL;40E;Montgolfier / Notre-Dame;Métro Montmorency
480511032;"{\"type\":\"LineString\",\"coordinates\":[[-73.7783586,45.5323024],[-73.7786253,45.5330834]]}";1;Avenue Clarendon;2;50;false;false;true;false;false;false;45.0;1;0;0;0;0;false;41312;6269510998;-73.77844;45.532721;43127;6269510866;-73.77655;45.534204;1;1;2;9312774;Bus : 40 E - Direction Métro Montmorency;"";STL;40E;Montgolfier / Notre-Dame;Métro Montmorency
45285031;"{\"type\":\"LineString\",\"coordinates\":[[-73.7786253,45.5330834],[-73.7783152,45.533155],[-73.7780166,45.5332981],[-73.7774047,45.5336814],[-73.7772724,45.5337762],[-73.7769945,45.533981],[-73.7767474,45.5341794],[-73.7764578,45.5344514],[-73.7760297,45.534885],[-73.7759209,45.5349947],[-73.7756232,45.5353025],[-73.7754653,45.5354198],[-73.7750331,45.5355876],[-73.7749657,45.5356138],[-73.7738921,45.5360256],[-73.7734466,45.5362823],[-73.7721588,45.5369917],[-73.7713844,45.537426],[-73.7712037,45.5375274],[-73.7705756,45.5379264],[-73.7704374,45.5380142],[-73.7697012,45.5385896],[-73.7693338,45.5388734],[-73.7682182,45.539737],[-73.7676181,45.5402178],[-73.7674926,45.5403287],[-73.7672813,45.5405104],[-73.7670978,45.5406683],[-73.7667965,45.5409274],[-73.7661293,45.5414426],[-73.7655088,45.5419935],[-73.7648141,45.5427151],[-73.7645496,45.5430391],[-73.7644718,45.5431344],[-73.7639994,45.5436514],[-73.7629157,45.5446108],[-73.7623175,45.5450967],[-73.7620263,45.545356],[-73.7619587,45.5454142],[-73.7617355,45.5456423],[-73.7614336,45.5458934],[-73.7612678,45.5461241],[-73.7611488,45.5462934],[-73.7610672,45.5464094],[-73.7610166,45.5464814],[-73.7608788,45.5467449],[-73.7607358,45.5470185],[-73.7605003,45.5472409],[-73.7602704,45.5474053],[-73.7599609,45.5476283]]}";2;Chemin du Souvenir;2;50;false;false;true;false;false;false;1102.5;0;0;2;0;0;false;41312;6269510998;-73.77844;45.532721;43127;6269510866;-73.77655;45.534204;1;1;2;9312774;Bus : 40 E - Direction Métro Montmorency;"";STL;40E;Montgolfier / Notre-Dame;Métro Montmorency
631933869;"{\"type\":\"LineString\",\"coordinates\":[[-73.7599609,45.5476283],[-73.7595635,45.5478968],[-73.7594471,45.5479731],[-73.7589235,45.548316],[-73.7583445,45.5485677],[-73.758199,45.5486308],[-73.7580636,45.5486894],[-73.7577366,45.5488311],[-73.7571942,45.5490409],[-73.7565614,45.5492594],[-73.7561145,45.5494025],[-73.7558002,45.5495031],[-73.7552971,45.5496596],[-73.7548858,45.5497182],[-73.7545524,45.5497325],[-73.7538728,45.5497611],[-73.7535908,45.549767],[-73.7527571,45.549812],[-73.7524868,45.549872],[-73.7514698,45.5500949],[-73.7514175,45.5501065],[-73.7509677,45.5502064],[-73.7508125,45.5502409],[-73.7505814,45.5502922],[-73.7503625,45.5503438],[-73.7502099,45.5504095],[-73.7498322,45.5505721],[-73.7495604,45.5506951],[-73.7490697,45.5508698],[-73.7487217,45.550965]]}";1;Chemin du Souvenir;2;50;false;false;false;false;false;false;486.5;0;0;0;0;0;false;43131;6269510619;-73.74965;45.550571;43133;6269510601;-73.7465;45.551117;1;17;18;9312774;Bus : 40 E - Direction Métro Montmorency;"";STL;40E;Montgolfier / Notre-Dame;Métro Montmorency
45755802;"{\"type\":\"LineString\",\"coordinates\":[[-73.7487217,45.550965],[-73.7481498,45.5509924],[-73.7470416,45.5510456],[-73.7464742,45.5512104]]}";2;Boulevard du Souvenir;2;50;false;true;false;false;false;false;90.0;0;0;0;0;0;false;43131;6269510619;-73.74965;45.550571;43133;6269510601;-73.7465;45.551117;1;17;18;9312774;Bus : 40 E - Direction Métro Montmorency;"";STL;40E;Montgolfier / Notre-Dame;Métro Montmorency
45755816;"{\"type\":\"LineString\",\"coordinates\":[[-73.7464742,45.5512104],[-73.7460213,45.5514124]]}";1;Boulevard du Souvenir;2;50;false;true;false;false;false;false;42.0;1;0;0;0;0;false;43133;6269510601;-73.7465;45.551117;43135;6269510598;-73.74498;45.551861;2;18;19;9312774;Bus : 40 E - Direction Métro Montmorency;"";STL;40E;Montgolfier / Notre-Dame;Métro Montmorency
45755808;"{\"type\":\"LineString\",\"coordinates\":[[-73.7460213,45.5514124],[-73.7458915,45.551492]]}";2;Boulevard du Souvenir;2;50;false;true;false;false;false;false;14.0;2;0;0;0;0;false;43133;6269510601;-73.7465;45.551117;43135;6269510598;-73.74498;45.551861;0;18;19;9312774;Bus : 40 E - Direction Métro Montmorency;"";STL;40E;Montgolfier / Notre-Dame;Métro Montmorency
45755797;"{\"type\":\"LineString\",\"coordinates\":[[-73.7458915,45.551492],[-73.745502,45.5517217]]}";3;Boulevard du Souvenir;2;50;false;true;false;false;false;false;40.0;1;0;0;0;0;false;43133;6269510601;-73.7465;45.551117;43135;6269510598;-73.74498;45.551861;0;18;19;9312774;Bus : 40 E - Direction Métro Montmorency;"";STL;40E;Montgolfier / Notre-Dame;Métro Montmorency
45755822;"{\"type\":\"LineString\",\"coordinates\":[[-73.745502,45.5517217],[-73.7449955,45.5520312]]}";4;Boulevard du Souvenir;2;50;false;true;false;false;false;false;53.0;0;0;0;0;0;false;43133;6269510601;-73.7465;45.551117;43135;6269510598;-73.74498;45.551861;2;18;19;9312774;Bus : 40 E - Direction Métro Montmorency;"";STL;40E;Montgolfier / Notre-Dame;Métro Montmorency
45755795;"{\"type\":\"LineString\",\"coordinates\":[[-73.7449955,45.5520312],[-73.7445308,45.552312],[-73.7439566,45.5526589],[-73.7432929,45.5531196],[-73.7419873,45.5542124],[-73.7416092,45.5545053],[-73.7412844,45.5547087]]}";1;Boulevard du Souvenir;2;50;false;true;false;false;false;false;208.5;0;0;0;0;0;false;43137;6269510569;-73.74309;45.55314;43140;6269510214;-73.74078;45.554846;1;20;21;9312774;Bus : 40 E - Direction Métro Montmorency;"";STL;40E;Montgolfier / Notre-Dame;Métro Montmorency
45755779;"{\"type\":\"LineString\",\"coordinates\":[[-73.7412844,45.5547087],[-73.7411311,45.5547903],[-73.7409862,45.5548674]]}";2;Boulevard du Souvenir;2;50;false;true;false;false;false;false;30.0;0;0;0;0;0;false;43137;6269510569;-73.74309;45.55314;43140;6269510214;-73.74078;45.554846;0;20;21;9312774;Bus : 40 E - Direction Métro Montmorency;"";STL;40E;Montgolfier / Notre-Dame;Métro Montmorency
39107641;"{\"type\":\"LineString\",\"coordinates\":[[-73.7409862,45.5548674],[-73.7405587,45.555033],[-73.7402411,45.5551291],[-73.739769,45.5552313],[-73.7389965,45.5553515],[-73.7382665,45.5554402],[-73.7370756,45.5555804],[-73.7368015,45.5556127],[-73.736444,45.5556775],[-73.7360339,45.5558014],[-73.7359086,45.5558572],[-73.7343759,45.5566531],[-73.7342457,45.5567193],[-73.7327732,45.5574678]]}";3;Boulevard du Souvenir;2;50;false;true;false;false;false;false;359.0;2;0;0;0;0;false;43137;6269510569;-73.74309;45.55314;43140;6269510214;-73.74078;45.554846;1;20;21;9312774;Bus : 40 E - Direction Métro Montmorency;"";STL;40E;Montgolfier / Notre-Dame;Métro Montmorency
45755779;"{\"type\":\"LineString\",\"coordinates\":[[-73.7412844,45.5547087],[-73.7411311,45.5547903],[-73.7409862,45.5548674]]}";1;Boulevard du Souvenir;2;50;false;true;false;false;false;false;30.0;0;0;0;0;0;false;43140;6269510214;-73.74078;45.554846;43142;6269510494;-73.73616;45.555675;2;21;22;9312774;Bus : 40 E - Direction Métro Montmorency;"";STL;40E;Montgolfier / Notre-Dame;Métro Montmorency
39107641;"{\"type\":\"LineString\",\"coordinates\":[[-73.7409862,45.5548674],[-73.7405587,45.555033],[-73.7402411,45.5551291],[-73.739769,45.5552313],[-73.7389965,45.5553515],[-73.7382665,45.5554402],[-73.7370756,45.5555804],[-73.7368015,45.5556127],[-73.736444,45.5556775],[-73.7360339,45.5558014],[-73.7359086,45.5558572],[-73.7343759,45.5566531],[-73.7342457,45.5567193],[-73.7327732,45.5574678]]}";2;Boulevard du Souvenir;2;50;false;true;false;false;false;false;718.0;2;0;0;0;0;false;43140;6269510214;-73.74078;45.554846;43142;6269510494;-73.73616;45.555675;2;21;22;9312774;Bus : 40 E - Direction Métro Montmorency;"";STL;40E;Montgolfier / Notre-Dame;Métro Montmorency
39107641;"{\"type\":\"LineString\",\"coordinates\":[[-73.7409862,45.5548674],[-73.7405587,45.555033],[-73.7402411,45.5551291],[-73.739769,45.5552313],[-73.7389965,45.5553515],[-73.7382665,45.5554402],[-73.7370756,45.5555804],[-73.7368015,45.5556127],[-73.736444,45.5556775],[-73.7360339,45.5558014],[-73.7359086,45.5558572],[-73.7343759,45.5566531],[-73.7342457,45.5567193],[-73.7327732,45.5574678]]}";1;Boulevard du Souvenir;2;50;false;true;false;false;false;false;359.0;2;0;0;0;0;false;43142;6269510494;-73.73616;45.555675;43144;6269510314;-73.72882;45.559496;1;22;23;9312774;Bus : 40 E - Direction Métro Montmorency;"";STL;40E;Montgolfier / Notre-Dame;Métro Montmorency
39107635;"{\"type\":\"LineString\",\"coordinates\":[[-73.7327732,45.5574678],[-73.7311007,45.5583441]]}";2;Boulevard du Souvenir;2;50;false;true;false;false;false;false;163.0;0;0;0;0;0;false;43142;6269510494;-73.73616;45.555675;43144;6269510314;-73.72882;45.559496;0;22;23;9312774;Bus : 40 E - Direction Métro Montmorency;"";STL;40E;Montgolfier / Notre-Dame;Métro Montmorency
456813739;"{\"type\":\"LineString\",\"coordinates\":[[-73.7311007,45.5583441],[-73.7301385,45.558897],[-73.7292079,45.5593977],[-73.728302,45.5599009],[-73.7273286,45.5603131],[-73.7271301,45.5603887]]}";3;Boulevard du Souvenir;3;50;false;true;false;false;false;false;192.5;1;0;0;0;0;false;43142;6269510494;-73.73616;45.555675;43144;6269510314;-73.72882;45.559496;1;22;23;9312774;Bus : 40 E - Direction Métro Montmorency;"";STL;40E;Montgolfier / Notre-Dame;Métro Montmorency
456813739;"{\"type\":\"LineString\",\"coordinates\":[[-73.7311007,45.5583441],[-73.7301385,45.558897],[-73.7292079,45.5593977],[-73.728302,45.5599009],[-73.7273286,45.5603131],[-73.7271301,45.5603887]]}";1;Boulevard du Souvenir;3;50;false;true;false;false;false;false;192.5;1;0;0;0;0;false;43144;6269510314;-73.72882;45.559496;43147;6269510273;-73.72528;45.560919;1;23;24;9312774;Bus : 40 E - Direction Métro Montmorency;"";STL;40E;Montgolfier / Notre-Dame;Métro Montmorency
673263996;"{\"type\":\"LineString\",\"coordinates\":[[-73.7271301,45.5603887],[-73.72707,45.5604132]]}";2;Boulevard du Souvenir;3;50;false;true;false;false;false;false;6.0;1;0;0;0;0;false;43144;6269510314;-73.72882;45.559496;43147;6269510273;-73.72528;45.560919;0;23;24;9312774;Bus : 40 E - Direction Métro Montmorency;"";STL;40E;Montgolfier / Notre-Dame;Métro Montmorency
475251790;"{\"type\":\"LineString\",\"coordinates\":[[-73.72707,45.5604132],[-73.7270131,45.5604364],[-73.7269504,45.5604619]]}";3;Boulevard du Souvenir;3;50;false;true;false;false;false;false;11.0;1;0;0;0;0;false;43144;6269510314;-73.72882;45.559496;43147;6269510273;-73.72528;45.560919;0;23;24;9312774;Bus : 40 E - Direction Métro Montmorency;"";STL;40E;Montgolfier / Notre-Dame;Métro Montmorency
475251788;"{\"type\":\"LineString\",\"coordinates\":[[-73.7269504,45.5604619],[-73.7266639,45.5605658],[-73.7264044,45.5606501],[-73.7255372,45.5609316]]}";4;Boulevard du Souvenir;3;50;false;true;false;false;false;false;122.0;1;0;0;0;0;false;43144;6269510314;-73.72882;45.559496;43147;6269510273;-73.72528;45.560919;0;23;24;9312774;Bus : 40 E - Direction Métro Montmorency;"";STL;40E;Montgolfier / Notre-Dame;Métro Montmorency
475237531;"{\"type\":\"LineString\",\"coordinates\":[[-73.7255372,45.5609316],[-73.7249098,45.5611404],[-73.7238338,45.5614515],[-73.722752,45.5617595]]}";5;Boulevard du Souvenir;3;50;false;true;false;false;false;false;118.0;1;0;0;0;0;false;43144;6269510314;-73.72882;45.559496;43147;6269510273;-73.72528;45.560919;1;23;24;9312774;Bus : 40 E - Direction Métro Montmorency;"";STL;40E;Montgolfier / Notre-Dame;Métro Montmorency
475237531;"{\"type\":\"LineString\",\"coordinates\":[[-73.7255372,45.5609316],[-73.7249098,45.5611404],[-73.7238338,45.5614515],[-73.722752,45.5617595]]}";1;Boulevard du Souvenir;3;50;false;true;false;false;false;false;118.0;1;0;0;0;0;false;43148;6269510225;-73.72296;45.561631;"46509;43507;46443";6269510304;-73.72082;45.559592;1;25;26;9312774;Bus : 40 E - Direction Métro Montmorency;"";STL;40E;Montgolfier / Notre-Dame;Métro Montmorency
29081985;"{\"type\":\"LineString\",\"coordinates\":[[-73.722752,45.5617595],[-73.7225279,45.561532],[-73.7214827,45.5604479],[-73.7211098,45.5600515],[-73.7210472,45.5599848],[-73.7205915,45.5595102]]}";2;Boulevard de l'Avenir;3;50;false;true;false;false;false;false;151.0;1;0;0;0;0;false;43148;6269510225;-73.72296;45.561631;"46509;43507;46443";6269510304;-73.72082;45.559592;1;25;26;9312774;Bus : 40 E - Direction Métro Montmorency;"";STL;40E;Montgolfier / Notre-Dame;Métro Montmorency
29081985;"{\"type\":\"LineString\",\"coordinates\":[[-73.722752,45.5617595],[-73.7225279,45.561532],[-73.7214827,45.5604479],[-73.7211098,45.5600515],[-73.7210472,45.5599848],[-73.7205915,45.5595102]]}";1;Boulevard de l'Avenir;3;50;false;true;false;false;false;false;151.0;1;0;0;0;0;false;"46509;43507;46443";6269510304;-73.72082;45.559592;"48126;48161;48170;48133;48165;48136;48140;48148;48176;48156;48913;48102;48145;48842";5894580468;-73.72102;45.558276;1;26;27;9312774;Bus : 40 E - Direction Métro Montmorency;"";STL;40E;Montgolfier / Notre-Dame;Métro Montmorency
695738775;"{\"type\":\"LineString\",\"coordinates\":[[-73.7205915,45.5595102],[-73.7199464,45.5588146]]}";2;Boulevard de l'Avenir;3;50;false;true;false;false;false;false;93.0;0;0;0;0;0;false;"46509;43507;46443";6269510304;-73.72082;45.559592;"48126;48161;48170;48133;48165;48136;48140;48148;48176;48156;48913;48102;48145;48842";5894580468;-73.72102;45.558276;0;26;27;9312774;Bus : 40 E - Direction Métro Montmorency;"";STL;40E;Montgolfier / Notre-Dame;Métro Montmorency
475848926;"{\"type\":\"LineString\",\"coordinates\":[[-73.7199464,45.5588146],[-73.719872,45.558742],[-73.7198603,45.5587298],[-73.7197703,45.558636]]}";3;Boulevard de l'Avenir;3;50;false;true;false;false;false;false;25.0;0;1;0;0;0;false;"46509;43507;46443";6269510304;-73.72082;45.559592;"48126;48161;48170;48133;48165;48136;48140;48148;48176;48156;48913;48102;48145;48842";5894580468;-73.72102;45.558276;0;26;27;9312774;Bus : 40 E - Direction Métro Montmorency;"";STL;40E;Montgolfier / Notre-Dame;Métro Montmorency
673250003;"{\"type\":\"LineString\",\"coordinates\":[[-73.7200309,45.5584789],[-73.7198217,45.5586049],[-73.7197703,45.558636]]}";4;"";1;30;false;false;false;false;false;false;27.0;0;1;0;0;0;false;"46509;43507;46443";6269510304;-73.72082;45.559592;"48126;48161;48170;48133;48165;48136;48140;48148;48176;48156;48913;48102;48145;48842";5894580468;-73.72102;45.558276;0;26;27;9312774;Bus : 40 E - Direction Métro Montmorency;"";STL;40E;Montgolfier / Notre-Dame;Métro Montmorency
673246437;"{\"type\":\"LineString\",\"coordinates\":[[-73.7200309,45.5584789],[-73.720124,45.5585758],[-73.7201474,45.5585648]]}";5;"";1;30;false;true;false;false;false;false;16.0;0;0;0;0;0;false;"46509;43507;46443";6269510304;-73.72082;45.559592;"48126;48161;48170;48133;48165;48136;48140;48148;48176;48156;48913;48102;48145;48842";5894580468;-73.72102;45.558276;0;26;27;9312774;Bus : 40 E - Direction Métro Montmorency;"";STL;40E;Montgolfier / Notre-Dame;Métro Montmorency
624217210;"{\"type\":\"LineString\",\"coordinates\":[[-73.7201474,45.5585648],[-73.720206,45.5585372],[-73.7203325,45.5584776]]}";6;"";1;30;false;true;false;false;false;false;18.0;0;0;0;0;0;false;"46509;43507;46443";6269510304;-73.72082;45.559592;"48126;48161;48170;48133;48165;48136;48140;48148;48176;48156;48913;48102;48145;48842";5894580468;-73.72102;45.558276;0;26;27;9312774;Bus : 40 E - Direction Métro Montmorency;"";STL;40E;Montgolfier / Notre-Dame;Métro Montmorency
673264013;"{\"type\":\"LineString\",\"coordinates\":[[-73.7203325,45.5584776],[-73.7205612,45.55837]]}";7;"";1;30;false;true;false;false;false;false;22.0;0;0;0;0;0;false;"46509;43507;46443";6269510304;-73.72082;45.559592;"48126;48161;48170;48133;48165;48136;48140;48148;48176;48156;48913;48102;48145;48842";5894580468;-73.72102;45.558276;0;26;27;9312774;Bus : 40 E - Direction Métro Montmorency;"";STL;40E;Montgolfier / Notre-Dame;Métro Montmorency
673264014;"{\"type\":\"LineString\",\"coordinates\":[[-73.7205612,45.55837],[-73.7207712,45.5582711]]}";8;"";1;30;false;true;false;false;false;false;20.0;0;0;0;0;0;false;"46509;43507;46443";6269510304;-73.72082;45.559592;"48126;48161;48170;48133;48165;48136;48140;48148;48176;48156;48913;48102;48145;48842";5894580468;-73.72102;45.558276;0;26;27;9312774;Bus : 40 E - Direction Métro Montmorency;"";STL;40E;Montgolfier / Notre-Dame;Métro Montmorency
475848923;"{\"type\":\"LineString\",\"coordinates\":[[-73.7207712,45.5582711],[-73.7209137,45.558204]]}";9;"";1;30;false;true;true;false;false;false;14.0;0;0;0;0;0;false;"46509;43507;46443";6269510304;-73.72082;45.559592;"48126;48161;48170;48133;48165;48136;48140;48148;48176;48156;48913;48102;48145;48842";5894580468;-73.72102;45.558276;1;26;27;9312774;Bus : 40 E - Direction Métro Montmorency;"";STL;40E;Montgolfier / Notre-Dame;Métro Montmorency
