way_id;shape;index;name;nb_lanes;legal_speed;speed_zone_30;oneway;shares_bike;bike_box;bus_lane;dedicated_bus_lane;length;nb_traffic_signals;nb_crossings;nb_stops;nb_give_ways;nb_lvl_crossings;roundabout;stop_id_orig;node_id_orig;coord_x_orig;coord_y_orig;stop_id_dest;node_id_dest;coord_x_dest;coord_y_dest;nb_neighbouring_ways_bus_stop;ordre_orig;ordre_dest;id_line;line_name;colour;operator;ref;from;to
354710813;"{\"type\":\"LineString\",\"coordinates\":[[-73.5556671,45.4962174],[-73.5572645,45.496815],[-73.5587554,45.4973796],[-73.5596678,45.4977972]]}";1;Boulevard Robert-Bourassa;4;50;false;true;true;false;false;false;359.0;4;0;0;0;0;false;74529;6132969004;-73.558424;45.497412;74212;6132969229;-73.566016;45.49807;1;22;23;9530075;Bus 500 : Direction Montréal;"";EXO;500 N;ch. des Patriotes / montée Daigneault;Terminus Centre-ville
428978766;"{\"type\":\"LineString\",\"coordinates\":[[-73.5596678,45.4977972],[-73.5605507,45.4982539],[-73.5609011,45.4984149],[-73.5611605,45.4985326],[-73.5612381,45.4985678]]}";2;Boulevard Robert-Bourassa;4;50;false;true;true;false;false;false;150.0;2;1;0;0;0;false;74529;6132969004;-73.558424;45.497412;74212;6132969229;-73.566016;45.49807;0;22;23;9530075;Bus 500 : Direction Montréal;"";EXO;500 N;ch. des Patriotes / montée Daigneault;Terminus Centre-ville
385754231;"{\"type\":\"LineString\",\"coordinates\":[[-73.5612381,45.4985678],[-73.561372,45.4986173],[-73.5615648,45.4986882],[-73.562215,45.4989662],[-73.5625386,45.4991131]]}";3;Boulevard Robert-Bourassa;4;50;false;true;true;false;false;false;119.0;2;1;0;0;0;false;74529;6132969004;-73.558424;45.497412;74212;6132969229;-73.566016;45.49807;0;22;23;9530075;Bus 500 : Direction Montréal;"";EXO;500 N;ch. des Patriotes / montée Daigneault;Terminus Centre-ville
456316925;"{\"type\":\"LineString\",\"coordinates\":[[-73.5625386,45.4991131],[-73.5633661,45.4996899]]}";4;Boulevard Robert-Bourassa;4;50;false;true;true;false;false;false;91.0;2;0;0;0;0;false;74529;6132969004;-73.558424;45.497412;74212;6132969229;-73.566016;45.49807;0;22;23;9530075;Bus 500 : Direction Montréal;"";EXO;500 N;ch. des Patriotes / montée Daigneault;Terminus Centre-ville
165325230;"{\"type\":\"LineString\",\"coordinates\":[[-73.5633661,45.4996899],[-73.5635034,45.4995899]]}";5;Rue Saint-Antoine Ouest;1;50;false;false;true;false;false;false;16.0;2;0;0;0;0;false;74529;6132969004;-73.558424;45.497412;74212;6132969229;-73.566016;45.49807;0;22;23;9530075;Bus 500 : Direction Montréal;"";EXO;500 N;ch. des Patriotes / montée Daigneault;Terminus Centre-ville
456318009;"{\"type\":\"LineString\",\"coordinates\":[[-73.5635034,45.4995899],[-73.5638176,45.4993408]]}";6;Rue Saint-Antoine Ouest;1;50;false;false;true;false;false;false;37.0;1;0;0;0;0;false;74529;6132969004;-73.558424;45.497412;74212;6132969229;-73.566016;45.49807;0;22;23;9530075;Bus 500 : Direction Montréal;"";EXO;500 N;ch. des Patriotes / montée Daigneault;Terminus Centre-ville
114875727;"{\"type\":\"LineString\",\"coordinates\":[[-73.5638176,45.4993408],[-73.5646367,45.4986819]]}";7;Rue Saint-Antoine Ouest;1;50;false;false;true;false;false;false;98.0;0;0;0;0;0;false;74529;6132969004;-73.558424;45.497412;74212;6132969229;-73.566016;45.49807;0;22;23;9530075;Bus 500 : Direction Montréal;"";EXO;500 N;ch. des Patriotes / montée Daigneault;Terminus Centre-ville
114875712;"{\"type\":\"LineString\",\"coordinates\":[[-73.5646367,45.4986819],[-73.5647776,45.4985685]]}";8;Rue Saint-Antoine Ouest;4;50;false;false;true;false;false;false;17.0;0;0;0;0;0;false;74529;6132969004;-73.558424;45.497412;74212;6132969229;-73.566016;45.49807;0;22;23;9530075;Bus 500 : Direction Montréal;"";EXO;500 N;ch. des Patriotes / montée Daigneault;Terminus Centre-ville
465653668;"{\"type\":\"LineString\",\"coordinates\":[[-73.5647776,45.4985685],[-73.5651977,45.4982305]]}";9;Rue Saint-Antoine Ouest;4;50;false;false;true;false;false;false;50.0;1;0;0;0;0;false;74529;6132969004;-73.558424;45.497412;74212;6132969229;-73.566016;45.49807;0;22;23;9530075;Bus 500 : Direction Montréal;"";EXO;500 N;ch. des Patriotes / montée Daigneault;Terminus Centre-ville
685460902;"{\"type\":\"LineString\",\"coordinates\":[[-73.5651977,45.4982305],[-73.565441,45.4983539]]}";10;Rue Mansfield;1;50;false;true;true;false;false;false;24.0;1;0;0;0;0;false;74529;6132969004;-73.558424;45.497412;74212;6132969229;-73.566016;45.49807;0;22;23;9530075;Bus 500 : Direction Montréal;"";EXO;500 N;ch. des Patriotes / montée Daigneault;Terminus Centre-ville
114875718;"{\"type\":\"LineString\",\"coordinates\":[[-73.565441,45.4983539],[-73.5655343,45.4983086]]}";11;"";1;50;false;true;true;false;true;false;9.0;0;0;0;0;0;false;74529;6132969004;-73.558424;45.497412;74212;6132969229;-73.566016;45.49807;0;22;23;9530075;Bus 500 : Direction Montréal;"";EXO;500 N;ch. des Patriotes / montée Daigneault;Terminus Centre-ville
685460901;"{\"type\":\"LineString\",\"coordinates\":[[-73.5655343,45.4983086],[-73.5656361,45.4982765],[-73.5657572,45.4981627]]}";12;"";1;50;false;true;true;false;true;false;25.0;0;0;0;0;0;false;74529;6132969004;-73.558424;45.497412;74212;6132969229;-73.566016;45.49807;0;22;23;9530075;Bus 500 : Direction Montréal;"";EXO;500 N;ch. des Patriotes / montée Daigneault;Terminus Centre-ville
685493152;"{\"type\":\"LineString\",\"coordinates\":[[-73.5657572,45.4981627],[-73.5660382,45.4978987]]}";13;"";1;50;false;true;true;false;true;false;37.0;0;0;0;0;0;false;74529;6132969004;-73.558424;45.497412;74212;6132969229;-73.566016;45.49807;1;22;23;9530075;Bus 500 : Direction Montréal;"";EXO;500 N;ch. des Patriotes / montée Daigneault;Terminus Centre-ville
