way_id;shape;index;name;nb_lanes;legal_speed;speed_zone_30;oneway;shares_bike;bike_box;bus_lane;dedicated_bus_lane;length;nb_traffic_signals;nb_crossings;nb_stops;nb_give_ways;nb_lvl_crossings;roundabout;stop_id_orig;node_id_orig;coord_x_orig;coord_y_orig;stop_id_dest;node_id_dest;coord_x_dest;coord_y_dest;nb_neighbouring_ways_bus_stop;ordre_orig;ordre_dest;id_line;line_name;colour;operator;ref;from;to
676886050;"{\"type\":\"LineString\",\"coordinates\":[[-73.8932807,45.5613137],[-73.8931903,45.5613511],[-73.8930223,45.5613915],[-73.8928026,45.5614415]]}";1;"";1;50;false;false;true;false;true;false;41.0;0;1;0;0;0;false;81000;6119526196;-73.892828;45.561425;81004;6119526195;-73.89572;45.561493;1;0;1;9397387;Bus 90 : GARE/ DEUX-MONTAGNES;"";EXO;90 O;Terminus Saint-Eustache;Gare Deux-Montagnes
138428141;"{\"type\":\"LineString\",\"coordinates\":[[-73.8937986,45.5609543],[-73.8936234,45.560945],[-73.8935657,45.560978],[-73.8935027,45.5610387],[-73.8934764,45.5611104],[-73.8934449,45.5611912],[-73.8933793,45.5612519],[-73.893319,45.5612978],[-73.8932807,45.5613137]]}";2;"";1;50;false;false;true;false;true;false;65.0;0;0;0;0;0;false;81000;6119526196;-73.892828;45.561425;81004;6119526195;-73.89572;45.561493;0;0;1;9397387;Bus 90 : GARE/ DEUX-MONTAGNES;"";EXO;90 O;Terminus Saint-Eustache;Gare Deux-Montagnes
676848395;"{\"type\":\"LineString\",\"coordinates\":[[-73.8940975,45.5615893],[-73.8941016,45.5613774],[-73.8940785,45.5612464],[-73.8940342,45.5611575],[-73.8939193,45.5610459],[-73.8937986,45.5609543]]}";3;Rue Dorion;1;50;false;false;true;false;false;false;78.0;1;0;0;0;0;false;81000;6119526196;-73.892828;45.561425;81004;6119526195;-73.89572;45.561493;0;0;1;9397387;Bus 90 : GARE/ DEUX-MONTAGNES;"";EXO;90 O;Terminus Saint-Eustache;Gare Deux-Montagnes
676848396;"{\"type\":\"LineString\",\"coordinates\":[[-73.8940648,45.5617058],[-73.8940975,45.5615893]]}";4;Rue Dorion;1;50;false;false;true;false;false;false;14.0;2;0;0;0;0;false;81000;6119526196;-73.892828;45.561425;81004;6119526195;-73.89572;45.561493;0;0;1;9397387;Bus 90 : GARE/ DEUX-MONTAGNES;"";EXO;90 O;Terminus Saint-Eustache;Gare Deux-Montagnes
676848392;"{\"type\":\"LineString\",\"coordinates\":[[-73.8940648,45.5617058],[-73.8957361,45.5614448],[-73.8965451,45.5613214],[-73.8967629,45.5612857],[-73.8975802,45.5611394],[-73.8977713,45.5611204],[-73.8981604,45.5610604],[-73.8982619,45.5610445],[-73.8987945,45.5609873]]}";5;Boulevard Arthur-Sauvé;2;50;false;true;true;false;false;false;189.0;3;0;0;0;0;false;81000;6119526196;-73.892828;45.561425;81004;6119526195;-73.89572;45.561493;1;0;1;9397387;Bus 90 : GARE/ DEUX-MONTAGNES;"";EXO;90 O;Terminus Saint-Eustache;Gare Deux-Montagnes
652947084;"{\"type\":\"LineString\",\"coordinates\":[[-73.9013349,45.5614446],[-73.9014906,45.5615039],[-73.9015731,45.5615354],[-73.9020348,45.5617611],[-73.902339,45.5619682],[-73.9024463,45.5620763],[-73.9025002,45.5621282],[-73.9026054,45.5622295],[-73.9028277,45.5624435],[-73.9029893,45.562599],[-73.9034945,45.5631185],[-73.9040871,45.5637279],[-73.9043626,45.5640112],[-73.9045666,45.5642116],[-73.9054605,45.5650894],[-73.9055851,45.5652241],[-73.9061736,45.565856],[-73.9070574,45.5667355],[-73.9073752,45.5670517],[-73.9075247,45.5672074],[-73.9078988,45.5675745],[-73.9079903,45.5677375],[-73.908025,45.5678714],[-73.9080283,45.5680244],[-73.9079553,45.5685691]]}";1;Boulevard Arthur-Sauvé;2;50;false;true;true;false;false;false;485.0;5;0;0;0;0;false;81033;6119526068;-73.907039;45.566763;81034;6119526067;-73.911502;45.571245;1;6;7;9397387;Bus 90 : GARE/ DEUX-MONTAGNES;"";EXO;90 O;Terminus Saint-Eustache;Gare Deux-Montagnes
676858047;"{\"type\":\"LineString\",\"coordinates\":[[-73.9079553,45.5685691],[-73.9079637,45.5689724],[-73.9079851,45.5690944],[-73.9080226,45.5692062],[-73.9080834,45.5692908]]}";2;Boulevard Arthur-Sauvé;2;50;false;true;true;false;false;false;82.0;1;0;0;0;0;false;81033;6119526068;-73.907039;45.566763;81034;6119526067;-73.911502;45.571245;0;6;7;9397387;Bus 90 : GARE/ DEUX-MONTAGNES;"";EXO;90 O;Terminus Saint-Eustache;Gare Deux-Montagnes
128245202;"{\"type\":\"LineString\",\"coordinates\":[[-73.9080834,45.5692908],[-73.9082397,45.5694853],[-73.9083445,45.5695836],[-73.9084731,45.5696723],[-73.9085876,45.5697591]]}";3;Boulevard Arthur-Sauvé;3;50;false;true;true;false;false;false;66.0;2;0;0;0;0;false;81033;6119526068;-73.907039;45.566763;81034;6119526067;-73.911502;45.571245;0;6;7;9397387;Bus 90 : GARE/ DEUX-MONTAGNES;"";EXO;90 O;Terminus Saint-Eustache;Gare Deux-Montagnes
455468613;"{\"type\":\"LineString\",\"coordinates\":[[-73.9085876,45.5697591],[-73.9086919,45.5698192],[-73.9088582,45.569884],[-73.9090152,45.569935]]}";4;Boulevard Arthur-Sauvé;2;50;false;true;true;false;false;false;39.0;1;0;0;0;0;false;81033;6119526068;-73.907039;45.566763;81034;6119526067;-73.911502;45.571245;0;6;7;9397387;Bus 90 : GARE/ DEUX-MONTAGNES;"";EXO;90 O;Terminus Saint-Eustache;Gare Deux-Montagnes
676886041;"{\"type\":\"LineString\",\"coordinates\":[[-73.9090152,45.569935],[-73.9093032,45.5699925],[-73.910029,45.5701307],[-73.9102288,45.5701844],[-73.9104216,45.5702616],[-73.9107398,45.5704466],[-73.9115813,45.5712971]]}";5;Boulevard Arthur-Sauvé;3;50;false;true;true;false;false;false;132.0;1;0;0;0;0;false;81033;6119526068;-73.907039;45.566763;81034;6119526067;-73.911502;45.571245;1;6;7;9397387;Bus 90 : GARE/ DEUX-MONTAGNES;"";EXO;90 O;Terminus Saint-Eustache;Gare Deux-Montagnes
455468612;"{\"type\":\"LineString\",\"coordinates\":[[-73.9115813,45.5712971],[-73.9119337,45.5716533],[-73.9124221,45.5721469],[-73.9133143,45.5730161],[-73.9136958,45.5733878],[-73.9137781,45.5734682]]}";1;Boulevard Arthur-Sauvé;3;50;false;true;true;false;false;false;148.0;4;0;0;0;0;false;81164;6119525755;-73.912632;45.572428;81097;6119526011;-73.914155;45.573893;1;8;9;9397387;Bus 90 : GARE/ DEUX-MONTAGNES;"";EXO;90 O;Terminus Saint-Eustache;Gare Deux-Montagnes
676886040;"{\"type\":\"LineString\",\"coordinates\":[[-73.9137781,45.5734682],[-73.9141681,45.5738495],[-73.9156571,45.5753224],[-73.9158292,45.5754104]]}";2;Boulevard Arthur-Sauvé;3;50;false;true;true;false;false;false;135.0;2;0;0;0;0;false;81164;6119525755;-73.912632;45.572428;81097;6119526011;-73.914155;45.573893;1;8;9;9397387;Bus 90 : GARE/ DEUX-MONTAGNES;"";EXO;90 O;Terminus Saint-Eustache;Gare Deux-Montagnes
676886040;"{\"type\":\"LineString\",\"coordinates\":[[-73.9137781,45.5734682],[-73.9141681,45.5738495],[-73.9156571,45.5753224],[-73.9158292,45.5754104]]}";1;Boulevard Arthur-Sauvé;3;50;false;true;true;false;false;false;135.0;2;0;0;0;0;false;81234;6119525719;-73.915599;45.575305;81099;6119526010;-73.918768;45.578506;1;10;11;9397387;Bus 90 : GARE/ DEUX-MONTAGNES;"";EXO;90 O;Terminus Saint-Eustache;Gare Deux-Montagnes
376720456;"{\"type\":\"LineString\",\"coordinates\":[[-73.922307,45.5820018],[-73.9208553,45.5805247],[-73.9207377,45.5804051],[-73.920564,45.5802283],[-73.920335,45.5799953],[-73.9201141,45.5797705],[-73.9196345,45.5792825],[-73.9187641,45.5783971],[-73.9182977,45.5779223],[-73.9175808,45.5771928],[-73.9172851,45.5768919],[-73.9170848,45.5766881],[-73.9166961,45.5762927],[-73.916573,45.5761672],[-73.9164338,45.5760256],[-73.9158292,45.5754104]]}";2;Boulevard Arthur-Sauvé;4;50;false;false;true;false;false;false;445.0;3;0;0;0;0;false;81234;6119525719;-73.915599;45.575305;81099;6119526010;-73.918768;45.578506;1;10;11;9397387;Bus 90 : GARE/ DEUX-MONTAGNES;"";EXO;90 O;Terminus Saint-Eustache;Gare Deux-Montagnes
41551255;"{\"type\":\"LineString\",\"coordinates\":[[-73.922307,45.5820018],[-73.9230436,45.5816577]]}";1;Boulevard Léveillé;1;40;false;false;true;false;false;false;69.0;1;0;0;0;0;false;81100;6119526009;-73.922179;45.581946;81101;6119526008;-73.92518;45.580656;2;12;13;9397387;Bus 90 : GARE/ DEUX-MONTAGNES;"";EXO;90 O;Terminus Saint-Eustache;Gare Deux-Montagnes
289788550;"{\"type\":\"LineString\",\"coordinates\":[[-73.9230436,45.5816577],[-73.9243865,45.5810228]]}";2;Boulevard Léveillé;2;40;false;false;true;false;false;false;127.0;0;0;0;0;0;false;81100;6119526009;-73.922179;45.581946;81101;6119526008;-73.92518;45.580656;0;12;13;9397387;Bus 90 : GARE/ DEUX-MONTAGNES;"";EXO;90 O;Terminus Saint-Eustache;Gare Deux-Montagnes
676890380;"{\"type\":\"LineString\",\"coordinates\":[[-73.9243865,45.5810228],[-73.925275,45.5805895]]}";3;Boulevard Léveillé;1;40;false;false;false;false;false;false;85.0;0;0;0;0;0;false;81100;6119526009;-73.922179;45.581946;81101;6119526008;-73.92518;45.580656;2;12;13;9397387;Bus 90 : GARE/ DEUX-MONTAGNES;"";EXO;90 O;Terminus Saint-Eustache;Gare Deux-Montagnes
676890383;"{\"type\":\"LineString\",\"coordinates\":[[-73.9362305,45.577742],[-73.936475,45.5777171]]}";1;Boulevard Léveillé;1;40;false;false;true;false;false;false;20.0;0;0;0;0;0;false;81106;6119526003;-73.936182;45.577774;81107;6119526002;-73.935942;45.57572;2;21;22;9397387;Bus 90 : GARE/ DEUX-MONTAGNES;"";EXO;90 O;Terminus Saint-Eustache;Gare Deux-Montagnes
676890378;"{\"type\":\"LineString\",\"coordinates\":[[-73.936475,45.5777171],[-73.9362955,45.5770035],[-73.9359088,45.5756191]]}";2;Boulevard René-Levesque;1;40;false;true;true;false;false;false;238.0;0;0;0;0;0;false;81106;6119526003;-73.936182;45.577774;81107;6119526002;-73.935942;45.57572;2;21;22;9397387;Bus 90 : GARE/ DEUX-MONTAGNES;"";EXO;90 O;Terminus Saint-Eustache;Gare Deux-Montagnes
676890386;"{\"type\":\"LineString\",\"coordinates\":[[-73.9359088,45.5756191],[-73.9356768,45.5756438]]}";1;Boulevard L.-J. Rodrigue;1;50;false;false;false;false;false;false;19.0;0;0;0;0;0;false;81107;6119526002;-73.935942;45.57572;81108;6119526001;-73.931992;45.576045;2;22;23;9397387;Bus 90 : GARE/ DEUX-MONTAGNES;"";EXO;90 O;Terminus Saint-Eustache;Gare Deux-Montagnes
41740204;"{\"type\":\"LineString\",\"coordinates\":[[-73.9356768,45.5756438],[-73.9347098,45.5757523],[-73.9336655,45.5758911],[-73.931974,45.5761215],[-73.9309318,45.5762365],[-73.9299939,45.5763537],[-73.929043,45.5764798],[-73.9284382,45.5765705],[-73.9279631,45.5766992],[-73.9274104,45.5769068]]}";2;Boulevard L.-J. Rodrigue;1;50;false;false;false;false;false;false;663.0;0;0;0;0;0;false;81107;6119526002;-73.935942;45.57572;81108;6119526001;-73.931992;45.576045;2;22;23;9397387;Bus 90 : GARE/ DEUX-MONTAGNES;"";EXO;90 O;Terminus Saint-Eustache;Gare Deux-Montagnes
142075783;"{\"type\":\"LineString\",\"coordinates\":[[-73.9250227,45.5663939],[-73.9249542,45.5665529]]}";1;Boulevard Industriel;1;50;false;false;true;false;false;false;19.0;1;0;0;0;0;false;81114;6119525995;-73.925057;45.566688;81313;6119525357;-73.925595;45.565171;2;30;31;9397387;Bus 90 : GARE/ DEUX-MONTAGNES;"";EXO;90 O;Terminus Saint-Eustache;Gare Deux-Montagnes
142075782;"{\"type\":\"LineString\",\"coordinates\":[[-73.9251393,45.5661232],[-73.9250227,45.5663939]]}";2;Boulevard Industriel;1;50;false;false;true;false;false;false;32.0;0;0;0;0;0;false;81114;6119525995;-73.925057;45.566688;81313;6119525357;-73.925595;45.565171;0;30;31;9397387;Bus 90 : GARE/ DEUX-MONTAGNES;"";EXO;90 O;Terminus Saint-Eustache;Gare Deux-Montagnes
676890390;"{\"type\":\"LineString\",\"coordinates\":[[-73.9248793,45.5613136],[-73.9249898,45.5615872],[-73.9251656,45.5620223],[-73.9251979,45.5621155],[-73.9253151,45.5624543],[-73.9255294,45.5632965],[-73.9256374,45.5640353],[-73.9256309,45.5645021],[-73.9255444,45.5650337],[-73.9254606,45.5653086],[-73.9253271,45.565647],[-73.9251393,45.5661232]]}";3;Boulevard Industriel;1;50;false;false;true;false;false;false;546.0;0;0;0;0;0;false;81114;6119525995;-73.925057;45.566688;81313;6119525357;-73.925595;45.565171;2;30;31;9397387;Bus 90 : GARE/ DEUX-MONTAGNES;"";EXO;90 O;Terminus Saint-Eustache;Gare Deux-Montagnes
676890390;"{\"type\":\"LineString\",\"coordinates\":[[-73.9248793,45.5613136],[-73.9249898,45.5615872],[-73.9251656,45.5620223],[-73.9251979,45.5621155],[-73.9253151,45.5624543],[-73.9255294,45.5632965],[-73.9256374,45.5640353],[-73.9256309,45.5645021],[-73.9255444,45.5650337],[-73.9254606,45.5653086],[-73.9253271,45.565647],[-73.9251393,45.5661232]]}";1;Boulevard Industriel;1;50;false;false;true;false;false;false;273.0;0;0;0;0;0;false;81115;6119525994;-73.925436;45.562575;80940;6301958150;-73.929762;45.560774;1;32;33;9397387;Bus 90 : GARE/ DEUX-MONTAGNES;"";EXO;90 O;Terminus Saint-Eustache;Gare Deux-Montagnes
479558072;"{\"type\":\"LineString\",\"coordinates\":[[-73.9248793,45.5613136],[-73.9249885,45.561288]]}";2;Rue Robinson;2;50;false;false;true;false;false;false;9.0;0;0;0;0;0;false;81115;6119525994;-73.925436;45.562575;80940;6301958150;-73.929762;45.560774;0;32;33;9397387;Bus 90 : GARE/ DEUX-MONTAGNES;"";EXO;90 O;Terminus Saint-Eustache;Gare Deux-Montagnes
746142548;"{\"type\":\"LineString\",\"coordinates\":[[-73.9249885,45.561288],[-73.9255794,45.5611606],[-73.9259922,45.5610716],[-73.9263252,45.5609998],[-73.9264299,45.5609847],[-73.9265379,45.5609691],[-73.9266628,45.560961],[-73.9268869,45.5609464],[-73.9271782,45.5609478],[-73.9273027,45.5609484],[-73.9275609,45.5609497],[-73.9278033,45.5609431],[-73.9280407,45.5609232],[-73.9284397,45.5608694],[-73.9291777,45.5607698],[-73.9293358,45.5607485],[-73.9294765,45.5607295],[-73.9302016,45.5606317],[-73.9302473,45.5606255],[-73.9304652,45.5605961],[-73.9307197,45.5605603],[-73.9308252,45.5605328],[-73.9309094,45.5604879],[-73.9310878,45.5603349]]}";3;Rue Robinson;2;50;false;false;true;false;false;false;248.0;0;0;0;0;0;false;81115;6119525994;-73.925436;45.562575;80940;6301958150;-73.929762;45.560774;1;32;33;9397387;Bus 90 : GARE/ DEUX-MONTAGNES;"";EXO;90 O;Terminus Saint-Eustache;Gare Deux-Montagnes
746142548;"{\"type\":\"LineString\",\"coordinates\":[[-73.9249885,45.561288],[-73.9255794,45.5611606],[-73.9259922,45.5610716],[-73.9263252,45.5609998],[-73.9264299,45.5609847],[-73.9265379,45.5609691],[-73.9266628,45.560961],[-73.9268869,45.5609464],[-73.9271782,45.5609478],[-73.9273027,45.5609484],[-73.9275609,45.5609497],[-73.9278033,45.5609431],[-73.9280407,45.5609232],[-73.9284397,45.5608694],[-73.9291777,45.5607698],[-73.9293358,45.5607485],[-73.9294765,45.5607295],[-73.9302016,45.5606317],[-73.9302473,45.5606255],[-73.9304652,45.5605961],[-73.9307197,45.5605603],[-73.9308252,45.5605328],[-73.9309094,45.5604879],[-73.9310878,45.5603349]]}";1;Rue Robinson;2;50;false;false;true;false;false;false;248.0;0;0;0;0;0;false;80940;6301958150;-73.929762;45.560774;81138;6119525774;-73.930466;45.557642;1;33;34;9397387;Bus 90 : GARE/ DEUX-MONTAGNES;"";EXO;90 O;Terminus Saint-Eustache;Gare Deux-Montagnes
479558073;"{\"type\":\"LineString\",\"coordinates\":[[-73.9310878,45.5603349],[-73.9308207,45.5593328],[-73.9307081,45.5589106],[-73.9306166,45.5585673],[-73.9306074,45.5585326],[-73.9305366,45.5582671],[-73.9303596,45.5576029]]}";2;Allée du Golf;1;50;false;false;true;false;false;false;154.5;0;0;0;0;0;false;80940;6301958150;-73.929762;45.560774;81138;6119525774;-73.930466;45.557642;1;33;34;9397387;Bus 90 : GARE/ DEUX-MONTAGNES;"";EXO;90 O;Terminus Saint-Eustache;Gare Deux-Montagnes
368474513;"{\"type\":\"LineString\",\"coordinates\":[[-73.9240197,45.5476031],[-73.9240573,45.5477809],[-73.924132,45.5480673],[-73.9241912,45.5482712],[-73.9242089,45.5483596],[-73.9242148,45.548457],[-73.9242128,45.5485556],[-73.9242102,45.5485773],[-73.9242023,45.5486435],[-73.9241702,45.5487575],[-73.9241154,45.5488878],[-73.9240446,45.5489986],[-73.9239518,45.5491183],[-73.9238636,45.5492062],[-73.9237594,45.5492879],[-73.9236565,45.5493511],[-73.9236184,45.5493745],[-73.9234679,45.5494411],[-73.9232978,45.5495052],[-73.9231565,45.5495445],[-73.9229857,45.5495847],[-73.9228416,45.5496124],[-73.9225793,45.5496521],[-73.9223317,45.5496892],[-73.9221538,45.5497216],[-73.9219064,45.5497859],[-73.9218747,45.5497982],[-73.9217779,45.5498359],[-73.9215833,45.5499262],[-73.9214384,45.5500116],[-73.9213171,45.5500904],[-73.9211968,45.5501834],[-73.9211008,45.5502698],[-73.9209964,45.550385],[-73.9209145,45.5504919],[-73.9208402,45.5505984],[-73.9207658,45.5507417],[-73.9207198,45.5508601],[-73.9206774,45.5509955],[-73.9206453,45.5511342],[-73.9206016,45.5514707],[-73.920598,45.5515773],[-73.9206114,45.5518405],[-73.9206342,45.5520363],[-73.9206689,45.5522029],[-73.9213921,45.5549108],[-73.9215907,45.5557104],[-73.9217455,45.5562674],[-73.9219469,45.5570541],[-73.9219927,45.5572186],[-73.9220457,45.5574091],[-73.9221917,45.5577637],[-73.9223108,45.5579887],[-73.9224649,45.5582421],[-73.9226731,45.5585375],[-73.922872,45.5587755],[-73.923108,45.5590171]]}";1;Boulevard Industriel;1;50;false;false;true;false;false;false;723.5;0;0;0;0;0;false;81118;6119525992;-73.921153;45.550269;81119;6119525991;-73.9243;45.54707;1;38;39;9397387;Bus 90 : GARE/ DEUX-MONTAGNES;"";EXO;90 O;Terminus Saint-Eustache;Gare Deux-Montagnes
368474510;"{\"type\":\"LineString\",\"coordinates\":[[-73.9240197,45.5476031],[-73.9240597,45.5473966],[-73.9241181,45.5472624],[-73.9241465,45.5472073],[-73.9241923,45.5471301],[-73.9242905,45.5469696],[-73.9243641,45.5468466]]}";2;Boulevard Industriel;1;50;false;true;true;false;false;false;44.5;0;0;0;0;0;false;81118;6119525992;-73.921153;45.550269;81119;6119525991;-73.9243;45.54707;1;38;39;9397387;Bus 90 : GARE/ DEUX-MONTAGNES;"";EXO;90 O;Terminus Saint-Eustache;Gare Deux-Montagnes
368474510;"{\"type\":\"LineString\",\"coordinates\":[[-73.9240197,45.5476031],[-73.9240597,45.5473966],[-73.9241181,45.5472624],[-73.9241465,45.5472073],[-73.9241923,45.5471301],[-73.9242905,45.5469696],[-73.9243641,45.5468466]]}";1;Boulevard Industriel;1;50;false;true;true;false;false;false;44.5;0;0;0;0;0;false;81119;6119525991;-73.9243;45.54707;81120;6119525990;-73.917895;45.543315;1;39;40;9397387;Bus 90 : GARE/ DEUX-MONTAGNES;"";EXO;90 O;Terminus Saint-Eustache;Gare Deux-Montagnes
45586260;"{\"type\":\"LineString\",\"coordinates\":[[-73.9243641,45.5468466],[-73.9241903,45.5467787]]}";2;Boulevard Albert-Mondou;2;50;false;true;true;false;false;false;16.0;0;0;0;0;0;false;81119;6119525991;-73.9243;45.54707;81120;6119525990;-73.917895;45.543315;0;39;40;9397387;Bus 90 : GARE/ DEUX-MONTAGNES;"";EXO;90 O;Terminus Saint-Eustache;Gare Deux-Montagnes
45586256;"{\"type\":\"LineString\",\"coordinates\":[[-73.9241903,45.5467787],[-73.9230193,45.5462876],[-73.9224741,45.5460736]]}";3;Boulevard des Promenades;2;50;false;true;true;false;false;false;156.0;0;0;0;0;0;false;81119;6119525991;-73.9243;45.54707;81120;6119525990;-73.917895;45.543315;0;39;40;9397387;Bus 90 : GARE/ DEUX-MONTAGNES;"";EXO;90 O;Terminus Saint-Eustache;Gare Deux-Montagnes
677655945;"{\"type\":\"LineString\",\"coordinates\":[[-73.9224741,45.5460736],[-73.9222219,45.5459609]]}";4;Boulevard des Promenades;2;50;false;true;true;false;false;false;24.0;0;0;0;0;0;false;81119;6119525991;-73.9243;45.54707;81120;6119525990;-73.917895;45.543315;0;39;40;9397387;Bus 90 : GARE/ DEUX-MONTAGNES;"";EXO;90 O;Terminus Saint-Eustache;Gare Deux-Montagnes
45586259;"{\"type\":\"LineString\",\"coordinates\":[[-73.9222219,45.5459609],[-73.9218383,45.5457454],[-73.9214585,45.5455078],[-73.9211181,45.5452537],[-73.9209389,45.5450943],[-73.9207865,45.5449151],[-73.9205951,45.544642],[-73.9204914,45.5444572],[-73.9204377,45.5443599],[-73.9203691,45.5442014],[-73.9203064,45.5439835],[-73.9202668,45.5437664],[-73.9202313,45.5434941]]}";5;Boulevard des Promenades;2;50;false;true;true;false;false;false;328.0;0;0;0;0;0;false;81119;6119525991;-73.9243;45.54707;81120;6119525990;-73.917895;45.543315;0;39;40;9397387;Bus 90 : GARE/ DEUX-MONTAGNES;"";EXO;90 O;Terminus Saint-Eustache;Gare Deux-Montagnes
45584290;"{\"type\":\"LineString\",\"coordinates\":[[-73.9202313,45.5434941],[-73.9202444,45.5433541]]}";6;Boulevard des Promenades;2;50;false;true;true;false;false;false;16.0;0;0;0;0;0;false;81119;6119525991;-73.9243;45.54707;81120;6119525990;-73.917895;45.543315;0;39;40;9397387;Bus 90 : GARE/ DEUX-MONTAGNES;"";EXO;90 O;Terminus Saint-Eustache;Gare Deux-Montagnes
676848402;"{\"type\":\"LineString\",\"coordinates\":[[-73.9202444,45.5433541],[-73.920064,45.5433555]]}";7;20e Avenue;1;50;false;true;true;false;false;false;15.0;0;0;0;0;0;false;81119;6119525991;-73.9243;45.54707;81120;6119525990;-73.917895;45.543315;0;39;40;9397387;Bus 90 : GARE/ DEUX-MONTAGNES;"";EXO;90 O;Terminus Saint-Eustache;Gare Deux-Montagnes
30620682;"{\"type\":\"LineString\",\"coordinates\":[[-73.920064,45.5433555],[-73.9189793,45.5433788],[-73.918522,45.5433873],[-73.9181215,45.5433817],[-73.9177264,45.5433367],[-73.9174934,45.5433005],[-73.9155993,45.5429003],[-73.915351,45.5428493],[-73.9144005,45.542654],[-73.9134132,45.5424511],[-73.913115,45.5423898],[-73.9127239,45.5422938]]}";8;20e Avenue;1;50;false;true;true;false;false;false;295.5;1;0;0;0;0;false;81119;6119525991;-73.9243;45.54707;81120;6119525990;-73.917895;45.543315;1;39;40;9397387;Bus 90 : GARE/ DEUX-MONTAGNES;"";EXO;90 O;Terminus Saint-Eustache;Gare Deux-Montagnes
30620682;"{\"type\":\"LineString\",\"coordinates\":[[-73.920064,45.5433555],[-73.9189793,45.5433788],[-73.918522,45.5433873],[-73.9181215,45.5433817],[-73.9177264,45.5433367],[-73.9174934,45.5433005],[-73.9155993,45.5429003],[-73.915351,45.5428493],[-73.9144005,45.542654],[-73.9134132,45.5424511],[-73.913115,45.5423898],[-73.9127239,45.5422938]]}";1;20e Avenue;1;50;false;true;true;false;false;false;295.5;1;0;0;0;0;false;81121;6119525989;-73.915592;45.542855;80200;6119527016;-73.912131;45.542691;1;41;42;9397387;Bus 90 : GARE/ DEUX-MONTAGNES;"";EXO;90 O;Terminus Saint-Eustache;Gare Deux-Montagnes
677657131;"{\"type\":\"LineString\",\"coordinates\":[[-73.9127239,45.5422938],[-73.9126632,45.5422719],[-73.9125639,45.542236]]}";2;20e Avenue;1;50;false;true;true;false;false;false;15.0;0;0;0;0;0;false;81121;6119525989;-73.915592;45.542855;80200;6119527016;-73.912131;45.542691;0;41;42;9397387;Bus 90 : GARE/ DEUX-MONTAGNES;"";EXO;90 O;Terminus Saint-Eustache;Gare Deux-Montagnes
677253530;"{\"type\":\"LineString\",\"coordinates\":[[-73.9125639,45.542236],[-73.9124828,45.5423411]]}";3;Boulevard de Deux-Montagnes;1;50;false;true;true;false;false;false;14.0;0;0;0;0;0;false;81121;6119525989;-73.915592;45.542855;80200;6119527016;-73.912131;45.542691;0;41;42;9397387;Bus 90 : GARE/ DEUX-MONTAGNES;"";EXO;90 O;Terminus Saint-Eustache;Gare Deux-Montagnes
123954902;"{\"type\":\"LineString\",\"coordinates\":[[-73.9124828,45.5423411],[-73.9124123,45.5424344],[-73.9121541,45.5428364],[-73.9119478,45.5431627],[-73.9118508,45.54337],[-73.9117712,45.5436255],[-73.9117453,45.5437815],[-73.9117386,45.5439336],[-73.9117638,45.5443984],[-73.9117671,45.5444339],[-73.9117909,45.5446768],[-73.9117926,45.5447538]]}";4;Boulevard de Deux-Montagnes;1;50;false;true;true;false;false;false;140.0;0;1;0;0;0;false;81121;6119525989;-73.915592;45.542855;80200;6119527016;-73.912131;45.542691;1;41;42;9397387;Bus 90 : GARE/ DEUX-MONTAGNES;"";EXO;90 O;Terminus Saint-Eustache;Gare Deux-Montagnes
123954902;"{\"type\":\"LineString\",\"coordinates\":[[-73.9124828,45.5423411],[-73.9124123,45.5424344],[-73.9121541,45.5428364],[-73.9119478,45.5431627],[-73.9118508,45.54337],[-73.9117712,45.5436255],[-73.9117453,45.5437815],[-73.9117386,45.5439336],[-73.9117638,45.5443984],[-73.9117671,45.5444339],[-73.9117909,45.5446768],[-73.9117926,45.5447538]]}";1;Boulevard de Deux-Montagnes;1;50;false;true;true;false;false;false;140.0;0;1;0;0;0;false;80200;6119527016;-73.912131;45.542691;81013;4335419374;-73.912033;45.545111;1;42;43;9397387;Bus 90 : GARE/ DEUX-MONTAGNES;"";EXO;90 O;Terminus Saint-Eustache;Gare Deux-Montagnes
676890375;"{\"type\":\"LineString\",\"coordinates\":[[-73.9117926,45.5447538],[-73.9118243,45.5452612]]}";2;Boulevard de Deux-Montagnes;1;50;false;true;true;false;false;false;57.0;0;0;0;0;0;false;80200;6119527016;-73.912131;45.542691;81013;4335419374;-73.912033;45.545111;0;42;43;9397387;Bus 90 : GARE/ DEUX-MONTAGNES;"";EXO;90 O;Terminus Saint-Eustache;Gare Deux-Montagnes
147960600;"{\"type\":\"LineString\",\"coordinates\":[[-73.9118243,45.5452612],[-73.9119882,45.545256]]}";3;"";1;50;false;true;true;false;false;false;13.0;0;0;0;0;0;false;80200;6119527016;-73.912131;45.542691;81013;4335419374;-73.912033;45.545111;0;42;43;9397387;Bus 90 : GARE/ DEUX-MONTAGNES;"";EXO;90 O;Terminus Saint-Eustache;Gare Deux-Montagnes
676890374;"{\"type\":\"LineString\",\"coordinates\":[[-73.9119882,45.545256],[-73.9119794,45.545115]]}";4;Boulevard de Deux-Montagnes;1;50;false;true;false;false;false;false;16.0;0;0;0;0;0;false;80200;6119527016;-73.912131;45.542691;81013;4335419374;-73.912033;45.545111;1;42;43;9397387;Bus 90 : GARE/ DEUX-MONTAGNES;"";EXO;90 O;Terminus Saint-Eustache;Gare Deux-Montagnes
