way_id;shape;index;name;nb_lanes;legal_speed;speed_zone_30;oneway;shares_bike;bike_box;bus_lane;dedicated_bus_lane;length;nb_traffic_signals;nb_crossings;nb_stops;nb_give_ways;nb_lvl_crossings;roundabout;stop_id_orig;node_id_orig;coord_x_orig;coord_y_orig;stop_id_dest;node_id_dest;coord_x_dest;coord_y_dest;nb_neighbouring_ways_bus_stop;ordre_orig;ordre_dest;id_line;line_name;colour;operator;ref;from;to
330301192;"{\"type\":\"LineString\",\"coordinates\":[[-73.5659674,45.5575805],[-73.5661527,45.5573451]]}";1;Avenue Laurier Est;1;50;false;false;true;false;false;false;30.0;0;0;0;0;0;false;52579;5062144322;-73.5661068;45.5572549;54098;6010971815;-73.563154;45.557215;1;0;1;4629712;Bus 27 : Boulevard Saint-Joseph Ouest;"";STM;27-O;Laurier / Jeanne-d'Arc;Station Laurier (Berri / Saint-Joseph)
330153484;"{\"type\":\"LineString\",\"coordinates\":[[-73.5657106,45.557954],[-73.5658444,45.5577519],[-73.5658818,45.5576954],[-73.5659068,45.5576576],[-73.5659674,45.5575805]]}";2;Avenue Laurier Est;1;50;false;false;true;false;false;false;47.0;0;0;0;0;0;false;52579;5062144322;-73.5661068;45.5572549;54098;6010971815;-73.563154;45.557215;0;0;1;4629712;Bus 27 : Boulevard Saint-Joseph Ouest;"";STM;27-O;Laurier / Jeanne-d'Arc;Station Laurier (Berri / Saint-Joseph)
330153493;"{\"type\":\"LineString\",\"coordinates\":[[-73.5656438,45.558055],[-73.5657106,45.557954]]}";3;Avenue Laurier Est;1;50;false;false;true;false;false;false;13.0;0;0;0;0;0;false;52579;5062144322;-73.5661068;45.5572549;54098;6010971815;-73.563154;45.557215;0;0;1;4629712;Bus 27 : Boulevard Saint-Joseph Ouest;"";STM;27-O;Laurier / Jeanne-d'Arc;Station Laurier (Berri / Saint-Joseph)
330153494;"{\"type\":\"LineString\",\"coordinates\":[[-73.5656438,45.558055],[-73.5648498,45.5578014],[-73.5646659,45.5577587]]}";4;Boulevard Pie-IX;2;50;false;true;true;false;false;false;84.0;0;0;0;0;0;false;52579;5062144322;-73.5661068;45.5572549;54098;6010971815;-73.563154;45.557215;0;0;1;4629712;Bus 27 : Boulevard Saint-Joseph Ouest;"";STM;27-O;Laurier / Jeanne-d'Arc;Station Laurier (Berri / Saint-Joseph)
783158385;"{\"type\":\"LineString\",\"coordinates\":[[-73.5646659,45.5577587],[-73.562826,45.557155]]}";5;Boulevard Pie-IX;3;50;false;true;true;false;false;false;79.5;1;0;0;0;0;false;52579;5062144322;-73.5661068;45.5572549;54098;6010971815;-73.563154;45.557215;1;0;1;4629712;Bus 27 : Boulevard Saint-Joseph Ouest;"";STM;27-O;Laurier / Jeanne-d'Arc;Station Laurier (Berri / Saint-Joseph)
783158385;"{\"type\":\"LineString\",\"coordinates\":[[-73.5646659,45.5577587],[-73.562826,45.557155]]}";1;Boulevard Pie-IX;3;50;false;true;true;false;false;false;79.5;1;0;0;0;0;false;54098;6010971815;-73.563154;45.557215;52643;6010965977;-73.564341;45.554908;1;1;2;4629712;Bus 27 : Boulevard Saint-Joseph Ouest;"";STM;27-O;Laurier / Jeanne-d'Arc;Station Laurier (Berri / Saint-Joseph)
330153491;"{\"type\":\"LineString\",\"coordinates\":[[-73.562826,45.557155],[-73.5632887,45.556438],[-73.5636049,45.5559479]]}";2;Boulevard Saint-Joseph Est;2;50;false;true;true;false;false;false;148.0;1;0;0;0;0;false;54098;6010971815;-73.563154;45.557215;52643;6010965977;-73.564341;45.554908;0;1;2;4629712;Bus 27 : Boulevard Saint-Joseph Ouest;"";STM;27-O;Laurier / Jeanne-d'Arc;Station Laurier (Berri / Saint-Joseph)
460510194;"{\"type\":\"LineString\",\"coordinates\":[[-73.5636049,45.5559479],[-73.5639728,45.5553797]]}";3;Boulevard Saint-Joseph Est;2;50;false;true;true;false;false;false;70.0;0;0;0;0;0;false;54098;6010971815;-73.563154;45.557215;52643;6010965977;-73.564341;45.554908;0;1;2;4629712;Bus 27 : Boulevard Saint-Joseph Ouest;"";STM;27-O;Laurier / Jeanne-d'Arc;Station Laurier (Berri / Saint-Joseph)
460510203;"{\"type\":\"LineString\",\"coordinates\":[[-73.5639728,45.5553797],[-73.5641621,45.5550829],[-73.5643519,45.5547853]]}";4;Boulevard Saint-Joseph Est;2;50;false;true;true;false;false;false;36.5;0;0;0;0;0;false;54098;6010971815;-73.563154;45.557215;52643;6010965977;-73.564341;45.554908;1;1;2;4629712;Bus 27 : Boulevard Saint-Joseph Ouest;"";STM;27-O;Laurier / Jeanne-d'Arc;Station Laurier (Berri / Saint-Joseph)
460510199;"{\"type\":\"LineString\",\"coordinates\":[[-73.5643519,45.5547853],[-73.5645427,45.5544957]]}";1;Boulevard Saint-Joseph Est;2;50;false;true;true;false;false;false;36.0;0;0;0;0;0;false;52643;6010965977;-73.564341;45.554908;53749;5046380236;-73.5661448;45.5524359;2;2;3;4629712;Bus 27 : Boulevard Saint-Joseph Ouest;"";STM;27-O;Laurier / Jeanne-d'Arc;Station Laurier (Berri / Saint-Joseph)
460703584;"{\"type\":\"LineString\",\"coordinates\":[[-73.5645427,45.5544957],[-73.5647685,45.5541536]]}";2;Boulevard Saint-Joseph Est;2;50;false;true;true;false;false;false;42.0;0;0;0;0;0;false;52643;6010965977;-73.564341;45.554908;53749;5046380236;-73.5661448;45.5524359;0;2;3;4629712;Bus 27 : Boulevard Saint-Joseph Ouest;"";STM;27-O;Laurier / Jeanne-d'Arc;Station Laurier (Berri / Saint-Joseph)
460703583;"{\"type\":\"LineString\",\"coordinates\":[[-73.5647685,45.5541536],[-73.5647739,45.5541454],[-73.5651872,45.5535175]]}";3;Boulevard Saint-Joseph Est;2;50;false;true;true;false;false;false;78.0;0;0;0;0;0;false;52643;6010965977;-73.564341;45.554908;53749;5046380236;-73.5661448;45.5524359;0;2;3;4629712;Bus 27 : Boulevard Saint-Joseph Ouest;"";STM;27-O;Laurier / Jeanne-d'Arc;Station Laurier (Berri / Saint-Joseph)
330153478;"{\"type\":\"LineString\",\"coordinates\":[[-73.5651872,45.5535175],[-73.5655129,45.5530506],[-73.56565,45.5528757],[-73.5658778,45.5526107],[-73.565958,45.5525303]]}";4;Boulevard Saint-Joseph Est;2;50;false;true;true;false;false;false;126.0;0;0;0;0;0;false;52643;6010965977;-73.564341;45.554908;53749;5046380236;-73.5661448;45.5524359;0;2;3;4629712;Bus 27 : Boulevard Saint-Joseph Ouest;"";STM;27-O;Laurier / Jeanne-d'Arc;Station Laurier (Berri / Saint-Joseph)
454272336;"{\"type\":\"LineString\",\"coordinates\":[[-73.565958,45.5525303],[-73.5661882,45.5523069]]}";5;Boulevard Saint-Joseph Est;2;50;false;true;true;false;false;false;31.0;0;0;0;0;0;false;52643;6010965977;-73.564341;45.554908;53749;5046380236;-73.5661448;45.5524359;2;2;3;4629712;Bus 27 : Boulevard Saint-Joseph Ouest;"";STM;27-O;Laurier / Jeanne-d'Arc;Station Laurier (Berri / Saint-Joseph)
454272332;"{\"type\":\"LineString\",\"coordinates\":[[-73.5661882,45.5523069],[-73.5665823,45.5519429]]}";1;Boulevard Saint-Joseph Est;2;50;false;true;true;false;false;false;51.0;0;0;0;0;0;false;53749;5046380236;-73.5661448;45.5524359;54099;5046382831;-73.5675272;45.5509641;2;3;4;4629712;Bus 27 : Boulevard Saint-Joseph Ouest;"";STM;27-O;Laurier / Jeanne-d'Arc;Station Laurier (Berri / Saint-Joseph)
454272335;"{\"type\":\"LineString\",\"coordinates\":[[-73.5665823,45.5519429],[-73.5668567,45.5516582],[-73.5672523,45.5512139],[-73.5676372,45.5506583]]}";2;Boulevard Saint-Joseph Est;2;50;false;true;true;false;false;false;166.0;0;0;0;0;0;false;53749;5046380236;-73.5661448;45.5524359;54099;5046382831;-73.5675272;45.5509641;2;3;4;4629712;Bus 27 : Boulevard Saint-Joseph Ouest;"";STM;27-O;Laurier / Jeanne-d'Arc;Station Laurier (Berri / Saint-Joseph)
454272335;"{\"type\":\"LineString\",\"coordinates\":[[-73.5665823,45.5519429],[-73.5668567,45.5516582],[-73.5672523,45.5512139],[-73.5676372,45.5506583]]}";1;Boulevard Saint-Joseph Est;2;50;false;true;true;false;false;false;83.0;0;0;0;0;0;false;54099;5046382831;-73.5675272;45.5509641;52521;5046380221;-73.5683686;45.5496946;1;4;5;4629712;Bus 27 : Boulevard Saint-Joseph Ouest;"";STM;27-O;Laurier / Jeanne-d'Arc;Station Laurier (Berri / Saint-Joseph)
463631266;"{\"type\":\"LineString\",\"coordinates\":[[-73.5676372,45.5506583],[-73.5679689,45.5501454],[-73.568335,45.5495504],[-73.5687372,45.5488803]]}";2;Boulevard Saint-Joseph Est;2;50;false;true;true;false;false;false;108.0;0;0;0;0;0;false;54099;5046382831;-73.5675272;45.5509641;52521;5046380221;-73.5683686;45.5496946;1;4;5;4629712;Bus 27 : Boulevard Saint-Joseph Ouest;"";STM;27-O;Laurier / Jeanne-d'Arc;Station Laurier (Berri / Saint-Joseph)
463631266;"{\"type\":\"LineString\",\"coordinates\":[[-73.5676372,45.5506583],[-73.5679689,45.5501454],[-73.568335,45.5495504],[-73.5687372,45.5488803]]}";1;Boulevard Saint-Joseph Est;2;50;false;true;true;false;false;false;108.0;0;0;0;0;0;false;52521;5046380221;-73.5683686;45.5496946;52480;6010981219;-73.569038;45.548474;1;5;6;4629712;Bus 27 : Boulevard Saint-Joseph Ouest;"";STM;27-O;Laurier / Jeanne-d'Arc;Station Laurier (Berri / Saint-Joseph)
463631263;"{\"type\":\"LineString\",\"coordinates\":[[-73.5687372,45.5488803],[-73.5690719,45.5483097]]}";2;Boulevard Saint-Joseph Est;2;50;false;true;true;false;false;false;34.5;0;0;0;0;0;false;52521;5046380221;-73.5683686;45.5496946;52480;6010981219;-73.569038;45.548474;1;5;6;4629712;Bus 27 : Boulevard Saint-Joseph Ouest;"";STM;27-O;Laurier / Jeanne-d'Arc;Station Laurier (Berri / Saint-Joseph)
129641871;"{\"type\":\"LineString\",\"coordinates\":[[-73.5690719,45.5483097],[-73.5695575,45.5475166],[-73.5695782,45.547482],[-73.5697541,45.5471944]]}";1;Boulevard Saint-Joseph Est;2;50;false;true;true;false;false;false;135.0;0;0;0;0;0;false;52480;6010981219;-73.569038;45.548474;52448;5036727322;-73.5700989;45.5466973;2;6;7;4629712;Bus 27 : Boulevard Saint-Joseph Ouest;"";STM;27-O;Laurier / Jeanne-d'Arc;Station Laurier (Berri / Saint-Joseph)
463631258;"{\"type\":\"LineString\",\"coordinates\":[[-73.5697541,45.5471944],[-73.569916,45.5469138],[-73.5700756,45.5466375]]}";2;Boulevard Saint-Joseph Est;2;50;false;true;true;false;false;false;67.0;0;0;0;0;0;false;52480;6010981219;-73.569038;45.548474;52448;5036727322;-73.5700989;45.5466973;2;6;7;4629712;Bus 27 : Boulevard Saint-Joseph Ouest;"";STM;27-O;Laurier / Jeanne-d'Arc;Station Laurier (Berri / Saint-Joseph)
463631294;"{\"type\":\"LineString\",\"coordinates\":[[-73.5700756,45.5466375],[-73.5702601,45.5463585],[-73.5704302,45.5461012]]}";1;Boulevard Saint-Joseph Est;2;50;false;true;true;false;false;false;66.0;0;0;0;0;0;false;52448;5036727322;-73.5700989;45.5466973;52420;5036725423;-73.5711359;45.5450558;2;7;8;4629712;Bus 27 : Boulevard Saint-Joseph Ouest;"";STM;27-O;Laurier / Jeanne-d'Arc;Station Laurier (Berri / Saint-Joseph)
463631292;"{\"type\":\"LineString\",\"coordinates\":[[-73.5704302,45.5461012],[-73.5706048,45.5458025],[-73.5707589,45.545539]]}";2;Boulevard Saint-Joseph Est;2;50;false;true;true;false;false;false;68.0;0;0;0;0;0;false;52448;5036727322;-73.5700989;45.5466973;52420;5036725423;-73.5711359;45.5450558;0;7;8;4629712;Bus 27 : Boulevard Saint-Joseph Ouest;"";STM;27-O;Laurier / Jeanne-d'Arc;Station Laurier (Berri / Saint-Joseph)
463631240;"{\"type\":\"LineString\",\"coordinates\":[[-73.5707589,45.545539],[-73.5709447,45.5452444],[-73.5711136,45.5449767]]}";3;Boulevard Saint-Joseph Est;2;50;false;true;true;false;false;false;69.0;0;0;0;0;0;false;52448;5036727322;-73.5700989;45.5466973;52420;5036725423;-73.5711359;45.5450558;2;7;8;4629712;Bus 27 : Boulevard Saint-Joseph Ouest;"";STM;27-O;Laurier / Jeanne-d'Arc;Station Laurier (Berri / Saint-Joseph)
463631236;"{\"type\":\"LineString\",\"coordinates\":[[-73.5711136,45.5449767],[-73.5712592,45.5447367]]}";1;Boulevard Saint-Joseph Est;2;50;false;true;true;false;false;false;29.0;0;0;0;0;0;false;52420;5036725423;-73.5711359;45.5450558;61697;5211044423;-73.572445;45.542936;2;8;9;4629712;Bus 27 : Boulevard Saint-Joseph Ouest;"";STM;27-O;Laurier / Jeanne-d'Arc;Station Laurier (Berri / Saint-Joseph)
454267536;"{\"type\":\"LineString\",\"coordinates\":[[-73.5712592,45.5447367],[-73.5714076,45.5444923]]}";2;Boulevard Saint-Joseph Est;2;50;false;true;true;false;false;false;30.0;0;0;0;0;0;false;52420;5036725423;-73.5711359;45.5450558;61697;5211044423;-73.572445;45.542936;0;8;9;4629712;Bus 27 : Boulevard Saint-Joseph Ouest;"";STM;27-O;Laurier / Jeanne-d'Arc;Station Laurier (Berri / Saint-Joseph)
164772690;"{\"type\":\"LineString\",\"coordinates\":[[-73.5714076,45.5444923],[-73.5717835,45.5438641],[-73.5718385,45.5437721],[-73.5719872,45.5435236],[-73.572501,45.542681]]}";3;Boulevard Saint-Joseph Est;2;50;false;true;false;false;false;false;219.0;0;0;0;0;0;false;52420;5036725423;-73.5711359;45.5450558;61697;5211044423;-73.572445;45.542936;2;8;9;4629712;Bus 27 : Boulevard Saint-Joseph Ouest;"";STM;27-O;Laurier / Jeanne-d'Arc;Station Laurier (Berri / Saint-Joseph)
164772690;"{\"type\":\"LineString\",\"coordinates\":[[-73.5714076,45.5444923],[-73.5717835,45.5438641],[-73.5718385,45.5437721],[-73.5719872,45.5435236],[-73.572501,45.542681]]}";1;Boulevard Saint-Joseph Est;2;50;false;true;false;false;false;false;109.5;0;0;0;0;0;false;61697;5211044423;-73.572445;45.542936;52344;5262362427;-73.5740832;45.5410338;1;9;10;4629712;Bus 27 : Boulevard Saint-Joseph Ouest;"";STM;27-O;Laurier / Jeanne-d'Arc;Station Laurier (Berri / Saint-Joseph)
164772695;"{\"type\":\"LineString\",\"coordinates\":[[-73.572501,45.542681],[-73.5728002,45.5421829],[-73.5732488,45.5416966],[-73.5734667,45.5414817],[-73.573481,45.5414689]]}";2;Boulevard Saint-Joseph Est;2;50;false;true;true;false;false;false;156.0;0;0;0;0;0;false;61697;5211044423;-73.572445;45.542936;52344;5262362427;-73.5740832;45.5410338;0;9;10;4629712;Bus 27 : Boulevard Saint-Joseph Ouest;"";STM;27-O;Laurier / Jeanne-d'Arc;Station Laurier (Berri / Saint-Joseph)
90829342;"{\"type\":\"LineString\",\"coordinates\":[[-73.573481,45.5414689],[-73.5737318,45.5412457]]}";3;Boulevard Saint-Joseph Est;2;50;false;true;true;false;false;false;32.0;0;0;0;0;0;false;61697;5211044423;-73.572445;45.542936;52344;5262362427;-73.5740832;45.5410338;0;9;10;4629712;Bus 27 : Boulevard Saint-Joseph Ouest;"";STM;27-O;Laurier / Jeanne-d'Arc;Station Laurier (Berri / Saint-Joseph)
454241505;"{\"type\":\"LineString\",\"coordinates\":[[-73.5737318,45.5412457],[-73.573786,45.5411919]]}";4;Boulevard Saint-Joseph Est;2;50;false;true;true;false;false;false;8.0;1;0;0;0;0;false;61697;5211044423;-73.572445;45.542936;52344;5262362427;-73.5740832;45.5410338;0;9;10;4629712;Bus 27 : Boulevard Saint-Joseph Ouest;"";STM;27-O;Laurier / Jeanne-d'Arc;Station Laurier (Berri / Saint-Joseph)
454241504;"{\"type\":\"LineString\",\"coordinates\":[[-73.573786,45.5411919],[-73.5751566,45.539814]]}";5;Boulevard Saint-Joseph Est;2;50;false;true;true;false;false;false;93.5;2;0;0;0;0;false;61697;5211044423;-73.572445;45.542936;52344;5262362427;-73.5740832;45.5410338;1;9;10;4629712;Bus 27 : Boulevard Saint-Joseph Ouest;"";STM;27-O;Laurier / Jeanne-d'Arc;Station Laurier (Berri / Saint-Joseph)
454241504;"{\"type\":\"LineString\",\"coordinates\":[[-73.573786,45.5411919],[-73.5751566,45.539814]]}";1;Boulevard Saint-Joseph Est;2;50;false;true;true;false;false;false;93.5;2;0;0;0;0;false;52344;5262362427;-73.5740832;45.5410338;54266;5036795423;-73.5757882;45.5393582;1;10;11;4629712;Bus 27 : Boulevard Saint-Joseph Ouest;"";STM;27-O;Laurier / Jeanne-d'Arc;Station Laurier (Berri / Saint-Joseph)
463631227;"{\"type\":\"LineString\",\"coordinates\":[[-73.5751566,45.539814],[-73.5754599,45.5395282],[-73.5757577,45.5392418]]}";2;Boulevard Saint-Joseph Est;2;50;false;true;true;false;false;false;39.5;1;0;0;0;0;false;52344;5262362427;-73.5740832;45.5410338;54266;5036795423;-73.5757882;45.5393582;1;10;11;4629712;Bus 27 : Boulevard Saint-Joseph Ouest;"";STM;27-O;Laurier / Jeanne-d'Arc;Station Laurier (Berri / Saint-Joseph)
90829311;"{\"type\":\"LineString\",\"coordinates\":[[-73.5757577,45.5392418],[-73.5760623,45.5389243],[-73.576308,45.5386682],[-73.5768602,45.5381103]]}";1;Boulevard Saint-Joseph Est;2;50;false;true;true;false;false;false;76.5;1;0;0;0;0;false;52258;6010969338;-73.576617;45.538419;52221;5036795424;-73.5773675;45.5376858;1;12;13;4629712;Bus 27 : Boulevard Saint-Joseph Ouest;"";STM;27-O;Laurier / Jeanne-d'Arc;Station Laurier (Berri / Saint-Joseph)
463631226;"{\"type\":\"LineString\",\"coordinates\":[[-73.5768602,45.5381103],[-73.5774403,45.5375101]]}";2;Boulevard Saint-Joseph Est;2;50;false;true;true;false;false;false;40.5;2;0;0;0;0;false;52258;6010969338;-73.576617;45.538419;52221;5036795424;-73.5773675;45.5376858;1;12;13;4629712;Bus 27 : Boulevard Saint-Joseph Ouest;"";STM;27-O;Laurier / Jeanne-d'Arc;Station Laurier (Berri / Saint-Joseph)
463631226;"{\"type\":\"LineString\",\"coordinates\":[[-73.5768602,45.5381103],[-73.5774403,45.5375101]]}";1;Boulevard Saint-Joseph Est;2;50;false;true;true;false;false;false;40.5;2;0;0;0;0;false;52221;5036795424;-73.5773675;45.5376858;52179;5211062723;-73.57842;45.5365592;1;13;14;4629712;Bus 27 : Boulevard Saint-Joseph Ouest;"";STM;27-O;Laurier / Jeanne-d'Arc;Station Laurier (Berri / Saint-Joseph)
464080252;"{\"type\":\"LineString\",\"coordinates\":[[-73.5774403,45.5375101],[-73.5777659,45.5371766],[-73.5780241,45.5369122]]}";2;Boulevard Saint-Joseph Est;2;50;false;true;true;false;false;false;81.0;2;0;0;0;0;false;52221;5036795424;-73.5773675;45.5376858;52179;5211062723;-73.57842;45.5365592;0;13;14;4629712;Bus 27 : Boulevard Saint-Joseph Ouest;"";STM;27-O;Laurier / Jeanne-d'Arc;Station Laurier (Berri / Saint-Joseph)
341093398;"{\"type\":\"LineString\",\"coordinates\":[[-73.5780241,45.5369122],[-73.5784765,45.5364079],[-73.5789426,45.5359198],[-73.5795615,45.5352742],[-73.5795813,45.5352535]]}";3;Boulevard Saint-Joseph Est;2;50;false;true;true;false;false;false;110.5;2;0;0;0;0;false;52221;5036795424;-73.5773675;45.5376858;52179;5211062723;-73.57842;45.5365592;1;13;14;4629712;Bus 27 : Boulevard Saint-Joseph Ouest;"";STM;27-O;Laurier / Jeanne-d'Arc;Station Laurier (Berri / Saint-Joseph)
453992346;"{\"type\":\"LineString\",\"coordinates\":[[-73.5795813,45.5352535],[-73.5802713,45.5345023]]}";1;Boulevard Saint-Joseph Est;2;50;false;true;true;false;false;false;100.0;0;0;0;0;0;false;52143;5036773522;-73.5795741;45.5354071;52111;5036773523;-73.5808782;45.5339966;2;15;16;4629712;Bus 27 : Boulevard Saint-Joseph Ouest;"";STM;27-O;Laurier / Jeanne-d'Arc;Station Laurier (Berri / Saint-Joseph)
453992345;"{\"type\":\"LineString\",\"coordinates\":[[-73.5802713,45.5345023],[-73.5808831,45.5338764]]}";2;Boulevard Saint-Joseph Est;2;50;false;true;true;false;false;false;85.0;1;0;0;0;0;false;52143;5036773522;-73.5795741;45.5354071;52111;5036773523;-73.5808782;45.5339966;2;15;16;4629712;Bus 27 : Boulevard Saint-Joseph Ouest;"";STM;27-O;Laurier / Jeanne-d'Arc;Station Laurier (Berri / Saint-Joseph)
452069031;"{\"type\":\"LineString\",\"coordinates\":[[-73.5808831,45.5338764],[-73.580909,45.5338499]]}";1;Boulevard Saint-Joseph Est;2;50;false;true;true;false;false;false;4.0;1;0;0;0;0;false;52111;5036773523;-73.5808782;45.5339966;52080;5036808621;-73.5820272;45.5327633;2;16;17;4629712;Bus 27 : Boulevard Saint-Joseph Ouest;"";STM;27-O;Laurier / Jeanne-d'Arc;Station Laurier (Berri / Saint-Joseph)
452069030;"{\"type\":\"LineString\",\"coordinates\":[[-73.580909,45.5338499],[-73.5815019,45.5332113]]}";2;Boulevard Saint-Joseph Est;2;50;false;true;true;false;false;false;85.0;1;0;0;0;0;false;52111;5036773523;-73.5808782;45.5339966;52080;5036808621;-73.5820272;45.5327633;0;16;17;4629712;Bus 27 : Boulevard Saint-Joseph Ouest;"";STM;27-O;Laurier / Jeanne-d'Arc;Station Laurier (Berri / Saint-Joseph)
452095256;"{\"type\":\"LineString\",\"coordinates\":[[-73.5815019,45.5332113],[-73.5815264,45.5331849]]}";3;Boulevard Saint-Joseph Est;2;50;false;true;true;false;false;false;4.0;1;0;0;0;0;false;52111;5036773523;-73.5808782;45.5339966;52080;5036808621;-73.5820272;45.5327633;0;16;17;4629712;Bus 27 : Boulevard Saint-Joseph Ouest;"";STM;27-O;Laurier / Jeanne-d'Arc;Station Laurier (Berri / Saint-Joseph)
452069032;"{\"type\":\"LineString\",\"coordinates\":[[-73.5815264,45.5331849],[-73.5817953,45.5329044],[-73.5820517,45.5326351],[-73.5820753,45.5326103]]}";4;Boulevard Saint-Joseph Est;2;50;false;true;true;false;false;false;77.0;1;0;0;0;0;false;52111;5036773523;-73.5808782;45.5339966;52080;5036808621;-73.5820272;45.5327633;2;16;17;4629712;Bus 27 : Boulevard Saint-Joseph Ouest;"";STM;27-O;Laurier / Jeanne-d'Arc;Station Laurier (Berri / Saint-Joseph)
452065064;"{\"type\":\"LineString\",\"coordinates\":[[-73.5820753,45.5326103],[-73.5824893,45.532168],[-73.582513,45.5321427]]}";1;Boulevard Saint-Joseph Est;2;30;false;true;true;false;false;false;63.0;1;0;0;0;0;false;52080;5036808621;-73.5820272;45.5327633;52040;6010969883;-73.583475;45.531168;2;17;18;4629712;Bus 27 : Boulevard Saint-Joseph Ouest;"";STM;27-O;Laurier / Jeanne-d'Arc;Station Laurier (Berri / Saint-Joseph)
452065069;"{\"type\":\"LineString\",\"coordinates\":[[-73.582513,45.5321427],[-73.5829936,45.5316181]]}";2;Boulevard Saint-Joseph Est;2;40;false;true;true;false;false;false;70.0;1;0;0;0;0;false;52080;5036808621;-73.5820272;45.5327633;52040;6010969883;-73.583475;45.531168;0;17;18;4629712;Bus 27 : Boulevard Saint-Joseph Ouest;"";STM;27-O;Laurier / Jeanne-d'Arc;Station Laurier (Berri / Saint-Joseph)
452065062;"{\"type\":\"LineString\",\"coordinates\":[[-73.5829936,45.5316181],[-73.5830142,45.5315956]]}";3;Boulevard Saint-Joseph Est;2;40;false;true;true;false;false;false;3.0;1;0;0;0;0;false;52080;5036808621;-73.5820272;45.5327633;52040;6010969883;-73.583475;45.531168;0;17;18;4629712;Bus 27 : Boulevard Saint-Joseph Ouest;"";STM;27-O;Laurier / Jeanne-d'Arc;Station Laurier (Berri / Saint-Joseph)
452065074;"{\"type\":\"LineString\",\"coordinates\":[[-73.5830142,45.5315956],[-73.5830452,45.5315627],[-73.5830541,45.5315533],[-73.5835039,45.5310761],[-73.5835274,45.5310513]]}";4;Boulevard Saint-Joseph Est;2;40;false;true;true;false;false;false;73.0;1;1;0;0;0;false;52080;5036808621;-73.5820272;45.5327633;52040;6010969883;-73.583475;45.531168;2;17;18;4629712;Bus 27 : Boulevard Saint-Joseph Ouest;"";STM;27-O;Laurier / Jeanne-d'Arc;Station Laurier (Berri / Saint-Joseph)
464057450;"{\"type\":\"LineString\",\"coordinates\":[[-73.5835274,45.5310513],[-73.5842341,45.5303129],[-73.5842618,45.530284],[-73.5848522,45.5296541]]}";1;Boulevard Saint-Joseph Est;2;50;false;true;true;false;false;false;93.5;1;0;0;0;0;false;52017;5036773524;-73.584192;45.530403;52001;5754183959;-73.585129;45.529406;1;19;20;4629712;Bus 27 : Boulevard Saint-Joseph Ouest;"";STM;27-O;Laurier / Jeanne-d'Arc;Station Laurier (Berri / Saint-Joseph)
463886934;"{\"type\":\"LineString\",\"coordinates\":[[-73.5848522,45.5296541],[-73.5851697,45.5293153],[-73.5857066,45.5287424],[-73.5861381,45.528282],[-73.5861637,45.5282547]]}";2;Boulevard Saint-Joseph Est;2;50;false;true;true;false;false;false;93.5;1;0;0;0;0;false;52017;5036773524;-73.584192;45.530403;52001;5754183959;-73.585129;45.529406;1;19;20;4629712;Bus 27 : Boulevard Saint-Joseph Ouest;"";STM;27-O;Laurier / Jeanne-d'Arc;Station Laurier (Berri / Saint-Joseph)
463886934;"{\"type\":\"LineString\",\"coordinates\":[[-73.5848522,45.5296541],[-73.5851697,45.5293153],[-73.5857066,45.5287424],[-73.5861381,45.528282],[-73.5861637,45.5282547]]}";1;Boulevard Saint-Joseph Est;2;50;false;true;true;false;false;false;93.5;1;0;0;0;0;false;52001;5754183959;-73.585129;45.529406;60366;6010971800;-73.58659;45.527233;1;20;21;4629712;Bus 27 : Boulevard Saint-Joseph Ouest;"";STM;27-O;Laurier / Jeanne-d'Arc;Station Laurier (Berri / Saint-Joseph)
452385240;"{\"type\":\"LineString\",\"coordinates\":[[-73.5861637,45.5282547],[-73.586526,45.5278596],[-73.5865491,45.5278344]]}";2;Boulevard Saint-Joseph Est;2;50;false;true;true;false;false;false;56.0;1;0;0;0;0;false;52001;5754183959;-73.585129;45.529406;60366;6010971800;-73.58659;45.527233;0;20;21;4629712;Bus 27 : Boulevard Saint-Joseph Ouest;"";STM;27-O;Laurier / Jeanne-d'Arc;Station Laurier (Berri / Saint-Joseph)
452385241;"{\"type\":\"LineString\",\"coordinates\":[[-73.5865491,45.5278344],[-73.5868483,45.5274976],[-73.5868896,45.527451],[-73.5869112,45.5274267]]}";3;Boulevard Saint-Joseph Est;2;50;false;true;true;false;false;false;54.0;1;1;0;0;0;false;52001;5754183959;-73.585129;45.529406;60366;6010971800;-73.58659;45.527233;0;20;21;4629712;Bus 27 : Boulevard Saint-Joseph Ouest;"";STM;27-O;Laurier / Jeanne-d'Arc;Station Laurier (Berri / Saint-Joseph)
727853363;"{\"type\":\"LineString\",\"coordinates\":[[-73.5869112,45.5274267],[-73.5868053,45.5273754]]}";4;Rue Berri;1;50;false;true;true;false;false;false;11.0;0;0;0;0;0;false;52001;5754183959;-73.585129;45.529406;60366;6010971800;-73.58659;45.527233;0;20;21;4629712;Bus 27 : Boulevard Saint-Joseph Ouest;"";STM;27-O;Laurier / Jeanne-d'Arc;Station Laurier (Berri / Saint-Joseph)
537573930;"{\"type\":\"LineString\",\"coordinates\":[[-73.5868053,45.5273754],[-73.5867185,45.5273377],[-73.5865645,45.5272711],[-73.5863523,45.5271793],[-73.5861185,45.5270546],[-73.5860904,45.5270312],[-73.5860646,45.526981],[-73.5861562,45.5268535]]}";5;Rue Berri;2;50;false;true;true;false;false;false;90.0;0;0;0;0;0;false;52001;5754183959;-73.585129;45.529406;60366;6010971800;-73.58659;45.527233;1;20;21;4629712;Bus 27 : Boulevard Saint-Joseph Ouest;"";STM;27-O;Laurier / Jeanne-d'Arc;Station Laurier (Berri / Saint-Joseph)
