way_id;shape;index;name;nb_lanes;legal_speed;speed_zone_30;oneway;shares_bike;bike_box;bus_lane;dedicated_bus_lane;length;nb_traffic_signals;nb_crossings;nb_stops;nb_give_ways;nb_lvl_crossings;roundabout;stop_id_orig;node_id_orig;coord_x_orig;coord_y_orig;stop_id_dest;node_id_dest;coord_x_dest;coord_y_dest;nb_neighbouring_ways_bus_stop;ordre_orig;ordre_dest;id_line;line_name;colour;operator;ref;from;to
676044674;"{\"type\":\"LineString\",\"coordinates\":[[-73.7440476,45.6766846],[-73.7441852,45.6768481]]}";1;Rue Georges-VI;2;50;false;false;true;false;false;false;22.0;0;0;0;0;0;false;82000;6119525352;-73.744177;45.676748;82001;6119525351;-73.745226;45.676174;1;0;1;9391235;Bus 22 : GARE STE-THÉRÈSE;"";EXO;22 O;George-VI / Côte de Terrebonne;Gare Sainte-Thérèse
40778182;"{\"type\":\"LineString\",\"coordinates\":[[-73.7491808,45.674033],[-73.749144,45.6740563],[-73.748918,45.6741998],[-73.748513,45.6744605],[-73.748423,45.6745184],[-73.74772,45.6749518],[-73.7471457,45.6752734],[-73.7465775,45.6755153],[-73.7457742,45.6758395],[-73.7453045,45.6760551],[-73.7440476,45.6766846]]}";2;Côte de Terrebonne;2;50;false;false;false;false;false;false;498.0;0;0;0;0;0;false;82000;6119525352;-73.744177;45.676748;82001;6119525351;-73.745226;45.676174;2;0;1;9391235;Bus 22 : GARE STE-THÉRÈSE;"";EXO;22 O;George-VI / Côte de Terrebonne;Gare Sainte-Thérèse
135457795;"{\"type\":\"LineString\",\"coordinates\":[[-73.7583516,45.6664649],[-73.7579637,45.666819],[-73.7577684,45.6669972],[-73.7572579,45.6674477],[-73.7566786,45.6679732],[-73.7559467,45.6686943],[-73.7554041,45.6691914],[-73.7552876,45.6693225],[-73.7548943,45.6699407],[-73.7544956,45.6706148],[-73.7544176,45.670742],[-73.7542929,45.6709506],[-73.7539362,45.6714833],[-73.7537696,45.671718],[-73.753609,45.6718802],[-73.7533971,45.6720067],[-73.7531632,45.672095],[-73.7528545,45.6722143],[-73.7523737,45.6723718],[-73.7520119,45.6724875],[-73.7513934,45.6727334],[-73.7513141,45.6727642],[-73.7512608,45.6727902],[-73.7502594,45.6733504],[-73.7501693,45.6734055],[-73.7501292,45.67343]]}";1;Boulevard Adolphe-Chapleau;2;50;false;false;true;false;false;false;516.5;1;0;0;0;0;false;82064;6119525288;-73.758296;45.666679;82009;6119525343;-73.7608;45.664346;1;9;10;9391235;Bus 22 : GARE STE-THÉRÈSE;"";EXO;22 O;George-VI / Côte de Terrebonne;Gare Sainte-Thérèse
32938517;"{\"type\":\"LineString\",\"coordinates\":[[-73.7583516,45.6664649],[-73.7587876,45.6660962],[-73.7589856,45.6659288],[-73.7591828,45.665762]]}";2;Boulevard Adolphe-Chapleau;1;50;false;true;true;false;false;false;102.0;0;0;0;0;0;false;82064;6119525288;-73.758296;45.666679;82009;6119525343;-73.7608;45.664346;0;9;10;9391235;Bus 22 : GARE STE-THÉRÈSE;"";EXO;22 O;George-VI / Côte de Terrebonne;Gare Sainte-Thérèse
455285346;"{\"type\":\"LineString\",\"coordinates\":[[-73.7591828,45.665762],[-73.7595373,45.6654432]]}";3;Boulevard Adolphe-Chapleau;1;50;false;true;true;false;false;false;45.0;1;0;0;0;0;false;82064;6119525288;-73.758296;45.666679;82009;6119525343;-73.7608;45.664346;0;9;10;9391235;Bus 22 : GARE STE-THÉRÈSE;"";EXO;22 O;George-VI / Côte de Terrebonne;Gare Sainte-Thérèse
455285348;"{\"type\":\"LineString\",\"coordinates\":[[-73.7595373,45.6654432],[-73.7596352,45.6653551]]}";4;Boulevard Adolphe-Chapleau;1;50;false;true;true;false;false;false;13.0;2;0;0;0;0;false;82064;6119525288;-73.758296;45.666679;82009;6119525343;-73.7608;45.664346;0;9;10;9391235;Bus 22 : GARE STE-THÉRÈSE;"";EXO;22 O;George-VI / Côte de Terrebonne;Gare Sainte-Thérèse
455285347;"{\"type\":\"LineString\",\"coordinates\":[[-73.7596352,45.6653551],[-73.7599368,45.6650539]]}";5;Boulevard Adolphe-Chapleau;1;50;false;true;true;false;false;false;41.0;1;0;0;0;0;false;82064;6119525288;-73.758296;45.666679;82009;6119525343;-73.7608;45.664346;0;9;10;9391235;Bus 22 : GARE STE-THÉRÈSE;"";EXO;22 O;George-VI / Côte de Terrebonne;Gare Sainte-Thérèse
23565388;"{\"type\":\"LineString\",\"coordinates\":[[-73.7599368,45.6650539],[-73.7601488,45.6648422]]}";6;Boulevard Adolphe-Chapleau;1;50;false;true;true;false;false;false;29.0;0;0;0;0;0;false;82064;6119525288;-73.758296;45.666679;82009;6119525343;-73.7608;45.664346;0;9;10;9391235;Bus 22 : GARE STE-THÉRÈSE;"";EXO;22 O;George-VI / Côte de Terrebonne;Gare Sainte-Thérèse
456605164;"{\"type\":\"LineString\",\"coordinates\":[[-73.7601488,45.6648422],[-73.7602989,45.6646385]]}";7;Boulevard Adolphe-Chapleau;1;50;false;true;true;false;false;false;26.0;1;0;0;0;0;false;82064;6119525288;-73.758296;45.666679;82009;6119525343;-73.7608;45.664346;0;9;10;9391235;Bus 22 : GARE STE-THÉRÈSE;"";EXO;22 O;George-VI / Côte de Terrebonne;Gare Sainte-Thérèse
135457792;"{\"type\":\"LineString\",\"coordinates\":[[-73.7602989,45.6646385],[-73.7608808,45.6641709]]}";8;Boulevard Adolphe-Chapleau;1;50;false;false;true;false;false;false;34.5;1;0;0;0;0;false;82064;6119525288;-73.758296;45.666679;82009;6119525343;-73.7608;45.664346;1;9;10;9391235;Bus 22 : GARE STE-THÉRÈSE;"";EXO;22 O;George-VI / Côte de Terrebonne;Gare Sainte-Thérèse
135457792;"{\"type\":\"LineString\",\"coordinates\":[[-73.7602989,45.6646385],[-73.7608808,45.6641709]]}";1;Boulevard Adolphe-Chapleau;1;50;false;false;true;false;false;false;34.5;1;0;0;0;0;false;82009;6119525343;-73.7608;45.664346;82010;6119525342;-73.762915;45.66185;1;10;11;9391235;Bus 22 : GARE STE-THÉRÈSE;"";EXO;22 O;George-VI / Côte de Terrebonne;Gare Sainte-Thérèse
810096319;"{\"type\":\"LineString\",\"coordinates\":[[-73.7608808,45.6641709],[-73.7609481,45.6641164],[-73.7615148,45.663662],[-73.7618251,45.6634158],[-73.7620432,45.6631667],[-73.762261,45.6628607],[-73.7624776,45.6625038],[-73.7625818,45.6622974],[-73.7627151,45.6620701],[-73.7628931,45.6618576],[-73.7631112,45.6617038],[-73.7632485,45.6616069],[-73.7636328,45.6613357],[-73.7641244,45.6610057],[-73.7642708,45.6609481],[-73.764436,45.6609034],[-73.7649547,45.6607649],[-73.7652647,45.6606783],[-73.76566,45.6604922],[-73.7665113,45.6599845],[-73.766903,45.6597039],[-73.7671726,45.659463],[-73.7675075,45.6590823],[-73.767974,45.6585183],[-73.7681207,45.6583506],[-73.7684524,45.6579711],[-73.768573,45.6578851],[-73.7688836,45.6577132],[-73.7690151,45.6576494],[-73.7698605,45.6572692],[-73.7702211,45.6570359],[-73.770485,45.6568045],[-73.7709834,45.6561898],[-73.7712727,45.6558361]]}";2;Boulevard Adolphe-Chapleau;1;50;false;false;false;false;false;false;630.0;0;0;1;0;0;false;82009;6119525343;-73.7608;45.664346;82010;6119525342;-73.762915;45.66185;1;10;11;9391235;Bus 22 : GARE STE-THÉRÈSE;"";EXO;22 O;George-VI / Côte de Terrebonne;Gare Sainte-Thérèse
810096319;"{\"type\":\"LineString\",\"coordinates\":[[-73.7608808,45.6641709],[-73.7609481,45.6641164],[-73.7615148,45.663662],[-73.7618251,45.6634158],[-73.7620432,45.6631667],[-73.762261,45.6628607],[-73.7624776,45.6625038],[-73.7625818,45.6622974],[-73.7627151,45.6620701],[-73.7628931,45.6618576],[-73.7631112,45.6617038],[-73.7632485,45.6616069],[-73.7636328,45.6613357],[-73.7641244,45.6610057],[-73.7642708,45.6609481],[-73.764436,45.6609034],[-73.7649547,45.6607649],[-73.7652647,45.6606783],[-73.76566,45.6604922],[-73.7665113,45.6599845],[-73.766903,45.6597039],[-73.7671726,45.659463],[-73.7675075,45.6590823],[-73.767974,45.6585183],[-73.7681207,45.6583506],[-73.7684524,45.6579711],[-73.768573,45.6578851],[-73.7688836,45.6577132],[-73.7690151,45.6576494],[-73.7698605,45.6572692],[-73.7702211,45.6570359],[-73.770485,45.6568045],[-73.7709834,45.6561898],[-73.7712727,45.6558361]]}";1;Boulevard Adolphe-Chapleau;1;50;false;false;false;false;false;false;630.0;0;0;1;0;0;false;82013;6119525339;-73.771179;45.656123;82439;6119524175;-73.772759;45.654142;1;14;15;9391235;Bus 22 : GARE STE-THÉRÈSE;"";EXO;22 O;George-VI / Côte de Terrebonne;Gare Sainte-Thérèse
128322018;"{\"type\":\"LineString\",\"coordinates\":[[-73.7712727,45.6558361],[-73.7713577,45.655725]]}";2;Boulevard Adolphe-Chapleau;1;50;false;false;false;false;false;false;15.0;0;0;2;0;0;false;82013;6119525339;-73.771179;45.656123;82439;6119524175;-73.772759;45.654142;0;14;15;9391235;Bus 22 : GARE STE-THÉRÈSE;"";EXO;22 O;George-VI / Côte de Terrebonne;Gare Sainte-Thérèse
40778179;"{\"type\":\"LineString\",\"coordinates\":[[-73.7713577,45.655725],[-73.7715861,45.655525]]}";3;Chemin de la Grande-Côte;1;50;false;false;false;false;false;false;29.0;0;0;1;0;0;false;82013;6119525339;-73.771179;45.656123;82439;6119524175;-73.772759;45.654142;0;14;15;9391235;Bus 22 : GARE STE-THÉRÈSE;"";EXO;22 O;George-VI / Côte de Terrebonne;Gare Sainte-Thérèse
209050637;"{\"type\":\"LineString\",\"coordinates\":[[-73.7715861,45.655525],[-73.7718618,45.6552908]]}";4;Chemin de la Grande-Côte;2;50;false;false;false;false;false;false;34.0;0;0;0;0;0;false;82013;6119525339;-73.771179;45.656123;82439;6119524175;-73.772759;45.654142;0;14;15;9391235;Bus 22 : GARE STE-THÉRÈSE;"";EXO;22 O;George-VI / Côte de Terrebonne;Gare Sainte-Thérèse
209050638;"{\"type\":\"LineString\",\"coordinates\":[[-73.7718618,45.6552908],[-73.7720294,45.6551162],[-73.772197,45.6548947],[-73.7724059,45.6545723],[-73.7725835,45.6542647],[-73.7726111,45.6542093],[-73.7727437,45.6539167],[-73.773015,45.6533282],[-73.7731286,45.6531378],[-73.7733481,45.652886],[-73.7737444,45.652567],[-73.7742017,45.6523018]]}";5;Chemin de la Grande-Côte;1;50;false;false;false;false;false;false;193.0;0;0;0;0;0;false;82013;6119525339;-73.771179;45.656123;82439;6119524175;-73.772759;45.654142;1;14;15;9391235;Bus 22 : GARE STE-THÉRÈSE;"";EXO;22 O;George-VI / Côte de Terrebonne;Gare Sainte-Thérèse
455285361;"{\"type\":\"LineString\",\"coordinates\":[[-73.775853,45.6510155],[-73.7773296,45.649829]]}";1;Chemin de la Grande-Côte;1;50;false;false;true;false;false;false;175.0;0;0;0;0;0;false;82014;6119525338;-73.775847;45.65109;82766;6119523831;-73.777677;45.649749;2;17;18;9391235;Bus 22 : GARE STE-THÉRÈSE;"";EXO;22 O;George-VI / Côte de Terrebonne;Gare Sainte-Thérèse
455285363;"{\"type\":\"LineString\",\"coordinates\":[[-73.7773296,45.649829],[-73.7777258,45.6495237]]}";2;Chemin de la Grande-Côte;1;50;false;false;true;false;false;false;46.0;1;0;0;0;0;false;82014;6119525338;-73.775847;45.65109;82766;6119523831;-73.777677;45.649749;2;17;18;9391235;Bus 22 : GARE STE-THÉRÈSE;"";EXO;22 O;George-VI / Côte de Terrebonne;Gare Sainte-Thérèse
455285363;"{\"type\":\"LineString\",\"coordinates\":[[-73.7773296,45.649829],[-73.7777258,45.6495237]]}";1;Chemin de la Grande-Côte;1;50;false;false;true;false;false;false;23.0;1;0;0;0;0;false;82766;6119523831;-73.777677;45.649749;82015;6119525337;-73.778649;45.64878;1;18;19;9391235;Bus 22 : GARE STE-THÉRÈSE;"";EXO;22 O;George-VI / Côte de Terrebonne;Gare Sainte-Thérèse
455285362;"{\"type\":\"LineString\",\"coordinates\":[[-73.7777258,45.6495237],[-73.7779984,45.6492486]]}";2;Chemin de la Grande-Côte;1;50;false;false;true;false;false;false;38.0;1;0;0;0;0;false;82766;6119523831;-73.777677;45.649749;82015;6119525337;-73.778649;45.64878;0;18;19;9391235;Bus 22 : GARE STE-THÉRÈSE;"";EXO;22 O;George-VI / Côte de Terrebonne;Gare Sainte-Thérèse
128322005;"{\"type\":\"LineString\",\"coordinates\":[[-73.7779984,45.6492486],[-73.7782397,45.6489796],[-73.7786071,45.6485459],[-73.779131,45.6479208],[-73.7799574,45.6469463],[-73.7802617,45.646612],[-73.7804429,45.6464129],[-73.7807874,45.6460303]]}";3;Chemin de la Grande-Côte;1;50;false;false;true;false;false;false;209.5;0;0;1;0;0;false;82766;6119523831;-73.777677;45.649749;82015;6119525337;-73.778649;45.64878;1;18;19;9391235;Bus 22 : GARE STE-THÉRÈSE;"";EXO;22 O;George-VI / Côte de Terrebonne;Gare Sainte-Thérèse
128322005;"{\"type\":\"LineString\",\"coordinates\":[[-73.7779984,45.6492486],[-73.7782397,45.6489796],[-73.7786071,45.6485459],[-73.779131,45.6479208],[-73.7799574,45.6469463],[-73.7802617,45.646612],[-73.7804429,45.6464129],[-73.7807874,45.6460303]]}";1;Chemin de la Grande-Côte;1;50;false;false;true;false;false;false;209.5;0;0;1;0;0;false;82016;6119525336;-73.780752;45.646278;82712;6119523872;-73.781743;45.645206;1;20;21;9391235;Bus 22 : GARE STE-THÉRÈSE;"";EXO;22 O;George-VI / Côte de Terrebonne;Gare Sainte-Thérèse
483202444;"{\"type\":\"LineString\",\"coordinates\":[[-73.7807874,45.6460303],[-73.7817712,45.6450052],[-73.7827587,45.6440705],[-73.783072,45.643725],[-73.7831515,45.643645],[-73.7836041,45.643197],[-73.7839779,45.6428386],[-73.7839797,45.6428281],[-73.7844544,45.642353],[-73.7848704,45.6419502],[-73.7852,45.641613],[-73.7854971,45.6413096],[-73.7858659,45.6408849],[-73.786363,45.640353],[-73.786474,45.6402813],[-73.786592,45.640205],[-73.7871641,45.6399495]]}";2;Chemin de la Grande-Côte;1;50;false;false;true;false;false;false;422.0;0;0;1;0;0;false;82016;6119525336;-73.780752;45.646278;82712;6119523872;-73.781743;45.645206;1;20;21;9391235;Bus 22 : GARE STE-THÉRÈSE;"";EXO;22 O;George-VI / Côte de Terrebonne;Gare Sainte-Thérèse
483202444;"{\"type\":\"LineString\",\"coordinates\":[[-73.7807874,45.6460303],[-73.7817712,45.6450052],[-73.7827587,45.6440705],[-73.783072,45.643725],[-73.7831515,45.643645],[-73.7836041,45.643197],[-73.7839779,45.6428386],[-73.7839797,45.6428281],[-73.7844544,45.642353],[-73.7848704,45.6419502],[-73.7852,45.641613],[-73.7854971,45.6413096],[-73.7858659,45.6408849],[-73.786363,45.640353],[-73.786474,45.6402813],[-73.786592,45.640205],[-73.7871641,45.6399495]]}";1;Chemin de la Grande-Côte;1;50;false;false;true;false;false;false;422.0;0;0;1;0;0;false;82019;6119525333;-73.785412;45.641425;82020;6119525332;-73.787318;45.640038;1;24;25;9391235;Bus 22 : GARE STE-THÉRÈSE;"";EXO;22 O;George-VI / Côte de Terrebonne;Gare Sainte-Thérèse
483202443;"{\"type\":\"LineString\",\"coordinates\":[[-73.7871641,45.6399495],[-73.7874083,45.6398327],[-73.7874745,45.639801]]}";2;Chemin de la Grande-Côte;1;50;false;false;true;false;false;false;15.0;0;0;0;0;0;false;82019;6119525333;-73.785412;45.641425;82020;6119525332;-73.787318;45.640038;1;24;25;9391235;Bus 22 : GARE STE-THÉRÈSE;"";EXO;22 O;George-VI / Côte de Terrebonne;Gare Sainte-Thérèse
483202444;"{\"type\":\"LineString\",\"coordinates\":[[-73.7807874,45.6460303],[-73.7817712,45.6450052],[-73.7827587,45.6440705],[-73.783072,45.643725],[-73.7831515,45.643645],[-73.7836041,45.643197],[-73.7839779,45.6428386],[-73.7839797,45.6428281],[-73.7844544,45.642353],[-73.7848704,45.6419502],[-73.7852,45.641613],[-73.7854971,45.6413096],[-73.7858659,45.6408849],[-73.786363,45.640353],[-73.786474,45.6402813],[-73.786592,45.640205],[-73.7871641,45.6399495]]}";1;Chemin de la Grande-Côte;1;50;false;false;true;false;false;false;844.0;0;0;1;0;0;false;82020;6119525332;-73.787318;45.640038;82021;6119525331;-73.78945;45.638333;2;25;26;9391235;Bus 22 : GARE STE-THÉRÈSE;"";EXO;22 O;George-VI / Côte de Terrebonne;Gare Sainte-Thérèse
483202443;"{\"type\":\"LineString\",\"coordinates\":[[-73.7871641,45.6399495],[-73.7874083,45.6398327],[-73.7874745,45.639801]]}";2;Chemin de la Grande-Côte;1;50;false;false;true;false;false;false;30.0;0;0;0;0;0;false;82020;6119525332;-73.787318;45.640038;82021;6119525331;-73.78945;45.638333;0;25;26;9391235;Bus 22 : GARE STE-THÉRÈSE;"";EXO;22 O;George-VI / Côte de Terrebonne;Gare Sainte-Thérèse
242287921;"{\"type\":\"LineString\",\"coordinates\":[[-73.7874745,45.639801],[-73.788283,45.63899],[-73.7886571,45.6387111],[-73.788833,45.63858],[-73.7896171,45.6381408],[-73.7906318,45.637603],[-73.7916365,45.6370573],[-73.7923418,45.6366545],[-73.7927565,45.6364177],[-73.7930781,45.636234],[-73.7932277,45.6361488],[-73.7935918,45.6359297],[-73.7938865,45.6356319],[-73.7940888,45.6353885],[-73.7943202,45.6349699]]}";3;Chemin de la Grande-Côte;1;50;false;false;true;false;false;false;768.0;0;0;0;0;0;false;82020;6119525332;-73.787318;45.640038;82021;6119525331;-73.78945;45.638333;2;25;26;9391235;Bus 22 : GARE STE-THÉRÈSE;"";EXO;22 O;George-VI / Côte de Terrebonne;Gare Sainte-Thérèse
242287921;"{\"type\":\"LineString\",\"coordinates\":[[-73.7874745,45.639801],[-73.788283,45.63899],[-73.7886571,45.6387111],[-73.788833,45.63858],[-73.7896171,45.6381408],[-73.7906318,45.637603],[-73.7916365,45.6370573],[-73.7923418,45.6366545],[-73.7927565,45.6364177],[-73.7930781,45.636234],[-73.7932277,45.6361488],[-73.7935918,45.6359297],[-73.7938865,45.6356319],[-73.7940888,45.6353885],[-73.7943202,45.6349699]]}";1;Chemin de la Grande-Côte;1;50;false;false;true;false;false;false;384.0;0;0;0;0;0;false;82022;6119525330;-73.7922369;45.6367963;82023;6119525329;-73.794665;45.634704;1;27;28;9391235;Bus 22 : GARE STE-THÉRÈSE;"";EXO;22 O;George-VI / Côte de Terrebonne;Gare Sainte-Thérèse
676044664;"{\"type\":\"LineString\",\"coordinates\":[[-73.7943202,45.6349699],[-73.7943629,45.6348775],[-73.7944134,45.6347539],[-73.7944586,45.6345671],[-73.7944986,45.6344297]]}";2;Chemin de la Grande-Côte;1;50;false;false;true;false;false;false;31.0;0;0;0;0;0;false;82022;6119525330;-73.7922369;45.6367963;82023;6119525329;-73.794665;45.634704;1;27;28;9391235;Bus 22 : GARE STE-THÉRÈSE;"";EXO;22 O;George-VI / Côte de Terrebonne;Gare Sainte-Thérèse
676044664;"{\"type\":\"LineString\",\"coordinates\":[[-73.7943202,45.6349699],[-73.7943629,45.6348775],[-73.7944134,45.6347539],[-73.7944586,45.6345671],[-73.7944986,45.6344297]]}";1;Chemin de la Grande-Côte;1;50;false;false;true;false;false;false;31.0;0;0;0;0;0;false;82023;6119525329;-73.794665;45.634704;82024;6119525328;-73.794547;45.63356;1;28;29;9391235;Bus 22 : GARE STE-THÉRÈSE;"";EXO;22 O;George-VI / Côte de Terrebonne;Gare Sainte-Thérèse
676044667;"{\"type\":\"LineString\",\"coordinates\":[[-73.7944986,45.6344297],[-73.7945365,45.6341827],[-73.7945553,45.633982],[-73.7945569,45.633927],[-73.7945676,45.6338169],[-73.7945749,45.6337153],[-73.7946234,45.6329899]]}";2;Chemin de la Grande-Côte;1;50;false;false;true;false;false;false;80.5;3;0;0;0;0;false;82023;6119525329;-73.794665;45.634704;82024;6119525328;-73.794547;45.63356;1;28;29;9391235;Bus 22 : GARE STE-THÉRÈSE;"";EXO;22 O;George-VI / Côte de Terrebonne;Gare Sainte-Thérèse
676044667;"{\"type\":\"LineString\",\"coordinates\":[[-73.7944986,45.6344297],[-73.7945365,45.6341827],[-73.7945553,45.633982],[-73.7945569,45.633927],[-73.7945676,45.6338169],[-73.7945749,45.6337153],[-73.7946234,45.6329899]]}";1;Chemin de la Grande-Côte;1;50;false;false;true;false;false;false;80.5;3;0;0;0;0;false;82024;6119525328;-73.794547;45.63356;82025;6119525327;-73.795713;45.63128;1;29;30;9391235;Bus 22 : GARE STE-THÉRÈSE;"";EXO;22 O;George-VI / Côte de Terrebonne;Gare Sainte-Thérèse
672535506;"{\"type\":\"LineString\",\"coordinates\":[[-73.7946234,45.6329899],[-73.7948064,45.6325294],[-73.7949563,45.6322699],[-73.794995,45.632192],[-73.7952568,45.6318],[-73.7953186,45.6317105],[-73.7957612,45.631079]]}";2;Chemin de la Grande-Côte;1;50;false;false;true;false;false;false;115.5;1;0;0;0;0;false;82024;6119525328;-73.794547;45.63356;82025;6119525327;-73.795713;45.63128;1;29;30;9391235;Bus 22 : GARE STE-THÉRÈSE;"";EXO;22 O;George-VI / Côte de Terrebonne;Gare Sainte-Thérèse
672535506;"{\"type\":\"LineString\",\"coordinates\":[[-73.7946234,45.6329899],[-73.7948064,45.6325294],[-73.7949563,45.6322699],[-73.794995,45.632192],[-73.7952568,45.6318],[-73.7953186,45.6317105],[-73.7957612,45.631079]]}";1;Chemin de la Grande-Côte;1;50;false;false;true;false;false;false;115.5;1;0;0;0;0;false;82025;6119525327;-73.795713;45.63128;82026;6119525326;-73.797292;45.629641;1;30;31;9391235;Bus 22 : GARE STE-THÉRÈSE;"";EXO;22 O;George-VI / Côte de Terrebonne;Gare Sainte-Thérèse
674529998;"{\"type\":\"LineString\",\"coordinates\":[[-73.7957612,45.631079],[-73.79601,45.630723],[-73.7962914,45.6304257],[-73.796317,45.630393]]}";2;Chemin de la Grande-Côte;1;50;false;false;true;false;false;false;88.0;0;0;0;0;0;false;82025;6119525327;-73.795713;45.63128;82026;6119525326;-73.797292;45.629641;0;30;31;9391235;Bus 22 : GARE STE-THÉRÈSE;"";EXO;22 O;George-VI / Côte de Terrebonne;Gare Sainte-Thérèse
674530023;"{\"type\":\"LineString\",\"coordinates\":[[-73.796317,45.630393],[-73.796805,45.629883],[-73.7970317,45.6296964]]}";3;Chemin de la Grande-Côte;1;50;false;false;true;false;false;false;96.0;0;0;0;0;0;false;82025;6119525327;-73.795713;45.63128;82026;6119525326;-73.797292;45.629641;0;30;31;9391235;Bus 22 : GARE STE-THÉRÈSE;"";EXO;22 O;George-VI / Côte de Terrebonne;Gare Sainte-Thérèse
233963080;"{\"type\":\"LineString\",\"coordinates\":[[-73.7970317,45.6296964],[-73.7981,45.628817],[-73.7981683,45.6287654]]}";4;Chemin de la Grande-Côte;1;50;false;false;true;false;false;false;68.5;0;0;0;0;0;false;82025;6119525327;-73.795713;45.63128;82026;6119525326;-73.797292;45.629641;1;30;31;9391235;Bus 22 : GARE STE-THÉRÈSE;"";EXO;22 O;George-VI / Côte de Terrebonne;Gare Sainte-Thérèse
233963080;"{\"type\":\"LineString\",\"coordinates\":[[-73.7970317,45.6296964],[-73.7981,45.628817],[-73.7981683,45.6287654]]}";1;Chemin de la Grande-Côte;1;50;false;false;true;false;false;false;68.5;0;0;0;0;0;false;82026;6119525326;-73.797292;45.629641;82027;6119525325;-73.798861;45.628279;1;31;32;9391235;Bus 22 : GARE STE-THÉRÈSE;"";EXO;22 O;George-VI / Côte de Terrebonne;Gare Sainte-Thérèse
429298858;"{\"type\":\"LineString\",\"coordinates\":[[-73.7981683,45.6287654],[-73.7986712,45.6283655],[-73.7990183,45.6280895],[-73.7991991,45.6279574],[-73.7997257,45.6275228],[-73.8003185,45.6269363],[-73.8005921,45.6266618]]}";2;Chemin de la Grande-Côte;1;50;false;false;true;false;false;false;150.5;0;0;0;0;0;false;82026;6119525326;-73.797292;45.629641;82027;6119525325;-73.798861;45.628279;1;31;32;9391235;Bus 22 : GARE STE-THÉRÈSE;"";EXO;22 O;George-VI / Côte de Terrebonne;Gare Sainte-Thérèse
429298858;"{\"type\":\"LineString\",\"coordinates\":[[-73.7981683,45.6287654],[-73.7986712,45.6283655],[-73.7990183,45.6280895],[-73.7991991,45.6279574],[-73.7997257,45.6275228],[-73.8003185,45.6269363],[-73.8005921,45.6266618]]}";1;Chemin de la Grande-Côte;1;50;false;false;true;false;false;false;150.5;0;0;0;0;0;false;82027;6119525325;-73.798861;45.628279;83107;6119523014;-73.80089;45.626294;1;32;33;9391235;Bus 22 : GARE STE-THÉRÈSE;"";EXO;22 O;George-VI / Côte de Terrebonne;Gare Sainte-Thérèse
233961917;"{\"type\":\"LineString\",\"coordinates\":[[-73.8005921,45.6266618],[-73.8009241,45.6263062]]}";2;Chemin de la Grande-Côte;1;50;false;false;true;false;false;false;24.0;0;0;0;0;0;false;82027;6119525325;-73.798861;45.628279;83107;6119523014;-73.80089;45.626294;1;32;33;9391235;Bus 22 : GARE STE-THÉRÈSE;"";EXO;22 O;George-VI / Côte de Terrebonne;Gare Sainte-Thérèse
233961918;"{\"type\":\"LineString\",\"coordinates\":[[-73.8009241,45.6263062],[-73.8019652,45.6250676],[-73.8022745,45.6247216],[-73.8024601,45.6244661]]}";1;Chemin de la Grande-Côte;1;50;false;false;true;false;false;false;118.5;0;0;0;0;0;false;82028;6119525324;-73.801856;45.625303;82029;6119525323;-73.803085;45.624434;1;34;35;9391235;Bus 22 : GARE STE-THÉRÈSE;"";EXO;22 O;George-VI / Côte de Terrebonne;Gare Sainte-Thérèse
40435745;"{\"type\":\"LineString\",\"coordinates\":[[-73.8024601,45.6244661],[-73.8026623,45.6243799],[-73.8028121,45.6243828],[-73.8030858,45.6244425]]}";2;"";1;50;false;true;true;false;false;false;26.5;0;0;0;0;0;false;82028;6119525324;-73.801856;45.625303;82029;6119525323;-73.803085;45.624434;1;34;35;9391235;Bus 22 : GARE STE-THÉRÈSE;"";EXO;22 O;George-VI / Côte de Terrebonne;Gare Sainte-Thérèse
378150293;"{\"type\":\"LineString\",\"coordinates\":[[-73.8085225,45.6279624],[-73.8086614,45.6280536]]}";1;Boulevard Curé-Labelle;2;60;false;true;true;false;false;false;15.0;0;0;0;0;0;false;82030;6119525322;-73.808356;45.627859;82031;6119525321;-73.813622;45.631477;2;36;37;9391235;Bus 22 : GARE STE-THÉRÈSE;"";EXO;22 O;George-VI / Côte de Terrebonne;Gare Sainte-Thérèse
233925637;"{\"type\":\"LineString\",\"coordinates\":[[-73.8086614,45.6280536],[-73.8090241,45.6283237]]}";2;Boulevard Curé-Labelle;2;60;false;true;true;false;false;false;42.0;1;0;0;0;0;false;82030;6119525322;-73.808356;45.627859;82031;6119525321;-73.813622;45.631477;0;36;37;9391235;Bus 22 : GARE STE-THÉRÈSE;"";EXO;22 O;George-VI / Côte de Terrebonne;Gare Sainte-Thérèse
233925634;"{\"type\":\"LineString\",\"coordinates\":[[-73.8090241,45.6283237],[-73.8113108,45.6298851]]}";3;Boulevard Curé-Labelle;2;60;false;true;true;false;false;false;249.0;1;0;0;0;0;false;82030;6119525322;-73.808356;45.627859;82031;6119525321;-73.813622;45.631477;0;36;37;9391235;Bus 22 : GARE STE-THÉRÈSE;"";EXO;22 O;George-VI / Côte de Terrebonne;Gare Sainte-Thérèse
545998052;"{\"type\":\"LineString\",\"coordinates\":[[-73.8113108,45.6298851],[-73.8122775,45.6305023]]}";4;Boulevard Curé-Labelle;2;60;false;true;true;false;false;false;102.0;0;0;0;0;0;false;82030;6119525322;-73.808356;45.627859;82031;6119525321;-73.813622;45.631477;0;36;37;9391235;Bus 22 : GARE STE-THÉRÈSE;"";EXO;22 O;George-VI / Côte de Terrebonne;Gare Sainte-Thérèse
545998051;"{\"type\":\"LineString\",\"coordinates\":[[-73.8122775,45.6305023],[-73.8137408,45.6315006]]}";5;Boulevard Curé-Labelle;2;60;false;true;true;false;false;false;160.0;0;0;0;0;0;false;82030;6119525322;-73.808356;45.627859;82031;6119525321;-73.813622;45.631477;2;36;37;9391235;Bus 22 : GARE STE-THÉRÈSE;"";EXO;22 O;George-VI / Côte de Terrebonne;Gare Sainte-Thérèse
455451810;"{\"type\":\"LineString\",\"coordinates\":[[-73.8137408,45.6315006],[-73.8138666,45.6315787]]}";1;Boulevard Curé-Labelle;2;60;false;true;true;false;false;false;14.0;1;0;0;0;0;false;82031;6119525321;-73.813622;45.631477;82032;6119525320;-73.815346;45.632453;2;37;38;9391235;Bus 22 : GARE STE-THÉRÈSE;"";EXO;22 O;George-VI / Côte de Terrebonne;Gare Sainte-Thérèse
455451813;"{\"type\":\"LineString\",\"coordinates\":[[-73.8138666,45.6315787],[-73.8143049,45.6318418]]}";2;Boulevard Curé-Labelle;2;60;false;true;true;false;false;false;45.0;1;0;0;0;0;false;82031;6119525321;-73.813622;45.631477;82032;6119525320;-73.815346;45.632453;0;37;38;9391235;Bus 22 : GARE STE-THÉRÈSE;"";EXO;22 O;George-VI / Côte de Terrebonne;Gare Sainte-Thérèse
455451814;"{\"type\":\"LineString\",\"coordinates\":[[-73.8143049,45.6318418],[-73.8148628,45.632135],[-73.8153123,45.6323487],[-73.8161564,45.6327281],[-73.8162792,45.6327752]]}";3;Boulevard Curé-Labelle;2;60;false;true;true;false;false;false;186.0;1;0;0;0;0;false;82031;6119525321;-73.813622;45.631477;82032;6119525320;-73.815346;45.632453;2;37;38;9391235;Bus 22 : GARE STE-THÉRÈSE;"";EXO;22 O;George-VI / Côte de Terrebonne;Gare Sainte-Thérèse
455451814;"{\"type\":\"LineString\",\"coordinates\":[[-73.8143049,45.6318418],[-73.8148628,45.632135],[-73.8153123,45.6323487],[-73.8161564,45.6327281],[-73.8162792,45.6327752]]}";1;Boulevard Curé-Labelle;2;60;false;true;true;false;false;false;93.0;1;0;0;0;0;false;82032;6119525320;-73.815346;45.632453;82033;6119525319;-73.822636;45.634986;1;38;39;9391235;Bus 22 : GARE STE-THÉRÈSE;"";EXO;22 O;George-VI / Côte de Terrebonne;Gare Sainte-Thérèse
455316733;"{\"type\":\"LineString\",\"coordinates\":[[-73.8162792,45.6327752],[-73.8163885,45.6328249]]}";2;Boulevard Curé-Labelle;2;60;false;true;true;false;false;false;11.0;2;0;0;0;0;false;82032;6119525320;-73.815346;45.632453;82033;6119525319;-73.822636;45.634986;0;38;39;9391235;Bus 22 : GARE STE-THÉRÈSE;"";EXO;22 O;George-VI / Côte de Terrebonne;Gare Sainte-Thérèse
455097997;"{\"type\":\"LineString\",\"coordinates\":[[-73.8163885,45.6328249],[-73.8170541,45.6331218]]}";3;Boulevard Curé-Labelle;2;50;false;true;true;false;false;false;62.0;1;0;0;0;0;false;82032;6119525320;-73.815346;45.632453;82033;6119525319;-73.822636;45.634986;0;38;39;9391235;Bus 22 : GARE STE-THÉRÈSE;"";EXO;22 O;George-VI / Côte de Terrebonne;Gare Sainte-Thérèse
58939603;"{\"type\":\"LineString\",\"coordinates\":[[-73.8170541,45.6331218],[-73.8174538,45.6332841],[-73.818313,45.6336332],[-73.8193353,45.6340485]]}";4;Boulevard Curé-Labelle;2;50;false;true;true;false;false;false;206.0;0;0;0;0;0;false;82032;6119525320;-73.815346;45.632453;82033;6119525319;-73.822636;45.634986;0;38;39;9391235;Bus 22 : GARE STE-THÉRÈSE;"";EXO;22 O;George-VI / Côte de Terrebonne;Gare Sainte-Thérèse
500685366;"{\"type\":\"LineString\",\"coordinates\":[[-73.8193353,45.6340485],[-73.820196,45.6344048],[-73.8212554,45.6348945]]}";5;Boulevard Curé-Labelle;2;50;false;true;true;false;false;false;177.0;1;0;0;0;0;false;82032;6119525320;-73.815346;45.632453;82033;6119525319;-73.822636;45.634986;0;38;39;9391235;Bus 22 : GARE STE-THÉRÈSE;"";EXO;22 O;George-VI / Côte de Terrebonne;Gare Sainte-Thérèse
676383659;"{\"type\":\"LineString\",\"coordinates\":[[-73.8212554,45.6348945],[-73.8213525,45.6349621]]}";6;Boulevard Curé-Labelle;2;50;false;true;true;false;false;false;11.0;2;0;0;0;0;false;82032;6119525320;-73.815346;45.632453;82033;6119525319;-73.822636;45.634986;0;38;39;9391235;Bus 22 : GARE STE-THÉRÈSE;"";EXO;22 O;George-VI / Côte de Terrebonne;Gare Sainte-Thérèse
470951517;"{\"type\":\"LineString\",\"coordinates\":[[-73.8213525,45.6349621],[-73.8214283,45.6349091]]}";7;Boulevard Desjardins Est;1;50;false;true;true;false;false;false;9.0;2;0;0;0;0;false;82032;6119525320;-73.815346;45.632453;82033;6119525319;-73.822636;45.634986;0;38;39;9391235;Bus 22 : GARE STE-THÉRÈSE;"";EXO;22 O;George-VI / Côte de Terrebonne;Gare Sainte-Thérèse
23592123;"{\"type\":\"LineString\",\"coordinates\":[[-73.8214283,45.6349091],[-73.8215813,45.6348094],[-73.8217749,45.6347277],[-73.8219644,45.634696],[-73.8222244,45.6346836]]}";8;Boulevard Desjardins Est;1;40;false;true;true;false;false;false;70.0;1;0;0;0;0;false;82032;6119525320;-73.815346;45.632453;82033;6119525319;-73.822636;45.634986;0;38;39;9391235;Bus 22 : GARE STE-THÉRÈSE;"";EXO;22 O;George-VI / Côte de Terrebonne;Gare Sainte-Thérèse
24783787;"{\"type\":\"LineString\",\"coordinates\":[[-73.8222244,45.6346836],[-73.8224752,45.6346844],[-73.8227957,45.6347287],[-73.8237039,45.6348755],[-73.8242893,45.6349395],[-73.8246625,45.6349529],[-73.8249806,45.6349644],[-73.82603,45.6349616],[-73.826275,45.63497],[-73.8265576,45.6349691],[-73.8277393,45.6349655],[-73.8279516,45.6349649],[-73.828371,45.6349636],[-73.828543,45.6349631],[-73.8288256,45.6349593],[-73.8295015,45.6349502],[-73.8297348,45.634928],[-73.83011,45.6348568],[-73.8303031,45.6348021],[-73.830473,45.6347483],[-73.8306253,45.634692],[-73.8308909,45.6346017],[-73.8312648,45.6344038],[-73.8312914,45.6343832]]}";9;Boulevard Desjardins Est;2;40;false;true;true;false;false;false;363.0;0;0;0;0;0;false;82032;6119525320;-73.815346;45.632453;82033;6119525319;-73.822636;45.634986;1;38;39;9391235;Bus 22 : GARE STE-THÉRÈSE;"";EXO;22 O;George-VI / Côte de Terrebonne;Gare Sainte-Thérèse
24783787;"{\"type\":\"LineString\",\"coordinates\":[[-73.8222244,45.6346836],[-73.8224752,45.6346844],[-73.8227957,45.6347287],[-73.8237039,45.6348755],[-73.8242893,45.6349395],[-73.8246625,45.6349529],[-73.8249806,45.6349644],[-73.82603,45.6349616],[-73.826275,45.63497],[-73.8265576,45.6349691],[-73.8277393,45.6349655],[-73.8279516,45.6349649],[-73.828371,45.6349636],[-73.828543,45.6349631],[-73.8288256,45.6349593],[-73.8295015,45.6349502],[-73.8297348,45.634928],[-73.83011,45.6348568],[-73.8303031,45.6348021],[-73.830473,45.6347483],[-73.8306253,45.634692],[-73.8308909,45.6346017],[-73.8312648,45.6344038],[-73.8312914,45.6343832]]}";1;Boulevard Desjardins Est;2;40;false;true;true;false;false;false;363.0;0;0;0;0;0;false;82844;6119523785;-73.829385;45.634908;82035;6119525317;-73.834747;45.635784;1;41;42;9391235;Bus 22 : GARE STE-THÉRÈSE;"";EXO;22 O;George-VI / Côte de Terrebonne;Gare Sainte-Thérèse
653256415;"{\"type\":\"LineString\",\"coordinates\":[[-73.8312914,45.6343832],[-73.8319665,45.6348309],[-73.8321067,45.6349239],[-73.8322795,45.6350385],[-73.8326436,45.6352799],[-73.8329976,45.6355146]]}";2;Rue Saint-Alphonse;1;50;false;false;true;false;false;false;183.0;0;0;0;0;0;false;82844;6119523785;-73.829385;45.634908;82035;6119525317;-73.834747;45.635784;0;41;42;9391235;Bus 22 : GARE STE-THÉRÈSE;"";EXO;22 O;George-VI / Côte de Terrebonne;Gare Sainte-Thérèse
529203724;"{\"type\":\"LineString\",\"coordinates\":[[-73.8339481,45.6356843],[-73.8337953,45.6356449],[-73.8337255,45.6356355],[-73.8335183,45.6356418],[-73.8331872,45.6356518],[-73.8329976,45.6355146]]}";3;"";1;50;false;false;true;false;false;false;82.0;0;0;0;0;0;false;82844;6119523785;-73.829385;45.634908;82035;6119525317;-73.834747;45.635784;0;41;42;9391235;Bus 22 : GARE STE-THÉRÈSE;"";EXO;22 O;George-VI / Côte de Terrebonne;Gare Sainte-Thérèse
529203723;"{\"type\":\"LineString\",\"coordinates\":[[-73.8339481,45.6356843],[-73.8343198,45.635673],[-73.8355432,45.6356357],[-73.835722,45.6356303],[-73.8358794,45.6356222],[-73.8360357,45.6356141]]}";4;"";1;50;false;true;true;false;false;false;163.0;0;0;0;0;0;false;82844;6119523785;-73.829385;45.634908;82035;6119525317;-73.834747;45.635784;0;41;42;9391235;Bus 22 : GARE STE-THÉRÈSE;"";EXO;22 O;George-VI / Côte de Terrebonne;Gare Sainte-Thérèse
293537867;"{\"type\":\"LineString\",\"coordinates\":[[-73.8360357,45.6356141],[-73.8360384,45.635693],[-73.8360089,45.6357774],[-73.8359547,45.6358045],[-73.8358842,45.6358399]]}";5;"";1;50;false;true;true;false;false;false;31.0;0;0;0;0;0;false;82844;6119523785;-73.829385;45.634908;82035;6119525317;-73.834747;45.635784;0;41;42;9391235;Bus 22 : GARE STE-THÉRÈSE;"";EXO;22 O;George-VI / Côte de Terrebonne;Gare Sainte-Thérèse
676299802;"{\"type\":\"LineString\",\"coordinates\":[[-73.8358842,45.6358399],[-73.8355794,45.6358509],[-73.834757,45.6358805]]}";6;"";1;50;false;true;true;false;false;false;88.0;0;0;0;0;0;false;82844;6119523785;-73.829385;45.634908;82035;6119525317;-73.834747;45.635784;1;41;42;9391235;Bus 22 : GARE STE-THÉRÈSE;"";EXO;22 O;George-VI / Côte de Terrebonne;Gare Sainte-Thérèse
