way_id;shape;index;name;nb_lanes;legal_speed;speed_zone_30;oneway;shares_bike;bike_box;bus_lane;dedicated_bus_lane;length;nb_traffic_signals;nb_crossings;nb_stops;nb_give_ways;nb_lvl_crossings;roundabout;stop_id_orig;node_id_orig;coord_x_orig;coord_y_orig;stop_id_dest;node_id_dest;coord_x_dest;coord_y_dest;nb_neighbouring_ways_bus_stop;ordre_orig;ordre_dest;id_line;line_name;colour;operator;ref;from;to
676836221;"{\"type\":\"LineString\",\"coordinates\":[[-73.8704184,45.646708],[-73.8717103,45.6475578],[-73.8727885,45.6482638],[-73.8731909,45.6484011],[-73.8737049,45.6485676],[-73.8749173,45.6489036],[-73.8756426,45.6490934],[-73.8767172,45.6493893]]}";1;Rue du Plein-Air;2;50;false;false;false;false;false;false;584.0;0;0;0;0;0;false;82187;6119525194;-73.873641;45.648589;82188;6119525193;-73.876741;45.649483;1;2;3;9396795;Bus 59 : MÉTRO MONTMORENCY;"";EXO;59 S;du Plein-Air / Place du Canoë;Station Montmorency
46424581;"{\"type\":\"LineString\",\"coordinates\":[[-73.8767172,45.6493893],[-73.8768567,45.6494717]]}";2;Rue du Plein-Air;2;50;false;false;false;false;false;false;7.5;0;0;0;0;0;false;82187;6119525194;-73.873641;45.648589;82188;6119525193;-73.876741;45.649483;1;2;3;9396795;Bus 59 : MÉTRO MONTMORENCY;"";EXO;59 S;du Plein-Air / Place du Canoë;Station Montmorency
46424568;"{\"type\":\"LineString\",\"coordinates\":[[-73.8768567,45.6494717],[-73.8773418,45.6497656]]}";1;Rue du Plein-Air;2;50;false;false;false;false;false;false;50.0;0;0;0;0;0;false;82188;6119525193;-73.876741;45.649483;82189;6119525192;-73.878107;45.650328;2;3;4;9396795;Bus 59 : MÉTRO MONTMORENCY;"";EXO;59 S;du Plein-Air / Place du Canoë;Station Montmorency
234653552;"{\"type\":\"LineString\",\"coordinates\":[[-73.8773418,45.6497656],[-73.8778,45.6500743]]}";2;Rue du Plein-Air;2;50;false;false;true;false;false;false;50.0;0;0;0;0;0;false;82188;6119525193;-73.876741;45.649483;82189;6119525192;-73.878107;45.650328;0;3;4;9396795;Bus 59 : MÉTRO MONTMORENCY;"";EXO;59 S;du Plein-Air / Place du Canoë;Station Montmorency
151618276;"{\"type\":\"LineString\",\"coordinates\":[[-73.8778,45.6500743],[-73.8781997,45.65034],[-73.8788965,45.6507969],[-73.8796316,45.6512632],[-73.880328,45.651738],[-73.8812068,45.6523427],[-73.8814157,45.6524693],[-73.8815775,45.652541],[-73.8817928,45.6525973],[-73.8824458,45.6525981],[-73.8833124,45.6525959],[-73.884612,45.6525901],[-73.8852425,45.6525799],[-73.8858133,45.6525473]]}";3;Rue du Plein-Air;2;50;false;false;false;false;false;false;734.0;0;0;0;0;0;false;82188;6119525193;-73.876741;45.649483;82189;6119525192;-73.878107;45.650328;2;3;4;9396795;Bus 59 : MÉTRO MONTMORENCY;"";EXO;59 S;du Plein-Air / Place du Canoë;Station Montmorency
151618276;"{\"type\":\"LineString\",\"coordinates\":[[-73.8778,45.6500743],[-73.8781997,45.65034],[-73.8788965,45.6507969],[-73.8796316,45.6512632],[-73.880328,45.651738],[-73.8812068,45.6523427],[-73.8814157,45.6524693],[-73.8815775,45.652541],[-73.8817928,45.6525973],[-73.8824458,45.6525981],[-73.8833124,45.6525959],[-73.884612,45.6525901],[-73.8852425,45.6525799],[-73.8858133,45.6525473]]}";1;Rue du Plein-Air;2;50;false;false;false;false;false;false;367.0;0;0;0;0;0;false;82192;6119525189;-73.884504;45.652647;82863;6119523267;-73.884428;45.649845;1;7;8;9396795;Bus 59 : MÉTRO MONTMORENCY;"";EXO;59 S;du Plein-Air / Place du Canoë;Station Montmorency
237744260;"{\"type\":\"LineString\",\"coordinates\":[[-73.8782086,45.6446841],[-73.8783858,45.6448826],[-73.8785166,45.6450251],[-73.8788301,45.6453823],[-73.8788803,45.6454416],[-73.8793343,45.6458695],[-73.8795311,45.6460269],[-73.8797218,45.6461457],[-73.8797893,45.6461877],[-73.8799345,45.6462663],[-73.8803095,45.6464693],[-73.8804545,45.6465477],[-73.8806697,45.6466346],[-73.8807801,45.6466792],[-73.8809373,45.6467427],[-73.8811371,45.6468478],[-73.8813187,45.6469433],[-73.8816883,45.6471852],[-73.8821389,45.6476352],[-73.8822606,45.6478309],[-73.8823535,45.6479802],[-73.8824399,45.6481404],[-73.8825317,45.6483447],[-73.8825675,45.6484379],[-73.8825885,45.6485012],[-73.8826206,45.6486082],[-73.8826803,45.6487016],[-73.8829167,45.648931],[-73.8832371,45.6491454],[-73.883389,45.649247],[-73.8839229,45.6496044],[-73.8843049,45.6498395],[-73.885138,45.6503803],[-73.8855285,45.6506491],[-73.8856319,45.6507586],[-73.8856966,45.6508852],[-73.8857714,45.6516466],[-73.8858192,45.6524018],[-73.8858133,45.6525473]]}";2;Rue du Grand-Prix;2;50;false;false;false;false;false;false;553.0;0;0;0;0;0;false;82192;6119525189;-73.884504;45.652647;82863;6119523267;-73.884428;45.649845;1;7;8;9396795;Bus 59 : MÉTRO MONTMORENCY;"";EXO;59 S;du Plein-Air / Place du Canoë;Station Montmorency
237744260;"{\"type\":\"LineString\",\"coordinates\":[[-73.8782086,45.6446841],[-73.8783858,45.6448826],[-73.8785166,45.6450251],[-73.8788301,45.6453823],[-73.8788803,45.6454416],[-73.8793343,45.6458695],[-73.8795311,45.6460269],[-73.8797218,45.6461457],[-73.8797893,45.6461877],[-73.8799345,45.6462663],[-73.8803095,45.6464693],[-73.8804545,45.6465477],[-73.8806697,45.6466346],[-73.8807801,45.6466792],[-73.8809373,45.6467427],[-73.8811371,45.6468478],[-73.8813187,45.6469433],[-73.8816883,45.6471852],[-73.8821389,45.6476352],[-73.8822606,45.6478309],[-73.8823535,45.6479802],[-73.8824399,45.6481404],[-73.8825317,45.6483447],[-73.8825675,45.6484379],[-73.8825885,45.6485012],[-73.8826206,45.6486082],[-73.8826803,45.6487016],[-73.8829167,45.648931],[-73.8832371,45.6491454],[-73.883389,45.649247],[-73.8839229,45.6496044],[-73.8843049,45.6498395],[-73.885138,45.6503803],[-73.8855285,45.6506491],[-73.8856319,45.6507586],[-73.8856966,45.6508852],[-73.8857714,45.6516466],[-73.8858192,45.6524018],[-73.8858133,45.6525473]]}";1;Rue du Grand-Prix;2;50;false;false;false;false;false;false;553.0;0;0;0;0;0;false;82809;6119523800;-73.880728;45.646609;82945;6119523199;-73.878073;45.644409;1;10;11;9396795;Bus 59 : MÉTRO MONTMORENCY;"";EXO;59 S;du Plein-Air / Place du Canoë;Station Montmorency
234656387;"{\"type\":\"LineString\",\"coordinates\":[[-73.8782086,45.6446841],[-73.8781442,45.6445137],[-73.878146,45.6444245],[-73.8782078,45.6442802]]}";2;Rue du Grand-Prix;1;50;false;true;true;false;false;false;23.5;0;0;0;0;0;false;82809;6119523800;-73.880728;45.646609;82945;6119523199;-73.878073;45.644409;1;10;11;9396795;Bus 59 : MÉTRO MONTMORENCY;"";EXO;59 S;du Plein-Air / Place du Canoë;Station Montmorency
234653565;"{\"type\":\"LineString\",\"coordinates\":[[-73.878347,45.6431327],[-73.8784809,45.6432833],[-73.878546,45.6433568],[-73.8785815,45.6434398],[-73.8785956,45.6435415],[-73.8785667,45.6436358],[-73.8785294,45.6437711],[-73.878443,45.6440253],[-73.8783911,45.644113],[-73.8783241,45.6441897],[-73.8782078,45.6442802]]}";1;Boulevard de la Grande-Allée;1;50;false;false;false;false;false;false;70.0;0;0;0;0;0;false;83426;6119522932;-73.878714;45.643345;83000;6119523076;-73.873131;45.638865;1;12;13;9396795;Bus 59 : MÉTRO MONTMORENCY;"";EXO;59 S;du Plein-Air / Place du Canoë;Station Montmorency
237744665;"{\"type\":\"LineString\",\"coordinates\":[[-73.878347,45.6431327],[-73.8782136,45.642976],[-73.8781216,45.6428276],[-73.8779628,45.6426086]]}";2;Boulevard de la Grande-Allée;1;50;false;true;true;false;false;false;66.0;0;0;1;0;0;false;83426;6119522932;-73.878714;45.643345;83000;6119523076;-73.873131;45.638865;0;12;13;9396795;Bus 59 : MÉTRO MONTMORENCY;"";EXO;59 S;du Plein-Air / Place du Canoë;Station Montmorency
676602476;"{\"type\":\"LineString\",\"coordinates\":[[-73.8779628,45.6426086],[-73.8778239,45.642395],[-73.8775892,45.6421184],[-73.8773793,45.641948],[-73.8769628,45.6416504],[-73.8766216,45.6414157],[-73.875885,45.6409091],[-73.8743379,45.6398451]]}";3;Boulevard de la Grande-Allée;2;50;false;true;true;false;false;false;420.0;0;0;1;0;0;false;83426;6119522932;-73.878714;45.643345;83000;6119523076;-73.873131;45.638865;0;12;13;9396795;Bus 59 : MÉTRO MONTMORENCY;"";EXO;59 S;du Plein-Air / Place du Canoë;Station Montmorency
375648723;"{\"type\":\"LineString\",\"coordinates\":[[-73.8743379,45.6398451],[-73.8726992,45.6386906],[-73.8726646,45.638666],[-73.8697041,45.6366051],[-73.8694517,45.6364294],[-73.8681552,45.635521],[-73.8673035,45.6349242],[-73.8670131,45.6347208],[-73.8669655,45.634683],[-73.8659877,45.6340049],[-73.8647588,45.633147],[-73.8640438,45.6326467],[-73.863922,45.6325615],[-73.8627736,45.6317579],[-73.8626795,45.6316933],[-73.8610573,45.6305602]]}";4;Boulevard de la Grande-Allée;2;50;false;true;true;false;false;false;730.5;0;0;0;0;0;false;83426;6119522932;-73.878714;45.643345;83000;6119523076;-73.873131;45.638865;1;12;13;9396795;Bus 59 : MÉTRO MONTMORENCY;"";EXO;59 S;du Plein-Air / Place du Canoë;Station Montmorency
676602475;"{\"type\":\"LineString\",\"coordinates\":[[-73.8610573,45.6305602],[-73.8572882,45.6279936],[-73.8554833,45.6267429],[-73.8551148,45.6264785],[-73.854325,45.6259119],[-73.8541773,45.6257947],[-73.8535939,45.6253315],[-73.853435,45.6251977]]}";1;Boulevard de la Grande-Allée;2;50;false;true;true;false;false;false;421.0;1;0;0;0;0;false;82733;6119523858;-73.85532;45.626487;82998;6119523077;-73.85273;45.624441;1;18;19;9396795;Bus 59 : MÉTRO MONTMORENCY;"";EXO;59 S;du Plein-Air / Place du Canoë;Station Montmorency
602899192;"{\"type\":\"LineString\",\"coordinates\":[[-73.853435,45.6251977],[-73.8526574,45.6244694]]}";2;Boulevard de la Grande-Allée;2;50;false;true;true;false;false;false;51.0;1;0;0;0;0;false;82733;6119523858;-73.85532;45.626487;82998;6119523077;-73.85273;45.624441;1;18;19;9396795;Bus 59 : MÉTRO MONTMORENCY;"";EXO;59 S;du Plein-Air / Place du Canoë;Station Montmorency
602899194;"{\"type\":\"LineString\",\"coordinates\":[[-73.8526574,45.6244694],[-73.8518224,45.6236657]]}";1;Boulevard de la Grande-Allée;3;50;false;true;true;false;false;false;55.5;2;0;0;0;0;false;82725;6119523866;-73.852346;45.623826;82517;6119524099;-73.846011;45.619506;1;20;21;9396795;Bus 59 : MÉTRO MONTMORENCY;"";EXO;59 S;du Plein-Air / Place du Canoë;Station Montmorency
286882489;"{\"type\":\"LineString\",\"coordinates\":[[-73.8518224,45.6236657],[-73.8515621,45.6234481],[-73.8513063,45.6232649]]}";2;Boulevard de la Grande-Allée;3;50;false;true;true;false;false;false;61.0;1;0;0;0;0;false;82725;6119523866;-73.852346;45.623826;82517;6119524099;-73.846011;45.619506;0;20;21;9396795;Bus 59 : MÉTRO MONTMORENCY;"";EXO;59 S;du Plein-Air / Place du Canoë;Station Montmorency
455096384;"{\"type\":\"LineString\",\"coordinates\":[[-73.8513063,45.6232649],[-73.8508586,45.6229869],[-73.8507775,45.6229238],[-73.8506964,45.6228607]]}";3;Boulevard de la Grande-Allée;3;50;false;true;true;false;false;false;66.0;1;0;0;0;0;false;82725;6119523866;-73.852346;45.623826;82517;6119524099;-73.846011;45.619506;0;20;21;9396795;Bus 59 : MÉTRO MONTMORENCY;"";EXO;59 S;du Plein-Air / Place du Canoë;Station Montmorency
455096254;"{\"type\":\"LineString\",\"coordinates\":[[-73.8506964,45.6228607],[-73.8505904,45.6227833]]}";4;Boulevard de la Grande-Allée;3;50;false;true;true;false;false;false;12.0;0;0;0;0;0;false;82725;6119523866;-73.852346;45.623826;82517;6119524099;-73.846011;45.619506;0;20;21;9396795;Bus 59 : MÉTRO MONTMORENCY;"";EXO;59 S;du Plein-Air / Place du Canoë;Station Montmorency
455096255;"{\"type\":\"LineString\",\"coordinates\":[[-73.8505904,45.6227833],[-73.8501157,45.6224569],[-73.8493771,45.6219233],[-73.8493326,45.6218866],[-73.8492753,45.6218432]]}";5;Boulevard de la Grande-Allée;3;50;false;true;true;false;false;false;147.0;0;0;0;0;0;false;82725;6119523866;-73.852346;45.623826;82517;6119524099;-73.846011;45.619506;0;20;21;9396795;Bus 59 : MÉTRO MONTMORENCY;"";EXO;59 S;du Plein-Air / Place du Canoë;Station Montmorency
44625926;"{\"type\":\"LineString\",\"coordinates\":[[-73.8492753,45.6218432],[-73.8485996,45.6213696]]}";6;Boulevard de la Grande-Allée;3;50;false;true;true;false;false;false;75.0;0;0;0;0;0;false;82725;6119523866;-73.852346;45.623826;82517;6119524099;-73.846011;45.619506;0;20;21;9396795;Bus 59 : MÉTRO MONTMORENCY;"";EXO;59 S;du Plein-Air / Place du Canoë;Station Montmorency
455097594;"{\"type\":\"LineString\",\"coordinates\":[[-73.8485996,45.6213696],[-73.8472876,45.6204864]]}";7;Boulevard de la Grande-Allée;3;50;false;true;true;false;false;false;142.0;0;0;0;0;0;false;82725;6119523866;-73.852346;45.623826;82517;6119524099;-73.846011;45.619506;0;20;21;9396795;Bus 59 : MÉTRO MONTMORENCY;"";EXO;59 S;du Plein-Air / Place du Canoë;Station Montmorency
44625927;"{\"type\":\"LineString\",\"coordinates\":[[-73.8472876,45.6204864],[-73.8470428,45.6203216],[-73.8466892,45.6200845]]}";8;Boulevard de la Grande-Allée;3;50;false;true;true;false;false;false;65.0;1;0;0;0;0;false;82725;6119523866;-73.852346;45.623826;82517;6119524099;-73.846011;45.619506;0;20;21;9396795;Bus 59 : MÉTRO MONTMORENCY;"";EXO;59 S;du Plein-Air / Place du Canoë;Station Montmorency
455097593;"{\"type\":\"LineString\",\"coordinates\":[[-73.8466892,45.6200845],[-73.846594,45.6200141]]}";9;Boulevard de la Grande-Allée;3;50;false;true;true;false;false;false;11.0;2;0;0;0;0;false;82725;6119523866;-73.852346;45.623826;82517;6119524099;-73.846011;45.619506;0;20;21;9396795;Bus 59 : MÉTRO MONTMORENCY;"";EXO;59 S;du Plein-Air / Place du Canoë;Station Montmorency
241540844;"{\"type\":\"LineString\",\"coordinates\":[[-73.846594,45.6200141],[-73.8457266,45.619421],[-73.8446343,45.6187075],[-73.8445037,45.6186584]]}";10;Boulevard de la Grande-Allée;2;50;false;true;false;false;false;false;111.5;1;0;0;0;0;false;82725;6119523866;-73.852346;45.623826;82517;6119524099;-73.846011;45.619506;1;20;21;9396795;Bus 59 : MÉTRO MONTMORENCY;"";EXO;59 S;du Plein-Air / Place du Canoë;Station Montmorency
241506877;"{\"type\":\"LineString\",\"coordinates\":[[-73.8388784,45.6122446],[-73.838864,45.6124021],[-73.8388409,45.6126557],[-73.8387964,45.6131444],[-73.838756,45.6135952],[-73.838751,45.6139713],[-73.8388119,45.6143804],[-73.8389449,45.6147641],[-73.8391315,45.6150882],[-73.8393039,45.6153383],[-73.8396343,45.6156786],[-73.8400218,45.6159486],[-73.8409482,45.616567],[-73.8415791,45.6169882],[-73.8422557,45.6174134],[-73.8440332,45.6183842],[-73.8443148,45.6185456],[-73.8445037,45.6186584]]}";1;Boulevard de la Grande-Allée;2;50;false;false;false;false;false;false;451.0;0;0;0;0;0;false;82243;6119524759;-73.838836;45.613474;82244;6119524758;-73.839056;45.611112;1;24;25;9396795;Bus 59 : MÉTRO MONTMORENCY;"";EXO;59 S;du Plein-Air / Place du Canoë;Station Montmorency
42351583;"{\"type\":\"LineString\",\"coordinates\":[[-73.838907,45.611913],[-73.8389007,45.6119859],[-73.8388784,45.6122446]]}";2;Boulevard Grande-Allée;1;50;false;false;true;false;false;false;37.0;0;0;0;0;0;false;82243;6119524759;-73.838836;45.613474;82244;6119524758;-73.839056;45.611112;0;24;25;9396795;Bus 59 : MÉTRO MONTMORENCY;"";EXO;59 S;du Plein-Air / Place du Canoë;Station Montmorency
23842852;"{\"type\":\"LineString\",\"coordinates\":[[-73.8337009,45.6072464],[-73.8341287,45.6074069],[-73.8342243,45.6074423],[-73.8346448,45.6076041],[-73.8357175,45.6080038],[-73.8362984,45.6083017],[-73.83752,45.6091642],[-73.8379,45.609445],[-73.8382067,45.6097106],[-73.838515,45.610057],[-73.83884,45.610712],[-73.8388988,45.6110419],[-73.8389053,45.6110781],[-73.838932,45.611228],[-73.8389209,45.6115312],[-73.838907,45.611913]]}";3;Boulevard de la Grande-Allée;1;40;false;false;true;false;false;false;353.5;1;0;0;0;0;false;82243;6119524759;-73.838836;45.613474;82244;6119524758;-73.839056;45.611112;1;24;25;9396795;Bus 59 : MÉTRO MONTMORENCY;"";EXO;59 S;du Plein-Air / Place du Canoë;Station Montmorency
45821095;"{\"type\":\"LineString\",\"coordinates\":[[-73.8212413,45.6144861],[-73.8218819,45.6141064],[-73.8226887,45.6136833],[-73.8233586,45.6133698],[-73.8238455,45.6131802],[-73.824297,45.6130526],[-73.8249554,45.6129228],[-73.8259682,45.6127624],[-73.8268392,45.6126108],[-73.826971,45.6125852],[-73.8273573,45.6124892],[-73.827795,45.6123871],[-73.8282241,45.612267],[-73.8285074,45.6121469],[-73.828825,45.6119248],[-73.8292254,45.6116224],[-73.8301183,45.6109766],[-73.8302881,45.6108538],[-73.8306376,45.610601],[-73.83142,45.6100513],[-73.831611,45.6099026],[-73.8318033,45.6097153],[-73.8320873,45.6093707],[-73.8322239,45.6092049],[-73.8329417,45.6082531],[-73.8329978,45.6081788],[-73.8330156,45.6081552],[-73.8332152,45.6078904],[-73.8337009,45.6072464]]}";1;Chemin de la Grande-Côte;1;50;false;false;false;false;false;false;658.5;2;0;0;0;0;false;82251;6119524751;-73.822095;45.614016;82127;6119525230;-73.7207969;45.5583911;1;32;33;9396795;Bus 59 : MÉTRO MONTMORENCY;"";EXO;59 S;du Plein-Air / Place du Canoë;Station Montmorency
37414031;"{\"type\":\"LineString\",\"coordinates\":[[-73.8232833,45.6158653],[-73.821403,45.61458],[-73.8212413,45.6144861]]}";2;"";2;50;false;false;true;false;false;false;221.0;1;0;0;0;0;false;82251;6119524751;-73.822095;45.614016;82127;6119525230;-73.7207969;45.5583911;0;32;33;9396795;Bus 59 : MÉTRO MONTMORENCY;"";EXO;59 S;du Plein-Air / Place du Canoë;Station Montmorency
23502024;"{\"type\":\"LineString\",\"coordinates\":[[-73.8232833,45.6158653],[-73.823422,45.61598],[-73.8245497,45.616846],[-73.8246063,45.616943],[-73.8245985,45.6170263],[-73.8245614,45.6170987],[-73.8244657,45.6171369],[-73.8243368,45.617167],[-73.824206,45.617156],[-73.823998,45.617103],[-73.82259,45.6164606],[-73.8213432,45.6158625]]}";3;"";1;50;false;true;true;false;false;false;472.0;0;0;0;0;0;false;82251;6119524751;-73.822095;45.614016;82127;6119525230;-73.7207969;45.5583911;0;32;33;9396795;Bus 59 : MÉTRO MONTMORENCY;"";EXO;59 S;du Plein-Air / Place du Canoë;Station Montmorency
676836218;"{\"type\":\"LineString\",\"coordinates\":[[-73.8213432,45.6158625],[-73.8193527,45.6145583]]}";4;Autoroute des Laurentides;3;100;false;true;true;false;false;false;213.0;0;0;0;0;0;false;82251;6119524751;-73.822095;45.614016;82127;6119525230;-73.7207969;45.5583911;0;32;33;9396795;Bus 59 : MÉTRO MONTMORENCY;"";EXO;59 S;du Plein-Air / Place du Canoë;Station Montmorency
23348391;"{\"type\":\"LineString\",\"coordinates\":[[-73.8193527,45.6145583],[-73.8085502,45.6071922],[-73.8079901,45.6067985],[-73.8074692,45.6063804]]}";5;Autoroute des Laurentides;3;100;false;true;true;false;false;false;1298.0;0;0;0;0;0;false;82251;6119524751;-73.822095;45.614016;82127;6119525230;-73.7207969;45.5583911;0;32;33;9396795;Bus 59 : MÉTRO MONTMORENCY;"";EXO;59 S;du Plein-Air / Place du Canoë;Station Montmorency
455247757;"{\"type\":\"LineString\",\"coordinates\":[[-73.8074692,45.6063804],[-73.8071912,45.6060879],[-73.8068769,45.6056756],[-73.8065447,45.6052592],[-73.8063042,45.604834],[-73.8060126,45.6041441],[-73.805445,45.6021918],[-73.8052278,45.6013956],[-73.805167,45.6011233]]}";6;Autoroute des Laurentides;3;100;false;true;true;false;false;false;617.0;0;0;0;0;0;false;82251;6119524751;-73.822095;45.614016;82127;6119525230;-73.7207969;45.5583911;0;32;33;9396795;Bus 59 : MÉTRO MONTMORENCY;"";EXO;59 S;du Plein-Air / Place du Canoë;Station Montmorency
455247755;"{\"type\":\"LineString\",\"coordinates\":[[-73.805167,45.6011233],[-73.8051501,45.6010402]]}";7;Autoroute des Laurentides;3;100;false;true;true;false;false;false;10.0;0;0;0;0;0;false;82251;6119524751;-73.822095;45.614016;82127;6119525230;-73.7207969;45.5583911;0;32;33;9396795;Bus 59 : MÉTRO MONTMORENCY;"";EXO;59 S;du Plein-Air / Place du Canoë;Station Montmorency
23551685;"{\"type\":\"LineString\",\"coordinates\":[[-73.8051501,45.6010402],[-73.8048603,45.5999288],[-73.8043818,45.5982935],[-73.8036891,45.5955824],[-73.8033777,45.5945588],[-73.8032052,45.5941175],[-73.8030006,45.5937759],[-73.8026229,45.5931633],[-73.8020221,45.5924726],[-73.8013955,45.5918901],[-73.8006309,45.5913792],[-73.7998051,45.5909062],[-73.7976989,45.5900157],[-73.7915475,45.5874656],[-73.7912438,45.5873324],[-73.7885512,45.586189]]}";8;Autoroute des Laurentides;3;100;false;true;true;false;false;false;2258.0;0;0;0;0;0;false;82251;6119524751;-73.822095;45.614016;82127;6119525230;-73.7207969;45.5583911;0;32;33;9396795;Bus 59 : MÉTRO MONTMORENCY;"";EXO;59 S;du Plein-Air / Place du Canoë;Station Montmorency
466371235;"{\"type\":\"LineString\",\"coordinates\":[[-73.7885512,45.586189],[-73.7881525,45.5860197]]}";9;Autoroute des Laurentides;3;100;false;true;true;false;false;false;37.0;0;0;0;0;0;false;82251;6119524751;-73.822095;45.614016;82127;6119525230;-73.7207969;45.5583911;0;32;33;9396795;Bus 59 : MÉTRO MONTMORENCY;"";EXO;59 S;du Plein-Air / Place du Canoë;Station Montmorency
466371237;"{\"type\":\"LineString\",\"coordinates\":[[-73.7881525,45.5860197],[-73.7878123,45.5858752]]}";10;Autoroute des Laurentides;3;100;false;true;true;false;false;false;32.0;0;0;0;0;0;false;82251;6119524751;-73.822095;45.614016;82127;6119525230;-73.7207969;45.5583911;0;32;33;9396795;Bus 59 : MÉTRO MONTMORENCY;"";EXO;59 S;du Plein-Air / Place du Canoë;Station Montmorency
466371236;"{\"type\":\"LineString\",\"coordinates\":[[-73.7878123,45.5858752],[-73.786627,45.5853719]]}";11;Autoroute des Laurentides;3;100;false;true;true;false;false;false;109.0;0;0;0;0;0;false;82251;6119524751;-73.822095;45.614016;82127;6119525230;-73.7207969;45.5583911;0;32;33;9396795;Bus 59 : MÉTRO MONTMORENCY;"";EXO;59 S;du Plein-Air / Place du Canoë;Station Montmorency
217265427;"{\"type\":\"LineString\",\"coordinates\":[[-73.786627,45.5853719],[-73.7809915,45.5829724],[-73.7798686,45.5824894],[-73.7792046,45.5822178],[-73.7771974,45.581397],[-73.7753271,45.5805876],[-73.7743449,45.5802835],[-73.7734245,45.5800564],[-73.7722643,45.5798718],[-73.7714781,45.5797969],[-73.7708505,45.5797529],[-73.7703202,45.5797158],[-73.7692479,45.5797321],[-73.7679907,45.5798293],[-73.7662545,45.5801502],[-73.7655345,45.580343],[-73.7637416,45.58081],[-73.7631492,45.5809348],[-73.7623411,45.5810324],[-73.7614311,45.5810849],[-73.7603716,45.5810854],[-73.7594323,45.5809715],[-73.7581859,45.5806846],[-73.7571712,45.5803449],[-73.7562962,45.5799683],[-73.7555514,45.5795637],[-73.7548484,45.5791033],[-73.7540325,45.5783711],[-73.7518904,45.5763745]]}";12;Autoroute des Laurentides;3;100;false;true;true;false;false;false;3106.0;0;0;0;0;0;false;82251;6119524751;-73.822095;45.614016;82127;6119525230;-73.7207969;45.5583911;0;32;33;9396795;Bus 59 : MÉTRO MONTMORENCY;"";EXO;59 S;du Plein-Air / Place du Canoë;Station Montmorency
466390396;"{\"type\":\"LineString\",\"coordinates\":[[-73.7518904,45.5763745],[-73.7510204,45.5755678]]}";13;Autoroute des Laurentides;3;100;false;true;true;false;false;false;113.0;0;0;0;0;0;false;82251;6119524751;-73.822095;45.614016;82127;6119525230;-73.7207969;45.5583911;0;32;33;9396795;Bus 59 : MÉTRO MONTMORENCY;"";EXO;59 S;du Plein-Air / Place du Canoë;Station Montmorency
466390394;"{\"type\":\"LineString\",\"coordinates\":[[-73.7510204,45.5755678],[-73.7503753,45.5749624]]}";14;Autoroute des Laurentides;3;100;false;true;true;false;false;false;84.0;0;0;0;0;0;false;82251;6119524751;-73.822095;45.614016;82127;6119525230;-73.7207969;45.5583911;0;32;33;9396795;Bus 59 : MÉTRO MONTMORENCY;"";EXO;59 S;du Plein-Air / Place du Canoë;Station Montmorency
466390399;"{\"type\":\"LineString\",\"coordinates\":[[-73.7503753,45.5749624],[-73.748276,45.5729873],[-73.7429191,45.5680178],[-73.7410171,45.5662253]]}";15;Autoroute des Laurentides;3;100;false;true;true;false;false;false;1215.0;0;0;0;0;0;false;82251;6119524751;-73.822095;45.614016;82127;6119525230;-73.7207969;45.5583911;0;32;33;9396795;Bus 59 : MÉTRO MONTMORENCY;"";EXO;59 S;du Plein-Air / Place du Canoë;Station Montmorency
637878499;"{\"type\":\"LineString\",\"coordinates\":[[-73.7410171,45.5662253],[-73.7400787,45.5653409]]}";16;Autoroute des Laurentides;3;100;false;true;true;false;false;false;123.0;0;0;0;0;0;false;82251;6119524751;-73.822095;45.614016;82127;6119525230;-73.7207969;45.5583911;0;32;33;9396795;Bus 59 : MÉTRO MONTMORENCY;"";EXO;59 S;du Plein-Air / Place du Canoë;Station Montmorency
637878500;"{\"type\":\"LineString\",\"coordinates\":[[-73.7400787,45.5653409],[-73.7394004,45.5647016],[-73.7386948,45.5640226]]}";17;Autoroute des Laurentides;3;100;false;true;true;false;false;false;182.0;0;0;0;0;0;false;82251;6119524751;-73.822095;45.614016;82127;6119525230;-73.7207969;45.5583911;0;32;33;9396795;Bus 59 : MÉTRO MONTMORENCY;"";EXO;59 S;du Plein-Air / Place du Canoë;Station Montmorency
637878501;"{\"type\":\"LineString\",\"coordinates\":[[-73.7386948,45.5640226],[-73.7375668,45.5629852]]}";18;Autoroute des Laurentides;3;100;false;true;true;false;false;false;145.0;0;0;0;0;0;false;82251;6119524751;-73.822095;45.614016;82127;6119525230;-73.7207969;45.5583911;0;32;33;9396795;Bus 59 : MÉTRO MONTMORENCY;"";EXO;59 S;du Plein-Air / Place du Canoë;Station Montmorency
147995428;"{\"type\":\"LineString\",\"coordinates\":[[-73.7375668,45.5629852],[-73.7371863,45.562616]]}";19;Autoroute des Laurentides;3;100;false;true;true;false;false;false;51.0;0;0;0;0;0;false;82251;6119524751;-73.822095;45.614016;82127;6119525230;-73.7207969;45.5583911;0;32;33;9396795;Bus 59 : MÉTRO MONTMORENCY;"";EXO;59 S;du Plein-Air / Place du Canoë;Station Montmorency
574757109;"{\"type\":\"LineString\",\"coordinates\":[[-73.7371863,45.562616],[-73.734787,45.5603129]]}";20;Autoroute des Laurentides;3;100;false;true;true;false;false;false;317.0;0;0;0;0;0;false;82251;6119524751;-73.822095;45.614016;82127;6119525230;-73.7207969;45.5583911;0;32;33;9396795;Bus 59 : MÉTRO MONTMORENCY;"";EXO;59 S;du Plein-Air / Place du Canoë;Station Montmorency
29082893;"{\"type\":\"LineString\",\"coordinates\":[[-73.734787,45.5603129],[-73.7334566,45.5587745]]}";21;"";1;70;false;true;true;false;false;false;200.0;0;0;0;0;0;false;82251;6119524751;-73.822095;45.614016;82127;6119525230;-73.7207969;45.5583911;0;32;33;9396795;Bus 59 : MÉTRO MONTMORENCY;"";EXO;59 S;du Plein-Air / Place du Canoë;Station Montmorency
670784771;"{\"type\":\"LineString\",\"coordinates\":[[-73.7334566,45.5587745],[-73.7327013,45.5580713],[-73.7307358,45.5562564],[-73.7305467,45.5560822]]}";22;"";1;70;false;true;true;false;false;false;376.0;0;0;0;0;0;false;82251;6119524751;-73.822095;45.614016;82127;6119525230;-73.7207969;45.5583911;0;32;33;9396795;Bus 59 : MÉTRO MONTMORENCY;"";EXO;59 S;du Plein-Air / Place du Canoë;Station Montmorency
459343063;"{\"type\":\"LineString\",\"coordinates\":[[-73.7305467,45.5560822],[-73.7290192,45.5546757]]}";23;"";1;70;false;true;true;false;false;false;197.0;0;0;0;0;0;false;82251;6119524751;-73.822095;45.614016;82127;6119525230;-73.7207969;45.5583911;0;32;33;9396795;Bus 59 : MÉTRO MONTMORENCY;"";EXO;59 S;du Plein-Air / Place du Canoë;Station Montmorency
46348324;"{\"type\":\"LineString\",\"coordinates\":[[-73.7290192,45.5546757],[-73.7284751,45.5540359],[-73.7283442,45.553864],[-73.7282383,45.5536737],[-73.7281954,45.553502],[-73.7282056,45.5532819],[-73.7283429,45.552975],[-73.7285063,45.5525536],[-73.7285226,45.5522819],[-73.7284538,45.5521182],[-73.7283629,45.5519816],[-73.7282335,45.5518405]]}";24;"";1;50;false;true;true;false;false;false;340.0;0;0;0;0;0;false;82251;6119524751;-73.822095;45.614016;82127;6119525230;-73.7207969;45.5583911;0;32;33;9396795;Bus 59 : MÉTRO MONTMORENCY;"";EXO;59 S;du Plein-Air / Place du Canoë;Station Montmorency
459343062;"{\"type\":\"LineString\",\"coordinates\":[[-73.7282335,45.5518405],[-73.727911,45.5516671],[-73.7275162,45.551451]]}";25;"";1;50;false;true;true;false;false;false;71.0;1;0;0;0;0;false;82251;6119524751;-73.822095;45.614016;82127;6119525230;-73.7207969;45.5583911;0;32;33;9396795;Bus 59 : MÉTRO MONTMORENCY;"";EXO;59 S;du Plein-Air / Place du Canoë;Station Montmorency
452690021;"{\"type\":\"LineString\",\"coordinates\":[[-73.7275162,45.551451],[-73.7273818,45.5513557]]}";26;"";1;50;false;true;true;false;false;false;15.0;2;0;0;0;0;false;82251;6119524751;-73.822095;45.614016;82127;6119525230;-73.7207969;45.5583911;0;32;33;9396795;Bus 59 : MÉTRO MONTMORENCY;"";EXO;59 S;du Plein-Air / Place du Canoë;Station Montmorency
652937898;"{\"type\":\"LineString\",\"coordinates\":[[-73.7273818,45.5513557],[-73.7260587,45.5521043],[-73.725552,45.5524243]]}";27;Boulevard Notre-Dame;2;60;false;true;true;false;false;false;186.0;1;0;0;0;0;false;82251;6119524751;-73.822095;45.614016;82127;6119525230;-73.7207969;45.5583911;0;32;33;9396795;Bus 59 : MÉTRO MONTMORENCY;"";EXO;59 S;du Plein-Air / Place du Canoë;Station Montmorency
574700265;"{\"type\":\"LineString\",\"coordinates\":[[-73.725552,45.5524243],[-73.7244131,45.5531066],[-73.7237581,45.553498],[-73.7221073,45.5544845]]}";28;Boulevard de la Concorde Ouest;2;60;false;true;true;false;false;false;353.0;1;0;0;0;0;false;82251;6119524751;-73.822095;45.614016;82127;6119525230;-73.7207969;45.5583911;0;32;33;9396795;Bus 59 : MÉTRO MONTMORENCY;"";EXO;59 S;du Plein-Air / Place du Canoë;Station Montmorency
574700264;"{\"type\":\"LineString\",\"coordinates\":[[-73.7221073,45.5544845],[-73.7219161,45.5545988]]}";29;Boulevard de la Concorde Ouest;2;60;false;true;true;false;false;false;20.0;2;0;0;0;0;false;82251;6119524751;-73.822095;45.614016;82127;6119525230;-73.7207969;45.5583911;0;32;33;9396795;Bus 59 : MÉTRO MONTMORENCY;"";EXO;59 S;du Plein-Air / Place du Canoë;Station Montmorency
574704933;"{\"type\":\"LineString\",\"coordinates\":[[-73.7219161,45.5545988],[-73.720057,45.5556144],[-73.7198132,45.5557476]]}";30;Boulevard de la Concorde Ouest;2;60;false;true;true;false;false;false;208.0;1;0;0;0;0;false;82251;6119524751;-73.822095;45.614016;82127;6119525230;-73.7207969;45.5583911;0;32;33;9396795;Bus 59 : MÉTRO MONTMORENCY;"";EXO;59 S;du Plein-Air / Place du Canoë;Station Montmorency
342095991;"{\"type\":\"LineString\",\"coordinates\":[[-73.7198132,45.5557476],[-73.7195308,45.5559018],[-73.7187437,45.5563318],[-73.7179908,45.5567341]]}";31;Boulevard de la Concorde Ouest;2;60;false;true;true;false;false;false;180.0;1;0;0;0;0;false;82251;6119524751;-73.822095;45.614016;82127;6119525230;-73.7207969;45.5583911;0;32;33;9396795;Bus 59 : MÉTRO MONTMORENCY;"";EXO;59 S;du Plein-Air / Place du Canoë;Station Montmorency
574726033;"{\"type\":\"LineString\",\"coordinates\":[[-73.7179908,45.5567341],[-73.7178056,45.5568343]]}";32;Boulevard de la Concorde Ouest;2;60;false;true;true;false;false;false;19.0;2;0;0;0;0;false;82251;6119524751;-73.822095;45.614016;82127;6119525230;-73.7207969;45.5583911;0;32;33;9396795;Bus 59 : MÉTRO MONTMORENCY;"";EXO;59 S;du Plein-Air / Place du Canoë;Station Montmorency
477685027;"{\"type\":\"LineString\",\"coordinates\":[[-73.7178056,45.5568343],[-73.7179234,45.5569627]]}";33;Boulevard de l'Avenir;3;50;false;true;true;false;false;false;17.0;2;0;0;0;0;false;82251;6119524751;-73.822095;45.614016;82127;6119525230;-73.7207969;45.5583911;0;32;33;9396795;Bus 59 : MÉTRO MONTMORENCY;"";EXO;59 S;du Plein-Air / Place du Canoë;Station Montmorency
452222557;"{\"type\":\"LineString\",\"coordinates\":[[-73.7179234,45.5569627],[-73.7194731,45.5586204],[-73.7195653,45.558719]]}";34;Boulevard de l'Avenir;3;50;false;true;true;false;false;false;234.0;1;1;0;0;0;false;82251;6119524751;-73.822095;45.614016;82127;6119525230;-73.7207969;45.5583911;0;32;33;9396795;Bus 59 : MÉTRO MONTMORENCY;"";EXO;59 S;du Plein-Air / Place du Canoë;Station Montmorency
292607262;"{\"type\":\"LineString\",\"coordinates\":[[-73.7195653,45.558719],[-73.7197703,45.558636]]}";35;"";1;50;false;false;true;false;false;false;19.0;0;0;0;0;0;false;82251;6119524751;-73.822095;45.614016;82127;6119525230;-73.7207969;45.5583911;0;32;33;9396795;Bus 59 : MÉTRO MONTMORENCY;"";EXO;59 S;du Plein-Air / Place du Canoë;Station Montmorency
673250003;"{\"type\":\"LineString\",\"coordinates\":[[-73.7200309,45.5584789],[-73.7198217,45.5586049],[-73.7197703,45.558636]]}";36;"";1;30;false;false;false;false;false;false;27.0;0;1;0;0;0;false;82251;6119524751;-73.822095;45.614016;82127;6119525230;-73.7207969;45.5583911;0;32;33;9396795;Bus 59 : MÉTRO MONTMORENCY;"";EXO;59 S;du Plein-Air / Place du Canoë;Station Montmorency
673246437;"{\"type\":\"LineString\",\"coordinates\":[[-73.7200309,45.5584789],[-73.720124,45.5585758],[-73.7201474,45.5585648]]}";37;"";1;30;false;true;false;false;false;false;16.0;0;0;0;0;0;false;82251;6119524751;-73.822095;45.614016;82127;6119525230;-73.7207969;45.5583911;0;32;33;9396795;Bus 59 : MÉTRO MONTMORENCY;"";EXO;59 S;du Plein-Air / Place du Canoë;Station Montmorency
624217210;"{\"type\":\"LineString\",\"coordinates\":[[-73.7201474,45.5585648],[-73.720206,45.5585372],[-73.7203325,45.5584776]]}";38;"";1;30;false;true;false;false;false;false;18.0;0;0;0;0;0;false;82251;6119524751;-73.822095;45.614016;82127;6119525230;-73.7207969;45.5583911;0;32;33;9396795;Bus 59 : MÉTRO MONTMORENCY;"";EXO;59 S;du Plein-Air / Place du Canoë;Station Montmorency
673264013;"{\"type\":\"LineString\",\"coordinates\":[[-73.7203325,45.5584776],[-73.7205612,45.55837]]}";39;"";1;30;false;true;false;false;false;false;22.0;0;0;0;0;0;false;82251;6119524751;-73.822095;45.614016;82127;6119525230;-73.7207969;45.5583911;0;32;33;9396795;Bus 59 : MÉTRO MONTMORENCY;"";EXO;59 S;du Plein-Air / Place du Canoë;Station Montmorency
673264014;"{\"type\":\"LineString\",\"coordinates\":[[-73.7205612,45.55837],[-73.7207712,45.5582711]]}";40;"";1;30;false;true;false;false;false;false;20.0;0;0;0;0;0;false;82251;6119524751;-73.822095;45.614016;82127;6119525230;-73.7207969;45.5583911;1;32;33;9396795;Bus 59 : MÉTRO MONTMORENCY;"";EXO;59 S;du Plein-Air / Place du Canoë;Station Montmorency
