way_id;shape;index;name;nb_lanes;legal_speed;speed_zone_30;oneway;shares_bike;bike_box;bus_lane;dedicated_bus_lane;length;nb_traffic_signals;nb_crossings;nb_stops;nb_give_ways;nb_lvl_crossings;roundabout;stop_id_orig;node_id_orig;coord_x_orig;coord_y_orig;stop_id_dest;node_id_dest;coord_x_dest;coord_y_dest;nb_neighbouring_ways_bus_stop;order_orig;order_dest;id_line;line_name;colour;operator;ref;from;to
25097375;"{\"type\":\"LineString\",\"coordinates\":[[-6.1350963,53.2948731],[-6.1350659,53.2948599],[-6.134925,53.2948064],[-6.1345663,53.2946768],[-6.1342495,53.2945606],[-6.1340346,53.2944957],[-6.1338685,53.2944457]]}";1;Crofton Road;2;50;false;false;true;false;false;false;96.0;1;1;0;0;0;false;2039;597697114;-6.1348888;53.2948675;2037;738535973;-6.1344376;53.2937753;1;0;1;11016995;59 to Killiney;"";Go-Ahead Ireland;59;Dun Laoghaire Station;Killiney Hill
51483781;"{\"type\":\"LineString\",\"coordinates\":[[-6.1357605,53.292532],[-6.1356789,53.2926114],[-6.1352893,53.2929903],[-6.1352435,53.2930349],[-6.1351662,53.2931099],[-6.1351167,53.2931733],[-6.1348251,53.2934557],[-6.1347016,53.293581],[-6.134504,53.2937815],[-6.1339407,53.2943527],[-6.1338685,53.2944457]]}";2;Marine Road;2;50;false;false;true;false;false;false;125.0;1;0;0;0;0;false;2039;597697114;-6.1348888;53.2948675;2037;738535973;-6.1344376;53.2937753;1;0;1;11016995;59 to Killiney;"";Go-Ahead Ireland;59;Dun Laoghaire Station;Killiney Hill
479582323;"{\"type\":\"LineString\",\"coordinates\":[[-6.1335257,53.291177],[-6.1338424,53.2913118],[-6.1339831,53.2913755],[-6.1340715,53.2914156],[-6.1342301,53.2914855],[-6.1345752,53.2916376],[-6.134656,53.2916763],[-6.1353618,53.2919842]]}";1;Georges Street Upper;2;50;false;false;true;false;false;false;76.5;0;0;0;0;0;false;3046;5641903359;-6.1350469;53.291892;3047;598205829;-6.1309927;53.2901328;1;2;3;11016995;59 to Killiney;"";Go-Ahead Ireland;59;Dun Laoghaire Station;Killiney Hill
10057386;"{\"type\":\"LineString\",\"coordinates\":[[-6.1313677,53.2902698],[-6.1314323,53.2902945],[-6.1324958,53.2907211],[-6.1330155,53.2909481],[-6.1332266,53.2910428],[-6.1335257,53.291177]]}";2;Georges Street Upper;2;50;false;false;true;false;false;false;177.0;0;0;0;0;0;false;3046;5641903359;-6.1350469;53.291892;3047;598205829;-6.1309927;53.2901328;0;2;3;11016995;59 to Killiney;"";Go-Ahead Ireland;59;Dun Laoghaire Station;Killiney Hill
638204284;"{\"type\":\"LineString\",\"coordinates\":[[-6.1295981,53.289458],[-6.1305673,53.2898965],[-6.1308128,53.2900076],[-6.1312608,53.2902075],[-6.1313677,53.2902698]]}";3;Georges Street Upper;1;50;false;false;true;false;false;false;75.0;1;0;0;0;0;false;3046;5641903359;-6.1350469;53.291892;3047;598205829;-6.1309927;53.2901328;1;2;3;11016995;59 to Killiney;"";Go-Ahead Ireland;59;Dun Laoghaire Station;Killiney Hill
638204284;"{\"type\":\"LineString\",\"coordinates\":[[-6.1295981,53.289458],[-6.1305673,53.2898965],[-6.1308128,53.2900076],[-6.1312608,53.2902075],[-6.1313677,53.2902698]]}";1;Georges Street Upper;1;50;false;false;true;false;false;false;75.0;1;0;0;0;0;false;3047;598205829;-6.1309927;53.2901328;3049;648065757;-6.1243807;53.2873904;1;3;4;11016995;59 to Killiney;"";Go-Ahead Ireland;59;Dun Laoghaire Station;Killiney Hill
48821280;"{\"type\":\"LineString\",\"coordinates\":[[-6.1270403,53.2883547],[-6.1271025,53.2883799],[-6.1274161,53.2885069],[-6.1277299,53.2886417],[-6.1278951,53.2887197],[-6.128796,53.2891141],[-6.128959,53.2891883],[-6.1295981,53.289458]]}";2;Summerhill Road;1;50;false;false;true;false;false;false;212.0;2;0;0;0;0;false;3047;598205829;-6.1309927;53.2901328;3049;648065757;-6.1243807;53.2873904;0;3;4;11016995;59 to Killiney;"";Go-Ahead Ireland;59;Dun Laoghaire Station;Killiney Hill
48846529;"{\"type\":\"LineString\",\"coordinates\":[[-6.1268945,53.2882948],[-6.1270403,53.2883547]]}";3;Summerhill Road;1;50;false;false;true;false;false;false;12.0;1;0;0;0;0;false;3047;598205829;-6.1309927;53.2901328;3049;648065757;-6.1243807;53.2873904;0;3;4;11016995;59 to Killiney;"";Go-Ahead Ireland;59;Dun Laoghaire Station;Killiney Hill
53841667;"{\"type\":\"LineString\",\"coordinates\":[[-6.1254768,53.287631],[-6.1254936,53.2876364],[-6.1264367,53.288063],[-6.1264742,53.2880823],[-6.1268945,53.2882948]]}";4;Summerhill Road;1;50;false;false;true;false;false;false;121.0;0;0;0;0;0;false;3047;598205829;-6.1309927;53.2901328;3049;648065757;-6.1243807;53.2873904;0;3;4;11016995;59 to Killiney;"";Go-Ahead Ireland;59;Dun Laoghaire Station;Killiney Hill
8026790;"{\"type\":\"LineString\",\"coordinates\":[[-6.1233959,53.2871359],[-6.124156,53.2873047],[-6.1244396,53.2873591],[-6.1249215,53.2874672],[-6.1250709,53.2875028],[-6.125171,53.2875266],[-6.1254768,53.287631]]}";5;Glasthule Road;1;50;false;false;true;false;false;false;75.5;1;0;0;0;0;false;3047;598205829;-6.1309927;53.2901328;3049;648065757;-6.1243807;53.2873904;1;3;4;11016995;59 to Killiney;"";Go-Ahead Ireland;59;Dun Laoghaire Station;Killiney Hill
8026790;"{\"type\":\"LineString\",\"coordinates\":[[-6.1233959,53.2871359],[-6.124156,53.2873047],[-6.1244396,53.2873591],[-6.1249215,53.2874672],[-6.1250709,53.2875028],[-6.125171,53.2875266],[-6.1254768,53.287631]]}";1;Glasthule Road;1;50;false;false;true;false;false;false;75.5;1;0;0;0;0;false;3049;648065757;-6.1243807;53.2873904;3048;5547916072;-6.1269587;53.2883817;1;4;5;11016995;59 to Killiney;"";Go-Ahead Ireland;59;Dun Laoghaire Station;Killiney Hill
53841667;"{\"type\":\"LineString\",\"coordinates\":[[-6.1254768,53.287631],[-6.1254936,53.2876364],[-6.1264367,53.288063],[-6.1264742,53.2880823],[-6.1268945,53.2882948]]}";2;Summerhill Road;1;50;false;false;true;false;false;false;121.0;0;0;0;0;0;false;3049;648065757;-6.1243807;53.2873904;3048;5547916072;-6.1269587;53.2883817;0;4;5;11016995;59 to Killiney;"";Go-Ahead Ireland;59;Dun Laoghaire Station;Killiney Hill
48846529;"{\"type\":\"LineString\",\"coordinates\":[[-6.1268945,53.2882948],[-6.1270403,53.2883547]]}";3;Summerhill Road;1;50;false;false;true;false;false;false;6.0;1;0;0;0;0;false;3049;648065757;-6.1243807;53.2873904;3048;5547916072;-6.1269587;53.2883817;1;4;5;11016995;59 to Killiney;"";Go-Ahead Ireland;59;Dun Laoghaire Station;Killiney Hill
48821280;"{\"type\":\"LineString\",\"coordinates\":[[-6.1270403,53.2883547],[-6.1271025,53.2883799],[-6.1274161,53.2885069],[-6.1277299,53.2886417],[-6.1278951,53.2887197],[-6.128796,53.2891141],[-6.128959,53.2891883],[-6.1295981,53.289458]]}";1;Summerhill Road;1;50;false;false;true;false;false;false;212.0;2;0;0;0;0;false;3048;5547916072;-6.1269587;53.2883817;3049;648065862;-6.1221946;53.2869376;2;5;6;11016995;59 to Killiney;"";Go-Ahead Ireland;59;Dun Laoghaire Station;Killiney Hill
48846529;"{\"type\":\"LineString\",\"coordinates\":[[-6.1268945,53.2882948],[-6.1270403,53.2883547]]}";2;Summerhill Road;1;50;false;false;true;false;false;false;12.0;1;0;0;0;0;false;3048;5547916072;-6.1269587;53.2883817;3049;648065862;-6.1221946;53.2869376;0;5;6;11016995;59 to Killiney;"";Go-Ahead Ireland;59;Dun Laoghaire Station;Killiney Hill
53841667;"{\"type\":\"LineString\",\"coordinates\":[[-6.1254768,53.287631],[-6.1254936,53.2876364],[-6.1264367,53.288063],[-6.1264742,53.2880823],[-6.1268945,53.2882948]]}";3;Summerhill Road;1;50;false;false;true;false;false;false;121.0;0;0;0;0;0;false;3048;5547916072;-6.1269587;53.2883817;3049;648065862;-6.1221946;53.2869376;0;5;6;11016995;59 to Killiney;"";Go-Ahead Ireland;59;Dun Laoghaire Station;Killiney Hill
8026790;"{\"type\":\"LineString\",\"coordinates\":[[-6.1233959,53.2871359],[-6.124156,53.2873047],[-6.1244396,53.2873591],[-6.1249215,53.2874672],[-6.1250709,53.2875028],[-6.125171,53.2875266],[-6.1254768,53.287631]]}";4;Glasthule Road;1;50;false;false;true;false;false;false;151.0;1;0;0;0;0;false;3048;5547916072;-6.1269587;53.2883817;3049;648065862;-6.1221946;53.2869376;0;5;6;11016995;59 to Killiney;"";Go-Ahead Ireland;59;Dun Laoghaire Station;Killiney Hill
315514350;"{\"type\":\"LineString\",\"coordinates\":[[-6.1233109,53.28712],[-6.1233959,53.2871359]]}";5;Glasthule Road;1;50;false;false;true;false;false;false;6.0;1;0;0;0;0;false;3048;5547916072;-6.1269587;53.2883817;3049;648065862;-6.1221946;53.2869376;0;5;6;11016995;59 to Killiney;"";Go-Ahead Ireland;59;Dun Laoghaire Station;Killiney Hill
50826505;"{\"type\":\"LineString\",\"coordinates\":[[-6.1202789,53.2861494],[-6.1204392,53.2861905],[-6.1206029,53.2862406],[-6.1210243,53.2864372],[-6.1215207,53.2866673],[-6.1216118,53.2867039],[-6.1218158,53.286786],[-6.1220285,53.2868525],[-6.1220358,53.2868548],[-6.1224659,53.286941],[-6.1227714,53.2870057],[-6.1233109,53.28712]]}";6;Glasthule Road;1;50;false;false;true;false;false;false;234.0;0;0;0;0;0;false;3048;5547916072;-6.1269587;53.2883817;3049;648065862;-6.1221946;53.2869376;2;5;6;11016995;59 to Killiney;"";Go-Ahead Ireland;59;Dun Laoghaire Station;Killiney Hill
50826505;"{\"type\":\"LineString\",\"coordinates\":[[-6.1202789,53.2861494],[-6.1204392,53.2861905],[-6.1206029,53.2862406],[-6.1210243,53.2864372],[-6.1215207,53.2866673],[-6.1216118,53.2867039],[-6.1218158,53.286786],[-6.1220285,53.2868525],[-6.1220358,53.2868548],[-6.1224659,53.286941],[-6.1227714,53.2870057],[-6.1233109,53.28712]]}";1;Glasthule Road;1;50;false;false;true;false;false;false;117.0;0;0;0;0;0;false;3049;648065862;-6.1221946;53.2869376;3051;648094698;-6.1178126;53.286092;1;6;7;11016995;59 to Killiney;"";Go-Ahead Ireland;59;Dun Laoghaire Station;Killiney Hill
8168853;"{\"type\":\"LineString\",\"coordinates\":[[-6.1187849,53.2860548],[-6.11922,53.2860686],[-6.1195681,53.2860772],[-6.1199034,53.2860965],[-6.1200992,53.2861237],[-6.1202789,53.2861494]]}";2;Sandycove Road;1;50;false;false;true;false;false;false;102.0;0;0;0;0;0;false;3049;648065862;-6.1221946;53.2869376;3051;648094698;-6.1178126;53.286092;0;6;7;11016995;59 to Killiney;"";Go-Ahead Ireland;59;Dun Laoghaire Station;Killiney Hill
638280307;"{\"type\":\"LineString\",\"coordinates\":[[-6.1174173,53.2860402],[-6.1175325,53.2860384],[-6.1177068,53.2860433],[-6.1181911,53.2860569],[-6.1187849,53.2860548]]}";3;Sandycove Road;1;50;false;false;true;false;false;false;46.0;0;0;0;0;0;false;3049;648065862;-6.1221946;53.2869376;3051;648094698;-6.1178126;53.286092;1;6;7;11016995;59 to Killiney;"";Go-Ahead Ireland;59;Dun Laoghaire Station;Killiney Hill
638204272;"{\"type\":\"LineString\",\"coordinates\":[[-6.1155507,53.2859195],[-6.1144227,53.2858212],[-6.113413,53.2857263]]}";1;Sandycove Road;2;50;false;false;true;false;false;false;73.0;1;0;0;0;0;false;3052;648094800;-6.1148873;53.2858901;3053;648094866;-6.1112708;53.285559;1;8;9;11016995;59 to Killiney;"";Go-Ahead Ireland;59;Dun Laoghaire Station;Killiney Hill
8026792;"{\"type\":\"LineString\",\"coordinates\":[[-6.113413,53.2857263],[-6.1129554,53.2856813],[-6.1119886,53.2855915],[-6.1113327,53.2855171],[-6.1111004,53.2854798],[-6.1108259,53.2854117]]}";2;Breffni Road;2;50;false;false;true;false;false;false;89.0;0;0;0;0;0;false;3052;648094800;-6.1148873;53.2858901;3053;648094866;-6.1112708;53.285559;1;8;9;11016995;59 to Killiney;"";Go-Ahead Ireland;59;Dun Laoghaire Station;Killiney Hill
8026792;"{\"type\":\"LineString\",\"coordinates\":[[-6.113413,53.2857263],[-6.1129554,53.2856813],[-6.1119886,53.2855915],[-6.1113327,53.2855171],[-6.1111004,53.2854798],[-6.1108259,53.2854117]]}";1;Breffni Road;2;50;false;false;true;false;false;false;89.0;0;0;0;0;0;false;3053;648094866;-6.1112708;53.285559;3061;5636853762;-6.1075912;53.2840931;1;9;10;11016995;59 to Killiney;"";Go-Ahead Ireland;59;Dun Laoghaire Station;Killiney Hill
81267302;"{\"type\":\"LineString\",\"coordinates\":[[-6.1108259,53.2854117],[-6.1099735,53.2851956],[-6.1093576,53.2850475]]}";2;Breffni Road;2;50;false;false;true;false;false;false;107.0;0;0;0;0;0;false;3053;648094866;-6.1112708;53.285559;3061;5636853762;-6.1075912;53.2840931;0;9;10;11016995;59 to Killiney;"";Go-Ahead Ireland;59;Dun Laoghaire Station;Killiney Hill
8026794;"{\"type\":\"LineString\",\"coordinates\":[[-6.1093576,53.2850475],[-6.1089849,53.2849217],[-6.1088449,53.2848691],[-6.1087725,53.2848235],[-6.108592,53.2846941],[-6.1083606,53.2844907],[-6.1080566,53.2843035],[-6.1073432,53.283961],[-6.1071526,53.2838495],[-6.1070572,53.2837672],[-6.1068931,53.2835066],[-6.1068304,53.2831883],[-6.1068051,53.2828801],[-6.1068977,53.2824164],[-6.106969,53.2819436],[-6.1070267,53.2815433]]}";3;Ulverton Road;2;50;false;false;true;false;false;false;233.0;0;0;0;0;0;false;3053;648094866;-6.1112708;53.285559;3061;5636853762;-6.1075912;53.2840931;1;9;10;11016995;59 to Killiney;"";Go-Ahead Ireland;59;Dun Laoghaire Station;Killiney Hill
8026794;"{\"type\":\"LineString\",\"coordinates\":[[-6.1093576,53.2850475],[-6.1089849,53.2849217],[-6.1088449,53.2848691],[-6.1087725,53.2848235],[-6.108592,53.2846941],[-6.1083606,53.2844907],[-6.1080566,53.2843035],[-6.1073432,53.283961],[-6.1071526,53.2838495],[-6.1070572,53.2837672],[-6.1068931,53.2835066],[-6.1068304,53.2831883],[-6.1068051,53.2828801],[-6.1068977,53.2824164],[-6.106969,53.2819436],[-6.1070267,53.2815433]]}";1;Ulverton Road;2;50;false;false;true;false;false;false;233.0;0;0;0;0;0;false;3055;5636853760;-6.1069126;53.2818433;3056;6513396703;-6.1070552;53.280251;1;11;12;11016995;59 to Killiney;"";Go-Ahead Ireland;59;Dun Laoghaire Station;Killiney Hill
57889898;"{\"type\":\"LineString\",\"coordinates\":[[-6.1070267,53.2815433],[-6.1070434,53.2814645],[-6.107143,53.2809791],[-6.1071674,53.2808601],[-6.1072063,53.2806702],[-6.1071846,53.2805074],[-6.1070898,53.2801464]]}";2;Ulverton Road;2;50;false;false;true;false;false;false;79.0;0;0;0;0;0;false;3055;5636853760;-6.1069126;53.2818433;3056;6513396703;-6.1070552;53.280251;1;11;12;11016995;59 to Killiney;"";Go-Ahead Ireland;59;Dun Laoghaire Station;Killiney Hill
318293335;"{\"type\":\"LineString\",\"coordinates\":[[-6.1070898,53.2801464],[-6.1070014,53.2798259],[-6.1069158,53.2794518],[-6.1069083,53.279212],[-6.1069806,53.2787083]]}";1;Ulverton Road;1;50;false;false;true;false;false;false;163.0;0;0;0;0;0;false;3056;6513396703;-6.1070552;53.280251;3057;471083437;-6.1069837;53.2782729;2;12;13;11016995;59 to Killiney;"";Go-Ahead Ireland;59;Dun Laoghaire Station;Killiney Hill
8027119;"{\"type\":\"LineString\",\"coordinates\":[[-6.1069806,53.2787083],[-6.1070582,53.2783851],[-6.1070826,53.2782355]]}";2;Ulverton Place;1;50;false;true;true;false;false;false;54.0;0;0;0;0;0;false;3056;6513396703;-6.1070552;53.280251;3057;471083437;-6.1069837;53.2782729;2;12;13;11016995;59 to Killiney;"";Go-Ahead Ireland;59;Dun Laoghaire Station;Killiney Hill
8027120;"{\"type\":\"LineString\",\"coordinates\":[[-6.1070826,53.2782355],[-6.1071546,53.2781464],[-6.1072353,53.2781063]]}";1;Ulverton Place;1;50;false;true;true;false;false;false;19.0;0;0;0;0;0;false;3057;471083437;-6.1069837;53.2782729;4830;7426186133;-6.114615;53.2772404;2;13;14;11016995;59 to Killiney;"";Go-Ahead Ireland;59;Dun Laoghaire Station;Killiney Hill
81267312;"{\"type\":\"LineString\",\"coordinates\":[[-6.1072353,53.2781063],[-6.1073338,53.278117],[-6.1076922,53.2781557]]}";2;Castle Street;1;50;false;true;true;false;false;false;32.0;0;0;0;0;0;false;3057;471083437;-6.1069837;53.2782729;4830;7426186133;-6.114615;53.2772404;0;13;14;11016995;59 to Killiney;"";Go-Ahead Ireland;59;Dun Laoghaire Station;Killiney Hill
237947225;"{\"type\":\"LineString\",\"coordinates\":[[-6.1076922,53.2781557],[-6.1079384,53.2781814]]}";3;Barnhill Road;1;50;false;true;true;false;false;false;17.0;0;0;0;0;0;false;3057;471083437;-6.1069837;53.2782729;4830;7426186133;-6.114615;53.2772404;0;13;14;11016995;59 to Killiney;"";Go-Ahead Ireland;59;Dun Laoghaire Station;Killiney Hill
8168854;"{\"type\":\"LineString\",\"coordinates\":[[-6.1112706,53.2776521],[-6.1111747,53.2776773],[-6.1110559,53.2777032],[-6.1109245,53.2777247],[-6.1103755,53.2778284],[-6.1096993,53.2779712],[-6.109403,53.2780344],[-6.1090612,53.278107],[-6.1088299,53.2781412],[-6.1085906,53.2781713],[-6.1083929,53.2781874],[-6.1079384,53.2781814]]}";4;Barnhill Road;1;50;false;false;true;false;false;false;234.0;0;1;0;0;0;false;3057;471083437;-6.1069837;53.2782729;4830;7426186133;-6.114615;53.2772404;0;13;14;11016995;59 to Killiney;"";Go-Ahead Ireland;59;Dun Laoghaire Station;Killiney Hill
81267313;"{\"type\":\"LineString\",\"coordinates\":[[-6.1173452,53.2773955],[-6.1170617,53.2773901],[-6.1167639,53.2774015],[-6.1164812,53.2774147],[-6.1161894,53.2774011],[-6.1157963,53.277369],[-6.1154001,53.2773419],[-6.1148029,53.2772914],[-6.1143897,53.2772573],[-6.1140187,53.2772244],[-6.1137917,53.2772079],[-6.1136548,53.277212],[-6.1134734,53.2772278],[-6.1132438,53.2772681],[-6.1126298,53.27737],[-6.1120694,53.2774604],[-6.1117612,53.2775147],[-6.1113927,53.2776139],[-6.1112706,53.2776521]]}";5;Barnhill Road;1;50;false;false;true;false;false;false;418.0;0;1;0;0;0;false;3057;471083437;-6.1069837;53.2782729;4830;7426186133;-6.114615;53.2772404;2;13;14;11016995;59 to Killiney;"";Go-Ahead Ireland;59;Dun Laoghaire Station;Killiney Hill
81267313;"{\"type\":\"LineString\",\"coordinates\":[[-6.1173452,53.2773955],[-6.1170617,53.2773901],[-6.1167639,53.2774015],[-6.1164812,53.2774147],[-6.1161894,53.2774011],[-6.1157963,53.277369],[-6.1154001,53.2773419],[-6.1148029,53.2772914],[-6.1143897,53.2772573],[-6.1140187,53.2772244],[-6.1137917,53.2772079],[-6.1136548,53.277212],[-6.1134734,53.2772278],[-6.1132438,53.2772681],[-6.1126298,53.27737],[-6.1120694,53.2774604],[-6.1117612,53.2775147],[-6.1113927,53.2776139],[-6.1112706,53.2776521]]}";1;Barnhill Road;1;50;false;false;true;false;false;false;209.0;0;1;0;0;0;false;4830;7426186133;-6.114615;53.2772404;7667;7426186135;-6.1195446;53.2767738;1;14;15;11016995;59 to Killiney;"";Go-Ahead Ireland;59;Dun Laoghaire Station;Killiney Hill
318293318;"{\"type\":\"LineString\",\"coordinates\":[[-6.1173452,53.2773955],[-6.1173519,53.2773679],[-6.1173858,53.2773513],[-6.117442,53.2773457],[-6.1174795,53.2773473],[-6.1175205,53.2773566],[-6.1175362,53.2773776]]}";2;Barnhill Road;1;50;false;false;true;false;false;false;18.0;0;0;0;0;0;true;4830;7426186133;-6.114615;53.2772404;7667;7426186135;-6.1195446;53.2767738;0;14;15;11016995;59 to Killiney;"";Go-Ahead Ireland;59;Dun Laoghaire Station;Killiney Hill
251506369;"{\"type\":\"LineString\",\"coordinates\":[[-6.1183814,53.2771289],[-6.1177834,53.2773223],[-6.1176311,53.2773538],[-6.1175362,53.2773776]]}";3;Barnhill Road;1;50;false;false;true;false;false;false;64.0;0;0;0;0;0;false;4830;7426186133;-6.114615;53.2772404;7667;7426186135;-6.1195446;53.2767738;0;14;15;11016995;59 to Killiney;"";Go-Ahead Ireland;59;Dun Laoghaire Station;Killiney Hill
670302685;"{\"type\":\"LineString\",\"coordinates\":[[-6.1186134,53.2770571],[-6.1183814,53.2771289]]}";4;Barnhill Road;1;50;false;false;true;false;false;false;18.0;0;0;0;0;0;false;4830;7426186133;-6.114615;53.2772404;7667;7426186135;-6.1195446;53.2767738;0;14;15;11016995;59 to Killiney;"";Go-Ahead Ireland;59;Dun Laoghaire Station;Killiney Hill
58245240;"{\"type\":\"LineString\",\"coordinates\":[[-6.1207232,53.2765623],[-6.1205307,53.2766103],[-6.1200225,53.276721],[-6.1197339,53.2767929],[-6.1190495,53.2769503],[-6.1186134,53.2770571]]}";5;Barnhill Road;1;50;false;false;true;false;false;false;76.5;0;0;0;0;0;false;4830;7426186133;-6.114615;53.2772404;7667;7426186135;-6.1195446;53.2767738;1;14;15;11016995;59 to Killiney;"";Go-Ahead Ireland;59;Dun Laoghaire Station;Killiney Hill
58245240;"{\"type\":\"LineString\",\"coordinates\":[[-6.1207232,53.2765623],[-6.1205307,53.2766103],[-6.1200225,53.276721],[-6.1197339,53.2767929],[-6.1190495,53.2769503],[-6.1186134,53.2770571]]}";1;Barnhill Road;1;50;false;false;true;false;false;false;76.5;0;0;0;0;0;false;7667;7426186135;-6.1195446;53.2767738;3091;5635075123;-6.123912;53.2736201;1;15;16;11016995;59 to Killiney;"";Go-Ahead Ireland;59;Dun Laoghaire Station;Killiney Hill
638204275;"{\"type\":\"LineString\",\"coordinates\":[[-6.1210809,53.2764133],[-6.1209027,53.2765055],[-6.1207232,53.2765623]]}";2;Barnhill Road;1;50;false;false;true;false;false;false;30.0;0;0;0;0;0;false;7667;7426186135;-6.1195446;53.2767738;3091;5635075123;-6.123912;53.2736201;0;15;16;11016995;59 to Killiney;"";Go-Ahead Ireland;59;Dun Laoghaire Station;Killiney Hill
58245256;"{\"type\":\"LineString\",\"coordinates\":[[-6.1210809,53.2764133],[-6.1211914,53.2762935],[-6.1212878,53.2761993],[-6.1213698,53.2761083]]}";3;Barnhill Road;1;50;false;true;true;false;false;false;40.0;0;0;0;0;0;false;7667;7426186135;-6.1195446;53.2767738;3091;5635075123;-6.123912;53.2736201;0;15;16;11016995;59 to Killiney;"";Go-Ahead Ireland;59;Dun Laoghaire Station;Killiney Hill
315514334;"{\"type\":\"LineString\",\"coordinates\":[[-6.1213698,53.2761083],[-6.121389,53.2760415],[-6.1214427,53.2759768],[-6.1215013,53.275937]]}";4;"";1;50;false;false;true;false;false;false;22.0;0;0;0;0;0;true;7667;7426186135;-6.1195446;53.2767738;3091;5635075123;-6.123912;53.2736201;0;15;16;11016995;59 to Killiney;"";Go-Ahead Ireland;59;Dun Laoghaire Station;Killiney Hill
318293317;"{\"type\":\"LineString\",\"coordinates\":[[-6.1215013,53.275937],[-6.1216235,53.2758912],[-6.1217818,53.2758742],[-6.1218737,53.2758817]]}";5;"";1;50;false;false;true;false;false;false;27.0;0;0;0;0;0;true;7667;7426186135;-6.1195446;53.2767738;3091;5635075123;-6.123912;53.2736201;0;15;16;11016995;59 to Killiney;"";Go-Ahead Ireland;59;Dun Laoghaire Station;Killiney Hill
58245252;"{\"type\":\"LineString\",\"coordinates\":[[-6.1218737,53.2758817],[-6.1219959,53.2758524],[-6.1221157,53.2757905]]}";6;Avondale Road;1;50;false;true;false;false;false;false;20.0;0;0;0;0;0;false;7667;7426186135;-6.1195446;53.2767738;3091;5635075123;-6.123912;53.2736201;0;15;16;11016995;59 to Killiney;"";Go-Ahead Ireland;59;Dun Laoghaire Station;Killiney Hill
10056699;"{\"type\":\"LineString\",\"coordinates\":[[-6.1241373,53.2734966],[-6.1236713,53.2740393],[-6.1236529,53.274062],[-6.1234946,53.2742576],[-6.1233891,53.2743759],[-6.1225133,53.2754132],[-6.1223578,53.2755772],[-6.1223359,53.2755965],[-6.1221157,53.2757905]]}";7;Avondale Road;2;50;false;false;false;false;false;false;145.5;0;0;0;0;0;false;7667;7426186135;-6.1195446;53.2767738;3091;5635075123;-6.123912;53.2736201;1;15;16;11016995;59 to Killiney;"";Go-Ahead Ireland;59;Dun Laoghaire Station;Killiney Hill
10056705;"{\"type\":\"LineString\",\"coordinates\":[[-6.1241373,53.2734966],[-6.1241127,53.2734899],[-6.1240933,53.2734786],[-6.1240814,53.2734641],[-6.1240785,53.273448],[-6.124085,53.2734323],[-6.1240999,53.2734189],[-6.124121,53.2734095],[-6.124146,53.2734048],[-6.1241722,53.2734052]]}";1;Avondale Road;1;50;false;false;true;false;false;false;17.0;0;0;0;0;0;true;3091;5635075123;-6.123912;53.2736201;3092;5635075137;-6.1268104;53.2721091;2;16;17;11016995;59 to Killiney;"";Go-Ahead Ireland;59;Dun Laoghaire Station;Killiney Hill
793898252;"{\"type\":\"LineString\",\"coordinates\":[[-6.1241722,53.2734052],[-6.1241967,53.2734109]]}";2;Avondale Road;1;50;false;false;true;false;false;false;2.0;0;0;0;0;0;true;3091;5635075123;-6.123912;53.2736201;3092;5635075137;-6.1268104;53.2721091;0;16;17;11016995;59 to Killiney;"";Go-Ahead Ireland;59;Dun Laoghaire Station;Killiney Hill
10056698;"{\"type\":\"LineString\",\"coordinates\":[[-6.1295175,53.2709017],[-6.1293351,53.271016],[-6.1293101,53.2710289],[-6.1289462,53.2712159],[-6.1284588,53.271445],[-6.128237,53.2715512],[-6.1277864,53.2717612],[-6.1276879,53.2718025],[-6.1276414,53.2718251],[-6.1270744,53.2720622],[-6.1266472,53.2722449],[-6.1261882,53.2724224],[-6.1259382,53.2725143],[-6.125802,53.2725642],[-6.1251298,53.2728088],[-6.1249034,53.2729095],[-6.1246824,53.2730229],[-6.1244531,53.2731838],[-6.1243394,53.2732765],[-6.1241967,53.2734109]]}";3;Avondale Road;2;50;false;false;false;false;false;false;458.0;0;0;0;0;0;false;3091;5635075123;-6.123912;53.2736201;3092;5635075137;-6.1268104;53.2721091;2;16;17;11016995;59 to Killiney;"";Go-Ahead Ireland;59;Dun Laoghaire Station;Killiney Hill
10056698;"{\"type\":\"LineString\",\"coordinates\":[[-6.1295175,53.2709017],[-6.1293351,53.271016],[-6.1293101,53.2710289],[-6.1289462,53.2712159],[-6.1284588,53.271445],[-6.128237,53.2715512],[-6.1277864,53.2717612],[-6.1276879,53.2718025],[-6.1276414,53.2718251],[-6.1270744,53.2720622],[-6.1266472,53.2722449],[-6.1261882,53.2724224],[-6.1259382,53.2725143],[-6.125802,53.2725642],[-6.1251298,53.2728088],[-6.1249034,53.2729095],[-6.1246824,53.2730229],[-6.1244531,53.2731838],[-6.1243394,53.2732765],[-6.1241967,53.2734109]]}";1;Avondale Road;2;50;false;false;false;false;false;false;229.0;0;0;0;0;0;false;3092;5635075137;-6.1268104;53.2721091;3093;5635075202;-6.1300873;53.2703217;1;17;18;11016995;59 to Killiney;"";Go-Ahead Ireland;59;Dun Laoghaire Station;Killiney Hill
793898255;"{\"type\":\"LineString\",\"coordinates\":[[-6.1295175,53.2709017],[-6.1294971,53.2708866]]}";2;"";1;50;false;false;true;false;false;false;3.0;0;0;0;0;0;true;3092;5635075137;-6.1268104;53.2721091;3093;5635075202;-6.1300873;53.2703217;0;17;18;11016995;59 to Killiney;"";Go-Ahead Ireland;59;Dun Laoghaire Station;Killiney Hill
793898254;"{\"type\":\"LineString\",\"coordinates\":[[-6.1294971,53.2708866],[-6.1294863,53.2708683],[-6.1294861,53.2708489],[-6.1294966,53.2708305],[-6.1295167,53.2708153],[-6.1295441,53.2708049],[-6.1295757,53.2708004],[-6.129608,53.2708024],[-6.1296373,53.2708107],[-6.1296604,53.2708244]]}";3;"";1;50;false;false;true;false;false;false;20.0;0;0;0;0;0;true;3092;5635075137;-6.1268104;53.2721091;3093;5635075202;-6.1300873;53.2703217;0;17;18;11016995;59 to Killiney;"";Go-Ahead Ireland;59;Dun Laoghaire Station;Killiney Hill
55904963;"{\"type\":\"LineString\",\"coordinates\":[[-6.1303333,53.2701689],[-6.1301511,53.2703727],[-6.1300075,53.2705218],[-6.1298967,53.2706143],[-6.1297447,53.2707496],[-6.1297198,53.2707717],[-6.1296604,53.2708244]]}";4;Avondale Road;2;50;false;false;false;false;false;false;43.5;0;0;0;0;0;false;3092;5635075137;-6.1268104;53.2721091;3093;5635075202;-6.1300873;53.2703217;1;17;18;11016995;59 to Killiney;"";Go-Ahead Ireland;59;Dun Laoghaire Station;Killiney Hill
55904963;"{\"type\":\"LineString\",\"coordinates\":[[-6.1303333,53.2701689],[-6.1301511,53.2703727],[-6.1300075,53.2705218],[-6.1298967,53.2706143],[-6.1297447,53.2707496],[-6.1297198,53.2707717],[-6.1296604,53.2708244]]}";1;Avondale Road;2;50;false;false;false;false;false;false;43.5;0;0;0;0;0;false;3093;5635075202;-6.1300873;53.2703217;3094;5653961122;-6.127171;53.2691644;1;18;19;11016995;59 to Killiney;"";Go-Ahead Ireland;59;Dun Laoghaire Station;Killiney Hill
23312673;"{\"type\":\"LineString\",\"coordinates\":[[-6.1263753,53.2689364],[-6.1264207,53.2689514],[-6.1275464,53.2692324],[-6.1280615,53.2693873],[-6.1285662,53.2695559],[-6.1295518,53.26989],[-6.1297585,53.2699601],[-6.130244,53.2701397],[-6.1303333,53.2701689]]}";2;Cluny Grove;2;50;false;false;true;false;false;false;150.0;0;0;2;0;0;false;3093;5635075202;-6.1300873;53.2703217;3094;5653961122;-6.127171;53.2691644;1;18;19;11016995;59 to Killiney;"";Go-Ahead Ireland;59;Dun Laoghaire Station;Killiney Hill
23312673;"{\"type\":\"LineString\",\"coordinates\":[[-6.1263753,53.2689364],[-6.1264207,53.2689514],[-6.1275464,53.2692324],[-6.1280615,53.2693873],[-6.1285662,53.2695559],[-6.1295518,53.26989],[-6.1297585,53.2699601],[-6.130244,53.2701397],[-6.1303333,53.2701689]]}";1;Cluny Grove;2;50;false;false;true;false;false;false;150.0;0;0;2;0;0;false;3094;5653961122;-6.127171;53.2691644;3095;7426186138;-6.1218458;53.2708287;1;19;20;11016995;59 to Killiney;"";Go-Ahead Ireland;59;Dun Laoghaire Station;Killiney Hill
793898256;"{\"type\":\"LineString\",\"coordinates\":[[-6.1263753,53.2689364],[-6.1262263,53.2690288],[-6.1261827,53.2690558],[-6.1260086,53.2691356],[-6.125887,53.2691913],[-6.1256471,53.2692706],[-6.1253861,53.2693311],[-6.1252311,53.269361],[-6.1251722,53.2693724],[-6.1249653,53.2694124]]}";2;Ballinclea Road;1;50;false;false;true;false;false;false;111.0;0;1;0;0;0;false;3094;5653961122;-6.127171;53.2691644;3095;7426186138;-6.1218458;53.2708287;0;19;20;11016995;59 to Killiney;"";Go-Ahead Ireland;59;Dun Laoghaire Station;Killiney Hill
328338660;"{\"type\":\"LineString\",\"coordinates\":[[-6.1249653,53.2694124],[-6.1244784,53.2695549],[-6.1234475,53.2699032],[-6.1229818,53.2700817],[-6.1227032,53.2701885],[-6.1222887,53.2704534],[-6.1219451,53.2706882],[-6.1217764,53.2708035],[-6.1214115,53.271106]]}";3;Ballinclea Road;1;50;false;false;true;false;false;false;155.0;0;0;0;0;0;false;3094;5653961122;-6.127171;53.2691644;3095;7426186138;-6.1218458;53.2708287;1;19;20;11016995;59 to Killiney;"";Go-Ahead Ireland;59;Dun Laoghaire Station;Killiney Hill
328338660;"{\"type\":\"LineString\",\"coordinates\":[[-6.1249653,53.2694124],[-6.1244784,53.2695549],[-6.1234475,53.2699032],[-6.1229818,53.2700817],[-6.1227032,53.2701885],[-6.1222887,53.2704534],[-6.1219451,53.2706882],[-6.1217764,53.2708035],[-6.1214115,53.271106]]}";1;Ballinclea Road;1;50;false;false;true;false;false;false;155.0;0;0;0;0;0;false;3095;7426186138;-6.1218458;53.2708287;3097;7426186141;-6.1152487;53.2699873;1;20;21;11016995;59 to Killiney;"";Go-Ahead Ireland;59;Dun Laoghaire Station;Killiney Hill
251506368;"{\"type\":\"LineString\",\"coordinates\":[[-6.1214115,53.271106],[-6.1212956,53.2711723],[-6.1211476,53.2712194]]}";2;Ballinclea Road;1;50;false;false;true;false;false;false;23.0;0;0;0;0;0;false;3095;7426186138;-6.1218458;53.2708287;3097;7426186141;-6.1152487;53.2699873;0;20;21;11016995;59 to Killiney;"";Go-Ahead Ireland;59;Dun Laoghaire Station;Killiney Hill
23312666;"{\"type\":\"LineString\",\"coordinates\":[[-6.1207515,53.2712647],[-6.1209223,53.2712564],[-6.1211476,53.2712194]]}";3;Ballinclea Road;1;50;false;false;true;false;false;false;28.0;0;0;0;0;0;false;3095;7426186138;-6.1218458;53.2708287;3097;7426186141;-6.1152487;53.2699873;0;20;21;11016995;59 to Killiney;"";Go-Ahead Ireland;59;Dun Laoghaire Station;Killiney Hill
23312664;"{\"type\":\"LineString\",\"coordinates\":[[-6.1144813,53.2697529],[-6.1145654,53.2697693],[-6.114992,53.2698447],[-6.1159772,53.2700188],[-6.1166349,53.270128],[-6.116734,53.2701444],[-6.1178009,53.2703215],[-6.1181104,53.270373],[-6.1185789,53.2704509],[-6.1190161,53.2705204],[-6.1195685,53.2706271],[-6.1195971,53.2706326],[-6.1199725,53.2707581],[-6.120247,53.2708638],[-6.1204107,53.2709512],[-6.1205529,53.2710482],[-6.1206575,53.27115],[-6.1207515,53.2712647]]}";4;Killiney Road;1;50;false;false;true;false;false;false;233.0;0;0;1;0;0;false;3095;7426186138;-6.1218458;53.2708287;3097;7426186141;-6.1152487;53.2699873;1;20;21;11016995;59 to Killiney;"";Go-Ahead Ireland;59;Dun Laoghaire Station;Killiney Hill
23312664;"{\"type\":\"LineString\",\"coordinates\":[[-6.1144813,53.2697529],[-6.1145654,53.2697693],[-6.114992,53.2698447],[-6.1159772,53.2700188],[-6.1166349,53.270128],[-6.116734,53.2701444],[-6.1178009,53.2703215],[-6.1181104,53.270373],[-6.1185789,53.2704509],[-6.1190161,53.2705204],[-6.1195685,53.2706271],[-6.1195971,53.2706326],[-6.1199725,53.2707581],[-6.120247,53.2708638],[-6.1204107,53.2709512],[-6.1205529,53.2710482],[-6.1206575,53.27115],[-6.1207515,53.2712647]]}";1;Killiney Road;1;50;false;false;true;false;false;false;233.0;0;0;1;0;0;false;3097;7426186141;-6.1152487;53.2699873;3098;5641893861;-6.1144128;53.2678407;1;21;22;11016995;59 to Killiney;"";Go-Ahead Ireland;59;Dun Laoghaire Station;Killiney Hill
328338664;"{\"type\":\"LineString\",\"coordinates\":[[-6.1143343,53.2686302],[-6.1143681,53.2687325],[-6.1146214,53.2689365],[-6.1146671,53.2689942],[-6.1146788,53.2690611],[-6.1145746,53.269478],[-6.1145611,53.2695177],[-6.1144813,53.2697529]]}";2;Killiney Hill Road;1;50;false;false;true;false;false;false;134.0;0;0;0;0;0;false;3097;7426186141;-6.1152487;53.2699873;3098;5641893861;-6.1144128;53.2678407;0;21;22;11016995;59 to Killiney;"";Go-Ahead Ireland;59;Dun Laoghaire Station;Killiney Hill
77670338;"{\"type\":\"LineString\",\"coordinates\":[[-6.1144274,53.2680645],[-6.1144264,53.2681287],[-6.1143997,53.2683106],[-6.1143275,53.2685755],[-6.1143343,53.2686302]]}";3;Killiney Hill Road;2;50;false;false;true;false;false;false;64.0;0;0;0;0;0;false;3097;7426186141;-6.1152487;53.2699873;3098;5641893861;-6.1144128;53.2678407;0;21;22;11016995;59 to Killiney;"";Go-Ahead Ireland;59;Dun Laoghaire Station;Killiney Hill
315514355;"{\"type\":\"LineString\",\"coordinates\":[[-6.1144274,53.2680645],[-6.1144083,53.2680663],[-6.114389,53.2680653],[-6.1143706,53.2680617],[-6.1143513,53.2680541],[-6.1143362,53.2680435],[-6.1143271,53.2680316],[-6.1143237,53.2680187],[-6.1143261,53.2680056],[-6.1143332,53.2679946],[-6.1143445,53.2679848],[-6.1143594,53.267977],[-6.1143726,53.2679727],[-6.1143869,53.2679699],[-6.1144107,53.2679687],[-6.1144341,53.2679717]]}";4;"";1;50;false;false;true;false;false;false;21.0;0;0;0;0;0;true;3097;7426186141;-6.1152487;53.2699873;3098;5641893861;-6.1144128;53.2678407;0;21;22;11016995;59 to Killiney;"";Go-Ahead Ireland;59;Dun Laoghaire Station;Killiney Hill
328338668;"{\"type\":\"LineString\",\"coordinates\":[[-6.1153675,53.265887],[-6.1153409,53.2661239],[-6.1152116,53.2665986],[-6.1151876,53.2666776],[-6.1150631,53.2670043],[-6.1149552,53.2672202],[-6.1148458,53.2673597],[-6.114803,53.2674142],[-6.1147499,53.2674803],[-6.1144941,53.267799],[-6.1144341,53.2679717]]}";5;Killiney Hill Road;2;50;false;false;true;false;false;false;122.0;0;0;0;0;0;false;3097;7426186141;-6.1152487;53.2699873;3098;5641893861;-6.1144128;53.2678407;1;21;22;11016995;59 to Killiney;"";Go-Ahead Ireland;59;Dun Laoghaire Station;Killiney Hill
315514355;"{\"type\":\"LineString\",\"coordinates\":[[-6.1144274,53.2680645],[-6.1144083,53.2680663],[-6.114389,53.2680653],[-6.1143706,53.2680617],[-6.1143513,53.2680541],[-6.1143362,53.2680435],[-6.1143271,53.2680316],[-6.1143237,53.2680187],[-6.1143261,53.2680056],[-6.1143332,53.2679946],[-6.1143445,53.2679848],[-6.1143594,53.267977],[-6.1143726,53.2679727],[-6.1143869,53.2679699],[-6.1144107,53.2679687],[-6.1144341,53.2679717]]}";1;"";1;50;false;false;true;false;false;false;21.0;0;0;0;0;0;true;3098;5641893861;-6.1144128;53.2678407;3099;5641893854;-6.1150784;53.2649166;2;22;23;11016995;59 to Killiney;"";Go-Ahead Ireland;59;Dun Laoghaire Station;Killiney Hill
328338668;"{\"type\":\"LineString\",\"coordinates\":[[-6.1153675,53.265887],[-6.1153409,53.2661239],[-6.1152116,53.2665986],[-6.1151876,53.2666776],[-6.1150631,53.2670043],[-6.1149552,53.2672202],[-6.1148458,53.2673597],[-6.114803,53.2674142],[-6.1147499,53.2674803],[-6.1144941,53.267799],[-6.1144341,53.2679717]]}";2;Killiney Hill Road;2;50;false;false;true;false;false;false;244.0;0;0;0;0;0;false;3098;5641893861;-6.1144128;53.2678407;3099;5641893854;-6.1150784;53.2649166;0;22;23;11016995;59 to Killiney;"";Go-Ahead Ireland;59;Dun Laoghaire Station;Killiney Hill
22569171;"{\"type\":\"LineString\",\"coordinates\":[[-6.1149545,53.2647969],[-6.1149763,53.2649795],[-6.1150258,53.2650628],[-6.1150635,53.2651083],[-6.1151499,53.2652124],[-6.1152105,53.2653103],[-6.1153595,53.2655378],[-6.1153796,53.2657006],[-6.1153675,53.265887]]}";3;Killiney Hill Road;1;50;false;false;true;false;false;false;128.0;0;0;0;0;0;false;3098;5641893861;-6.1144128;53.2678407;3099;5641893854;-6.1150784;53.2649166;1;22;23;11016995;59 to Killiney;"";Go-Ahead Ireland;59;Dun Laoghaire Station;Killiney Hill
