way_id;shape;index;name;nb_lanes;legal_speed;speed_zone_30;oneway;shares_bike;bike_box;bus_lane;dedicated_bus_lane;length;nb_traffic_signals;nb_crossings;nb_stops;nb_give_ways;nb_lvl_crossings;roundabout;stop_id_orig;node_id_orig;coord_x_orig;coord_y_orig;stop_id_dest;node_id_dest;coord_x_dest;coord_y_dest;nb_neighbouring_ways_bus_stop;ordre_orig;ordre_dest;id_line;line_name;colour;operator;ref;from;to
732382922;"{\"type\":\"LineString\",\"coordinates\":[[-73.621344,45.5510213],[-73.6210661,45.5508997]]}";1;Rue Rousselot;1;50;false;false;true;false;false;false;26.0;1;0;0;0;0;false;54222;6010976238;-73.621384;45.550954;54220;6010973154;-73.623335;45.549042;1;0;1;9320164;Bus 13 : Christophe-Colomb Sud;"";STM;13-S;Rousselot / Jarry;Station Rosemont
452645967;"{\"type\":\"LineString\",\"coordinates\":[[-73.6210661,45.5508997],[-73.6215294,45.5503726],[-73.6220575,45.5498632],[-73.6227995,45.5492888],[-73.6235371,45.5488546],[-73.6236124,45.5488103],[-73.6236792,45.5487696],[-73.6239005,45.5486346]]}";2;Rue Jarry Est;4;50;false;false;true;false;false;false;169.0;2;0;0;0;0;false;54222;6010976238;-73.621384;45.550954;54220;6010973154;-73.623335;45.549042;1;0;1;9320164;Bus 13 : Christophe-Colomb Sud;"";STM;13-S;Rousselot / Jarry;Station Rosemont
452645967;"{\"type\":\"LineString\",\"coordinates\":[[-73.6210661,45.5508997],[-73.6215294,45.5503726],[-73.6220575,45.5498632],[-73.6227995,45.5492888],[-73.6235371,45.5488546],[-73.6236124,45.5488103],[-73.6236792,45.5487696],[-73.6239005,45.5486346]]}";1;Rue Jarry Est;4;50;false;false;true;false;false;false;169.0;2;0;0;0;0;false;54220;6010973154;-73.623335;45.549042;54221;6010968516;-73.624133;45.547758;1;1;2;9320164;Bus 13 : Christophe-Colomb Sud;"";STM;13-S;Rousselot / Jarry;Station Rosemont
462766326;"{\"type\":\"LineString\",\"coordinates\":[[-73.6239005,45.5486346],[-73.6240064,45.5486044],[-73.6243259,45.5484126]]}";2;Rue Jarry Est;4;50;false;true;true;false;false;false;42.0;0;0;0;0;0;false;54220;6010973154;-73.623335;45.549042;54221;6010968516;-73.624133;45.547758;0;1;2;9320164;Bus 13 : Christophe-Colomb Sud;"";STM;13-S;Rousselot / Jarry;Station Rosemont
462766325;"{\"type\":\"LineString\",\"coordinates\":[[-73.6243259,45.5484126],[-73.6246164,45.548243],[-73.6246241,45.5482385],[-73.6246874,45.5482057]]}";3;Rue Jarry Est;4;50;false;true;true;false;false;false;37.0;1;1;0;0;0;false;54220;6010973154;-73.623335;45.549042;54221;6010968516;-73.624133;45.547758;0;1;2;9320164;Bus 13 : Christophe-Colomb Sud;"";STM;13-S;Rousselot / Jarry;Station Rosemont
462766324;"{\"type\":\"LineString\",\"coordinates\":[[-73.6246874,45.5482057],[-73.6247999,45.5481354]]}";4;Rue Jarry Est;4;50;false;true;true;false;false;false;12.0;1;0;0;0;0;false;54220;6010973154;-73.623335;45.549042;54221;6010968516;-73.624133;45.547758;0;1;2;9320164;Bus 13 : Christophe-Colomb Sud;"";STM;13-S;Rousselot / Jarry;Station Rosemont
462766320;"{\"type\":\"LineString\",\"coordinates\":[[-73.6247999,45.5481354],[-73.6247043,45.548089]]}";5;Avenue Christophe-Colomb;2;50;false;true;false;false;false;false;10.0;1;0;0;0;0;false;54220;6010973154;-73.623335;45.549042;54221;6010968516;-73.624133;45.547758;0;1;2;9320164;Bus 13 : Christophe-Colomb Sud;"";STM;13-S;Rousselot / Jarry;Station Rosemont
452037086;"{\"type\":\"LineString\",\"coordinates\":[[-73.6247043,45.548089],[-73.6245331,45.5480125],[-73.6244034,45.5479545]]}";6;Avenue Christophe-Colomb;2;50;false;true;true;false;false;false;28.0;0;1;0;0;0;false;54220;6010973154;-73.623335;45.549042;54221;6010968516;-73.624133;45.547758;0;1;2;9320164;Bus 13 : Christophe-Colomb Sud;"";STM;13-S;Rousselot / Jarry;Station Rosemont
452037087;"{\"type\":\"LineString\",\"coordinates\":[[-73.6244034,45.5479545],[-73.6240235,45.5477847]]}";7;Avenue Christophe-Colomb;2;50;false;true;true;false;false;false;18.0;0;0;0;0;0;false;54220;6010973154;-73.623335;45.549042;54221;6010968516;-73.624133;45.547758;1;1;2;9320164;Bus 13 : Christophe-Colomb Sud;"";STM;13-S;Rousselot / Jarry;Station Rosemont
452027364;"{\"type\":\"LineString\",\"coordinates\":[[-73.6050053,45.5393666],[-73.604161,45.5389922]]}";1;Avenue Christophe-Colomb;1;50;false;false;false;false;false;false;78.0;1;0;0;0;0;false;51507;6010969156;-73.605186;45.539345;51585;281754820;-73.6017492;45.5378206;2;7;8;9320164;Bus 13 : Christophe-Colomb Sud;"";STM;13-S;Rousselot / Jarry;Station Rosemont
354343233;"{\"type\":\"LineString\",\"coordinates\":[[-73.604161,45.5389922],[-73.601846,45.5379654],[-73.6015425,45.5378308]]}";2;Avenue Christophe-Colomb;1;50;false;false;false;false;false;false;242.0;1;0;0;0;0;false;51507;6010969156;-73.605186;45.539345;51585;281754820;-73.6017492;45.5378206;2;7;8;9320164;Bus 13 : Christophe-Colomb Sud;"";STM;13-S;Rousselot / Jarry;Station Rosemont
451896406;"{\"type\":\"LineString\",\"coordinates\":[[-73.6015425,45.5378308],[-73.5993586,45.5368604]]}";1;Avenue Christophe-Colomb;1;50;false;false;false;false;false;false;202.0;1;0;0;0;0;false;51585;281754820;-73.6017492;45.5378206;51645;6010973658;-73.598583;45.5364;2;8;9;9320164;Bus 13 : Christophe-Colomb Sud;"";STM;13-S;Rousselot / Jarry;Station Rosemont
354345385;"{\"type\":\"LineString\",\"coordinates\":[[-73.5993586,45.5368604],[-73.5991157,45.5367524],[-73.5983685,45.5364204]]}";2;Avenue Christophe-Colomb;1;50;false;false;false;false;false;false;92.0;1;0;0;0;0;false;51585;281754820;-73.6017492;45.5378206;51645;6010973658;-73.598583;45.5364;2;8;9;9320164;Bus 13 : Christophe-Colomb Sud;"";STM;13-S;Rousselot / Jarry;Station Rosemont
454851470;"{\"type\":\"LineString\",\"coordinates\":[[-73.5983685,45.5364204],[-73.5970335,45.5358261]]}";1;Avenue Christophe-Colomb;1;30;false;false;false;false;false;false;124.0;1;0;0;0;0;false;51645;6010973658;-73.598583;45.5364;51727;6010976233;-73.5952;45.534891;2;9;10;9320164;Bus 13 : Christophe-Colomb Sud;"";STM;13-S;Rousselot / Jarry;Station Rosemont
236941378;"{\"type\":\"LineString\",\"coordinates\":[[-73.5970335,45.5358261],[-73.5969362,45.5357825],[-73.5965497,45.5356094],[-73.5949873,45.5349095]]}";2;Avenue Christophe-Colomb;1;30;false;false;false;false;false;false;190.0;1;0;0;0;0;false;51645;6010973658;-73.598583;45.5364;51727;6010976233;-73.5952;45.534891;2;9;10;9320164;Bus 13 : Christophe-Colomb Sud;"";STM;13-S;Rousselot / Jarry;Station Rosemont
454867299;"{\"type\":\"LineString\",\"coordinates\":[[-73.5953599,45.5344952],[-73.5949873,45.5349095]]}";1;Boulevard Rosemont;2;50;false;false;true;false;false;false;55.0;1;0;0;0;0;false;51727;6010976233;-73.5952;45.534891;51684;6010975677;-73.596559;45.533282;2;10;11;9320164;Bus 13 : Christophe-Colomb Sud;"";STM;13-S;Rousselot / Jarry;Station Rosemont
464944659;"{\"type\":\"LineString\",\"coordinates\":[[-73.5956863,45.5341322],[-73.5953599,45.5344952]]}";2;Boulevard Rosemont;2;50;false;false;true;false;false;false;48.0;1;0;0;0;0;false;51727;6010976233;-73.5952;45.534891;51684;6010975677;-73.596559;45.533282;0;10;11;9320164;Bus 13 : Christophe-Colomb Sud;"";STM;13-S;Rousselot / Jarry;Station Rosemont
464944658;"{\"type\":\"LineString\",\"coordinates\":[[-73.5960054,45.5337773],[-73.5956863,45.5341322]]}";3;Boulevard Rosemont;2;50;false;false;true;false;false;false;47.0;1;0;0;0;0;false;51727;6010976233;-73.5952;45.534891;51684;6010975677;-73.596559;45.533282;0;10;11;9320164;Bus 13 : Christophe-Colomb Sud;"";STM;13-S;Rousselot / Jarry;Station Rosemont
329918648;"{\"type\":\"LineString\",\"coordinates\":[[-73.5965499,45.5331718],[-73.5962773,45.533475],[-73.5960054,45.5337773]]}";4;Boulevard Rosemont;2;50;false;false;true;false;false;false;80.0;1;0;0;0;0;false;51727;6010976233;-73.5952;45.534891;51684;6010975677;-73.596559;45.533282;2;10;11;9320164;Bus 13 : Christophe-Colomb Sud;"";STM;13-S;Rousselot / Jarry;Station Rosemont
464944656;"{\"type\":\"LineString\",\"coordinates\":[[-73.596858,45.5328292],[-73.5965499,45.5331718]]}";1;Boulevard Rosemont;2;50;false;false;true;false;false;false;46.0;1;0;0;0;0;false;51684;6010975677;-73.596559;45.533282;61653;878785993;-73.597461;45.5312216;2;11;12;9320164;Bus 13 : Christophe-Colomb Sud;"";STM;13-S;Rousselot / Jarry;Station Rosemont
329918647;"{\"type\":\"LineString\",\"coordinates\":[[-73.5971659,45.5324867],[-73.597142,45.5325133],[-73.597078,45.5325845],[-73.5969936,45.5326783],[-73.596858,45.5328292]]}";2;Boulevard Rosemont;2;50;false;false;true;false;false;false;45.0;1;0;0;0;0;false;51684;6010975677;-73.596559;45.533282;61653;878785993;-73.597461;45.5312216;0;11;12;9320164;Bus 13 : Christophe-Colomb Sud;"";STM;13-S;Rousselot / Jarry;Station Rosemont
393726762;"{\"type\":\"LineString\",\"coordinates\":[[-73.5977939,45.5317884],[-73.597734,45.531855],[-73.5974854,45.5321314],[-73.597186,45.5324645],[-73.5971659,45.5324867]]}";3;Boulevard Rosemont;2;50;false;false;true;false;false;false;92.0;3;1;0;0;0;false;51684;6010975677;-73.596559;45.533282;61653;878785993;-73.597461;45.5312216;0;11;12;9320164;Bus 13 : Christophe-Colomb Sud;"";STM;13-S;Rousselot / Jarry;Station Rosemont
74340107;"{\"type\":\"LineString\",\"coordinates\":[[-73.5977939,45.5317884],[-73.5976578,45.5317297],[-73.5975199,45.5316645],[-73.5973224,45.5315751],[-73.5972771,45.5315471],[-73.597258,45.5315222]]}";4;Rue de Saint-Vallier;1;50;false;false;true;false;false;false;52.0;1;1;0;0;0;false;51684;6010975677;-73.596559;45.533282;61653;878785993;-73.597461;45.5312216;0;11;12;9320164;Bus 13 : Christophe-Colomb Sud;"";STM;13-S;Rousselot / Jarry;Station Rosemont
732382921;"{\"type\":\"LineString\",\"coordinates\":[[-73.597258,45.5315222],[-73.5972852,45.5313794],[-73.5973507,45.5312698],[-73.5974964,45.5311111]]}";5;"";1;50;false;true;true;false;false;false;51.0;0;2;0;0;0;false;51684;6010975677;-73.596559;45.533282;61653;878785993;-73.597461;45.5312216;1;11;12;9320164;Bus 13 : Christophe-Colomb Sud;"";STM;13-S;Rousselot / Jarry;Station Rosemont
