way_id;shape;index;name;nb_lanes;legal_speed;speed_zone_30;oneway;shares_bike;bike_box;bus_lane;dedicated_bus_lane;length;nb_traffic_signals;nb_crossings;nb_stops;nb_give_ways;nb_lvl_crossings;roundabout;stop_id_orig;node_id_orig;coord_x_orig;coord_y_orig;stop_id_dest;node_id_dest;coord_x_dest;coord_y_dest;nb_neighbouring_ways_bus_stop;ordre_orig;ordre_dest;id_line;line_name;colour;operator;ref;from;to
45571004;"{\"type\":\"LineString\",\"coordinates\":[[-73.8211153,45.5300311],[-73.8219875,45.5308824],[-73.8234059,45.5322417]]}";1;Rue Carole;2;50;false;false;true;false;false;false;304.0;0;0;0;0;0;false;41216;6269511029;-73.82217;45.530926;42647;5894580455;-73.82007;45.52933;1;1;2;9312755;Bus : 56 E - Direction Métro Montmorency;"";STL;56E;Carole / Des Tulipes;Métro Montmorency
45571180;"{\"type\":\"LineString\",\"coordinates\":[[-73.8211153,45.5300311],[-73.8210588,45.5299093],[-73.8207815,45.5295393],[-73.8205606,45.5292446]]}";2;Rue Carole;1;50;false;true;true;false;false;false;98.0;0;0;0;0;0;false;41216;6269511029;-73.82217;45.530926;42647;5894580455;-73.82007;45.52933;0;1;2;9312755;Bus : 56 E - Direction Métro Montmorency;"";STL;56E;Carole / Des Tulipes;Métro Montmorency
682368053;"{\"type\":\"LineString\",\"coordinates\":[[-73.8205606,45.5292446],[-73.8204605,45.5292776]]}";3;Rue Principale;2;50;false;false;true;false;false;false;9.0;0;0;0;0;0;false;41216;6269511029;-73.82217;45.530926;42647;5894580455;-73.82007;45.52933;0;1;2;9312755;Bus : 56 E - Direction Métro Montmorency;"";STL;56E;Carole / Des Tulipes;Métro Montmorency
681114640;"{\"type\":\"LineString\",\"coordinates\":[[-73.8204605,45.5292776],[-73.8200178,45.5294092],[-73.8175788,45.5301158],[-73.8160033,45.5305756],[-73.8155293,45.5307139]]}";4;Rue Principale;2;50;false;false;true;false;false;false;208.5;0;0;0;0;0;false;41216;6269511029;-73.82217;45.530926;42647;5894580455;-73.82007;45.52933;1;1;2;9312755;Bus : 56 E - Direction Métro Montmorency;"";STL;56E;Carole / Des Tulipes;Métro Montmorency
681114640;"{\"type\":\"LineString\",\"coordinates\":[[-73.8204605,45.5292776],[-73.8200178,45.5294092],[-73.8175788,45.5301158],[-73.8160033,45.5305756],[-73.8155293,45.5307139]]}";1;Rue Principale;2;50;false;false;true;false;false;false;208.5;0;0;0;0;0;false;42646;5894580484;-73.81766;45.530057;42644;5894581099;-73.81461;45.530911;1;3;4;9312755;Bus : 56 E - Direction Métro Montmorency;"";STL;56E;Carole / Des Tulipes;Métro Montmorency
128245162;"{\"type\":\"LineString\",\"coordinates\":[[-73.8155293,45.5307139],[-73.8153442,45.5307594]]}";2;Rue Principale;2;50;false;false;true;false;false;false;16.0;0;0;0;0;0;false;42646;5894580484;-73.81766;45.530057;42644;5894581099;-73.81461;45.530911;0;3;4;9312755;Bus : 56 E - Direction Métro Montmorency;"";STL;56E;Carole / Des Tulipes;Métro Montmorency
26201425;"{\"type\":\"LineString\",\"coordinates\":[[-73.7965203,45.5371178],[-73.7970642,45.5367732],[-73.797345,45.5366099],[-73.7976636,45.5364246],[-73.7984007,45.5359958],[-73.7988006,45.5357632],[-73.7992044,45.5355859],[-73.8004742,45.5350283],[-73.8017143,45.5344886],[-73.8017578,45.5344697],[-73.8029054,45.533952],[-73.8039492,45.533552],[-73.8048505,45.5332624],[-73.8056974,45.5330559],[-73.8067677,45.532821],[-73.8106907,45.5319988],[-73.8108765,45.5319596],[-73.8111937,45.5318927],[-73.8112551,45.5318798],[-73.8129065,45.5315046],[-73.8134174,45.5313419],[-73.8145691,45.5309828],[-73.814951,45.5308727],[-73.8153442,45.5307594]]}";3;Rue Principale;2;50;false;false;true;false;false;false;824.0;0;0;0;0;0;false;42646;5894580484;-73.81766;45.530057;42644;5894581099;-73.81461;45.530911;1;3;4;9312755;Bus : 56 E - Direction Métro Montmorency;"";STL;56E;Carole / Des Tulipes;Métro Montmorency
391450692;"{\"type\":\"LineString\",\"coordinates\":[[-73.799513,45.5395303],[-73.7977058,45.5380735],[-73.7965203,45.5371178]]}";1;Montée Champagne;2;50;false;false;true;false;false;false;178.0;0;0;0;0;0;false;41271;5894581097;-73.79842;45.538729;42823;5894580452;-73.79909;45.539645;1;14;15;9312755;Bus : 56 E - Direction Métro Montmorency;"";STL;56E;Carole / Des Tulipes;Métro Montmorency
405007659;"{\"type\":\"LineString\",\"coordinates\":[[-73.799513,45.5395303],[-73.7985038,45.5400229],[-73.7969123,45.5407898],[-73.7956848,45.5413574]]}";2;Boulevard Saint-Martin Ouest;3;70;false;true;true;false;false;false;181.0;1;0;0;0;0;false;41271;5894581097;-73.79842;45.538729;42823;5894580452;-73.79909;45.539645;1;14;15;9312755;Bus : 56 E - Direction Métro Montmorency;"";STL;56E;Carole / Des Tulipes;Métro Montmorency
405007659;"{\"type\":\"LineString\",\"coordinates\":[[-73.799513,45.5395303],[-73.7985038,45.5400229],[-73.7969123,45.5407898],[-73.7956848,45.5413574]]}";1;Boulevard Saint-Martin Ouest;3;70;false;true;true;false;false;false;181.0;1;0;0;0;0;false;42823;5894580452;-73.79909;45.539645;42430;5894580465;-73.7891;45.541614;1;15;16;9312755;Bus : 56 E - Direction Métro Montmorency;"";STL;56E;Carole / Des Tulipes;Métro Montmorency
38816201;"{\"type\":\"LineString\",\"coordinates\":[[-73.7956848,45.5413574],[-73.794444,45.5419387]]}";2;Boulevard Saint-Martin;3;70;false;true;true;false;false;false;117.0;0;0;0;0;0;false;42823;5894580452;-73.79909;45.539645;42430;5894580465;-73.7891;45.541614;0;15;16;9312755;Bus : 56 E - Direction Métro Montmorency;"";STL;56E;Carole / Des Tulipes;Métro Montmorency
405007658;"{\"type\":\"LineString\",\"coordinates\":[[-73.794444,45.5419387],[-73.7931932,45.5425507]]}";3;Boulevard Saint-Martin Ouest;3;70;false;true;true;false;false;false;119.0;1;0;0;0;0;false;42823;5894580452;-73.79909;45.539645;42430;5894580465;-73.7891;45.541614;0;15;16;9312755;Bus : 56 E - Direction Métro Montmorency;"";STL;56E;Carole / Des Tulipes;Métro Montmorency
466352802;"{\"type\":\"LineString\",\"coordinates\":[[-73.7931932,45.5425507],[-73.7926294,45.5428054]]}";4;Boulevard Saint-Martin Ouest;3;70;false;true;true;false;false;false;53.0;1;0;0;0;0;false;42823;5894580452;-73.79909;45.539645;42430;5894580465;-73.7891;45.541614;0;15;16;9312755;Bus : 56 E - Direction Métro Montmorency;"";STL;56E;Carole / Des Tulipes;Métro Montmorency
466352798;"{\"type\":\"LineString\",\"coordinates\":[[-73.7926294,45.5428054],[-73.7921078,45.5430622]]}";5;Boulevard Saint-Martin Ouest;2;70;false;true;true;false;false;false;50.0;0;0;0;0;0;false;42823;5894580452;-73.79909;45.539645;42430;5894580465;-73.7891;45.541614;0;15;16;9312755;Bus : 56 E - Direction Métro Montmorency;"";STL;56E;Carole / Des Tulipes;Métro Montmorency
38816202;"{\"type\":\"LineString\",\"coordinates\":[[-73.7921078,45.5430622],[-73.7919421,45.543144],[-73.79121,45.5434748]]}";6;Boulevard Saint-Martin Ouest;2;70;false;true;true;false;false;false;84.0;0;0;0;0;0;false;42823;5894580452;-73.79909;45.539645;42430;5894580465;-73.7891;45.541614;0;15;16;9312755;Bus : 56 E - Direction Métro Montmorency;"";STL;56E;Carole / Des Tulipes;Métro Montmorency
23606059;"{\"type\":\"LineString\",\"coordinates\":[[-73.7888394,45.5415743],[-73.7889402,45.5416552],[-73.7905987,45.5429848],[-73.7907959,45.5431429],[-73.79121,45.5434748]]}";7;Rue Montgolfier;2;50;false;false;true;false;false;false;140.5;0;0;1;0;0;false;42823;5894580452;-73.79909;45.539645;42430;5894580465;-73.7891;45.541614;1;15;16;9312755;Bus : 56 E - Direction Métro Montmorency;"";STL;56E;Carole / Des Tulipes;Métro Montmorency
23606059;"{\"type\":\"LineString\",\"coordinates\":[[-73.7888394,45.5415743],[-73.7889402,45.5416552],[-73.7905987,45.5429848],[-73.7907959,45.5431429],[-73.79121,45.5434748]]}";1;Rue Montgolfier;2;50;false;false;true;false;false;false;140.5;0;0;1;0;0;false;42430;5894580465;-73.7891;45.541614;42827;5894581085;-73.78642;45.542692;1;16;17;9312755;Bus : 56 E - Direction Métro Montmorency;"";STL;56E;Carole / Des Tulipes;Métro Montmorency
525679286;"{\"type\":\"LineString\",\"coordinates\":[[-73.7714632,45.5477819],[-73.771943,45.5476576],[-73.7727998,45.5475578],[-73.7732055,45.5475093],[-73.7734085,45.547485],[-73.7740744,45.5474054],[-73.7747669,45.5473226],[-73.7748318,45.5473148],[-73.7752294,45.5472538],[-73.775746,45.5471746],[-73.7763477,45.5470627],[-73.7765195,45.5470321],[-73.7767844,45.5469811],[-73.7768801,45.5469604],[-73.777066,45.5469224],[-73.7771457,45.5469072],[-73.7772782,45.5468734],[-73.7772955,45.5468671],[-73.7773585,45.5468473],[-73.7775018,45.546808],[-73.7776535,45.5467711],[-73.7776836,45.5467611],[-73.7779968,45.5466543],[-73.7781419,45.5466047],[-73.7790246,45.5462517],[-73.7790621,45.546235],[-73.7793249,45.5461185],[-73.7801952,45.5457323],[-73.7804619,45.5456139],[-73.7806929,45.5455114],[-73.7807317,45.5454942],[-73.7809396,45.545402],[-73.7810159,45.5453681],[-73.7811932,45.5452821],[-73.7815178,45.5451247],[-73.7816296,45.5450724],[-73.7817649,45.545009],[-73.7819642,45.5449157],[-73.7820104,45.5448941],[-73.7822538,45.5447802],[-73.782372,45.5447249],[-73.7826982,45.544565],[-73.782995,45.5444195],[-73.7832053,45.5443164],[-73.783458,45.5441925],[-73.7840839,45.5438856],[-73.7844319,45.543715],[-73.7845163,45.5436734],[-73.7846312,45.5436168],[-73.7849267,45.5434712],[-73.7851046,45.5433835],[-73.7851597,45.5433564],[-73.7863045,45.5427923],[-73.7865556,45.5426686],[-73.7868352,45.5425308],[-73.7868886,45.5425043],[-73.7875171,45.5421924],[-73.7877099,45.5421023],[-73.7877979,45.5420614],[-73.7886677,45.5416574],[-73.7888394,45.5415743]]}";2;Boulevard Saint-Martin Ouest;2;50;false;false;true;false;false;false;772.5;0;0;3;0;0;false;42430;5894580465;-73.7891;45.541614;42827;5894581085;-73.78642;45.542692;1;16;17;9312755;Bus : 56 E - Direction Métro Montmorency;"";STL;56E;Carole / Des Tulipes;Métro Montmorency
45798815;"{\"type\":\"LineString\",\"coordinates\":[[-73.7705185,45.5537038],[-73.7713046,45.5543387],[-73.7720764,45.5549659],[-73.7737035,45.5562765]]}";1;Rue Favreau;2;50;false;false;true;false;false;false;189.5;0;0;0;0;0;false;46394;6269510525;-73.77085;45.553879;42147;6269510499;-73.76823;45.555874;1;30;31;9312755;Bus : 56 E - Direction Métro Montmorency;"";STL;56E;Carole / Des Tulipes;Métro Montmorency
45798673;"{\"type\":\"LineString\",\"coordinates\":[[-73.7705185,45.5537038],[-73.7701297,45.5540461],[-73.7699555,45.554238],[-73.7689687,45.5554245],[-73.7688638,45.5555314],[-73.7688167,45.5555795],[-73.768628,45.5557719],[-73.768241,45.556015],[-73.7676025,45.5563819],[-73.7673008,45.5565562],[-73.766746,45.5568767]]}";2;Avenue Louis Payette;2;50;false;false;false;false;false;false;232.5;0;0;0;0;0;false;46394;6269510525;-73.77085;45.553879;42147;6269510499;-73.76823;45.555874;1;30;31;9312755;Bus : 56 E - Direction Métro Montmorency;"";STL;56E;Carole / Des Tulipes;Métro Montmorency
45798673;"{\"type\":\"LineString\",\"coordinates\":[[-73.7705185,45.5537038],[-73.7701297,45.5540461],[-73.7699555,45.554238],[-73.7689687,45.5554245],[-73.7688638,45.5555314],[-73.7688167,45.5555795],[-73.768628,45.5557719],[-73.768241,45.556015],[-73.7676025,45.5563819],[-73.7673008,45.5565562],[-73.766746,45.5568767]]}";1;Avenue Louis Payette;2;50;false;false;false;false;false;false;232.5;0;0;0;0;0;false;42149;6269510354;-73.76719;45.556506;41934;6269510372;-73.76464;45.557862;1;32;33;9312755;Bus : 56 E - Direction Métro Montmorency;"";STL;56E;Carole / Des Tulipes;Métro Montmorency
680568196;"{\"type\":\"LineString\",\"coordinates\":[[-73.766746,45.5568767],[-73.7666052,45.556959]]}";2;Avenue Louis Payette;2;50;false;false;false;false;false;false;15.0;0;0;0;0;0;false;42149;6269510354;-73.76719;45.556506;41934;6269510372;-73.76464;45.557862;0;32;33;9312755;Bus : 56 E - Direction Métro Montmorency;"";STL;56E;Carole / Des Tulipes;Métro Montmorency
545933362;"{\"type\":\"LineString\",\"coordinates\":[[-73.7666052,45.556959],[-73.7663522,45.5570224],[-73.7658781,45.5573084],[-73.7652694,45.5576328],[-73.7648951,45.5578322],[-73.7644817,45.558025],[-73.7632933,45.5585919],[-73.762199,45.5591408]]}";3;Boulevard Le Carrefour;1;50;false;true;false;false;false;false;211.0;0;0;0;0;0;false;42149;6269510354;-73.76719;45.556506;41934;6269510372;-73.76464;45.557862;1;32;33;9312755;Bus : 56 E - Direction Métro Montmorency;"";STL;56E;Carole / Des Tulipes;Métro Montmorency
455472723;"{\"type\":\"LineString\",\"coordinates\":[[-73.762199,45.5591408],[-73.7613824,45.5597509],[-73.7594245,45.5612137],[-73.7581485,45.562167]]}";1;Boulevard Le Carrefour;2;50;false;true;false;false;false;false;231.0;1;0;0;0;0;false;46473;6269510261;-73.75831;45.561952;43925;6269510227;-73.7574;45.56262;1;35;36;9312755;Bus : 56 E - Direction Métro Montmorency;"";STL;56E;Carole / Des Tulipes;Métro Montmorency
679314224;"{\"type\":\"LineString\",\"coordinates\":[[-73.7581485,45.562167],[-73.7580188,45.5622639]]}";2;Boulevard Le Carrefour;2;50;false;true;false;false;false;false;15.0;2;0;0;0;0;false;46473;6269510261;-73.75831;45.561952;43925;6269510227;-73.7574;45.56262;0;35;36;9312755;Bus : 56 E - Direction Métro Montmorency;"";STL;56E;Carole / Des Tulipes;Métro Montmorency
455472722;"{\"type\":\"LineString\",\"coordinates\":[[-73.7580188,45.5622639],[-73.7577696,45.5624501]]}";3;Boulevard Le Carrefour;2;50;false;true;true;false;false;false;29.0;1;0;0;0;0;false;46473;6269510261;-73.75831;45.561952;43925;6269510227;-73.7574;45.56262;0;35;36;9312755;Bus : 56 E - Direction Métro Montmorency;"";STL;56E;Carole / Des Tulipes;Métro Montmorency
455472718;"{\"type\":\"LineString\",\"coordinates\":[[-73.7577696,45.5624501],[-73.7574823,45.5626589],[-73.7569751,45.5630274],[-73.7558473,45.5638473],[-73.7545309,45.5648033],[-73.7539979,45.5651906]]}";4;Boulevard Le Carrefour;2;50;false;true;true;false;false;false;212.0;0;0;0;0;0;false;46473;6269510261;-73.75831;45.561952;43925;6269510227;-73.7574;45.56262;1;35;36;9312755;Bus : 56 E - Direction Métro Montmorency;"";STL;56E;Carole / Des Tulipes;Métro Montmorency
455472717;"{\"type\":\"LineString\",\"coordinates\":[[-73.7539979,45.5651906],[-73.7539728,45.5652092],[-73.7537909,45.5653415],[-73.7535894,45.5654874]]}";1;Boulevard Le Carrefour;2;50;false;true;true;false;false;false;46.0;1;0;0;0;0;false;43928;6269510073;-73.75403;45.565069;43296;6269509995;-73.75266;45.566085;2;38;39;9312755;Bus : 56 E - Direction Métro Montmorency;"";STL;56E;Carole / Des Tulipes;Métro Montmorency
455472716;"{\"type\":\"LineString\",\"coordinates\":[[-73.7535894,45.5654874],[-73.7534246,45.5656112]]}";2;Boulevard Le Carrefour;2;50;false;true;true;false;false;false;19.0;2;0;0;0;0;false;43928;6269510073;-73.75403;45.565069;43296;6269509995;-73.75266;45.566085;0;38;39;9312755;Bus : 56 E - Direction Métro Montmorency;"";STL;56E;Carole / Des Tulipes;Métro Montmorency
455472714;"{\"type\":\"LineString\",\"coordinates\":[[-73.7534246,45.5656112],[-73.7531331,45.5658189]]}";3;Boulevard Le Carrefour;2;50;false;true;true;false;false;false;33.0;1;0;0;0;0;false;43928;6269510073;-73.75403;45.565069;43296;6269509995;-73.75266;45.566085;0;38;39;9312755;Bus : 56 E - Direction Métro Montmorency;"";STL;56E;Carole / Des Tulipes;Métro Montmorency
45755845;"{\"type\":\"LineString\",\"coordinates\":[[-73.7531331,45.5658189],[-73.7530943,45.5658466],[-73.752082,45.5666123],[-73.752034,45.5666486],[-73.751984,45.5666864],[-73.7514521,45.5670888],[-73.7512257,45.5672491],[-73.7508536,45.5674963],[-73.7507569,45.5675681],[-73.7501092,45.568049],[-73.7499936,45.5681349],[-73.7497084,45.5683231],[-73.749603,45.5683977]]}";4;Boulevard Le Carrefour;2;50;false;true;true;false;false;false;398.0;3;1;0;0;0;false;43928;6269510073;-73.75403;45.565069;43296;6269509995;-73.75266;45.566085;2;38;39;9312755;Bus : 56 E - Direction Métro Montmorency;"";STL;56E;Carole / Des Tulipes;Métro Montmorency
45755845;"{\"type\":\"LineString\",\"coordinates\":[[-73.7531331,45.5658189],[-73.7530943,45.5658466],[-73.752082,45.5666123],[-73.752034,45.5666486],[-73.751984,45.5666864],[-73.7514521,45.5670888],[-73.7512257,45.5672491],[-73.7508536,45.5674963],[-73.7507569,45.5675681],[-73.7501092,45.568049],[-73.7499936,45.5681349],[-73.7497084,45.5683231],[-73.749603,45.5683977]]}";1;Boulevard Le Carrefour;2;50;false;true;true;false;false;false;199.0;3;1;0;0;0;false;46470;6269510014;-73.75052;45.567593;"44160;44156";6269509581;-73.74913;45.568506;1;40;41;9312755;Bus : 56 E - Direction Métro Montmorency;"";STL;56E;Carole / Des Tulipes;Métro Montmorency
684308382;"{\"type\":\"LineString\",\"coordinates\":[[-73.749603,45.5683977],[-73.7494872,45.5684757],[-73.749474,45.5684846],[-73.7490509,45.5687693],[-73.7488748,45.5688878],[-73.7486183,45.5690313],[-73.7486118,45.5690349],[-73.7482908,45.5692144],[-73.7481645,45.5692712],[-73.7480536,45.5693169]]}";2;Boulevard Le Carrefour;2;50;false;true;true;false;false;false;79.5;2;3;0;0;0;false;46470;6269510014;-73.75052;45.567593;"44160;44156";6269509581;-73.74913;45.568506;1;40;41;9312755;Bus : 56 E - Direction Métro Montmorency;"";STL;56E;Carole / Des Tulipes;Métro Montmorency
684308382;"{\"type\":\"LineString\",\"coordinates\":[[-73.749603,45.5683977],[-73.7494872,45.5684757],[-73.749474,45.5684846],[-73.7490509,45.5687693],[-73.7488748,45.5688878],[-73.7486183,45.5690313],[-73.7486118,45.5690349],[-73.7482908,45.5692144],[-73.7481645,45.5692712],[-73.7480536,45.5693169]]}";1;Boulevard Le Carrefour;2;50;false;true;true;false;false;false;79.5;2;3;0;0;0;false;"44160;44156";6269509581;-73.74913;45.568506;41931;6269509373;-73.74128;45.572194;1;41;42;9312755;Bus : 56 E - Direction Métro Montmorency;"";STL;56E;Carole / Des Tulipes;Métro Montmorency
652937897;"{\"type\":\"LineString\",\"coordinates\":[[-73.7480536,45.5693169],[-73.747605,45.5695129],[-73.7471654,45.5696881],[-73.7460729,45.5701116]]}";2;Boulevard Le Carrefour;2;50;false;true;false;false;false;false;178.0;1;0;0;0;0;false;"44160;44156";6269509581;-73.74913;45.568506;41931;6269509373;-73.74128;45.572194;0;41;42;9312755;Bus : 56 E - Direction Métro Montmorency;"";STL;56E;Carole / Des Tulipes;Métro Montmorency
45755858;"{\"type\":\"LineString\",\"coordinates\":[[-73.7460729,45.5701116],[-73.7443762,45.5707482]]}";3;Boulevard Le Carrefour;2;50;false;true;false;false;false;false;151.0;0;0;0;0;0;false;"44160;44156";6269509581;-73.74913;45.568506;41931;6269509373;-73.74128;45.572194;0;41;42;9312755;Bus : 56 E - Direction Métro Montmorency;"";STL;56E;Carole / Des Tulipes;Métro Montmorency
45755729;"{\"type\":\"LineString\",\"coordinates\":[[-73.7443762,45.5707482],[-73.7438228,45.5709423],[-73.7438005,45.5709526],[-73.7433719,45.5711499],[-73.7431441,45.5712668],[-73.7429955,45.5713431],[-73.7420247,45.571886],[-73.7418024,45.5720154],[-73.7414375,45.5722279],[-73.7413885,45.5722574]]}";4;Boulevard Le Carrefour;2;50;false;true;false;false;false;false;288.0;0;0;0;0;0;false;"44160;44156";6269509581;-73.74913;45.568506;41931;6269509373;-73.74128;45.572194;0;41;42;9312755;Bus : 56 E - Direction Métro Montmorency;"";STL;56E;Carole / Des Tulipes;Métro Montmorency
455474957;"{\"type\":\"LineString\",\"coordinates\":[[-73.7413885,45.5722574],[-73.7412072,45.5722668],[-73.7409074,45.5722348]]}";5;"";1;50;false;true;true;false;false;false;19.0;0;0;0;0;0;false;"44160;44156";6269509581;-73.74913;45.568506;41931;6269509373;-73.74128;45.572194;1;41;42;9312755;Bus : 56 E - Direction Métro Montmorency;"";STL;56E;Carole / Des Tulipes;Métro Montmorency
45755729;"{\"type\":\"LineString\",\"coordinates\":[[-73.7443762,45.5707482],[-73.7438228,45.5709423],[-73.7438005,45.5709526],[-73.7433719,45.5711499],[-73.7431441,45.5712668],[-73.7429955,45.5713431],[-73.7420247,45.571886],[-73.7418024,45.5720154],[-73.7414375,45.5722279],[-73.7413885,45.5722574]]}";1;Boulevard Le Carrefour;2;50;false;true;false;false;false;false;288.0;0;0;0;0;0;false;41931;6269509373;-73.74128;45.572194;46144;6269509524;-73.73732;45.570681;2;42;43;9312755;Bus : 56 E - Direction Métro Montmorency;"";STL;56E;Carole / Des Tulipes;Métro Montmorency
455474957;"{\"type\":\"LineString\",\"coordinates\":[[-73.7413885,45.5722574],[-73.7412072,45.5722668],[-73.7409074,45.5722348]]}";2;"";1;50;false;true;true;false;false;false;38.0;0;0;0;0;0;false;41931;6269509373;-73.74128;45.572194;46144;6269509524;-73.73732;45.570681;0;42;43;9312755;Bus : 56 E - Direction Métro Montmorency;"";STL;56E;Carole / Des Tulipes;Métro Montmorency
455474949;"{\"type\":\"LineString\",\"coordinates\":[[-73.7409074,45.5722348],[-73.7385431,45.5701423]]}";3;Boulevard Le Corbusier;2;60;false;true;false;false;false;false;297.0;1;0;0;0;0;false;41931;6269509373;-73.74128;45.572194;46144;6269509524;-73.73732;45.570681;0;42;43;9312755;Bus : 56 E - Direction Métro Montmorency;"";STL;56E;Carole / Des Tulipes;Métro Montmorency
681114635;"{\"type\":\"LineString\",\"coordinates\":[[-73.7383828,45.5702326],[-73.7385431,45.5701423]]}";4;Boulevard Tessier;2;50;false;false;true;false;false;false;17.0;2;0;0;0;0;false;41931;6269509373;-73.74128;45.572194;46144;6269509524;-73.73732;45.570681;0;42;43;9312755;Bus : 56 E - Direction Métro Montmorency;"";STL;56E;Carole / Des Tulipes;Métro Montmorency
681114634;"{\"type\":\"LineString\",\"coordinates\":[[-73.7383828,45.5702326],[-73.738239,45.5702502],[-73.7372594,45.5708122],[-73.7364419,45.5712622],[-73.735989,45.5715041],[-73.7357033,45.5716231],[-73.7351879,45.5717434],[-73.7349569,45.5717588],[-73.733892,45.5718101]]}";5;Boulevard Tessier;1;50;false;true;true;false;false;false;406.0;1;0;0;0;0;false;41931;6269509373;-73.74128;45.572194;46144;6269509524;-73.73732;45.570681;2;42;43;9312755;Bus : 56 E - Direction Métro Montmorency;"";STL;56E;Carole / Des Tulipes;Métro Montmorency
681114634;"{\"type\":\"LineString\",\"coordinates\":[[-73.7383828,45.5702326],[-73.738239,45.5702502],[-73.7372594,45.5708122],[-73.7364419,45.5712622],[-73.735989,45.5715041],[-73.7357033,45.5716231],[-73.7351879,45.5717434],[-73.7349569,45.5717588],[-73.733892,45.5718101]]}";1;Boulevard Tessier;1;50;false;true;true;false;false;false;203.0;1;0;0;0;0;false;46145;6269509494;-73.73491;45.571694;41781;6269509299;-73.73572;45.574131;1;44;45;9312755;Bus : 56 E - Direction Métro Montmorency;"";STL;56E;Carole / Des Tulipes;Métro Montmorency
682368055;"{\"type\":\"LineString\",\"coordinates\":[[-73.733892,45.5718101],[-73.7339028,45.5719002]]}";2;Avenue Jessop;2;50;false;false;true;false;false;false;11.0;0;0;0;0;0;false;46145;6269509494;-73.73491;45.571694;41781;6269509299;-73.73572;45.574131;0;44;45;9312755;Bus : 56 E - Direction Métro Montmorency;"";STL;56E;Carole / Des Tulipes;Métro Montmorency
45610567;"{\"type\":\"LineString\",\"coordinates\":[[-73.7339028,45.5719002],[-73.7339109,45.5721073],[-73.7339934,45.5724322],[-73.7341551,45.5726501],[-73.7352356,45.5736161],[-73.7359069,45.5741891]]}";3;Avenue Jessop;2;50;false;false;true;false;false;false;153.0;0;0;0;0;0;false;46145;6269509494;-73.73491;45.571694;41781;6269509299;-73.73572;45.574131;1;44;45;9312755;Bus : 56 E - Direction Métro Montmorency;"";STL;56E;Carole / Des Tulipes;Métro Montmorency
45755932;"{\"type\":\"LineString\",\"coordinates\":[[-73.7359069,45.5741891],[-73.7349038,45.5746926],[-73.7344127,45.5748762],[-73.7337938,45.5750403],[-73.7315189,45.5753211],[-73.7299385,45.5754926],[-73.7289883,45.575572],[-73.7287052,45.5756229]]}";1;Rue Louise;2;50;false;false;true;false;false;false;297.0;0;0;0;0;0;false;42154;6269508880;-73.72944;45.575474;42164;6269509330;-73.72683;45.573834;1;47;48;9312755;Bus : 56 E - Direction Métro Montmorency;"";STL;56E;Carole / Des Tulipes;Métro Montmorency
45610438;"{\"type\":\"LineString\",\"coordinates\":[[-73.7287052,45.5756229],[-73.7286389,45.5754699],[-73.7267087,45.5737914],[-73.724622,45.571986],[-73.7241443,45.5715756],[-73.7237884,45.5712683],[-73.7230766,45.5706208],[-73.7228725,45.5705085]]}";2;Boulevard Mcnamara;1;50;false;true;true;false;false;false;365.0;2;0;0;0;0;false;42154;6269508880;-73.72944;45.575474;42164;6269509330;-73.72683;45.573834;1;47;48;9312755;Bus : 56 E - Direction Métro Montmorency;"";STL;56E;Carole / Des Tulipes;Métro Montmorency
45610438;"{\"type\":\"LineString\",\"coordinates\":[[-73.7287052,45.5756229],[-73.7286389,45.5754699],[-73.7267087,45.5737914],[-73.724622,45.571986],[-73.7241443,45.5715756],[-73.7237884,45.5712683],[-73.7230766,45.5706208],[-73.7228725,45.5705085]]}";1;Boulevard Mcnamara;1;50;false;true;true;false;false;false;365.0;2;0;0;0;0;false;42168;6269509500;-73.72362;45.571033;42842;6269509513;-73.72164;45.5711;1;50;51;9312755;Bus : 56 E - Direction Métro Montmorency;"";STL;56E;Carole / Des Tulipes;Métro Montmorency
681114632;"{\"type\":\"LineString\",\"coordinates\":[[-73.7228725,45.5705085],[-73.7215814,45.5713]]}";2;Boulevard Saint-Martin Ouest;3;60;false;true;false;false;false;false;67.0;1;0;0;0;0;false;42168;6269509500;-73.72362;45.571033;42842;6269509513;-73.72164;45.5711;1;50;51;9312755;Bus : 56 E - Direction Métro Montmorency;"";STL;56E;Carole / Des Tulipes;Métro Montmorency
681114632;"{\"type\":\"LineString\",\"coordinates\":[[-73.7228725,45.5705085],[-73.7215814,45.5713]]}";1;Boulevard Saint-Martin Ouest;3;60;false;true;false;false;false;false;67.0;1;0;0;0;0;false;42842;6269509513;-73.72164;45.5711;41922;6269509515;-73.72084;45.571038;1;51;52;9312755;Bus : 56 E - Direction Métro Montmorency;"";STL;56E;Carole / Des Tulipes;Métro Montmorency
45610691;"{\"type\":\"LineString\",\"coordinates\":[[-73.7215814,45.5713],[-73.7213169,45.5713549],[-73.7211756,45.5713713],[-73.7210908,45.5713406],[-73.7209012,45.571202]]}";2;"";1;50;false;true;true;false;false;false;62.0;0;0;0;0;0;false;42842;6269509513;-73.72164;45.5711;41922;6269509515;-73.72084;45.571038;0;51;52;9312755;Bus : 56 E - Direction Métro Montmorency;"";STL;56E;Carole / Des Tulipes;Métro Montmorency
37691522;"{\"type\":\"LineString\",\"coordinates\":[[-73.7209012,45.571202],[-73.7207547,45.5710175],[-73.7206138,45.570788],[-73.7205052,45.5705621],[-73.720425,45.5703095],[-73.7203946,45.5701616],[-73.7203287,45.5693743],[-73.7203035,45.5686366],[-73.7202589,45.5681809],[-73.7201796,45.5675736],[-73.7200851,45.567171],[-73.7198706,45.5667144],[-73.7195101,45.5662457],[-73.7190836,45.5657612],[-73.7185115,45.5651955],[-73.7180853,45.5647675],[-73.7173856,45.5641293]]}";3;Boulevard Laval;3;50;false;true;false;false;false;false;428.5;1;0;0;0;0;false;42842;6269509513;-73.72164;45.5711;41922;6269509515;-73.72084;45.571038;1;51;52;9312755;Bus : 56 E - Direction Métro Montmorency;"";STL;56E;Carole / Des Tulipes;Métro Montmorency
45610691;"{\"type\":\"LineString\",\"coordinates\":[[-73.7215814,45.5713],[-73.7213169,45.5713549],[-73.7211756,45.5713713],[-73.7210908,45.5713406],[-73.7209012,45.571202]]}";1;"";1;50;false;true;true;false;false;false;62.0;0;0;0;0;0;false;41922;6269509515;-73.72084;45.571038;41920;6269509551;-73.72042;45.56977;2;52;53;9312755;Bus : 56 E - Direction Métro Montmorency;"";STL;56E;Carole / Des Tulipes;Métro Montmorency
37691522;"{\"type\":\"LineString\",\"coordinates\":[[-73.7209012,45.571202],[-73.7207547,45.5710175],[-73.7206138,45.570788],[-73.7205052,45.5705621],[-73.720425,45.5703095],[-73.7203946,45.5701616],[-73.7203287,45.5693743],[-73.7203035,45.5686366],[-73.7202589,45.5681809],[-73.7201796,45.5675736],[-73.7200851,45.567171],[-73.7198706,45.5667144],[-73.7195101,45.5662457],[-73.7190836,45.5657612],[-73.7185115,45.5651955],[-73.7180853,45.5647675],[-73.7173856,45.5641293]]}";2;Boulevard Laval;3;50;false;true;false;false;false;false;857.0;1;0;0;0;0;false;41922;6269509515;-73.72084;45.571038;41920;6269509551;-73.72042;45.56977;2;52;53;9312755;Bus : 56 E - Direction Métro Montmorency;"";STL;56E;Carole / Des Tulipes;Métro Montmorency
165090588;"{\"type\":\"LineString\",\"coordinates\":[[-73.7173856,45.5641293],[-73.7175252,45.564058],[-73.7182549,45.5637161],[-73.7190351,45.5633285],[-73.7196752,45.5629869],[-73.7203549,45.5627098],[-73.7203891,45.562698],[-73.7211787,45.5624216],[-73.7221512,45.5621209],[-73.722162,45.5621176],[-73.7222878,45.5620794]]}";1;Boulevard du Souvenir;3;50;false;true;true;false;false;false;223.5;1;0;0;0;0;false;43152;6269510229;-73.72071;45.562652;46444;6269510253;-73.7224;45.561218;1;57;58;9312755;Bus : 56 E - Direction Métro Montmorency;"";STL;56E;Carole / Des Tulipes;Métro Montmorency
475237530;"{\"type\":\"LineString\",\"coordinates\":[[-73.7222878,45.5620794],[-73.7227201,45.561963]]}";2;Boulevard du Souvenir;3;50;false;true;true;false;false;false;37.0;1;0;0;0;0;false;43152;6269510229;-73.72071;45.562652;46444;6269510253;-73.7224;45.561218;0;57;58;9312755;Bus : 56 E - Direction Métro Montmorency;"";STL;56E;Carole / Des Tulipes;Métro Montmorency
669709379;"{\"type\":\"LineString\",\"coordinates\":[[-73.7227201,45.561963],[-73.7228972,45.5619121]]}";3;Boulevard du Souvenir;3;50;false;true;true;false;false;false;15.0;2;0;0;0;0;false;43152;6269510229;-73.72071;45.562652;46444;6269510253;-73.7224;45.561218;0;57;58;9312755;Bus : 56 E - Direction Métro Montmorency;"";STL;56E;Carole / Des Tulipes;Métro Montmorency
680430220;"{\"type\":\"LineString\",\"coordinates\":[[-73.7228972,45.5619121],[-73.722752,45.5617595]]}";4;Boulevard de l'Avenir;3;50;false;true;false;false;false;false;21.0;2;0;0;0;0;false;43152;6269510229;-73.72071;45.562652;46444;6269510253;-73.7224;45.561218;0;57;58;9312755;Bus : 56 E - Direction Métro Montmorency;"";STL;56E;Carole / Des Tulipes;Métro Montmorency
29081985;"{\"type\":\"LineString\",\"coordinates\":[[-73.722752,45.5617595],[-73.7225279,45.561532],[-73.7214827,45.5604479],[-73.7211098,45.5600515],[-73.7210472,45.5599848],[-73.7205915,45.5595102]]}";5;Boulevard de l'Avenir;3;50;false;true;false;false;false;false;151.0;1;0;0;0;0;false;43152;6269510229;-73.72071;45.562652;46444;6269510253;-73.7224;45.561218;1;57;58;9312755;Bus : 56 E - Direction Métro Montmorency;"";STL;56E;Carole / Des Tulipes;Métro Montmorency
29081985;"{\"type\":\"LineString\",\"coordinates\":[[-73.722752,45.5617595],[-73.7225279,45.561532],[-73.7214827,45.5604479],[-73.7211098,45.5600515],[-73.7210472,45.5599848],[-73.7205915,45.5595102]]}";1;Boulevard de l'Avenir;3;50;false;true;false;false;false;false;151.0;1;0;0;0;0;false;"46509;43507;46443";6269510304;-73.72082;45.559592;"48126;48161;48170;48133;48165;48136;48140;48148;48176;48156;48913;48102;48145;48842";5894580468;-73.72102;45.558276;1;59;60;9312755;Bus : 56 E - Direction Métro Montmorency;"";STL;56E;Carole / Des Tulipes;Métro Montmorency
695738775;"{\"type\":\"LineString\",\"coordinates\":[[-73.7205915,45.5595102],[-73.7199464,45.5588146]]}";2;Boulevard de l'Avenir;3;50;false;true;false;false;false;false;93.0;0;0;0;0;0;false;"46509;43507;46443";6269510304;-73.72082;45.559592;"48126;48161;48170;48133;48165;48136;48140;48148;48176;48156;48913;48102;48145;48842";5894580468;-73.72102;45.558276;0;59;60;9312755;Bus : 56 E - Direction Métro Montmorency;"";STL;56E;Carole / Des Tulipes;Métro Montmorency
475848926;"{\"type\":\"LineString\",\"coordinates\":[[-73.7199464,45.5588146],[-73.719872,45.558742],[-73.7198603,45.5587298],[-73.7197703,45.558636]]}";3;Boulevard de l'Avenir;3;50;false;true;false;false;false;false;25.0;0;1;0;0;0;false;"46509;43507;46443";6269510304;-73.72082;45.559592;"48126;48161;48170;48133;48165;48136;48140;48148;48176;48156;48913;48102;48145;48842";5894580468;-73.72102;45.558276;0;59;60;9312755;Bus : 56 E - Direction Métro Montmorency;"";STL;56E;Carole / Des Tulipes;Métro Montmorency
673250003;"{\"type\":\"LineString\",\"coordinates\":[[-73.7200309,45.5584789],[-73.7198217,45.5586049],[-73.7197703,45.558636]]}";4;"";1;30;false;false;false;false;false;false;27.0;0;1;0;0;0;false;"46509;43507;46443";6269510304;-73.72082;45.559592;"48126;48161;48170;48133;48165;48136;48140;48148;48176;48156;48913;48102;48145;48842";5894580468;-73.72102;45.558276;0;59;60;9312755;Bus : 56 E - Direction Métro Montmorency;"";STL;56E;Carole / Des Tulipes;Métro Montmorency
673246437;"{\"type\":\"LineString\",\"coordinates\":[[-73.7200309,45.5584789],[-73.720124,45.5585758],[-73.7201474,45.5585648]]}";5;"";1;30;false;true;false;false;false;false;16.0;0;0;0;0;0;false;"46509;43507;46443";6269510304;-73.72082;45.559592;"48126;48161;48170;48133;48165;48136;48140;48148;48176;48156;48913;48102;48145;48842";5894580468;-73.72102;45.558276;0;59;60;9312755;Bus : 56 E - Direction Métro Montmorency;"";STL;56E;Carole / Des Tulipes;Métro Montmorency
624217210;"{\"type\":\"LineString\",\"coordinates\":[[-73.7201474,45.5585648],[-73.720206,45.5585372],[-73.7203325,45.5584776]]}";6;"";1;30;false;true;false;false;false;false;18.0;0;0;0;0;0;false;"46509;43507;46443";6269510304;-73.72082;45.559592;"48126;48161;48170;48133;48165;48136;48140;48148;48176;48156;48913;48102;48145;48842";5894580468;-73.72102;45.558276;0;59;60;9312755;Bus : 56 E - Direction Métro Montmorency;"";STL;56E;Carole / Des Tulipes;Métro Montmorency
673264013;"{\"type\":\"LineString\",\"coordinates\":[[-73.7203325,45.5584776],[-73.7205612,45.55837]]}";7;"";1;30;false;true;false;false;false;false;22.0;0;0;0;0;0;false;"46509;43507;46443";6269510304;-73.72082;45.559592;"48126;48161;48170;48133;48165;48136;48140;48148;48176;48156;48913;48102;48145;48842";5894580468;-73.72102;45.558276;0;59;60;9312755;Bus : 56 E - Direction Métro Montmorency;"";STL;56E;Carole / Des Tulipes;Métro Montmorency
673264014;"{\"type\":\"LineString\",\"coordinates\":[[-73.7205612,45.55837],[-73.7207712,45.5582711]]}";8;"";1;30;false;true;false;false;false;false;20.0;0;0;0;0;0;false;"46509;43507;46443";6269510304;-73.72082;45.559592;"48126;48161;48170;48133;48165;48136;48140;48148;48176;48156;48913;48102;48145;48842";5894580468;-73.72102;45.558276;0;59;60;9312755;Bus : 56 E - Direction Métro Montmorency;"";STL;56E;Carole / Des Tulipes;Métro Montmorency
475848923;"{\"type\":\"LineString\",\"coordinates\":[[-73.7207712,45.5582711],[-73.7209137,45.558204]]}";9;"";1;30;false;true;true;false;false;false;14.0;0;0;0;0;0;false;"46509;43507;46443";6269510304;-73.72082;45.559592;"48126;48161;48170;48133;48165;48136;48140;48148;48176;48156;48913;48102;48145;48842";5894580468;-73.72102;45.558276;1;59;60;9312755;Bus : 56 E - Direction Métro Montmorency;"";STL;56E;Carole / Des Tulipes;Métro Montmorency
