way_id;shape;index;name;nb_lanes;legal_speed;speed_zone_30;oneway;shares_bike;bike_box;bus_lane;dedicated_bus_lane;length;nb_traffic_signals;nb_crossings;nb_stops;nb_give_ways;nb_lvl_crossings;roundabout;stop_id_orig;node_id_orig;coord_x_orig;coord_y_orig;stop_id_dest;node_id_dest;coord_x_dest;coord_y_dest;nb_neighbouring_ways_bus_stop;ordre_orig;ordre_dest;id_line;line_name;colour;operator;ref;from;to
669902231;"{\"type\":\"LineString\",\"coordinates\":[[-73.6828755,45.560162],[-73.6828112,45.5601876],[-73.6827077,45.5602109],[-73.682644,45.5602049],[-73.6825892,45.560184],[-73.6825263,45.5601334],[-73.6825179,45.560095],[-73.6825372,45.5600624],[-73.6826117,45.5600129]]}";1;"";1;50;false;false;true;false;false;false;48.0;0;0;0;0;0;false;"47128;47170;47120;47012;47002;47173;47058;47158;47141;47102;47122;47911;47133;47160;47163;47127;47137;47117;47031;47143;47174;47124;47112;47070;47148;47017";6269510222;-73.6825;45.559923;41842;6269510244;-73.68204;45.56156;1;0;1;9312805;Bus : 17 N - Direction Auteuil;"";STL;17N;Métro Cartier Quai:2;Terminus Bienville
242652088;"{\"type\":\"LineString\",\"coordinates\":[[-73.6830194,45.5603075],[-73.6828755,45.560162]]}";2;"";1;50;false;false;true;false;false;false;20.0;1;0;0;0;0;false;"47128;47170;47120;47012;47002;47173;47058;47158;47141;47102;47122;47911;47133;47160;47163;47127;47137;47117;47031;47143;47174;47124;47112;47070;47148;47017";6269510222;-73.6825;45.559923;41842;6269510244;-73.68204;45.56156;0;0;1;9312805;Bus : 17 N - Direction Auteuil;"";STL;17N;Métro Cartier Quai:2;Terminus Bienville
258700554;"{\"type\":\"LineString\",\"coordinates\":[[-73.6830194,45.5603075],[-73.6827075,45.5604638],[-73.6824175,45.5606264],[-73.6822665,45.5607085]]}";3;Boulevard Cartier Ouest;2;50;false;true;true;false;false;false;74.0;1;0;0;0;0;false;"47128;47170;47120;47012;47002;47173;47058;47158;47141;47102;47122;47911;47133;47160;47163;47127;47137;47117;47031;47143;47174;47124;47112;47070;47148;47017";6269510222;-73.6825;45.559923;41842;6269510244;-73.68204;45.56156;0;0;1;9312805;Bus : 17 N - Direction Auteuil;"";STL;17N;Métro Cartier Quai:2;Terminus Bienville
455492089;"{\"type\":\"LineString\",\"coordinates\":[[-73.6822665,45.5607085],[-73.6819634,45.5608959],[-73.6817505,45.5610049]]}";4;Boulevard Cartier Ouest;2;50;false;true;true;false;false;false;53.0;1;0;0;0;0;false;"47128;47170;47120;47012;47002;47173;47058;47158;47141;47102;47122;47911;47133;47160;47163;47127;47137;47117;47031;47143;47174;47124;47112;47070;47148;47017";6269510222;-73.6825;45.559923;41842;6269510244;-73.68204;45.56156;0;0;1;9312805;Bus : 17 N - Direction Auteuil;"";STL;17N;Métro Cartier Quai:2;Terminus Bienville
292641472;"{\"type\":\"LineString\",\"coordinates\":[[-73.6817505,45.5610049],[-73.6816926,45.5610324],[-73.6815922,45.5610802]]}";5;Boulevard Cartier Ouest;2;50;false;true;true;false;false;false;15.0;2;0;0;0;0;false;"47128;47170;47120;47012;47002;47173;47058;47158;47141;47102;47122;47911;47133;47160;47163;47127;47137;47117;47031;47143;47174;47124;47112;47070;47148;47017";6269510222;-73.6825;45.559923;41842;6269510244;-73.68204;45.56156;0;0;1;9312805;Bus : 17 N - Direction Auteuil;"";STL;17N;Métro Cartier Quai:2;Terminus Bienville
258700557;"{\"type\":\"LineString\",\"coordinates\":[[-73.6815922,45.5610802],[-73.68169,45.5611749],[-73.6819137,45.5613673],[-73.6823486,45.5617409],[-73.6823502,45.5617422],[-73.6826844,45.5619598]]}";6;Boulevard des Laurentides;2;50;false;true;true;false;false;false;65.0;2;0;0;0;0;false;"47128;47170;47120;47012;47002;47173;47058;47158;47141;47102;47122;47911;47133;47160;47163;47127;47137;47117;47031;47143;47174;47124;47112;47070;47148;47017";6269510222;-73.6825;45.559923;41842;6269510244;-73.68204;45.56156;1;0;1;9312805;Bus : 17 N - Direction Auteuil;"";STL;17N;Métro Cartier Quai:2;Terminus Bienville
258700557;"{\"type\":\"LineString\",\"coordinates\":[[-73.6815922,45.5610802],[-73.68169,45.5611749],[-73.6819137,45.5613673],[-73.6823486,45.5617409],[-73.6823502,45.5617422],[-73.6826844,45.5619598]]}";1;Boulevard des Laurentides;2;50;false;true;true;false;false;false;65.0;2;0;0;0;0;false;41842;6269510244;-73.68204;45.56156;41865;6269510199;-73.68424;45.563491;1;1;2;9312805;Bus : 17 N - Direction Auteuil;"";STL;17N;Métro Cartier Quai:2;Terminus Bienville
452227549;"{\"type\":\"LineString\",\"coordinates\":[[-73.6826844,45.5619598],[-73.684522,45.5635813]]}";2;Boulevard des Laurentides;4;50;false;false;true;false;false;false;115.5;0;0;0;0;0;false;41842;6269510244;-73.68204;45.56156;41865;6269510199;-73.68424;45.563491;1;1;2;9312805;Bus : 17 N - Direction Auteuil;"";STL;17N;Métro Cartier Quai:2;Terminus Bienville
452227549;"{\"type\":\"LineString\",\"coordinates\":[[-73.6826844,45.5619598],[-73.684522,45.5635813]]}";1;Boulevard des Laurentides;4;50;false;false;true;false;false;false;115.5;0;0;0;0;0;false;41865;6269510199;-73.68424;45.563491;41887;6269510068;-73.68568;45.564778;1;2;3;9312805;Bus : 17 N - Direction Auteuil;"";STL;17N;Métro Cartier Quai:2;Terminus Bienville
452227544;"{\"type\":\"LineString\",\"coordinates\":[[-73.684522,45.5635813],[-73.6864142,45.565271]]}";2;Boulevard des Laurentides;4;50;false;false;true;false;false;false;119.5;0;0;0;0;0;false;41865;6269510199;-73.68424;45.563491;41887;6269510068;-73.68568;45.564778;1;2;3;9312805;Bus : 17 N - Direction Auteuil;"";STL;17N;Métro Cartier Quai:2;Terminus Bienville
452227544;"{\"type\":\"LineString\",\"coordinates\":[[-73.684522,45.5635813],[-73.6864142,45.565271]]}";1;Boulevard des Laurentides;4;50;false;false;true;false;false;false;119.5;0;0;0;0;0;false;41887;6269510068;-73.68568;45.564778;41796;6269510010;-73.68855;45.567342;1;3;4;9312805;Bus : 17 N - Direction Auteuil;"";STL;17N;Métro Cartier Quai:2;Terminus Bienville
46086120;"{\"type\":\"LineString\",\"coordinates\":[[-73.6864142,45.565271],[-73.68769,45.5664197]]}";2;Boulevard des Laurentides;4;50;false;false;true;false;false;false;162.0;0;0;0;0;0;false;41887;6269510068;-73.68568;45.564778;41796;6269510010;-73.68855;45.567342;0;3;4;9312805;Bus : 17 N - Direction Auteuil;"";STL;17N;Métro Cartier Quai:2;Terminus Bienville
452227546;"{\"type\":\"LineString\",\"coordinates\":[[-73.68769,45.5664197],[-73.6883244,45.5669908]]}";3;Boulevard des Laurentides;4;50;false;false;true;false;false;false;81.0;0;0;0;0;0;false;41887;6269510068;-73.68568;45.564778;41796;6269510010;-73.68855;45.567342;0;3;4;9312805;Bus : 17 N - Direction Auteuil;"";STL;17N;Métro Cartier Quai:2;Terminus Bienville
452227547;"{\"type\":\"LineString\",\"coordinates\":[[-73.6883244,45.5669908],[-73.6901977,45.568689]]}";4;Boulevard des Laurentides;4;50;false;false;true;false;false;false;119.5;0;0;0;0;0;false;41887;6269510068;-73.68568;45.564778;41796;6269510010;-73.68855;45.567342;1;3;4;9312805;Bus : 17 N - Direction Auteuil;"";STL;17N;Métro Cartier Quai:2;Terminus Bienville
452227548;"{\"type\":\"LineString\",\"coordinates\":[[-73.6901977,45.568689],[-73.6920842,45.5703911]]}";1;Boulevard des Laurentides;4;50;false;false;true;false;false;false;120.0;1;0;0;0;0;false;41800;6269509527;-73.69171;45.5702;41802;6269509352;-73.69434;45.572586;1;6;7;9312805;Bus : 17 N - Direction Auteuil;"";STL;17N;Métro Cartier Quai:2;Terminus Bienville
258700555;"{\"type\":\"LineString\",\"coordinates\":[[-73.6920842,45.5703911],[-73.6921816,45.5704852]]}";2;Boulevard des Laurentides;4;50;false;false;true;false;false;false;13.0;2;0;0;0;0;false;41800;6269509527;-73.69171;45.5702;41802;6269509352;-73.69434;45.572586;0;6;7;9312805;Bus : 17 N - Direction Auteuil;"";STL;17N;Métro Cartier Quai:2;Terminus Bienville
452227545;"{\"type\":\"LineString\",\"coordinates\":[[-73.6921816,45.5704852],[-73.6923511,45.5706606]]}";3;Boulevard des Laurentides;4;50;false;false;true;false;false;false;24.0;1;0;0;0;0;false;41800;6269509527;-73.69171;45.5702;41802;6269509352;-73.69434;45.572586;0;6;7;9312805;Bus : 17 N - Direction Auteuil;"";STL;17N;Métro Cartier Quai:2;Terminus Bienville
259643627;"{\"type\":\"LineString\",\"coordinates\":[[-73.6923511,45.5706606],[-73.6935441,45.5717052],[-73.6938656,45.5719868],[-73.6941278,45.5722163],[-73.694173,45.572256],[-73.6948715,45.5728676],[-73.6960798,45.5739255],[-73.6961954,45.5740268],[-73.6975572,45.5752191],[-73.6982178,45.5757768],[-73.6987252,45.5762051],[-73.6991329,45.5765493],[-73.6998396,45.5771459],[-73.699969,45.5772551],[-73.700393,45.577613],[-73.7010736,45.5781875]]}";4;Boulevard des Laurentides;4;50;false;false;true;false;false;false;539.0;2;0;0;0;0;false;41800;6269509527;-73.69171;45.5702;41802;6269509352;-73.69434;45.572586;1;6;7;9312805;Bus : 17 N - Direction Auteuil;"";STL;17N;Métro Cartier Quai:2;Terminus Bienville
259643627;"{\"type\":\"LineString\",\"coordinates\":[[-73.6923511,45.5706606],[-73.6935441,45.5717052],[-73.6938656,45.5719868],[-73.6941278,45.5722163],[-73.694173,45.572256],[-73.6948715,45.5728676],[-73.6960798,45.5739255],[-73.6961954,45.5740268],[-73.6975572,45.5752191],[-73.6982178,45.5757768],[-73.6987252,45.5762051],[-73.6991329,45.5765493],[-73.6998396,45.5771459],[-73.699969,45.5772551],[-73.700393,45.577613],[-73.7010736,45.5781875]]}";1;Boulevard des Laurentides;4;50;false;false;true;false;false;false;539.0;2;0;0;0;0;false;41809;6269508951;-73.70058;45.577941;41811;6269508920;-73.70172;45.57892;1;10;11;9312805;Bus : 17 N - Direction Auteuil;"";STL;17N;Métro Cartier Quai:2;Terminus Bienville
23292050;"{\"type\":\"LineString\",\"coordinates\":[[-73.7010736,45.5781875],[-73.7011251,45.5783016],[-73.7018661,45.5789226],[-73.7029382,45.5798378],[-73.704628,45.5813139],[-73.7048961,45.5815481],[-73.7051422,45.581755],[-73.7052532,45.5818483]]}";2;Boulevard des Laurentides;1;50;false;true;true;false;false;false;261.5;0;1;0;0;0;false;41809;6269508951;-73.70058;45.577941;41811;6269508920;-73.70172;45.57892;1;10;11;9312805;Bus : 17 N - Direction Auteuil;"";STL;17N;Métro Cartier Quai:2;Terminus Bienville
23292050;"{\"type\":\"LineString\",\"coordinates\":[[-73.7010736,45.5781875],[-73.7011251,45.5783016],[-73.7018661,45.5789226],[-73.7029382,45.5798378],[-73.704628,45.5813139],[-73.7048961,45.5815481],[-73.7051422,45.581755],[-73.7052532,45.5818483]]}";1;Boulevard des Laurentides;1;50;false;true;true;false;false;false;261.5;0;1;0;0;0;false;41813;6269506405;-73.70497;45.581731;41817;6269508828;-73.70735;45.583805;1;12;13;9312805;Bus : 17 N - Direction Auteuil;"";STL;17N;Métro Cartier Quai:2;Terminus Bienville
436680546;"{\"type\":\"LineString\",\"coordinates\":[[-73.7052532,45.5818483],[-73.7053864,45.5819745]]}";2;Boulevard des Laurentides;1;50;false;true;true;false;false;false;18.0;0;0;0;0;0;false;41813;6269506405;-73.70497;45.581731;41817;6269508828;-73.70735;45.583805;0;12;13;9312805;Bus : 17 N - Direction Auteuil;"";STL;17N;Métro Cartier Quai:2;Terminus Bienville
452204247;"{\"type\":\"LineString\",\"coordinates\":[[-73.7053864,45.5819745],[-73.7056499,45.5822138]]}";3;Boulevard des Laurentides;1;50;false;true;true;false;false;false;34.0;0;0;0;0;0;false;41813;6269506405;-73.70497;45.581731;41817;6269508828;-73.70735;45.583805;0;12;13;9312805;Bus : 17 N - Direction Auteuil;"";STL;17N;Métro Cartier Quai:2;Terminus Bienville
436680547;"{\"type\":\"LineString\",\"coordinates\":[[-73.7056499,45.5822138],[-73.7075122,45.5838421],[-73.7084553,45.5847397],[-73.7089958,45.5851859],[-73.7092377,45.5853605]]}";4;Boulevard des Laurentides;1;50;false;true;true;false;false;false;224.0;0;0;0;0;0;false;41813;6269506405;-73.70497;45.581731;41817;6269508828;-73.70735;45.583805;1;12;13;9312805;Bus : 17 N - Direction Auteuil;"";STL;17N;Métro Cartier Quai:2;Terminus Bienville
436680547;"{\"type\":\"LineString\",\"coordinates\":[[-73.7056499,45.5822138],[-73.7075122,45.5838421],[-73.7084553,45.5847397],[-73.7089958,45.5851859],[-73.7092377,45.5853605]]}";1;Boulevard des Laurentides;1;50;false;true;true;false;false;false;224.0;0;0;0;0;0;false;41817;6269508828;-73.70735;45.583805;41820;6269508795;-73.70929;45.585601;1;13;14;9312805;Bus : 17 N - Direction Auteuil;"";STL;17N;Métro Cartier Quai:2;Terminus Bienville
23292070;"{\"type\":\"LineString\",\"coordinates\":[[-73.7092377,45.5853605],[-73.7110568,45.587011],[-73.7127438,45.5885415],[-73.7128208,45.5886113],[-73.7131232,45.5888858],[-73.7137609,45.5894643]]}";2;Boulevard des Laurentides;4;50;false;false;true;false;false;false;288.5;0;0;0;0;0;false;41817;6269508828;-73.70735;45.583805;41820;6269508795;-73.70929;45.585601;1;13;14;9312805;Bus : 17 N - Direction Auteuil;"";STL;17N;Métro Cartier Quai:2;Terminus Bienville
23292070;"{\"type\":\"LineString\",\"coordinates\":[[-73.7092377,45.5853605],[-73.7110568,45.587011],[-73.7127438,45.5885415],[-73.7128208,45.5886113],[-73.7131232,45.5888858],[-73.7137609,45.5894643]]}";1;Boulevard des Laurentides;4;50;false;false;true;false;false;false;288.5;0;0;0;0;0;false;41824;6269508703;-73.71327;45.589128;41826;6269508670;-73.7145;45.590559;1;16;17;9312805;Bus : 17 N - Direction Auteuil;"";STL;17N;Métro Cartier Quai:2;Terminus Bienville
453312145;"{\"type\":\"LineString\",\"coordinates\":[[-73.7137609,45.5894643],[-73.7142928,45.5902066],[-73.714455,45.5904265]]}";2;Boulevard des Laurentides;2;50;false;true;true;false;false;false;120.0;0;0;0;0;0;false;41824;6269508703;-73.71327;45.589128;41826;6269508670;-73.7145;45.590559;0;16;17;9312805;Bus : 17 N - Direction Auteuil;"";STL;17N;Métro Cartier Quai:2;Terminus Bienville
23292074;"{\"type\":\"LineString\",\"coordinates\":[[-73.714455,45.5904265],[-73.7148183,45.5908968],[-73.7148782,45.5909846],[-73.715175,45.59132]]}";3;Boulevard des Laurentides;2;50;false;true;true;false;false;false;57.5;0;0;0;0;0;false;41824;6269508703;-73.71327;45.589128;41826;6269508670;-73.7145;45.590559;1;16;17;9312805;Bus : 17 N - Direction Auteuil;"";STL;17N;Métro Cartier Quai:2;Terminus Bienville
453312145;"{\"type\":\"LineString\",\"coordinates\":[[-73.7137609,45.5894643],[-73.7142928,45.5902066],[-73.714455,45.5904265]]}";1;Boulevard des Laurentides;2;50;false;true;true;false;false;false;120.0;0;0;0;0;0;false;41826;6269508670;-73.7145;45.590559;41828;6269508378;-73.72003;45.595272;2;17;18;9312805;Bus : 17 N - Direction Auteuil;"";STL;17N;Métro Cartier Quai:2;Terminus Bienville
23292074;"{\"type\":\"LineString\",\"coordinates\":[[-73.714455,45.5904265],[-73.7148183,45.5908968],[-73.7148782,45.5909846],[-73.715175,45.59132]]}";2;Boulevard des Laurentides;2;50;false;true;true;false;false;false;115.0;0;0;0;0;0;false;41826;6269508670;-73.7145;45.590559;41828;6269508378;-73.72003;45.595272;0;17;18;9312805;Bus : 17 N - Direction Auteuil;"";STL;17N;Métro Cartier Quai:2;Terminus Bienville
481017015;"{\"type\":\"LineString\",\"coordinates\":[[-73.715175,45.59132],[-73.7154776,45.5916173],[-73.7155938,45.5917315]]}";3;Boulevard des Laurentides;2;50;false;true;true;false;false;false;57.0;0;0;0;0;0;false;41826;6269508670;-73.7145;45.590559;41828;6269508378;-73.72003;45.595272;0;17;18;9312805;Bus : 17 N - Direction Auteuil;"";STL;17N;Métro Cartier Quai:2;Terminus Bienville
37722248;"{\"type\":\"LineString\",\"coordinates\":[[-73.7155938,45.5917315],[-73.7159615,45.5920833]]}";4;Boulevard des Laurentides;2;50;false;true;true;false;false;false;49.0;0;0;0;0;0;false;41826;6269508670;-73.7145;45.590559;41828;6269508378;-73.72003;45.595272;0;17;18;9312805;Bus : 17 N - Direction Auteuil;"";STL;17N;Métro Cartier Quai:2;Terminus Bienville
511504674;"{\"type\":\"LineString\",\"coordinates\":[[-73.7159615,45.5920833],[-73.7161288,45.5922433]]}";5;Boulevard des Laurentides;2;50;false;true;true;false;false;false;23.0;0;0;0;0;0;false;41826;6269508670;-73.7145;45.590559;41828;6269508378;-73.72003;45.595272;0;17;18;9312805;Bus : 17 N - Direction Auteuil;"";STL;17N;Métro Cartier Quai:2;Terminus Bienville
483683382;"{\"type\":\"LineString\",\"coordinates\":[[-73.7161288,45.5922433],[-73.7161818,45.5922874]]}";6;Boulevard des Laurentides;2;50;false;true;true;false;false;false;7.0;0;0;0;0;0;false;41826;6269508670;-73.7145;45.590559;41828;6269508378;-73.72003;45.595272;0;17;18;9312805;Bus : 17 N - Direction Auteuil;"";STL;17N;Métro Cartier Quai:2;Terminus Bienville
511504669;"{\"type\":\"LineString\",\"coordinates\":[[-73.7161818,45.5922874],[-73.7163811,45.5924579],[-73.71656,45.5926074],[-73.716887,45.5928537],[-73.7171441,45.5930421]]}";7;Boulevard des Laurentides;2;50;false;true;true;false;false;false;113.0;0;0;0;0;0;false;41826;6269508670;-73.7145;45.590559;41828;6269508378;-73.72003;45.595272;0;17;18;9312805;Bus : 17 N - Direction Auteuil;"";STL;17N;Métro Cartier Quai:2;Terminus Bienville
37722249;"{\"type\":\"LineString\",\"coordinates\":[[-73.7171441,45.5930421],[-73.7185014,45.5939442],[-73.7192899,45.5945481],[-73.719687,45.5948774],[-73.7198448,45.5949882],[-73.7200206,45.5950952]]}";8;Boulevard des Laurentides;2;50;false;true;true;false;false;false;321.0;0;0;0;0;0;false;41826;6269508670;-73.7145;45.590559;41828;6269508378;-73.72003;45.595272;0;17;18;9312805;Bus : 17 N - Direction Auteuil;"";STL;17N;Métro Cartier Quai:2;Terminus Bienville
694161758;"{\"type\":\"LineString\",\"coordinates\":[[-73.7217949,45.596756],[-73.7209128,45.5959303],[-73.7202442,45.5953045],[-73.7200206,45.5950952]]}";9;Boulevard des Laurentides;4;50;false;false;true;false;false;false;231.0;0;0;0;0;0;false;41826;6269508670;-73.7145;45.590559;41828;6269508378;-73.72003;45.595272;2;17;18;9312805;Bus : 17 N - Direction Auteuil;"";STL;17N;Métro Cartier Quai:2;Terminus Bienville
37722249;"{\"type\":\"LineString\",\"coordinates\":[[-73.7171441,45.5930421],[-73.7185014,45.5939442],[-73.7192899,45.5945481],[-73.719687,45.5948774],[-73.7198448,45.5949882],[-73.7200206,45.5950952]]}";1;Boulevard des Laurentides;2;50;false;true;true;false;false;false;321.0;0;0;0;0;0;false;41828;6269508378;-73.72003;45.595272;41831;6269508368;-73.72142;45.596556;2;18;19;9312805;Bus : 17 N - Direction Auteuil;"";STL;17N;Métro Cartier Quai:2;Terminus Bienville
694161758;"{\"type\":\"LineString\",\"coordinates\":[[-73.7217949,45.596756],[-73.7209128,45.5959303],[-73.7202442,45.5953045],[-73.7200206,45.5950952]]}";2;Boulevard des Laurentides;4;50;false;false;true;false;false;false;231.0;0;0;0;0;0;false;41828;6269508378;-73.72003;45.595272;41831;6269508368;-73.72142;45.596556;2;18;19;9312805;Bus : 17 N - Direction Auteuil;"";STL;17N;Métro Cartier Quai:2;Terminus Bienville
694161758;"{\"type\":\"LineString\",\"coordinates\":[[-73.7217949,45.596756],[-73.7209128,45.5959303],[-73.7202442,45.5953045],[-73.7200206,45.5950952]]}";1;Boulevard des Laurentides;4;50;false;false;true;false;false;false;115.5;0;0;0;0;0;false;41831;6269508368;-73.72142;45.596556;41839;6269508328;-73.72342;45.598388;1;19;20;9312805;Bus : 17 N - Direction Auteuil;"";STL;17N;Métro Cartier Quai:2;Terminus Bienville
23292176;"{\"type\":\"LineString\",\"coordinates\":[[-73.7319837,45.6062501],[-73.7318931,45.6061672],[-73.7301515,45.6045749],[-73.7289712,45.6035194],[-73.7284733,45.603094],[-73.7264864,45.6011645],[-73.7259903,45.6006827],[-73.7243769,45.5991727],[-73.7231922,45.5980638],[-73.7217949,45.596756]]}";2;Boulevard des Laurentides;4;50;false;false;true;false;false;false;660.5;0;0;0;0;0;false;41831;6269508368;-73.72142;45.596556;41839;6269508328;-73.72342;45.598388;1;19;20;9312805;Bus : 17 N - Direction Auteuil;"";STL;17N;Métro Cartier Quai:2;Terminus Bienville
453312144;"{\"type\":\"LineString\",\"coordinates\":[[-73.7322061,45.6064632],[-73.7319837,45.6062501]]}";1;Boulevard des Laurentides;4;50;false;false;true;false;false;false;30.0;0;0;0;0;0;false;41844;6269507891;-73.73175;45.606182;41846;6269507844;-73.73411;45.608499;2;25;26;9312805;Bus : 17 N - Direction Auteuil;"";STL;17N;Métro Cartier Quai:2;Terminus Bienville
453312138;"{\"type\":\"LineString\",\"coordinates\":[[-73.7323191,45.6065782],[-73.7322061,45.6064632]]}";2;Boulevard des Laurentides;4;50;false;false;true;false;false;false;16.0;0;0;0;0;0;false;41844;6269507891;-73.73175;45.606182;41846;6269507844;-73.73411;45.608499;0;25;26;9312805;Bus : 17 N - Direction Auteuil;"";STL;17N;Métro Cartier Quai:2;Terminus Bienville
453312139;"{\"type\":\"LineString\",\"coordinates\":[[-73.7325341,45.6067946],[-73.7323191,45.6065782]]}";3;Boulevard des Laurentides;4;50;false;false;true;false;false;false;30.0;0;0;0;0;0;false;41844;6269507891;-73.73175;45.606182;41846;6269507844;-73.73411;45.608499;0;25;26;9312805;Bus : 17 N - Direction Auteuil;"";STL;17N;Métro Cartier Quai:2;Terminus Bienville
45760604;"{\"type\":\"LineString\",\"coordinates\":[[-73.7358874,45.6099783],[-73.7346601,45.6088131],[-73.7338961,45.6080877],[-73.7330666,45.6073002],[-73.7325341,45.6067946]]}";4;Boulevard des Laurentides;4;50;false;false;true;false;false;false;440.0;0;0;0;0;0;false;41844;6269507891;-73.73175;45.606182;41846;6269507844;-73.73411;45.608499;2;25;26;9312805;Bus : 17 N - Direction Auteuil;"";STL;17N;Métro Cartier Quai:2;Terminus Bienville
45760604;"{\"type\":\"LineString\",\"coordinates\":[[-73.7358874,45.6099783],[-73.7346601,45.6088131],[-73.7338961,45.6080877],[-73.7330666,45.6073002],[-73.7325341,45.6067946]]}";1;Boulevard des Laurentides;4;50;false;false;true;false;false;false;220.0;0;0;0;0;0;false;41846;6269507844;-73.73411;45.608499;41848;6269507792;-73.73648;45.611629;1;26;27;9312805;Bus : 17 N - Direction Auteuil;"";STL;17N;Métro Cartier Quai:2;Terminus Bienville
45760619;"{\"type\":\"LineString\",\"coordinates\":[[-73.7358874,45.6099783],[-73.7360032,45.6102228],[-73.7360976,45.6103774],[-73.7362198,45.6106312]]}";2;Boulevard des Laurentides;2;50;false;true;true;false;false;false;78.0;0;0;0;0;0;false;41846;6269507844;-73.73411;45.608499;41848;6269507792;-73.73648;45.611629;0;26;27;9312805;Bus : 17 N - Direction Auteuil;"";STL;17N;Métro Cartier Quai:2;Terminus Bienville
453313647;"{\"type\":\"LineString\",\"coordinates\":[[-73.7362198,45.6106312],[-73.7363442,45.6108689]]}";3;Boulevard des Laurentides;2;50;false;true;true;false;false;false;29.0;1;0;0;0;0;false;41846;6269507844;-73.73411;45.608499;41848;6269507792;-73.73648;45.611629;0;26;27;9312805;Bus : 17 N - Direction Auteuil;"";STL;17N;Métro Cartier Quai:2;Terminus Bienville
45760622;"{\"type\":\"LineString\",\"coordinates\":[[-73.7363442,45.6108689],[-73.7363878,45.6109832]]}";4;Boulevard des Laurentides;2;50;false;true;true;false;false;false;14.0;2;0;0;0;0;false;41846;6269507844;-73.73411;45.608499;41848;6269507792;-73.73648;45.611629;0;26;27;9312805;Bus : 17 N - Direction Auteuil;"";STL;17N;Métro Cartier Quai:2;Terminus Bienville
45760623;"{\"type\":\"LineString\",\"coordinates\":[[-73.7363878,45.6109832],[-73.7364561,45.6111733]]}";5;Boulevard des Laurentides;2;50;false;true;true;false;false;false;22.0;1;0;0;0;0;false;41846;6269507844;-73.73411;45.608499;41848;6269507792;-73.73648;45.611629;0;26;27;9312805;Bus : 17 N - Direction Auteuil;"";STL;17N;Métro Cartier Quai:2;Terminus Bienville
453313642;"{\"type\":\"LineString\",\"coordinates\":[[-73.7364561,45.6111733],[-73.736659,45.6118593]]}";6;Boulevard des Laurentides;2;50;false;true;true;false;false;false;39.0;0;0;0;0;0;false;41846;6269507844;-73.73411;45.608499;41848;6269507792;-73.73648;45.611629;1;26;27;9312805;Bus : 17 N - Direction Auteuil;"";STL;17N;Métro Cartier Quai:2;Terminus Bienville
453313642;"{\"type\":\"LineString\",\"coordinates\":[[-73.7364561,45.6111733],[-73.736659,45.6118593]]}";1;Boulevard des Laurentides;2;50;false;true;true;false;false;false;39.0;0;0;0;0;0;false;41848;6269507792;-73.73648;45.611629;41849;6269507765;-73.73761;45.613288;1;27;28;9312805;Bus : 17 N - Direction Auteuil;"";STL;17N;Métro Cartier Quai:2;Terminus Bienville
455260226;"{\"type\":\"LineString\",\"coordinates\":[[-73.7400403,45.6154592],[-73.7396278,45.6150647],[-73.7387648,45.6142395],[-73.7378909,45.6134045],[-73.7374315,45.6129487],[-73.7371568,45.6126485],[-73.7370187,45.612488],[-73.7368022,45.612143],[-73.7367228,45.612007],[-73.736659,45.6118593]]}";2;Boulevard des Laurentides;4;50;false;false;true;false;false;false;240.5;0;0;0;0;0;false;41848;6269507792;-73.73648;45.611629;41849;6269507765;-73.73761;45.613288;1;27;28;9312805;Bus : 17 N - Direction Auteuil;"";STL;17N;Métro Cartier Quai:2;Terminus Bienville
455269000;"{\"type\":\"LineString\",\"coordinates\":[[-73.7455032,45.620589],[-73.7446231,45.6197693]]}";1;Boulevard des Laurentides;4;50;false;false;true;false;false;false;114.0;1;0;0;0;0;false;41856;698029122;-73.74448;45.619743;41858;6269507645;-73.7465;45.621637;2;31;32;9312805;Bus : 17 N - Direction Auteuil;"";STL;17N;Métro Cartier Quai:2;Terminus Bienville
686611413;"{\"type\":\"LineString\",\"coordinates\":[[-73.7467167,45.6217277],[-73.7455032,45.620589]]}";2;Boulevard des Laurentides;4;50;false;false;true;false;false;false;158.0;1;0;0;0;0;false;41856;698029122;-73.74448;45.619743;41858;6269507645;-73.7465;45.621637;2;31;32;9312805;Bus : 17 N - Direction Auteuil;"";STL;17N;Métro Cartier Quai:2;Terminus Bienville
544424356;"{\"type\":\"LineString\",\"coordinates\":[[-73.7482323,45.6231499],[-73.7467167,45.6217277]]}";1;Boulevard des Laurentides;4;50;false;false;true;false;false;false;198.0;1;0;0;0;0;false;41858;6269507645;-73.7465;45.621637;41860;6269507615;-73.7484;45.62343;2;32;33;9312805;Bus : 17 N - Direction Auteuil;"";STL;17N;Métro Cartier Quai:2;Terminus Bienville
46302742;"{\"type\":\"LineString\",\"coordinates\":[[-73.7519892,45.6284861],[-73.7514819,45.6265813],[-73.7514291,45.6264151],[-73.7512443,45.6260802],[-73.751084,45.625858],[-73.7507723,45.6255315],[-73.7505717,45.6253425],[-73.7497516,45.6245739],[-73.7494982,45.6243363],[-73.748602,45.6234964],[-73.7482323,45.6231499]]}";2;Boulevard des Laurentides;4;50;false;false;true;false;false;false;676.0;1;0;0;0;0;false;41858;6269507645;-73.7465;45.621637;41860;6269507615;-73.7484;45.62343;2;32;33;9312805;Bus : 17 N - Direction Auteuil;"";STL;17N;Métro Cartier Quai:2;Terminus Bienville
46302834;"{\"type\":\"LineString\",\"coordinates\":[[-73.7519892,45.6284861],[-73.7519271,45.6285891],[-73.7520613,45.6291521],[-73.7524328,45.6304388]]}";1;Boulevard des Laurentides;2;50;false;true;true;false;false;false;111.0;2;0;0;0;0;false;41867;6269507539;-73.75222;45.629939;41869;6269507526;-73.75277;45.631684;1;36;37;9312805;Bus : 17 N - Direction Auteuil;"";STL;17N;Métro Cartier Quai:2;Terminus Bienville
686078339;"{\"type\":\"LineString\",\"coordinates\":[[-73.7524328,45.6304388],[-73.7526603,45.6311532],[-73.7527698,45.6312639]]}";2;Boulevard des Laurentides;2;50;false;true;true;false;false;false;97.0;1;0;0;0;0;false;41867;6269507539;-73.75222;45.629939;41869;6269507526;-73.75277;45.631684;0;36;37;9312805;Bus : 17 N - Direction Auteuil;"";STL;17N;Métro Cartier Quai:2;Terminus Bienville
45289922;"{\"type\":\"LineString\",\"coordinates\":[[-73.7555723,45.6408757],[-73.7549784,45.6388653],[-73.7547047,45.6379031],[-73.7545546,45.6373773],[-73.7543724,45.6367691],[-73.7543289,45.6366239],[-73.754212,45.6362341],[-73.754131,45.6359638],[-73.7540991,45.6358574],[-73.7540854,45.6358118],[-73.7540712,45.6357645],[-73.7536418,45.6343323],[-73.7532601,45.633032],[-73.7531562,45.6326621],[-73.7530374,45.632239],[-73.7529152,45.6318041],[-73.7527698,45.6312639]]}";3;Boulevard des Laurentides;4;50;false;false;true;false;false;false;545.0;2;0;0;0;0;false;41867;6269507539;-73.75222;45.629939;41869;6269507526;-73.75277;45.631684;1;36;37;9312805;Bus : 17 N - Direction Auteuil;"";STL;17N;Métro Cartier Quai:2;Terminus Bienville
694196055;"{\"type\":\"LineString\",\"coordinates\":[[-73.7543477,45.6447451],[-73.7537012,45.6451721],[-73.7524223,45.6458862]]}";1;Boulevard des Laurentides;4;50;false;false;true;false;false;false;98.5;1;0;0;0;0;false;41884;6269507417;-73.75261;45.645658;46438;6269507411;-73.75044;45.646896;1;44;45;9312805;Bus : 17 N - Direction Auteuil;"";STL;17N;Métro Cartier Quai:2;Terminus Bienville
53332411;"{\"type\":\"LineString\",\"coordinates\":[[-73.7524223,45.6458862],[-73.7514961,45.646332],[-73.7507324,45.6467415],[-73.7504224,45.6470045],[-73.750209,45.6472856],[-73.7500265,45.6475667],[-73.7497447,45.6479892],[-73.7494497,45.6484612],[-73.748926,45.649281],[-73.7487461,45.6495782],[-73.7486383,45.6497966],[-73.7484693,45.6502605],[-73.7484361,45.6504215],[-73.7483893,45.6507053],[-73.7483547,45.6510296],[-73.7483364,45.6512972],[-73.7483217,45.6521419],[-73.7483292,45.6524562],[-73.7483093,45.6527542],[-73.7482828,45.6529997]]}";2;Boulevard des Laurentides;2;50;false;false;false;false;false;false;449.5;1;0;0;0;0;false;41884;6269507417;-73.75261;45.645658;46438;6269507411;-73.75044;45.646896;1;44;45;9312805;Bus : 17 N - Direction Auteuil;"";STL;17N;Métro Cartier Quai:2;Terminus Bienville
53332411;"{\"type\":\"LineString\",\"coordinates\":[[-73.7524223,45.6458862],[-73.7514961,45.646332],[-73.7507324,45.6467415],[-73.7504224,45.6470045],[-73.750209,45.6472856],[-73.7500265,45.6475667],[-73.7497447,45.6479892],[-73.7494497,45.6484612],[-73.748926,45.649281],[-73.7487461,45.6495782],[-73.7486383,45.6497966],[-73.7484693,45.6502605],[-73.7484361,45.6504215],[-73.7483893,45.6507053],[-73.7483547,45.6510296],[-73.7483364,45.6512972],[-73.7483217,45.6521419],[-73.7483292,45.6524562],[-73.7483093,45.6527542],[-73.7482828,45.6529997]]}";1;Boulevard des Laurentides;2;50;false;false;false;false;false;false;449.5;1;0;0;0;0;false;41070;6269507389;-73.74825;45.651085;41892;6269507278;-73.74851;45.653263;1;48;49;9312805;Bus : 17 N - Direction Auteuil;"";STL;17N;Métro Cartier Quai:2;Terminus Bienville
53332410;"{\"type\":\"LineString\",\"coordinates\":[[-73.7482828,45.6529997],[-73.7484522,45.6529765],[-73.7485738,45.6529562]]}";2;Rue Bergeron;2;50;false;false;false;false;false;false;24.0;0;0;0;0;0;false;41070;6269507389;-73.74825;45.651085;41892;6269507278;-73.74851;45.653263;0;48;49;9312805;Bus : 17 N - Direction Auteuil;"";STL;17N;Métro Cartier Quai:2;Terminus Bienville
32641588;"{\"type\":\"LineString\",\"coordinates\":[[-73.7485738,45.6529562],[-73.748626,45.65305],[-73.7486353,45.6531613],[-73.7485656,45.6534419],[-73.7485452,45.6535846],[-73.748556,45.6537107],[-73.7489719,45.6551502],[-73.7493423,45.656395]]}";3;Rue Bienville;2;50;false;false;false;false;false;false;195.0;0;0;0;0;0;false;41070;6269507389;-73.74825;45.651085;41892;6269507278;-73.74851;45.653263;1;48;49;9312805;Bus : 17 N - Direction Auteuil;"";STL;17N;Métro Cartier Quai:2;Terminus Bienville
32641588;"{\"type\":\"LineString\",\"coordinates\":[[-73.7485738,45.6529562],[-73.748626,45.65305],[-73.7486353,45.6531613],[-73.7485656,45.6534419],[-73.7485452,45.6535846],[-73.748556,45.6537107],[-73.7489719,45.6551502],[-73.7493423,45.656395]]}";1;Rue Bienville;2;50;false;false;false;false;false;false;195.0;0;0;0;0;0;false;41892;6269507278;-73.74851;45.653263;"49017;49145;49039";6269507271;-73.74969;45.657838;1;49;50;9312805;Bus : 17 N - Direction Auteuil;"";STL;17N;Métro Cartier Quai:2;Terminus Bienville
45289919;"{\"type\":\"LineString\",\"coordinates\":[[-73.7493423,45.656395],[-73.749618,45.6573037]]}";2;Rue Bienville;1;50;false;false;true;false;false;false;104.0;0;0;0;0;0;false;41892;6269507278;-73.74851;45.653263;"49017;49145;49039";6269507271;-73.74969;45.657838;0;49;50;9312805;Bus : 17 N - Direction Auteuil;"";STL;17N;Métro Cartier Quai:2;Terminus Bienville
679623761;"{\"type\":\"LineString\",\"coordinates\":[[-73.749618,45.6573037],[-73.7496436,45.6574531],[-73.7496865,45.6575988],[-73.7497574,45.6578243]]}";3;Rue Bienville;1;50;false;false;true;false;false;false;59.0;0;0;0;0;0;false;41892;6269507278;-73.74851;45.653263;"49017;49145;49039";6269507271;-73.74969;45.657838;1;49;50;9312805;Bus : 17 N - Direction Auteuil;"";STL;17N;Métro Cartier Quai:2;Terminus Bienville
