way_id;shape;index;name;nb_lanes;legal_speed;speed_zone_30;oneway;shares_bike;bike_box;bus_lane;dedicated_bus_lane;length;nb_traffic_signals;nb_crossings;nb_stops;nb_give_ways;nb_lvl_crossings;roundabout;stop_id_orig;node_id_orig;coord_x_orig;coord_y_orig;stop_id_dest;node_id_dest;coord_x_dest;coord_y_dest;nb_neighbouring_ways_bus_stop;ordre_orig;ordre_dest;id_line;line_name;colour;operator;ref;from;to
118770453;"{\"type\":\"LineString\",\"coordinates\":[[135.7588321,34.9299237],[135.75883,34.9298779],[135.7588228,34.9296585],[135.7588108,34.9292866],[135.7588108,34.9292375],[135.7588067,34.9290076],[135.758803,34.9288021],[135.7587998,34.9286281],[135.7588042,34.9284462],[135.7588053,34.9284012],[135.7588222,34.9280849],[135.7589293,34.9277798],[135.7591035,34.9273418],[135.7591335,34.9272348],[135.7591361,34.9269502]]}";1;竹田街道;2;50;false;false;true;false;false;false;341.0;2;1;0;0;0;false;中書島;2997942572;135.7587649;34.9281241;京橋;2997942573;135.7587736;34.9310553;1;0;1;3937033;バス: 特81: 横大路車庫前 => 竹田駅東口 => 京都駅前;"";京都市交通局;特81;横大路車庫前;京都駅前
118770433;"{\"type\":\"LineString\",\"coordinates\":[[135.7588352,34.9301742],[135.7588321,34.9299237]]}";2;竹田街道;2;50;false;false;true;false;false;false;29.0;0;0;0;0;0;false;中書島;2997942572;135.7587649;34.9281241;京橋;2997942573;135.7587736;34.9310553;0;0;1;3937033;バス: 特81: 横大路車庫前 => 竹田駅東口 => 京都駅前;"";京都市交通局;特81;横大路車庫前;京都駅前
584204761;"{\"type\":\"LineString\",\"coordinates\":[[135.7588534,34.930782],[135.7588412,34.9303737],[135.7588409,34.9303651],[135.7588352,34.9301742]]}";3;竹田街道;2;50;false;false;true;false;false;false;69.0;0;0;0;0;0;false;中書島;2997942572;135.7587649;34.9281241;京橋;2997942573;135.7587736;34.9310553;0;0;1;3937033;バス: 特81: 横大路車庫前 => 竹田駅東口 => 京都駅前;"";京都市交通局;特81;横大路車庫前;京都駅前
174742690;"{\"type\":\"LineString\",\"coordinates\":[[135.7587712,34.9313353],[135.7587818,34.9313035],[135.7587917,34.9312716],[135.7588008,34.9312396],[135.7588093,34.9312074],[135.758817,34.9311751],[135.758824,34.9311427],[135.7588303,34.9311102],[135.7588359,34.9310776],[135.7588408,34.9310449],[135.7588449,34.9310121],[135.7588483,34.9309793],[135.758851,34.9309465],[135.7588529,34.9309136],[135.7588542,34.9308807],[135.7588546,34.9308478],[135.7588544,34.9308149],[135.7588534,34.930782]]}";4;竹田街道;2;50;false;false;true;false;false;false;32.0;1;0;0;0;0;false;中書島;2997942572;135.7587649;34.9281241;京橋;2997942573;135.7587736;34.9310553;1;0;1;3937033;バス: 特81: 横大路車庫前 => 竹田駅東口 => 京都駅前;"";京都市交通局;特81;横大路車庫前;京都駅前
174742690;"{\"type\":\"LineString\",\"coordinates\":[[135.7587712,34.9313353],[135.7587818,34.9313035],[135.7587917,34.9312716],[135.7588008,34.9312396],[135.7588093,34.9312074],[135.758817,34.9311751],[135.758824,34.9311427],[135.7588303,34.9311102],[135.7588359,34.9310776],[135.7588408,34.9310449],[135.7588449,34.9310121],[135.7588483,34.9309793],[135.758851,34.9309465],[135.7588529,34.9309136],[135.7588542,34.9308807],[135.7588546,34.9308478],[135.7588544,34.9308149],[135.7588534,34.930782]]}";1;竹田街道;2;50;false;false;true;false;false;false;32.0;1;0;0;0;0;false;京橋;2997942573;135.7587736;34.9310553;西大手筋;1621849428;135.7583087;34.9335842;1;1;2;3937033;バス: 特81: 横大路車庫前 => 竹田駅東口 => 京都駅前;"";京都市交通局;特81;横大路車庫前;京都駅前
584204687;"{\"type\":\"LineString\",\"coordinates\":[[135.7586588,34.9320116],[135.7587712,34.9313353]]}";2;竹田街道;2;50;false;false;true;false;false;false;78.0;1;0;0;0;0;false;京橋;2997942573;135.7587736;34.9310553;西大手筋;1621849428;135.7583087;34.9335842;0;1;2;3937033;バス: 特81: 横大路車庫前 => 竹田駅東口 => 京都駅前;"";京都市交通局;特81;横大路車庫前;京都駅前
584204762;"{\"type\":\"LineString\",\"coordinates\":[[135.7583664,34.9329485],[135.7586095,34.9322652],[135.7586273,34.9321435],[135.7586454,34.9320676],[135.7586588,34.9320116]]}";3;竹田街道;2;50;false;false;true;false;false;false;110.0;1;0;0;0;0;false;京橋;2997942573;135.7587736;34.9310553;西大手筋;1621849428;135.7583087;34.9335842;0;1;2;3937033;バス: 特81: 横大路車庫前 => 竹田駅東口 => 京都駅前;"";京都市交通局;特81;横大路車庫前;京都駅前
31859092;"{\"type\":\"LineString\",\"coordinates\":[[135.7572547,34.9362188],[135.7578768,34.9361955],[135.7581369,34.9361893],[135.758336,34.9361499],[135.7584784,34.9360911],[135.7585224,34.9360257],[135.7585419,34.9359916],[135.7585549,34.9359308],[135.7585569,34.9356324],[135.7585344,34.9354166],[135.7585093,34.9352708],[135.7584663,34.9349412],[135.758439,34.9345553],[135.7583379,34.9333224],[135.7583372,34.9333231],[135.7583408,34.9331445],[135.758347,34.9330451],[135.7583664,34.9329485]]}";4;竹田街道;2;50;false;false;true;false;false;false;237.0;2;0;0;0;0;false;京橋;2997942573;135.7587736;34.9310553;西大手筋;1621849428;135.7583087;34.9335842;1;1;2;3937033;バス: 特81: 横大路車庫前 => 竹田駅東口 => 京都駅前;"";京都市交通局;特81;横大路車庫前;京都駅前
31859092;"{\"type\":\"LineString\",\"coordinates\":[[135.7572547,34.9362188],[135.7578768,34.9361955],[135.7581369,34.9361893],[135.758336,34.9361499],[135.7584784,34.9360911],[135.7585224,34.9360257],[135.7585419,34.9359916],[135.7585549,34.9359308],[135.7585569,34.9356324],[135.7585344,34.9354166],[135.7585093,34.9352708],[135.7584663,34.9349412],[135.758439,34.9345553],[135.7583379,34.9333224],[135.7583372,34.9333231],[135.7583408,34.9331445],[135.758347,34.9330451],[135.7583664,34.9329485]]}";1;竹田街道;2;50;false;false;true;false;false;false;237.0;2;0;0;0;0;false;肥後町;2997942586;135.7585008;34.9356849;西板橋;2997942589;135.7565641;34.9374498;1;3;4;3937033;バス: 特81: 横大路車庫前 => 竹田駅東口 => 京都駅前;"";京都市交通局;特81;横大路車庫前;京都駅前
31859091;"{\"type\":\"LineString\",\"coordinates\":[[135.7572547,34.9362188],[135.7569199,34.9362525],[135.756865,34.9362837],[135.7567856,34.9363288],[135.756691,34.9364576],[135.7566451,34.9368622]]}";2;"竹田街道;京都府道115号伏見港京都停車場線";1;50;false;true;true;false;false;false;110.0;0;0;0;0;0;false;肥後町;2997942586;135.7585008;34.9356849;西板橋;2997942589;135.7565641;34.9374498;0;3;4;3937033;バス: 特81: 横大路車庫前 => 竹田駅東口 => 京都駅前;"";京都市交通局;特81;横大路車庫前;京都駅前
222296675;"{\"type\":\"LineString\",\"coordinates\":[[135.7566451,34.9368622],[135.7566101,34.9371345]]}";3;"竹田街道;京都府道115号伏見港京都停車場線";1;50;false;true;true;false;false;false;31.0;0;0;0;0;0;false;肥後町;2997942586;135.7585008;34.9356849;西板橋;2997942589;135.7565641;34.9374498;0;3;4;3937033;バス: 特81: 横大路車庫前 => 竹田駅東口 => 京都駅前;"";京都市交通局;特81;横大路車庫前;京都駅前
222296674;"{\"type\":\"LineString\",\"coordinates\":[[135.7566101,34.9371345],[135.7565997,34.9372738],[135.7566226,34.9375568],[135.7568001,34.9384086],[135.7570639,34.9398095],[135.7571614,34.9404683],[135.7571925,34.9407842],[135.7572526,34.9411747],[135.7572746,34.9413978],[135.7572994,34.9416152],[135.7573301,34.9417957],[135.7573759,34.9421444],[135.7573849,34.9425883],[135.7573852,34.9432877],[135.7573882,34.9433357]]}";4;竹田街道;1;50;false;true;true;false;false;false;353.0;1;0;0;0;0;false;肥後町;2997942586;135.7585008;34.9356849;西板橋;2997942589;135.7565641;34.9374498;1;3;4;3937033;バス: 特81: 横大路車庫前 => 竹田駅東口 => 京都駅前;"";京都市交通局;特81;横大路車庫前;京都駅前
222296674;"{\"type\":\"LineString\",\"coordinates\":[[135.7566101,34.9371345],[135.7565997,34.9372738],[135.7566226,34.9375568],[135.7568001,34.9384086],[135.7570639,34.9398095],[135.7571614,34.9404683],[135.7571925,34.9407842],[135.7572526,34.9411747],[135.7572746,34.9413978],[135.7572994,34.9416152],[135.7573301,34.9417957],[135.7573759,34.9421444],[135.7573849,34.9425883],[135.7573852,34.9432877],[135.7573882,34.9433357]]}";1;竹田街道;1;50;false;true;true;false;false;false;353.0;1;0;0;0;0;false;住吉;2997942574;135.7573336;34.9430184;棒鼻;2997942579;135.7578517;34.9460761;1;6;7;3937033;バス: 特81: 横大路車庫前 => 竹田駅東口 => 京都駅前;"";京都市交通局;特81;横大路車庫前;京都駅前
119006942;"{\"type\":\"LineString\",\"coordinates\":[[135.7573882,34.9433357],[135.7573976,34.9435506]]}";2;"竹田街道;京都府道115号伏見港京都停車場線";1;50;false;true;true;false;false;false;25.0;0;0;0;0;0;false;住吉;2997942574;135.7573336;34.9430184;棒鼻;2997942579;135.7578517;34.9460761;0;6;7;3937033;バス: 特81: 横大路車庫前 => 竹田駅東口 => 京都駅前;"";京都市交通局;特81;横大路車庫前;京都駅前
119006918;"{\"type\":\"LineString\",\"coordinates\":[[135.7573976,34.9435506],[135.7574243,34.9441815],[135.7574395,34.9446978],[135.7574634,34.9450093],[135.7574836,34.9451766],[135.7575327,34.9454457],[135.757643,34.9456942],[135.7577184,34.9458407],[135.758019,34.9462626],[135.7582029,34.9465155],[135.7582431,34.9465729],[135.7582792,34.9466199],[135.7583368,34.9466952],[135.758374,34.9467493],[135.7583868,34.9467836],[135.7583916,34.9468211],[135.7584198,34.9469687]]}";3;"竹田街道;京都府道115号伏見港京都停車場線";2;50;false;true;true;false;false;false;204.0;2;0;0;0;0;false;住吉;2997942574;135.7573336;34.9430184;棒鼻;2997942579;135.7578517;34.9460761;1;6;7;3937033;バス: 特81: 横大路車庫前 => 竹田駅東口 => 京都駅前;"";京都市交通局;特81;横大路車庫前;京都駅前
27029299;"{\"type\":\"LineString\",\"coordinates\":[[135.7603496,34.9562784],[135.7601119,34.9553297],[135.7598187,34.9540682],[135.7596825,34.9535801],[135.7596677,34.9535351],[135.7593413,34.9523761],[135.7592659,34.9521253],[135.7591414,34.9516594],[135.7591024,34.951507],[135.7588075,34.9504886],[135.7587815,34.950384],[135.7586793,34.9499586],[135.7586006,34.9497179],[135.7585362,34.9494676],[135.7584691,34.9492063],[135.7584205,34.9489937],[135.7584148,34.9489396]]}";1;国道24号;4;50;false;false;true;false;false;false;424.5;5;0;0;0;0;false;七瀬川町;2997942571;135.7597443;34.954272;竹田出橋;2997942582;135.7599276;34.9572862;1;10;11;3937033;バス: 特81: 横大路車庫前 => 竹田駅東口 => 京都駅前;"";京都市交通局;特81;横大路車庫前;京都駅前
789205797;"{\"type\":\"LineString\",\"coordinates\":[[135.7609174,34.9582124],[135.7608729,34.9580615],[135.7607466,34.9576333],[135.7606764,34.9573954],[135.7604578,34.9566543],[135.760382,34.9563975],[135.7603496,34.9562784]]}";2;国道24号;4;50;false;false;true;false;false;false;225.0;2;0;0;0;0;false;七瀬川町;2997942571;135.7597443;34.954272;竹田出橋;2997942582;135.7599276;34.9572862;0;10;11;3937033;バス: 特81: 横大路車庫前 => 竹田駅東口 => 京都駅前;"";京都市交通局;特81;横大路車庫前;京都駅前
60673298;"{\"type\":\"LineString\",\"coordinates\":[[135.7606764,34.9573954],[135.7604205,34.9573612]]}";3;京都府道68号南インター竹田線;2;50;false;true;true;false;false;false;25.0;1;0;0;0;0;false;七瀬川町;2997942571;135.7597443;34.954272;竹田出橋;2997942582;135.7599276;34.9572862;0;10;11;3937033;バス: 特81: 横大路車庫前 => 竹田駅東口 => 京都駅前;"";京都市交通局;特81;横大路車庫前;京都駅前
789205791;"{\"type\":\"LineString\",\"coordinates\":[[135.7604205,34.9573612],[135.7591665,34.9573754],[135.7590272,34.957377],[135.759003,34.9573773]]}";4;京都府道68号南インター竹田線;2;50;false;true;true;false;false;false;66.0;0;0;0;0;0;false;七瀬川町;2997942571;135.7597443;34.954272;竹田出橋;2997942582;135.7599276;34.9572862;1;10;11;3937033;バス: 特81: 横大路車庫前 => 竹田駅東口 => 京都駅前;"";京都市交通局;特81;横大路車庫前;京都駅前
789205791;"{\"type\":\"LineString\",\"coordinates\":[[135.7604205,34.9573612],[135.7591665,34.9573754],[135.7590272,34.957377],[135.759003,34.9573773]]}";1;京都府道68号南インター竹田線;2;50;false;true;true;false;false;false;132.0;0;0;0;0;0;false;竹田出橋;2997942582;135.7599276;34.9572862;竹田駅東口;2997942585;135.7564742;34.9571564;2;11;12;3937033;バス: 特81: 横大路車庫前 => 竹田駅東口 => 京都駅前;"";京都市交通局;特81;横大路車庫前;京都駅前
196489051;"{\"type\":\"LineString\",\"coordinates\":[[135.759003,34.9573773],[135.7589377,34.957378]]}";2;京都府道68号南インター竹田線;2;50;false;true;true;false;false;false;7.0;0;0;0;0;0;false;竹田出橋;2997942582;135.7599276;34.9572862;竹田駅東口;2997942585;135.7564742;34.9571564;0;11;12;3937033;バス: 特81: 横大路車庫前 => 竹田駅東口 => 京都駅前;"";京都市交通局;特81;横大路車庫前;京都駅前
215678685;"{\"type\":\"LineString\",\"coordinates\":[[135.7589377,34.957378],[135.7589225,34.9573782],[135.7587199,34.9573805]]}";3;京都府道68号南インター竹田線;2;50;false;true;true;false;false;false;21.0;0;0;0;0;0;false;竹田出橋;2997942582;135.7599276;34.9572862;竹田駅東口;2997942585;135.7564742;34.9571564;0;11;12;3937033;バス: 特81: 横大路車庫前 => 竹田駅東口 => 京都駅前;"";京都市交通局;特81;横大路車庫前;京都駅前
60673301;"{\"type\":\"LineString\",\"coordinates\":[[135.7587199,34.9573805],[135.758567,34.957344],[135.7579296,34.9573571],[135.7574749,34.9573556],[135.7570162,34.9573446],[135.7569089,34.957327],[135.7568553,34.9572874],[135.7568392,34.9572566],[135.7568344,34.9572007]]}";4;"";1;50;false;true;true;false;false;false;187.0;0;0;0;0;0;false;竹田出橋;2997942582;135.7599276;34.9572862;竹田駅東口;2997942585;135.7564742;34.9571564;0;11;12;3937033;バス: 特81: 横大路車庫前 => 竹田駅東口 => 京都駅前;"";京都市交通局;特81;横大路車庫前;京都駅前
295540028;"{\"type\":\"LineString\",\"coordinates\":[[135.7568344,34.9572007],[135.7568666,34.9570864],[135.7568827,34.9567962],[135.756881,34.9567419],[135.7568779,34.9567328],[135.7568664,34.9566985],[135.7568243,34.9566777],[135.756694,34.9566748],[135.7566438,34.9566726]]}";5;"";1;50;false;true;true;false;false;false;79.0;0;0;0;0;0;false;竹田出橋;2997942582;135.7599276;34.9572862;竹田駅東口;2997942585;135.7564742;34.9571564;0;11;12;3937033;バス: 特81: 横大路車庫前 => 竹田駅東口 => 京都駅前;"";京都市交通局;特81;横大路車庫前;京都駅前
58642698;"{\"type\":\"LineString\",\"coordinates\":[[135.7566438,34.9566726],[135.7565907,34.9567023],[135.7565769,34.9567523],[135.7565604,34.9571119],[135.7565555,34.9572183],[135.7565501,34.9573348]]}";6;"";1;50;false;true;true;false;false;false;78.0;0;0;0;0;0;false;竹田出橋;2997942582;135.7599276;34.9572862;竹田駅東口;2997942585;135.7564742;34.9571564;2;11;12;3937033;バス: 特81: 横大路車庫前 => 竹田駅東口 => 京都駅前;"";京都市交通局;特81;横大路車庫前;京都駅前
58642698;"{\"type\":\"LineString\",\"coordinates\":[[135.7566438,34.9566726],[135.7565907,34.9567023],[135.7565769,34.9567523],[135.7565604,34.9571119],[135.7565555,34.9572183],[135.7565501,34.9573348]]}";1;"";1;50;false;true;true;false;false;false;39.0;0;0;0;0;0;false;竹田駅東口;2997942585;135.7564742;34.9571564;竹田出橋;2997942583;135.7611171;34.9596396;1;12;13;3937033;バス: 特81: 横大路車庫前 => 竹田駅東口 => 京都駅前;"";京都市交通局;特81;横大路車庫前;京都駅前
58642701;"{\"type\":\"LineString\",\"coordinates\":[[135.7565501,34.9573348],[135.7565412,34.9575071]]}";2;"";1;50;false;true;true;false;false;false;20.0;0;0;0;0;0;false;竹田駅東口;2997942585;135.7564742;34.9571564;竹田出橋;2997942583;135.7611171;34.9596396;0;12;13;3937033;バス: 特81: 横大路車庫前 => 竹田駅東口 => 京都駅前;"";京都市交通局;特81;横大路車庫前;京都駅前
295540026;"{\"type\":\"LineString\",\"coordinates\":[[135.7565412,34.9575071],[135.7566164,34.9575053],[135.7582831,34.9574951],[135.7586835,34.9574568]]}";3;"";1;50;false;true;true;false;false;false;200.0;0;0;0;0;0;false;竹田駅東口;2997942585;135.7564742;34.9571564;竹田出橋;2997942583;135.7611171;34.9596396;0;12;13;3937033;バス: 特81: 横大路車庫前 => 竹田駅東口 => 京都駅前;"";京都市交通局;特81;横大路車庫前;京都駅前
295540023;"{\"type\":\"LineString\",\"coordinates\":[[135.7586835,34.9574568],[135.7587973,34.9574555],[135.7589171,34.9574541]]}";4;京都府道68号南インター竹田線;2;50;false;true;true;false;false;false;22.0;0;0;0;0;0;false;竹田駅東口;2997942585;135.7564742;34.9571564;竹田出橋;2997942583;135.7611171;34.9596396;0;12;13;3937033;バス: 特81: 横大路車庫前 => 竹田駅東口 => 京都駅前;"";京都市交通局;特81;横大路車庫前;京都駅前
196489052;"{\"type\":\"LineString\",\"coordinates\":[[135.7589171,34.9574541],[135.7590099,34.9574531]]}";5;京都府道68号南インター竹田線;2;50;false;true;true;false;false;false;9.0;0;0;0;0;0;false;竹田駅東口;2997942585;135.7564742;34.9571564;竹田出橋;2997942583;135.7611171;34.9596396;0;12;13;3937033;バス: 特81: 横大路車庫前 => 竹田駅東口 => 京都駅前;"";京都市交通局;特81;横大路車庫前;京都駅前
196489054;"{\"type\":\"LineString\",\"coordinates\":[[135.7590099,34.9574531],[135.759021,34.957453],[135.7591652,34.9574513],[135.7604452,34.9574369]]}";6;京都府道68号南インター竹田線;2;50;false;true;true;false;false;false;134.0;0;0;0;0;0;false;竹田駅東口;2997942585;135.7564742;34.9571564;竹田出橋;2997942583;135.7611171;34.9596396;0;12;13;3937033;バス: 特81: 横大路車庫前 => 竹田駅東口 => 京都駅前;"";京都市交通局;特81;横大路車庫前;京都駅前
789205790;"{\"type\":\"LineString\",\"coordinates\":[[135.7604452,34.9574369],[135.7606764,34.9573954]]}";7;京都府道68号南インター竹田線;2;50;false;true;true;false;false;false;23.0;1;0;0;0;0;false;竹田駅東口;2997942585;135.7564742;34.9571564;竹田出橋;2997942583;135.7611171;34.9596396;0;12;13;3937033;バス: 特81: 横大路車庫前 => 竹田駅東口 => 京都駅前;"";京都市交通局;特81;横大路車庫前;京都駅前
789205797;"{\"type\":\"LineString\",\"coordinates\":[[135.7609174,34.9582124],[135.7608729,34.9580615],[135.7607466,34.9576333],[135.7606764,34.9573954],[135.7604578,34.9566543],[135.760382,34.9563975],[135.7603496,34.9562784]]}";8;国道24号;4;50;false;false;true;false;false;false;225.0;2;0;0;0;0;false;竹田駅東口;2997942585;135.7564742;34.9571564;竹田出橋;2997942583;135.7611171;34.9596396;0;12;13;3937033;バス: 特81: 横大路車庫前 => 竹田駅東口 => 京都駅前;"";京都市交通局;特81;横大路車庫前;京都駅前
26251482;"{\"type\":\"LineString\",\"coordinates\":[[135.7630187,34.9704164],[135.7630458,34.9703129],[135.7630582,34.9702056],[135.7630744,34.9700721],[135.7629338,34.9694785],[135.762861,34.9690882],[135.7627924,34.9687503],[135.7627035,34.9682635],[135.7626664,34.9680713],[135.7625767,34.9675591],[135.7625497,34.9673773],[135.7625177,34.9672052],[135.7624061,34.9664694],[135.7623709,34.9663023],[135.76226,34.9655446],[135.7622114,34.9652027],[135.7621798,34.9649316],[135.7620969,34.9643714],[135.7620642,34.9641489],[135.761912,34.9631949],[135.7616755,34.9618891],[135.7615806,34.9614401],[135.761564,34.9613322],[135.7613384,34.9602273],[135.7611102,34.9590829],[135.7609174,34.9582124]]}";9;国道24号;4;50;false;false;true;false;false;false;697.5;8;0;0;0;0;false;竹田駅東口;2997942585;135.7564742;34.9571564;竹田出橋;2997942583;135.7611171;34.9596396;1;12;13;3937033;バス: 特81: 横大路車庫前 => 竹田駅東口 => 京都駅前;"";京都市交通局;特81;横大路車庫前;京都駅前
26251482;"{\"type\":\"LineString\",\"coordinates\":[[135.7630187,34.9704164],[135.7630458,34.9703129],[135.7630582,34.9702056],[135.7630744,34.9700721],[135.7629338,34.9694785],[135.762861,34.9690882],[135.7627924,34.9687503],[135.7627035,34.9682635],[135.7626664,34.9680713],[135.7625767,34.9675591],[135.7625497,34.9673773],[135.7625177,34.9672052],[135.7624061,34.9664694],[135.7623709,34.9663023],[135.76226,34.9655446],[135.7622114,34.9652027],[135.7621798,34.9649316],[135.7620969,34.9643714],[135.7620642,34.9641489],[135.761912,34.9631949],[135.7616755,34.9618891],[135.7615806,34.9614401],[135.761564,34.9613322],[135.7613384,34.9602273],[135.7611102,34.9590829],[135.7609174,34.9582124]]}";1;国道24号;4;50;false;false;true;false;false;false;697.5;8;0;0;0;0;false;勧進橋;2997942575;135.7628935;34.9698566;十条竹田街道;2997942576;135.7617371;34.9728667;1;16;17;3937033;バス: 特81: 横大路車庫前 => 竹田駅東口 => 京都駅前;"";京都市交通局;特81;横大路車庫前;京都駅前
26567093;"{\"type\":\"LineString\",\"coordinates\":[[135.76251,34.9710849],[135.7629853,34.9704822],[135.7630187,34.9704164]]}";2;国道24号;4;50;false;false;true;false;false;false;90.0;0;0;0;0;0;false;勧進橋;2997942575;135.7628935;34.9698566;十条竹田街道;2997942576;135.7617371;34.9728667;0;16;17;3937033;バス: 特81: 横大路車庫前 => 竹田駅東口 => 京都駅前;"";京都市交通局;特81;横大路車庫前;京都駅前
174742692;"{\"type\":\"LineString\",\"coordinates\":[[135.7618178,34.9732709],[135.7618283,34.9729668],[135.7618799,34.9725985],[135.7619854,34.972274],[135.7621412,34.9718596],[135.7623549,34.9713033],[135.7624055,34.9712228],[135.7624692,34.971133],[135.76251,34.9710849]]}";3;国道24号;4;50;false;false;true;false;false;false;129.0;3;0;0;0;0;false;勧進橋;2997942575;135.7628935;34.9698566;十条竹田街道;2997942576;135.7617371;34.9728667;1;16;17;3937033;バス: 特81: 横大路車庫前 => 竹田駅東口 => 京都駅前;"";京都市交通局;特81;横大路車庫前;京都駅前
174742692;"{\"type\":\"LineString\",\"coordinates\":[[135.7618178,34.9732709],[135.7618283,34.9729668],[135.7618799,34.9725985],[135.7619854,34.972274],[135.7621412,34.9718596],[135.7623549,34.9713033],[135.7624055,34.9712228],[135.7624692,34.971133],[135.76251,34.9710849]]}";1;国道24号;4;50;false;false;true;false;false;false;129.0;3;0;0;0;0;false;十条竹田街道;2997942576;135.7617371;34.9728667;札ノ辻;1854929291;135.7617535;34.9756868;1;17;18;3937033;バス: 特81: 横大路車庫前 => 竹田駅東口 => 京都駅前;"";京都市交通局;特81;横大路車庫前;京都駅前
740118286;"{\"type\":\"LineString\",\"coordinates\":[[135.7618921,34.977152],[135.7618836,34.9769455],[135.7618699,34.9766116],[135.7618614,34.9764039],[135.7618477,34.976071],[135.7618208,34.9754144],[135.761808,34.9751031],[135.7618068,34.9750729],[135.7618084,34.974809],[135.7618103,34.9744985],[135.7618118,34.9742533],[135.7618124,34.974154],[135.7618178,34.9732709]]}";2;"竹田街道 ; 京都府道115号伏見港京都停車場線";2;40;false;false;true;false;false;false;219.5;2;0;0;0;0;false;十条竹田街道;2997942576;135.7617371;34.9728667;札ノ辻;1854929291;135.7617535;34.9756868;1;17;18;3937033;バス: 特81: 横大路車庫前 => 竹田駅東口 => 京都駅前;"";京都市交通局;特81;横大路車庫前;京都駅前
740118286;"{\"type\":\"LineString\",\"coordinates\":[[135.7618921,34.977152],[135.7618836,34.9769455],[135.7618699,34.9766116],[135.7618614,34.9764039],[135.7618477,34.976071],[135.7618208,34.9754144],[135.761808,34.9751031],[135.7618068,34.9750729],[135.7618084,34.974809],[135.7618103,34.9744985],[135.7618118,34.9742533],[135.7618124,34.974154],[135.7618178,34.9732709]]}";1;"竹田街道 ; 京都府道115号伏見港京都停車場線";2;40;false;false;true;false;false;false;219.5;2;0;0;0;0;false;札ノ辻;1854929291;135.7617535;34.9756868;大石橋;2997942577;135.7612658;34.9787517;1;18;19;3937033;バス: 特81: 横大路車庫前 => 竹田駅東口 => 京都駅前;"";京都市交通局;特81;横大路車庫前;京都駅前
285535713;"{\"type\":\"LineString\",\"coordinates\":[[135.7611641,34.9795589],[135.7611869,34.9793716],[135.761248,34.9790617],[135.7612959,34.9788467],[135.7613175,34.9787654],[135.7613937,34.978543],[135.7614612,34.9784087],[135.7614974,34.9783367],[135.7617309,34.9779917],[135.7617957,34.9778575],[135.7618352,34.9777574],[135.7618729,34.9776502],[135.7618848,34.9775921],[135.7618976,34.9775219],[135.7619014,34.9773913],[135.7618921,34.977152]]}";2;"竹田街道 ; 京都府道115号伏見港京都停車場線";2;40;false;false;true;false;false;false;142.5;1;0;0;0;0;false;札ノ辻;1854929291;135.7617535;34.9756868;大石橋;2997942577;135.7612658;34.9787517;1;18;19;3937033;バス: 特81: 横大路車庫前 => 竹田駅東口 => 京都駅前;"";京都市交通局;特81;横大路車庫前;京都駅前
285535713;"{\"type\":\"LineString\",\"coordinates\":[[135.7611641,34.9795589],[135.7611869,34.9793716],[135.761248,34.9790617],[135.7612959,34.9788467],[135.7613175,34.9787654],[135.7613937,34.978543],[135.7614612,34.9784087],[135.7614974,34.9783367],[135.7617309,34.9779917],[135.7617957,34.9778575],[135.7618352,34.9777574],[135.7618729,34.9776502],[135.7618848,34.9775921],[135.7618976,34.9775219],[135.7619014,34.9773913],[135.7618921,34.977152]]}";1;"竹田街道 ; 京都府道115号伏見港京都停車場線";2;40;false;false;true;false;false;false;142.5;1;0;0;0;0;false;大石橋;2997942577;135.7612658;34.9787517;京都駅八条口;2891978941;135.7610614;34.9836322;1;19;20;3937033;バス: 特81: 横大路車庫前 => 竹田駅東口 => 京都駅前;"";京都市交通局;特81;横大路車庫前;京都駅前
680781385;"{\"type\":\"LineString\",\"coordinates\":[[135.7611532,34.9796692],[135.7611641,34.9795589]]}";2;"竹田街道 ; 京都府道115号伏見港京都停車場線";2;40;false;false;true;false;false;false;13.0;2;0;0;0;0;false;大石橋;2997942577;135.7612658;34.9787517;京都駅八条口;2891978941;135.7610614;34.9836322;0;19;20;3937033;バス: 特81: 横大路車庫前 => 竹田駅東口 => 京都駅前;"";京都市交通局;特81;横大路車庫前;京都駅前
243206490;"{\"type\":\"LineString\",\"coordinates\":[[135.7611283,34.9831309],[135.7611299,34.9830095],[135.7611296,34.9827408],[135.7611286,34.9819731],[135.7611276,34.9819098],[135.7611297,34.9817264],[135.7611328,34.9814589],[135.761134,34.9813474],[135.7611408,34.980754],[135.7611411,34.9807307],[135.761146,34.9802977],[135.7611532,34.9796692]]}";3;"竹田街道 ; 京都府道115号伏見港京都停車場線";2;40;false;false;true;false;false;false;392.0;4;0;0;0;0;false;大石橋;2997942577;135.7612658;34.9787517;京都駅八条口;2891978941;135.7610614;34.9836322;0;19;20;3937033;バス: 特81: 横大路車庫前 => 竹田駅東口 => 京都駅前;"";京都市交通局;特81;横大路車庫前;京都駅前
680781387;"{\"type\":\"LineString\",\"coordinates\":[[135.7611322,34.9836499],[135.7611283,34.9831309]]}";4;"竹田街道;京都府道115号伏見港京都停車場線";2;40;false;false;true;false;false;false;59.0;1;0;0;0;0;false;大石橋;2997942577;135.7612658;34.9787517;京都駅八条口;2891978941;135.7610614;34.9836322;1;19;20;3937033;バス: 特81: 横大路車庫前 => 竹田駅東口 => 京都駅前;"";京都市交通局;特81;横大路車庫前;京都駅前
