way_id;shape;index;name;nb_lanes;legal_speed;speed_zone_30;oneway;shares_bike;bike_box;bus_lane;dedicated_bus_lane;length;nb_traffic_signals;nb_crossings;nb_stops;nb_give_ways;nb_lvl_crossings;roundabout;stop_id_orig;node_id_orig;coord_x_orig;coord_y_orig;stop_id_dest;node_id_dest;coord_x_dest;coord_y_dest;nb_neighbouring_ways_bus_stop;ordre_orig;ordre_dest;id_line;line_name;colour;operator;ref;from;to
561733176;"{\"type\":\"LineString\",\"coordinates\":[[-73.5628951,45.5161529],[-73.5623666,45.5159138]]}";1;Rue Berri;4;50;false;false;true;false;false;false;50.0;0;0;0;0;0;false;61611;6010968533;-73.5623;45.515988;52662;6010970154;-73.564555;45.517045;1;0;1;2695858;Bus 747 : YUL Aéroport Montréal-Trudeau / Centre-Ville Ouest;"";STM;747-O;Station Berri-UQAM (1621 rue Berri);Aéroport Pierre-Elliott-Trudeau
561726589;"{\"type\":\"LineString\",\"coordinates\":[[-73.5628951,45.5161529],[-73.5629227,45.5162089],[-73.5630472,45.5162667],[-73.5631489,45.5163139]]}";2;Rue Berri;2;50;false;true;true;false;false;false;28.0;0;1;0;0;0;false;61611;6010968533;-73.5623;45.515988;52662;6010970154;-73.564555;45.517045;0;0;1;2695858;Bus 747 : YUL Aéroport Montréal-Trudeau / Centre-Ville Ouest;"";STM;747-O;Station Berri-UQAM (1621 rue Berri);Aéroport Pierre-Elliott-Trudeau
561726590;"{\"type\":\"LineString\",\"coordinates\":[[-73.5631489,45.5163139],[-73.5631722,45.5163255],[-73.5632703,45.5163742],[-73.5633402,45.5164094],[-73.5634349,45.516409]]}";3;Rue Berri;2;50;false;true;true;false;false;false;26.0;0;1;0;0;0;false;61611;6010968533;-73.5623;45.515988;52662;6010970154;-73.564555;45.517045;0;0;1;2695858;Bus 747 : YUL Aéroport Montréal-Trudeau / Centre-Ville Ouest;"";STM;747-O;Station Berri-UQAM (1621 rue Berri);Aéroport Pierre-Elliott-Trudeau
366701672;"{\"type\":\"LineString\",\"coordinates\":[[-73.5637954,45.5165827],[-73.5634349,45.516409]]}";4;Rue Berri;4;50;false;false;true;false;false;false;35.0;0;0;0;0;0;false;61611;6010968533;-73.5623;45.515988;52662;6010970154;-73.564555;45.517045;0;0;1;2695858;Bus 747 : YUL Aéroport Montréal-Trudeau / Centre-Ville Ouest;"";STM;747-O;Station Berri-UQAM (1621 rue Berri);Aéroport Pierre-Elliott-Trudeau
741889016;"{\"type\":\"LineString\",\"coordinates\":[[-73.5644267,45.5168897],[-73.5637954,45.5165827]]}";5;Rue Berri;4;50;false;false;true;false;false;false;60.0;0;0;0;0;0;false;61611;6010968533;-73.5623;45.515988;52662;6010970154;-73.564555;45.517045;0;0;1;2695858;Bus 747 : YUL Aéroport Montréal-Trudeau / Centre-Ville Ouest;"";STM;747-O;Station Berri-UQAM (1621 rue Berri);Aéroport Pierre-Elliott-Trudeau
36675287;"{\"type\":\"LineString\",\"coordinates\":[[-73.5647676,45.5170554],[-73.5644267,45.5168897]]}";6;Rue Berri;4;50;false;false;true;false;false;false;16.5;1;0;0;0;0;false;61611;6010968533;-73.5623;45.515988;52662;6010970154;-73.564555;45.517045;1;0;1;2695858;Bus 747 : YUL Aéroport Montréal-Trudeau / Centre-Ville Ouest;"";STM;747-O;Station Berri-UQAM (1621 rue Berri);Aéroport Pierre-Elliott-Trudeau
329795964;"{\"type\":\"LineString\",\"coordinates\":[[-73.5647676,45.5170554],[-73.5645727,45.5173962],[-73.5643223,45.5178339],[-73.5642865,45.5178966]]}";1;Rue Ontario Est;2;50;false;false;true;false;false;false;101.0;2;1;0;0;0;false;52662;6010970154;-73.564555;45.517045;52844;6010971994;-73.559885;45.514657;2;1;2;2695858;Bus 747 : YUL Aéroport Montréal-Trudeau / Centre-Ville Ouest;"";STM;747-O;Station Berri-UQAM (1621 rue Berri);Aéroport Pierre-Elliott-Trudeau
457924062;"{\"type\":\"LineString\",\"coordinates\":[[-73.5642865,45.5178966],[-73.5642052,45.5178585],[-73.5637744,45.517657],[-73.5622883,45.5169824]]}";2;Rue Saint-Hubert;1;50;false;false;true;false;false;false;187.0;1;1;0;0;0;false;52662;6010970154;-73.564555;45.517045;52844;6010971994;-73.559885;45.514657;0;1;2;2695858;Bus 747 : YUL Aéroport Montréal-Trudeau / Centre-Ville Ouest;"";STM;747-O;Station Berri-UQAM (1621 rue Berri);Aéroport Pierre-Elliott-Trudeau
329989910;"{\"type\":\"LineString\",\"coordinates\":[[-73.5622883,45.5169824],[-73.5610216,45.5164027],[-73.5608416,45.5163296]]}";3;Rue Saint-Hubert;1;40;false;false;true;false;false;false;135.0;0;0;0;0;0;false;52662;6010970154;-73.564555;45.517045;52844;6010971994;-73.559885;45.514657;0;1;2;2695858;Bus 747 : YUL Aéroport Montréal-Trudeau / Centre-Ville Ouest;"";STM;747-O;Station Berri-UQAM (1621 rue Berri);Aéroport Pierre-Elliott-Trudeau
464869437;"{\"type\":\"LineString\",\"coordinates\":[[-73.5608416,45.5163296],[-73.5607446,45.5162864],[-73.5604496,45.5161552],[-73.5603619,45.5161162]]}";4;Rue Saint-Hubert;1;40;false;false;true;false;false;false;45.0;1;1;0;0;0;false;52662;6010970154;-73.564555;45.517045;52844;6010971994;-73.559885;45.514657;0;1;2;2695858;Bus 747 : YUL Aéroport Montréal-Trudeau / Centre-Ville Ouest;"";STM;747-O;Station Berri-UQAM (1621 rue Berri);Aéroport Pierre-Elliott-Trudeau
329989912;"{\"type\":\"LineString\",\"coordinates\":[[-73.5603619,45.5161162],[-73.5604172,45.5160544],[-73.5610023,45.515401],[-73.5610772,45.5153171]]}";5;Boulevard De Maisonneuve Est;4;50;false;true;false;false;false;false;105.0;2;1;0;0;0;false;52662;6010970154;-73.564555;45.517045;52844;6010971994;-73.559885;45.514657;0;1;2;2695858;Bus 747 : YUL Aéroport Montréal-Trudeau / Centre-Ville Ouest;"";STM;747-O;Station Berri-UQAM (1621 rue Berri);Aéroport Pierre-Elliott-Trudeau
329989914;"{\"type\":\"LineString\",\"coordinates\":[[-73.5610772,45.5153171],[-73.5609923,45.5152764],[-73.559774,45.5146921],[-73.5596855,45.5146493]]}";6;Rue Berri;4;50;false;false;true;false;false;false;132.0;2;1;0;0;0;false;52662;6010970154;-73.564555;45.517045;52844;6010971994;-73.559885;45.514657;2;1;2;2695858;Bus 747 : YUL Aéroport Montréal-Trudeau / Centre-Ville Ouest;"";STM;747-O;Station Berri-UQAM (1621 rue Berri);Aéroport Pierre-Elliott-Trudeau
454827462;"{\"type\":\"LineString\",\"coordinates\":[[-73.5596855,45.5146493],[-73.55959,45.5146056],[-73.5577479,45.5137691],[-73.5575129,45.5136624]]}";1;Rue Berri;4;50;false;false;true;false;false;false;202.0;2;1;0;0;0;false;52844;6010971994;-73.559885;45.514657;52834;6010980792;-73.560098;45.510872;2;2;3;2695858;Bus 747 : YUL Aéroport Montréal-Trudeau / Centre-Ville Ouest;"";STM;747-O;Station Berri-UQAM (1621 rue Berri);Aéroport Pierre-Elliott-Trudeau
464893055;"{\"type\":\"LineString\",\"coordinates\":[[-73.5575129,45.5136624],[-73.557488,45.5136508]]}";2;Rue Berri;1;50;false;false;false;false;false;false;3.0;1;0;0;0;0;false;52844;6010971994;-73.559885;45.514657;52834;6010980792;-73.560098;45.510872;0;2;3;2695858;Bus 747 : YUL Aéroport Montréal-Trudeau / Centre-Ville Ouest;"";STM;747-O;Station Berri-UQAM (1621 rue Berri);Aéroport Pierre-Elliott-Trudeau
329989226;"{\"type\":\"LineString\",\"coordinates\":[[-73.557488,45.5136508],[-73.557558,45.5135725],[-73.5582351,45.512815],[-73.5583012,45.512741]]}";3;Boulevard René-Lévesque Est;3;50;false;true;true;false;false;false;120.0;0;1;0;0;0;false;52844;6010971994;-73.559885;45.514657;52834;6010980792;-73.560098;45.510872;0;2;3;2695858;Bus 747 : YUL Aéroport Montréal-Trudeau / Centre-Ville Ouest;"";STM;747-O;Station Berri-UQAM (1621 rue Berri);Aéroport Pierre-Elliott-Trudeau
454245382;"{\"type\":\"LineString\",\"coordinates\":[[-73.5583012,45.512741],[-73.5583516,45.5126875],[-73.5591815,45.5118047]]}";4;Boulevard René-Lévesque Est;3;50;false;true;true;false;false;false;125.0;1;1;0;0;0;false;52844;6010971994;-73.559885;45.514657;52834;6010980792;-73.560098;45.510872;0;2;3;2695858;Bus 747 : YUL Aéroport Montréal-Trudeau / Centre-Ville Ouest;"";STM;747-O;Station Berri-UQAM (1621 rue Berri);Aéroport Pierre-Elliott-Trudeau
454238784;"{\"type\":\"LineString\",\"coordinates\":[[-73.5591815,45.5118047],[-73.559724,45.5112258]]}";5;Boulevard René-Lévesque Est;3;50;false;true;true;false;false;false;77.0;1;0;0;0;0;false;52844;6010971994;-73.559885;45.514657;52834;6010980792;-73.560098;45.510872;0;2;3;2695858;Bus 747 : YUL Aéroport Montréal-Trudeau / Centre-Ville Ouest;"";STM;747-O;Station Berri-UQAM (1621 rue Berri);Aéroport Pierre-Elliott-Trudeau
454238787;"{\"type\":\"LineString\",\"coordinates\":[[-73.559724,45.5112258],[-73.5600819,45.5108283],[-73.5601208,45.5107852],[-73.5601401,45.5107638]]}";6;Boulevard René-Lévesque Est;3;50;false;true;true;false;false;false;61.0;1;1;0;0;0;false;52844;6010971994;-73.559885;45.514657;52834;6010980792;-73.560098;45.510872;2;2;3;2695858;Bus 747 : YUL Aéroport Montréal-Trudeau / Centre-Ville Ouest;"";STM;747-O;Station Berri-UQAM (1621 rue Berri);Aéroport Pierre-Elliott-Trudeau
454238785;"{\"type\":\"LineString\",\"coordinates\":[[-73.5601401,45.5107638],[-73.5601641,45.5107283],[-73.5605442,45.5101674]]}";1;Boulevard René-Lévesque Est;3;50;false;true;true;false;false;false;74.0;0;1;0;0;0;false;52834;6010980792;-73.560098;45.510872;52783;6010968448;-73.561941;45.508668;2;3;4;2695858;Bus 747 : YUL Aéroport Montréal-Trudeau / Centre-Ville Ouest;"";STM;747-O;Station Berri-UQAM (1621 rue Berri);Aéroport Pierre-Elliott-Trudeau
454215275;"{\"type\":\"LineString\",\"coordinates\":[[-73.5605442,45.5101674],[-73.5606311,45.5100682],[-73.561268,45.509341]]}";2;Boulevard René-Lévesque Est;3;50;false;true;true;false;false;false;108.0;0;0;0;0;0;false;52834;6010980792;-73.560098;45.510872;52783;6010968448;-73.561941;45.508668;0;3;4;2695858;Bus 747 : YUL Aéroport Montréal-Trudeau / Centre-Ville Ouest;"";STM;747-O;Station Berri-UQAM (1621 rue Berri);Aéroport Pierre-Elliott-Trudeau
454215277;"{\"type\":\"LineString\",\"coordinates\":[[-73.561268,45.509341],[-73.5616007,45.5089531],[-73.5616145,45.5089381],[-73.5616774,45.5088693]]}";3;Boulevard René-Lévesque Est;3;50;false;true;true;false;false;false;62.0;1;1;0;0;0;false;52834;6010980792;-73.560098;45.510872;52783;6010968448;-73.561941;45.508668;0;3;4;2695858;Bus 747 : YUL Aéroport Montréal-Trudeau / Centre-Ville Ouest;"";STM;747-O;Station Berri-UQAM (1621 rue Berri);Aéroport Pierre-Elliott-Trudeau
464936533;"{\"type\":\"LineString\",\"coordinates\":[[-73.5616774,45.5088693],[-73.5617224,45.5088157],[-73.5620044,45.5084802]]}";4;Boulevard René-Lévesque Ouest;3;50;false;true;true;false;false;false;51.0;0;1;0;0;0;false;52834;6010980792;-73.560098;45.510872;52783;6010968448;-73.561941;45.508668;2;3;4;2695858;Bus 747 : YUL Aéroport Montréal-Trudeau / Centre-Ville Ouest;"";STM;747-O;Station Berri-UQAM (1621 rue Berri);Aéroport Pierre-Elliott-Trudeau
464936533;"{\"type\":\"LineString\",\"coordinates\":[[-73.5616774,45.5088693],[-73.5617224,45.5088157],[-73.5620044,45.5084802]]}";1;Boulevard René-Lévesque Ouest;3;50;false;true;true;false;false;false;25.5;0;1;0;0;0;false;52783;6010968448;-73.561941;45.508668;52697;988366391;-73.5643925;45.5058955;1;4;5;2695858;Bus 747 : YUL Aéroport Montréal-Trudeau / Centre-Ville Ouest;"";STM;747-O;Station Berri-UQAM (1621 rue Berri);Aéroport Pierre-Elliott-Trudeau
464943212;"{\"type\":\"LineString\",\"coordinates\":[[-73.5620044,45.5084802],[-73.5625851,45.5078511],[-73.5626016,45.5078241],[-73.5626628,45.5077549]]}";2;Boulevard René-Lévesque Ouest;3;50;false;true;true;false;false;false;96.0;1;1;0;0;0;false;52783;6010968448;-73.561941;45.508668;52697;988366391;-73.5643925;45.5058955;0;4;5;2695858;Bus 747 : YUL Aéroport Montréal-Trudeau / Centre-Ville Ouest;"";STM;747-O;Station Berri-UQAM (1621 rue Berri);Aéroport Pierre-Elliott-Trudeau
4687530;"{\"type\":\"LineString\",\"coordinates\":[[-73.5626628,45.5077549],[-73.5627243,45.5076878],[-73.5633897,45.506943],[-73.564033,45.5062246],[-73.5640701,45.5061831]]}";3;Boulevard René-Lévesque Ouest;3;50;false;true;true;false;false;false;207.0;1;1;0;0;0;false;52783;6010968448;-73.561941;45.508668;52697;988366391;-73.5643925;45.5058955;0;4;5;2695858;Bus 747 : YUL Aéroport Montréal-Trudeau / Centre-Ville Ouest;"";STM;747-O;Station Berri-UQAM (1621 rue Berri);Aéroport Pierre-Elliott-Trudeau
456314146;"{\"type\":\"LineString\",\"coordinates\":[[-73.5640701,45.5061831],[-73.5643657,45.5058051]]}";4;Boulevard René-Lévesque Ouest;3;50;false;true;true;false;false;false;24.0;0;0;0;0;0;false;52783;6010968448;-73.561941;45.508668;52697;988366391;-73.5643925;45.5058955;1;4;5;2695858;Bus 747 : YUL Aéroport Montréal-Trudeau / Centre-Ville Ouest;"";STM;747-O;Station Berri-UQAM (1621 rue Berri);Aéroport Pierre-Elliott-Trudeau
456314147;"{\"type\":\"LineString\",\"coordinates\":[[-73.5643657,45.5058051],[-73.5647329,45.5053354],[-73.5647756,45.5052808]]}";1;Boulevard René-Lévesque Ouest;3;50;false;true;true;false;false;false;67.0;1;0;0;0;0;false;52697;988366391;-73.5643925;45.5058955;52625;5036795427;-73.5665083;45.5032345;2;5;6;2695858;Bus 747 : YUL Aéroport Montréal-Trudeau / Centre-Ville Ouest;"";STM;747-O;Station Berri-UQAM (1621 rue Berri);Aéroport Pierre-Elliott-Trudeau
455083974;"{\"type\":\"LineString\",\"coordinates\":[[-73.5647756,45.5052808],[-73.5655065,45.504369],[-73.5655488,45.5043162]]}";2;Boulevard René-Lévesque Ouest;3;50;false;true;true;false;false;false;123.0;1;0;0;0;0;false;52697;988366391;-73.5643925;45.5058955;52625;5036795427;-73.5665083;45.5032345;0;5;6;2695858;Bus 747 : YUL Aéroport Montréal-Trudeau / Centre-Ville Ouest;"";STM;747-O;Station Berri-UQAM (1621 rue Berri);Aéroport Pierre-Elliott-Trudeau
546096658;"{\"type\":\"LineString\",\"coordinates\":[[-73.5655488,45.5043162],[-73.5663601,45.5032964]]}";3;Boulevard René-Lévesque Ouest;3;50;false;true;true;false;false;false;130.0;0;0;0;0;0;false;52697;988366391;-73.5643925;45.5058955;52625;5036795427;-73.5665083;45.5032345;0;5;6;2695858;Bus 747 : YUL Aéroport Montréal-Trudeau / Centre-Ville Ouest;"";STM;747-O;Station Berri-UQAM (1621 rue Berri);Aéroport Pierre-Elliott-Trudeau
455083978;"{\"type\":\"LineString\",\"coordinates\":[[-73.5663601,45.5032964],[-73.5664673,45.5031167],[-73.5664932,45.5030732]]}";4;Boulevard René-Lévesque Ouest;3;50;false;true;true;false;false;false;27.0;1;0;0;0;0;false;52697;988366391;-73.5643925;45.5058955;52625;5036795427;-73.5665083;45.5032345;2;5;6;2695858;Bus 747 : YUL Aéroport Montréal-Trudeau / Centre-Ville Ouest;"";STM;747-O;Station Berri-UQAM (1621 rue Berri);Aéroport Pierre-Elliott-Trudeau
546096658;"{\"type\":\"LineString\",\"coordinates\":[[-73.5655488,45.5043162],[-73.5663601,45.5032964]]}";1;Boulevard René-Lévesque Ouest;3;50;false;true;true;false;false;false;130.0;0;0;0;0;0;false;52625;5036795427;-73.5665083;45.5032345;52529;5036795429;-73.5691146;45.5002866;2;6;7;2695858;Bus 747 : YUL Aéroport Montréal-Trudeau / Centre-Ville Ouest;"";STM;747-O;Station Berri-UQAM (1621 rue Berri);Aéroport Pierre-Elliott-Trudeau
455083978;"{\"type\":\"LineString\",\"coordinates\":[[-73.5663601,45.5032964],[-73.5664673,45.5031167],[-73.5664932,45.5030732]]}";2;Boulevard René-Lévesque Ouest;3;50;false;true;true;false;false;false;27.0;1;0;0;0;0;false;52625;5036795427;-73.5665083;45.5032345;52529;5036795429;-73.5691146;45.5002866;0;6;7;2695858;Bus 747 : YUL Aéroport Montréal-Trudeau / Centre-Ville Ouest;"";STM;747-O;Station Berri-UQAM (1621 rue Berri);Aéroport Pierre-Elliott-Trudeau
453981161;"{\"type\":\"LineString\",\"coordinates\":[[-73.5664932,45.5030732],[-73.5667976,45.5026393],[-73.5668362,45.5025843]]}";3;Boulevard René-Lévesque Ouest;3;50;false;true;true;false;false;false;61.0;1;0;0;0;0;false;52625;5036795427;-73.5665083;45.5032345;52529;5036795429;-73.5691146;45.5002866;0;6;7;2695858;Bus 747 : YUL Aéroport Montréal-Trudeau / Centre-Ville Ouest;"";STM;747-O;Station Berri-UQAM (1621 rue Berri);Aéroport Pierre-Elliott-Trudeau
453963142;"{\"type\":\"LineString\",\"coordinates\":[[-73.5668362,45.5025843],[-73.5673805,45.5019964]]}";4;Boulevard René-Lévesque Ouest;3;50;false;true;true;false;false;false;78.0;1;0;0;0;0;false;52625;5036795427;-73.5665083;45.5032345;52529;5036795429;-73.5691146;45.5002866;0;6;7;2695858;Bus 747 : YUL Aéroport Montréal-Trudeau / Centre-Ville Ouest;"";STM;747-O;Station Berri-UQAM (1621 rue Berri);Aéroport Pierre-Elliott-Trudeau
453963143;"{\"type\":\"LineString\",\"coordinates\":[[-73.5673805,45.5019964],[-73.5674744,45.5019002]]}";5;Boulevard René-Lévesque Ouest;3;50;false;true;true;false;false;false;13.0;2;0;0;0;0;false;52625;5036795427;-73.5665083;45.5032345;52529;5036795429;-73.5691146;45.5002866;0;6;7;2695858;Bus 747 : YUL Aéroport Montréal-Trudeau / Centre-Ville Ouest;"";STM;747-O;Station Berri-UQAM (1621 rue Berri);Aéroport Pierre-Elliott-Trudeau
455083971;"{\"type\":\"LineString\",\"coordinates\":[[-73.5674744,45.5019002],[-73.5676539,45.5017095],[-73.5682225,45.5010922]]}";6;Boulevard René-Lévesque Ouest;3;50;false;true;true;false;false;false;108.0;1;0;0;0;0;false;52625;5036795427;-73.5665083;45.5032345;52529;5036795429;-73.5691146;45.5002866;0;6;7;2695858;Bus 747 : YUL Aéroport Montréal-Trudeau / Centre-Ville Ouest;"";STM;747-O;Station Berri-UQAM (1621 rue Berri);Aéroport Pierre-Elliott-Trudeau
385879098;"{\"type\":\"LineString\",\"coordinates\":[[-73.5682225,45.5010922],[-73.5683717,45.5009348],[-73.5685715,45.5007193],[-73.5690268,45.5002344],[-73.5691112,45.5001442]]}";7;Boulevard René-Lévesque Ouest;3;50;false;true;true;false;false;false;127.0;2;0;0;0;0;false;52625;5036795427;-73.5665083;45.5032345;52529;5036795429;-73.5691146;45.5002866;2;6;7;2695858;Bus 747 : YUL Aéroport Montréal-Trudeau / Centre-Ville Ouest;"";STM;747-O;Station Berri-UQAM (1621 rue Berri);Aéroport Pierre-Elliott-Trudeau
455083972;"{\"type\":\"LineString\",\"coordinates\":[[-73.5691112,45.5001442],[-73.5696662,45.4995386],[-73.5697469,45.4994538]]}";1;Boulevard René-Lévesque Ouest;3;50;false;true;true;false;false;false;92.0;3;0;0;0;0;false;52529;5036795429;-73.5691146;45.5002866;52483;427618239;-73.5703339;45.4990025;2;7;8;2695858;Bus 747 : YUL Aéroport Montréal-Trudeau / Centre-Ville Ouest;"";STM;747-O;Station Berri-UQAM (1621 rue Berri);Aéroport Pierre-Elliott-Trudeau
455083982;"{\"type\":\"LineString\",\"coordinates\":[[-73.5697469,45.4994538],[-73.5700322,45.4991525],[-73.5702845,45.4988861],[-73.5703788,45.4987866]]}";2;Boulevard René-Lévesque Ouest;3;50;false;true;true;false;false;false;90.0;2;0;0;0;0;false;52529;5036795429;-73.5691146;45.5002866;52483;427618239;-73.5703339;45.4990025;2;7;8;2695858;Bus 747 : YUL Aéroport Montréal-Trudeau / Centre-Ville Ouest;"";STM;747-O;Station Berri-UQAM (1621 rue Berri);Aéroport Pierre-Elliott-Trudeau
455083982;"{\"type\":\"LineString\",\"coordinates\":[[-73.5697469,45.4994538],[-73.5700322,45.4991525],[-73.5702845,45.4988861],[-73.5703788,45.4987866]]}";1;Boulevard René-Lévesque Ouest;3;50;false;true;true;false;false;false;45.0;2;0;0;0;0;false;52483;427618239;-73.5703339;45.4990025;52416;5036795430;-73.5724184;45.4967944;1;8;9;2695858;Bus 747 : YUL Aéroport Montréal-Trudeau / Centre-Ville Ouest;"";STM;747-O;Station Berri-UQAM (1621 rue Berri);Aéroport Pierre-Elliott-Trudeau
455083975;"{\"type\":\"LineString\",\"coordinates\":[[-73.5703788,45.4987866],[-73.5709935,45.4981374],[-73.5709662,45.4981662],[-73.5710365,45.498092]]}";2;Boulevard René-Lévesque Ouest;3;50;false;true;true;false;false;false;101.0;1;1;0;0;0;false;52483;427618239;-73.5703339;45.4990025;52416;5036795430;-73.5724184;45.4967944;0;8;9;2695858;Bus 747 : YUL Aéroport Montréal-Trudeau / Centre-Ville Ouest;"";STM;747-O;Station Berri-UQAM (1621 rue Berri);Aéroport Pierre-Elliott-Trudeau
465649964;"{\"type\":\"LineString\",\"coordinates\":[[-73.5710365,45.498092],[-73.5710965,45.4980286],[-73.5716173,45.4974788],[-73.5716304,45.4974649],[-73.5716907,45.4974013]]}";3;Boulevard René-Lévesque Ouest;3;50;false;true;true;false;false;false;93.0;1;2;0;0;0;false;52483;427618239;-73.5703339;45.4990025;52416;5036795430;-73.5724184;45.4967944;0;8;9;2695858;Bus 747 : YUL Aéroport Montréal-Trudeau / Centre-Ville Ouest;"";STM;747-O;Station Berri-UQAM (1621 rue Berri);Aéroport Pierre-Elliott-Trudeau
465649965;"{\"type\":\"LineString\",\"coordinates\":[[-73.5716907,45.4974013],[-73.5717405,45.4973473],[-73.5723311,45.4967071],[-73.5723424,45.4966949],[-73.5723978,45.4966348]]}";4;Boulevard René-Lévesque Ouest;3;50;false;true;true;false;false;false;51.0;1;2;0;0;0;false;52483;427618239;-73.5703339;45.4990025;52416;5036795430;-73.5724184;45.4967944;1;8;9;2695858;Bus 747 : YUL Aéroport Montréal-Trudeau / Centre-Ville Ouest;"";STM;747-O;Station Berri-UQAM (1621 rue Berri);Aéroport Pierre-Elliott-Trudeau
546047309;"{\"type\":\"LineString\",\"coordinates\":[[-73.5723978,45.4966348],[-73.57246,45.4965707],[-73.5727744,45.4962467],[-73.5730337,45.4959795],[-73.5730667,45.4959455],[-73.5731559,45.4958535]]}";1;Boulevard René-Lévesque Ouest;3;50;false;true;true;false;false;false;106.0;1;2;0;0;0;false;52416;5036795430;-73.5724184;45.4967944;52373;4030794085;-73.5737142;45.4954342;2;9;10;2695858;Bus 747 : YUL Aéroport Montréal-Trudeau / Centre-Ville Ouest;"";STM;747-O;Station Berri-UQAM (1621 rue Berri);Aéroport Pierre-Elliott-Trudeau
455083984;"{\"type\":\"LineString\",\"coordinates\":[[-73.5731559,45.4958535],[-73.5731948,45.495813],[-73.5733586,45.4956423],[-73.5736567,45.4953316],[-73.5737026,45.4952838]]}";2;Boulevard René-Lévesque Ouest;3;50;false;true;true;false;false;false;77.0;0;2;0;0;0;false;52416;5036795430;-73.5724184;45.4967944;52373;4030794085;-73.5737142;45.4954342;2;9;10;2695858;Bus 747 : YUL Aéroport Montréal-Trudeau / Centre-Ville Ouest;"";STM;747-O;Station Berri-UQAM (1621 rue Berri);Aéroport Pierre-Elliott-Trudeau
455083979;"{\"type\":\"LineString\",\"coordinates\":[[-73.5737026,45.4952838],[-73.5737403,45.4952406],[-73.5743308,45.4946389],[-73.5743471,45.4946222],[-73.5744019,45.494566]]}";1;Boulevard René-Lévesque Ouest;3;50;false;true;true;false;false;false;97.0;1;2;0;0;0;false;52373;4030794085;-73.5737142;45.4954342;61334;2322567160;-73.5790326;45.4826078;2;10;11;2695858;Bus 747 : YUL Aéroport Montréal-Trudeau / Centre-Ville Ouest;"";STM;747-O;Station Berri-UQAM (1621 rue Berri);Aéroport Pierre-Elliott-Trudeau
455083981;"{\"type\":\"LineString\",\"coordinates\":[[-73.5744019,45.494566],[-73.5744505,45.4945153],[-73.5749736,45.4939701],[-73.5749985,45.4939442],[-73.575081,45.4938582]]}";2;Boulevard René-Lévesque Ouest;3;50;false;true;true;false;false;false;95.0;1;2;0;0;0;false;52373;4030794085;-73.5737142;45.4954342;61334;2322567160;-73.5790326;45.4826078;0;10;11;2695858;Bus 747 : YUL Aéroport Montréal-Trudeau / Centre-Ville Ouest;"";STM;747-O;Station Berri-UQAM (1621 rue Berri);Aéroport Pierre-Elliott-Trudeau
330153472;"{\"type\":\"LineString\",\"coordinates\":[[-73.575081,45.4938582],[-73.5751726,45.4937621],[-73.5758712,45.4930291],[-73.5765211,45.4923471],[-73.5765803,45.492285]]}";3;Boulevard René-Lévesque Ouest;3;50;false;true;true;false;false;false;211.0;0;2;0;0;0;false;52373;4030794085;-73.5737142;45.4954342;61334;2322567160;-73.5790326;45.4826078;0;10;11;2695858;Bus 747 : YUL Aéroport Montréal-Trudeau / Centre-Ville Ouest;"";STM;747-O;Station Berri-UQAM (1621 rue Berri);Aéroport Pierre-Elliott-Trudeau
465653665;"{\"type\":\"LineString\",\"coordinates\":[[-73.5765803,45.492285],[-73.5766455,45.4922166],[-73.5769057,45.4919436],[-73.5775586,45.4912584],[-73.5776007,45.4912143]]}";4;Boulevard René-Lévesque Ouest;3;50;false;true;true;false;false;false;144.0;1;2;0;0;0;false;52373;4030794085;-73.5737142;45.4954342;61334;2322567160;-73.5790326;45.4826078;0;10;11;2695858;Bus 747 : YUL Aéroport Montréal-Trudeau / Centre-Ville Ouest;"";STM;747-O;Station Berri-UQAM (1621 rue Berri);Aéroport Pierre-Elliott-Trudeau
466885671;"{\"type\":\"LineString\",\"coordinates\":[[-73.5776007,45.4912143],[-73.5776604,45.4911576]]}";5;Boulevard René-Lévesque Ouest;3;50;false;true;true;false;false;false;8.0;1;0;0;0;0;false;52373;4030794085;-73.5737142;45.4954342;61334;2322567160;-73.5790326;45.4826078;0;10;11;2695858;Bus 747 : YUL Aéroport Montréal-Trudeau / Centre-Ville Ouest;"";STM;747-O;Station Berri-UQAM (1621 rue Berri);Aéroport Pierre-Elliott-Trudeau
463825906;"{\"type\":\"LineString\",\"coordinates\":[[-73.5776604,45.4911576],[-73.5777288,45.4910895],[-73.5786113,45.4903037],[-73.578633,45.4902842],[-73.5786799,45.4902422]]}";6;Boulevard René-Lévesque Ouest;3;50;false;true;true;false;false;false;130.0;1;2;0;0;0;false;52373;4030794085;-73.5737142;45.4954342;61334;2322567160;-73.5790326;45.4826078;0;10;11;2695858;Bus 747 : YUL Aéroport Montréal-Trudeau / Centre-Ville Ouest;"";STM;747-O;Station Berri-UQAM (1621 rue Berri);Aéroport Pierre-Elliott-Trudeau
463825907;"{\"type\":\"LineString\",\"coordinates\":[[-73.5786799,45.4902422],[-73.5787533,45.4901887],[-73.578815,45.4901525],[-73.5794533,45.4898017]]}";7;Boulevard René-Lévesque Ouest;3;50;false;true;true;false;false;false;78.0;0;1;0;0;0;false;52373;4030794085;-73.5737142;45.4954342;61334;2322567160;-73.5790326;45.4826078;0;10;11;2695858;Bus 747 : YUL Aéroport Montréal-Trudeau / Centre-Ville Ouest;"";STM;747-O;Station Berri-UQAM (1621 rue Berri);Aéroport Pierre-Elliott-Trudeau
337432401;"{\"type\":\"LineString\",\"coordinates\":[[-73.5794533,45.4898017],[-73.5802405,45.4893735],[-73.5806884,45.489163],[-73.5807071,45.4891544],[-73.5808248,45.4891003],[-73.5809495,45.4890397],[-73.5816911,45.4886795],[-73.5820799,45.4884768],[-73.5824756,45.4883336],[-73.5829414,45.4881846],[-73.5829652,45.488177],[-73.5830741,45.4881391]]}";8;Boulevard René-Lévesque Ouest;3;50;false;true;true;false;false;false;339.0;2;3;0;0;0;false;52373;4030794085;-73.5737142;45.4954342;61334;2322567160;-73.5790326;45.4826078;0;10;11;2695858;Bus 747 : YUL Aéroport Montréal-Trudeau / Centre-Ville Ouest;"";STM;747-O;Station Berri-UQAM (1621 rue Berri);Aéroport Pierre-Elliott-Trudeau
231387461;"{\"type\":\"LineString\",\"coordinates\":[[-73.5830741,45.4881391],[-73.583234,45.4880907]]}";9;Boulevard René-Lévesque Ouest;1;50;false;true;true;false;false;false;14.0;0;0;0;0;0;false;52373;4030794085;-73.5737142;45.4954342;61334;2322567160;-73.5790326;45.4826078;0;10;11;2695858;Bus 747 : YUL Aéroport Montréal-Trudeau / Centre-Ville Ouest;"";STM;747-O;Station Berri-UQAM (1621 rue Berri);Aéroport Pierre-Elliott-Trudeau
329989223;"{\"type\":\"LineString\",\"coordinates\":[[-73.583234,45.4880907],[-73.5831408,45.4879884]]}";10;Avenue Atwater;3;50;false;true;true;false;false;false;14.0;0;0;0;0;0;false;52373;4030794085;-73.5737142;45.4954342;61334;2322567160;-73.5790326;45.4826078;0;10;11;2695858;Bus 747 : YUL Aéroport Montréal-Trudeau / Centre-Ville Ouest;"";STM;747-O;Station Berri-UQAM (1621 rue Berri);Aéroport Pierre-Elliott-Trudeau
200638835;"{\"type\":\"LineString\",\"coordinates\":[[-73.5831408,45.4879884],[-73.5830875,45.4879459],[-73.5822336,45.4872648],[-73.5816684,45.486814],[-73.5810655,45.4860249],[-73.5809613,45.4858782],[-73.5809415,45.4858503],[-73.5807179,45.4855353]]}";11;Avenue Atwater;3;50;false;true;true;false;false;false;335.0;1;1;0;0;0;false;52373;4030794085;-73.5737142;45.4954342;61334;2322567160;-73.5790326;45.4826078;0;10;11;2695858;Bus 747 : YUL Aéroport Montréal-Trudeau / Centre-Ville Ouest;"";STM;747-O;Station Berri-UQAM (1621 rue Berri);Aéroport Pierre-Elliott-Trudeau
463671314;"{\"type\":\"LineString\",\"coordinates\":[[-73.5807179,45.4855353],[-73.5804823,45.4851539],[-73.5796812,45.4838571],[-73.5796234,45.4837635]]}";12;Avenue Atwater;3;50;false;true;true;false;false;false;215.0;2;1;0;0;0;false;52373;4030794085;-73.5737142;45.4954342;61334;2322567160;-73.5790326;45.4826078;0;10;11;2695858;Bus 747 : YUL Aéroport Montréal-Trudeau / Centre-Ville Ouest;"";STM;747-O;Station Berri-UQAM (1621 rue Berri);Aéroport Pierre-Elliott-Trudeau
509777718;"{\"type\":\"LineString\",\"coordinates\":[[-73.5796234,45.4837635],[-73.5795678,45.4836771],[-73.5792868,45.4832407],[-73.5792038,45.4831117]]}";13;Avenue Atwater;3;50;false;true;true;false;false;false;80.0;1;1;0;0;0;false;52373;4030794085;-73.5737142;45.4954342;61334;2322567160;-73.5790326;45.4826078;0;10;11;2695858;Bus 747 : YUL Aéroport Montréal-Trudeau / Centre-Ville Ouest;"";STM;747-O;Station Berri-UQAM (1621 rue Berri);Aéroport Pierre-Elliott-Trudeau
509777709;"{\"type\":\"LineString\",\"coordinates\":[[-73.5792038,45.4831117],[-73.5791861,45.4830842],[-73.5791365,45.4830071]]}";14;Avenue Atwater;3;50;false;true;true;false;false;false;13.0;1;1;0;0;0;false;52373;4030794085;-73.5737142;45.4954342;61334;2322567160;-73.5790326;45.4826078;0;10;11;2695858;Bus 747 : YUL Aéroport Montréal-Trudeau / Centre-Ville Ouest;"";STM;747-O;Station Berri-UQAM (1621 rue Berri);Aéroport Pierre-Elliott-Trudeau
453957423;"{\"type\":\"LineString\",\"coordinates\":[[-73.5791365,45.4830071],[-73.5790964,45.4829404],[-73.5789434,45.4826858],[-73.5788136,45.4824697],[-73.5787744,45.4824045]]}";15;Avenue Atwater;3;50;false;true;true;false;false;false;73.0;2;2;0;0;0;false;52373;4030794085;-73.5737142;45.4954342;61334;2322567160;-73.5790326;45.4826078;2;10;11;2695858;Bus 747 : YUL Aéroport Montréal-Trudeau / Centre-Ville Ouest;"";STM;747-O;Station Berri-UQAM (1621 rue Berri);Aéroport Pierre-Elliott-Trudeau
453957423;"{\"type\":\"LineString\",\"coordinates\":[[-73.5791365,45.4830071],[-73.5790964,45.4829404],[-73.5789434,45.4826858],[-73.5788136,45.4824697],[-73.5787744,45.4824045]]}";1;Avenue Atwater;3;50;false;true;true;false;false;false;36.5;2;2;0;0;0;false;61334;2322567160;-73.5790326;45.4826078;61261;6010970605;-73.751615;45.456622;1;11;12;2695858;Bus 747 : YUL Aéroport Montréal-Trudeau / Centre-Ville Ouest;"";STM;747-O;Station Berri-UQAM (1621 rue Berri);Aéroport Pierre-Elliott-Trudeau
279233265;"{\"type\":\"LineString\",\"coordinates\":[[-73.5787744,45.4824045],[-73.5787258,45.482327],[-73.578574,45.4820846],[-73.5783944,45.4817979]]}";2;Avenue Atwater;1;50;false;true;true;false;false;false;74.0;1;1;0;0;0;false;61334;2322567160;-73.5790326;45.4826078;61261;6010970605;-73.751615;45.456622;0;11;12;2695858;Bus 747 : YUL Aéroport Montréal-Trudeau / Centre-Ville Ouest;"";STM;747-O;Station Berri-UQAM (1621 rue Berri);Aéroport Pierre-Elliott-Trudeau
509777662;"{\"type\":\"LineString\",\"coordinates\":[[-73.5783944,45.4817979],[-73.5782557,45.4815403],[-73.5780704,45.4811513]]}";3;Avenue Atwater;1;50;false;true;true;false;false;false;77.0;1;0;0;0;0;false;61334;2322567160;-73.5790326;45.4826078;61261;6010970605;-73.751615;45.456622;0;11;12;2695858;Bus 747 : YUL Aéroport Montréal-Trudeau / Centre-Ville Ouest;"";STM;747-O;Station Berri-UQAM (1621 rue Berri);Aéroport Pierre-Elliott-Trudeau
453962672;"{\"type\":\"LineString\",\"coordinates\":[[-73.5780704,45.4811513],[-73.5778211,45.4809707],[-73.5776963,45.4808802]]}";4;Avenue Atwater;3;50;false;true;true;false;false;false;42.0;1;0;0;0;0;false;61334;2322567160;-73.5790326;45.4826078;61261;6010970605;-73.751615;45.456622;0;11;12;2695858;Bus 747 : YUL Aéroport Montréal-Trudeau / Centre-Ville Ouest;"";STM;747-O;Station Berri-UQAM (1621 rue Berri);Aéroport Pierre-Elliott-Trudeau
463667723;"{\"type\":\"LineString\",\"coordinates\":[[-73.5776963,45.4808802],[-73.5775706,45.4806461],[-73.5775399,45.4805585]]}";5;Avenue Atwater;2;50;false;true;true;false;false;false;38.0;0;0;0;0;0;false;61334;2322567160;-73.5790326;45.4826078;61261;6010970605;-73.751615;45.456622;0;11;12;2695858;Bus 747 : YUL Aéroport Montréal-Trudeau / Centre-Ville Ouest;"";STM;747-O;Station Berri-UQAM (1621 rue Berri);Aéroport Pierre-Elliott-Trudeau
231363440;"{\"type\":\"LineString\",\"coordinates\":[[-73.5775399,45.4805585],[-73.5775945,45.4804674],[-73.5776498,45.480413],[-73.5778348,45.4802504],[-73.577891,45.4801643],[-73.5779199,45.4800591],[-73.5779456,45.4798124],[-73.5779133,45.4796204]]}";6;Avenue Atwater;2;50;false;true;true;false;false;false;113.0;1;0;0;0;0;false;61334;2322567160;-73.5790326;45.4826078;61261;6010970605;-73.751615;45.456622;0;11;12;2695858;Bus 747 : YUL Aéroport Montréal-Trudeau / Centre-Ville Ouest;"";STM;747-O;Station Berri-UQAM (1621 rue Berri);Aéroport Pierre-Elliott-Trudeau
473728693;"{\"type\":\"LineString\",\"coordinates\":[[-73.5779133,45.4796204],[-73.5778311,45.479415]]}";7;Avenue Atwater;1;50;false;true;true;false;false;false;24.0;1;0;0;0;0;false;61334;2322567160;-73.5790326;45.4826078;61261;6010970605;-73.751615;45.456622;0;11;12;2695858;Bus 747 : YUL Aéroport Montréal-Trudeau / Centre-Ville Ouest;"";STM;747-O;Station Berri-UQAM (1621 rue Berri);Aéroport Pierre-Elliott-Trudeau
163593798;"{\"type\":\"LineString\",\"coordinates\":[[-73.5778311,45.479415],[-73.5777423,45.4792712],[-73.5775229,45.4790557],[-73.5772807,45.4788402],[-73.5768587,45.4784547]]}";8;Avenue Atwater;2;50;false;true;true;false;false;false;132.0;0;0;0;0;0;false;61334;2322567160;-73.5790326;45.4826078;61261;6010970605;-73.751615;45.456622;0;11;12;2695858;Bus 747 : YUL Aéroport Montréal-Trudeau / Centre-Ville Ouest;"";STM;747-O;Station Berri-UQAM (1621 rue Berri);Aéroport Pierre-Elliott-Trudeau
24166415;"{\"type\":\"LineString\",\"coordinates\":[[-73.5768587,45.4784547],[-73.5749512,45.4767618]]}";9;Tunnel Atwater;2;50;false;true;true;false;false;false;240.0;0;0;0;0;0;false;61334;2322567160;-73.5790326;45.4826078;61261;6010970605;-73.751615;45.456622;0;11;12;2695858;Bus 747 : YUL Aéroport Montréal-Trudeau / Centre-Ville Ouest;"";STM;747-O;Station Berri-UQAM (1621 rue Berri);Aéroport Pierre-Elliott-Trudeau
24166418;"{\"type\":\"LineString\",\"coordinates\":[[-73.5749512,45.4767618],[-73.5741794,45.4760871],[-73.5737914,45.475732],[-73.5736882,45.4756187],[-73.5736179,45.4755285]]}";10;Avenue Atwater;2;50;false;true;true;false;false;false;173.0;0;0;0;0;0;false;61334;2322567160;-73.5790326;45.4826078;61261;6010970605;-73.751615;45.456622;0;11;12;2695858;Bus 747 : YUL Aéroport Montréal-Trudeau / Centre-Ville Ouest;"";STM;747-O;Station Berri-UQAM (1621 rue Berri);Aéroport Pierre-Elliott-Trudeau
122023938;"{\"type\":\"LineString\",\"coordinates\":[[-73.5736179,45.4755285],[-73.5734446,45.4753168]]}";11;Avenue Atwater;1;50;false;true;true;false;false;false;28.0;0;0;0;0;0;false;61334;2322567160;-73.5790326;45.4826078;61261;6010970605;-73.751615;45.456622;0;11;12;2695858;Bus 747 : YUL Aéroport Montréal-Trudeau / Centre-Ville Ouest;"";STM;747-O;Station Berri-UQAM (1621 rue Berri);Aéroport Pierre-Elliott-Trudeau
122023968;"{\"type\":\"LineString\",\"coordinates\":[[-73.5734446,45.4753168],[-73.5731584,45.474967]]}";12;Avenue Atwater;1;50;false;true;true;false;false;false;45.0;1;0;0;0;0;false;61334;2322567160;-73.5790326;45.4826078;61261;6010970605;-73.751615;45.456622;0;11;12;2695858;Bus 747 : YUL Aéroport Montréal-Trudeau / Centre-Ville Ouest;"";STM;747-O;Station Berri-UQAM (1621 rue Berri);Aéroport Pierre-Elliott-Trudeau
730000994;"{\"type\":\"LineString\",\"coordinates\":[[-73.5731584,45.474967],[-73.5734635,45.4748763],[-73.5739553,45.4747463],[-73.5742401,45.4746382],[-73.5745762,45.4744879],[-73.574852,45.4743346],[-73.5751299,45.4741434],[-73.5754836,45.4738166],[-73.5757865,45.4734499]]}";13;"";1;50;false;true;true;false;false;false;274.0;1;0;0;0;0;false;61334;2322567160;-73.5790326;45.4826078;61261;6010970605;-73.751615;45.456622;0;11;12;2695858;Bus 747 : YUL Aéroport Montréal-Trudeau / Centre-Ville Ouest;"";STM;747-O;Station Berri-UQAM (1621 rue Berri);Aéroport Pierre-Elliott-Trudeau
741870409;"{\"type\":\"LineString\",\"coordinates\":[[-73.5757865,45.4734499],[-73.5760611,45.4732036],[-73.5763252,45.4729722],[-73.5766246,45.4726833],[-73.5773811,45.4718931]]}";14;Autoroute 15;2;70;false;true;true;false;false;false;214.0;0;0;0;0;0;false;61334;2322567160;-73.5790326;45.4826078;61261;6010970605;-73.751615;45.456622;0;11;12;2695858;Bus 747 : YUL Aéroport Montréal-Trudeau / Centre-Ville Ouest;"";STM;747-O;Station Berri-UQAM (1621 rue Berri);Aéroport Pierre-Elliott-Trudeau
640638138;"{\"type\":\"LineString\",\"coordinates\":[[-73.5773811,45.4718931],[-73.5778097,45.4714264],[-73.5781296,45.4710751],[-73.5786856,45.4704145],[-73.578936,45.4701145],[-73.5791656,45.469827],[-73.5794202,45.4694613],[-73.5796745,45.4690238]]}";15;Autoroute 15;3;70;false;true;true;false;false;false;367.0;0;0;0;0;0;false;61334;2322567160;-73.5790326;45.4826078;61261;6010970605;-73.751615;45.456622;0;11;12;2695858;Bus 747 : YUL Aéroport Montréal-Trudeau / Centre-Ville Ouest;"";STM;747-O;Station Berri-UQAM (1621 rue Berri);Aéroport Pierre-Elliott-Trudeau
521922035;"{\"type\":\"LineString\",\"coordinates\":[[-73.5796745,45.4690238],[-73.5798986,45.4685536],[-73.5801329,45.4681177],[-73.5804048,45.4676272],[-73.5805498,45.4673659],[-73.5806776,45.4671619],[-73.5808071,45.4669907],[-73.581108,45.4666519]]}";16;Autoroute 15;2;70;false;true;true;false;false;false;288.0;0;0;0;0;0;false;61334;2322567160;-73.5790326;45.4826078;61261;6010970605;-73.751615;45.456622;0;11;12;2695858;Bus 747 : YUL Aéroport Montréal-Trudeau / Centre-Ville Ouest;"";STM;747-O;Station Berri-UQAM (1621 rue Berri);Aéroport Pierre-Elliott-Trudeau
367724566;"{\"type\":\"LineString\",\"coordinates\":[[-73.581108,45.4666519],[-73.5813072,45.4664645],[-73.581566,45.4662522]]}";17;Autoroute 15;2;70;false;true;true;false;false;false;58.0;0;0;0;0;0;false;61334;2322567160;-73.5790326;45.4826078;61261;6010970605;-73.751615;45.456622;0;11;12;2695858;Bus 747 : YUL Aéroport Montréal-Trudeau / Centre-Ville Ouest;"";STM;747-O;Station Berri-UQAM (1621 rue Berri);Aéroport Pierre-Elliott-Trudeau
518860901;"{\"type\":\"LineString\",\"coordinates\":[[-73.581566,45.4662522],[-73.5817654,45.4661062],[-73.5820663,45.4659145],[-73.5823319,45.465763],[-73.582574,45.4656453],[-73.5828119,45.4655285],[-73.5831439,45.4654011],[-73.5835505,45.465271],[-73.583901,45.4651866],[-73.5843193,45.465104]]}";18;Autoroute 15;2;70;false;true;true;false;false;false;254.0;0;0;0;0;0;false;61334;2322567160;-73.5790326;45.4826078;61261;6010970605;-73.751615;45.456622;0;11;12;2695858;Bus 747 : YUL Aéroport Montréal-Trudeau / Centre-Ville Ouest;"";STM;747-O;Station Berri-UQAM (1621 rue Berri);Aéroport Pierre-Elliott-Trudeau
367724570;"{\"type\":\"LineString\",\"coordinates\":[[-73.5843193,45.465104],[-73.5846826,45.4650476]]}";19;Autoroute 15;2;70;false;true;true;false;false;false;30.0;0;0;0;0;0;false;61334;2322567160;-73.5790326;45.4826078;61261;6010970605;-73.751615;45.456622;0;11;12;2695858;Bus 747 : YUL Aéroport Montréal-Trudeau / Centre-Ville Ouest;"";STM;747-O;Station Berri-UQAM (1621 rue Berri);Aéroport Pierre-Elliott-Trudeau
367724569;"{\"type\":\"LineString\",\"coordinates\":[[-73.5846826,45.4650476],[-73.584947,45.4650225],[-73.5852765,45.4650071]]}";20;Autoroute 15;2;70;false;true;true;false;false;false;47.0;0;0;0;0;0;false;61334;2322567160;-73.5790326;45.4826078;61261;6010970605;-73.751615;45.456622;0;11;12;2695858;Bus 747 : YUL Aéroport Montréal-Trudeau / Centre-Ville Ouest;"";STM;747-O;Station Berri-UQAM (1621 rue Berri);Aéroport Pierre-Elliott-Trudeau
548618767;"{\"type\":\"LineString\",\"coordinates\":[[-73.5852765,45.4650071],[-73.5857686,45.4650014],[-73.5871131,45.4650049]]}";21;Autoroute 15;3;70;false;true;true;false;false;false;144.0;0;0;0;0;0;false;61334;2322567160;-73.5790326;45.4826078;61261;6010970605;-73.751615;45.456622;0;11;12;2695858;Bus 747 : YUL Aéroport Montréal-Trudeau / Centre-Ville Ouest;"";STM;747-O;Station Berri-UQAM (1621 rue Berri);Aéroport Pierre-Elliott-Trudeau
367724575;"{\"type\":\"LineString\",\"coordinates\":[[-73.5871131,45.4650049],[-73.587576,45.4650116]]}";22;Autoroute 15;3;70;false;true;true;false;false;false;37.0;0;0;0;0;0;false;61334;2322567160;-73.5790326;45.4826078;61261;6010970605;-73.751615;45.456622;0;11;12;2695858;Bus 747 : YUL Aéroport Montréal-Trudeau / Centre-Ville Ouest;"";STM;747-O;Station Berri-UQAM (1621 rue Berri);Aéroport Pierre-Elliott-Trudeau
367724576;"{\"type\":\"LineString\",\"coordinates\":[[-73.587576,45.4650116],[-73.5896627,45.4650189]]}";23;Autoroute 15;3;70;false;true;true;false;false;false;164.0;0;0;0;0;0;false;61334;2322567160;-73.5790326;45.4826078;61261;6010970605;-73.751615;45.456622;0;11;12;2695858;Bus 747 : YUL Aéroport Montréal-Trudeau / Centre-Ville Ouest;"";STM;747-O;Station Berri-UQAM (1621 rue Berri);Aéroport Pierre-Elliott-Trudeau
367724580;"{\"type\":\"LineString\",\"coordinates\":[[-73.5896627,45.4650189],[-73.590012,45.4650196]]}";24;Autoroute 15;3;70;false;true;true;false;false;false;28.0;0;0;0;0;0;false;61334;2322567160;-73.5790326;45.4826078;61261;6010970605;-73.751615;45.456622;0;11;12;2695858;Bus 747 : YUL Aéroport Montréal-Trudeau / Centre-Ville Ouest;"";STM;747-O;Station Berri-UQAM (1621 rue Berri);Aéroport Pierre-Elliott-Trudeau
367724579;"{\"type\":\"LineString\",\"coordinates\":[[-73.590012,45.4650196],[-73.5920699,45.4650232]]}";25;Autoroute 15;3;70;false;true;true;false;false;false;161.0;0;0;0;0;0;false;61334;2322567160;-73.5790326;45.4826078;61261;6010970605;-73.751615;45.456622;0;11;12;2695858;Bus 747 : YUL Aéroport Montréal-Trudeau / Centre-Ville Ouest;"";STM;747-O;Station Berri-UQAM (1621 rue Berri);Aéroport Pierre-Elliott-Trudeau
369168873;"{\"type\":\"LineString\",\"coordinates\":[[-73.5920699,45.4650232],[-73.5925515,45.4650285],[-73.5930435,45.4650495],[-73.5934143,45.4650803],[-73.5937386,45.4651233],[-73.5940739,45.4651805],[-73.5942585,45.4652197],[-73.5944468,45.4652645],[-73.5945969,45.465307],[-73.5947689,45.4653609],[-73.5949492,45.4654191],[-73.5951577,45.4654944],[-73.5953581,45.4655739],[-73.5955358,45.4656484],[-73.5957432,45.4657349],[-73.5960155,45.4658597],[-73.596231,45.4659762]]}";26;Autoroute 15;3;50;false;true;true;false;false;false;350.0;0;0;0;0;0;false;61334;2322567160;-73.5790326;45.4826078;61261;6010970605;-73.751615;45.456622;0;11;12;2695858;Bus 747 : YUL Aéroport Montréal-Trudeau / Centre-Ville Ouest;"";STM;747-O;Station Berri-UQAM (1621 rue Berri);Aéroport Pierre-Elliott-Trudeau
527847452;"{\"type\":\"LineString\",\"coordinates\":[[-73.596231,45.4659762],[-73.5966145,45.4662357],[-73.5968097,45.4663708]]}";27;"";1;50;false;true;true;false;false;false;63.0;0;0;0;0;0;false;61334;2322567160;-73.5790326;45.4826078;61261;6010970605;-73.751615;45.456622;0;11;12;2695858;Bus 747 : YUL Aéroport Montréal-Trudeau / Centre-Ville Ouest;"";STM;747-O;Station Berri-UQAM (1621 rue Berri);Aéroport Pierre-Elliott-Trudeau
498661528;"{\"type\":\"LineString\",\"coordinates\":[[-73.5968097,45.4663708],[-73.5970963,45.4665665],[-73.5972985,45.4667153],[-73.5975145,45.4668962],[-73.5977074,45.4670729]]}";28;"";1;50;false;true;true;false;false;false;106.0;0;0;0;0;0;false;61334;2322567160;-73.5790326;45.4826078;61261;6010970605;-73.751615;45.456622;0;11;12;2695858;Bus 747 : YUL Aéroport Montréal-Trudeau / Centre-Ville Ouest;"";STM;747-O;Station Berri-UQAM (1621 rue Berri);Aéroport Pierre-Elliott-Trudeau
369021502;"{\"type\":\"LineString\",\"coordinates\":[[-73.5977074,45.4670729],[-73.5979354,45.4673233],[-73.5980716,45.4674599],[-73.5982509,45.46762]]}";29;"";1;50;false;true;true;false;false;false;75.0;0;0;0;0;0;false;61334;2322567160;-73.5790326;45.4826078;61261;6010970605;-73.751615;45.456622;0;11;12;2695858;Bus 747 : YUL Aéroport Montréal-Trudeau / Centre-Ville Ouest;"";STM;747-O;Station Berri-UQAM (1621 rue Berri);Aéroport Pierre-Elliott-Trudeau
411213302;"{\"type\":\"LineString\",\"coordinates\":[[-73.5982509,45.46762],[-73.5984264,45.4677589],[-73.5985809,45.4678489],[-73.59884,45.4679629],[-73.599127,45.4680561],[-73.5995061,45.4681368],[-73.5998063,45.468162]]}";30;"";1;50;false;true;true;false;false;false;140.0;0;0;0;0;0;false;61334;2322567160;-73.5790326;45.4826078;61261;6010970605;-73.751615;45.456622;0;11;12;2695858;Bus 747 : YUL Aéroport Montréal-Trudeau / Centre-Ville Ouest;"";STM;747-O;Station Berri-UQAM (1621 rue Berri);Aéroport Pierre-Elliott-Trudeau
411213313;"{\"type\":\"LineString\",\"coordinates\":[[-73.5998063,45.468162],[-73.600021,45.4681541],[-73.6002563,45.468119],[-73.6005008,45.4680681],[-73.600758,45.4679811]]}";31;"";1;50;false;true;true;false;false;false;78.0;0;0;0;0;0;false;61334;2322567160;-73.5790326;45.4826078;61261;6010970605;-73.751615;45.456622;0;11;12;2695858;Bus 747 : YUL Aéroport Montréal-Trudeau / Centre-Ville Ouest;"";STM;747-O;Station Berri-UQAM (1621 rue Berri);Aéroport Pierre-Elliott-Trudeau
411213317;"{\"type\":\"LineString\",\"coordinates\":[[-73.600758,45.4679811],[-73.600995,45.4678642],[-73.6026823,45.4670171],[-73.6035195,45.4665785],[-73.6041725,45.4662561],[-73.6051435,45.4658161],[-73.6063423,45.4652996],[-73.6072505,45.4649419],[-73.6082641,45.4644577]]}";32;"";1;50;false;true;true;false;false;false;706.0;0;0;0;0;0;false;61334;2322567160;-73.5790326;45.4826078;61261;6010970605;-73.751615;45.456622;0;11;12;2695858;Bus 747 : YUL Aéroport Montréal-Trudeau / Centre-Ville Ouest;"";STM;747-O;Station Berri-UQAM (1621 rue Berri);Aéroport Pierre-Elliott-Trudeau
369021503;"{\"type\":\"LineString\",\"coordinates\":[[-73.6082641,45.4644577],[-73.6105251,45.4635433],[-73.6122761,45.4628263]]}";33;Autoroute du Souvenir;2;70;false;true;true;false;false;false;363.0;0;0;0;0;0;false;61334;2322567160;-73.5790326;45.4826078;61261;6010970605;-73.751615;45.456622;0;11;12;2695858;Bus 747 : YUL Aéroport Montréal-Trudeau / Centre-Ville Ouest;"";STM;747-O;Station Berri-UQAM (1621 rue Berri);Aéroport Pierre-Elliott-Trudeau
520337809;"{\"type\":\"LineString\",\"coordinates\":[[-73.6122761,45.4628263],[-73.6127879,45.4625976],[-73.6141592,45.4620136],[-73.6155385,45.4614344],[-73.6168695,45.460882],[-73.6176895,45.4605273],[-73.618395,45.460205],[-73.6191396,45.4598496],[-73.6201833,45.4592909],[-73.6213359,45.4586367],[-73.6217224,45.458397]]}";34;Autoroute du Souvenir;3;70;false;true;true;false;false;false;889.0;0;0;0;0;0;false;61334;2322567160;-73.5790326;45.4826078;61261;6010970605;-73.751615;45.456622;0;11;12;2695858;Bus 747 : YUL Aéroport Montréal-Trudeau / Centre-Ville Ouest;"";STM;747-O;Station Berri-UQAM (1621 rue Berri);Aéroport Pierre-Elliott-Trudeau
640352530;"{\"type\":\"LineString\",\"coordinates\":[[-73.6217224,45.458397],[-73.6222923,45.4580138],[-73.6228295,45.4576528],[-73.6244614,45.4565522],[-73.6260517,45.455487],[-73.6288102,45.453582],[-73.6305579,45.4523977],[-73.6314394,45.4518104],[-73.6327583,45.4509581],[-73.6336479,45.4504271],[-73.6343818,45.4499891],[-73.6360807,45.4490536],[-73.63663,45.4487539]]}";35;Autoroute du Souvenir;2;70;false;true;true;false;false;false;1584.0;0;0;0;0;0;false;61334;2322567160;-73.5790326;45.4826078;61261;6010970605;-73.751615;45.456622;0;11;12;2695858;Bus 747 : YUL Aéroport Montréal-Trudeau / Centre-Ville Ouest;"";STM;747-O;Station Berri-UQAM (1621 rue Berri);Aéroport Pierre-Elliott-Trudeau
563132947;"{\"type\":\"LineString\",\"coordinates\":[[-73.63663,45.4487539],[-73.6370779,45.4485256],[-73.6389225,45.447527],[-73.6421931,45.4457308]]}";36;Autoroute du Souvenir;3;50;false;true;true;false;false;false;550.0;0;0;0;0;0;false;61334;2322567160;-73.5790326;45.4826078;61261;6010970605;-73.751615;45.456622;0;11;12;2695858;Bus 747 : YUL Aéroport Montréal-Trudeau / Centre-Ville Ouest;"";STM;747-O;Station Berri-UQAM (1621 rue Berri);Aéroport Pierre-Elliott-Trudeau
385913420;"{\"type\":\"LineString\",\"coordinates\":[[-73.6421931,45.4457308],[-73.6429557,45.4452561],[-73.6437662,45.4447971],[-73.6442173,45.4445574],[-73.6460565,45.4436046],[-73.6471447,45.4430424]]}";37;Autoroute du Souvenir (20 ouest);2;50;false;true;true;false;false;false;490.0;0;0;0;0;0;false;61334;2322567160;-73.5790326;45.4826078;61261;6010970605;-73.751615;45.456622;0;11;12;2695858;Bus 747 : YUL Aéroport Montréal-Trudeau / Centre-Ville Ouest;"";STM;747-O;Station Berri-UQAM (1621 rue Berri);Aéroport Pierre-Elliott-Trudeau
104938769;"{\"type\":\"LineString\",\"coordinates\":[[-73.6471447,45.4430424],[-73.6474932,45.4428664]]}";38;Autoroute du Souvenir;2;70;false;true;true;false;false;false;34.0;0;0;0;0;0;false;61334;2322567160;-73.5790326;45.4826078;61261;6010970605;-73.751615;45.456622;0;11;12;2695858;Bus 747 : YUL Aéroport Montréal-Trudeau / Centre-Ville Ouest;"";STM;747-O;Station Berri-UQAM (1621 rue Berri);Aéroport Pierre-Elliott-Trudeau
104938760;"{\"type\":\"LineString\",\"coordinates\":[[-73.6474932,45.4428664],[-73.6477539,45.4427371],[-73.6478981,45.4426739],[-73.6481054,45.44259],[-73.648308,45.4425177],[-73.6485255,45.4424482],[-73.6487396,45.442382],[-73.6489573,45.4423229],[-73.6492521,45.4422457],[-73.649507,45.4421929],[-73.6497435,45.4421543],[-73.6500621,45.4421129],[-73.6503087,45.442088],[-73.6507795,45.4420595]]}";39;Autoroute du Souvenir;2;70;false;true;true;false;false;false;276.0;0;0;0;0;0;false;61334;2322567160;-73.5790326;45.4826078;61261;6010970605;-73.751615;45.456622;0;11;12;2695858;Bus 747 : YUL Aéroport Montréal-Trudeau / Centre-Ville Ouest;"";STM;747-O;Station Berri-UQAM (1621 rue Berri);Aéroport Pierre-Elliott-Trudeau
104938763;"{\"type\":\"LineString\",\"coordinates\":[[-73.6507795,45.4420595],[-73.650971,45.4420584],[-73.6512011,45.4420639]]}";40;Autoroute du Souvenir;2;70;false;true;true;false;false;false;33.0;0;0;0;0;0;false;61334;2322567160;-73.5790326;45.4826078;61261;6010970605;-73.751615;45.456622;0;11;12;2695858;Bus 747 : YUL Aéroport Montréal-Trudeau / Centre-Ville Ouest;"";STM;747-O;Station Berri-UQAM (1621 rue Berri);Aéroport Pierre-Elliott-Trudeau
104938758;"{\"type\":\"LineString\",\"coordinates\":[[-73.6512011,45.4420639],[-73.6518617,45.442082],[-73.6535454,45.4422003]]}";41;Autoroute du Souvenir;2;70;false;true;true;false;false;false;184.0;0;0;0;0;0;false;61334;2322567160;-73.5790326;45.4826078;61261;6010970605;-73.751615;45.456622;0;11;12;2695858;Bus 747 : YUL Aéroport Montréal-Trudeau / Centre-Ville Ouest;"";STM;747-O;Station Berri-UQAM (1621 rue Berri);Aéroport Pierre-Elliott-Trudeau
47919051;"{\"type\":\"LineString\",\"coordinates\":[[-73.6535454,45.4422003],[-73.6550792,45.4423104],[-73.6563826,45.4424252],[-73.6574877,45.4426403],[-73.6590206,45.443041],[-73.6643055,45.444723],[-73.6688018,45.4465208],[-73.6696071,45.4467947],[-73.6705954,45.4470423],[-73.6716894,45.4472211]]}";42;Autoroute du Souvenir;1;70;false;true;true;false;false;false;1539.0;0;0;0;0;0;false;61334;2322567160;-73.5790326;45.4826078;61261;6010970605;-73.751615;45.456622;0;11;12;2695858;Bus 747 : YUL Aéroport Montréal-Trudeau / Centre-Ville Ouest;"";STM;747-O;Station Berri-UQAM (1621 rue Berri);Aéroport Pierre-Elliott-Trudeau
10764803;"{\"type\":\"LineString\",\"coordinates\":[[-73.6716894,45.4472211],[-73.6718908,45.4472408],[-73.6744525,45.4473234],[-73.6807345,45.447443],[-73.6833306,45.4474983],[-73.6857609,45.4475639],[-73.6928067,45.4479458]]}";43;Autoroute du Souvenir;3;100;false;true;true;false;false;false;1654.0;0;0;0;0;0;false;61334;2322567160;-73.5790326;45.4826078;61261;6010970605;-73.751615;45.456622;0;11;12;2695858;Bus 747 : YUL Aéroport Montréal-Trudeau / Centre-Ville Ouest;"";STM;747-O;Station Berri-UQAM (1621 rue Berri);Aéroport Pierre-Elliott-Trudeau
419811054;"{\"type\":\"LineString\",\"coordinates\":[[-73.6928067,45.4479458],[-73.693385,45.4479602]]}";44;Autoroute du Souvenir;3;100;false;true;true;false;false;false;46.0;0;0;0;0;0;false;61334;2322567160;-73.5790326;45.4826078;61261;6010970605;-73.751615;45.456622;0;11;12;2695858;Bus 747 : YUL Aéroport Montréal-Trudeau / Centre-Ville Ouest;"";STM;747-O;Station Berri-UQAM (1621 rue Berri);Aéroport Pierre-Elliott-Trudeau
419811055;"{\"type\":\"LineString\",\"coordinates\":[[-73.693385,45.4479602],[-73.7007448,45.448116],[-73.7011725,45.4481251],[-73.7036027,45.4481723],[-73.7039731,45.4481796],[-73.71713,45.44844],[-73.7203324,45.4485063]]}";45;Autoroute du Souvenir;3;100;false;true;true;false;false;false;2108.0;0;0;0;0;0;false;61334;2322567160;-73.5790326;45.4826078;61261;6010970605;-73.751615;45.456622;0;11;12;2695858;Bus 747 : YUL Aéroport Montréal-Trudeau / Centre-Ville Ouest;"";STM;747-O;Station Berri-UQAM (1621 rue Berri);Aéroport Pierre-Elliott-Trudeau
105391640;"{\"type\":\"LineString\",\"coordinates\":[[-73.7203324,45.4485063],[-73.7209278,45.4485171]]}";46;Autoroute du Souvenir;1;100;false;true;true;false;false;false;47.0;0;0;0;0;0;false;61334;2322567160;-73.5790326;45.4826078;61261;6010970605;-73.751615;45.456622;0;11;12;2695858;Bus 747 : YUL Aéroport Montréal-Trudeau / Centre-Ville Ouest;"";STM;747-O;Station Berri-UQAM (1621 rue Berri);Aéroport Pierre-Elliott-Trudeau
105391468;"{\"type\":\"LineString\",\"coordinates\":[[-73.7209278,45.4485171],[-73.722386,45.4485436],[-73.7251786,45.4485911],[-73.7304274,45.4486818]]}";47;Autoroute du Souvenir;1;100;false;true;true;false;false;false;743.0;0;0;0;0;0;false;61334;2322567160;-73.5790326;45.4826078;61261;6010970605;-73.751615;45.456622;0;11;12;2695858;Bus 747 : YUL Aéroport Montréal-Trudeau / Centre-Ville Ouest;"";STM;747-O;Station Berri-UQAM (1621 rue Berri);Aéroport Pierre-Elliott-Trudeau
110479868;"{\"type\":\"LineString\",\"coordinates\":[[-73.7304274,45.4486818],[-73.7321603,45.4488121],[-73.7331154,45.4488343],[-73.733658,45.4488412],[-73.7342067,45.4488188],[-73.7345899,45.4487911],[-73.7352593,45.4487322],[-73.7359906,45.4486565],[-73.7362981,45.4486486],[-73.7365147,45.4486627]]}";48;"";1;50;false;true;true;false;false;false;478.0;0;0;0;0;0;false;61334;2322567160;-73.5790326;45.4826078;61261;6010970605;-73.751615;45.456622;0;11;12;2695858;Bus 747 : YUL Aéroport Montréal-Trudeau / Centre-Ville Ouest;"";STM;747-O;Station Berri-UQAM (1621 rue Berri);Aéroport Pierre-Elliott-Trudeau
110479865;"{\"type\":\"LineString\",\"coordinates\":[[-73.7365147,45.4486627],[-73.7367387,45.4487007],[-73.7370354,45.4487811],[-73.737285,45.4488886],[-73.7374982,45.4490291],[-73.7376738,45.4491842],[-73.7378378,45.4493724]]}";49;"";1;50;false;true;true;false;false;false;136.0;0;0;0;0;0;false;61334;2322567160;-73.5790326;45.4826078;61261;6010970605;-73.751615;45.456622;0;11;12;2695858;Bus 747 : YUL Aéroport Montréal-Trudeau / Centre-Ville Ouest;"";STM;747-O;Station Berri-UQAM (1621 rue Berri);Aéroport Pierre-Elliott-Trudeau
354209235;"{\"type\":\"LineString\",\"coordinates\":[[-73.7378378,45.4493724],[-73.7381795,45.4497401],[-73.7384353,45.4500137],[-73.738751,45.4503292],[-73.7389457,45.4505011]]}";50;"";1;50;false;true;true;false;false;false;153.0;0;0;0;0;0;false;61334;2322567160;-73.5790326;45.4826078;61261;6010970605;-73.751615;45.456622;0;11;12;2695858;Bus 747 : YUL Aéroport Montréal-Trudeau / Centre-Ville Ouest;"";STM;747-O;Station Berri-UQAM (1621 rue Berri);Aéroport Pierre-Elliott-Trudeau
354209240;"{\"type\":\"LineString\",\"coordinates\":[[-73.7389457,45.4505011],[-73.7393665,45.4508566],[-73.7397149,45.4511271]]}";51;"";1;50;false;true;true;false;false;false;92.0;0;0;0;0;0;false;61334;2322567160;-73.5790326;45.4826078;61261;6010970605;-73.751615;45.456622;0;11;12;2695858;Bus 747 : YUL Aéroport Montréal-Trudeau / Centre-Ville Ouest;"";STM;747-O;Station Berri-UQAM (1621 rue Berri);Aéroport Pierre-Elliott-Trudeau
354209246;"{\"type\":\"LineString\",\"coordinates\":[[-73.7397149,45.4511271],[-73.7399579,45.4512926],[-73.7400656,45.4513659],[-73.7403303,45.4515567]]}";52;"";1;50;false;true;true;false;false;false;68.0;0;0;0;0;0;false;61334;2322567160;-73.5790326;45.4826078;61261;6010970605;-73.751615;45.456622;0;11;12;2695858;Bus 747 : YUL Aéroport Montréal-Trudeau / Centre-Ville Ouest;"";STM;747-O;Station Berri-UQAM (1621 rue Berri);Aéroport Pierre-Elliott-Trudeau
766514582;"{\"type\":\"LineString\",\"coordinates\":[[-73.7403303,45.4515567],[-73.7407058,45.4517477]]}";53;"";1;50;false;true;true;false;false;false;37.0;0;0;0;0;0;false;61334;2322567160;-73.5790326;45.4826078;61261;6010970605;-73.751615;45.456622;0;11;12;2695858;Bus 747 : YUL Aéroport Montréal-Trudeau / Centre-Ville Ouest;"";STM;747-O;Station Berri-UQAM (1621 rue Berri);Aéroport Pierre-Elliott-Trudeau
354209256;"{\"type\":\"LineString\",\"coordinates\":[[-73.7407058,45.4517477],[-73.7411881,45.4519682]]}";54;"";1;50;false;true;true;false;false;false;45.0;0;0;0;0;0;false;61334;2322567160;-73.5790326;45.4826078;61261;6010970605;-73.751615;45.456622;0;11;12;2695858;Bus 747 : YUL Aéroport Montréal-Trudeau / Centre-Ville Ouest;"";STM;747-O;Station Berri-UQAM (1621 rue Berri);Aéroport Pierre-Elliott-Trudeau
354209259;"{\"type\":\"LineString\",\"coordinates\":[[-73.7411881,45.4519682],[-73.7415036,45.4520945],[-73.7418616,45.4522331]]}";55;"";1;50;false;true;true;false;false;false;61.0;0;0;0;0;0;false;61334;2322567160;-73.5790326;45.4826078;61261;6010970605;-73.751615;45.456622;0;11;12;2695858;Bus 747 : YUL Aéroport Montréal-Trudeau / Centre-Ville Ouest;"";STM;747-O;Station Berri-UQAM (1621 rue Berri);Aéroport Pierre-Elliott-Trudeau
354209262;"{\"type\":\"LineString\",\"coordinates\":[[-73.7418616,45.4522331],[-73.7420132,45.4522942]]}";56;"";2;50;false;true;true;false;false;false;14.0;0;0;0;0;0;false;61334;2322567160;-73.5790326;45.4826078;61261;6010970605;-73.751615;45.456622;0;11;12;2695858;Bus 747 : YUL Aéroport Montréal-Trudeau / Centre-Ville Ouest;"";STM;747-O;Station Berri-UQAM (1621 rue Berri);Aéroport Pierre-Elliott-Trudeau
597861283;"{\"type\":\"LineString\",\"coordinates\":[[-73.7420132,45.4522942],[-73.7423956,45.4524136]]}";57;"";2;50;false;true;true;false;false;false;33.0;0;0;0;0;0;false;61334;2322567160;-73.5790326;45.4826078;61261;6010970605;-73.751615;45.456622;0;11;12;2695858;Bus 747 : YUL Aéroport Montréal-Trudeau / Centre-Ville Ouest;"";STM;747-O;Station Berri-UQAM (1621 rue Berri);Aéroport Pierre-Elliott-Trudeau
354209269;"{\"type\":\"LineString\",\"coordinates\":[[-73.7423956,45.4524136],[-73.7427588,45.4525138],[-73.743082,45.4525867],[-73.7433767,45.4526409],[-73.7437012,45.4526917],[-73.7440596,45.4527391],[-73.7446268,45.4528013],[-73.7451679,45.452857]]}";58;"";2;50;false;true;true;false;false;false;223.0;0;0;0;0;0;false;61334;2322567160;-73.5790326;45.4826078;61261;6010970605;-73.751615;45.456622;0;11;12;2695858;Bus 747 : YUL Aéroport Montréal-Trudeau / Centre-Ville Ouest;"";STM;747-O;Station Berri-UQAM (1621 rue Berri);Aéroport Pierre-Elliott-Trudeau
170992763;"{\"type\":\"LineString\",\"coordinates\":[[-73.7451679,45.452857],[-73.7454525,45.4528823]]}";59;"";3;50;false;true;true;false;false;false;23.0;0;0;0;0;0;false;61334;2322567160;-73.5790326;45.4826078;61261;6010970605;-73.751615;45.456622;0;11;12;2695858;Bus 747 : YUL Aéroport Montréal-Trudeau / Centre-Ville Ouest;"";STM;747-O;Station Berri-UQAM (1621 rue Berri);Aéroport Pierre-Elliott-Trudeau
472392051;"{\"type\":\"LineString\",\"coordinates\":[[-73.7454525,45.4528823],[-73.7462958,45.4530188],[-73.7464377,45.4530574],[-73.7465428,45.4531002],[-73.7467009,45.4531689],[-73.7468217,45.453241],[-73.7468832,45.4532878],[-73.7469481,45.4533502],[-73.7470293,45.4534364],[-73.7470773,45.4535126],[-73.7471352,45.4536402]]}";60;Boulevard Roméo-Vachon Nord;2;50;false;true;true;false;false;false;168.0;0;0;0;0;0;false;61334;2322567160;-73.5790326;45.4826078;61261;6010970605;-73.751615;45.456622;0;11;12;2695858;Bus 747 : YUL Aéroport Montréal-Trudeau / Centre-Ville Ouest;"";STM;747-O;Station Berri-UQAM (1621 rue Berri);Aéroport Pierre-Elliott-Trudeau
287194797;"{\"type\":\"LineString\",\"coordinates\":[[-73.7471352,45.4536402],[-73.7471559,45.453714],[-73.7471701,45.4538217],[-73.7471844,45.4540679]]}";61;Boulevard Roméo-Vachon Nord;3;50;false;true;true;false;false;false;48.0;0;0;0;0;0;false;61334;2322567160;-73.5790326;45.4826078;61261;6010970605;-73.751615;45.456622;0;11;12;2695858;Bus 747 : YUL Aéroport Montréal-Trudeau / Centre-Ville Ouest;"";STM;747-O;Station Berri-UQAM (1621 rue Berri);Aéroport Pierre-Elliott-Trudeau
287194800;"{\"type\":\"LineString\",\"coordinates\":[[-73.7471844,45.4540679],[-73.7471941,45.4542496]]}";62;Boulevard Roméo-Vachon Nord;3;50;false;true;true;false;false;false;21.0;0;0;0;0;0;false;61334;2322567160;-73.5790326;45.4826078;61261;6010970605;-73.751615;45.456622;0;11;12;2695858;Bus 747 : YUL Aéroport Montréal-Trudeau / Centre-Ville Ouest;"";STM;747-O;Station Berri-UQAM (1621 rue Berri);Aéroport Pierre-Elliott-Trudeau
472392052;"{\"type\":\"LineString\",\"coordinates\":[[-73.7471941,45.4542496],[-73.7472332,45.4544844],[-73.7472707,45.4550488],[-73.7472824,45.4552247],[-73.7472672,45.4553476]]}";63;Boulevard Roméo-Vachon Nord;2;50;false;true;true;false;false;false;123.0;0;0;0;0;0;false;61334;2322567160;-73.5790326;45.4826078;61261;6010970605;-73.751615;45.456622;0;11;12;2695858;Bus 747 : YUL Aéroport Montréal-Trudeau / Centre-Ville Ouest;"";STM;747-O;Station Berri-UQAM (1621 rue Berri);Aéroport Pierre-Elliott-Trudeau
47652863;"{\"type\":\"LineString\",\"coordinates\":[[-73.7472672,45.4553476],[-73.747307,45.4558379],[-73.7473139,45.4559233]]}";64;Boulevard Roméo-Vachon Nord;3;50;false;true;true;false;false;false;65.0;0;0;0;0;0;false;61334;2322567160;-73.5790326;45.4826078;61261;6010970605;-73.751615;45.456622;0;11;12;2695858;Bus 747 : YUL Aéroport Montréal-Trudeau / Centre-Ville Ouest;"";STM;747-O;Station Berri-UQAM (1621 rue Berri);Aéroport Pierre-Elliott-Trudeau
472392055;"{\"type\":\"LineString\",\"coordinates\":[[-73.7473139,45.4559233],[-73.7473412,45.4564789]]}";65;Boulevard Roméo-Vachon Nord;4;50;false;true;true;false;false;false;62.0;0;0;0;0;0;false;61334;2322567160;-73.5790326;45.4826078;61261;6010970605;-73.751615;45.456622;0;11;12;2695858;Bus 747 : YUL Aéroport Montréal-Trudeau / Centre-Ville Ouest;"";STM;747-O;Station Berri-UQAM (1621 rue Berri);Aéroport Pierre-Elliott-Trudeau
539342125;"{\"type\":\"LineString\",\"coordinates\":[[-73.7473412,45.4564789],[-73.7474404,45.4568539],[-73.7474634,45.4570466]]}";66;Boulevard Roméo-Vachon Nord (arrivées);2;50;false;true;true;false;false;false;64.0;0;0;0;0;0;false;61334;2322567160;-73.5790326;45.4826078;61261;6010970605;-73.751615;45.456622;0;11;12;2695858;Bus 747 : YUL Aéroport Montréal-Trudeau / Centre-Ville Ouest;"";STM;747-O;Station Berri-UQAM (1621 rue Berri);Aéroport Pierre-Elliott-Trudeau
741870408;"{\"type\":\"LineString\",\"coordinates\":[[-73.7474634,45.4570466],[-73.7474231,45.4571774],[-73.7474579,45.457407],[-73.7475261,45.4574854],[-73.7476331,45.4575561],[-73.7477638,45.4576049],[-73.7480559,45.4576408],[-73.7486632,45.4576244],[-73.7491507,45.457614]]}";67;Taxis et autobus;1;50;false;true;true;false;false;false;183.0;0;0;0;0;0;false;61334;2322567160;-73.5790326;45.4826078;61261;6010970605;-73.751615;45.456622;0;11;12;2695858;Bus 747 : YUL Aéroport Montréal-Trudeau / Centre-Ville Ouest;"";STM;747-O;Station Berri-UQAM (1621 rue Berri);Aéroport Pierre-Elliott-Trudeau
741889017;"{\"type\":\"LineString\",\"coordinates\":[[-73.7491507,45.457614],[-73.7508515,45.4575725]]}";68;Taxis et autobus;1;50;false;true;true;false;false;false;134.0;0;0;0;0;0;false;61334;2322567160;-73.5790326;45.4826078;61261;6010970605;-73.751615;45.456622;0;11;12;2695858;Bus 747 : YUL Aéroport Montréal-Trudeau / Centre-Ville Ouest;"";STM;747-O;Station Berri-UQAM (1621 rue Berri);Aéroport Pierre-Elliott-Trudeau
47564636;"{\"type\":\"LineString\",\"coordinates\":[[-73.7508515,45.4575725],[-73.751199,45.457564],[-73.7513837,45.4575384],[-73.7514962,45.457491],[-73.7515828,45.4574218],[-73.7516251,45.4573252],[-73.751638,45.4572067],[-73.7516054,45.4566239]]}";69;Taxis et autobus;1;50;false;true;true;false;false;false;152.0;0;0;0;0;0;false;61334;2322567160;-73.5790326;45.4826078;61261;6010970605;-73.751615;45.456622;1;11;12;2695858;Bus 747 : YUL Aéroport Montréal-Trudeau / Centre-Ville Ouest;"";STM;747-O;Station Berri-UQAM (1621 rue Berri);Aéroport Pierre-Elliott-Trudeau
