way_id;shape;index;name;nb_lanes;legal_speed;speed_zone_30;oneway;shares_bike;bike_box;bus_lane;dedicated_bus_lane;length;nb_traffic_signals;nb_crossings;nb_stops;nb_give_ways;nb_lvl_crossings;roundabout;stop_id_orig;node_id_orig;coord_x_orig;coord_y_orig;stop_id_dest;node_id_dest;coord_x_dest;coord_y_dest;nb_neighbouring_ways_bus_stop;order_orig;order_dest;id_line;line_name;colour;operator;ref;from;to
3789575;"{\"type\":\"LineString\",\"coordinates\":[[-6.2721187,53.3449729],[-6.2753843,53.3452175],[-6.2758661,53.3452765]]}";1;Merchant's Quay;3;50;false;true;true;false;false;false;254.0;2;0;0;0;0;false;1444;598490680;-6.2737726;53.3449751;1445;255016985;-6.2782663;53.3456598;1;0;1;1229805;37 - Baggot St - Blanchardstown Centre;"";Dublin Bus;37;Baggot Street Lower;Blanchardstown Centre
529166754;"{\"type\":\"LineString\",\"coordinates\":[[-6.2758661,53.3452765],[-6.2761065,53.3453216]]}";2;Usher's Quay;1;50;false;true;true;false;false;false;17.0;1;0;0;0;0;false;1444;598490680;-6.2737726;53.3449751;1445;255016985;-6.2782663;53.3456598;0;0;1;1229805;37 - Baggot St - Blanchardstown Centre;"";Dublin Bus;37;Baggot Street Lower;Blanchardstown Centre
4401781;"{\"type\":\"LineString\",\"coordinates\":[[-6.2761065,53.3453216],[-6.2763663,53.3453704],[-6.2769755,53.3454953],[-6.2775681,53.3456086],[-6.2779602,53.3456829],[-6.278771,53.3458231],[-6.2805357,53.3461452]]}";3;Usher's Quay;1;50;false;true;true;false;false;false;155.5;1;0;0;0;0;false;1444;598490680;-6.2737726;53.3449751;1445;255016985;-6.2782663;53.3456598;1;0;1;1229805;37 - Baggot St - Blanchardstown Centre;"";Dublin Bus;37;Baggot Street Lower;Blanchardstown Centre
4401781;"{\"type\":\"LineString\",\"coordinates\":[[-6.2761065,53.3453216],[-6.2763663,53.3453704],[-6.2769755,53.3454953],[-6.2775681,53.3456086],[-6.2779602,53.3456829],[-6.278771,53.3458231],[-6.2805357,53.3461452]]}";1;Usher's Quay;1;50;false;true;true;false;false;false;155.5;1;0;0;0;0;false;1445;255016985;-6.2782663;53.3456598;1647;633552565;-6.2821727;53.3483129;1;1;2;1229805;37 - Baggot St - Blanchardstown Centre;"";Dublin Bus;37;Baggot Street Lower;Blanchardstown Centre
4408221;"{\"type\":\"LineString\",\"coordinates\":[[-6.2805357,53.3461452],[-6.281352,53.3462446]]}";2;Usher's Island;1;50;false;true;true;false;false;false;56.0;1;0;0;0;0;false;1445;255016985;-6.2782663;53.3456598;1647;633552565;-6.2821727;53.3483129;0;1;2;1229805;37 - Baggot St - Blanchardstown Centre;"";Dublin Bus;37;Baggot Street Lower;Blanchardstown Centre
38587823;"{\"type\":\"LineString\",\"coordinates\":[[-6.281352,53.3462446],[-6.2826667,53.346375]]}";3;Usher's Island;3;50;false;true;true;false;false;false;90.0;1;0;0;0;0;false;1445;255016985;-6.2782663;53.3456598;1647;633552565;-6.2821727;53.3483129;0;1;2;1229805;37 - Baggot St - Blanchardstown Centre;"";Dublin Bus;37;Baggot Street Lower;Blanchardstown Centre
4401787;"{\"type\":\"LineString\",\"coordinates\":[[-6.2826667,53.346375],[-6.2826496,53.3464349]]}";4;James Joyce Bridge;3;50;false;false;true;false;false;false;7.0;1;0;0;0;0;false;1445;255016985;-6.2782663;53.3456598;1647;633552565;-6.2821727;53.3483129;0;1;2;1229805;37 - Baggot St - Blanchardstown Centre;"";Dublin Bus;37;Baggot Street Lower;Blanchardstown Centre
14331345;"{\"type\":\"LineString\",\"coordinates\":[[-6.2826496,53.3464349],[-6.2825356,53.3468121]]}";5;James Joyce Bridge;3;50;false;false;false;false;false;false;43.0;0;0;0;0;0;false;1445;255016985;-6.2782663;53.3456598;1647;633552565;-6.2821727;53.3483129;0;1;2;1229805;37 - Baggot St - Blanchardstown Centre;"";Dublin Bus;37;Baggot Street Lower;Blanchardstown Centre
14331347;"{\"type\":\"LineString\",\"coordinates\":[[-6.2825356,53.3468121],[-6.282517,53.3468647]]}";6;James Joyce Bridge;3;50;false;false;true;false;false;false;7.0;1;0;0;0;0;false;1445;255016985;-6.2782663;53.3456598;1647;633552565;-6.2821727;53.3483129;0;1;2;1229805;37 - Baggot St - Blanchardstown Centre;"";Dublin Bus;37;Baggot Street Lower;Blanchardstown Centre
3708465;"{\"type\":\"LineString\",\"coordinates\":[[-6.282517,53.3468647],[-6.2823541,53.3473978],[-6.2823498,53.3474117],[-6.2823444,53.3474277],[-6.2821655,53.3479323],[-6.282077,53.3482789],[-6.2820062,53.3485659]]}";7;Blackhall Place;3;30;false;false;true;false;false;false;97.0;3;0;0;0;0;false;1445;255016985;-6.2782663;53.3456598;1647;633552565;-6.2821727;53.3483129;1;1;2;1229805;37 - Baggot St - Blanchardstown Centre;"";Dublin Bus;37;Baggot Street Lower;Blanchardstown Centre
3708465;"{\"type\":\"LineString\",\"coordinates\":[[-6.282517,53.3468647],[-6.2823541,53.3473978],[-6.2823498,53.3474117],[-6.2823444,53.3474277],[-6.2821655,53.3479323],[-6.282077,53.3482789],[-6.2820062,53.3485659]]}";1;Blackhall Place;3;30;false;false;true;false;false;false;97.0;3;0;0;0;0;false;1647;633552565;-6.2821727;53.3483129;1648;878117184;-6.2827049;53.3510505;1;2;3;1229805;37 - Baggot St - Blanchardstown Centre;"";Dublin Bus;37;Baggot Street Lower;Blanchardstown Centre
377949389;"{\"type\":\"LineString\",\"coordinates\":[[-6.2820062,53.3485659],[-6.28196,53.3487434]]}";2;Blackhall Place;1;30;false;true;true;false;false;false;21.0;1;0;0;0;0;false;1647;633552565;-6.2821727;53.3483129;1648;878117184;-6.2827049;53.3510505;0;2;3;1229805;37 - Baggot St - Blanchardstown Centre;"";Dublin Bus;37;Baggot Street Lower;Blanchardstown Centre
52822147;"{\"type\":\"LineString\",\"coordinates\":[[-6.28196,53.3487434],[-6.2819408,53.3488344],[-6.2818598,53.3492189],[-6.2817434,53.349731],[-6.2817224,53.3500292]]}";3;Blackhall Place;1;30;false;true;true;false;false;false;146.0;2;0;0;0;0;false;1647;633552565;-6.2821727;53.3483129;1648;878117184;-6.2827049;53.3510505;0;2;3;1229805;37 - Baggot St - Blanchardstown Centre;"";Dublin Bus;37;Baggot Street Lower;Blanchardstown Centre
125814598;"{\"type\":\"LineString\",\"coordinates\":[[-6.2817224,53.3500292],[-6.2817388,53.3500821],[-6.2818471,53.3503863]]}";4;Stoneybatter;1;50;false;false;true;false;false;false;41.0;1;0;0;0;0;false;1647;633552565;-6.2821727;53.3483129;1648;878117184;-6.2827049;53.3510505;0;2;3;1229805;37 - Baggot St - Blanchardstown Centre;"";Dublin Bus;37;Baggot Street Lower;Blanchardstown Centre
125814738;"{\"type\":\"LineString\",\"coordinates\":[[-6.2818471,53.3503863],[-6.2818632,53.3504312],[-6.2819195,53.3505285],[-6.2819851,53.3506209],[-6.2820499,53.3506833],[-6.2821163,53.3507358],[-6.2824459,53.3509467],[-6.2825766,53.3510429],[-6.2826775,53.351115],[-6.2827638,53.351185]]}";5;Stoneybatter;2;50;false;false;true;false;false;false;55.5;0;0;0;0;0;false;1647;633552565;-6.2821727;53.3483129;1648;878117184;-6.2827049;53.3510505;1;2;3;1229805;37 - Baggot St - Blanchardstown Centre;"";Dublin Bus;37;Baggot Street Lower;Blanchardstown Centre
563891693;"{\"type\":\"LineString\",\"coordinates\":[[-6.2827638,53.351185],[-6.2827967,53.3512117]]}";1;Stoneybatter;1;50;false;false;true;false;false;false;4.0;0;0;0;0;0;false;1648;878117184;-6.2827049;53.3510505;1649;878120750;-6.2842601;53.3525551;2;3;4;1229805;37 - Baggot St - Blanchardstown Centre;"";Dublin Bus;37;Baggot Street Lower;Blanchardstown Centre
3708463;"{\"type\":\"LineString\",\"coordinates\":[[-6.2827967,53.3512117],[-6.2828962,53.3513085],[-6.283045,53.3514549],[-6.2832422,53.351665],[-6.2834093,53.3518549],[-6.2836662,53.3521088],[-6.2839247,53.3523587],[-6.283967,53.3524013],[-6.284001,53.3524355],[-6.2841676,53.3525907],[-6.2843366,53.3527175],[-6.284565,53.3528726],[-6.2848424,53.3530223]]}";2;Manor Street;1;50;false;false;true;false;false;false;247.0;0;0;0;0;0;false;1648;878117184;-6.2827049;53.3510505;1649;878120750;-6.2842601;53.3525551;2;3;4;1229805;37 - Baggot St - Blanchardstown Centre;"";Dublin Bus;37;Baggot Street Lower;Blanchardstown Centre
3708463;"{\"type\":\"LineString\",\"coordinates\":[[-6.2827967,53.3512117],[-6.2828962,53.3513085],[-6.283045,53.3514549],[-6.2832422,53.351665],[-6.2834093,53.3518549],[-6.2836662,53.3521088],[-6.2839247,53.3523587],[-6.283967,53.3524013],[-6.284001,53.3524355],[-6.2841676,53.3525907],[-6.2843366,53.3527175],[-6.284565,53.3528726],[-6.2848424,53.3530223]]}";1;Manor Street;1;50;false;false;true;false;false;false;123.5;0;0;0;0;0;false;1649;878120750;-6.2842601;53.3525551;1911;878122148;-6.2883113;53.3565524;1;4;5;1229805;37 - Baggot St - Blanchardstown Centre;"";Dublin Bus;37;Baggot Street Lower;Blanchardstown Centre
563891691;"{\"type\":\"LineString\",\"coordinates\":[[-6.2848424,53.3530223],[-6.2849544,53.3530905],[-6.2851172,53.3531884],[-6.2852891,53.3533073]]}";2;Manor Street;1;50;false;false;true;false;false;false;44.0;0;0;0;0;0;false;1649;878120750;-6.2842601;53.3525551;1911;878122148;-6.2883113;53.3565524;0;4;5;1229805;37 - Baggot St - Blanchardstown Centre;"";Dublin Bus;37;Baggot Street Lower;Blanchardstown Centre
563891690;"{\"type\":\"LineString\",\"coordinates\":[[-6.2852891,53.3533073],[-6.285446,53.3534234],[-6.2856104,53.3535551]]}";3;Prussia Street;2;50;false;false;false;false;false;false;36.0;1;0;0;0;0;false;1649;878120750;-6.2842601;53.3525551;1911;878122148;-6.2883113;53.3565524;0;4;5;1229805;37 - Baggot St - Blanchardstown Centre;"";Dublin Bus;37;Baggot Street Lower;Blanchardstown Centre
3708464;"{\"type\":\"LineString\",\"coordinates\":[[-6.2856104,53.3535551],[-6.2857655,53.3536727],[-6.2859506,53.3538038],[-6.2860595,53.3538799],[-6.2861787,53.3539614],[-6.286589,53.3542806],[-6.2868433,53.3544914],[-6.2869486,53.3545924],[-6.2872141,53.3548829],[-6.287273,53.3549524],[-6.2873895,53.3551068],[-6.2874903,53.3552447],[-6.2876574,53.3555511],[-6.2876763,53.3555922],[-6.2879671,53.3562047],[-6.2880297,53.3563172],[-6.2880917,53.3564054],[-6.2881429,53.3564753]]}";4;Prussia Street;2;50;false;false;true;false;false;false;374.0;0;0;0;0;0;false;1649;878120750;-6.2842601;53.3525551;1911;878122148;-6.2883113;53.3565524;0;4;5;1229805;37 - Baggot St - Blanchardstown Centre;"";Dublin Bus;37;Baggot Street Lower;Blanchardstown Centre
563891689;"{\"type\":\"LineString\",\"coordinates\":[[-6.2881429,53.3564753],[-6.2881808,53.3565272],[-6.2883716,53.3567647],[-6.2886219,53.3570686],[-6.288812,53.3572173]]}";5;Prussia Street;2;50;false;false;true;false;false;false;47.5;1;0;0;0;0;false;1649;878120750;-6.2842601;53.3525551;1911;878122148;-6.2883113;53.3565524;1;4;5;1229805;37 - Baggot St - Blanchardstown Centre;"";Dublin Bus;37;Baggot Street Lower;Blanchardstown Centre
3708464;"{\"type\":\"LineString\",\"coordinates\":[[-6.2856104,53.3535551],[-6.2857655,53.3536727],[-6.2859506,53.3538038],[-6.2860595,53.3538799],[-6.2861787,53.3539614],[-6.286589,53.3542806],[-6.2868433,53.3544914],[-6.2869486,53.3545924],[-6.2872141,53.3548829],[-6.287273,53.3549524],[-6.2873895,53.3551068],[-6.2874903,53.3552447],[-6.2876574,53.3555511],[-6.2876763,53.3555922],[-6.2879671,53.3562047],[-6.2880297,53.3563172],[-6.2880917,53.3564054],[-6.2881429,53.3564753]]}";1;Prussia Street;2;50;false;false;true;false;false;false;374.0;0;0;0;0;0;false;1911;878122148;-6.2883113;53.3565524;802;955161507;-6.2912537;53.3565079;2;5;6;1229805;37 - Baggot St - Blanchardstown Centre;"";Dublin Bus;37;Baggot Street Lower;Blanchardstown Centre
563891689;"{\"type\":\"LineString\",\"coordinates\":[[-6.2881429,53.3564753],[-6.2881808,53.3565272],[-6.2883716,53.3567647],[-6.2886219,53.3570686],[-6.288812,53.3572173]]}";2;Prussia Street;2;50;false;false;true;false;false;false;95.0;1;0;0;0;0;false;1911;878122148;-6.2883113;53.3565524;802;955161507;-6.2912537;53.3565079;0;5;6;1229805;37 - Baggot St - Blanchardstown Centre;"";Dublin Bus;37;Baggot Street Lower;Blanchardstown Centre
367873916;"{\"type\":\"LineString\",\"coordinates\":[[-6.2899682,53.3570298],[-6.2895471,53.3570959],[-6.28914,53.3571592],[-6.2889547,53.3571869],[-6.288812,53.3572173]]}";3;North Circular Road;2;50;false;false;false;false;false;false;81.0;1;0;0;0;0;false;1911;878122148;-6.2883113;53.3565524;802;955161507;-6.2912537;53.3565079;0;5;6;1229805;37 - Baggot St - Blanchardstown Centre;"";Dublin Bus;37;Baggot Street Lower;Blanchardstown Centre
563891696;"{\"type\":\"LineString\",\"coordinates\":[[-6.2906769,53.3568869],[-6.2905375,53.3569245],[-6.2903843,53.3569566],[-6.2899682,53.3570298]]}";4;North Circular Road;2;50;false;false;false;false;false;false;51.0;0;0;0;0;0;false;1911;878122148;-6.2883113;53.3565524;802;955161507;-6.2912537;53.3565079;0;5;6;1229805;37 - Baggot St - Blanchardstown Centre;"";Dublin Bus;37;Baggot Street Lower;Blanchardstown Centre
81982579;"{\"type\":\"LineString\",\"coordinates\":[[-6.2924127,53.3557795],[-6.2922715,53.3558704],[-6.2922342,53.3558944],[-6.2917367,53.3562361],[-6.2912598,53.356563],[-6.291003,53.3567329],[-6.2907885,53.3568484],[-6.2906769,53.3568869]]}";5;North Circular Road;2;50;false;false;false;false;false;false;171.0;1;0;0;0;0;false;1911;878122148;-6.2883113;53.3565524;802;955161507;-6.2912537;53.3565079;2;5;6;1229805;37 - Baggot St - Blanchardstown Centre;"";Dublin Bus;37;Baggot Street Lower;Blanchardstown Centre
81982579;"{\"type\":\"LineString\",\"coordinates\":[[-6.2924127,53.3557795],[-6.2922715,53.3558704],[-6.2922342,53.3558944],[-6.2917367,53.3562361],[-6.2912598,53.356563],[-6.291003,53.3567329],[-6.2907885,53.3568484],[-6.2906769,53.3568869]]}";1;North Circular Road;2;50;false;false;false;false;false;false;85.5;1;0;0;0;0;false;802;955161507;-6.2912537;53.3565079;1654;955161494;-6.2941381;53.3560875;1;6;7;1229805;37 - Baggot St - Blanchardstown Centre;"";Dublin Bus;37;Baggot Street Lower;Blanchardstown Centre
5825858;"{\"type\":\"LineString\",\"coordinates\":[[-6.2954494,53.3562937],[-6.2952647,53.3562698],[-6.2946502,53.3562057],[-6.2944328,53.3561772],[-6.294101,53.356135],[-6.2935444,53.3560537],[-6.2932479,53.3559937],[-6.2929305,53.3559174],[-6.2928298,53.3558912],[-6.2926115,53.3558343],[-6.292507,53.3558075],[-6.2924127,53.3557795]]}";2;Blackhorse Avenue;2;50;false;false;true;false;false;false;106.5;1;0;0;0;0;false;802;955161507;-6.2912537;53.3565079;1654;955161494;-6.2941381;53.3560875;1;6;7;1229805;37 - Baggot St - Blanchardstown Centre;"";Dublin Bus;37;Baggot Street Lower;Blanchardstown Centre
5825858;"{\"type\":\"LineString\",\"coordinates\":[[-6.2954494,53.3562937],[-6.2952647,53.3562698],[-6.2946502,53.3562057],[-6.2944328,53.3561772],[-6.294101,53.356135],[-6.2935444,53.3560537],[-6.2932479,53.3559937],[-6.2929305,53.3559174],[-6.2928298,53.3558912],[-6.2926115,53.3558343],[-6.292507,53.3558075],[-6.2924127,53.3557795]]}";1;Blackhorse Avenue;2;50;false;false;true;false;false;false;106.5;1;0;0;0;0;false;1654;955161494;-6.2941381;53.3560875;1655;955161500;-6.2969373;53.3567141;1;7;8;1229805;37 - Baggot St - Blanchardstown Centre;"";Dublin Bus;37;Baggot Street Lower;Blanchardstown Centre
5825859;"{\"type\":\"LineString\",\"coordinates\":[[-6.295765,53.3563669],[-6.2954494,53.3562937]]}";2;Blackhorse Avenue;2;50;false;false;true;false;false;false;23.0;0;0;0;0;0;false;1654;955161494;-6.2941381;53.3560875;1655;955161500;-6.2969373;53.3567141;0;7;8;1229805;37 - Baggot St - Blanchardstown Centre;"";Dublin Bus;37;Baggot Street Lower;Blanchardstown Centre
81982578;"{\"type\":\"LineString\",\"coordinates\":[[-6.3099042,53.3617523],[-6.3097106,53.3614902],[-6.3095976,53.3613376],[-6.3095008,53.3612587],[-6.3093941,53.3611878],[-6.3093514,53.3611654],[-6.3087379,53.3608432],[-6.3076731,53.3602405],[-6.3066874,53.3596683],[-6.3064148,53.3595147],[-6.3062562,53.3594283],[-6.3061826,53.3593995],[-6.3060779,53.3593586],[-6.3057885,53.3592698],[-6.3052276,53.3591338],[-6.3043971,53.3589235],[-6.3041185,53.3588349],[-6.3037555,53.3586964],[-6.3034173,53.3585853],[-6.3030527,53.3584798],[-6.3028859,53.3584384],[-6.302078,53.3582378],[-6.30133,53.3580521],[-6.3008626,53.3579146],[-6.3004464,53.3577757],[-6.2992796,53.3574429],[-6.298044,53.3571152],[-6.2977036,53.3570073],[-6.2964916,53.3566231],[-6.29638,53.3565877],[-6.2960883,53.3564849],[-6.2959222,53.3564234],[-6.295765,53.3563669]]}";3;Blackhorse Avenue;2;50;false;false;true;false;false;false;572.5;0;1;0;0;0;false;1654;955161494;-6.2941381;53.3560875;1655;955161500;-6.2969373;53.3567141;1;7;8;1229805;37 - Baggot St - Blanchardstown Centre;"";Dublin Bus;37;Baggot Street Lower;Blanchardstown Centre
81982578;"{\"type\":\"LineString\",\"coordinates\":[[-6.3099042,53.3617523],[-6.3097106,53.3614902],[-6.3095976,53.3613376],[-6.3095008,53.3612587],[-6.3093941,53.3611878],[-6.3093514,53.3611654],[-6.3087379,53.3608432],[-6.3076731,53.3602405],[-6.3066874,53.3596683],[-6.3064148,53.3595147],[-6.3062562,53.3594283],[-6.3061826,53.3593995],[-6.3060779,53.3593586],[-6.3057885,53.3592698],[-6.3052276,53.3591338],[-6.3043971,53.3589235],[-6.3041185,53.3588349],[-6.3037555,53.3586964],[-6.3034173,53.3585853],[-6.3030527,53.3584798],[-6.3028859,53.3584384],[-6.302078,53.3582378],[-6.30133,53.3580521],[-6.3008626,53.3579146],[-6.3004464,53.3577757],[-6.2992796,53.3574429],[-6.298044,53.3571152],[-6.2977036,53.3570073],[-6.2964916,53.3566231],[-6.29638,53.3565877],[-6.2960883,53.3564849],[-6.2959222,53.3564234],[-6.295765,53.3563669]]}";1;Blackhorse Avenue;2;50;false;false;true;false;false;false;572.5;0;1;0;0;0;false;"";955161512;-6.3080669;53.3604299;1658;955161502;-6.309475;53.3619623;1;11;12;1229805;37 - Baggot St - Blanchardstown Centre;"";Dublin Bus;37;Baggot Street Lower;Blanchardstown Centre
3191573;"{\"type\":\"LineString\",\"coordinates\":[[-6.3039383,53.3634886],[-6.3040154,53.3634208],[-6.3040987,53.3633726],[-6.3044325,53.363284],[-6.3056407,53.3629468],[-6.3058738,53.3628782],[-6.3065728,53.3626839],[-6.30708,53.3625455],[-6.3078225,53.3623439],[-6.3079256,53.3623181],[-6.3080395,53.3622937],[-6.3088214,53.362095],[-6.3089529,53.3620542],[-6.3090833,53.3620325],[-6.3094331,53.361925],[-6.3099042,53.3617523]]}";2;Skreen Road;2;50;false;false;true;false;false;false;223.5;0;0;0;0;0;false;"";955161512;-6.3080669;53.3604299;1658;955161502;-6.309475;53.3619623;1;11;12;1229805;37 - Baggot St - Blanchardstown Centre;"";Dublin Bus;37;Baggot Street Lower;Blanchardstown Centre
3191573;"{\"type\":\"LineString\",\"coordinates\":[[-6.3039383,53.3634886],[-6.3040154,53.3634208],[-6.3040987,53.3633726],[-6.3044325,53.363284],[-6.3056407,53.3629468],[-6.3058738,53.3628782],[-6.3065728,53.3626839],[-6.30708,53.3625455],[-6.3078225,53.3623439],[-6.3079256,53.3623181],[-6.3080395,53.3622937],[-6.3088214,53.362095],[-6.3089529,53.3620542],[-6.3090833,53.3620325],[-6.3094331,53.361925],[-6.3099042,53.3617523]]}";1;Skreen Road;2;50;false;false;true;false;false;false;223.5;0;0;0;0;0;false;1659;955161509;-6.3046532;53.3632633;1667;955192803;-6.3345431;53.3709415;1;13;14;1229805;37 - Baggot St - Blanchardstown Centre;"";Dublin Bus;37;Baggot Street Lower;Blanchardstown Centre
4253696;"{\"type\":\"LineString\",\"coordinates\":[[-6.3082836,53.3649239],[-6.3080565,53.3648476],[-6.3078718,53.364793],[-6.3073849,53.3646366],[-6.3049246,53.3638234],[-6.3041491,53.3635601],[-6.3039383,53.3634886]]}";2;Navan Road;2;50;false;false;false;false;false;false;333.0;1;1;0;0;0;false;1659;955161509;-6.3046532;53.3632633;1667;955192803;-6.3345431;53.3709415;0;13;14;1229805;37 - Baggot St - Blanchardstown Centre;"";Dublin Bus;37;Baggot Street Lower;Blanchardstown Centre
4253693;"{\"type\":\"LineString\",\"coordinates\":[[-6.3082836,53.3649239],[-6.3084887,53.3649816],[-6.3085744,53.3650096],[-6.309231,53.3652238],[-6.3096409,53.3653566],[-6.3102151,53.3655577],[-6.3104373,53.3656316],[-6.3109708,53.3658052],[-6.3113683,53.3659413],[-6.3116609,53.3660415],[-6.3119681,53.3661467],[-6.3122773,53.3662525],[-6.3125257,53.3663376],[-6.3125855,53.3663536],[-6.3129526,53.3664727],[-6.3130209,53.3664952],[-6.3131299,53.3665302],[-6.3134558,53.3666405],[-6.3137726,53.3667502],[-6.3143289,53.3669184],[-6.3147455,53.3670247],[-6.3149653,53.3670808],[-6.3154472,53.3671937],[-6.3174968,53.3676544],[-6.3175271,53.3676614],[-6.317638,53.3676854],[-6.3178501,53.3677292],[-6.3179092,53.3677414],[-6.3181143,53.3677898]]}";3;Navan Road;1;50;false;false;false;false;false;false;735.0;2;1;0;0;0;false;1659;955161509;-6.3046532;53.3632633;1667;955192803;-6.3345431;53.3709415;0;13;14;1229805;37 - Baggot St - Blanchardstown Centre;"";Dublin Bus;37;Baggot Street Lower;Blanchardstown Centre
200170064;"{\"type\":\"LineString\",\"coordinates\":[[-6.3181143,53.3677898],[-6.318511,53.3678729],[-6.3195089,53.3680953],[-6.3199679,53.3682162],[-6.3203347,53.3683204],[-6.3204162,53.3683478],[-6.3212977,53.3686447],[-6.3219073,53.36885],[-6.3223942,53.369014],[-6.3225479,53.3690658],[-6.3236154,53.3694233],[-6.3237367,53.3694615],[-6.3237874,53.3694768],[-6.3241932,53.3696104]]}";4;Navan Road;3;50;false;false;false;false;false;false;457.0;1;0;0;0;0;false;1659;955161509;-6.3046532;53.3632633;1667;955192803;-6.3345431;53.3709415;0;13;14;1229805;37 - Baggot St - Blanchardstown Centre;"";Dublin Bus;37;Baggot Street Lower;Blanchardstown Centre
292300701;"{\"type\":\"LineString\",\"coordinates\":[[-6.3241932,53.3696104],[-6.3242409,53.3696237],[-6.3243353,53.3696569],[-6.3243847,53.3696732],[-6.3246009,53.3697395],[-6.3252661,53.3699463],[-6.3261137,53.3702098],[-6.3276647,53.3707014],[-6.3277218,53.3707203],[-6.3281362,53.3708589],[-6.3284611,53.3709694],[-6.3288184,53.3710898]]}";5;Navan Road;3;50;false;false;false;false;false;false;352.0;1;0;0;0;0;false;1659;955161509;-6.3046532;53.3632633;1667;955192803;-6.3345431;53.3709415;0;13;14;1229805;37 - Baggot St - Blanchardstown Centre;"";Dublin Bus;37;Baggot Street Lower;Blanchardstown Centre
361450283;"{\"type\":\"LineString\",\"coordinates\":[[-6.3288184,53.3710898],[-6.3288993,53.3711176],[-6.3291263,53.3711945],[-6.3291824,53.3712135],[-6.3292302,53.3712313],[-6.3295037,53.3713224]]}";6;Navan Road;1;50;false;false;false;false;false;false;53.0;1;1;0;0;0;false;1659;955161509;-6.3046532;53.3632633;1667;955192803;-6.3345431;53.3709415;0;13;14;1229805;37 - Baggot St - Blanchardstown Centre;"";Dublin Bus;37;Baggot Street Lower;Blanchardstown Centre
26578115;"{\"type\":\"LineString\",\"coordinates\":[[-6.3295037,53.3713224],[-6.3299276,53.3714655],[-6.3304593,53.3716389],[-6.3306141,53.3716901],[-6.3310912,53.3718544]]}";7;Navan Road;4;50;false;false;false;false;false;false;122.0;0;0;0;0;0;false;1659;955161509;-6.3046532;53.3632633;1667;955192803;-6.3345431;53.3709415;0;13;14;1229805;37 - Baggot St - Blanchardstown Centre;"";Dublin Bus;37;Baggot Street Lower;Blanchardstown Centre
298356700;"{\"type\":\"LineString\",\"coordinates\":[[-6.3310912,53.3718544],[-6.3315063,53.3719432],[-6.3316634,53.3719531],[-6.3317389,53.3719523]]}";8;Navan Road;2;50;false;true;true;false;false;false;46.0;0;0;0;0;0;false;1659;955161509;-6.3046532;53.3632633;1667;955192803;-6.3345431;53.3709415;0;13;14;1229805;37 - Baggot St - Blanchardstown Centre;"";Dublin Bus;37;Baggot Street Lower;Blanchardstown Centre
509873366;"{\"type\":\"LineString\",\"coordinates\":[[-6.3317389,53.3719523],[-6.3318042,53.3719419],[-6.3318719,53.3719413]]}";9;Ashtown Roundabout;2;50;false;false;true;false;false;false;10.0;0;0;0;0;0;true;1659;955161509;-6.3046532;53.3632633;1667;955192803;-6.3345431;53.3709415;0;13;14;1229805;37 - Baggot St - Blanchardstown Centre;"";Dublin Bus;37;Baggot Street Lower;Blanchardstown Centre
298356703;"{\"type\":\"LineString\",\"coordinates\":[[-6.3318719,53.3719413],[-6.3319585,53.3719169],[-6.3320239,53.3719002],[-6.3321497,53.3718552]]}";10;"";1;50;false;true;true;false;false;false;21.0;0;0;0;0;0;false;1659;955161509;-6.3046532;53.3632633;1667;955192803;-6.3345431;53.3709415;0;13;14;1229805;37 - Baggot St - Blanchardstown Centre;"";Dublin Bus;37;Baggot Street Lower;Blanchardstown Centre
4675060;"{\"type\":\"LineString\",\"coordinates\":[[-6.3336141,53.3709289],[-6.3333844,53.3710337],[-6.3331901,53.3711665],[-6.3329274,53.3713798],[-6.3326042,53.371597],[-6.332486,53.371682],[-6.3321687,53.3718431],[-6.3321497,53.3718552]]}";11;"";2;60;false;false;true;false;false;false;144.0;0;1;0;0;0;false;1659;955161509;-6.3046532;53.3632633;1667;955192803;-6.3345431;53.3709415;0;13;14;1229805;37 - Baggot St - Blanchardstown Centre;"";Dublin Bus;37;Baggot Street Lower;Blanchardstown Centre
32111861;"{\"type\":\"LineString\",\"coordinates\":[[-6.3368501,53.3713726],[-6.3364168,53.3712409],[-6.3362519,53.3712036],[-6.3360188,53.3711664],[-6.3356698,53.3711184],[-6.3352265,53.3710619],[-6.3342919,53.3709466],[-6.3338936,53.3709028],[-6.333784,53.3708997],[-6.3336141,53.3709289]]}";12;Castleknock Road;2;60;false;false;true;false;false;false;113.0;0;0;0;0;0;false;1659;955161509;-6.3046532;53.3632633;1667;955192803;-6.3345431;53.3709415;1;13;14;1229805;37 - Baggot St - Blanchardstown Centre;"";Dublin Bus;37;Baggot Street Lower;Blanchardstown Centre
32111861;"{\"type\":\"LineString\",\"coordinates\":[[-6.3368501,53.3713726],[-6.3364168,53.3712409],[-6.3362519,53.3712036],[-6.3360188,53.3711664],[-6.3356698,53.3711184],[-6.3352265,53.3710619],[-6.3342919,53.3709466],[-6.3338936,53.3709028],[-6.333784,53.3708997],[-6.3336141,53.3709289]]}";1;Castleknock Road;2;60;false;false;true;false;false;false;113.0;0;0;0;0;0;false;1667;955192803;-6.3345431;53.3709415;"";955192731;-6.3446912;53.3702428;1;14;15;1229805;37 - Baggot St - Blanchardstown Centre;"";Dublin Bus;37;Baggot Street Lower;Blanchardstown Centre
32111862;"{\"type\":\"LineString\",\"coordinates\":[[-6.3368469,53.3714516],[-6.336838,53.3714119],[-6.3368501,53.3713726],[-6.3368811,53.3713379],[-6.3369282,53.3713105],[-6.336987,53.3712929],[-6.337052,53.3712867],[-6.3371171,53.3712925],[-6.3371762,53.3713098],[-6.3372237,53.371337],[-6.3372565,53.3713734],[-6.3372681,53.3714142],[-6.3372574,53.371455],[-6.3372255,53.3714917],[-6.3371757,53.3715204],[-6.3371132,53.3715382],[-6.3370467,53.3715433],[-6.3369808,53.3715359],[-6.3369219,53.3715167],[-6.3368758,53.3714877],[-6.3368469,53.3714516]]}";2;"";1;60;false;false;true;false;false;false;91.0;0;0;0;0;0;true;1667;955192803;-6.3345431;53.3709415;"";955192731;-6.3446912;53.3702428;0;14;15;1229805;37 - Baggot St - Blanchardstown Centre;"";Dublin Bus;37;Baggot Street Lower;Blanchardstown Centre
3729034;"{\"type\":\"LineString\",\"coordinates\":[[-6.3487698,53.3698043],[-6.3485655,53.3697762],[-6.3484085,53.3697889],[-6.347231,53.3699432],[-6.3469262,53.3699839],[-6.3445472,53.3703018],[-6.3432822,53.3704712],[-6.3421407,53.3706241],[-6.3406168,53.3708301],[-6.3403638,53.3708562],[-6.3386494,53.3710809],[-6.3378471,53.3711905],[-6.3375966,53.3712351],[-6.3374183,53.3712788],[-6.3372237,53.371337]]}";3;Castleknock Road;2;60;false;false;true;false;false;false;397.5;1;1;0;0;0;false;1667;955192803;-6.3345431;53.3709415;"";955192731;-6.3446912;53.3702428;1;14;15;1229805;37 - Baggot St - Blanchardstown Centre;"";Dublin Bus;37;Baggot Street Lower;Blanchardstown Centre
3729034;"{\"type\":\"LineString\",\"coordinates\":[[-6.3487698,53.3698043],[-6.3485655,53.3697762],[-6.3484085,53.3697889],[-6.347231,53.3699432],[-6.3469262,53.3699839],[-6.3445472,53.3703018],[-6.3432822,53.3704712],[-6.3421407,53.3706241],[-6.3406168,53.3708301],[-6.3403638,53.3708562],[-6.3386494,53.3710809],[-6.3378471,53.3711905],[-6.3375966,53.3712351],[-6.3374183,53.3712788],[-6.3372237,53.371337]]}";1;Castleknock Road;2;60;false;false;true;false;false;false;397.5;1;1;0;0;0;false;1668;955192957;-6.3402638;53.370822;1670;955192811;-6.3506478;53.3702641;1;16;17;1229805;37 - Baggot St - Blanchardstown Centre;"";Dublin Bus;37;Baggot Street Lower;Blanchardstown Centre
84678065;"{\"type\":\"LineString\",\"coordinates\":[[-6.3585157,53.3719158],[-6.358167,53.3718468],[-6.3578952,53.3717787],[-6.3576582,53.3717066],[-6.3572863,53.3715845],[-6.3569898,53.3714983],[-6.3568754,53.371465],[-6.3564766,53.3713626],[-6.3564324,53.3713512],[-6.3561679,53.3713015],[-6.3559078,53.3712521],[-6.3556886,53.3712235],[-6.3555618,53.3712091],[-6.3554671,53.3711983],[-6.3550944,53.3711787],[-6.3547875,53.3711824],[-6.3546405,53.3711841],[-6.3543039,53.3711876],[-6.3540193,53.3711827],[-6.3538693,53.3711724],[-6.3536573,53.371147],[-6.3533865,53.3710981],[-6.3529002,53.370979],[-6.352353,53.3708336],[-6.3514277,53.3705634],[-6.3511896,53.3704939],[-6.3509181,53.3704146],[-6.3505751,53.3703145],[-6.3497558,53.3700753],[-6.3494152,53.3699842],[-6.3489131,53.3698499],[-6.3487698,53.3698043]]}";2;Castleknock Road;3;50;false;false;true;false;false;false;351.5;2;0;0;0;0;false;1668;955192957;-6.3402638;53.370822;1670;955192811;-6.3506478;53.3702641;1;16;17;1229805;37 - Baggot St - Blanchardstown Centre;"";Dublin Bus;37;Baggot Street Lower;Blanchardstown Centre
84678065;"{\"type\":\"LineString\",\"coordinates\":[[-6.3585157,53.3719158],[-6.358167,53.3718468],[-6.3578952,53.3717787],[-6.3576582,53.3717066],[-6.3572863,53.3715845],[-6.3569898,53.3714983],[-6.3568754,53.371465],[-6.3564766,53.3713626],[-6.3564324,53.3713512],[-6.3561679,53.3713015],[-6.3559078,53.3712521],[-6.3556886,53.3712235],[-6.3555618,53.3712091],[-6.3554671,53.3711983],[-6.3550944,53.3711787],[-6.3547875,53.3711824],[-6.3546405,53.3711841],[-6.3543039,53.3711876],[-6.3540193,53.3711827],[-6.3538693,53.3711724],[-6.3536573,53.371147],[-6.3533865,53.3710981],[-6.3529002,53.370979],[-6.352353,53.3708336],[-6.3514277,53.3705634],[-6.3511896,53.3704939],[-6.3509181,53.3704146],[-6.3505751,53.3703145],[-6.3497558,53.3700753],[-6.3494152,53.3699842],[-6.3489131,53.3698499],[-6.3487698,53.3698043]]}";1;Castleknock Road;3;50;false;false;true;false;false;false;351.5;2;0;0;0;0;false;1671;955192911;-6.3561114;53.3712084;1672;955192761;-6.3594382;53.3720071;1;18;19;1229805;37 - Baggot St - Blanchardstown Centre;"";Dublin Bus;37;Baggot Street Lower;Blanchardstown Centre
110468435;"{\"type\":\"LineString\",\"coordinates\":[[-6.363729,53.3753134],[-6.3636884,53.3752472],[-6.3636468,53.3751558],[-6.3636278,53.3751141],[-6.3636161,53.3750882],[-6.3635844,53.3749606],[-6.3635526,53.3748328],[-6.3635432,53.3747924],[-6.3634936,53.3745784],[-6.3634595,53.3744334],[-6.3634298,53.3743069],[-6.3634138,53.3742536],[-6.3633824,53.3741587],[-6.3633497,53.3740835],[-6.3633072,53.3739919],[-6.3632274,53.3738648],[-6.3631575,53.3737691],[-6.3630718,53.373658],[-6.3630363,53.3736101],[-6.3629802,53.3735367],[-6.3629672,53.3735196],[-6.3629367,53.373473],[-6.3627877,53.3732455],[-6.3626637,53.3731164],[-6.3625456,53.3730416],[-6.3623888,53.3729748],[-6.3621571,53.3729113],[-6.362021,53.372866],[-6.3618781,53.3728185],[-6.3617747,53.3727732],[-6.3615303,53.3726798],[-6.3613184,53.372587],[-6.3610281,53.3724613],[-6.360908,53.3724093],[-6.3607712,53.3723437],[-6.3606478,53.3722957],[-6.3605137,53.3722525],[-6.3603715,53.3722045],[-6.3600195,53.3721352],[-6.3598031,53.3721036],[-6.359523,53.3720628],[-6.3592808,53.3720275],[-6.3590019,53.3719868],[-6.3589664,53.3719816],[-6.3586301,53.3719325],[-6.3585157,53.3719158]]}";2;Castleknock Road;2;50;false;false;true;false;false;false;286.5;4;1;0;0;0;false;1671;955192911;-6.3561114;53.3712084;1672;955192761;-6.3594382;53.3720071;1;18;19;1229805;37 - Baggot St - Blanchardstown Centre;"";Dublin Bus;37;Baggot Street Lower;Blanchardstown Centre
110468435;"{\"type\":\"LineString\",\"coordinates\":[[-6.363729,53.3753134],[-6.3636884,53.3752472],[-6.3636468,53.3751558],[-6.3636278,53.3751141],[-6.3636161,53.3750882],[-6.3635844,53.3749606],[-6.3635526,53.3748328],[-6.3635432,53.3747924],[-6.3634936,53.3745784],[-6.3634595,53.3744334],[-6.3634298,53.3743069],[-6.3634138,53.3742536],[-6.3633824,53.3741587],[-6.3633497,53.3740835],[-6.3633072,53.3739919],[-6.3632274,53.3738648],[-6.3631575,53.3737691],[-6.3630718,53.373658],[-6.3630363,53.3736101],[-6.3629802,53.3735367],[-6.3629672,53.3735196],[-6.3629367,53.373473],[-6.3627877,53.3732455],[-6.3626637,53.3731164],[-6.3625456,53.3730416],[-6.3623888,53.3729748],[-6.3621571,53.3729113],[-6.362021,53.372866],[-6.3618781,53.3728185],[-6.3617747,53.3727732],[-6.3615303,53.3726798],[-6.3613184,53.372587],[-6.3610281,53.3724613],[-6.360908,53.3724093],[-6.3607712,53.3723437],[-6.3606478,53.3722957],[-6.3605137,53.3722525],[-6.3603715,53.3722045],[-6.3600195,53.3721352],[-6.3598031,53.3721036],[-6.359523,53.3720628],[-6.3592808,53.3720275],[-6.3590019,53.3719868],[-6.3589664,53.3719816],[-6.3586301,53.3719325],[-6.3585157,53.3719158]]}";1;Castleknock Road;2;50;false;false;true;false;false;false;286.5;4;1;0;0;0;false;1673;955192830;-6.3631681;53.3736885;1674;955192960;-6.3662779;53.377521;1;20;21;1229805;37 - Baggot St - Blanchardstown Centre;"";Dublin Bus;37;Baggot Street Lower;Blanchardstown Centre
361248899;"{\"type\":\"LineString\",\"coordinates\":[[-6.3665717,53.3780203],[-6.3665013,53.3778905],[-6.3664459,53.3777927],[-6.3663871,53.3777115],[-6.3662644,53.3776016],[-6.3661168,53.3774762],[-6.365744,53.3772258],[-6.3651524,53.3768327],[-6.3650051,53.3767237],[-6.3647741,53.3765169],[-6.3645523,53.3762842],[-6.3643527,53.3760795],[-6.3641565,53.3758393],[-6.3640392,53.3756895],[-6.3640306,53.3756785],[-6.3638314,53.3754239],[-6.363729,53.3753134]]}";2;Castleknock Road;2;50;false;false;true;false;false;false;181.0;1;0;0;0;0;false;1673;955192830;-6.3631681;53.3736885;1674;955192960;-6.3662779;53.377521;1;20;21;1229805;37 - Baggot St - Blanchardstown Centre;"";Dublin Bus;37;Baggot Street Lower;Blanchardstown Centre
361248899;"{\"type\":\"LineString\",\"coordinates\":[[-6.3665717,53.3780203],[-6.3665013,53.3778905],[-6.3664459,53.3777927],[-6.3663871,53.3777115],[-6.3662644,53.3776016],[-6.3661168,53.3774762],[-6.365744,53.3772258],[-6.3651524,53.3768327],[-6.3650051,53.3767237],[-6.3647741,53.3765169],[-6.3645523,53.3762842],[-6.3643527,53.3760795],[-6.3641565,53.3758393],[-6.3640392,53.3756895],[-6.3640306,53.3756785],[-6.3638314,53.3754239],[-6.363729,53.3753134]]}";1;Castleknock Road;2;50;false;false;true;false;false;false;181.0;1;0;0;0;0;false;1674;955192960;-6.3662779;53.377521;1675;955192717;-6.3675493;53.3792693;1;21;22;1229805;37 - Baggot St - Blanchardstown Centre;"";Dublin Bus;37;Baggot Street Lower;Blanchardstown Centre
3729033;"{\"type\":\"LineString\",\"coordinates\":[[-6.3666101,53.3780767],[-6.36657,53.3780216],[-6.3665717,53.3780203]]}";2;Castleknock Road;2;50;false;false;true;false;false;false;7.0;0;0;0;0;0;false;1674;955192960;-6.3662779;53.377521;1675;955192717;-6.3675493;53.3792693;0;21;22;1229805;37 - Baggot St - Blanchardstown Centre;"";Dublin Bus;37;Baggot Street Lower;Blanchardstown Centre
338675970;"{\"type\":\"LineString\",\"coordinates\":[[-6.3666101,53.3780767],[-6.366678,53.3780711],[-6.3667451,53.3780792],[-6.3668039,53.3781],[-6.366848,53.3781313],[-6.3668736,53.3781734],[-6.3668721,53.3782181],[-6.3668436,53.3782596],[-6.366792,53.3782921],[-6.3667243,53.3783114]]}";3;"";1;50;false;false;true;false;false;false;44.0;0;0;0;0;0;true;1674;955192960;-6.3662779;53.377521;1675;955192717;-6.3675493;53.3792693;0;21;22;1229805;37 - Baggot St - Blanchardstown Centre;"";Dublin Bus;37;Baggot Street Lower;Blanchardstown Centre
4684259;"{\"type\":\"LineString\",\"coordinates\":[[-6.3668639,53.3786241],[-6.3668015,53.3785466],[-6.3667944,53.3785377],[-6.3667715,53.3784961],[-6.3667612,53.3784481],[-6.3667582,53.3784191],[-6.3667528,53.378398],[-6.3667243,53.3783114]]}";4;Castleknock Road;2;50;false;false;true;false;false;false;37.0;0;0;0;0;0;false;1674;955192960;-6.3662779;53.377521;1675;955192717;-6.3675493;53.3792693;0;21;22;1229805;37 - Baggot St - Blanchardstown Centre;"";Dublin Bus;37;Baggot Street Lower;Blanchardstown Centre
4684258;"{\"type\":\"LineString\",\"coordinates\":[[-6.3673641,53.3792002],[-6.3668639,53.3786241]]}";5;Castleknock Road;2;50;false;false;true;false;false;false;73.0;0;0;0;0;0;false;1674;955192960;-6.3662779;53.377521;1675;955192717;-6.3675493;53.3792693;0;21;22;1229805;37 - Baggot St - Blanchardstown Centre;"";Dublin Bus;37;Baggot Street Lower;Blanchardstown Centre
81982575;"{\"type\":\"LineString\",\"coordinates\":[[-6.3692711,53.3805426],[-6.3691209,53.3804402],[-6.3689574,53.3803326],[-6.3687768,53.380214],[-6.3685768,53.3800777],[-6.3683542,53.3799526],[-6.3683201,53.3799349],[-6.3681426,53.3798242],[-6.3679407,53.379701],[-6.3677154,53.3795266],[-6.3673641,53.3792002]]}";6;Castleknock Road;2;50;false;false;true;false;false;false;99.0;1;0;0;0;0;false;1674;955192960;-6.3662779;53.377521;1675;955192717;-6.3675493;53.3792693;1;21;22;1229805;37 - Baggot St - Blanchardstown Centre;"";Dublin Bus;37;Baggot Street Lower;Blanchardstown Centre
4684258;"{\"type\":\"LineString\",\"coordinates\":[[-6.3673641,53.3792002],[-6.3668639,53.3786241]]}";1;Castleknock Road;2;50;false;false;true;false;false;false;73.0;0;0;0;0;0;false;1675;955192717;-6.3675493;53.3792693;"";955192863;-6.3721437;53.3787734;2;22;23;1229805;37 - Baggot St - Blanchardstown Centre;"";Dublin Bus;37;Baggot Street Lower;Blanchardstown Centre
81982575;"{\"type\":\"LineString\",\"coordinates\":[[-6.3692711,53.3805426],[-6.3691209,53.3804402],[-6.3689574,53.3803326],[-6.3687768,53.380214],[-6.3685768,53.3800777],[-6.3683542,53.3799526],[-6.3683201,53.3799349],[-6.3681426,53.3798242],[-6.3679407,53.379701],[-6.3677154,53.3795266],[-6.3673641,53.3792002]]}";2;Castleknock Road;2;50;false;false;true;false;false;false;198.0;1;0;0;0;0;false;1675;955192717;-6.3675493;53.3792693;"";955192863;-6.3721437;53.3787734;0;22;23;1229805;37 - Baggot St - Blanchardstown Centre;"";Dublin Bus;37;Baggot Street Lower;Blanchardstown Centre
72272655;"{\"type\":\"LineString\",\"coordinates\":[[-6.3800503,53.3779808],[-6.3799573,53.3778782],[-6.3798528,53.377797],[-6.3794474,53.377525],[-6.3790424,53.3772562],[-6.3788754,53.3771505],[-6.3783102,53.376861],[-6.3781841,53.3768162],[-6.3779856,53.3767714],[-6.3777952,53.376749],[-6.3777254,53.3767442],[-6.3776473,53.3767483],[-6.3775592,53.3767613],[-6.3774466,53.3767907],[-6.3772242,53.3769293],[-6.3771505,53.3769763],[-6.3768674,53.3771709],[-6.376307,53.3775251],[-6.3760149,53.37771],[-6.3757434,53.3778519],[-6.3753897,53.3780058],[-6.3748173,53.3781987],[-6.3740803,53.3784292],[-6.3737443,53.3785146],[-6.3733588,53.3785954],[-6.3727395,53.3786846],[-6.3724928,53.3787358],[-6.3722608,53.3787926],[-6.3720958,53.378843],[-6.3719316,53.3789078],[-6.3717266,53.379013],[-6.371436,53.3791863],[-6.3713059,53.3792678],[-6.3712022,53.3793331],[-6.371043,53.3794278],[-6.3708593,53.3795494],[-6.3706259,53.3796934],[-6.3704436,53.3798022],[-6.3702384,53.3799286],[-6.3700479,53.3800534],[-6.3698213,53.3801942],[-6.3696302,53.3803198],[-6.3694501,53.3804328],[-6.3692711,53.3805426]]}";3;Laurel Lodge Road;3;50;false;false;true;false;false;false;938.0;4;1;0;0;0;false;1675;955192717;-6.3675493;53.3792693;"";955192863;-6.3721437;53.3787734;2;22;23;1229805;37 - Baggot St - Blanchardstown Centre;"";Dublin Bus;37;Baggot Street Lower;Blanchardstown Centre
72272655;"{\"type\":\"LineString\",\"coordinates\":[[-6.3800503,53.3779808],[-6.3799573,53.3778782],[-6.3798528,53.377797],[-6.3794474,53.377525],[-6.3790424,53.3772562],[-6.3788754,53.3771505],[-6.3783102,53.376861],[-6.3781841,53.3768162],[-6.3779856,53.3767714],[-6.3777952,53.376749],[-6.3777254,53.3767442],[-6.3776473,53.3767483],[-6.3775592,53.3767613],[-6.3774466,53.3767907],[-6.3772242,53.3769293],[-6.3771505,53.3769763],[-6.3768674,53.3771709],[-6.376307,53.3775251],[-6.3760149,53.37771],[-6.3757434,53.3778519],[-6.3753897,53.3780058],[-6.3748173,53.3781987],[-6.3740803,53.3784292],[-6.3737443,53.3785146],[-6.3733588,53.3785954],[-6.3727395,53.3786846],[-6.3724928,53.3787358],[-6.3722608,53.3787926],[-6.3720958,53.378843],[-6.3719316,53.3789078],[-6.3717266,53.379013],[-6.371436,53.3791863],[-6.3713059,53.3792678],[-6.3712022,53.3793331],[-6.371043,53.3794278],[-6.3708593,53.3795494],[-6.3706259,53.3796934],[-6.3704436,53.3798022],[-6.3702384,53.3799286],[-6.3700479,53.3800534],[-6.3698213,53.3801942],[-6.3696302,53.3803198],[-6.3694501,53.3804328],[-6.3692711,53.3805426]]}";1;Laurel Lodge Road;3;50;false;false;true;false;false;false;469.0;4;1;0;0;0;false;1517;955192765;-6.3794346;53.377427;1679;955192745;-6.3827295;53.376041;1;25;26;1229805;37 - Baggot St - Blanchardstown Centre;"";Dublin Bus;37;Baggot Street Lower;Blanchardstown Centre
2795752;"{\"type\":\"LineString\",\"coordinates\":[[-6.3800628,53.3781039],[-6.3800311,53.3780833],[-6.3800129,53.3780577],[-6.3800102,53.37803],[-6.3800231,53.3780034],[-6.3800503,53.3779808],[-6.3800845,53.3779662],[-6.3801246,53.3779584],[-6.3801667,53.3779583],[-6.3802069,53.3779658],[-6.3802414,53.3779803],[-6.3802669,53.3780003],[-6.3802816,53.3780262],[-6.3802812,53.3780535],[-6.3802657,53.3780792],[-6.3802368,53.3781005],[-6.3801968,53.3781151],[-6.3801509,53.3781208],[-6.3801044,53.3781169],[-6.3800628,53.3781039]]}";2;"";1;50;false;false;true;false;false;false;58.0;0;0;0;0;0;true;1517;955192765;-6.3794346;53.377427;1679;955192745;-6.3827295;53.376041;0;25;26;1229805;37 - Baggot St - Blanchardstown Centre;"";Dublin Bus;37;Baggot Street Lower;Blanchardstown Centre
3753762;"{\"type\":\"LineString\",\"coordinates\":[[-6.3828694,53.375319],[-6.3828454,53.375556],[-6.382827,53.3757131],[-6.3828137,53.3759156],[-6.382778,53.3761227],[-6.3827673,53.3761786],[-6.3826531,53.3764226],[-6.3825631,53.3765709],[-6.382451,53.3767255],[-6.3822657,53.3769174],[-6.3820709,53.3770772],[-6.3818276,53.3772507],[-6.3815543,53.3774424],[-6.3814256,53.3775223],[-6.3812517,53.3776115],[-6.3810092,53.3777201],[-6.3806639,53.3778657],[-6.3802669,53.3780003]]}";3;Carpenterstown Avenue;2;50;false;false;true;false;false;false;185.0;0;0;0;0;0;false;1517;955192765;-6.3794346;53.377427;1679;955192745;-6.3827295;53.376041;1;25;26;1229805;37 - Baggot St - Blanchardstown Centre;"";Dublin Bus;37;Baggot Street Lower;Blanchardstown Centre
3753762;"{\"type\":\"LineString\",\"coordinates\":[[-6.3828694,53.375319],[-6.3828454,53.375556],[-6.382827,53.3757131],[-6.3828137,53.3759156],[-6.382778,53.3761227],[-6.3827673,53.3761786],[-6.3826531,53.3764226],[-6.3825631,53.3765709],[-6.382451,53.3767255],[-6.3822657,53.3769174],[-6.3820709,53.3770772],[-6.3818276,53.3772507],[-6.3815543,53.3774424],[-6.3814256,53.3775223],[-6.3812517,53.3776115],[-6.3810092,53.3777201],[-6.3806639,53.3778657],[-6.3802669,53.3780003]]}";1;Carpenterstown Avenue;2;50;false;false;true;false;false;false;185.0;0;0;0;0;0;false;1678;955192904;-6.3813841;53.3774682;4520;955192886;-6.3866646;53.3753295;1;27;28;1229805;37 - Baggot St - Blanchardstown Centre;"";Dublin Bus;37;Baggot Street Lower;Blanchardstown Centre
2786199;"{\"type\":\"LineString\",\"coordinates\":[[-6.3827277,53.3752479],[-6.3827252,53.3752183],[-6.3827389,53.3751899],[-6.3827673,53.3751656],[-6.3828073,53.3751481],[-6.3828546,53.3751393],[-6.3829042,53.37514],[-6.3829466,53.375149],[-6.3829828,53.375165],[-6.3830095,53.3751866],[-6.3830244,53.375212],[-6.383026,53.3752388],[-6.3830143,53.3752649],[-6.3829902,53.3752877],[-6.3829559,53.3753053],[-6.3829144,53.375316],[-6.3828694,53.375319],[-6.3828209,53.3753129],[-6.3827782,53.3752978],[-6.382746,53.3752754],[-6.3827277,53.3752479]]}";2;"";2;50;false;false;true;false;false;false;64.0;0;0;0;0;0;true;1678;955192904;-6.3813841;53.3774682;4520;955192886;-6.3866646;53.3753295;0;27;28;1229805;37 - Baggot St - Blanchardstown Centre;"";Dublin Bus;37;Baggot Street Lower;Blanchardstown Centre
3753760;"{\"type\":\"LineString\",\"coordinates\":[[-6.3872631,53.3754175],[-6.3869153,53.3753978],[-6.3863107,53.375363],[-6.3861362,53.3753552],[-6.3852981,53.3753263],[-6.385141,53.37532],[-6.3842428,53.3752842],[-6.3840364,53.375276],[-6.3837747,53.3752655],[-6.3833926,53.3752486],[-6.3831404,53.375241],[-6.383026,53.3752388]]}";3;Carpenterstown Park East;2;50;false;false;false;false;false;false;142.5;0;1;0;0;0;false;1678;955192904;-6.3813841;53.3774682;4520;955192886;-6.3866646;53.3753295;1;27;28;1229805;37 - Baggot St - Blanchardstown Centre;"";Dublin Bus;37;Baggot Street Lower;Blanchardstown Centre
3753760;"{\"type\":\"LineString\",\"coordinates\":[[-6.3872631,53.3754175],[-6.3869153,53.3753978],[-6.3863107,53.375363],[-6.3861362,53.3753552],[-6.3852981,53.3753263],[-6.385141,53.37532],[-6.3842428,53.3752842],[-6.3840364,53.375276],[-6.3837747,53.3752655],[-6.3833926,53.3752486],[-6.3831404,53.375241],[-6.383026,53.3752388]]}";1;Carpenterstown Park East;2;50;false;false;false;false;false;false;142.5;0;1;0;0;0;false;4520;955192886;-6.3866646;53.3753295;4825;955192737;-6.3902059;53.3754762;1;28;29;1229805;37 - Baggot St - Blanchardstown Centre;"";Dublin Bus;37;Baggot Street Lower;Blanchardstown Centre
2786198;"{\"type\":\"LineString\",\"coordinates\":[[-6.3874697,53.37534],[-6.3875068,53.3753535],[-6.3875358,53.3753728],[-6.3875541,53.3753963],[-6.3875603,53.375422],[-6.3875523,53.3754504],[-6.3875295,53.3754757],[-6.3874942,53.3754954],[-6.3874503,53.3755073],[-6.3874023,53.3755102],[-6.3873573,53.3755042],[-6.3873176,53.3754903],[-6.3872869,53.3754699],[-6.3872681,53.3754448],[-6.3872631,53.3754175],[-6.3872732,53.3753893],[-6.3872978,53.3753645],[-6.3873345,53.3753458],[-6.3873794,53.3753351],[-6.3874276,53.3753335],[-6.3874697,53.37534]]}";2;"";1;50;false;false;true;false;false;false;63.0;0;0;0;0;0;true;4520;955192886;-6.3866646;53.3753295;4825;955192737;-6.3902059;53.3754762;0;28;29;1229805;37 - Baggot St - Blanchardstown Centre;"";Dublin Bus;37;Baggot Street Lower;Blanchardstown Centre
292883966;"{\"type\":\"LineString\",\"coordinates\":[[-6.3884827,53.3754636],[-6.3875603,53.375422]]}";3;Carpenterstown Park East;3;50;false;false;true;false;false;false;62.0;0;0;0;0;0;false;4520;955192886;-6.3866646;53.3753295;4825;955192737;-6.3902059;53.3754762;0;28;29;1229805;37 - Baggot St - Blanchardstown Centre;"";Dublin Bus;37;Baggot Street Lower;Blanchardstown Centre
3753759;"{\"type\":\"LineString\",\"coordinates\":[[-6.3908567,53.3755699],[-6.3903979,53.3755394],[-6.3895159,53.3755105],[-6.3884827,53.3754636]]}";4;Carpenterstown Park East;3;50;false;false;true;false;false;false;80.0;0;0;0;0;0;false;4520;955192886;-6.3866646;53.3753295;4825;955192737;-6.3902059;53.3754762;1;28;29;1229805;37 - Baggot St - Blanchardstown Centre;"";Dublin Bus;37;Baggot Street Lower;Blanchardstown Centre
3753759;"{\"type\":\"LineString\",\"coordinates\":[[-6.3908567,53.3755699],[-6.3903979,53.3755394],[-6.3895159,53.3755105],[-6.3884827,53.3754636]]}";1;Carpenterstown Park East;3;50;false;false;true;false;false;false;80.0;0;0;0;0;0;false;4825;955192737;-6.3902059;53.3754762;7233;955192785;-6.3889748;53.3732978;1;29;30;1229805;37 - Baggot St - Blanchardstown Centre;"";Dublin Bus;37;Baggot Street Lower;Blanchardstown Centre
2685619;"{\"type\":\"LineString\",\"coordinates\":[[-6.3911867,53.3755005],[-6.3912144,53.3755328],[-6.3912228,53.3755688],[-6.3912139,53.3755995],[-6.3911909,53.3756275],[-6.3911555,53.3756504],[-6.3911107,53.3756665],[-6.3910536,53.3756747],[-6.3909952,53.3756717],[-6.3909413,53.3756579],[-6.3908975,53.3756346],[-6.3908683,53.3756042],[-6.3908567,53.3755699],[-6.3908629,53.3755373],[-6.390885,53.3755073],[-6.390921,53.3754825],[-6.3909677,53.3754653],[-6.3910268,53.3754567],[-6.3910874,53.3754602],[-6.3911427,53.3754754],[-6.3911623,53.3754866],[-6.3911867,53.3755005]]}";2;Coolmine Roundabout;1;50;false;false;true;false;false;false;77.0;0;0;0;0;0;true;4825;955192737;-6.3902059;53.3754762;7233;955192785;-6.3889748;53.3732978;0;29;30;1229805;37 - Baggot St - Blanchardstown Centre;"";Dublin Bus;37;Baggot Street Lower;Blanchardstown Centre
3728943;"{\"type\":\"LineString\",\"coordinates\":[[-6.3909677,53.3754653],[-6.390693,53.3751846],[-6.3904612,53.3748955],[-6.3902286,53.374571],[-6.3900011,53.3742883],[-6.3897474,53.37404]]}";3;Carpenterstown Road;1;50;false;false;true;false;false;false;180.0;0;0;0;0;0;false;4825;955192737;-6.3902059;53.3754762;7233;955192785;-6.3889748;53.3732978;0;29;30;1229805;37 - Baggot St - Blanchardstown Centre;"";Dublin Bus;37;Baggot Street Lower;Blanchardstown Centre
548978829;"{\"type\":\"LineString\",\"coordinates\":[[-6.3897474,53.37404],[-6.3895201,53.3738169],[-6.389446,53.3737427]]}";4;Carpenterstown Road;1;50;false;false;true;false;false;false;39.0;0;0;0;0;0;false;4825;955192737;-6.3902059;53.3754762;7233;955192785;-6.3889748;53.3732978;0;29;30;1229805;37 - Baggot St - Blanchardstown Centre;"";Dublin Bus;37;Baggot Street Lower;Blanchardstown Centre
361196877;"{\"type\":\"LineString\",\"coordinates\":[[-6.389446,53.3737427],[-6.3892846,53.3735677],[-6.3890911,53.3733628],[-6.3888048,53.3730008],[-6.388679,53.372853],[-6.388466,53.3725872],[-6.3882517,53.372325],[-6.3882016,53.3721992],[-6.38815,53.3720578],[-6.3881022,53.3719267]]}";5;Carpenterstown Road;2;50;false;false;true;false;false;false;112.0;0;1;0;0;0;false;4825;955192737;-6.3902059;53.3754762;7233;955192785;-6.3889748;53.3732978;1;29;30;1229805;37 - Baggot St - Blanchardstown Centre;"";Dublin Bus;37;Baggot Street Lower;Blanchardstown Centre
361196877;"{\"type\":\"LineString\",\"coordinates\":[[-6.389446,53.3737427],[-6.3892846,53.3735677],[-6.3890911,53.3733628],[-6.3888048,53.3730008],[-6.388679,53.372853],[-6.388466,53.3725872],[-6.3882517,53.372325],[-6.3882016,53.3721992],[-6.38815,53.3720578],[-6.3881022,53.3719267]]}";1;Carpenterstown Road;2;50;false;false;true;false;false;false;112.0;0;1;0;0;0;false;7233;955192785;-6.3889748;53.3732978;4573;955192939;-6.3877786;53.3706901;1;30;31;1229805;37 - Baggot St - Blanchardstown Centre;"";Dublin Bus;37;Baggot Street Lower;Blanchardstown Centre
443016943;"{\"type\":\"LineString\",\"coordinates\":[[-6.3880034,53.37171],[-6.3880649,53.3717101],[-6.3881232,53.3717219],[-6.388172,53.3717443],[-6.3882062,53.3717748],[-6.388223,53.3718193],[-6.388209,53.3718641],[-6.3881664,53.3719019],[-6.3881022,53.3719267],[-6.3880319,53.3719343],[-6.3879619,53.3719258],[-6.3879022,53.3719025],[-6.3878612,53.3718676],[-6.3878461,53.3718029],[-6.3878544,53.3717858],[-6.3878872,53.3717501],[-6.3879391,53.3717237],[-6.3880034,53.37171]]}";2;"";1;50;false;false;true;false;false;false;80.0;0;0;0;0;0;true;7233;955192785;-6.3889748;53.3732978;4573;955192939;-6.3877786;53.3706901;0;30;31;1229805;37 - Baggot St - Blanchardstown Centre;"";Dublin Bus;37;Baggot Street Lower;Blanchardstown Centre
3358518;"{\"type\":\"LineString\",\"coordinates\":[[-6.3880034,53.37171],[-6.3879873,53.3716422],[-6.3879133,53.3711819],[-6.387883,53.3708025],[-6.3878703,53.3706443],[-6.3878629,53.3705628],[-6.3878408,53.3702924],[-6.3878381,53.3702596],[-6.3878088,53.3699217]]}";3;Diswellstown Road;2;50;false;false;true;false;false;false;100.5;0;1;0;0;0;false;7233;955192785;-6.3889748;53.3732978;4573;955192939;-6.3877786;53.3706901;1;30;31;1229805;37 - Baggot St - Blanchardstown Centre;"";Dublin Bus;37;Baggot Street Lower;Blanchardstown Centre
3358518;"{\"type\":\"LineString\",\"coordinates\":[[-6.3880034,53.37171],[-6.3879873,53.3716422],[-6.3879133,53.3711819],[-6.387883,53.3708025],[-6.3878703,53.3706443],[-6.3878629,53.3705628],[-6.3878408,53.3702924],[-6.3878381,53.3702596],[-6.3878088,53.3699217]]}";1;Diswellstown Road;2;50;false;false;true;false;false;false;100.5;0;1;0;0;0;false;4573;955192939;-6.3877786;53.3706901;4895;955192778;-6.401813;53.3742235;1;31;32;1229805;37 - Baggot St - Blanchardstown Centre;"";Dublin Bus;37;Baggot Street Lower;Blanchardstown Centre
2685618;"{\"type\":\"LineString\",\"coordinates\":[[-6.3877189,53.3697226],[-6.3877715,53.3697107],[-6.3878276,53.3697091],[-6.3878818,53.369718],[-6.3879287,53.3697365],[-6.3879636,53.3697628],[-6.3879831,53.3697943],[-6.3879857,53.3698254],[-6.3879731,53.3698557],[-6.3879463,53.3698825],[-6.3879077,53.3699035],[-6.3878605,53.369917],[-6.3878088,53.3699217],[-6.3877559,53.3699171],[-6.3877077,53.3699034],[-6.3876685,53.3698818],[-6.3876417,53.3698542],[-6.3876297,53.3698231],[-6.3876318,53.3697969],[-6.3876446,53.3697718],[-6.3876752,53.3697437],[-6.3877189,53.3697226]]}";2;"";1;50;false;false;false;false;false;false;75.0;0;0;0;0;0;true;4573;955192939;-6.3877786;53.3706901;4895;955192778;-6.401813;53.3742235;0;31;32;1229805;37 - Baggot St - Blanchardstown Centre;"";Dublin Bus;37;Baggot Street Lower;Blanchardstown Centre
3358520;"{\"type\":\"LineString\",\"coordinates\":[[-6.4034359,53.3750867],[-6.4031901,53.3749723],[-6.4029248,53.3748563],[-6.402529,53.3746535],[-6.4021177,53.3744409],[-6.4016735,53.3742138],[-6.4011469,53.3739342],[-6.400885,53.3737811],[-6.4006605,53.3736442],[-6.400468,53.3735062],[-6.4002025,53.3732913],[-6.3999401,53.373062],[-6.3997883,53.3729298],[-6.3995439,53.3727544],[-6.3992837,53.372578],[-6.3989352,53.3723833],[-6.3987453,53.3722815],[-6.398414,53.3721256],[-6.3979721,53.3719443],[-6.3974887,53.3717863],[-6.3968101,53.3715934],[-6.39616,53.3713957],[-6.3956421,53.3712275],[-6.3952224,53.3710816],[-6.3949337,53.3709818],[-6.3944028,53.3707873],[-6.3939425,53.3706094],[-6.3934051,53.3704059],[-6.3931794,53.3703328],[-6.3930295,53.3702905],[-6.3927455,53.3702111],[-6.392433,53.3701335],[-6.3919837,53.3700378],[-6.3915555,53.3699569],[-6.3913366,53.3699244],[-6.3909936,53.369879],[-6.3903705,53.3698136],[-6.3901774,53.3697984],[-6.3898828,53.3697785],[-6.389374,53.3697696],[-6.3888167,53.3697701],[-6.3884917,53.3697794],[-6.3883243,53.3697855],[-6.3879831,53.3697943]]}";3;Diswellstown Road;2;50;false;false;false;false;false;false;619.0;0;2;0;0;0;false;4573;955192939;-6.3877786;53.3706901;4895;955192778;-6.401813;53.3742235;1;31;32;1229805;37 - Baggot St - Blanchardstown Centre;"";Dublin Bus;37;Baggot Street Lower;Blanchardstown Centre
3358520;"{\"type\":\"LineString\",\"coordinates\":[[-6.4034359,53.3750867],[-6.4031901,53.3749723],[-6.4029248,53.3748563],[-6.402529,53.3746535],[-6.4021177,53.3744409],[-6.4016735,53.3742138],[-6.4011469,53.3739342],[-6.400885,53.3737811],[-6.4006605,53.3736442],[-6.400468,53.3735062],[-6.4002025,53.3732913],[-6.3999401,53.373062],[-6.3997883,53.3729298],[-6.3995439,53.3727544],[-6.3992837,53.372578],[-6.3989352,53.3723833],[-6.3987453,53.3722815],[-6.398414,53.3721256],[-6.3979721,53.3719443],[-6.3974887,53.3717863],[-6.3968101,53.3715934],[-6.39616,53.3713957],[-6.3956421,53.3712275],[-6.3952224,53.3710816],[-6.3949337,53.3709818],[-6.3944028,53.3707873],[-6.3939425,53.3706094],[-6.3934051,53.3704059],[-6.3931794,53.3703328],[-6.3930295,53.3702905],[-6.3927455,53.3702111],[-6.392433,53.3701335],[-6.3919837,53.3700378],[-6.3915555,53.3699569],[-6.3913366,53.3699244],[-6.3909936,53.369879],[-6.3903705,53.3698136],[-6.3901774,53.3697984],[-6.3898828,53.3697785],[-6.389374,53.3697696],[-6.3888167,53.3697701],[-6.3884917,53.3697794],[-6.3883243,53.3697855],[-6.3879831,53.3697943]]}";1;Diswellstown Road;2;50;false;false;false;false;false;false;619.0;0;2;0;0;0;false;4893;955192916;-6.3927543;53.3701434;7217;956527793;-6.4032019;53.3817597;1;34;35;1229805;37 - Baggot St - Blanchardstown Centre;"";Dublin Bus;37;Baggot Street Lower;Blanchardstown Centre
2684731;"{\"type\":\"LineString\",\"coordinates\":[[-6.4037265,53.3750722],[-6.4037672,53.3751063],[-6.4037848,53.3751463],[-6.4037781,53.3751864],[-6.4037426,53.3752275],[-6.4036984,53.3752515],[-6.4036132,53.3752698],[-6.4035321,53.3752649],[-6.4034496,53.3752334],[-6.4034135,53.3751998],[-6.4033989,53.3751638],[-6.4034058,53.3751233],[-6.4034359,53.3750867],[-6.4034978,53.3750542],[-6.4035768,53.37504],[-6.4036554,53.3750461],[-6.4037265,53.3750722]]}";2;"";1;50;false;false;false;false;false;false;81.0;0;0;0;0;0;true;4893;955192916;-6.3927543;53.3701434;7217;956527793;-6.4032019;53.3817597;0;34;35;1229805;37 - Baggot St - Blanchardstown Centre;"";Dublin Bus;37;Baggot Street Lower;Blanchardstown Centre
3358519;"{\"type\":\"LineString\",\"coordinates\":[[-6.4058983,53.3760871],[-6.4057205,53.3760129],[-6.4056169,53.3759634],[-6.4054268,53.3758727],[-6.4046212,53.3755557],[-6.4040558,53.3753341],[-6.4037426,53.3752275]]}";3;Diswellstown Road;1;50;false;false;true;false;false;false;174.0;1;0;0;0;0;false;4893;955192916;-6.3927543;53.3701434;7217;956527793;-6.4032019;53.3817597;0;34;35;1229805;37 - Baggot St - Blanchardstown Centre;"";Dublin Bus;37;Baggot Street Lower;Blanchardstown Centre
160266798;"{\"type\":\"LineString\",\"coordinates\":[[-6.4058983,53.3760871],[-6.4056987,53.3762155],[-6.4056439,53.3762454],[-6.4047943,53.3767087],[-6.4042483,53.3770436],[-6.4039638,53.3772198],[-6.4037684,53.3773629],[-6.4035374,53.3775523],[-6.4033531,53.3777259],[-6.4031333,53.3779577]]}";4;Diswellstown Road;1;50;false;false;false;false;false;false;282.0;1;0;0;0;0;false;4893;955192916;-6.3927543;53.3701434;7217;956527793;-6.4032019;53.3817597;0;34;35;1229805;37 - Baggot St - Blanchardstown Centre;"";Dublin Bus;37;Baggot Street Lower;Blanchardstown Centre
4716326;"{\"type\":\"LineString\",\"coordinates\":[[-6.4031333,53.3779577],[-6.4028653,53.3782888],[-6.4027302,53.3785025],[-6.4026448,53.3786575],[-6.40253,53.3789107],[-6.4024753,53.3790687],[-6.4024317,53.3792281],[-6.4023593,53.3794911]]}";5;Diswellstown Road;1;50;false;false;false;false;false;false;181.0;0;0;0;0;0;false;4893;955192916;-6.3927543;53.3701434;7217;956527793;-6.4032019;53.3817597;0;34;35;1229805;37 - Baggot St - Blanchardstown Centre;"";Dublin Bus;37;Baggot Street Lower;Blanchardstown Centre
2746218;"{\"type\":\"LineString\",\"coordinates\":[[-6.4023593,53.3794911],[-6.4023378,53.3796725],[-6.4023351,53.3798954],[-6.4023422,53.3802521],[-6.402386,53.3804873],[-6.4024441,53.3806601],[-6.4025028,53.3808186],[-6.40258,53.3809872],[-6.40266,53.3811398],[-6.4028118,53.3813619],[-6.4029883,53.3815774],[-6.4031685,53.381802],[-6.4032998,53.3820117],[-6.4033934,53.3822441],[-6.4034408,53.3825481]]}";6;Diswellstown Road;2;50;false;false;false;false;false;false;177.5;0;1;0;0;0;false;4893;955192916;-6.3927543;53.3701434;7217;956527793;-6.4032019;53.3817597;1;34;35;1229805;37 - Baggot St - Blanchardstown Centre;"";Dublin Bus;37;Baggot Street Lower;Blanchardstown Centre
2746218;"{\"type\":\"LineString\",\"coordinates\":[[-6.4023593,53.3794911],[-6.4023378,53.3796725],[-6.4023351,53.3798954],[-6.4023422,53.3802521],[-6.402386,53.3804873],[-6.4024441,53.3806601],[-6.4025028,53.3808186],[-6.40258,53.3809872],[-6.40266,53.3811398],[-6.4028118,53.3813619],[-6.4029883,53.3815774],[-6.4031685,53.381802],[-6.4032998,53.3820117],[-6.4033934,53.3822441],[-6.4034408,53.3825481]]}";1;Diswellstown Road;2;50;false;false;false;false;false;false;177.5;0;1;0;0;0;false;7217;956527793;-6.4032019;53.3817597;7228;955172071;-6.4027186;53.3842146;1;35;36;1229805;37 - Baggot St - Blanchardstown Centre;"";Dublin Bus;37;Baggot Street Lower;Blanchardstown Centre
2684730;"{\"type\":\"LineString\",\"coordinates\":[[-6.4033752,53.3825514],[-6.4034408,53.3825481],[-6.4035008,53.3825568],[-6.4035535,53.3825761],[-6.4035937,53.3826041],[-6.4036175,53.3826381],[-6.4036226,53.3826748],[-6.4036082,53.3827112],[-6.4035755,53.3827431],[-6.4035278,53.3827673],[-6.4034698,53.3827815],[-6.4034073,53.3827842],[-6.4033506,53.3827761],[-6.4033003,53.3827586],[-6.4032606,53.3827331],[-6.4032351,53.3827018],[-6.4032259,53.3826675],[-6.4032361,53.3826287],[-6.4032669,53.382594],[-6.4033151,53.3825673],[-6.4033752,53.3825514]]}";2;Clonsilla Roundabout;2;50;false;false;true;false;false;false;84.0;0;0;0;0;0;true;7217;956527793;-6.4032019;53.3817597;7228;955172071;-6.4027186;53.3842146;0;35;36;1229805;37 - Baggot St - Blanchardstown Centre;"";Dublin Bus;37;Baggot Street Lower;Blanchardstown Centre
2990152;"{\"type\":\"LineString\",\"coordinates\":[[-6.4034073,53.3827842],[-6.4033866,53.3828797],[-6.4031747,53.3834476]]}";3;Blanchardstown Road South;1;50;false;false;true;false;false;false;76.0;0;0;0;0;0;false;7217;956527793;-6.4032019;53.3817597;7228;955172071;-6.4027186;53.3842146;0;35;36;1229805;37 - Baggot St - Blanchardstown Centre;"";Dublin Bus;37;Baggot Street Lower;Blanchardstown Centre
109246732;"{\"type\":\"LineString\",\"coordinates\":[[-6.4031747,53.3834476],[-6.4028358,53.3842283]]}";4;Blanchardstown Road South;3;60;false;false;true;false;false;false;91.0;0;0;0;0;0;false;7217;956527793;-6.4032019;53.3817597;7228;955172071;-6.4027186;53.3842146;0;35;36;1229805;37 - Baggot St - Blanchardstown Centre;"";Dublin Bus;37;Baggot Street Lower;Blanchardstown Centre
81984767;"{\"type\":\"LineString\",\"coordinates\":[[-6.4028358,53.3842283],[-6.4025553,53.3850088],[-6.4024741,53.3853749],[-6.4024896,53.3854461]]}";5;Blanchardstown Road South;3;60;false;false;true;false;false;false;139.0;0;0;0;0;0;false;7217;956527793;-6.4032019;53.3817597;7228;955172071;-6.4027186;53.3842146;1;35;36;1229805;37 - Baggot St - Blanchardstown Centre;"";Dublin Bus;37;Baggot Street Lower;Blanchardstown Centre
