way_id;shape;index;name;nb_lanes;legal_speed;speed_zone_30;oneway;shares_bike;bike_box;bus_lane;dedicated_bus_lane;length;nb_traffic_signals;nb_crossings;nb_stops;nb_give_ways;nb_lvl_crossings;roundabout;stop_id_orig;node_id_orig;coord_x_orig;coord_y_orig;stop_id_dest;node_id_dest;coord_x_dest;coord_y_dest;nb_neighbouring_ways_bus_stop;ordre_orig;ordre_dest;id_line;line_name;colour;operator;ref;from;to
798994211;"{\"type\":\"LineString\",\"coordinates\":[[-73.5474325,45.3845584],[-73.5475239,45.3845788],[-73.5475804,45.3845909],[-73.5476084,45.3845958],[-73.5476404,45.3845958],[-73.5476745,45.3845888],[-73.5477025,45.3845733],[-73.5477205,45.3845536],[-73.5478647,45.3842618],[-73.5478777,45.3842309],[-73.5478807,45.384214],[-73.5478777,45.3841957],[-73.5478607,45.3841732],[-73.5478316,45.3841557],[-73.5477946,45.3841409],[-73.5477804,45.3841368],[-73.5477512,45.3841289],[-73.5477025,45.384117],[-73.5476571,45.3841066]]}";1;"";1;50;false;true;true;false;false;false;88.0;0;2;1;0;0;false;76080;6133354127;-73.5478906;45.3844531;76194;6133353941;-73.549131;45.381329;1;0;1;9498707;Bus 35 : Service PM;"";EXO;35 PM;Stationnement Incitatif Georges-Gagné;Stationnement Incitatif Georges-Gagné
798994214;"{\"type\":\"LineString\",\"coordinates\":[[-73.5480837,45.3832487],[-73.5480114,45.3833941],[-73.5479404,45.3835369],[-73.5478469,45.3837249],[-73.5478406,45.3837376],[-73.5477785,45.3838616],[-73.5477706,45.3838773],[-73.5476571,45.3841066]]}";2;Boulevard Georges-Gagné Sud;4;50;false;false;true;false;false;false;101.0;0;0;0;0;0;false;76080;6133354127;-73.5478906;45.3844531;76194;6133353941;-73.549131;45.381329;0;0;1;9498707;Bus 35 : Service PM;"";EXO;35 PM;Stationnement Incitatif Georges-Gagné;Stationnement Incitatif Georges-Gagné
799183409;"{\"type\":\"LineString\",\"coordinates\":[[-73.5490914,45.3812032],[-73.5490631,45.3812614],[-73.5490207,45.3813472],[-73.5485296,45.3823422],[-73.5484913,45.3824173],[-73.5483148,45.3827788],[-73.5483089,45.3827908],[-73.5482232,45.3829651],[-73.5481295,45.3831556],[-73.5480837,45.3832487]]}";3;Boulevard Georges-Gagné Sud;3;50;false;false;false;false;false;false;120.5;0;3;0;0;0;false;76080;6133354127;-73.5478906;45.3844531;76194;6133353941;-73.549131;45.381329;1;0;1;9498707;Bus 35 : Service PM;"";EXO;35 PM;Stationnement Incitatif Georges-Gagné;Stationnement Incitatif Georges-Gagné
799186775;"{\"type\":\"LineString\",\"coordinates\":[[-73.5500939,45.3791684],[-73.5499748,45.3794227],[-73.5499555,45.3794613],[-73.5498533,45.3796653],[-73.5497497,45.379872],[-73.5496768,45.3800175],[-73.5496651,45.3800408],[-73.5496096,45.3801515],[-73.5493642,45.3806412],[-73.5490914,45.3812032]]}";1;Boulevard Georges-Gagné Sud;3;50;false;false;false;false;false;false;240.0;0;1;0;0;0;false;76194;6133353941;-73.549131;45.381329;76195;6133353940;-73.550407;45.378794;2;1;2;9498707;Bus 35 : Service PM;"";EXO;35 PM;Stationnement Incitatif Georges-Gagné;Stationnement Incitatif Georges-Gagné
23845510;"{\"type\":\"LineString\",\"coordinates\":[[-73.5500939,45.3791684],[-73.5501623,45.3790716],[-73.5501812,45.3790448],[-73.5502389,45.3789589],[-73.5502801,45.3788755],[-73.5503121,45.3788107],[-73.5503406,45.3787529],[-73.5503346,45.3786737]]}";2;Boulevard Georges-Gagné Sud;2;50;false;true;true;false;false;false;59.0;1;1;0;0;0;false;76194;6133353941;-73.549131;45.381329;76195;6133353940;-73.550407;45.378794;2;1;2;9498707;Bus 35 : Service PM;"";EXO;35 PM;Stationnement Incitatif Georges-Gagné;Stationnement Incitatif Georges-Gagné
172293015;"{\"type\":\"LineString\",\"coordinates\":[[-73.5503346,45.3786737],[-73.5504845,45.3786997],[-73.5505332,45.3787067],[-73.5509811,45.3786978],[-73.5510796,45.3786959],[-73.551256,45.3786606]]}";1;Montée des Bouleaux;2;50;false;true;true;false;false;false;74.0;0;1;0;0;0;false;76195;6133353940;-73.550407;45.378794;76006;6133354180;-73.554832;45.378662;2;2;3;9498707;Bus 35 : Service PM;"";EXO;35 PM;Stationnement Incitatif Georges-Gagné;Stationnement Incitatif Georges-Gagné
23845510;"{\"type\":\"LineString\",\"coordinates\":[[-73.5500939,45.3791684],[-73.5501623,45.3790716],[-73.5501812,45.3790448],[-73.5502389,45.3789589],[-73.5502801,45.3788755],[-73.5503121,45.3788107],[-73.5503406,45.3787529],[-73.5503346,45.3786737]]}";2;Boulevard Georges-Gagné Sud;2;50;false;true;true;false;false;false;59.0;1;1;0;0;0;false;76195;6133353940;-73.550407;45.378794;76006;6133354180;-73.554832;45.378662;0;2;3;9498707;Bus 35 : Service PM;"";EXO;35 PM;Stationnement Incitatif Georges-Gagné;Stationnement Incitatif Georges-Gagné
802502210;"{\"type\":\"LineString\",\"coordinates\":[[-73.551256,45.3786606],[-73.5510941,45.378638],[-73.5505398,45.3786467],[-73.5504846,45.3786537],[-73.5503346,45.3786737]]}";3;"";2;50;false;true;true;false;false;false;73.0;1;1;0;0;0;false;76195;6133353940;-73.550407;45.378794;76006;6133354180;-73.554832;45.378662;0;2;3;9498707;Bus 35 : Service PM;"";EXO;35 PM;Stationnement Incitatif Georges-Gagné;Stationnement Incitatif Georges-Gagné
802502209;"{\"type\":\"LineString\",\"coordinates\":[[-73.551256,45.3786606],[-73.5512882,45.3786595],[-73.5513938,45.3786559]]}";4;Montée des Bouleaux;2;50;false;false;true;false;false;false;11.0;0;0;0;0;0;false;76195;6133353940;-73.550407;45.378794;76006;6133354180;-73.554832;45.378662;0;2;3;9498707;Bus 35 : Service PM;"";EXO;35 PM;Stationnement Incitatif Georges-Gagné;Stationnement Incitatif Georges-Gagné
802502213;"{\"type\":\"LineString\",\"coordinates\":[[-73.5513938,45.3786559],[-73.5519809,45.3786422],[-73.5523473,45.3786337],[-73.5524412,45.3786315],[-73.5526679,45.3786276],[-73.5529452,45.3786229],[-73.5531449,45.3786195],[-73.5534617,45.378614],[-73.5538292,45.3786077],[-73.5542159,45.3785997],[-73.5544618,45.3785967],[-73.5545143,45.3785967],[-73.5547372,45.3785968],[-73.5548781,45.3786],[-73.5549717,45.3786027],[-73.5550321,45.3786061],[-73.5551148,45.3786111],[-73.5552941,45.3786232],[-73.5553865,45.3786311],[-73.5554313,45.3786349],[-73.5555801,45.3786494],[-73.5556393,45.3786556],[-73.5557013,45.3786621],[-73.5557471,45.3786677],[-73.5560947,45.3787105],[-73.5561861,45.3787218],[-73.5563645,45.378743],[-73.5564756,45.378754],[-73.5565583,45.3787606],[-73.5566137,45.3787651],[-73.5567891,45.3787776],[-73.5568931,45.3787833],[-73.5569771,45.3787879],[-73.5571383,45.3787943],[-73.5571848,45.378795],[-73.5572803,45.3787963],[-73.5574041,45.3787978],[-73.5574853,45.3787983],[-73.5575636,45.3787974],[-73.5578223,45.3787948],[-73.5579927,45.3787915],[-73.5582313,45.3787869],[-73.55841,45.3787835],[-73.5584788,45.3787822],[-73.5590093,45.3787683],[-73.5593703,45.3787588],[-73.5594269,45.3787573]]}";5;Montée des Bouleaux;2;50;false;false;true;false;false;false;631.0;0;2;3;0;0;false;76195;6133353940;-73.550407;45.378794;76006;6133354180;-73.554832;45.378662;2;2;3;9498707;Bus 35 : Service PM;"";EXO;35 PM;Stationnement Incitatif Georges-Gagné;Stationnement Incitatif Georges-Gagné
799186791;"{\"type\":\"LineString\",\"coordinates\":[[-73.5594269,45.3787573],[-73.5594725,45.3787564],[-73.5596604,45.3787513],[-73.5601619,45.3787378],[-73.5602808,45.3787346],[-73.5603552,45.3787326],[-73.5604692,45.3787309],[-73.5607295,45.3787292],[-73.5608285,45.3787286],[-73.5610317,45.3787299],[-73.5612075,45.3787331],[-73.5613447,45.3787377],[-73.5614994,45.3787459],[-73.5616753,45.378757],[-73.5617521,45.3787637],[-73.5618175,45.3787694],[-73.5619604,45.3787835],[-73.5620999,45.3787996],[-73.5622237,45.378816],[-73.562268,45.3788224],[-73.5623436,45.3788332],[-73.56239,45.3788411]]}";1;Montée des Bouleaux;2;50;false;false;false;false;false;false;233.0;0;1;1;0;0;false;76008;6133354178;-73.559368;45.378809;76009;6133354177;-73.564699;45.378378;2;4;5;9498707;Bus 35 : Service PM;"";EXO;35 PM;Stationnement Incitatif Georges-Gagné;Stationnement Incitatif Georges-Gagné
802582905;"{\"type\":\"LineString\",\"coordinates\":[[-73.56239,45.3788411],[-73.5624535,45.3788519],[-73.5625051,45.3788626],[-73.5625679,45.3788757],[-73.5626734,45.3788999],[-73.5627354,45.3789159],[-73.5627697,45.3789247],[-73.5628261,45.3789399]]}";2;Montée des Bouleaux;2;50;false;false;true;false;false;false;36.0;0;1;0;0;0;false;76008;6133354178;-73.559368;45.378809;76009;6133354177;-73.564699;45.378378;0;4;5;9498707;Bus 35 : Service PM;"";EXO;35 PM;Stationnement Incitatif Georges-Gagné;Stationnement Incitatif Georges-Gagné
802059404;"{\"type\":\"LineString\",\"coordinates\":[[-73.5628261,45.3789399],[-73.5629154,45.3789657],[-73.5629921,45.37899],[-73.5630159,45.3789975],[-73.5631047,45.3790266],[-73.5631951,45.3790598],[-73.56322,45.3790689],[-73.5632985,45.3790976],[-73.5633896,45.3791287],[-73.5634916,45.3791589],[-73.563533,45.3791711]]}";3;Montée des Bouleaux;2;50;false;false;false;false;false;false;62.0;0;0;0;0;0;false;76008;6133354178;-73.559368;45.378809;76009;6133354177;-73.564699;45.378378;0;4;5;9498707;Bus 35 : Service PM;"";EXO;35 PM;Stationnement Incitatif Georges-Gagné;Stationnement Incitatif Georges-Gagné
802059403;"{\"type\":\"LineString\",\"coordinates\":[[-73.563533,45.3791711],[-73.5637202,45.3792222]]}";4;Montée des Bouleaux;2;50;false;false;true;false;false;false;16.0;0;0;0;0;0;false;76008;6133354178;-73.559368;45.378809;76009;6133354177;-73.564699;45.378378;0;4;5;9498707;Bus 35 : Service PM;"";EXO;35 PM;Stationnement Incitatif Georges-Gagné;Stationnement Incitatif Georges-Gagné
779926961;"{\"type\":\"LineString\",\"coordinates\":[[-73.5637202,45.3792222],[-73.5639667,45.3792835]]}";5;Montée des Bouleaux;2;50;false;false;true;false;false;false;21.0;0;0;0;0;0;false;76008;6133354178;-73.559368;45.378809;76009;6133354177;-73.564699;45.378378;0;4;5;9498707;Bus 35 : Service PM;"";EXO;35 PM;Stationnement Incitatif Georges-Gagné;Stationnement Incitatif Georges-Gagné
779926962;"{\"type\":\"LineString\",\"coordinates\":[[-73.5639667,45.3792835],[-73.5639862,45.3792882],[-73.5640721,45.379308],[-73.5641821,45.3793399]]}";6;Montée des Bouleaux;2;50;false;false;true;false;false;false;18.0;1;1;0;0;0;false;76008;6133354178;-73.559368;45.378809;76009;6133354177;-73.564699;45.378378;0;4;5;9498707;Bus 35 : Service PM;"";EXO;35 PM;Stationnement Incitatif Georges-Gagné;Stationnement Incitatif Georges-Gagné
684606318;"{\"type\":\"LineString\",\"coordinates\":[[-73.5641821,45.3793399],[-73.5642352,45.3792625],[-73.5642461,45.379246],[-73.5642563,45.3792305],[-73.5642811,45.3791881],[-73.5643047,45.3791454],[-73.5643314,45.3790906],[-73.5643539,45.3790389],[-73.5643666,45.3790099],[-73.5644095,45.3789061],[-73.5644171,45.3788865],[-73.5644566,45.3787856],[-73.5644641,45.3787663],[-73.5644774,45.3787324],[-73.5644859,45.3787107],[-73.5645381,45.3785705],[-73.5645661,45.3784955],[-73.5645748,45.3784722],[-73.5646483,45.3782698],[-73.5646648,45.3782221],[-73.5646962,45.3781314],[-73.5647224,45.3780609],[-73.5647287,45.3780445],[-73.5647454,45.3780009],[-73.5647833,45.3779103],[-73.5647976,45.3778766],[-73.564816,45.3778329],[-73.5648385,45.3777842],[-73.564853,45.377753],[-73.56489,45.3776812],[-73.5649316,45.3776094],[-73.5649404,45.3775953],[-73.5649795,45.3775329],[-73.5650345,45.3774502],[-73.5650979,45.3773642],[-73.5651463,45.3773031],[-73.5652191,45.3772156],[-73.5652578,45.3771708],[-73.565314,45.3771058],[-73.5653853,45.3770328],[-73.5654141,45.3770032],[-73.5655156,45.3769099],[-73.5655302,45.376897],[-73.5656667,45.3767768],[-73.56581,45.3766506],[-73.5659488,45.3765285],[-73.5660947,45.3764],[-73.5662155,45.3762955],[-73.5662542,45.376262],[-73.5663505,45.3761754],[-73.5664571,45.3760787],[-73.5666102,45.3759407],[-73.5666901,45.3758642],[-73.5667183,45.3758372],[-73.5668271,45.3757283],[-73.5668901,45.3756664],[-73.5669096,45.3756473],[-73.5669885,45.3755673],[-73.5670306,45.3755227],[-73.5670731,45.3754775]]}";7;Rue Saint-Pierre;4;50;false;false;true;false;false;false;493.0;2;2;0;0;0;false;76008;6133354178;-73.559368;45.378809;76009;6133354177;-73.564699;45.378378;2;4;5;9498707;Bus 35 : Service PM;"";EXO;35 PM;Stationnement Incitatif Georges-Gagné;Stationnement Incitatif Georges-Gagné
684606318;"{\"type\":\"LineString\",\"coordinates\":[[-73.5641821,45.3793399],[-73.5642352,45.3792625],[-73.5642461,45.379246],[-73.5642563,45.3792305],[-73.5642811,45.3791881],[-73.5643047,45.3791454],[-73.5643314,45.3790906],[-73.5643539,45.3790389],[-73.5643666,45.3790099],[-73.5644095,45.3789061],[-73.5644171,45.3788865],[-73.5644566,45.3787856],[-73.5644641,45.3787663],[-73.5644774,45.3787324],[-73.5644859,45.3787107],[-73.5645381,45.3785705],[-73.5645661,45.3784955],[-73.5645748,45.3784722],[-73.5646483,45.3782698],[-73.5646648,45.3782221],[-73.5646962,45.3781314],[-73.5647224,45.3780609],[-73.5647287,45.3780445],[-73.5647454,45.3780009],[-73.5647833,45.3779103],[-73.5647976,45.3778766],[-73.564816,45.3778329],[-73.5648385,45.3777842],[-73.564853,45.377753],[-73.56489,45.3776812],[-73.5649316,45.3776094],[-73.5649404,45.3775953],[-73.5649795,45.3775329],[-73.5650345,45.3774502],[-73.5650979,45.3773642],[-73.5651463,45.3773031],[-73.5652191,45.3772156],[-73.5652578,45.3771708],[-73.565314,45.3771058],[-73.5653853,45.3770328],[-73.5654141,45.3770032],[-73.5655156,45.3769099],[-73.5655302,45.376897],[-73.5656667,45.3767768],[-73.56581,45.3766506],[-73.5659488,45.3765285],[-73.5660947,45.3764],[-73.5662155,45.3762955],[-73.5662542,45.376262],[-73.5663505,45.3761754],[-73.5664571,45.3760787],[-73.5666102,45.3759407],[-73.5666901,45.3758642],[-73.5667183,45.3758372],[-73.5668271,45.3757283],[-73.5668901,45.3756664],[-73.5669096,45.3756473],[-73.5669885,45.3755673],[-73.5670306,45.3755227],[-73.5670731,45.3754775]]}";1;Rue Saint-Pierre;4;50;false;false;true;false;false;false;246.5;2;2;0;0;0;false;76009;6133354177;-73.564699;45.378378;76399;6133353622;-73.570739;45.374162;1;5;6;9498707;Bus 35 : Service PM;"";EXO;35 PM;Stationnement Incitatif Georges-Gagné;Stationnement Incitatif Georges-Gagné
684606305;"{\"type\":\"LineString\",\"coordinates\":[[-73.5685144,45.3758265],[-73.5684086,45.3758032],[-73.568253,45.3757654],[-73.5679676,45.3756979],[-73.5676838,45.3756308],[-73.5675681,45.3756035],[-73.5673889,45.3755611],[-73.5672982,45.3755397],[-73.5672393,45.3755258],[-73.5671722,45.3755063],[-73.5670731,45.3754775]]}";2;Rue Perras;2;40;false;false;true;false;false;false;120.0;1;1;1;0;0;false;76009;6133354177;-73.564699;45.378378;76399;6133353622;-73.570739;45.374162;0;5;6;9498707;Bus 35 : Service PM;"";EXO;35 PM;Stationnement Incitatif Georges-Gagné;Stationnement Incitatif Georges-Gagné
684606304;"{\"type\":\"LineString\",\"coordinates\":[[-73.5705464,45.375271],[-73.5703326,45.3752308],[-73.5701985,45.3752086],[-73.5700817,45.3751926],[-73.5699762,45.3751818],[-73.5698756,45.375178],[-73.5697812,45.3751757],[-73.5696024,45.3751775],[-73.5693863,45.3751799],[-73.5690022,45.3751808],[-73.5689372,45.3751802],[-73.5688943,45.3751825],[-73.5688615,45.3751878],[-73.5688336,45.3751974],[-73.5688109,45.3752076],[-73.5687961,45.3752165],[-73.5687801,45.3752299],[-73.5687651,45.3752463],[-73.5687542,45.375264],[-73.5687329,45.3753091],[-73.5685528,45.3757356],[-73.5685144,45.3758265]]}";3;Rue Pacifique;2;40;false;false;true;false;false;false;211.0;0;0;1;0;0;false;76009;6133354177;-73.564699;45.378378;76399;6133353622;-73.570739;45.374162;0;5;6;9498707;Bus 35 : Service PM;"";EXO;35 PM;Stationnement Incitatif Georges-Gagné;Stationnement Incitatif Georges-Gagné
482048398;"{\"type\":\"LineString\",\"coordinates\":[[-73.5705464,45.375271],[-73.5705563,45.3752462],[-73.5705603,45.3752285],[-73.5705574,45.3752109],[-73.5705339,45.3751219],[-73.5705372,45.3751032],[-73.5705453,45.375089]]}";4;"";1;50;false;false;true;false;true;false;21.0;0;0;1;0;0;false;76009;6133354177;-73.564699;45.378378;76399;6133353622;-73.570739;45.374162;0;5;6;9498707;Bus 35 : Service PM;"";EXO;35 PM;Stationnement Incitatif Georges-Gagné;Stationnement Incitatif Georges-Gagné
482048406;"{\"type\":\"LineString\",\"coordinates\":[[-73.5705453,45.375089],[-73.5705587,45.3750733],[-73.5705752,45.3750553],[-73.570587,45.3750385],[-73.570595,45.3750217],[-73.5708393,45.3745072],[-73.5709307,45.3743128],[-73.5707241,45.3742611],[-73.570518,45.3742123],[-73.570279,45.3741556],[-73.570267,45.3741527],[-73.5702637,45.3741595],[-73.5701698,45.3743514],[-73.5701485,45.3743969],[-73.5700172,45.3746768],[-73.5698898,45.3749485],[-73.5698569,45.3750186]]}";5;"";1;50;false;false;true;false;true;false;124.0;0;1;0;0;0;false;76009;6133354177;-73.564699;45.378378;76399;6133353622;-73.570739;45.374162;1;5;6;9498707;Bus 35 : Service PM;"";EXO;35 PM;Stationnement Incitatif Georges-Gagné;Stationnement Incitatif Georges-Gagné
482048406;"{\"type\":\"LineString\",\"coordinates\":[[-73.5705453,45.375089],[-73.5705587,45.3750733],[-73.5705752,45.3750553],[-73.570587,45.3750385],[-73.570595,45.3750217],[-73.5708393,45.3745072],[-73.5709307,45.3743128],[-73.5707241,45.3742611],[-73.570518,45.3742123],[-73.570279,45.3741556],[-73.570267,45.3741527],[-73.5702637,45.3741595],[-73.5701698,45.3743514],[-73.5701485,45.3743969],[-73.5700172,45.3746768],[-73.5698898,45.3749485],[-73.5698569,45.3750186]]}";1;"";1;50;false;false;true;false;true;false;124.0;0;1;0;0;0;false;76399;6133353622;-73.570739;45.374162;76446;6133345982;-73.570411;45.371921;1;6;7;9498707;Bus 35 : Service PM;"";EXO;35 PM;Stationnement Incitatif Georges-Gagné;Stationnement Incitatif Georges-Gagné
482048398;"{\"type\":\"LineString\",\"coordinates\":[[-73.5705464,45.375271],[-73.5705563,45.3752462],[-73.5705603,45.3752285],[-73.5705574,45.3752109],[-73.5705339,45.3751219],[-73.5705372,45.3751032],[-73.5705453,45.375089]]}";2;"";1;50;false;false;true;false;true;false;21.0;0;0;1;0;0;false;76399;6133353622;-73.570739;45.374162;76446;6133345982;-73.570411;45.371921;0;6;7;9498707;Bus 35 : Service PM;"";EXO;35 PM;Stationnement Incitatif Georges-Gagné;Stationnement Incitatif Georges-Gagné
684606304;"{\"type\":\"LineString\",\"coordinates\":[[-73.5705464,45.375271],[-73.5703326,45.3752308],[-73.5701985,45.3752086],[-73.5700817,45.3751926],[-73.5699762,45.3751818],[-73.5698756,45.375178],[-73.5697812,45.3751757],[-73.5696024,45.3751775],[-73.5693863,45.3751799],[-73.5690022,45.3751808],[-73.5689372,45.3751802],[-73.5688943,45.3751825],[-73.5688615,45.3751878],[-73.5688336,45.3751974],[-73.5688109,45.3752076],[-73.5687961,45.3752165],[-73.5687801,45.3752299],[-73.5687651,45.3752463],[-73.5687542,45.375264],[-73.5687329,45.3753091],[-73.5685528,45.3757356],[-73.5685144,45.3758265]]}";3;Rue Pacifique;2;40;false;false;true;false;false;false;211.0;0;0;1;0;0;false;76399;6133353622;-73.570739;45.374162;76446;6133345982;-73.570411;45.371921;0;6;7;9498707;Bus 35 : Service PM;"";EXO;35 PM;Stationnement Incitatif Georges-Gagné;Stationnement Incitatif Georges-Gagné
684606305;"{\"type\":\"LineString\",\"coordinates\":[[-73.5685144,45.3758265],[-73.5684086,45.3758032],[-73.568253,45.3757654],[-73.5679676,45.3756979],[-73.5676838,45.3756308],[-73.5675681,45.3756035],[-73.5673889,45.3755611],[-73.5672982,45.3755397],[-73.5672393,45.3755258],[-73.5671722,45.3755063],[-73.5670731,45.3754775]]}";4;Rue Perras;2;40;false;false;true;false;false;false;120.0;1;1;1;0;0;false;76399;6133353622;-73.570739;45.374162;76446;6133345982;-73.570411;45.371921;0;6;7;9498707;Bus 35 : Service PM;"";EXO;35 PM;Stationnement Incitatif Georges-Gagné;Stationnement Incitatif Georges-Gagné
684451737;"{\"type\":\"LineString\",\"coordinates\":[[-73.5670731,45.3754775],[-73.567122,45.3754247],[-73.5671617,45.3753809],[-73.567664,45.37484],[-73.5677507,45.3747467],[-73.5678488,45.374639],[-73.5681623,45.3742947],[-73.5683992,45.3740233],[-73.5687897,45.3735774],[-73.5688179,45.373546],[-73.5688397,45.3735212]]}";5;Rue Saint-Pierre;4;50;false;false;true;false;false;false;258.0;1;2;0;0;0;false;76399;6133353622;-73.570739;45.374162;76446;6133345982;-73.570411;45.371921;0;6;7;9498707;Bus 35 : Service PM;"";EXO;35 PM;Stationnement Incitatif Georges-Gagné;Stationnement Incitatif Georges-Gagné
788158837;"{\"type\":\"LineString\",\"coordinates\":[[-73.5688397,45.3735212],[-73.5689233,45.373429],[-73.5689985,45.3733448],[-73.5690144,45.3733271],[-73.5690756,45.3732586],[-73.5691134,45.3732163],[-73.5692626,45.3730493],[-73.569331,45.3729761],[-73.5694139,45.3728874],[-73.5694769,45.3728189],[-73.5695651,45.372723],[-73.5697092,45.3725663],[-73.5698028,45.3724647],[-73.5698999,45.372361],[-73.5699517,45.3723059],[-73.5701996,45.3720429],[-73.5704217,45.3718023],[-73.5704773,45.3717411]]}";6;Rue Saint-Pierre;4;50;false;false;true;false;false;false;118.0;0;2;0;0;0;false;76399;6133353622;-73.570739;45.374162;76446;6133345982;-73.570411;45.371921;1;6;7;9498707;Bus 35 : Service PM;"";EXO;35 PM;Stationnement Incitatif Georges-Gagné;Stationnement Incitatif Georges-Gagné
788158837;"{\"type\":\"LineString\",\"coordinates\":[[-73.5688397,45.3735212],[-73.5689233,45.373429],[-73.5689985,45.3733448],[-73.5690144,45.3733271],[-73.5690756,45.3732586],[-73.5691134,45.3732163],[-73.5692626,45.3730493],[-73.569331,45.3729761],[-73.5694139,45.3728874],[-73.5694769,45.3728189],[-73.5695651,45.372723],[-73.5697092,45.3725663],[-73.5698028,45.3724647],[-73.5698999,45.372361],[-73.5699517,45.3723059],[-73.5701996,45.3720429],[-73.5704217,45.3718023],[-73.5704773,45.3717411]]}";1;Rue Saint-Pierre;4;50;false;false;true;false;false;false;118.0;0;2;0;0;0;false;76446;6133345982;-73.570411;45.371921;76447;6133345981;-73.568494;45.371284;1;7;8;9498707;Bus 35 : Service PM;"";EXO;35 PM;Stationnement Incitatif Georges-Gagné;Stationnement Incitatif Georges-Gagné
782759140;"{\"type\":\"LineString\",\"coordinates\":[[-73.5701343,45.3715871],[-73.570181,45.3716052],[-73.5702602,45.3716394],[-73.5703747,45.3716911],[-73.5704773,45.3717411]]}";2;Rue Bellerive;2;40;false;false;true;false;false;false;32.0;0;1;0;0;0;false;76446;6133345982;-73.570411;45.371921;76447;6133345981;-73.568494;45.371284;0;7;8;9498707;Bus 35 : Service PM;"";EXO;35 PM;Stationnement Incitatif Georges-Gagné;Stationnement Incitatif Georges-Gagné
782759139;"{\"type\":\"LineString\",\"coordinates\":[[-73.5698447,45.3715183],[-73.5701343,45.3715871]]}";3;Rue Bellerive;3;40;false;false;true;false;false;false;24.0;0;0;0;0;0;false;76446;6133345982;-73.570411;45.371921;76447;6133345981;-73.568494;45.371284;0;7;8;9498707;Bus 35 : Service PM;"";EXO;35 PM;Stationnement Incitatif Georges-Gagné;Stationnement Incitatif Georges-Gagné
788240403;"{\"type\":\"LineString\",\"coordinates\":[[-73.5694914,45.3714492],[-73.5695278,45.3714526],[-73.5695703,45.3714576],[-73.5696172,45.3714658],[-73.5696625,45.3714753],[-73.5698447,45.3715183]]}";4;Rue Bellerive;2;40;false;false;true;false;false;false;29.0;0;1;0;0;0;false;76446;6133345982;-73.570411;45.371921;76447;6133345981;-73.568494;45.371284;0;7;8;9498707;Bus 35 : Service PM;"";EXO;35 PM;Stationnement Incitatif Georges-Gagné;Stationnement Incitatif Georges-Gagné
423878486;"{\"type\":\"LineString\",\"coordinates\":[[-73.5683594,45.3712606],[-73.5684922,45.3713023],[-73.5686863,45.3713648],[-73.5687463,45.3713817],[-73.5688031,45.3713928],[-73.5688594,45.3714016],[-73.5689223,45.3714069],[-73.5691756,45.3714246],[-73.5693233,45.3714347],[-73.5694914,45.3714492]]}";5;Rue Bellerive;2;40;false;false;true;false;false;false;46.5;0;0;1;0;0;false;76446;6133345982;-73.570411;45.371921;76447;6133345981;-73.568494;45.371284;1;7;8;9498707;Bus 35 : Service PM;"";EXO;35 PM;Stationnement Incitatif Georges-Gagné;Stationnement Incitatif Georges-Gagné
684606306;"{\"type\":\"LineString\",\"coordinates\":[[-73.5683594,45.3712606],[-73.5683288,45.3713081],[-73.5682907,45.3713573],[-73.5681905,45.3714774],[-73.5681317,45.3715412],[-73.5680606,45.3716078],[-73.5679857,45.3716721],[-73.5679156,45.3717285],[-73.5678602,45.3717692],[-73.5677966,45.3718145],[-73.5676966,45.3718783],[-73.5676239,45.3719204],[-73.5675495,45.3719614],[-73.5674615,45.3720036],[-73.5673897,45.3720371],[-73.5667328,45.3723012],[-73.5666889,45.3723159],[-73.5666453,45.3723285],[-73.5665913,45.3723374]]}";1;Rue Berger;2;40;false;false;true;false;false;false;188.0;0;0;1;0;0;false;76447;6133345981;-73.568494;45.371284;76448;6133345980;-73.565882;45.372127;2;8;9;9498707;Bus 35 : Service PM;"";EXO;35 PM;Stationnement Incitatif Georges-Gagné;Stationnement Incitatif Georges-Gagné
43536323;"{\"type\":\"LineString\",\"coordinates\":[[-73.5665913,45.3723374],[-73.5665433,45.3723391],[-73.5664878,45.3723358],[-73.5664356,45.3723264],[-73.5663839,45.3723151],[-73.5658301,45.3721808],[-73.5657163,45.372153],[-73.5656513,45.3721373],[-73.5653941,45.3720754]]}";2;Rue Breton;2;40;false;false;true;false;false;false;99.0;0;0;2;0;0;false;76447;6133345981;-73.568494;45.371284;76448;6133345980;-73.565882;45.372127;2;8;9;9498707;Bus 35 : Service PM;"";EXO;35 PM;Stationnement Incitatif Georges-Gagné;Stationnement Incitatif Georges-Gagné
43536323;"{\"type\":\"LineString\",\"coordinates\":[[-73.5665913,45.3723374],[-73.5665433,45.3723391],[-73.5664878,45.3723358],[-73.5664356,45.3723264],[-73.5663839,45.3723151],[-73.5658301,45.3721808],[-73.5657163,45.372153],[-73.5656513,45.3721373],[-73.5653941,45.3720754]]}";1;Rue Breton;2;40;false;false;true;false;false;false;49.5;0;0;2;0;0;false;76448;6133345980;-73.565882;45.372127;76449;6133345979;-73.560743;45.370872;1;9;10;9498707;Bus 35 : Service PM;"";EXO;35 PM;Stationnement Incitatif Georges-Gagné;Stationnement Incitatif Georges-Gagné
788531236;"{\"type\":\"LineString\",\"coordinates\":[[-73.5653941,45.3720754],[-73.5622865,45.371328],[-73.5621808,45.3713051],[-73.5620831,45.3712846],[-73.5606584,45.3709312],[-73.5605501,45.3709049]]}";2;Rue Breton;2;40;false;false;true;false;false;false;200.5;0;0;3;0;0;false;76448;6133345980;-73.565882;45.372127;76449;6133345979;-73.560743;45.370872;1;9;10;9498707;Bus 35 : Service PM;"";EXO;35 PM;Stationnement Incitatif Georges-Gagné;Stationnement Incitatif Georges-Gagné
788531237;"{\"type\":\"LineString\",\"coordinates\":[[-73.5638617,45.3656983],[-73.5639094,45.3656102],[-73.5641564,45.3651734],[-73.5644744,45.3646056],[-73.5644826,45.3645951],[-73.5644929,45.3645841],[-73.5645001,45.3645776],[-73.5645103,45.3645683],[-73.5645322,45.3645505],[-73.56456,45.3645281],[-73.564526,45.3645096],[-73.5644998,45.3644872],[-73.5644792,45.3644628],[-73.5643856,45.3642989],[-73.5643353,45.3642092],[-73.5643007,45.3641319]]}";1;Rue Beauvais;2;40;false;false;true;false;false;false;95.5;0;1;3;0;0;false;76453;6133345975;-73.564541;45.364677;76454;6133345974;-73.563537;45.36236;1;14;15;9498707;Bus 35 : Service PM;"";EXO;35 PM;Stationnement Incitatif Georges-Gagné;Stationnement Incitatif Georges-Gagné
43536316;"{\"type\":\"LineString\",\"coordinates\":[[-73.5643007,45.3641319],[-73.5642728,45.3640668],[-73.5642534,45.3640067],[-73.5642472,45.3639875],[-73.5642328,45.3639416],[-73.564214,45.363885],[-73.5641975,45.3638381],[-73.5641734,45.3637883],[-73.5641425,45.36373],[-73.5641094,45.3636747],[-73.5639193,45.3634281],[-73.5638599,45.3633556],[-73.5637908,45.3632704],[-73.5635022,45.3629172]]}";2;Rue Côté;2;40;false;false;true;false;false;false;150.0;0;2;2;0;0;false;76453;6133345975;-73.564541;45.364677;76454;6133345974;-73.563537;45.36236;0;14;15;9498707;Bus 35 : Service PM;"";EXO;35 PM;Stationnement Incitatif Georges-Gagné;Stationnement Incitatif Georges-Gagné
783291329;"{\"type\":\"LineString\",\"coordinates\":[[-73.5635022,45.3629172],[-73.5634766,45.3628954],[-73.5634464,45.3628753],[-73.5634147,45.362856],[-73.5633772,45.3628369],[-73.5633486,45.3628225],[-73.5633197,45.3628027],[-73.5633012,45.3627801]]}";3;Rue Côté;2;40;false;false;true;false;false;false;23.0;0;1;0;0;0;false;76453;6133345975;-73.564541;45.364677;76454;6133345974;-73.563537;45.36236;0;14;15;9498707;Bus 35 : Service PM;"";EXO;35 PM;Stationnement Incitatif Georges-Gagné;Stationnement Incitatif Georges-Gagné
503527633;"{\"type\":\"LineString\",\"coordinates\":[[-73.5633012,45.3627801],[-73.5632891,45.3627563],[-73.5632834,45.3627311],[-73.5632891,45.3627072],[-73.5634781,45.36234],[-73.563492,45.3623141],[-73.5635072,45.3622947],[-73.5635328,45.3622705],[-73.5635488,45.3622487]]}";4;Rue Côté;2;40;false;false;true;false;false;false;32.0;0;0;1;0;0;false;76453;6133345975;-73.564541;45.364677;76454;6133345974;-73.563537;45.36236;1;14;15;9498707;Bus 35 : Service PM;"";EXO;35 PM;Stationnement Incitatif Georges-Gagné;Stationnement Incitatif Georges-Gagné
783161353;"{\"type\":\"LineString\",\"coordinates\":[[-73.5671093,45.3629347],[-73.5667496,45.362874],[-73.5663905,45.362818],[-73.5663401,45.3628101],[-73.5659689,45.3627521],[-73.5657568,45.3627169],[-73.5657181,45.3627105],[-73.5655322,45.3626785],[-73.5653241,45.3626408],[-73.5651032,45.3625997],[-73.5648787,45.3625582],[-73.5646476,45.3625097],[-73.5643464,45.3624446],[-73.5636213,45.3622665],[-73.5635488,45.3622487]]}";1;Montée Lasaline;2;50;false;false;true;false;false;false;290.0;0;1;0;0;0;false;76454;6133345974;-73.563537;45.36236;76455;6133345973;-73.569919;45.363653;2;15;16;9498707;Bus 35 : Service PM;"";EXO;35 PM;Stationnement Incitatif Georges-Gagné;Stationnement Incitatif Georges-Gagné
783161354;"{\"type\":\"LineString\",\"coordinates\":[[-73.5675778,45.3630148],[-73.5671093,45.3629347]]}";2;Montée Lasaline;2;50;false;false;true;false;false;false;38.0;0;0;0;0;0;false;76454;6133345974;-73.563537;45.36236;76455;6133345973;-73.569919;45.363653;0;15;16;9498707;Bus 35 : Service PM;"";EXO;35 PM;Stationnement Incitatif Georges-Gagné;Stationnement Incitatif Georges-Gagné
783165638;"{\"type\":\"LineString\",\"coordinates\":[[-73.569653,45.3634929],[-73.5696027,45.3634795],[-73.5694434,45.3634369],[-73.5690542,45.3633351],[-73.5688946,45.3632953],[-73.5686869,45.3632435],[-73.5682946,45.3631544],[-73.5681782,45.3631306],[-73.5679322,45.3630802],[-73.5679202,45.3630777],[-73.5677464,45.3630458],[-73.5675778,45.3630148]]}";3;Montée Lasaline;2;50;false;false;true;false;false;false;172.0;0;1;0;0;0;false;76454;6133345974;-73.563537;45.36236;76455;6133345973;-73.569919;45.363653;0;15;16;9498707;Bus 35 : Service PM;"";EXO;35 PM;Stationnement Incitatif Georges-Gagné;Stationnement Incitatif Georges-Gagné
684606308;"{\"type\":\"LineString\",\"coordinates\":[[-73.5700907,45.363618],[-73.5700284,45.3635954],[-73.5698625,45.3635489],[-73.569653,45.3634929]]}";4;Montée Lasaline;2;50;false;false;true;false;false;false;38.0;0;2;0;0;0;false;76454;6133345974;-73.563537;45.36236;76455;6133345973;-73.569919;45.363653;2;15;16;9498707;Bus 35 : Service PM;"";EXO;35 PM;Stationnement Incitatif Georges-Gagné;Stationnement Incitatif Georges-Gagné
24602465;"{\"type\":\"LineString\",\"coordinates\":[[-73.5700907,45.363618],[-73.570118,45.3635795],[-73.570153,45.3635351],[-73.5702069,45.3634696],[-73.570259,45.3634161],[-73.5703044,45.3633697],[-73.570337,45.3633408],[-73.5703746,45.3633076],[-73.5704099,45.3632777],[-73.5704338,45.3632562],[-73.57048,45.3632182],[-73.5705442,45.3631672],[-73.5705966,45.3631303],[-73.5706625,45.3630869],[-73.5707266,45.3630493],[-73.5707823,45.3630186],[-73.5708566,45.3629827],[-73.5710671,45.362882]]}";1;Rue Saint-Pierre;2;50;false;false;true;false;false;false;114.0;0;2;0;0;0;false;76455;6133345973;-73.569919;45.363653;76456;6133345972;-73.572206;45.364483;2;16;17;9498707;Bus 35 : Service PM;"";EXO;35 PM;Stationnement Incitatif Georges-Gagné;Stationnement Incitatif Georges-Gagné
684606308;"{\"type\":\"LineString\",\"coordinates\":[[-73.5700907,45.363618],[-73.5700284,45.3635954],[-73.5698625,45.3635489],[-73.569653,45.3634929]]}";2;Montée Lasaline;2;50;false;false;true;false;false;false;38.0;0;2;0;0;0;false;76455;6133345973;-73.569919;45.363653;76456;6133345972;-73.572206;45.364483;0;16;17;9498707;Bus 35 : Service PM;"";EXO;35 PM;Stationnement Incitatif Georges-Gagné;Stationnement Incitatif Georges-Gagné
783165638;"{\"type\":\"LineString\",\"coordinates\":[[-73.569653,45.3634929],[-73.5696027,45.3634795],[-73.5694434,45.3634369],[-73.5690542,45.3633351],[-73.5688946,45.3632953],[-73.5686869,45.3632435],[-73.5682946,45.3631544],[-73.5681782,45.3631306],[-73.5679322,45.3630802],[-73.5679202,45.3630777],[-73.5677464,45.3630458],[-73.5675778,45.3630148]]}";3;Montée Lasaline;2;50;false;false;true;false;false;false;172.0;0;1;0;0;0;false;76455;6133345973;-73.569919;45.363653;76456;6133345972;-73.572206;45.364483;0;16;17;9498707;Bus 35 : Service PM;"";EXO;35 PM;Stationnement Incitatif Georges-Gagné;Stationnement Incitatif Georges-Gagné
783161354;"{\"type\":\"LineString\",\"coordinates\":[[-73.5675778,45.3630148],[-73.5671093,45.3629347]]}";4;Montée Lasaline;2;50;false;false;true;false;false;false;38.0;0;0;0;0;0;false;76455;6133345973;-73.569919;45.363653;76456;6133345972;-73.572206;45.364483;0;16;17;9498707;Bus 35 : Service PM;"";EXO;35 PM;Stationnement Incitatif Georges-Gagné;Stationnement Incitatif Georges-Gagné
783161353;"{\"type\":\"LineString\",\"coordinates\":[[-73.5671093,45.3629347],[-73.5667496,45.362874],[-73.5663905,45.362818],[-73.5663401,45.3628101],[-73.5659689,45.3627521],[-73.5657568,45.3627169],[-73.5657181,45.3627105],[-73.5655322,45.3626785],[-73.5653241,45.3626408],[-73.5651032,45.3625997],[-73.5648787,45.3625582],[-73.5646476,45.3625097],[-73.5643464,45.3624446],[-73.5636213,45.3622665],[-73.5635488,45.3622487]]}";5;Montée Lasaline;2;50;false;false;true;false;false;false;290.0;0;1;0;0;0;false;76455;6133345973;-73.569919;45.363653;76456;6133345972;-73.572206;45.364483;0;16;17;9498707;Bus 35 : Service PM;"";EXO;35 PM;Stationnement Incitatif Georges-Gagné;Stationnement Incitatif Georges-Gagné
503527633;"{\"type\":\"LineString\",\"coordinates\":[[-73.5633012,45.3627801],[-73.5632891,45.3627563],[-73.5632834,45.3627311],[-73.5632891,45.3627072],[-73.5634781,45.36234],[-73.563492,45.3623141],[-73.5635072,45.3622947],[-73.5635328,45.3622705],[-73.5635488,45.3622487]]}";6;Rue Côté;2;40;false;false;true;false;false;false;64.0;0;0;1;0;0;false;76455;6133345973;-73.569919;45.363653;76456;6133345972;-73.572206;45.364483;0;16;17;9498707;Bus 35 : Service PM;"";EXO;35 PM;Stationnement Incitatif Georges-Gagné;Stationnement Incitatif Georges-Gagné
783291329;"{\"type\":\"LineString\",\"coordinates\":[[-73.5635022,45.3629172],[-73.5634766,45.3628954],[-73.5634464,45.3628753],[-73.5634147,45.362856],[-73.5633772,45.3628369],[-73.5633486,45.3628225],[-73.5633197,45.3628027],[-73.5633012,45.3627801]]}";7;Rue Côté;2;40;false;false;true;false;false;false;23.0;0;1;0;0;0;false;76455;6133345973;-73.569919;45.363653;76456;6133345972;-73.572206;45.364483;0;16;17;9498707;Bus 35 : Service PM;"";EXO;35 PM;Stationnement Incitatif Georges-Gagné;Stationnement Incitatif Georges-Gagné
43536316;"{\"type\":\"LineString\",\"coordinates\":[[-73.5643007,45.3641319],[-73.5642728,45.3640668],[-73.5642534,45.3640067],[-73.5642472,45.3639875],[-73.5642328,45.3639416],[-73.564214,45.363885],[-73.5641975,45.3638381],[-73.5641734,45.3637883],[-73.5641425,45.36373],[-73.5641094,45.3636747],[-73.5639193,45.3634281],[-73.5638599,45.3633556],[-73.5637908,45.3632704],[-73.5635022,45.3629172]]}";8;Rue Côté;2;40;false;false;true;false;false;false;150.0;0;2;2;0;0;false;76455;6133345973;-73.569919;45.363653;76456;6133345972;-73.572206;45.364483;0;16;17;9498707;Bus 35 : Service PM;"";EXO;35 PM;Stationnement Incitatif Georges-Gagné;Stationnement Incitatif Georges-Gagné
788531237;"{\"type\":\"LineString\",\"coordinates\":[[-73.5638617,45.3656983],[-73.5639094,45.3656102],[-73.5641564,45.3651734],[-73.5644744,45.3646056],[-73.5644826,45.3645951],[-73.5644929,45.3645841],[-73.5645001,45.3645776],[-73.5645103,45.3645683],[-73.5645322,45.3645505],[-73.56456,45.3645281],[-73.564526,45.3645096],[-73.5644998,45.3644872],[-73.5644792,45.3644628],[-73.5643856,45.3642989],[-73.5643353,45.3642092],[-73.5643007,45.3641319]]}";9;Rue Beauvais;2;40;false;false;true;false;false;false;191.0;0;1;3;0;0;false;76455;6133345973;-73.569919;45.363653;76456;6133345972;-73.572206;45.364483;0;16;17;9498707;Bus 35 : Service PM;"";EXO;35 PM;Stationnement Incitatif Georges-Gagné;Stationnement Incitatif Georges-Gagné
43536325;"{\"type\":\"LineString\",\"coordinates\":[[-73.5605501,45.3709049],[-73.560574,45.3708606],[-73.5605932,45.3708121],[-73.5606202,45.3707016],[-73.5606361,45.370626],[-73.5606429,45.3705762],[-73.5606444,45.3705418],[-73.5606421,45.3705044],[-73.5606343,45.3704398],[-73.5606247,45.3703604],[-73.5606196,45.3702893],[-73.5606192,45.3702497],[-73.56062,45.3701969],[-73.5606231,45.3701441],[-73.5606294,45.3700972],[-73.5606397,45.3700588],[-73.5610284,45.3693074],[-73.5610535,45.3692791],[-73.5610767,45.3692571],[-73.5611023,45.3692402],[-73.5611439,45.3692218],[-73.561963,45.368969],[-73.5620191,45.3689516],[-73.562063,45.3689354],[-73.5620903,45.3689178],[-73.562109,45.3688977],[-73.5624057,45.3683766],[-73.5627055,45.3678204],[-73.5627484,45.3677429],[-73.5627814,45.3676821],[-73.5630936,45.3671064],[-73.5634033,45.3665408],[-73.5638199,45.36578],[-73.5638617,45.3656983]]}";10;Rue Beauvais;2;40;false;false;true;false;false;false;663.0;0;0;6;0;0;false;76455;6133345973;-73.569919;45.363653;76456;6133345972;-73.572206;45.364483;0;16;17;9498707;Bus 35 : Service PM;"";EXO;35 PM;Stationnement Incitatif Georges-Gagné;Stationnement Incitatif Georges-Gagné
788531236;"{\"type\":\"LineString\",\"coordinates\":[[-73.5653941,45.3720754],[-73.5622865,45.371328],[-73.5621808,45.3713051],[-73.5620831,45.3712846],[-73.5606584,45.3709312],[-73.5605501,45.3709049]]}";11;Rue Breton;2;40;false;false;true;false;false;false;401.0;0;0;3;0;0;false;76455;6133345973;-73.569919;45.363653;76456;6133345972;-73.572206;45.364483;0;16;17;9498707;Bus 35 : Service PM;"";EXO;35 PM;Stationnement Incitatif Georges-Gagné;Stationnement Incitatif Georges-Gagné
43536323;"{\"type\":\"LineString\",\"coordinates\":[[-73.5665913,45.3723374],[-73.5665433,45.3723391],[-73.5664878,45.3723358],[-73.5664356,45.3723264],[-73.5663839,45.3723151],[-73.5658301,45.3721808],[-73.5657163,45.372153],[-73.5656513,45.3721373],[-73.5653941,45.3720754]]}";12;Rue Breton;2;40;false;false;true;false;false;false;99.0;0;0;2;0;0;false;76455;6133345973;-73.569919;45.363653;76456;6133345972;-73.572206;45.364483;0;16;17;9498707;Bus 35 : Service PM;"";EXO;35 PM;Stationnement Incitatif Georges-Gagné;Stationnement Incitatif Georges-Gagné
684606306;"{\"type\":\"LineString\",\"coordinates\":[[-73.5683594,45.3712606],[-73.5683288,45.3713081],[-73.5682907,45.3713573],[-73.5681905,45.3714774],[-73.5681317,45.3715412],[-73.5680606,45.3716078],[-73.5679857,45.3716721],[-73.5679156,45.3717285],[-73.5678602,45.3717692],[-73.5677966,45.3718145],[-73.5676966,45.3718783],[-73.5676239,45.3719204],[-73.5675495,45.3719614],[-73.5674615,45.3720036],[-73.5673897,45.3720371],[-73.5667328,45.3723012],[-73.5666889,45.3723159],[-73.5666453,45.3723285],[-73.5665913,45.3723374]]}";13;Rue Berger;2;40;false;false;true;false;false;false;188.0;0;0;1;0;0;false;76455;6133345973;-73.569919;45.363653;76456;6133345972;-73.572206;45.364483;0;16;17;9498707;Bus 35 : Service PM;"";EXO;35 PM;Stationnement Incitatif Georges-Gagné;Stationnement Incitatif Georges-Gagné
423878486;"{\"type\":\"LineString\",\"coordinates\":[[-73.5683594,45.3712606],[-73.5684922,45.3713023],[-73.5686863,45.3713648],[-73.5687463,45.3713817],[-73.5688031,45.3713928],[-73.5688594,45.3714016],[-73.5689223,45.3714069],[-73.5691756,45.3714246],[-73.5693233,45.3714347],[-73.5694914,45.3714492]]}";14;Rue Bellerive;2;40;false;false;true;false;false;false;93.0;0;0;1;0;0;false;76455;6133345973;-73.569919;45.363653;76456;6133345972;-73.572206;45.364483;0;16;17;9498707;Bus 35 : Service PM;"";EXO;35 PM;Stationnement Incitatif Georges-Gagné;Stationnement Incitatif Georges-Gagné
788240403;"{\"type\":\"LineString\",\"coordinates\":[[-73.5694914,45.3714492],[-73.5695278,45.3714526],[-73.5695703,45.3714576],[-73.5696172,45.3714658],[-73.5696625,45.3714753],[-73.5698447,45.3715183]]}";15;Rue Bellerive;2;40;false;false;true;false;false;false;29.0;0;1;0;0;0;false;76455;6133345973;-73.569919;45.363653;76456;6133345972;-73.572206;45.364483;0;16;17;9498707;Bus 35 : Service PM;"";EXO;35 PM;Stationnement Incitatif Georges-Gagné;Stationnement Incitatif Georges-Gagné
782759139;"{\"type\":\"LineString\",\"coordinates\":[[-73.5698447,45.3715183],[-73.5701343,45.3715871]]}";16;Rue Bellerive;3;40;false;false;true;false;false;false;24.0;0;0;0;0;0;false;76455;6133345973;-73.569919;45.363653;76456;6133345972;-73.572206;45.364483;0;16;17;9498707;Bus 35 : Service PM;"";EXO;35 PM;Stationnement Incitatif Georges-Gagné;Stationnement Incitatif Georges-Gagné
782759140;"{\"type\":\"LineString\",\"coordinates\":[[-73.5701343,45.3715871],[-73.570181,45.3716052],[-73.5702602,45.3716394],[-73.5703747,45.3716911],[-73.5704773,45.3717411]]}";17;Rue Bellerive;2;40;false;false;true;false;false;false;32.0;0;1;0;0;0;false;76455;6133345973;-73.569919;45.363653;76456;6133345972;-73.572206;45.364483;0;16;17;9498707;Bus 35 : Service PM;"";EXO;35 PM;Stationnement Incitatif Georges-Gagné;Stationnement Incitatif Georges-Gagné
684466621;"{\"type\":\"LineString\",\"coordinates\":[[-73.5704773,45.3717411],[-73.5705271,45.3716837],[-73.5706042,45.3715896],[-73.5706926,45.3714748],[-73.5707676,45.3713708],[-73.5708289,45.3712809],[-73.5708369,45.3712692],[-73.57089,45.3711794],[-73.5709287,45.371114],[-73.5709672,45.3710426],[-73.5709747,45.3710286],[-73.5710142,45.3709498],[-73.5710855,45.3708005],[-73.571123,45.3707124],[-73.5711569,45.3706193],[-73.5711753,45.3705603],[-73.5711825,45.3705375],[-73.5711849,45.3705297],[-73.571202,45.3704601],[-73.5712088,45.3704322],[-73.571213,45.3704148],[-73.5712278,45.3703383]]}";18;Rue Saint-Pierre;4;50;false;false;true;false;false;false;168.0;0;2;0;0;0;false;76455;6133345973;-73.569919;45.363653;76456;6133345972;-73.572206;45.364483;0;16;17;9498707;Bus 35 : Service PM;"";EXO;35 PM;Stationnement Incitatif Georges-Gagné;Stationnement Incitatif Georges-Gagné
760186622;"{\"type\":\"LineString\",\"coordinates\":[[-73.5712278,45.3703383],[-73.5712309,45.3702804],[-73.5712313,45.3702352],[-73.5712318,45.3701758],[-73.571222,45.3700177]]}";19;Rue Saint-Pierre;2;50;false;false;true;false;false;false;36.0;0;1;0;0;0;false;76455;6133345973;-73.569919;45.363653;76456;6133345972;-73.572206;45.364483;0;16;17;9498707;Bus 35 : Service PM;"";EXO;35 PM;Stationnement Incitatif Georges-Gagné;Stationnement Incitatif Georges-Gagné
788161410;"{\"type\":\"LineString\",\"coordinates\":[[-73.571222,45.3700177],[-73.5712173,45.3699486],[-73.5712147,45.3699098],[-73.5712119,45.3698898],[-73.5711804,45.3696617],[-73.5711782,45.3696489],[-73.5711461,45.3694639],[-73.5711177,45.3693318],[-73.5710756,45.3691906],[-73.5710564,45.3691263],[-73.5710375,45.3690709],[-73.571012,45.3689962],[-73.5709977,45.3689542],[-73.5709862,45.3689205],[-73.5709639,45.3688528],[-73.5709457,45.3687976],[-73.570914,45.3687006],[-73.5709109,45.3686916],[-73.5708831,45.3686139],[-73.5707624,45.3682765],[-73.5707531,45.3682504],[-73.5706796,45.3680443],[-73.5706712,45.3680209],[-73.5705739,45.3677492],[-73.5705478,45.3676763],[-73.5704902,45.3675155],[-73.5704818,45.3674921],[-73.5704374,45.367367],[-73.5704138,45.3673006],[-73.5703452,45.3671023],[-73.5703095,45.3669953],[-73.5701932,45.3666461],[-73.5701723,45.3665834],[-73.5701146,45.3664053],[-73.5700774,45.3662905],[-73.5700329,45.3661533],[-73.570029,45.3661401],[-73.569999,45.3660393],[-73.5699848,45.3659915],[-73.5699723,45.3659471],[-73.5699559,45.3658891],[-73.5699534,45.3658791],[-73.5699369,45.3658143],[-73.5699178,45.3657127],[-73.569912,45.3656677],[-73.5698984,45.3655609]]}";20;Rue Saint-Pierre;2;50;false;false;true;false;false;false;507.0;0;5;0;0;0;false;76455;6133345973;-73.569919;45.363653;76456;6133345972;-73.572206;45.364483;0;16;17;9498707;Bus 35 : Service PM;"";EXO;35 PM;Stationnement Incitatif Georges-Gagné;Stationnement Incitatif Georges-Gagné
782783643;"{\"type\":\"LineString\",\"coordinates\":[[-73.5702486,45.3656291],[-73.5700437,45.3655823],[-73.5699853,45.3655695],[-73.5699639,45.3655651],[-73.5699349,45.3655613],[-73.5698984,45.3655609]]}";21;Montée Saint-Régis;2;30;false;false;true;false;false;false;29.0;0;1;1;0;0;false;76455;6133345973;-73.569919;45.363653;76456;6133345972;-73.572206;45.364483;0;16;17;9498707;Bus 35 : Service PM;"";EXO;35 PM;Stationnement Incitatif Georges-Gagné;Stationnement Incitatif Georges-Gagné
782786219;"{\"type\":\"LineString\",\"coordinates\":[[-73.572599,45.3662206],[-73.5724292,45.3661793],[-73.5722953,45.3661469],[-73.5721954,45.3661218],[-73.5721044,45.3660992],[-73.5715913,45.3659717],[-73.5709118,45.3658045],[-73.5708268,45.3657842],[-73.5707655,45.3657667],[-73.5707034,45.3657469],[-73.5706437,45.3657265],[-73.5705887,45.3657105],[-73.570567,45.3657053],[-73.5703687,45.3656578],[-73.5702486,45.3656291]]}";22;Montée Saint-Régis;2;30;false;false;true;false;false;false;196.0;0;3;1;0;0;false;76455;6133345973;-73.569919;45.363653;76456;6133345972;-73.572206;45.364483;0;16;17;9498707;Bus 35 : Service PM;"";EXO;35 PM;Stationnement Incitatif Georges-Gagné;Stationnement Incitatif Georges-Gagné
172295454;"{\"type\":\"LineString\",\"coordinates\":[[-73.5753964,45.3669117],[-73.5753039,45.3668893],[-73.5747477,45.3667444],[-73.5745587,45.3666967],[-73.5744559,45.3666707],[-73.5743352,45.3666416],[-73.5741886,45.3666062],[-73.5736527,45.3664787],[-73.5735458,45.3664533],[-73.5733337,45.366405],[-73.5732464,45.3663848],[-73.5731624,45.3663644],[-73.5727145,45.3662501],[-73.5726994,45.3662462],[-73.572599,45.3662206]]}";23;Montée Saint-Régis;2;50;false;false;true;false;false;false;233.0;0;7;1;0;0;false;76455;6133345973;-73.569919;45.363653;76456;6133345972;-73.572206;45.364483;0;16;17;9498707;Bus 35 : Service PM;"";EXO;35 PM;Stationnement Incitatif Georges-Gagné;Stationnement Incitatif Georges-Gagné
43410461;"{\"type\":\"LineString\",\"coordinates\":[[-73.5753964,45.3669117],[-73.5754262,45.3668563],[-73.575439,45.3668324],[-73.5755507,45.3666194],[-73.5761472,45.3654819],[-73.5761638,45.3654506],[-73.5761936,45.3653942]]}";24;Rue Victoria;2;30;false;false;true;false;false;false;180.0;0;2;2;0;0;false;76455;6133345973;-73.569919;45.363653;76456;6133345972;-73.572206;45.364483;0;16;17;9498707;Bus 35 : Service PM;"";EXO;35 PM;Stationnement Incitatif Georges-Gagné;Stationnement Incitatif Georges-Gagné
782776956;"{\"type\":\"LineString\",\"coordinates\":[[-73.5779812,45.3658886],[-73.5779446,45.3658796],[-73.5771968,45.3656758],[-73.5770957,45.3656482],[-73.5770399,45.3656328],[-73.5768603,45.3655821],[-73.5766921,45.3655347],[-73.5765023,45.3654812],[-73.5761936,45.3653942]]}";25;Rue de l'Église;2;30;false;false;true;false;false;false;151.0;0;4;1;0;0;false;76455;6133345973;-73.569919;45.363653;76456;6133345972;-73.572206;45.364483;0;16;17;9498707;Bus 35 : Service PM;"";EXO;35 PM;Stationnement Incitatif Georges-Gagné;Stationnement Incitatif Georges-Gagné
43410479;"{\"type\":\"LineString\",\"coordinates\":[[-73.5805203,45.3651878],[-73.5804465,45.3652413],[-73.5804075,45.3652695],[-73.5801556,45.365451],[-73.5797783,45.3657154],[-73.5796789,45.3657851],[-73.5795706,45.3658562],[-73.5794769,45.3659221],[-73.5793969,45.365974],[-73.5793415,45.3660076],[-73.5792789,45.3660358],[-73.5792086,45.3660579],[-73.5791492,45.3660749],[-73.5790471,45.3660939],[-73.5789636,45.3661018],[-73.5788769,45.366101],[-73.578801,45.3660942],[-73.5787226,45.3660823],[-73.5786216,45.36606],[-73.5781934,45.3659417],[-73.578178,45.3659379],[-73.5780766,45.3659124],[-73.5779812,45.3658886]]}";26;Rue de l'Église;2;30;false;false;true;false;false;false;243.0;0;2;4;0;0;false;76455;6133345973;-73.569919;45.363653;76456;6133345972;-73.572206;45.364483;0;16;17;9498707;Bus 35 : Service PM;"";EXO;35 PM;Stationnement Incitatif Georges-Gagné;Stationnement Incitatif Georges-Gagné
684606314;"{\"type\":\"LineString\",\"coordinates\":[[-73.5794253,45.3640535],[-73.5794802,45.3641166],[-73.5794957,45.3641336],[-73.57997,45.3646533],[-73.5800137,45.3646993],[-73.580123,45.3648143],[-73.5802272,45.3649226],[-73.58033,45.3650192],[-73.5804468,45.365128],[-73.580469,45.3651461],[-73.5805203,45.3651878]]}";27;Rue des Pins;2;40;false;false;true;false;false;false;153.0;0;1;2;0;0;false;76455;6133345973;-73.569919;45.363653;76456;6133345972;-73.572206;45.364483;0;16;17;9498707;Bus 35 : Service PM;"";EXO;35 PM;Stationnement Incitatif Georges-Gagné;Stationnement Incitatif Georges-Gagné
43410457;"{\"type\":\"LineString\",\"coordinates\":[[-73.5794253,45.3640535],[-73.5793064,45.3641008],[-73.5792439,45.3641272],[-73.5791749,45.3641564],[-73.579066,45.3642],[-73.5789724,45.364229],[-73.5788803,45.3642429],[-73.5787829,45.36425],[-73.5786741,45.3642517],[-73.5785853,45.3642432],[-73.5785086,45.3642284],[-73.5783178,45.3641795],[-73.5780201,45.3640979],[-73.5779239,45.3640728],[-73.5778481,45.364053],[-73.5761612,45.3635978],[-73.5757193,45.3634757],[-73.5755247,45.3634232],[-73.5753508,45.3633766],[-73.5753481,45.3633759],[-73.5752326,45.3633469]]}";28;Rue du Parc;2;30;false;false;true;false;false;false;352.0;0;0;4;0;0;false;76455;6133345973;-73.569919;45.363653;76456;6133345972;-73.572206;45.364483;0;16;17;9498707;Bus 35 : Service PM;"";EXO;35 PM;Stationnement Incitatif Georges-Gagné;Stationnement Incitatif Georges-Gagné
684606313;"{\"type\":\"LineString\",\"coordinates\":[[-73.5752326,45.3633469],[-73.5751876,45.3634285],[-73.5749823,45.3638007],[-73.5748569,45.3640279],[-73.5747391,45.3642415],[-73.574604,45.3644975],[-73.5745789,45.3645451]]}";29;Rue Leber;2;30;false;false;true;false;false;false;143.0;0;0;1;0;0;false;76455;6133345973;-73.569919;45.363653;76456;6133345972;-73.572206;45.364483;0;16;17;9498707;Bus 35 : Service PM;"";EXO;35 PM;Stationnement Incitatif Georges-Gagné;Stationnement Incitatif Georges-Gagné
783166043;"{\"type\":\"LineString\",\"coordinates\":[[-73.5745789,45.3645451],[-73.5744295,45.3648281],[-73.5744114,45.364862],[-73.5743879,45.3649061]]}";30;Rue Leber;2;30;false;false;true;false;false;false;43.0;0;1;1;0;0;false;76455;6133345973;-73.569919;45.363653;76456;6133345972;-73.572206;45.364483;0;16;17;9498707;Bus 35 : Service PM;"";EXO;35 PM;Stationnement Incitatif Georges-Gagné;Stationnement Incitatif Georges-Gagné
684606311;"{\"type\":\"LineString\",\"coordinates\":[[-73.5743879,45.3649061],[-73.5742657,45.3648734],[-73.5735159,45.364673],[-73.5734101,45.3646447],[-73.5733119,45.3646181],[-73.5725387,45.3644088],[-73.5725011,45.3643994],[-73.5724134,45.3643776]]}";31;Rue de l'Église;2;40;false;false;true;false;false;false;166.0;0;3;2;0;0;false;76455;6133345973;-73.569919;45.363653;76456;6133345972;-73.572206;45.364483;0;16;17;9498707;Bus 35 : Service PM;"";EXO;35 PM;Stationnement Incitatif Georges-Gagné;Stationnement Incitatif Georges-Gagné
548555420;"{\"type\":\"LineString\",\"coordinates\":[[-73.5724134,45.3643776],[-73.5723819,45.3643718],[-73.5723526,45.3643686],[-73.5723233,45.3643682],[-73.5722943,45.3643676],[-73.5722773,45.3643673],[-73.5722256,45.3643677],[-73.5714933,45.3643813],[-73.5714575,45.3643821],[-73.5713242,45.364385]]}";32;Rue de l'Église;2;40;false;false;true;false;false;false;86.0;0;2;1;0;0;false;76455;6133345973;-73.569919;45.363653;76456;6133345972;-73.572206;45.364483;2;16;17;9498707;Bus 35 : Service PM;"";EXO;35 PM;Stationnement Incitatif Georges-Gagné;Stationnement Incitatif Georges-Gagné
548555420;"{\"type\":\"LineString\",\"coordinates\":[[-73.5724134,45.3643776],[-73.5723819,45.3643718],[-73.5723526,45.3643686],[-73.5723233,45.3643682],[-73.5722943,45.3643676],[-73.5722773,45.3643673],[-73.5722256,45.3643677],[-73.5714933,45.3643813],[-73.5714575,45.3643821],[-73.5713242,45.364385]]}";1;Rue de l'Église;2;40;false;false;true;false;false;false;43.0;0;2;1;0;0;false;76456;6133345972;-73.572206;45.364483;76457;6133345971;-73.574205;45.364991;1;17;18;9498707;Bus 35 : Service PM;"";EXO;35 PM;Stationnement Incitatif Georges-Gagné;Stationnement Incitatif Georges-Gagné
684606311;"{\"type\":\"LineString\",\"coordinates\":[[-73.5743879,45.3649061],[-73.5742657,45.3648734],[-73.5735159,45.364673],[-73.5734101,45.3646447],[-73.5733119,45.3646181],[-73.5725387,45.3644088],[-73.5725011,45.3643994],[-73.5724134,45.3643776]]}";2;Rue de l'Église;2;40;false;false;true;false;false;false;83.0;0;3;2;0;0;false;76456;6133345972;-73.572206;45.364483;76457;6133345971;-73.574205;45.364991;1;17;18;9498707;Bus 35 : Service PM;"";EXO;35 PM;Stationnement Incitatif Georges-Gagné;Stationnement Incitatif Georges-Gagné
783166043;"{\"type\":\"LineString\",\"coordinates\":[[-73.5745789,45.3645451],[-73.5744295,45.3648281],[-73.5744114,45.364862],[-73.5743879,45.3649061]]}";1;Rue Leber;2;30;false;false;true;false;false;false;43.0;0;1;1;0;0;false;76457;6133345971;-73.574205;45.364991;76458;6133345970;-73.575224;45.363493;2;18;19;9498707;Bus 35 : Service PM;"";EXO;35 PM;Stationnement Incitatif Georges-Gagné;Stationnement Incitatif Georges-Gagné
684606313;"{\"type\":\"LineString\",\"coordinates\":[[-73.5752326,45.3633469],[-73.5751876,45.3634285],[-73.5749823,45.3638007],[-73.5748569,45.3640279],[-73.5747391,45.3642415],[-73.574604,45.3644975],[-73.5745789,45.3645451]]}";2;Rue Leber;2;30;false;false;true;false;false;false;143.0;0;0;1;0;0;false;76457;6133345971;-73.574205;45.364991;76458;6133345970;-73.575224;45.363493;2;18;19;9498707;Bus 35 : Service PM;"";EXO;35 PM;Stationnement Incitatif Georges-Gagné;Stationnement Incitatif Georges-Gagné
684606314;"{\"type\":\"LineString\",\"coordinates\":[[-73.5794253,45.3640535],[-73.5794802,45.3641166],[-73.5794957,45.3641336],[-73.57997,45.3646533],[-73.5800137,45.3646993],[-73.580123,45.3648143],[-73.5802272,45.3649226],[-73.58033,45.3650192],[-73.5804468,45.365128],[-73.580469,45.3651461],[-73.5805203,45.3651878]]}";1;Rue des Pins;2;40;false;false;true;false;false;false;153.0;0;1;2;0;0;false;76459;6133345969;-73.579341;45.364141;76460;6133345968;-73.579649;45.365682;2;20;21;9498707;Bus 35 : Service PM;"";EXO;35 PM;Stationnement Incitatif Georges-Gagné;Stationnement Incitatif Georges-Gagné
43410479;"{\"type\":\"LineString\",\"coordinates\":[[-73.5805203,45.3651878],[-73.5804465,45.3652413],[-73.5804075,45.3652695],[-73.5801556,45.365451],[-73.5797783,45.3657154],[-73.5796789,45.3657851],[-73.5795706,45.3658562],[-73.5794769,45.3659221],[-73.5793969,45.365974],[-73.5793415,45.3660076],[-73.5792789,45.3660358],[-73.5792086,45.3660579],[-73.5791492,45.3660749],[-73.5790471,45.3660939],[-73.5789636,45.3661018],[-73.5788769,45.366101],[-73.578801,45.3660942],[-73.5787226,45.3660823],[-73.5786216,45.36606],[-73.5781934,45.3659417],[-73.578178,45.3659379],[-73.5780766,45.3659124],[-73.5779812,45.3658886]]}";2;Rue de l'Église;2;30;false;false;true;false;false;false;243.0;0;2;4;0;0;false;76459;6133345969;-73.579341;45.364141;76460;6133345968;-73.579649;45.365682;2;20;21;9498707;Bus 35 : Service PM;"";EXO;35 PM;Stationnement Incitatif Georges-Gagné;Stationnement Incitatif Georges-Gagné
43410479;"{\"type\":\"LineString\",\"coordinates\":[[-73.5805203,45.3651878],[-73.5804465,45.3652413],[-73.5804075,45.3652695],[-73.5801556,45.365451],[-73.5797783,45.3657154],[-73.5796789,45.3657851],[-73.5795706,45.3658562],[-73.5794769,45.3659221],[-73.5793969,45.365974],[-73.5793415,45.3660076],[-73.5792789,45.3660358],[-73.5792086,45.3660579],[-73.5791492,45.3660749],[-73.5790471,45.3660939],[-73.5789636,45.3661018],[-73.5788769,45.366101],[-73.578801,45.3660942],[-73.5787226,45.3660823],[-73.5786216,45.36606],[-73.5781934,45.3659417],[-73.578178,45.3659379],[-73.5780766,45.3659124],[-73.5779812,45.3658886]]}";1;Rue de l'Église;2;30;false;false;true;false;false;false;121.5;0;2;4;0;0;false;76460;6133345968;-73.579649;45.365682;76461;6133345967;-73.576313;45.365402;1;21;22;9498707;Bus 35 : Service PM;"";EXO;35 PM;Stationnement Incitatif Georges-Gagné;Stationnement Incitatif Georges-Gagné
782776956;"{\"type\":\"LineString\",\"coordinates\":[[-73.5779812,45.3658886],[-73.5779446,45.3658796],[-73.5771968,45.3656758],[-73.5770957,45.3656482],[-73.5770399,45.3656328],[-73.5768603,45.3655821],[-73.5766921,45.3655347],[-73.5765023,45.3654812],[-73.5761936,45.3653942]]}";2;Rue de l'Église;2;30;false;false;true;false;false;false;75.5;0;4;1;0;0;false;76460;6133345968;-73.579649;45.365682;76461;6133345967;-73.576313;45.365402;1;21;22;9498707;Bus 35 : Service PM;"";EXO;35 PM;Stationnement Incitatif Georges-Gagné;Stationnement Incitatif Georges-Gagné
172295454;"{\"type\":\"LineString\",\"coordinates\":[[-73.5753964,45.3669117],[-73.5753039,45.3668893],[-73.5747477,45.3667444],[-73.5745587,45.3666967],[-73.5744559,45.3666707],[-73.5743352,45.3666416],[-73.5741886,45.3666062],[-73.5736527,45.3664787],[-73.5735458,45.3664533],[-73.5733337,45.366405],[-73.5732464,45.3663848],[-73.5731624,45.3663644],[-73.5727145,45.3662501],[-73.5726994,45.3662462],[-73.572599,45.3662206]]}";1;Montée Saint-Régis;2;50;false;false;true;false;false;false;233.0;0;7;1;0;0;false;76462;6133345966;-73.57535;45.366817;76080;6133354127;-73.5478906;45.3844531;2;23;24;9498707;Bus 35 : Service PM;"";EXO;35 PM;Stationnement Incitatif Georges-Gagné;Stationnement Incitatif Georges-Gagné
782786219;"{\"type\":\"LineString\",\"coordinates\":[[-73.572599,45.3662206],[-73.5724292,45.3661793],[-73.5722953,45.3661469],[-73.5721954,45.3661218],[-73.5721044,45.3660992],[-73.5715913,45.3659717],[-73.5709118,45.3658045],[-73.5708268,45.3657842],[-73.5707655,45.3657667],[-73.5707034,45.3657469],[-73.5706437,45.3657265],[-73.5705887,45.3657105],[-73.570567,45.3657053],[-73.5703687,45.3656578],[-73.5702486,45.3656291]]}";2;Montée Saint-Régis;2;30;false;false;true;false;false;false;196.0;0;3;1;0;0;false;76462;6133345966;-73.57535;45.366817;76080;6133354127;-73.5478906;45.3844531;0;23;24;9498707;Bus 35 : Service PM;"";EXO;35 PM;Stationnement Incitatif Georges-Gagné;Stationnement Incitatif Georges-Gagné
782783643;"{\"type\":\"LineString\",\"coordinates\":[[-73.5702486,45.3656291],[-73.5700437,45.3655823],[-73.5699853,45.3655695],[-73.5699639,45.3655651],[-73.5699349,45.3655613],[-73.5698984,45.3655609]]}";3;Montée Saint-Régis;2;30;false;false;true;false;false;false;29.0;0;1;1;0;0;false;76462;6133345966;-73.57535;45.366817;76080;6133354127;-73.5478906;45.3844531;0;23;24;9498707;Bus 35 : Service PM;"";EXO;35 PM;Stationnement Incitatif Georges-Gagné;Stationnement Incitatif Georges-Gagné
788161410;"{\"type\":\"LineString\",\"coordinates\":[[-73.571222,45.3700177],[-73.5712173,45.3699486],[-73.5712147,45.3699098],[-73.5712119,45.3698898],[-73.5711804,45.3696617],[-73.5711782,45.3696489],[-73.5711461,45.3694639],[-73.5711177,45.3693318],[-73.5710756,45.3691906],[-73.5710564,45.3691263],[-73.5710375,45.3690709],[-73.571012,45.3689962],[-73.5709977,45.3689542],[-73.5709862,45.3689205],[-73.5709639,45.3688528],[-73.5709457,45.3687976],[-73.570914,45.3687006],[-73.5709109,45.3686916],[-73.5708831,45.3686139],[-73.5707624,45.3682765],[-73.5707531,45.3682504],[-73.5706796,45.3680443],[-73.5706712,45.3680209],[-73.5705739,45.3677492],[-73.5705478,45.3676763],[-73.5704902,45.3675155],[-73.5704818,45.3674921],[-73.5704374,45.367367],[-73.5704138,45.3673006],[-73.5703452,45.3671023],[-73.5703095,45.3669953],[-73.5701932,45.3666461],[-73.5701723,45.3665834],[-73.5701146,45.3664053],[-73.5700774,45.3662905],[-73.5700329,45.3661533],[-73.570029,45.3661401],[-73.569999,45.3660393],[-73.5699848,45.3659915],[-73.5699723,45.3659471],[-73.5699559,45.3658891],[-73.5699534,45.3658791],[-73.5699369,45.3658143],[-73.5699178,45.3657127],[-73.569912,45.3656677],[-73.5698984,45.3655609]]}";4;Rue Saint-Pierre;2;50;false;false;true;false;false;false;507.0;0;5;0;0;0;false;76462;6133345966;-73.57535;45.366817;76080;6133354127;-73.5478906;45.3844531;0;23;24;9498707;Bus 35 : Service PM;"";EXO;35 PM;Stationnement Incitatif Georges-Gagné;Stationnement Incitatif Georges-Gagné
760186622;"{\"type\":\"LineString\",\"coordinates\":[[-73.5712278,45.3703383],[-73.5712309,45.3702804],[-73.5712313,45.3702352],[-73.5712318,45.3701758],[-73.571222,45.3700177]]}";5;Rue Saint-Pierre;2;50;false;false;true;false;false;false;36.0;0;1;0;0;0;false;76462;6133345966;-73.57535;45.366817;76080;6133354127;-73.5478906;45.3844531;0;23;24;9498707;Bus 35 : Service PM;"";EXO;35 PM;Stationnement Incitatif Georges-Gagné;Stationnement Incitatif Georges-Gagné
684466621;"{\"type\":\"LineString\",\"coordinates\":[[-73.5704773,45.3717411],[-73.5705271,45.3716837],[-73.5706042,45.3715896],[-73.5706926,45.3714748],[-73.5707676,45.3713708],[-73.5708289,45.3712809],[-73.5708369,45.3712692],[-73.57089,45.3711794],[-73.5709287,45.371114],[-73.5709672,45.3710426],[-73.5709747,45.3710286],[-73.5710142,45.3709498],[-73.5710855,45.3708005],[-73.571123,45.3707124],[-73.5711569,45.3706193],[-73.5711753,45.3705603],[-73.5711825,45.3705375],[-73.5711849,45.3705297],[-73.571202,45.3704601],[-73.5712088,45.3704322],[-73.571213,45.3704148],[-73.5712278,45.3703383]]}";6;Rue Saint-Pierre;4;50;false;false;true;false;false;false;168.0;0;2;0;0;0;false;76462;6133345966;-73.57535;45.366817;76080;6133354127;-73.5478906;45.3844531;0;23;24;9498707;Bus 35 : Service PM;"";EXO;35 PM;Stationnement Incitatif Georges-Gagné;Stationnement Incitatif Georges-Gagné
788158837;"{\"type\":\"LineString\",\"coordinates\":[[-73.5688397,45.3735212],[-73.5689233,45.373429],[-73.5689985,45.3733448],[-73.5690144,45.3733271],[-73.5690756,45.3732586],[-73.5691134,45.3732163],[-73.5692626,45.3730493],[-73.569331,45.3729761],[-73.5694139,45.3728874],[-73.5694769,45.3728189],[-73.5695651,45.372723],[-73.5697092,45.3725663],[-73.5698028,45.3724647],[-73.5698999,45.372361],[-73.5699517,45.3723059],[-73.5701996,45.3720429],[-73.5704217,45.3718023],[-73.5704773,45.3717411]]}";7;Rue Saint-Pierre;4;50;false;false;true;false;false;false;236.0;0;2;0;0;0;false;76462;6133345966;-73.57535;45.366817;76080;6133354127;-73.5478906;45.3844531;0;23;24;9498707;Bus 35 : Service PM;"";EXO;35 PM;Stationnement Incitatif Georges-Gagné;Stationnement Incitatif Georges-Gagné
684451737;"{\"type\":\"LineString\",\"coordinates\":[[-73.5670731,45.3754775],[-73.567122,45.3754247],[-73.5671617,45.3753809],[-73.567664,45.37484],[-73.5677507,45.3747467],[-73.5678488,45.374639],[-73.5681623,45.3742947],[-73.5683992,45.3740233],[-73.5687897,45.3735774],[-73.5688179,45.373546],[-73.5688397,45.3735212]]}";8;Rue Saint-Pierre;4;50;false;false;true;false;false;false;258.0;1;2;0;0;0;false;76462;6133345966;-73.57535;45.366817;76080;6133354127;-73.5478906;45.3844531;0;23;24;9498707;Bus 35 : Service PM;"";EXO;35 PM;Stationnement Incitatif Georges-Gagné;Stationnement Incitatif Georges-Gagné
684606305;"{\"type\":\"LineString\",\"coordinates\":[[-73.5685144,45.3758265],[-73.5684086,45.3758032],[-73.568253,45.3757654],[-73.5679676,45.3756979],[-73.5676838,45.3756308],[-73.5675681,45.3756035],[-73.5673889,45.3755611],[-73.5672982,45.3755397],[-73.5672393,45.3755258],[-73.5671722,45.3755063],[-73.5670731,45.3754775]]}";9;Rue Perras;2;40;false;false;true;false;false;false;120.0;1;1;1;0;0;false;76462;6133345966;-73.57535;45.366817;76080;6133354127;-73.5478906;45.3844531;0;23;24;9498707;Bus 35 : Service PM;"";EXO;35 PM;Stationnement Incitatif Georges-Gagné;Stationnement Incitatif Georges-Gagné
684606318;"{\"type\":\"LineString\",\"coordinates\":[[-73.5641821,45.3793399],[-73.5642352,45.3792625],[-73.5642461,45.379246],[-73.5642563,45.3792305],[-73.5642811,45.3791881],[-73.5643047,45.3791454],[-73.5643314,45.3790906],[-73.5643539,45.3790389],[-73.5643666,45.3790099],[-73.5644095,45.3789061],[-73.5644171,45.3788865],[-73.5644566,45.3787856],[-73.5644641,45.3787663],[-73.5644774,45.3787324],[-73.5644859,45.3787107],[-73.5645381,45.3785705],[-73.5645661,45.3784955],[-73.5645748,45.3784722],[-73.5646483,45.3782698],[-73.5646648,45.3782221],[-73.5646962,45.3781314],[-73.5647224,45.3780609],[-73.5647287,45.3780445],[-73.5647454,45.3780009],[-73.5647833,45.3779103],[-73.5647976,45.3778766],[-73.564816,45.3778329],[-73.5648385,45.3777842],[-73.564853,45.377753],[-73.56489,45.3776812],[-73.5649316,45.3776094],[-73.5649404,45.3775953],[-73.5649795,45.3775329],[-73.5650345,45.3774502],[-73.5650979,45.3773642],[-73.5651463,45.3773031],[-73.5652191,45.3772156],[-73.5652578,45.3771708],[-73.565314,45.3771058],[-73.5653853,45.3770328],[-73.5654141,45.3770032],[-73.5655156,45.3769099],[-73.5655302,45.376897],[-73.5656667,45.3767768],[-73.56581,45.3766506],[-73.5659488,45.3765285],[-73.5660947,45.3764],[-73.5662155,45.3762955],[-73.5662542,45.376262],[-73.5663505,45.3761754],[-73.5664571,45.3760787],[-73.5666102,45.3759407],[-73.5666901,45.3758642],[-73.5667183,45.3758372],[-73.5668271,45.3757283],[-73.5668901,45.3756664],[-73.5669096,45.3756473],[-73.5669885,45.3755673],[-73.5670306,45.3755227],[-73.5670731,45.3754775]]}";10;Rue Saint-Pierre;4;50;false;false;true;false;false;false;493.0;2;2;0;0;0;false;76462;6133345966;-73.57535;45.366817;76080;6133354127;-73.5478906;45.3844531;0;23;24;9498707;Bus 35 : Service PM;"";EXO;35 PM;Stationnement Incitatif Georges-Gagné;Stationnement Incitatif Georges-Gagné
779926962;"{\"type\":\"LineString\",\"coordinates\":[[-73.5639667,45.3792835],[-73.5639862,45.3792882],[-73.5640721,45.379308],[-73.5641821,45.3793399]]}";11;Montée des Bouleaux;2;50;false;false;true;false;false;false;18.0;1;1;0;0;0;false;76462;6133345966;-73.57535;45.366817;76080;6133354127;-73.5478906;45.3844531;0;23;24;9498707;Bus 35 : Service PM;"";EXO;35 PM;Stationnement Incitatif Georges-Gagné;Stationnement Incitatif Georges-Gagné
779926961;"{\"type\":\"LineString\",\"coordinates\":[[-73.5637202,45.3792222],[-73.5639667,45.3792835]]}";12;Montée des Bouleaux;2;50;false;false;true;false;false;false;21.0;0;0;0;0;0;false;76462;6133345966;-73.57535;45.366817;76080;6133354127;-73.5478906;45.3844531;0;23;24;9498707;Bus 35 : Service PM;"";EXO;35 PM;Stationnement Incitatif Georges-Gagné;Stationnement Incitatif Georges-Gagné
802059403;"{\"type\":\"LineString\",\"coordinates\":[[-73.563533,45.3791711],[-73.5637202,45.3792222]]}";13;Montée des Bouleaux;2;50;false;false;true;false;false;false;16.0;0;0;0;0;0;false;76462;6133345966;-73.57535;45.366817;76080;6133354127;-73.5478906;45.3844531;0;23;24;9498707;Bus 35 : Service PM;"";EXO;35 PM;Stationnement Incitatif Georges-Gagné;Stationnement Incitatif Georges-Gagné
802059404;"{\"type\":\"LineString\",\"coordinates\":[[-73.5628261,45.3789399],[-73.5629154,45.3789657],[-73.5629921,45.37899],[-73.5630159,45.3789975],[-73.5631047,45.3790266],[-73.5631951,45.3790598],[-73.56322,45.3790689],[-73.5632985,45.3790976],[-73.5633896,45.3791287],[-73.5634916,45.3791589],[-73.563533,45.3791711]]}";14;Montée des Bouleaux;2;50;false;false;false;false;false;false;62.0;0;0;0;0;0;false;76462;6133345966;-73.57535;45.366817;76080;6133354127;-73.5478906;45.3844531;0;23;24;9498707;Bus 35 : Service PM;"";EXO;35 PM;Stationnement Incitatif Georges-Gagné;Stationnement Incitatif Georges-Gagné
802582905;"{\"type\":\"LineString\",\"coordinates\":[[-73.56239,45.3788411],[-73.5624535,45.3788519],[-73.5625051,45.3788626],[-73.5625679,45.3788757],[-73.5626734,45.3788999],[-73.5627354,45.3789159],[-73.5627697,45.3789247],[-73.5628261,45.3789399]]}";15;Montée des Bouleaux;2;50;false;false;true;false;false;false;36.0;0;1;0;0;0;false;76462;6133345966;-73.57535;45.366817;76080;6133354127;-73.5478906;45.3844531;0;23;24;9498707;Bus 35 : Service PM;"";EXO;35 PM;Stationnement Incitatif Georges-Gagné;Stationnement Incitatif Georges-Gagné
799186791;"{\"type\":\"LineString\",\"coordinates\":[[-73.5594269,45.3787573],[-73.5594725,45.3787564],[-73.5596604,45.3787513],[-73.5601619,45.3787378],[-73.5602808,45.3787346],[-73.5603552,45.3787326],[-73.5604692,45.3787309],[-73.5607295,45.3787292],[-73.5608285,45.3787286],[-73.5610317,45.3787299],[-73.5612075,45.3787331],[-73.5613447,45.3787377],[-73.5614994,45.3787459],[-73.5616753,45.378757],[-73.5617521,45.3787637],[-73.5618175,45.3787694],[-73.5619604,45.3787835],[-73.5620999,45.3787996],[-73.5622237,45.378816],[-73.562268,45.3788224],[-73.5623436,45.3788332],[-73.56239,45.3788411]]}";16;Montée des Bouleaux;2;50;false;false;false;false;false;false;233.0;0;1;1;0;0;false;76462;6133345966;-73.57535;45.366817;76080;6133354127;-73.5478906;45.3844531;0;23;24;9498707;Bus 35 : Service PM;"";EXO;35 PM;Stationnement Incitatif Georges-Gagné;Stationnement Incitatif Georges-Gagné
802502213;"{\"type\":\"LineString\",\"coordinates\":[[-73.5513938,45.3786559],[-73.5519809,45.3786422],[-73.5523473,45.3786337],[-73.5524412,45.3786315],[-73.5526679,45.3786276],[-73.5529452,45.3786229],[-73.5531449,45.3786195],[-73.5534617,45.378614],[-73.5538292,45.3786077],[-73.5542159,45.3785997],[-73.5544618,45.3785967],[-73.5545143,45.3785967],[-73.5547372,45.3785968],[-73.5548781,45.3786],[-73.5549717,45.3786027],[-73.5550321,45.3786061],[-73.5551148,45.3786111],[-73.5552941,45.3786232],[-73.5553865,45.3786311],[-73.5554313,45.3786349],[-73.5555801,45.3786494],[-73.5556393,45.3786556],[-73.5557013,45.3786621],[-73.5557471,45.3786677],[-73.5560947,45.3787105],[-73.5561861,45.3787218],[-73.5563645,45.378743],[-73.5564756,45.378754],[-73.5565583,45.3787606],[-73.5566137,45.3787651],[-73.5567891,45.3787776],[-73.5568931,45.3787833],[-73.5569771,45.3787879],[-73.5571383,45.3787943],[-73.5571848,45.378795],[-73.5572803,45.3787963],[-73.5574041,45.3787978],[-73.5574853,45.3787983],[-73.5575636,45.3787974],[-73.5578223,45.3787948],[-73.5579927,45.3787915],[-73.5582313,45.3787869],[-73.55841,45.3787835],[-73.5584788,45.3787822],[-73.5590093,45.3787683],[-73.5593703,45.3787588],[-73.5594269,45.3787573]]}";17;Montée des Bouleaux;2;50;false;false;true;false;false;false;631.0;0;2;3;0;0;false;76462;6133345966;-73.57535;45.366817;76080;6133354127;-73.5478906;45.3844531;0;23;24;9498707;Bus 35 : Service PM;"";EXO;35 PM;Stationnement Incitatif Georges-Gagné;Stationnement Incitatif Georges-Gagné
802502209;"{\"type\":\"LineString\",\"coordinates\":[[-73.551256,45.3786606],[-73.5512882,45.3786595],[-73.5513938,45.3786559]]}";18;Montée des Bouleaux;2;50;false;false;true;false;false;false;11.0;0;0;0;0;0;false;76462;6133345966;-73.57535;45.366817;76080;6133354127;-73.5478906;45.3844531;0;23;24;9498707;Bus 35 : Service PM;"";EXO;35 PM;Stationnement Incitatif Georges-Gagné;Stationnement Incitatif Georges-Gagné
172293015;"{\"type\":\"LineString\",\"coordinates\":[[-73.5503346,45.3786737],[-73.5504845,45.3786997],[-73.5505332,45.3787067],[-73.5509811,45.3786978],[-73.5510796,45.3786959],[-73.551256,45.3786606]]}";19;Montée des Bouleaux;2;50;false;true;true;false;false;false;74.0;0;1;0;0;0;false;76462;6133345966;-73.57535;45.366817;76080;6133354127;-73.5478906;45.3844531;0;23;24;9498707;Bus 35 : Service PM;"";EXO;35 PM;Stationnement Incitatif Georges-Gagné;Stationnement Incitatif Georges-Gagné
23845510;"{\"type\":\"LineString\",\"coordinates\":[[-73.5500939,45.3791684],[-73.5501623,45.3790716],[-73.5501812,45.3790448],[-73.5502389,45.3789589],[-73.5502801,45.3788755],[-73.5503121,45.3788107],[-73.5503406,45.3787529],[-73.5503346,45.3786737]]}";20;Boulevard Georges-Gagné Sud;2;50;false;true;true;false;false;false;59.0;1;1;0;0;0;false;76462;6133345966;-73.57535;45.366817;76080;6133354127;-73.5478906;45.3844531;0;23;24;9498707;Bus 35 : Service PM;"";EXO;35 PM;Stationnement Incitatif Georges-Gagné;Stationnement Incitatif Georges-Gagné
799186775;"{\"type\":\"LineString\",\"coordinates\":[[-73.5500939,45.3791684],[-73.5499748,45.3794227],[-73.5499555,45.3794613],[-73.5498533,45.3796653],[-73.5497497,45.379872],[-73.5496768,45.3800175],[-73.5496651,45.3800408],[-73.5496096,45.3801515],[-73.5493642,45.3806412],[-73.5490914,45.3812032]]}";21;Boulevard Georges-Gagné Sud;3;50;false;false;false;false;false;false;240.0;0;1;0;0;0;false;76462;6133345966;-73.57535;45.366817;76080;6133354127;-73.5478906;45.3844531;0;23;24;9498707;Bus 35 : Service PM;"";EXO;35 PM;Stationnement Incitatif Georges-Gagné;Stationnement Incitatif Georges-Gagné
799183409;"{\"type\":\"LineString\",\"coordinates\":[[-73.5490914,45.3812032],[-73.5490631,45.3812614],[-73.5490207,45.3813472],[-73.5485296,45.3823422],[-73.5484913,45.3824173],[-73.5483148,45.3827788],[-73.5483089,45.3827908],[-73.5482232,45.3829651],[-73.5481295,45.3831556],[-73.5480837,45.3832487]]}";22;Boulevard Georges-Gagné Sud;3;50;false;false;false;false;false;false;241.0;0;3;0;0;0;false;76462;6133345966;-73.57535;45.366817;76080;6133354127;-73.5478906;45.3844531;0;23;24;9498707;Bus 35 : Service PM;"";EXO;35 PM;Stationnement Incitatif Georges-Gagné;Stationnement Incitatif Georges-Gagné
798994214;"{\"type\":\"LineString\",\"coordinates\":[[-73.5480837,45.3832487],[-73.5480114,45.3833941],[-73.5479404,45.3835369],[-73.5478469,45.3837249],[-73.5478406,45.3837376],[-73.5477785,45.3838616],[-73.5477706,45.3838773],[-73.5476571,45.3841066]]}";23;Boulevard Georges-Gagné Sud;4;50;false;false;true;false;false;false;101.0;0;0;0;0;0;false;76462;6133345966;-73.57535;45.366817;76080;6133354127;-73.5478906;45.3844531;0;23;24;9498707;Bus 35 : Service PM;"";EXO;35 PM;Stationnement Incitatif Georges-Gagné;Stationnement Incitatif Georges-Gagné
798994213;"{\"type\":\"LineString\",\"coordinates\":[[-73.5476571,45.3841066],[-73.5474325,45.3845584]]}";24;Boulevard Georges-Gagné Sud;4;50;false;false;true;false;false;false;54.0;0;0;0;0;0;false;76462;6133345966;-73.57535;45.366817;76080;6133354127;-73.5478906;45.3844531;0;23;24;9498707;Bus 35 : Service PM;"";EXO;35 PM;Stationnement Incitatif Georges-Gagné;Stationnement Incitatif Georges-Gagné
798994211;"{\"type\":\"LineString\",\"coordinates\":[[-73.5474325,45.3845584],[-73.5475239,45.3845788],[-73.5475804,45.3845909],[-73.5476084,45.3845958],[-73.5476404,45.3845958],[-73.5476745,45.3845888],[-73.5477025,45.3845733],[-73.5477205,45.3845536],[-73.5478647,45.3842618],[-73.5478777,45.3842309],[-73.5478807,45.384214],[-73.5478777,45.3841957],[-73.5478607,45.3841732],[-73.5478316,45.3841557],[-73.5477946,45.3841409],[-73.5477804,45.3841368],[-73.5477512,45.3841289],[-73.5477025,45.384117],[-73.5476571,45.3841066]]}";25;"";1;50;false;true;true;false;false;false;88.0;0;2;1;0;0;false;76462;6133345966;-73.57535;45.366817;76080;6133354127;-73.5478906;45.3844531;1;23;24;9498707;Bus 35 : Service PM;"";EXO;35 PM;Stationnement Incitatif Georges-Gagné;Stationnement Incitatif Georges-Gagné
