way_id;shape;index;name;nb_lanes;legal_speed;speed_zone_30;oneway;shares_bike;bike_box;bus_lane;dedicated_bus_lane;length;nb_traffic_signals;nb_crossings;nb_stops;nb_give_ways;nb_lvl_crossings;roundabout;stop_id_orig;node_id_orig;coord_x_orig;coord_y_orig;stop_id_dest;node_id_dest;coord_x_dest;coord_y_dest;nb_neighbouring_ways_bus_stop;ordre_orig;ordre_dest;id_line;line_name;colour;operator;ref;from;to
107097144;"{\"type\":\"LineString\",\"coordinates\":[[-73.4854241,45.7303103],[-73.4854182,45.7301079],[-73.4854096,45.7299292],[-73.4853839,45.7293949],[-73.4852908,45.728891],[-73.4852132,45.7285511],[-73.4851092,45.7282745],[-73.4845978,45.7274551],[-73.4841221,45.7266927],[-73.4838788,45.7262085],[-73.4838046,45.7260636],[-73.4835986,45.7255063],[-73.4834698,45.724991],[-73.4834245,45.724735],[-73.4833754,45.7244578],[-73.4832381,45.7238646],[-73.483178,45.7231156],[-73.4831984,45.7226193],[-73.4832123,45.7224325],[-73.4832896,45.7218572],[-73.4833854,45.7215416],[-73.4834531,45.7213652],[-73.4838904,45.7203591],[-73.4842213,45.7195935]]}";1;Rue Notre-Dame;1;50;false;false;true;false;false;false;1228.0;0;0;0;0;0;false;87513;6127178154;-73.483524;45.721437;87514;6127178153;-73.484328;45.719511;1;68;69;9462871;Bus 100 : Direction Montréal;"";EXO;100 O;avenue Adhémar-Raynault / rue Chevaudier;Terminus Radisson
49156384;"{\"type\":\"LineString\",\"coordinates\":[[-73.4842213,45.7195935],[-73.484428,45.7190942],[-73.4845144,45.7188808],[-73.4845535,45.7187157],[-73.4846243,45.718371],[-73.4846656,45.7182726],[-73.4850454,45.7179301],[-73.4851237,45.7178677],[-73.4853548,45.7177096]]}";2;Rue Notre-Dame;1;50;false;false;true;false;false;false;117.0;0;0;0;0;0;false;87513;6127178154;-73.483524;45.721437;87514;6127178153;-73.484328;45.719511;1;68;69;9462871;Bus 100 : Direction Montréal;"";EXO;100 O;avenue Adhémar-Raynault / rue Chevaudier;Terminus Radisson
107097144;"{\"type\":\"LineString\",\"coordinates\":[[-73.4854241,45.7303103],[-73.4854182,45.7301079],[-73.4854096,45.7299292],[-73.4853839,45.7293949],[-73.4852908,45.728891],[-73.4852132,45.7285511],[-73.4851092,45.7282745],[-73.4845978,45.7274551],[-73.4841221,45.7266927],[-73.4838788,45.7262085],[-73.4838046,45.7260636],[-73.4835986,45.7255063],[-73.4834698,45.724991],[-73.4834245,45.724735],[-73.4833754,45.7244578],[-73.4832381,45.7238646],[-73.483178,45.7231156],[-73.4831984,45.7226193],[-73.4832123,45.7224325],[-73.4832896,45.7218572],[-73.4833854,45.7215416],[-73.4834531,45.7213652],[-73.4838904,45.7203591],[-73.4842213,45.7195935]]}";1;Rue Notre-Dame;1;50;false;false;true;false;false;false;1228.0;0;0;0;0;0;false;87514;6127178153;-73.484328;45.719511;87515;6127178152;-73.485318;45.717243;2;69;70;9462871;Bus 100 : Direction Montréal;"";EXO;100 O;avenue Adhémar-Raynault / rue Chevaudier;Terminus Radisson
49156384;"{\"type\":\"LineString\",\"coordinates\":[[-73.4842213,45.7195935],[-73.484428,45.7190942],[-73.4845144,45.7188808],[-73.4845535,45.7187157],[-73.4846243,45.718371],[-73.4846656,45.7182726],[-73.4850454,45.7179301],[-73.4851237,45.7178677],[-73.4853548,45.7177096]]}";2;Rue Notre-Dame;1;50;false;false;true;false;false;false;234.0;0;0;0;0;0;false;87514;6127178153;-73.484328;45.719511;87515;6127178152;-73.485318;45.717243;0;69;70;9462871;Bus 100 : Direction Montréal;"";EXO;100 O;avenue Adhémar-Raynault / rue Chevaudier;Terminus Radisson
462128120;"{\"type\":\"LineString\",\"coordinates\":[[-73.4853548,45.7177096],[-73.4857025,45.7174848]]}";3;Rue Notre-Dame;1;50;false;false;true;false;false;false;37.0;1;0;0;0;0;false;87514;6127178153;-73.484328;45.719511;87515;6127178152;-73.485318;45.717243;0;69;70;9462871;Bus 100 : Direction Montréal;"";EXO;100 O;avenue Adhémar-Raynault / rue Chevaudier;Terminus Radisson
106804541;"{\"type\":\"LineString\",\"coordinates\":[[-73.4857025,45.7174848],[-73.4858431,45.7173973]]}";4;Rue Notre-Dame;1;50;false;false;true;false;false;false;15.0;2;0;0;0;0;false;87514;6127178153;-73.484328;45.719511;87515;6127178152;-73.485318;45.717243;0;69;70;9462871;Bus 100 : Direction Montréal;"";EXO;100 O;avenue Adhémar-Raynault / rue Chevaudier;Terminus Radisson
106804530;"{\"type\":\"LineString\",\"coordinates\":[[-73.4858431,45.7173973],[-73.4855522,45.7172996],[-73.4852793,45.71725],[-73.4849259,45.7172264],[-73.4845809,45.7172325],[-73.4843368,45.7172461],[-73.4841599,45.7172942]]}";5;Boulevard Céline-Dion;2;50;false;true;true;false;false;false;136.0;1;0;0;0;0;false;87514;6127178153;-73.484328;45.719511;87515;6127178152;-73.485318;45.717243;2;69;70;9462871;Bus 100 : Direction Montréal;"";EXO;100 O;avenue Adhémar-Raynault / rue Chevaudier;Terminus Radisson
106804530;"{\"type\":\"LineString\",\"coordinates\":[[-73.4858431,45.7173973],[-73.4855522,45.7172996],[-73.4852793,45.71725],[-73.4849259,45.7172264],[-73.4845809,45.7172325],[-73.4843368,45.7172461],[-73.4841599,45.7172942]]}";1;Boulevard Céline-Dion;2;50;false;true;true;false;false;false;68.0;1;0;0;0;0;false;87515;6127178152;-73.485318;45.717243;87516;6127178151;-73.483369;45.717318;1;70;71;9462871;Bus 100 : Direction Montréal;"";EXO;100 O;avenue Adhémar-Raynault / rue Chevaudier;Terminus Radisson
598631309;"{\"type\":\"LineString\",\"coordinates\":[[-73.4837188,45.7173236],[-73.4841599,45.7172942]]}";2;Boulevard Notre-Dame-des-Champs;4;50;false;false;true;false;false;false;35.0;0;0;0;0;0;false;87515;6127178152;-73.485318;45.717243;87516;6127178151;-73.483369;45.717318;0;70;71;9462871;Bus 100 : Direction Montréal;"";EXO;100 O;avenue Adhémar-Raynault / rue Chevaudier;Terminus Radisson
49011385;"{\"type\":\"LineString\",\"coordinates\":[[-73.4829766,45.7173746],[-73.4833383,45.7173498],[-73.4837188,45.7173236]]}";3;Boulevard Notre-Dame-des-Champs;4;50;false;false;true;false;false;false;29.5;1;0;0;0;0;false;87515;6127178152;-73.485318;45.717243;87516;6127178151;-73.483369;45.717318;1;70;71;9462871;Bus 100 : Direction Montréal;"";EXO;100 O;avenue Adhémar-Raynault / rue Chevaudier;Terminus Radisson
49011385;"{\"type\":\"LineString\",\"coordinates\":[[-73.4829766,45.7173746],[-73.4833383,45.7173498],[-73.4837188,45.7173236]]}";1;Boulevard Notre-Dame-des-Champs;4;50;false;false;true;false;false;false;29.5;1;0;0;0;0;false;87516;6127178151;-73.483369;45.717318;87553;6127178138;-73.480216;45.71746;1;71;72;9462871;Bus 100 : Direction Montréal;"";EXO;100 O;avenue Adhémar-Raynault / rue Chevaudier;Terminus Radisson
49010953;"{\"type\":\"LineString\",\"coordinates\":[[-73.4808459,45.7175106],[-73.4829766,45.7173746]]}";2;Boulevard Notre-Dame-des-Champs;4;50;false;false;true;false;false;false;167.0;0;0;0;0;0;false;87516;6127178151;-73.483369;45.717318;87553;6127178138;-73.480216;45.71746;0;71;72;9462871;Bus 100 : Direction Montréal;"";EXO;100 O;avenue Adhémar-Raynault / rue Chevaudier;Terminus Radisson
49010954;"{\"type\":\"LineString\",\"coordinates\":[[-73.4801278,45.7175184],[-73.4802166,45.7175206],[-73.4802498,45.7175214],[-73.4805229,45.717522],[-73.4808459,45.7175106]]}";3;Boulevard Notre-Dame-des-Champs;4;50;false;false;true;false;false;false;28.0;1;1;0;0;0;false;87516;6127178151;-73.483369;45.717318;87553;6127178138;-73.480216;45.71746;1;71;72;9462871;Bus 100 : Direction Montréal;"";EXO;100 O;avenue Adhémar-Raynault / rue Chevaudier;Terminus Radisson
766312168;"{\"type\":\"LineString\",\"coordinates\":[[-73.4800312,45.7175092],[-73.4800602,45.7175118],[-73.4801278,45.7175184]]}";1;Boulevard Notre-Dame-des-Champs;1;50;false;false;true;false;false;false;8.0;0;1;0;0;0;false;87553;6127178138;-73.480216;45.71746;87554;6127178137;-73.476204;45.715269;2;72;73;9462871;Bus 100 : Direction Montréal;"";EXO;100 O;avenue Adhémar-Raynault / rue Chevaudier;Terminus Radisson
241805721;"{\"type\":\"LineString\",\"coordinates\":[[-73.4765751,45.7157837],[-73.47723,45.7163714],[-73.4776225,45.7167236],[-73.477748,45.7168194],[-73.4779253,45.7169352],[-73.4782119,45.7170882],[-73.4785607,45.7172361],[-73.4789106,45.7173405],[-73.4792043,45.7174095],[-73.4794857,45.7174563],[-73.4797626,45.7174839],[-73.4798484,45.7174925],[-73.479987,45.7175052],[-73.4800312,45.7175092]]}";2;Boulevard Notre-Dame-des-Champs;4;50;false;false;true;false;false;false;345.0;1;1;0;0;0;false;87553;6127178138;-73.480216;45.71746;87554;6127178137;-73.476204;45.715269;0;72;73;9462871;Bus 100 : Direction Montréal;"";EXO;100 O;avenue Adhémar-Raynault / rue Chevaudier;Terminus Radisson
462146738;"{\"type\":\"LineString\",\"coordinates\":[[-73.4765751,45.7157837],[-73.4764544,45.7155917],[-73.4762434,45.7153963],[-73.4760955,45.7152575],[-73.4757432,45.7149442],[-73.4754412,45.7146862]]}";3;Boulevard Notre-Dame-des-Champs;1;50;false;true;true;false;false;false;152.0;0;0;0;0;0;false;87553;6127178138;-73.480216;45.71746;87554;6127178137;-73.476204;45.715269;2;72;73;9462871;Bus 100 : Direction Montréal;"";EXO;100 O;avenue Adhémar-Raynault / rue Chevaudier;Terminus Radisson
462146738;"{\"type\":\"LineString\",\"coordinates\":[[-73.4765751,45.7157837],[-73.4764544,45.7155917],[-73.4762434,45.7153963],[-73.4760955,45.7152575],[-73.4757432,45.7149442],[-73.4754412,45.7146862]]}";1;Boulevard Notre-Dame-des-Champs;1;50;false;true;true;false;false;false;76.0;0;0;0;0;0;false;87554;6127178137;-73.476204;45.715269;88570;6127177231;-73.491823;45.697204;1;73;74;9462871;Bus 100 : Direction Montréal;"";EXO;100 O;avenue Adhémar-Raynault / rue Chevaudier;Terminus Radisson
49156434;"{\"type\":\"LineString\",\"coordinates\":[[-73.4754412,45.7146862],[-73.4753946,45.7145158],[-73.4753894,45.7144964],[-73.475405,45.7144436],[-73.4754353,45.7143833],[-73.4755174,45.7142805]]}";2;"";1;50;false;true;true;false;false;false;48.0;0;0;0;0;0;false;87554;6127178137;-73.476204;45.715269;88570;6127177231;-73.491823;45.697204;0;73;74;9462871;Bus 100 : Direction Montréal;"";EXO;100 O;avenue Adhémar-Raynault / rue Chevaudier;Terminus Radisson
49156365;"{\"type\":\"LineString\",\"coordinates\":[[-73.4755174,45.7142805],[-73.4769411,45.7135156],[-73.4771971,45.713317]]}";3;Rue Notre-Dame;2;50;false;true;true;false;false;false;170.0;0;0;0;0;0;false;87554;6127178137;-73.476204;45.715269;88570;6127177231;-73.491823;45.697204;0;73;74;9462871;Bus 100 : Direction Montréal;"";EXO;100 O;avenue Adhémar-Raynault / rue Chevaudier;Terminus Radisson
49156366;"{\"type\":\"LineString\",\"coordinates\":[[-73.4771971,45.713317],[-73.4775142,45.7131582]]}";4;Rue Notre-Dame;4;50;false;false;true;false;false;false;31.0;0;0;0;0;0;false;87554;6127178137;-73.476204;45.715269;88570;6127177231;-73.491823;45.697204;0;73;74;9462871;Bus 100 : Direction Montréal;"";EXO;100 O;avenue Adhémar-Raynault / rue Chevaudier;Terminus Radisson
23376942;"{\"type\":\"LineString\",\"coordinates\":[[-73.4775142,45.7131582],[-73.4808953,45.7113768]]}";5;Pont Le Gardeur;4;50;false;false;true;false;false;false;330.0;0;0;0;0;0;false;87554;6127178137;-73.476204;45.715269;88570;6127177231;-73.491823;45.697204;0;73;74;9462871;Bus 100 : Direction Montréal;"";EXO;100 O;avenue Adhémar-Raynault / rue Chevaudier;Terminus Radisson
81606585;"{\"type\":\"LineString\",\"coordinates\":[[-73.4808953,45.7113768],[-73.481265,45.7111807],[-73.4816152,45.7109919],[-73.4819127,45.7108228],[-73.4821486,45.7106788],[-73.4823615,45.7105439],[-73.4826364,45.7103509],[-73.4829882,45.7100521],[-73.4831199,45.7099228],[-73.4833762,45.709636],[-73.4834911,45.7094858],[-73.4836121,45.709308],[-73.4836921,45.7091691],[-73.4837654,45.7090441],[-73.4838299,45.7089038],[-73.4839325,45.7086573],[-73.4839903,45.7084861],[-73.4840598,45.7081964],[-73.4840902,45.7080063],[-73.4841132,45.7077692],[-73.484104,45.7074417],[-73.4840713,45.7071075],[-73.4840304,45.7067117],[-73.4839918,45.706339]]}";6;Rue Notre-Dame;4;50;false;false;true;false;false;false;652.0;0;0;0;0;0;false;87554;6127178137;-73.476204;45.715269;88570;6127177231;-73.491823;45.697204;0;73;74;9462871;Bus 100 : Direction Montréal;"";EXO;100 O;avenue Adhémar-Raynault / rue Chevaudier;Terminus Radisson
23376939;"{\"type\":\"LineString\",\"coordinates\":[[-73.4839918,45.706339],[-73.4839643,45.706115],[-73.4839279,45.705714],[-73.4838882,45.7053131],[-73.483846,45.7048976],[-73.4836922,45.7032786],[-73.4836474,45.7028342],[-73.4836055,45.7024538],[-73.4835587,45.7020065],[-73.4834849,45.7012533]]}";7;Pont Le Gardeur;4;50;false;false;true;false;false;false;567.0;0;0;0;0;0;false;87554;6127178137;-73.476204;45.715269;88570;6127177231;-73.491823;45.697204;0;73;74;9462871;Bus 100 : Direction Montréal;"";EXO;100 O;avenue Adhémar-Raynault / rue Chevaudier;Terminus Radisson
23376936;"{\"type\":\"LineString\",\"coordinates\":[[-73.4834849,45.7012533],[-73.4835223,45.7007621],[-73.4836027,45.7003582],[-73.483722,45.7000439],[-73.4837624,45.6999656]]}";8;Rue Notre-Dame Est;2;50;false;true;true;false;false;false;146.0;0;0;0;0;0;false;87554;6127178137;-73.476204;45.715269;88570;6127177231;-73.491823;45.697204;0;73;74;9462871;Bus 100 : Direction Montréal;"";EXO;100 O;avenue Adhémar-Raynault / rue Chevaudier;Terminus Radisson
221591856;"{\"type\":\"LineString\",\"coordinates\":[[-73.4837624,45.6999656],[-73.483821,45.6998389],[-73.4839259,45.6995979],[-73.4840611,45.6993373]]}";9;Rue Notre-Dame Est;2;50;false;true;true;false;false;false;74.0;0;0;0;0;0;false;87554;6127178137;-73.476204;45.715269;88570;6127177231;-73.491823;45.697204;0;73;74;9462871;Bus 100 : Direction Montréal;"";EXO;100 O;avenue Adhémar-Raynault / rue Chevaudier;Terminus Radisson
333889812;"{\"type\":\"LineString\",\"coordinates\":[[-73.4840611,45.6993373],[-73.4842084,45.6991095],[-73.484299,45.6989719],[-73.4844064,45.6988754],[-73.4845259,45.6987949],[-73.4847365,45.698703],[-73.4848528,45.6986663]]}";10;"";1;50;false;true;true;false;false;false;101.0;0;1;0;0;0;false;87554;6127178137;-73.476204;45.715269;88570;6127177231;-73.491823;45.697204;0;73;74;9462871;Bus 100 : Direction Montréal;"";EXO;100 O;avenue Adhémar-Raynault / rue Chevaudier;Terminus Radisson
797549744;"{\"type\":\"LineString\",\"coordinates\":[[-73.4848528,45.6986663],[-73.4850227,45.6986187],[-73.4852737,45.698559]]}";11;"";1;50;false;true;true;false;false;false;35.0;0;1;0;0;0;false;87554;6127178137;-73.476204;45.715269;88570;6127177231;-73.491823;45.697204;0;73;74;9462871;Bus 100 : Direction Montréal;"";EXO;100 O;avenue Adhémar-Raynault / rue Chevaudier;Terminus Radisson
333889809;"{\"type\":\"LineString\",\"coordinates\":[[-73.4852737,45.698559],[-73.485737,45.6985058],[-73.4860623,45.6984652],[-73.4878287,45.6982491]]}";12;Rue Sherbrooke Est;2;50;false;true;true;false;false;false;202.0;0;0;0;0;0;false;87554;6127178137;-73.476204;45.715269;88570;6127177231;-73.491823;45.697204;0;73;74;9462871;Bus 100 : Direction Montréal;"";EXO;100 O;avenue Adhémar-Raynault / rue Chevaudier;Terminus Radisson
333889807;"{\"type\":\"LineString\",\"coordinates\":[[-73.4878287,45.6982491],[-73.4889203,45.6981218],[-73.4894997,45.6980075],[-73.4903989,45.6977402],[-73.4909401,45.6975306],[-73.4910695,45.6974805],[-73.4911438,45.6974483]]}";13;Rue Sherbrooke Est;1;50;false;true;true;false;false;false;276.0;1;0;0;0;0;false;87554;6127178137;-73.476204;45.715269;88570;6127177231;-73.491823;45.697204;0;73;74;9462871;Bus 100 : Direction Montréal;"";EXO;100 O;avenue Adhémar-Raynault / rue Chevaudier;Terminus Radisson
333889825;"{\"type\":\"LineString\",\"coordinates\":[[-73.4911438,45.6974483],[-73.4917608,45.697158],[-73.491811,45.6971343]]}";14;Rue Sherbrooke Est;1;50;false;true;true;false;false;false;31.5;1;0;0;0;0;false;87554;6127178137;-73.476204;45.715269;88570;6127177231;-73.491823;45.697204;1;73;74;9462871;Bus 100 : Direction Montréal;"";EXO;100 O;avenue Adhémar-Raynault / rue Chevaudier;Terminus Radisson
106550682;"{\"type\":\"LineString\",\"coordinates\":[[-73.491811,45.6971343],[-73.4924622,45.6968002],[-73.4931046,45.6964492],[-73.4932227,45.696385],[-73.4938538,45.696042]]}";1;Rue Sherbrooke Est;3;50;false;true;true;false;false;false;200.0;0;0;0;0;0;false;88570;6127177231;-73.491823;45.697204;88571;6127177230;-73.497868;45.690511;2;74;75;9462871;Bus 100 : Direction Montréal;"";EXO;100 O;avenue Adhémar-Raynault / rue Chevaudier;Terminus Radisson
106550691;"{\"type\":\"LineString\",\"coordinates\":[[-73.4938538,45.696042],[-73.4944264,45.6957362],[-73.4951551,45.6952613],[-73.4956886,45.6947798],[-73.4962687,45.6941405],[-73.4963132,45.6940836],[-73.4966581,45.6935436],[-73.4969314,45.6929645],[-73.4971476,45.6923467],[-73.4971591,45.6923138],[-73.4978491,45.6903544],[-73.4982398,45.6888422]]}";2;Rue Sherbrooke Est;3;50;false;true;true;false;false;false;896.0;0;0;0;0;0;false;88570;6127177231;-73.491823;45.697204;88571;6127177230;-73.497868;45.690511;2;74;75;9462871;Bus 100 : Direction Montréal;"";EXO;100 O;avenue Adhémar-Raynault / rue Chevaudier;Terminus Radisson
106550691;"{\"type\":\"LineString\",\"coordinates\":[[-73.4938538,45.696042],[-73.4944264,45.6957362],[-73.4951551,45.6952613],[-73.4956886,45.6947798],[-73.4962687,45.6941405],[-73.4963132,45.6940836],[-73.4966581,45.6935436],[-73.4969314,45.6929645],[-73.4971476,45.6923467],[-73.4971591,45.6923138],[-73.4978491,45.6903544],[-73.4982398,45.6888422]]}";1;Rue Sherbrooke Est;3;50;false;true;true;false;false;false;448.0;0;0;0;0;0;false;88571;6127177230;-73.497868;45.690511;88630;6381123027;-73.499336;45.686142;1;75;76;9462871;Bus 100 : Direction Montréal;"";EXO;100 O;avenue Adhémar-Raynault / rue Chevaudier;Terminus Radisson
453672759;"{\"type\":\"LineString\",\"coordinates\":[[-73.4996268,45.6848685],[-73.4992349,45.6859912],[-73.4982398,45.6888422]]}";2;Rue Sherbrooke Est;4;50;false;false;true;false;false;false;227.5;0;0;0;0;0;false;88571;6127177230;-73.497868;45.690511;88630;6381123027;-73.499336;45.686142;1;75;76;9462871;Bus 100 : Direction Montréal;"";EXO;100 O;avenue Adhémar-Raynault / rue Chevaudier;Terminus Radisson
453672759;"{\"type\":\"LineString\",\"coordinates\":[[-73.4996268,45.6848685],[-73.4992349,45.6859912],[-73.4982398,45.6888422]]}";1;Rue Sherbrooke Est;4;50;false;false;true;false;false;false;227.5;0;0;0;0;0;false;88630;6381123027;-73.499336;45.686142;88572;6127177229;-73.502899;45.675774;1;76;77;9462871;Bus 100 : Direction Montréal;"";EXO;100 O;avenue Adhémar-Raynault / rue Chevaudier;Terminus Radisson
20928906;"{\"type\":\"LineString\",\"coordinates\":[[-73.5046077,45.6705956],[-73.5045602,45.6707317],[-73.5043122,45.6714426],[-73.5040694,45.6721382],[-73.5036559,45.6733233],[-73.5035345,45.6736713],[-73.5028797,45.6755477],[-73.5028286,45.675694],[-73.5023747,45.6769948],[-73.5016608,45.6790404],[-73.5016026,45.6792071],[-73.5009651,45.6810339],[-73.5009609,45.6810459],[-73.5004911,45.6823919],[-73.5004659,45.6824641],[-73.5000396,45.6836855],[-73.4999358,45.6839832],[-73.4996268,45.6848685]]}";2;Rue Sherbrooke Est;4;50;false;false;true;false;false;false;816.0;2;1;0;0;0;false;88630;6381123027;-73.499336;45.686142;88572;6127177229;-73.502899;45.675774;1;76;77;9462871;Bus 100 : Direction Montréal;"";EXO;100 O;avenue Adhémar-Raynault / rue Chevaudier;Terminus Radisson
20928906;"{\"type\":\"LineString\",\"coordinates\":[[-73.5046077,45.6705956],[-73.5045602,45.6707317],[-73.5043122,45.6714426],[-73.5040694,45.6721382],[-73.5036559,45.6733233],[-73.5035345,45.6736713],[-73.5028797,45.6755477],[-73.5028286,45.675694],[-73.5023747,45.6769948],[-73.5016608,45.6790404],[-73.5016026,45.6792071],[-73.5009651,45.6810339],[-73.5009609,45.6810459],[-73.5004911,45.6823919],[-73.5004659,45.6824641],[-73.5000396,45.6836855],[-73.4999358,45.6839832],[-73.4996268,45.6848685]]}";1;Rue Sherbrooke Est;4;50;false;false;true;false;false;false;816.0;2;1;0;0;0;false;88573;6127177228;-73.504105;45.672187;88574;6127177227;-73.505209;45.669565;1;78;79;9462871;Bus 100 : Direction Montréal;"";EXO;100 O;avenue Adhémar-Raynault / rue Chevaudier;Terminus Radisson
453521570;"{\"type\":\"LineString\",\"coordinates\":[[-73.5046077,45.6705956],[-73.5049484,45.6699378]]}";2;Rue Sherbrooke Est;1;50;false;true;true;false;false;false;78.0;0;0;0;0;0;false;88573;6127177228;-73.504105;45.672187;88574;6127177227;-73.505209;45.669565;0;78;79;9462871;Bus 100 : Direction Montréal;"";EXO;100 O;avenue Adhémar-Raynault / rue Chevaudier;Terminus Radisson
453521565;"{\"type\":\"LineString\",\"coordinates\":[[-73.5049484,45.6699378],[-73.5052215,45.6694618]]}";3;Rue Sherbrooke Est;1;50;false;true;true;false;false;false;28.5;0;0;0;0;0;false;88573;6127177228;-73.504105;45.672187;88574;6127177227;-73.505209;45.669565;1;78;79;9462871;Bus 100 : Direction Montréal;"";EXO;100 O;avenue Adhémar-Raynault / rue Chevaudier;Terminus Radisson
453521568;"{\"type\":\"LineString\",\"coordinates\":[[-73.5052215,45.6694618],[-73.5052823,45.6693661]]}";1;Rue Sherbrooke Est;1;50;false;true;true;false;false;false;12.0;0;0;0;0;0;false;88574;6127177227;-73.505209;45.669565;88575;6127177226;-73.507173;45.663691;2;79;80;9462871;Bus 100 : Direction Montréal;"";EXO;100 O;avenue Adhémar-Raynault / rue Chevaudier;Terminus Radisson
453521574;"{\"type\":\"LineString\",\"coordinates\":[[-73.5052823,45.6693661],[-73.5056163,45.6689035],[-73.5056509,45.6688644]]}";2;Rue Sherbrooke Est;1;50;false;true;true;false;false;false;63.0;0;0;0;0;0;false;88574;6127177227;-73.505209;45.669565;88575;6127177226;-73.507173;45.663691;0;79;80;9462871;Bus 100 : Direction Montréal;"";EXO;100 O;avenue Adhémar-Raynault / rue Chevaudier;Terminus Radisson
20928905;"{\"type\":\"LineString\",\"coordinates\":[[-73.5056509,45.6688644],[-73.505718,45.6687885],[-73.5058406,45.6686498],[-73.5059006,45.6685819],[-73.5061499,45.6682999],[-73.5063097,45.6681191],[-73.5068219,45.6674813],[-73.5069324,45.6672878],[-73.5069855,45.667142],[-73.5070338,45.6669302],[-73.5070499,45.6667391],[-73.5070259,45.6665617],[-73.5069824,45.6664097],[-73.5068514,45.6660361],[-73.5067097,45.6656357],[-73.5066679,45.6653082],[-73.506687,45.6649446],[-73.5067371,45.664718],[-73.5069008,45.6642541],[-73.5071162,45.6636255],[-73.5073652,45.6628454],[-73.5078072,45.6616015],[-73.5081759,45.6605928],[-73.5085885,45.6593835],[-73.5089054,45.6584534],[-73.5091206,45.6578316],[-73.5094384,45.6569108],[-73.5096624,45.6562615],[-73.5099132,45.6555347],[-73.510062,45.6551043],[-73.5101766,45.6547727]]}";3;Rue Sherbrooke Est;1;50;false;true;true;false;false;false;1629.0;1;0;0;0;0;false;88574;6127177227;-73.505209;45.669565;88575;6127177226;-73.507173;45.663691;2;79;80;9462871;Bus 100 : Direction Montréal;"";EXO;100 O;avenue Adhémar-Raynault / rue Chevaudier;Terminus Radisson
20928905;"{\"type\":\"LineString\",\"coordinates\":[[-73.5056509,45.6688644],[-73.505718,45.6687885],[-73.5058406,45.6686498],[-73.5059006,45.6685819],[-73.5061499,45.6682999],[-73.5063097,45.6681191],[-73.5068219,45.6674813],[-73.5069324,45.6672878],[-73.5069855,45.667142],[-73.5070338,45.6669302],[-73.5070499,45.6667391],[-73.5070259,45.6665617],[-73.5069824,45.6664097],[-73.5068514,45.6660361],[-73.5067097,45.6656357],[-73.5066679,45.6653082],[-73.506687,45.6649446],[-73.5067371,45.664718],[-73.5069008,45.6642541],[-73.5071162,45.6636255],[-73.5073652,45.6628454],[-73.5078072,45.6616015],[-73.5081759,45.6605928],[-73.5085885,45.6593835],[-73.5089054,45.6584534],[-73.5091206,45.6578316],[-73.5094384,45.6569108],[-73.5096624,45.6562615],[-73.5099132,45.6555347],[-73.510062,45.6551043],[-73.5101766,45.6547727]]}";1;Rue Sherbrooke Est;1;50;false;true;true;false;false;false;814.5;1;0;0;0;0;false;88576;6127177225;-73.508947;45.658573;88577;6127177224;-73.510863;45.653006;1;81;82;9462871;Bus 100 : Direction Montréal;"";EXO;100 O;avenue Adhémar-Raynault / rue Chevaudier;Terminus Radisson
457933667;"{\"type\":\"LineString\",\"coordinates\":[[-73.5101766,45.6547727],[-73.5104505,45.6539776]]}";2;Rue Sherbrooke Est;1;50;false;true;true;false;false;false;91.0;0;0;0;0;0;false;88576;6127177225;-73.508947;45.658573;88577;6127177224;-73.510863;45.653006;0;81;82;9462871;Bus 100 : Direction Montréal;"";EXO;100 O;avenue Adhémar-Raynault / rue Chevaudier;Terminus Radisson
457933665;"{\"type\":\"LineString\",\"coordinates\":[[-73.5104505,45.6539776],[-73.5105637,45.6536494],[-73.5106388,45.6534319],[-73.5107345,45.6531543],[-73.5108397,45.6528497]]}";3;Rue Sherbrooke Est;1;50;false;true;true;false;false;false;64.5;0;0;0;0;0;false;88576;6127177225;-73.508947;45.658573;88577;6127177224;-73.510863;45.653006;1;81;82;9462871;Bus 100 : Direction Montréal;"";EXO;100 O;avenue Adhémar-Raynault / rue Chevaudier;Terminus Radisson
453484221;"{\"type\":\"LineString\",\"coordinates\":[[-73.5139521,45.6438353],[-73.5139867,45.6437308]]}";1;Rue Sherbrooke Est;1;50;false;true;true;false;false;false;12.0;0;0;0;0;0;false;88578;6127177223;-73.513992;45.643922;88579;6127177222;-73.516118;45.633655;2;83;84;9462871;Bus 100 : Direction Montréal;"";EXO;100 O;avenue Adhémar-Raynault / rue Chevaudier;Terminus Radisson
453507341;"{\"type\":\"LineString\",\"coordinates\":[[-73.5139867,45.6437308],[-73.5143042,45.6428197],[-73.514567,45.6420657]]}";2;Rue Sherbrooke Est;1;50;false;true;true;false;false;false;191.0;0;0;0;0;0;false;88578;6127177223;-73.513992;45.643922;88579;6127177222;-73.516118;45.633655;0;83;84;9462871;Bus 100 : Direction Montréal;"";EXO;100 O;avenue Adhémar-Raynault / rue Chevaudier;Terminus Radisson
453507338;"{\"type\":\"LineString\",\"coordinates\":[[-73.514567,45.6420657],[-73.5147859,45.6413773]]}";3;Rue Sherbrooke Est;1;50;false;true;true;false;false;false;79.0;0;0;0;0;0;false;88578;6127177223;-73.513992;45.643922;88579;6127177222;-73.516118;45.633655;0;83;84;9462871;Bus 100 : Direction Montréal;"";EXO;100 O;avenue Adhémar-Raynault / rue Chevaudier;Terminus Radisson
453508390;"{\"type\":\"LineString\",\"coordinates\":[[-73.5147859,45.6413773],[-73.5149146,45.641]]}";4;Rue Sherbrooke Est;1;50;false;true;true;false;false;false;44.0;0;0;0;0;0;false;88578;6127177223;-73.513992;45.643922;88579;6127177222;-73.516118;45.633655;0;83;84;9462871;Bus 100 : Direction Montréal;"";EXO;100 O;avenue Adhémar-Raynault / rue Chevaudier;Terminus Radisson
453508393;"{\"type\":\"LineString\",\"coordinates\":[[-73.5149146,45.641],[-73.514994,45.6407677],[-73.5150057,45.6407332]]}";5;Rue Sherbrooke Est;1;50;false;true;true;false;false;false;31.0;0;0;0;0;0;false;88578;6127177223;-73.513992;45.643922;88579;6127177222;-73.516118;45.633655;0;83;84;9462871;Bus 100 : Direction Montréal;"";EXO;100 O;avenue Adhémar-Raynault / rue Chevaudier;Terminus Radisson
453508742;"{\"type\":\"LineString\",\"coordinates\":[[-73.5150057,45.6407332],[-73.5152398,45.6400445]]}";6;Rue Sherbrooke Est;1;50;false;true;true;false;false;false;79.0;0;0;0;0;0;false;88578;6127177223;-73.513992;45.643922;88579;6127177222;-73.516118;45.633655;0;83;84;9462871;Bus 100 : Direction Montréal;"";EXO;100 O;avenue Adhémar-Raynault / rue Chevaudier;Terminus Radisson
453484224;"{\"type\":\"LineString\",\"coordinates\":[[-73.5152398,45.6400445],[-73.5156763,45.6387606],[-73.5162336,45.6371898],[-73.516359,45.6368023],[-73.5162869,45.6365859]]}";7;Rue Sherbrooke Est;1;50;false;true;true;false;false;false;396.0;0;0;0;0;0;false;88578;6127177223;-73.513992;45.643922;88579;6127177222;-73.516118;45.633655;0;83;84;9462871;Bus 100 : Direction Montréal;"";EXO;100 O;avenue Adhémar-Raynault / rue Chevaudier;Terminus Radisson
453482699;"{\"type\":\"LineString\",\"coordinates\":[[-73.5163446,45.6362112],[-73.5162869,45.6365859]]}";8;Rue Sherbrooke Est;4;50;false;false;true;false;false;false;42.0;0;0;0;0;0;false;88578;6127177223;-73.513992;45.643922;88579;6127177222;-73.516118;45.633655;0;83;84;9462871;Bus 100 : Direction Montréal;"";EXO;100 O;avenue Adhémar-Raynault / rue Chevaudier;Terminus Radisson
453482702;"{\"type\":\"LineString\",\"coordinates\":[[-73.5164072,45.6358051],[-73.5163446,45.6362112]]}";9;Rue Sherbrooke Est;4;50;false;false;true;false;false;false;46.0;0;0;0;0;0;false;88578;6127177223;-73.513992;45.643922;88579;6127177222;-73.516118;45.633655;0;83;84;9462871;Bus 100 : Direction Montréal;"";EXO;100 O;avenue Adhémar-Raynault / rue Chevaudier;Terminus Radisson
453482701;"{\"type\":\"LineString\",\"coordinates\":[[-73.5163948,45.6355357],[-73.5164072,45.6358051]]}";10;Rue Sherbrooke Est;4;50;false;false;true;false;false;false;30.0;0;0;0;0;0;false;88578;6127177223;-73.513992;45.643922;88579;6127177222;-73.516118;45.633655;0;83;84;9462871;Bus 100 : Direction Montréal;"";EXO;100 O;avenue Adhémar-Raynault / rue Chevaudier;Terminus Radisson
453485942;"{\"type\":\"LineString\",\"coordinates\":[[-73.5159994,45.6335074],[-73.5161924,45.6343265],[-73.5163716,45.6350302],[-73.5163948,45.6355357]]}";11;Rue Sherbrooke Est;4;50;false;false;true;false;false;false;228.0;0;0;0;0;0;false;88578;6127177223;-73.513992;45.643922;88579;6127177222;-73.516118;45.633655;2;83;84;9462871;Bus 100 : Direction Montréal;"";EXO;100 O;avenue Adhémar-Raynault / rue Chevaudier;Terminus Radisson
453485941;"{\"type\":\"LineString\",\"coordinates\":[[-73.5159675,45.6331826],[-73.5159994,45.6335074]]}";1;Rue Sherbrooke Est;4;50;false;false;true;false;false;false;37.0;0;0;0;0;0;false;88579;6127177222;-73.516118;45.633655;88580;6127177221;-73.525821;45.612582;2;84;85;9462871;Bus 100 : Direction Montréal;"";EXO;100 O;avenue Adhémar-Raynault / rue Chevaudier;Terminus Radisson
20314465;"{\"type\":\"LineString\",\"coordinates\":[[-73.5249442,45.6139287],[-73.5229667,45.6175721],[-73.5207654,45.6216941],[-73.5200889,45.6237052],[-73.520004,45.6239015],[-73.5188645,45.6272051],[-73.5187623,45.6274268],[-73.5173945,45.6298793],[-73.5167669,45.631021],[-73.5167142,45.6311229],[-73.5161175,45.6322774],[-73.515934,45.6328421],[-73.5159675,45.6331826]]}";2;Rue Sherbrooke Est;4;50;false;false;true;false;false;false;2257.0;2;0;0;0;0;false;88579;6127177222;-73.516118;45.633655;88580;6127177221;-73.525821;45.612582;0;84;85;9462871;Bus 100 : Direction Montréal;"";EXO;100 O;avenue Adhémar-Raynault / rue Chevaudier;Terminus Radisson
459568603;"{\"type\":\"LineString\",\"coordinates\":[[-73.5249442,45.6139287],[-73.5251331,45.6137185],[-73.5253914,45.613262],[-73.5258056,45.6125302],[-73.526177,45.611874],[-73.5264316,45.6113828],[-73.5266893,45.6108955],[-73.52702,45.6102781],[-73.5273217,45.6097225]]}";3;Rue Sherbrooke Est;2;50;false;true;true;false;false;false;504.0;2;0;0;0;0;false;88579;6127177222;-73.516118;45.633655;88580;6127177221;-73.525821;45.612582;2;84;85;9462871;Bus 100 : Direction Montréal;"";EXO;100 O;avenue Adhémar-Raynault / rue Chevaudier;Terminus Radisson
459568603;"{\"type\":\"LineString\",\"coordinates\":[[-73.5249442,45.6139287],[-73.5251331,45.6137185],[-73.5253914,45.613262],[-73.5258056,45.6125302],[-73.526177,45.611874],[-73.5264316,45.6113828],[-73.5266893,45.6108955],[-73.52702,45.6102781],[-73.5273217,45.6097225]]}";1;Rue Sherbrooke Est;2;50;false;true;true;false;false;false;252.0;2;0;0;0;0;false;88580;6127177221;-73.525821;45.612582;88626;6127177196;-73.527718;45.609119;1;85;86;9462871;Bus 100 : Direction Montréal;"";EXO;100 O;avenue Adhémar-Raynault / rue Chevaudier;Terminus Radisson
459568600;"{\"type\":\"LineString\",\"coordinates\":[[-73.5273217,45.6097225],[-73.5277142,45.6089995]]}";2;Rue Sherbrooke Est;2;50;false;true;true;false;false;false;43.0;0;0;0;0;0;false;88580;6127177221;-73.525821;45.612582;88626;6127177196;-73.527718;45.609119;1;85;86;9462871;Bus 100 : Direction Montréal;"";EXO;100 O;avenue Adhémar-Raynault / rue Chevaudier;Terminus Radisson
459570327;"{\"type\":\"LineString\",\"coordinates\":[[-73.5277142,45.6089995],[-73.5278165,45.6088072],[-73.528033,45.6083711],[-73.5280864,45.6082908],[-73.5283821,45.6077725],[-73.5286906,45.6072544]]}";1;Rue Sherbrooke Est;2;50;false;true;true;false;false;false;209.0;1;0;0;0;0;false;88626;6127177196;-73.527718;45.609119;88628;6127177194;-73.530286;45.604714;2;86;87;9462871;Bus 100 : Direction Montréal;"";EXO;100 O;avenue Adhémar-Raynault / rue Chevaudier;Terminus Radisson
459570326;"{\"type\":\"LineString\",\"coordinates\":[[-73.5286906,45.6072544],[-73.5291077,45.6065532]]}";2;Rue Sherbrooke Est;2;50;false;true;true;false;false;false;85.0;0;0;0;0;0;false;88626;6127177196;-73.527718;45.609119;88628;6127177194;-73.530286;45.604714;0;86;87;9462871;Bus 100 : Direction Montréal;"";EXO;100 O;avenue Adhémar-Raynault / rue Chevaudier;Terminus Radisson
459570319;"{\"type\":\"LineString\",\"coordinates\":[[-73.5291077,45.6065532],[-73.5295088,45.6058788],[-73.5298847,45.6052356],[-73.5302701,45.6045936]]}";3;Rue Sherbrooke Est;2;50;false;true;true;false;false;false;236.0;0;0;0;0;0;false;88626;6127177196;-73.527718;45.609119;88628;6127177194;-73.530286;45.604714;2;86;87;9462871;Bus 100 : Direction Montréal;"";EXO;100 O;avenue Adhémar-Raynault / rue Chevaudier;Terminus Radisson
607792919;"{\"type\":\"LineString\",\"coordinates\":[[-73.5302701,45.6045936],[-73.5304253,45.6043284],[-73.5306628,45.6039224],[-73.5310652,45.6032435]]}";1;Rue Sherbrooke Est;2;50;false;true;true;false;false;false;163.0;0;0;0;0;0;false;88628;6127177194;-73.530286;45.604714;88633;692316633;-73.535133;45.5966;2;87;88;9462871;Bus 100 : Direction Montréal;"";EXO;100 O;avenue Adhémar-Raynault / rue Chevaudier;Terminus Radisson
459570318;"{\"type\":\"LineString\",\"coordinates\":[[-73.5310652,45.6032435],[-73.5315348,45.6024632]]}";2;Rue Sherbrooke Est;2;50;false;true;true;false;false;false;95.0;0;0;0;0;0;false;88628;6127177194;-73.530286;45.604714;88633;692316633;-73.535133;45.5966;0;87;88;9462871;Bus 100 : Direction Montréal;"";EXO;100 O;avenue Adhémar-Raynault / rue Chevaudier;Terminus Radisson
459570315;"{\"type\":\"LineString\",\"coordinates\":[[-73.5315348,45.6024632],[-73.5319548,45.6017337],[-73.5323433,45.6010928],[-73.5324038,45.6009929]]}";3;Rue Sherbrooke Est;2;50;false;true;true;false;false;false;177.0;0;1;0;0;0;false;88628;6127177194;-73.530286;45.604714;88633;692316633;-73.535133;45.5966;0;87;88;9462871;Bus 100 : Direction Montréal;"";EXO;100 O;avenue Adhémar-Raynault / rue Chevaudier;Terminus Radisson
459570314;"{\"type\":\"LineString\",\"coordinates\":[[-73.5324038,45.6009929],[-73.5324253,45.6009575],[-73.5328341,45.6002844]]}";4;Rue Sherbrooke Est;2;50;false;true;true;false;false;false;86.0;0;1;0;0;0;false;88628;6127177194;-73.530286;45.604714;88633;692316633;-73.535133;45.5966;0;87;88;9462871;Bus 100 : Direction Montréal;"";EXO;100 O;avenue Adhémar-Raynault / rue Chevaudier;Terminus Radisson
20213150;"{\"type\":\"LineString\",\"coordinates\":[[-73.5328341,45.6002844],[-73.5332674,45.5995773],[-73.5336469,45.5989463]]}";5;Rue Sherbrooke Est;2;50;false;true;true;false;false;false;162.0;0;0;0;0;0;false;88628;6127177194;-73.530286;45.604714;88633;692316633;-73.535133;45.5966;0;87;88;9462871;Bus 100 : Direction Montréal;"";EXO;100 O;avenue Adhémar-Raynault / rue Chevaudier;Terminus Radisson
459571182;"{\"type\":\"LineString\",\"coordinates\":[[-73.5336469,45.5989463],[-73.5343114,45.5978491]]}";6;Rue Sherbrooke Est;2;50;false;true;true;false;false;false;133.0;0;0;0;0;0;false;88628;6127177194;-73.530286;45.604714;88633;692316633;-73.535133;45.5966;0;87;88;9462871;Bus 100 : Direction Montréal;"";EXO;100 O;avenue Adhémar-Raynault / rue Chevaudier;Terminus Radisson
452652543;"{\"type\":\"LineString\",\"coordinates\":[[-73.5343114,45.5978491],[-73.534752,45.5971593]]}";7;Rue Sherbrooke Est;2;50;false;true;true;false;false;false;84.0;0;0;0;0;0;false;88628;6127177194;-73.530286;45.604714;88633;692316633;-73.535133;45.5966;0;87;88;9462871;Bus 100 : Direction Montréal;"";EXO;100 O;avenue Adhémar-Raynault / rue Chevaudier;Terminus Radisson
452652544;"{\"type\":\"LineString\",\"coordinates\":[[-73.534752,45.5971593],[-73.5350983,45.5966052],[-73.5351548,45.5965148]]}";8;Rue Sherbrooke Est;2;50;false;true;true;false;false;false;79.0;1;0;0;0;0;false;88628;6127177194;-73.530286;45.604714;88633;692316633;-73.535133;45.5966;2;87;88;9462871;Bus 100 : Direction Montréal;"";EXO;100 O;avenue Adhémar-Raynault / rue Chevaudier;Terminus Radisson
452652540;"{\"type\":\"LineString\",\"coordinates\":[[-73.5351548,45.5965148],[-73.5354812,45.5959845]]}";1;Rue Sherbrooke Est;2;50;false;true;true;false;false;false;65.0;1;0;0;0;0;false;88633;692316633;-73.535133;45.5966;88643;692321056;-73.539893;45.589761;2;88;89;9462871;Bus 100 : Direction Montréal;"";EXO;100 O;avenue Adhémar-Raynault / rue Chevaudier;Terminus Radisson
452652546;"{\"type\":\"LineString\",\"coordinates\":[[-73.5354812,45.5959845],[-73.5358085,45.5954308]]}";2;Rue Sherbrooke Est;2;50;false;true;true;false;false;false;67.0;0;0;0;0;0;false;88633;692316633;-73.535133;45.5966;88643;692321056;-73.539893;45.589761;0;88;89;9462871;Bus 100 : Direction Montréal;"";EXO;100 O;avenue Adhémar-Raynault / rue Chevaudier;Terminus Radisson
455478688;"{\"type\":\"LineString\",\"coordinates\":[[-73.5358085,45.5954308],[-73.5358557,45.5953589]]}";3;Rue Sherbrooke Est;2;50;false;true;true;false;false;false;9.0;1;0;0;0;0;false;88633;692316633;-73.535133;45.5966;88643;692321056;-73.539893;45.589761;0;88;89;9462871;Bus 100 : Direction Montréal;"";EXO;100 O;avenue Adhémar-Raynault / rue Chevaudier;Terminus Radisson
452652536;"{\"type\":\"LineString\",\"coordinates\":[[-73.5358557,45.5953589],[-73.5361342,45.5948815]]}";4;Rue Sherbrooke Est;2;50;false;true;true;false;false;false;58.0;2;0;0;0;0;false;88633;692316633;-73.535133;45.5966;88643;692321056;-73.539893;45.589761;0;88;89;9462871;Bus 100 : Direction Montréal;"";EXO;100 O;avenue Adhémar-Raynault / rue Chevaudier;Terminus Radisson
393698268;"{\"type\":\"LineString\",\"coordinates\":[[-73.5361342,45.5948815],[-73.5363621,45.5944918],[-73.5364829,45.5942947]]}";5;Rue Sherbrooke Est;2;50;false;true;true;false;false;false;71.0;1;0;0;0;0;false;88633;692316633;-73.535133;45.5966;88643;692321056;-73.539893;45.589761;0;88;89;9462871;Bus 100 : Direction Montréal;"";EXO;100 O;avenue Adhémar-Raynault / rue Chevaudier;Terminus Radisson
455314972;"{\"type\":\"LineString\",\"coordinates\":[[-73.5364829,45.5942947],[-73.5365547,45.5941627]]}";6;Rue Sherbrooke Est;2;50;false;true;true;false;false;false;16.0;1;0;0;0;0;false;88633;692316633;-73.535133;45.5966;88643;692321056;-73.539893;45.589761;0;88;89;9462871;Bus 100 : Direction Montréal;"";EXO;100 O;avenue Adhémar-Raynault / rue Chevaudier;Terminus Radisson
511856226;"{\"type\":\"LineString\",\"coordinates\":[[-73.5365547,45.5941627],[-73.5367103,45.5938648],[-73.5368661,45.5935767]]}";7;Rue Sherbrooke Est;2;50;false;true;true;false;false;false;70.0;1;0;0;0;0;false;88633;692316633;-73.535133;45.5966;88643;692321056;-73.539893;45.589761;0;88;89;9462871;Bus 100 : Direction Montréal;"";EXO;100 O;avenue Adhémar-Raynault / rue Chevaudier;Terminus Radisson
27439805;"{\"type\":\"LineString\",\"coordinates\":[[-73.5368661,45.5935767],[-73.5372284,45.5929627]]}";8;Rue Sherbrooke Est;1;50;false;true;true;false;false;false;74.0;0;0;0;0;0;false;88633;692316633;-73.535133;45.5966;88643;692321056;-73.539893;45.589761;0;88;89;9462871;Bus 100 : Direction Montréal;"";EXO;100 O;avenue Adhémar-Raynault / rue Chevaudier;Terminus Radisson
452610968;"{\"type\":\"LineString\",\"coordinates\":[[-73.5372284,45.5929627],[-73.5373335,45.5927856],[-73.5375787,45.5923593]]}";9;Rue Sherbrooke Est;2;50;false;true;true;false;false;false;73.0;1;0;0;0;0;false;88633;692316633;-73.535133;45.5966;88643;692321056;-73.539893;45.589761;0;88;89;9462871;Bus 100 : Direction Montréal;"";EXO;100 O;avenue Adhémar-Raynault / rue Chevaudier;Terminus Radisson
455414957;"{\"type\":\"LineString\",\"coordinates\":[[-73.5375787,45.5923593],[-73.538308,45.5911737]]}";10;Rue Sherbrooke Est;2;50;false;true;true;false;false;false;144.0;1;0;0;0;0;false;88633;692316633;-73.535133;45.5966;88643;692321056;-73.539893;45.589761;0;88;89;9462871;Bus 100 : Direction Montréal;"";EXO;100 O;avenue Adhémar-Raynault / rue Chevaudier;Terminus Radisson
459586697;"{\"type\":\"LineString\",\"coordinates\":[[-73.538308,45.5911737],[-73.538472,45.5908911]]}";11;Rue Sherbrooke Est;2;50;false;true;true;false;false;false;34.0;0;0;0;0;0;false;88633;692316633;-73.535133;45.5966;88643;692321056;-73.539893;45.589761;0;88;89;9462871;Bus 100 : Direction Montréal;"";EXO;100 O;avenue Adhémar-Raynault / rue Chevaudier;Terminus Radisson
452610967;"{\"type\":\"LineString\",\"coordinates\":[[-73.538472,45.5908911],[-73.539051,45.5899151]]}";12;Rue Sherbrooke Est;2;50;false;true;true;false;false;false;118.0;0;0;0;0;0;false;88633;692316633;-73.535133;45.5966;88643;692321056;-73.539893;45.589761;0;88;89;9462871;Bus 100 : Direction Montréal;"";EXO;100 O;avenue Adhémar-Raynault / rue Chevaudier;Terminus Radisson
455314963;"{\"type\":\"LineString\",\"coordinates\":[[-73.539051,45.5899151],[-73.5393,45.5895081]]}";13;Rue Sherbrooke Est;2;50;false;true;true;false;false;false;50.0;0;0;0;0;0;false;88633;692316633;-73.535133;45.5966;88643;692321056;-73.539893;45.589761;0;88;89;9462871;Bus 100 : Direction Montréal;"";EXO;100 O;avenue Adhémar-Raynault / rue Chevaudier;Terminus Radisson
695763675;"{\"type\":\"LineString\",\"coordinates\":[[-73.5393,45.5895081],[-73.5396653,45.588906]]}";14;Rue Sherbrooke Est;2;50;false;true;true;false;false;false;73.0;0;0;0;0;0;false;88633;692316633;-73.535133;45.5966;88643;692321056;-73.539893;45.589761;0;88;89;9462871;Bus 100 : Direction Montréal;"";EXO;100 O;avenue Adhémar-Raynault / rue Chevaudier;Terminus Radisson
22909960;"{\"type\":\"LineString\",\"coordinates\":[[-73.5396653,45.588906],[-73.5406103,45.5892862],[-73.5407812,45.5893693]]}";15;Rue Des Groseilliers;1;50;false;true;true;false;false;false;102.0;0;0;0;0;0;false;88633;692316633;-73.535133;45.5966;88643;692321056;-73.539893;45.589761;0;88;89;9462871;Bus 100 : Direction Montréal;"";EXO;100 O;avenue Adhémar-Raynault / rue Chevaudier;Terminus Radisson
22909988;"{\"type\":\"LineString\",\"coordinates\":[[-73.5407812,45.5893693],[-73.5406241,45.5895279],[-73.5405111,45.5897012]]}";16;Rue Faradon;1;50;false;false;true;false;false;false;43.0;0;0;0;0;0;false;88633;692316633;-73.535133;45.5966;88643;692321056;-73.539893;45.589761;0;88;89;9462871;Bus 100 : Direction Montréal;"";EXO;100 O;avenue Adhémar-Raynault / rue Chevaudier;Terminus Radisson
681965059;"{\"type\":\"LineString\",\"coordinates\":[[-73.5405111,45.5897012],[-73.5403231,45.5899896]]}";17;Rue Faradon;1;50;false;false;true;false;false;false;36.0;0;0;0;0;0;false;88633;692316633;-73.535133;45.5966;88643;692321056;-73.539893;45.589761;0;88;89;9462871;Bus 100 : Direction Montréal;"";EXO;100 O;avenue Adhémar-Raynault / rue Chevaudier;Terminus Radisson
681965060;"{\"type\":\"LineString\",\"coordinates\":[[-73.5403231,45.5899896],[-73.5401877,45.5899477],[-73.5399633,45.5898784]]}";18;"";1;50;false;true;true;false;false;false;31.0;0;1;0;0;0;false;88633;692316633;-73.535133;45.5966;88643;692321056;-73.539893;45.589761;1;88;89;9462871;Bus 100 : Direction Montréal;"";EXO;100 O;avenue Adhémar-Raynault / rue Chevaudier;Terminus Radisson
