way_id;shape;index;name;nb_lanes;legal_speed;speed_zone_30;oneway;shares_bike;bike_box;bus_lane;dedicated_bus_lane;length;nb_traffic_signals;nb_crossings;nb_stops;nb_give_ways;nb_lvl_crossings;roundabout;stop_id_orig;node_id_orig;coord_x_orig;coord_y_orig;stop_id_dest;node_id_dest;coord_x_dest;coord_y_dest;nb_neighbouring_ways_bus_stop;ordre_orig;ordre_dest;id_line;line_name;colour;operator;ref;from;to
676886050;"{\"type\":\"LineString\",\"coordinates\":[[-73.8932807,45.5613137],[-73.8931903,45.5613511],[-73.8930223,45.5613915],[-73.8928026,45.5614415]]}";1;"";1;50;false;false;true;false;true;false;41.0;0;1;0;0;0;false;81000;6119526196;-73.892828;45.561425;81004;6119526195;-73.89572;45.561493;1;0;1;9401670;Bus 93 : GARE /DEUX-MONTAGNES;"";EXO;93 O;Terminus Saint-Eustache;Gare Deux-Montagnes
138428141;"{\"type\":\"LineString\",\"coordinates\":[[-73.8937986,45.5609543],[-73.8936234,45.560945],[-73.8935657,45.560978],[-73.8935027,45.5610387],[-73.8934764,45.5611104],[-73.8934449,45.5611912],[-73.8933793,45.5612519],[-73.893319,45.5612978],[-73.8932807,45.5613137]]}";2;"";1;50;false;false;true;false;true;false;65.0;0;0;0;0;0;false;81000;6119526196;-73.892828;45.561425;81004;6119526195;-73.89572;45.561493;0;0;1;9401670;Bus 93 : GARE /DEUX-MONTAGNES;"";EXO;93 O;Terminus Saint-Eustache;Gare Deux-Montagnes
676848395;"{\"type\":\"LineString\",\"coordinates\":[[-73.8940975,45.5615893],[-73.8941016,45.5613774],[-73.8940785,45.5612464],[-73.8940342,45.5611575],[-73.8939193,45.5610459],[-73.8937986,45.5609543]]}";3;Rue Dorion;1;50;false;false;true;false;false;false;78.0;1;0;0;0;0;false;81000;6119526196;-73.892828;45.561425;81004;6119526195;-73.89572;45.561493;0;0;1;9401670;Bus 93 : GARE /DEUX-MONTAGNES;"";EXO;93 O;Terminus Saint-Eustache;Gare Deux-Montagnes
676848396;"{\"type\":\"LineString\",\"coordinates\":[[-73.8940648,45.5617058],[-73.8940975,45.5615893]]}";4;Rue Dorion;1;50;false;false;true;false;false;false;14.0;2;0;0;0;0;false;81000;6119526196;-73.892828;45.561425;81004;6119526195;-73.89572;45.561493;0;0;1;9401670;Bus 93 : GARE /DEUX-MONTAGNES;"";EXO;93 O;Terminus Saint-Eustache;Gare Deux-Montagnes
676848392;"{\"type\":\"LineString\",\"coordinates\":[[-73.8940648,45.5617058],[-73.8957361,45.5614448],[-73.8965451,45.5613214],[-73.8967629,45.5612857],[-73.8975802,45.5611394],[-73.8977713,45.5611204],[-73.8981604,45.5610604],[-73.8982619,45.5610445],[-73.8987945,45.5609873]]}";5;Boulevard Arthur-Sauvé;2;50;false;true;true;false;false;false;189.0;3;0;0;0;0;false;81000;6119526196;-73.892828;45.561425;81004;6119526195;-73.89572;45.561493;1;0;1;9401670;Bus 93 : GARE /DEUX-MONTAGNES;"";EXO;93 O;Terminus Saint-Eustache;Gare Deux-Montagnes
676848392;"{\"type\":\"LineString\",\"coordinates\":[[-73.8940648,45.5617058],[-73.8957361,45.5614448],[-73.8965451,45.5613214],[-73.8967629,45.5612857],[-73.8975802,45.5611394],[-73.8977713,45.5611204],[-73.8981604,45.5610604],[-73.8982619,45.5610445],[-73.8987945,45.5609873]]}";1;Boulevard Arthur-Sauvé;2;50;false;true;true;false;false;false;189.0;3;0;0;0;0;false;81004;6119526195;-73.89572;45.561493;81005;6119526194;-73.901904;45.560551;1;1;2;9401670;Bus 93 : GARE /DEUX-MONTAGNES;"";EXO;93 O;Terminus Saint-Eustache;Gare Deux-Montagnes
677250680;"{\"type\":\"LineString\",\"coordinates\":[[-73.8987945,45.5609873],[-73.899095,45.5609721],[-73.8994702,45.5609885],[-73.8995781,45.5610005],[-73.899853,45.561031],[-73.9002501,45.5611012],[-73.9008006,45.5612409],[-73.9012695,45.5614197],[-73.9013349,45.5614446]]}";2;Boulevard Arthur-Sauvé;2;50;false;true;true;false;false;false;209.0;2;0;0;0;0;false;81004;6119526195;-73.89572;45.561493;81005;6119526194;-73.901904;45.560551;0;1;2;9401670;Bus 93 : GARE /DEUX-MONTAGNES;"";EXO;93 O;Terminus Saint-Eustache;Gare Deux-Montagnes
676848399;"{\"type\":\"LineString\",\"coordinates\":[[-73.9014061,45.5613128],[-73.9013349,45.5614446]]}";3;Rue Féré;2;50;false;false;true;false;false;false;16.0;2;0;0;0;0;false;81004;6119526195;-73.89572;45.561493;81005;6119526194;-73.901904;45.560551;0;1;2;9401670;Bus 93 : GARE /DEUX-MONTAGNES;"";EXO;93 O;Terminus Saint-Eustache;Gare Deux-Montagnes
46277642;"{\"type\":\"LineString\",\"coordinates\":[[-73.9007748,45.5589989],[-73.9018556,45.5601076],[-73.9018932,45.5601674],[-73.901918,45.5602398],[-73.9019099,45.5603254],[-73.9018789,45.5604271],[-73.9016203,45.5609272],[-73.9014061,45.5613128]]}";4;Rue Féré;2;50;false;false;true;false;false;false;145.5;2;0;0;0;0;false;81004;6119526195;-73.89572;45.561493;81005;6119526194;-73.901904;45.560551;1;1;2;9401670;Bus 93 : GARE /DEUX-MONTAGNES;"";EXO;93 O;Terminus Saint-Eustache;Gare Deux-Montagnes
677253518;"{\"type\":\"LineString\",\"coordinates\":[[-73.899638,45.5576027],[-73.9003849,45.5586018],[-73.9007748,45.5589989]]}";1;Rue Féré;2;50;false;false;true;false;false;false;179.0;1;0;0;0;0;false;81006;6119526193;-73.900936;45.559132;81007;6119526192;-73.899496;45.5573156;2;3;4;9401670;Bus 93 : GARE /DEUX-MONTAGNES;"";EXO;93 O;Terminus Saint-Eustache;Gare Deux-Montagnes
147991062;"{\"type\":\"LineString\",\"coordinates\":[[-73.8994389,45.5573298],[-73.899638,45.5576027]]}";2;Rue Féré;2;50;false;false;true;false;false;false;35.0;0;0;0;0;0;false;81006;6119526193;-73.900936;45.559132;81007;6119526192;-73.899496;45.5573156;2;3;4;9401670;Bus 93 : GARE /DEUX-MONTAGNES;"";EXO;93 O;Terminus Saint-Eustache;Gare Deux-Montagnes
474608346;"{\"type\":\"LineString\",\"coordinates\":[[-73.8994212,45.5573075],[-73.8994389,45.5573298]]}";1;Rue Féré;2;50;false;false;true;false;false;false;3.0;0;0;0;0;0;false;81007;6119526192;-73.899496;45.5573156;80001;6119528401;-73.898242;45.556113;2;4;5;9401670;Bus 93 : GARE /DEUX-MONTAGNES;"";EXO;93 O;Terminus Saint-Eustache;Gare Deux-Montagnes
46277638;"{\"type\":\"LineString\",\"coordinates\":[[-73.8991525,45.5569628],[-73.8994212,45.5573075]]}";2;Rue Féré;2;50;false;false;true;false;false;false;44.0;0;0;0;0;0;false;81007;6119526192;-73.899496;45.5573156;80001;6119528401;-73.898242;45.556113;0;4;5;9401670;Bus 93 : GARE /DEUX-MONTAGNES;"";EXO;93 O;Terminus Saint-Eustache;Gare Deux-Montagnes
466652258;"{\"type\":\"LineString\",\"coordinates\":[[-73.8988796,45.5567131],[-73.8991525,45.5569628]]}";3;Rue Féré;2;50;false;false;true;false;false;false;35.0;0;0;0;0;0;false;81007;6119526192;-73.899496;45.5573156;80001;6119528401;-73.898242;45.556113;0;4;5;9401670;Bus 93 : GARE /DEUX-MONTAGNES;"";EXO;93 O;Terminus Saint-Eustache;Gare Deux-Montagnes
46277646;"{\"type\":\"LineString\",\"coordinates\":[[-73.8938923,45.5529717],[-73.8948788,45.5537004],[-73.8962946,45.5547614],[-73.8970869,45.5553519],[-73.8982589,45.5562363],[-73.8988796,45.5567131]]}";4;Rue Féré;2;50;false;false;true;false;false;false;570.0;0;0;0;0;0;false;81007;6119526192;-73.899496;45.5573156;80001;6119528401;-73.898242;45.556113;2;4;5;9401670;Bus 93 : GARE /DEUX-MONTAGNES;"";EXO;93 O;Terminus Saint-Eustache;Gare Deux-Montagnes
46277646;"{\"type\":\"LineString\",\"coordinates\":[[-73.8938923,45.5529717],[-73.8948788,45.5537004],[-73.8962946,45.5547614],[-73.8970869,45.5553519],[-73.8982589,45.5562363],[-73.8988796,45.5567131]]}";1;Rue Féré;2;50;false;false;true;false;false;false;285.0;0;0;0;0;0;false;80004;6119528398;-73.894176;45.55299;80195;6119527021;-73.89275;45.550645;1;8;9;9401670;Bus 93 : GARE /DEUX-MONTAGNES;"";EXO;93 O;Terminus Saint-Eustache;Gare Deux-Montagnes
455467982;"{\"type\":\"LineString\",\"coordinates\":[[-73.8935758,45.552738],[-73.8938923,45.5529717]]}";2;Rue Féré;2;50;false;false;true;false;false;false;36.0;1;0;0;0;0;false;80004;6119528398;-73.894176;45.55299;80195;6119527021;-73.89275;45.550645;0;8;9;9401670;Bus 93 : GARE /DEUX-MONTAGNES;"";EXO;93 O;Terminus Saint-Eustache;Gare Deux-Montagnes
677253538;"{\"type\":\"LineString\",\"coordinates\":[[-73.8935758,45.552738],[-73.893606,45.5526017],[-73.8936031,45.5524396],[-73.8935452,45.5522026]]}";3;Chemin d'Oka;2;50;false;false;true;false;false;false;61.0;1;0;0;0;0;false;80004;6119528398;-73.894176;45.55299;80195;6119527021;-73.89275;45.550645;0;8;9;9401670;Bus 93 : GARE /DEUX-MONTAGNES;"";EXO;93 O;Terminus Saint-Eustache;Gare Deux-Montagnes
81721527;"{\"type\":\"LineString\",\"coordinates\":[[-73.8935452,45.5522026],[-73.8915607,45.5485412],[-73.8912944,45.5480387],[-73.891095,45.54763],[-73.8909777,45.5473755],[-73.8909345,45.5472043],[-73.8908961,45.5469098],[-73.890897,45.546738],[-73.8909228,45.5465714],[-73.8910532,45.5461379],[-73.8911297,45.5458835],[-73.891253,45.5455511],[-73.8914717,45.5449761],[-73.891653,45.5444996],[-73.8917983,45.5441177],[-73.8921227,45.5432649],[-73.8924097,45.5425104],[-73.8926157,45.5419689]]}";4;Chemin d'Oka;2;50;false;false;true;false;false;false;595.5;1;0;0;0;0;false;80004;6119528398;-73.894176;45.55299;80195;6119527021;-73.89275;45.550645;1;8;9;9401670;Bus 93 : GARE /DEUX-MONTAGNES;"";EXO;93 O;Terminus Saint-Eustache;Gare Deux-Montagnes
677253533;"{\"type\":\"LineString\",\"coordinates\":[[-73.8926157,45.5419689],[-73.8927269,45.5417329],[-73.8927745,45.541632],[-73.8929463,45.5414131],[-73.8930449,45.5413091],[-73.893153,45.541195],[-73.8933391,45.5410083],[-73.8945274,45.5398497],[-73.8953769,45.5389848],[-73.8958635,45.5385224],[-73.8965939,45.5378594]]}";1;Chemin d'Oka;2;50;false;false;true;false;false;false;277.0;1;0;0;0;0;false;80272;6119526775;-73.89655;45.538048;80021;6119527383;-73.898281;45.536941;1;15;16;9401670;Bus 93 : GARE /DEUX-MONTAGNES;"";EXO;93 O;Terminus Saint-Eustache;Gare Deux-Montagnes
437626009;"{\"type\":\"LineString\",\"coordinates\":[[-73.8965939,45.5378594],[-73.8974625,45.5372986],[-73.898352,45.5368353]]}";2;Chemin d'Oka;2;50;false;false;false;false;false;false;89.5;0;0;0;0;0;false;80272;6119526775;-73.89655;45.538048;80021;6119527383;-73.898281;45.536941;1;15;16;9401670;Bus 93 : GARE /DEUX-MONTAGNES;"";EXO;93 O;Terminus Saint-Eustache;Gare Deux-Montagnes
677253532;"{\"type\":\"LineString\",\"coordinates\":[[-73.9000747,45.5358527],[-73.9010005,45.5352004],[-73.9015295,45.5348977],[-73.9018563,45.5347366]]}";1;Chemin d'Oka;2;50;false;false;true;false;false;false;93.5;1;0;0;0;0;false;80023;6119527381;-73.901678;45.534881;80194;6119527022;-73.905458;45.533572;1;18;19;9401670;Bus 93 : GARE /DEUX-MONTAGNES;"";EXO;93 O;Terminus Saint-Eustache;Gare Deux-Montagnes
45518771;"{\"type\":\"LineString\",\"coordinates\":[[-73.9018563,45.5347366],[-73.902393,45.5345188],[-73.902896,45.5343497],[-73.9038113,45.5340434],[-73.9052425,45.5335531],[-73.9055003,45.5334656],[-73.9061059,45.5332629],[-73.9072571,45.532935],[-73.907394,45.5328986],[-73.9075997,45.5328556],[-73.908347,45.5326815],[-73.9085646,45.5326308],[-73.9087446,45.5325965],[-73.9087831,45.5325879],[-73.9095544,45.5324422],[-73.9104384,45.5322857]]}";2;Chemin d'Oka;2;50;false;false;true;false;false;false;363.0;1;0;0;0;0;false;80023;6119527381;-73.901678;45.534881;80194;6119527022;-73.905458;45.533572;1;18;19;9401670;Bus 93 : GARE /DEUX-MONTAGNES;"";EXO;93 O;Terminus Saint-Eustache;Gare Deux-Montagnes
45518771;"{\"type\":\"LineString\",\"coordinates\":[[-73.9018563,45.5347366],[-73.902393,45.5345188],[-73.902896,45.5343497],[-73.9038113,45.5340434],[-73.9052425,45.5335531],[-73.9055003,45.5334656],[-73.9061059,45.5332629],[-73.9072571,45.532935],[-73.907394,45.5328986],[-73.9075997,45.5328556],[-73.908347,45.5326815],[-73.9085646,45.5326308],[-73.9087446,45.5325965],[-73.9087831,45.5325879],[-73.9095544,45.5324422],[-73.9104384,45.5322857]]}";1;Chemin d'Oka;2;50;false;false;true;false;false;false;363.0;1;0;0;0;0;false;80045;6119527360;-73.907469;45.532953;80046;6119527359;-73.911576;45.532198;1;20;21;9401670;Bus 93 : GARE /DEUX-MONTAGNES;"";EXO;93 O;Terminus Saint-Eustache;Gare Deux-Montagnes
813978454;"{\"type\":\"LineString\",\"coordinates\":[[-73.9104384,45.5322857],[-73.9106352,45.5322513],[-73.9111767,45.5321955],[-73.9117075,45.5321661],[-73.912243,45.532175],[-73.9138546,45.5322692],[-73.9146631,45.5323607],[-73.9169942,45.5325873],[-73.9184019,45.5327017],[-73.9195767,45.5327985],[-73.9204648,45.5328751],[-73.9210712,45.5328907],[-73.9218293,45.5328369],[-73.9222077,45.5328001],[-73.9232092,45.532597],[-73.9237508,45.5324576],[-73.924086,45.5323467],[-73.9245248,45.5322015],[-73.9251592,45.5319206],[-73.925833,45.5316081],[-73.9264399,45.5313265],[-73.9270729,45.5310316],[-73.9277055,45.5307229],[-73.928515,45.530341],[-73.9288189,45.5302067],[-73.929193,45.5300414],[-73.9294275,45.5299442],[-73.9302374,45.5296304],[-73.9304781,45.5295343],[-73.9311183,45.5294005],[-73.9318023,45.5293249],[-73.9323629,45.5292657],[-73.9324143,45.5292606],[-73.9327168,45.5292292],[-73.932808,45.5292197],[-73.9329435,45.5292056]]}";2;Chemin d'Oka;2;50;false;false;false;false;false;false;933.0;1;0;0;0;0;false;80045;6119527360;-73.907469;45.532953;80046;6119527359;-73.911576;45.532198;1;20;21;9401670;Bus 93 : GARE /DEUX-MONTAGNES;"";EXO;93 O;Terminus Saint-Eustache;Gare Deux-Montagnes
813978454;"{\"type\":\"LineString\",\"coordinates\":[[-73.9104384,45.5322857],[-73.9106352,45.5322513],[-73.9111767,45.5321955],[-73.9117075,45.5321661],[-73.912243,45.532175],[-73.9138546,45.5322692],[-73.9146631,45.5323607],[-73.9169942,45.5325873],[-73.9184019,45.5327017],[-73.9195767,45.5327985],[-73.9204648,45.5328751],[-73.9210712,45.5328907],[-73.9218293,45.5328369],[-73.9222077,45.5328001],[-73.9232092,45.532597],[-73.9237508,45.5324576],[-73.924086,45.5323467],[-73.9245248,45.5322015],[-73.9251592,45.5319206],[-73.925833,45.5316081],[-73.9264399,45.5313265],[-73.9270729,45.5310316],[-73.9277055,45.5307229],[-73.928515,45.530341],[-73.9288189,45.5302067],[-73.929193,45.5300414],[-73.9294275,45.5299442],[-73.9302374,45.5296304],[-73.9304781,45.5295343],[-73.9311183,45.5294005],[-73.9318023,45.5293249],[-73.9323629,45.5292657],[-73.9324143,45.5292606],[-73.9327168,45.5292292],[-73.932808,45.5292197],[-73.9329435,45.5292056]]}";1;Chemin d'Oka;2;50;false;false;false;false;false;false;933.0;1;0;0;0;0;false;80050;6119527355;-73.931052;45.529502;80158;6119527054;-73.93372;45.528537;1;28;29;9401670;Bus 93 : GARE /DEUX-MONTAGNES;"";EXO;93 O;Terminus Saint-Eustache;Gare Deux-Montagnes
181623742;"{\"type\":\"LineString\",\"coordinates\":[[-73.9431158,45.5234529],[-73.9430121,45.5235169],[-73.9427843,45.5235812],[-73.9426133,45.5235797],[-73.9419595,45.5235221],[-73.9417151,45.523512],[-73.9415462,45.5235499],[-73.9409403,45.5239205],[-73.9402523,45.5244024],[-73.9395641,45.5248617],[-73.9388617,45.5253366],[-73.9381505,45.5258218],[-73.937406,45.5263543],[-73.9366161,45.5268132],[-73.9357263,45.5273311],[-73.9346919,45.527918],[-73.9337485,45.5284307],[-73.9330868,45.528797],[-73.9330236,45.5288326],[-73.9329779,45.5288698],[-73.9329452,45.5289066],[-73.9329195,45.5289443],[-73.9329043,45.5289852],[-73.9329032,45.5290416],[-73.9329114,45.5290939],[-73.9329435,45.5292056]]}";2;Rue Louise;1;50;false;false;true;false;false;false;530.5;1;0;0;0;0;false;80050;6119527355;-73.931052;45.529502;80158;6119527054;-73.93372;45.528537;1;28;29;9401670;Bus 93 : GARE /DEUX-MONTAGNES;"";EXO;93 O;Terminus Saint-Eustache;Gare Deux-Montagnes
677256831;"{\"type\":\"LineString\",\"coordinates\":[[-73.9485898,45.5274679],[-73.9487163,45.5274508]]}";1;Chemin d'Oka;1;50;false;false;false;false;false;false;11.0;0;0;0;0;0;false;80163;6119527049;-73.948382;45.527394;80164;6119527048;-73.949959;45.532108;2;35;36;9401670;Bus 93 : GARE /DEUX-MONTAGNES;"";EXO;93 O;Terminus Saint-Eustache;Gare Deux-Montagnes
343748263;"{\"type\":\"LineString\",\"coordinates\":[[-73.9487163,45.5274508],[-73.9488556,45.5279416],[-73.9492932,45.5294842],[-73.949836,45.5313969],[-73.9500629,45.5321967]]}";2;Boulevard Laurette-Théoret;1;50;false;true;true;false;false;false;538.0;0;0;0;0;0;false;80163;6119527049;-73.948382;45.527394;80164;6119527048;-73.949959;45.532108;2;35;36;9401670;Bus 93 : GARE /DEUX-MONTAGNES;"";EXO;93 O;Terminus Saint-Eustache;Gare Deux-Montagnes
45584352;"{\"type\":\"LineString\",\"coordinates\":[[-73.9253727,45.5380676],[-73.9251338,45.5381796],[-73.9249522,45.5383292],[-73.9246711,45.5385607],[-73.9242557,45.5389028],[-73.923536,45.5394951],[-73.9223769,45.5404502]]}";1;Boulevard des Promenades;2;50;false;true;true;false;false;false;177.0;0;0;0;0;0;false;80154;6119527058;-73.923558;45.539384;80199;6119527017;-73.921278;45.541237;1;47;48;9401670;Bus 93 : GARE /DEUX-MONTAGNES;"";EXO;93 O;Terminus Saint-Eustache;Gare Deux-Montagnes
45584338;"{\"type\":\"LineString\",\"coordinates\":[[-73.9223769,45.5404502],[-73.9213084,45.5413029]]}";2;Boulevard des Promenades;2;50;false;true;true;false;false;false;63.5;1;0;0;0;0;false;80154;6119527058;-73.923558;45.539384;80199;6119527017;-73.921278;45.541237;1;47;48;9401670;Bus 93 : GARE /DEUX-MONTAGNES;"";EXO;93 O;Terminus Saint-Eustache;Gare Deux-Montagnes
45584310;"{\"type\":\"LineString\",\"coordinates\":[[-73.9213084,45.5413029],[-73.9211166,45.5414518],[-73.9208622,45.5416493],[-73.9208273,45.5416764],[-73.9206707,45.5418279]]}";1;Boulevard des Promenades;2;50;false;true;true;false;false;false;77.0;1;0;0;0;0;false;80199;6119527017;-73.921278;45.541237;80216;6119527002;-73.920271;45.542166;2;48;49;9401670;Bus 93 : GARE /DEUX-MONTAGNES;"";EXO;93 O;Terminus Saint-Eustache;Gare Deux-Montagnes
45584313;"{\"type\":\"LineString\",\"coordinates\":[[-73.9206707,45.5418279],[-73.9204546,45.5421047],[-73.9203528,45.5423174],[-73.9201999,45.5426869],[-73.9201333,45.5429923],[-73.9200731,45.5432682],[-73.920064,45.5433555]]}";2;Boulevard des Promenades;2;50;false;true;true;false;false;false;178.0;0;0;0;0;0;false;80199;6119527017;-73.921278;45.541237;80216;6119527002;-73.920271;45.542166;2;48;49;9401670;Bus 93 : GARE /DEUX-MONTAGNES;"";EXO;93 O;Terminus Saint-Eustache;Gare Deux-Montagnes
45584313;"{\"type\":\"LineString\",\"coordinates\":[[-73.9206707,45.5418279],[-73.9204546,45.5421047],[-73.9203528,45.5423174],[-73.9201999,45.5426869],[-73.9201333,45.5429923],[-73.9200731,45.5432682],[-73.920064,45.5433555]]}";1;Boulevard des Promenades;2;50;false;true;true;false;false;false;89.0;0;0;0;0;0;false;80216;6119527002;-73.920271;45.542166;81120;6119525990;-73.917895;45.543315;1;49;50;9401670;Bus 93 : GARE /DEUX-MONTAGNES;"";EXO;93 O;Terminus Saint-Eustache;Gare Deux-Montagnes
30620682;"{\"type\":\"LineString\",\"coordinates\":[[-73.920064,45.5433555],[-73.9189793,45.5433788],[-73.918522,45.5433873],[-73.9181215,45.5433817],[-73.9177264,45.5433367],[-73.9174934,45.5433005],[-73.9155993,45.5429003],[-73.915351,45.5428493],[-73.9144005,45.542654],[-73.9134132,45.5424511],[-73.913115,45.5423898],[-73.9127239,45.5422938]]}";2;20e Avenue;1;50;false;true;true;false;false;false;295.5;1;0;0;0;0;false;80216;6119527002;-73.920271;45.542166;81120;6119525990;-73.917895;45.543315;1;49;50;9401670;Bus 93 : GARE /DEUX-MONTAGNES;"";EXO;93 O;Terminus Saint-Eustache;Gare Deux-Montagnes
30620682;"{\"type\":\"LineString\",\"coordinates\":[[-73.920064,45.5433555],[-73.9189793,45.5433788],[-73.918522,45.5433873],[-73.9181215,45.5433817],[-73.9177264,45.5433367],[-73.9174934,45.5433005],[-73.9155993,45.5429003],[-73.915351,45.5428493],[-73.9144005,45.542654],[-73.9134132,45.5424511],[-73.913115,45.5423898],[-73.9127239,45.5422938]]}";1;20e Avenue;1;50;false;true;true;false;false;false;295.5;1;0;0;0;0;false;81121;6119525989;-73.915592;45.542855;80200;6119527016;-73.912131;45.542691;1;51;52;9401670;Bus 93 : GARE /DEUX-MONTAGNES;"";EXO;93 O;Terminus Saint-Eustache;Gare Deux-Montagnes
677657131;"{\"type\":\"LineString\",\"coordinates\":[[-73.9127239,45.5422938],[-73.9126632,45.5422719],[-73.9125639,45.542236]]}";2;20e Avenue;1;50;false;true;true;false;false;false;15.0;0;0;0;0;0;false;81121;6119525989;-73.915592;45.542855;80200;6119527016;-73.912131;45.542691;0;51;52;9401670;Bus 93 : GARE /DEUX-MONTAGNES;"";EXO;93 O;Terminus Saint-Eustache;Gare Deux-Montagnes
677253530;"{\"type\":\"LineString\",\"coordinates\":[[-73.9125639,45.542236],[-73.9124828,45.5423411]]}";3;Boulevard de Deux-Montagnes;1;50;false;true;true;false;false;false;14.0;0;0;0;0;0;false;81121;6119525989;-73.915592;45.542855;80200;6119527016;-73.912131;45.542691;0;51;52;9401670;Bus 93 : GARE /DEUX-MONTAGNES;"";EXO;93 O;Terminus Saint-Eustache;Gare Deux-Montagnes
123954902;"{\"type\":\"LineString\",\"coordinates\":[[-73.9124828,45.5423411],[-73.9124123,45.5424344],[-73.9121541,45.5428364],[-73.9119478,45.5431627],[-73.9118508,45.54337],[-73.9117712,45.5436255],[-73.9117453,45.5437815],[-73.9117386,45.5439336],[-73.9117638,45.5443984],[-73.9117671,45.5444339],[-73.9117909,45.5446768],[-73.9117926,45.5447538]]}";4;Boulevard de Deux-Montagnes;1;50;false;true;true;false;false;false;140.0;0;1;0;0;0;false;81121;6119525989;-73.915592;45.542855;80200;6119527016;-73.912131;45.542691;1;51;52;9401670;Bus 93 : GARE /DEUX-MONTAGNES;"";EXO;93 O;Terminus Saint-Eustache;Gare Deux-Montagnes
123954902;"{\"type\":\"LineString\",\"coordinates\":[[-73.9124828,45.5423411],[-73.9124123,45.5424344],[-73.9121541,45.5428364],[-73.9119478,45.5431627],[-73.9118508,45.54337],[-73.9117712,45.5436255],[-73.9117453,45.5437815],[-73.9117386,45.5439336],[-73.9117638,45.5443984],[-73.9117671,45.5444339],[-73.9117909,45.5446768],[-73.9117926,45.5447538]]}";1;Boulevard de Deux-Montagnes;1;50;false;true;true;false;false;false;140.0;0;1;0;0;0;false;80200;6119527016;-73.912131;45.542691;81013;4335419374;-73.912033;45.545111;1;52;53;9401670;Bus 93 : GARE /DEUX-MONTAGNES;"";EXO;93 O;Terminus Saint-Eustache;Gare Deux-Montagnes
676890375;"{\"type\":\"LineString\",\"coordinates\":[[-73.9117926,45.5447538],[-73.9118243,45.5452612]]}";2;Boulevard de Deux-Montagnes;1;50;false;true;true;false;false;false;57.0;0;0;0;0;0;false;80200;6119527016;-73.912131;45.542691;81013;4335419374;-73.912033;45.545111;0;52;53;9401670;Bus 93 : GARE /DEUX-MONTAGNES;"";EXO;93 O;Terminus Saint-Eustache;Gare Deux-Montagnes
147960600;"{\"type\":\"LineString\",\"coordinates\":[[-73.9118243,45.5452612],[-73.9119882,45.545256]]}";3;"";1;50;false;true;true;false;false;false;13.0;0;0;0;0;0;false;80200;6119527016;-73.912131;45.542691;81013;4335419374;-73.912033;45.545111;0;52;53;9401670;Bus 93 : GARE /DEUX-MONTAGNES;"";EXO;93 O;Terminus Saint-Eustache;Gare Deux-Montagnes
676890374;"{\"type\":\"LineString\",\"coordinates\":[[-73.9119882,45.545256],[-73.9119794,45.545115]]}";4;Boulevard de Deux-Montagnes;1;50;false;true;false;false;false;false;16.0;0;0;0;0;0;false;80200;6119527016;-73.912131;45.542691;81013;4335419374;-73.912033;45.545111;1;52;53;9401670;Bus 93 : GARE /DEUX-MONTAGNES;"";EXO;93 O;Terminus Saint-Eustache;Gare Deux-Montagnes
