way_id;shape;index;name;nb_lanes;legal_speed;speed_zone_30;oneway;shares_bike;bike_box;bus_lane;dedicated_bus_lane;length;nb_traffic_signals;nb_crossings;nb_stops;nb_give_ways;nb_lvl_crossings;roundabout;stop_id_orig;node_id_orig;coord_x_orig;coord_y_orig;stop_id_dest;node_id_dest;coord_x_dest;coord_y_dest;nb_neighbouring_ways_bus_stop;ordre_orig;ordre_dest;id_line;line_name;colour;operator;ref;from;to
13863293;"{\"type\":\"LineString\",\"coordinates\":[[-73.7665859,45.3829617],[-73.7667517,45.383066],[-73.7671175,45.3833063]]}";1;Chemin Vinet Ouest;1;50;false;false;true;false;false;false;57.0;0;0;0;0;0;false;78235;6190671705;-73.766767;45.383009;78234;6190671706;-73.76711;45.38122;1;0;1;9417490;Bus 26 : Direction Montréal;"";EXO;26;ch. Vinet / rue Edmour;Terminus Angrignon
13863303;"{\"type\":\"LineString\",\"coordinates\":[[-73.7665859,45.3829617],[-73.7670192,45.3811595]]}";2;Rue Edmour;1;50;false;false;true;false;false;false;203.0;0;0;0;0;0;false;78235;6190671705;-73.766767;45.383009;78234;6190671706;-73.76711;45.38122;2;0;1;9417490;Bus 26 : Direction Montréal;"";EXO;26;ch. Vinet / rue Edmour;Terminus Angrignon
620431652;"{\"type\":\"LineString\",\"coordinates\":[[-73.7670192,45.3811595],[-73.7665947,45.3811139]]}";1;Rue Notre-Dame Nord;1;50;false;false;true;false;false;false;34.0;0;0;0;0;0;false;78234;6190671706;-73.76711;45.38122;78163;6190671761;-73.753893;45.379746;2;1;2;9417490;Bus 26 : Direction Montréal;"";EXO;26;ch. Vinet / rue Edmour;Terminus Angrignon
548379414;"{\"type\":\"LineString\",\"coordinates\":[[-73.7665947,45.3811139],[-73.7643159,45.380869],[-73.7636983,45.3807431],[-73.7633421,45.3806053],[-73.7630363,45.3803605],[-73.762836,45.3800357],[-73.7621747,45.3787405]]}";2;Rue Notre-Dame Nord;2;50;false;false;true;false;false;false;491.0;0;0;0;0;0;false;78234;6190671706;-73.76711;45.38122;78163;6190671761;-73.753893;45.379746;0;1;2;9417490;Bus 26 : Direction Montréal;"";EXO;26;ch. Vinet / rue Edmour;Terminus Angrignon
678241595;"{\"type\":\"LineString\",\"coordinates\":[[-73.7621747,45.3787405],[-73.7621029,45.3785989],[-73.7619822,45.3783624],[-73.7619187,45.378235],[-73.7618873,45.3781709]]}";3;Rue Notre-Dame Nord;2;40;false;false;true;false;false;false;68.0;0;1;1;0;0;false;78234;6190671706;-73.76711;45.38122;78163;6190671761;-73.753893;45.379746;0;1;2;9417490;Bus 26 : Direction Montréal;"";EXO;26;ch. Vinet / rue Edmour;Terminus Angrignon
678241596;"{\"type\":\"LineString\",\"coordinates\":[[-73.7618873,45.3781709],[-73.7617274,45.378282],[-73.7615357,45.3784013],[-73.7615072,45.3784186],[-73.7614031,45.378482],[-73.7612951,45.3785455],[-73.7611511,45.3786255],[-73.7609606,45.3787274],[-73.7607686,45.3788242],[-73.7606153,45.378896],[-73.7604287,45.3789799],[-73.760223,45.3790636],[-73.7599174,45.3791867],[-73.7596795,45.3792797],[-73.7594305,45.3793642],[-73.7592217,45.3794331]]}";4;Chemin Saint-Bernard;2;40;false;false;true;false;false;false;253.0;0;0;1;0;0;false;78234;6190671706;-73.76711;45.38122;78163;6190671761;-73.753893;45.379746;0;1;2;9417490;Bus 26 : Direction Montréal;"";EXO;26;ch. Vinet / rue Edmour;Terminus Angrignon
678245777;"{\"type\":\"LineString\",\"coordinates\":[[-73.7592217,45.3794331],[-73.7590947,45.3794511],[-73.7589013,45.3795051],[-73.758743,45.3795471],[-73.7584242,45.3796204]]}";5;Chemin Saint-Bernard;1;50;false;true;true;false;false;false;66.0;0;0;0;0;0;false;78234;6190671706;-73.76711;45.38122;78163;6190671761;-73.753893;45.379746;0;1;2;9417490;Bus 26 : Direction Montréal;"";EXO;26;ch. Vinet / rue Edmour;Terminus Angrignon
387919925;"{\"type\":\"LineString\",\"coordinates\":[[-73.7584242,45.3796204],[-73.7581384,45.3796479],[-73.7579168,45.3796867],[-73.7576454,45.3797371],[-73.7575213,45.3797597],[-73.7574072,45.379776],[-73.7573317,45.3797807],[-73.7572674,45.3797818],[-73.7571753,45.3797748],[-73.7571046,45.3797625],[-73.75704,45.3797465],[-73.7569911,45.3797304],[-73.7569376,45.3797067],[-73.7568787,45.3796774],[-73.7568322,45.3796473],[-73.7567829,45.3796118],[-73.7567397,45.3795697],[-73.756709,45.3795217],[-73.756683,45.3794828],[-73.7566268,45.3794265]]}";6;"";1;50;false;true;true;false;false;false;161.0;0;0;0;0;0;false;78234;6190671706;-73.76711;45.38122;78163;6190671761;-73.753893;45.379746;0;1;2;9417490;Bus 26 : Direction Montréal;"";EXO;26;ch. Vinet / rue Edmour;Terminus Angrignon
387919921;"{\"type\":\"LineString\",\"coordinates\":[[-73.7536156,45.3800393],[-73.7536684,45.3800011],[-73.7551661,45.379365],[-73.7555635,45.3792012],[-73.7557557,45.3791378],[-73.7558664,45.3791162],[-73.7559285,45.3791084],[-73.7559907,45.3791058],[-73.7560793,45.3791084],[-73.7561657,45.3791221],[-73.756242,45.37914],[-73.7562981,45.37916],[-73.7563497,45.3791821],[-73.7564175,45.3792171],[-73.7564712,45.3792514],[-73.7565267,45.3792978],[-73.7565624,45.3793311],[-73.7566002,45.3793802],[-73.7566268,45.3794265]]}";7;"";1;50;false;false;true;false;false;false;280.0;0;0;1;0;0;false;78234;6190671706;-73.76711;45.38122;78163;6190671761;-73.753893;45.379746;2;1;2;9417490;Bus 26 : Direction Montréal;"";EXO;26;ch. Vinet / rue Edmour;Terminus Angrignon
387919921;"{\"type\":\"LineString\",\"coordinates\":[[-73.7536156,45.3800393],[-73.7536684,45.3800011],[-73.7551661,45.379365],[-73.7555635,45.3792012],[-73.7557557,45.3791378],[-73.7558664,45.3791162],[-73.7559285,45.3791084],[-73.7559907,45.3791058],[-73.7560793,45.3791084],[-73.7561657,45.3791221],[-73.756242,45.37914],[-73.7562981,45.37916],[-73.7563497,45.3791821],[-73.7564175,45.3792171],[-73.7564712,45.3792514],[-73.7565267,45.3792978],[-73.7565624,45.3793311],[-73.7566002,45.3793802],[-73.7566268,45.3794265]]}";1;"";1;50;false;false;true;false;false;false;140.0;0;0;1;0;0;false;78163;6190671761;-73.753893;45.379746;78237;6190671704;-73.752858;45.378442;1;2;3;9417490;Bus 26 : Direction Montréal;"";EXO;26;ch. Vinet / rue Edmour;Terminus Angrignon
678245776;"{\"type\":\"LineString\",\"coordinates\":[[-73.7521978,45.3768178],[-73.7522628,45.3769537],[-73.75253,45.3775701],[-73.7525585,45.3776332],[-73.7525934,45.3777215],[-73.7526598,45.3778891],[-73.7526949,45.3779863],[-73.7527246,45.3780859],[-73.7527391,45.3781578],[-73.752748,45.3782156],[-73.7527548,45.3782735],[-73.7527576,45.3783322],[-73.7527601,45.3783879],[-73.7527657,45.3784565],[-73.7527817,45.3786082],[-73.7528055,45.3787615],[-73.7528229,45.3788486],[-73.75284,45.3789203],[-73.7528638,45.3790025],[-73.752891,45.3790848],[-73.7529145,45.3791515],[-73.7529596,45.3792699],[-73.7530163,45.3793968],[-73.753103,45.3795628],[-73.7531957,45.3797047],[-73.7532538,45.3797699],[-73.7533446,45.3798553],[-73.7534247,45.3799157],[-73.7535271,45.3799824],[-73.7536156,45.3800393]]}";2;Boulevard D'Youville;2;30;false;false;true;false;false;false;191.0;0;0;1;0;0;false;78163;6190671761;-73.753893;45.379746;78237;6190671704;-73.752858;45.378442;1;2;3;9417490;Bus 26 : Direction Montréal;"";EXO;26;ch. Vinet / rue Edmour;Terminus Angrignon
16251262;"{\"type\":\"LineString\",\"coordinates\":[[-73.7546897,45.3762682],[-73.7545912,45.3762728],[-73.7523739,45.3767732],[-73.7522661,45.3767964],[-73.7521978,45.3768178]]}";1;Rue Taylor;2;40;false;false;true;false;false;false;205.0;0;0;2;0;0;false;78186;6190671744;-73.752286;45.376877;78239;6190671703;-73.754185;45.375548;2;4;5;9417490;Bus 26 : Direction Montréal;"";EXO;26;ch. Vinet / rue Edmour;Terminus Angrignon
13863273;"{\"type\":\"LineString\",\"coordinates\":[[-73.7546897,45.3762682],[-73.7546423,45.3761195],[-73.7546214,45.3760632],[-73.7545857,45.3759844],[-73.7545293,45.3758625]]}";2;Rue Brault;2;40;false;false;true;false;false;false;47.0;0;0;1;0;0;false;78186;6190671744;-73.752286;45.376877;78239;6190671703;-73.754185;45.375548;0;4;5;9417490;Bus 26 : Direction Montréal;"";EXO;26;ch. Vinet / rue Edmour;Terminus Angrignon
617815995;"{\"type\":\"LineString\",\"coordinates\":[[-73.7545293,45.3758625],[-73.7544039,45.3758825],[-73.7543991,45.3758833],[-73.7543745,45.3758832],[-73.7543438,45.3758814],[-73.7542973,45.3758733],[-73.7542428,45.3758547],[-73.7541948,45.3758295],[-73.7541452,45.3757912],[-73.7541043,45.3757427],[-73.7540738,45.3756877],[-73.754052,45.3756218],[-73.754042,45.3755643],[-73.7540422,45.3755426],[-73.7540427,45.3754958]]}";3;Rue Brault;2;30;false;false;true;false;false;false;69.0;0;1;2;0;0;false;78186;6190671744;-73.752286;45.376877;78239;6190671703;-73.754185;45.375548;2;4;5;9417490;Bus 26 : Direction Montréal;"";EXO;26;ch. Vinet / rue Edmour;Terminus Angrignon
801281262;"{\"type\":\"LineString\",\"coordinates\":[[-73.7541374,45.3730292],[-73.7541435,45.3731182],[-73.7541413,45.3738174],[-73.7541409,45.3739444],[-73.7541404,45.374098],[-73.7541389,45.3741812],[-73.7541361,45.3742719],[-73.7541323,45.3743394],[-73.7541313,45.3743564],[-73.7541303,45.3743744],[-73.7541252,45.3744652],[-73.7541131,45.3748023],[-73.7541045,45.3749265],[-73.7540916,45.3751168],[-73.7540676,45.3753517],[-73.7540427,45.3754958]]}";1;Boulevard D'Youville;2;30;false;false;false;false;false;false;137.5;0;1;1;0;0;false;78447;6190670990;-73.754147;45.374235;78242;6190671702;-73.755578;45.37082;1;6;7;9417490;Bus 26 : Direction Montréal;"";EXO;26;ch. Vinet / rue Edmour;Terminus Angrignon
797573529;"{\"type\":\"LineString\",\"coordinates\":[[-73.75422,45.3723243],[-73.7541933,45.3723868],[-73.7541777,45.3724344],[-73.7541611,45.3724845],[-73.7541398,45.3725762],[-73.754128,45.3726551],[-73.7541254,45.3727752],[-73.7541294,45.3728952],[-73.7541338,45.3729715],[-73.7541374,45.3730292]]}";2;Boulevard D'Youville;2;50;false;false;false;false;false;false;80.0;0;0;0;0;0;false;78447;6190670990;-73.754147;45.374235;78242;6190671702;-73.755578;45.37082;0;6;7;9417490;Bus 26 : Direction Montréal;"";EXO;26;ch. Vinet / rue Edmour;Terminus Angrignon
789696691;"{\"type\":\"LineString\",\"coordinates\":[[-73.7561248,45.3685546],[-73.7561292,45.3687831],[-73.7561293,45.3689356],[-73.7561269,45.3690637],[-73.7561228,45.3691521],[-73.7561187,45.3692211],[-73.7561089,45.3693071],[-73.7560947,45.3693985],[-73.7560748,45.3694979],[-73.7560564,45.3695809],[-73.7560342,45.3696732],[-73.7560084,45.3697565],[-73.7559707,45.3698718],[-73.7559235,45.3699976],[-73.7558682,45.3701278],[-73.7557901,45.3702886],[-73.755738,45.3703845],[-73.7556749,45.3704881],[-73.7555963,45.370613],[-73.7555613,45.3706686],[-73.7555135,45.3707443],[-73.7554461,45.3708479],[-73.7552608,45.3711415],[-73.7552158,45.3712075],[-73.7551754,45.3712641],[-73.7551161,45.3713394],[-73.7550503,45.3714203],[-73.754981,45.3715036],[-73.7549313,45.3715562],[-73.7548916,45.3715951],[-73.7548558,45.3716329],[-73.75482,45.371667],[-73.7547572,45.3717265],[-73.754708,45.3717682],[-73.7546569,45.371813],[-73.754597,45.3718678],[-73.7545355,45.3719235],[-73.7544586,45.3719968],[-73.7544003,45.3720607],[-73.7543339,45.3721397],[-73.7543009,45.3721858],[-73.754269,45.3722329],[-73.7542377,45.372291],[-73.75422,45.3723243]]}";3;Boulevard D'Youville;2;40;false;false;false;false;false;false;227.5;0;0;0;0;0;false;78447;6190670990;-73.754147;45.374235;78242;6190671702;-73.755578;45.37082;1;6;7;9417490;Bus 26 : Direction Montréal;"";EXO;26;ch. Vinet / rue Edmour;Terminus Angrignon
789696691;"{\"type\":\"LineString\",\"coordinates\":[[-73.7561248,45.3685546],[-73.7561292,45.3687831],[-73.7561293,45.3689356],[-73.7561269,45.3690637],[-73.7561228,45.3691521],[-73.7561187,45.3692211],[-73.7561089,45.3693071],[-73.7560947,45.3693985],[-73.7560748,45.3694979],[-73.7560564,45.3695809],[-73.7560342,45.3696732],[-73.7560084,45.3697565],[-73.7559707,45.3698718],[-73.7559235,45.3699976],[-73.7558682,45.3701278],[-73.7557901,45.3702886],[-73.755738,45.3703845],[-73.7556749,45.3704881],[-73.7555963,45.370613],[-73.7555613,45.3706686],[-73.7555135,45.3707443],[-73.7554461,45.3708479],[-73.7552608,45.3711415],[-73.7552158,45.3712075],[-73.7551754,45.3712641],[-73.7551161,45.3713394],[-73.7550503,45.3714203],[-73.754981,45.3715036],[-73.7549313,45.3715562],[-73.7548916,45.3715951],[-73.7548558,45.3716329],[-73.75482,45.371667],[-73.7547572,45.3717265],[-73.754708,45.3717682],[-73.7546569,45.371813],[-73.754597,45.3718678],[-73.7545355,45.3719235],[-73.7544586,45.3719968],[-73.7544003,45.3720607],[-73.7543339,45.3721397],[-73.7543009,45.3721858],[-73.754269,45.3722329],[-73.7542377,45.372291],[-73.75422,45.3723243]]}";1;Boulevard D'Youville;2;40;false;false;false;false;false;false;227.5;0;0;0;0;0;false;78242;6190671702;-73.755578;45.37082;78185;6190671745;-73.756124;45.368501;1;7;8;9417490;Bus 26 : Direction Montréal;"";EXO;26;ch. Vinet / rue Edmour;Terminus Angrignon
789696687;"{\"type\":\"LineString\",\"coordinates\":[[-73.755623,45.3669633],[-73.7556506,45.3670218],[-73.7557553,45.3672101],[-73.755894,45.3674593],[-73.7559353,45.3675382],[-73.7559533,45.3675844],[-73.7559767,45.36765],[-73.7560043,45.3677354],[-73.7560323,45.3678313],[-73.7560391,45.3678547],[-73.7560621,45.3679727],[-73.7560745,45.3680673],[-73.7560996,45.3682673],[-73.7561061,45.3683333],[-73.7561072,45.3683446],[-73.7561184,45.3684584],[-73.7561248,45.3685546]]}";2;Boulevard D'Youville;2;40;false;false;false;false;false;false;91.5;0;0;0;0;0;false;78242;6190671702;-73.755578;45.37082;78185;6190671745;-73.756124;45.368501;1;7;8;9417490;Bus 26 : Direction Montréal;"";EXO;26;ch. Vinet / rue Edmour;Terminus Angrignon
789696691;"{\"type\":\"LineString\",\"coordinates\":[[-73.7561248,45.3685546],[-73.7561292,45.3687831],[-73.7561293,45.3689356],[-73.7561269,45.3690637],[-73.7561228,45.3691521],[-73.7561187,45.3692211],[-73.7561089,45.3693071],[-73.7560947,45.3693985],[-73.7560748,45.3694979],[-73.7560564,45.3695809],[-73.7560342,45.3696732],[-73.7560084,45.3697565],[-73.7559707,45.3698718],[-73.7559235,45.3699976],[-73.7558682,45.3701278],[-73.7557901,45.3702886],[-73.755738,45.3703845],[-73.7556749,45.3704881],[-73.7555963,45.370613],[-73.7555613,45.3706686],[-73.7555135,45.3707443],[-73.7554461,45.3708479],[-73.7552608,45.3711415],[-73.7552158,45.3712075],[-73.7551754,45.3712641],[-73.7551161,45.3713394],[-73.7550503,45.3714203],[-73.754981,45.3715036],[-73.7549313,45.3715562],[-73.7548916,45.3715951],[-73.7548558,45.3716329],[-73.75482,45.371667],[-73.7547572,45.3717265],[-73.754708,45.3717682],[-73.7546569,45.371813],[-73.754597,45.3718678],[-73.7545355,45.3719235],[-73.7544586,45.3719968],[-73.7544003,45.3720607],[-73.7543339,45.3721397],[-73.7543009,45.3721858],[-73.754269,45.3722329],[-73.7542377,45.372291],[-73.75422,45.3723243]]}";1;Boulevard D'Youville;2;40;false;false;false;false;false;false;455.0;0;0;0;0;0;false;78185;6190671745;-73.756124;45.368501;78246;6190671698;-73.754746;45.365633;2;8;9;9417490;Bus 26 : Direction Montréal;"";EXO;26;ch. Vinet / rue Edmour;Terminus Angrignon
789696687;"{\"type\":\"LineString\",\"coordinates\":[[-73.755623,45.3669633],[-73.7556506,45.3670218],[-73.7557553,45.3672101],[-73.755894,45.3674593],[-73.7559353,45.3675382],[-73.7559533,45.3675844],[-73.7559767,45.36765],[-73.7560043,45.3677354],[-73.7560323,45.3678313],[-73.7560391,45.3678547],[-73.7560621,45.3679727],[-73.7560745,45.3680673],[-73.7560996,45.3682673],[-73.7561061,45.3683333],[-73.7561072,45.3683446],[-73.7561184,45.3684584],[-73.7561248,45.3685546]]}";2;Boulevard D'Youville;2;40;false;false;false;false;false;false;183.0;0;0;0;0;0;false;78185;6190671745;-73.756124;45.368501;78246;6190671698;-73.754746;45.365633;0;8;9;9417490;Bus 26 : Direction Montréal;"";EXO;26;ch. Vinet / rue Edmour;Terminus Angrignon
177386525;"{\"type\":\"LineString\",\"coordinates\":[[-73.7547165,45.3656002],[-73.7548846,45.3657126],[-73.7549677,45.3657754],[-73.7550561,45.3658486],[-73.7551205,45.3659038],[-73.7551725,45.3659576],[-73.7552564,45.3660581],[-73.7553057,45.3661254],[-73.7553376,45.36618],[-73.7553804,45.3662505],[-73.7554142,45.3663241],[-73.7554496,45.3664208],[-73.7554691,45.3664918],[-73.755497,45.366592],[-73.7555349,45.3667211],[-73.7555593,45.3668024],[-73.7555777,45.3668555],[-73.7556058,45.3669241],[-73.7556141,45.3669445],[-73.755623,45.3669633]]}";3;Boulevard D'Youville;2;30;false;false;true;false;false;false;172.0;0;2;1;0;0;false;78185;6190671745;-73.756124;45.368501;78246;6190671698;-73.754746;45.365633;2;8;9;9417490;Bus 26 : Direction Montréal;"";EXO;26;ch. Vinet / rue Edmour;Terminus Angrignon
14896265;"{\"type\":\"LineString\",\"coordinates\":[[-73.756764,45.3650554],[-73.7567943,45.3650979],[-73.7568942,45.3652978],[-73.7570656,45.3656286],[-73.7570994,45.3656867],[-73.7571159,45.3657091],[-73.757134,45.3657228],[-73.7571486,45.3657322],[-73.7571742,45.3657411],[-73.7571968,45.3657437],[-73.7572146,45.3657429],[-73.7572369,45.3657408],[-73.7572713,45.3657352],[-73.7573293,45.3657231],[-73.757412,45.3657038],[-73.7575002,45.3656802],[-73.7575828,45.365661]]}";1;Rue Letendre;2;30;false;false;false;false;false;false;118.0;0;0;0;0;0;false;78879;6190668835;-73.756719;45.365093;78197;6190671738;-73.758676;45.365423;2;10;11;9417490;Bus 26 : Direction Montréal;"";EXO;26;ch. Vinet / rue Edmour;Terminus Angrignon
785190411;"{\"type\":\"LineString\",\"coordinates\":[[-73.7575828,45.365661],[-73.7577079,45.3656292],[-73.7577278,45.3656241],[-73.7581185,45.3655256],[-73.758606,45.3654027],[-73.7587037,45.3653786],[-73.7588199,45.3653494],[-73.7592837,45.3652311],[-73.7593878,45.3652055]]}";2;Rue Letendre;2;40;false;false;true;false;false;false;151.0;0;1;2;0;0;false;78879;6190668835;-73.756719;45.365093;78197;6190671738;-73.758676;45.365423;2;10;11;9417490;Bus 26 : Direction Montréal;"";EXO;26;ch. Vinet / rue Edmour;Terminus Angrignon
785190411;"{\"type\":\"LineString\",\"coordinates\":[[-73.7575828,45.365661],[-73.7577079,45.3656292],[-73.7577278,45.3656241],[-73.7581185,45.3655256],[-73.758606,45.3654027],[-73.7587037,45.3653786],[-73.7588199,45.3653494],[-73.7592837,45.3652311],[-73.7593878,45.3652055]]}";1;Rue Letendre;2;40;false;false;true;false;false;false;75.5;0;1;2;0;0;false;78197;6190671738;-73.758676;45.365423;78199;6190671736;-73.759377;45.365192;1;11;12;9417490;Bus 26 : Direction Montréal;"";EXO;26;ch. Vinet / rue Edmour;Terminus Angrignon
789064818;"{\"type\":\"LineString\",\"coordinates\":[[-73.7566716,45.3582709],[-73.7567018,45.3583346],[-73.7567145,45.3583637],[-73.7567636,45.3584625],[-73.756792,45.3585199],[-73.7568998,45.3587369],[-73.7569184,45.3587745],[-73.7569801,45.3589112],[-73.757017,45.3589962],[-73.7570486,45.3590785],[-73.7571382,45.3593206],[-73.7571682,45.3594133],[-73.7572025,45.3595081],[-73.7572225,45.3595644],[-73.7572692,45.3597031],[-73.7572817,45.3597403],[-73.7573056,45.3598109],[-73.7573992,45.3600561],[-73.7574321,45.3601358],[-73.7574645,45.3602148],[-73.7577301,45.3608657],[-73.7577641,45.3609496],[-73.7577931,45.3610249],[-73.7579179,45.3613355],[-73.7580481,45.3616754],[-73.7582859,45.3623005],[-73.7583189,45.3623865],[-73.7583423,45.362455],[-73.7584333,45.3627095],[-73.7585016,45.3628976],[-73.7585335,45.3629842],[-73.758552,45.363036],[-73.7587053,45.3634394],[-73.7587767,45.3636294],[-73.7588069,45.3637078],[-73.7588275,45.36376],[-73.7589535,45.3640887],[-73.7591232,45.364532],[-73.7592824,45.3649444],[-73.7593569,45.3651366],[-73.7593878,45.3652055]]}";2;Boulevard Deguire;2;50;false;false;true;false;false;false;400.0;1;1;5;0;0;false;78197;6190671738;-73.758676;45.365423;78199;6190671736;-73.759377;45.365192;1;11;12;9417490;Bus 26 : Direction Montréal;"";EXO;26;ch. Vinet / rue Edmour;Terminus Angrignon
785190411;"{\"type\":\"LineString\",\"coordinates\":[[-73.7575828,45.365661],[-73.7577079,45.3656292],[-73.7577278,45.3656241],[-73.7581185,45.3655256],[-73.758606,45.3654027],[-73.7587037,45.3653786],[-73.7588199,45.3653494],[-73.7592837,45.3652311],[-73.7593878,45.3652055]]}";1;Rue Letendre;2;40;false;false;true;false;false;false;151.0;0;1;2;0;0;false;78199;6190671736;-73.759377;45.365192;78201;6190671735;-73.758379;45.362454;2;12;13;9417490;Bus 26 : Direction Montréal;"";EXO;26;ch. Vinet / rue Edmour;Terminus Angrignon
789064818;"{\"type\":\"LineString\",\"coordinates\":[[-73.7566716,45.3582709],[-73.7567018,45.3583346],[-73.7567145,45.3583637],[-73.7567636,45.3584625],[-73.756792,45.3585199],[-73.7568998,45.3587369],[-73.7569184,45.3587745],[-73.7569801,45.3589112],[-73.757017,45.3589962],[-73.7570486,45.3590785],[-73.7571382,45.3593206],[-73.7571682,45.3594133],[-73.7572025,45.3595081],[-73.7572225,45.3595644],[-73.7572692,45.3597031],[-73.7572817,45.3597403],[-73.7573056,45.3598109],[-73.7573992,45.3600561],[-73.7574321,45.3601358],[-73.7574645,45.3602148],[-73.7577301,45.3608657],[-73.7577641,45.3609496],[-73.7577931,45.3610249],[-73.7579179,45.3613355],[-73.7580481,45.3616754],[-73.7582859,45.3623005],[-73.7583189,45.3623865],[-73.7583423,45.362455],[-73.7584333,45.3627095],[-73.7585016,45.3628976],[-73.7585335,45.3629842],[-73.758552,45.363036],[-73.7587053,45.3634394],[-73.7587767,45.3636294],[-73.7588069,45.3637078],[-73.7588275,45.36376],[-73.7589535,45.3640887],[-73.7591232,45.364532],[-73.7592824,45.3649444],[-73.7593569,45.3651366],[-73.7593878,45.3652055]]}";2;Boulevard Deguire;2;50;false;false;true;false;false;false;800.0;1;1;5;0;0;false;78199;6190671736;-73.759377;45.365192;78201;6190671735;-73.758379;45.362454;2;12;13;9417490;Bus 26 : Direction Montréal;"";EXO;26;ch. Vinet / rue Edmour;Terminus Angrignon
13858247;"{\"type\":\"LineString\",\"coordinates\":[[-73.7566354,45.3581975],[-73.7566716,45.3582709]]}";1;Boulevard Deguire;2;50;false;false;true;false;false;false;9.0;0;0;0;0;0;false;78251;6190671693;-73.756725;45.358287;78024;6190672478;-73.753616;45.358959;2;16;17;9417490;Bus 26 : Direction Montréal;"";EXO;26;ch. Vinet / rue Edmour;Terminus Angrignon
164862472;"{\"type\":\"LineString\",\"coordinates\":[[-73.7566354,45.3581975],[-73.7565166,45.3582207],[-73.7564676,45.3582305],[-73.7561995,45.3582987],[-73.7559743,45.3583577],[-73.7550106,45.3585903],[-73.7547612,45.3586505],[-73.7542962,45.3587683],[-73.7541248,45.3588218]]}";2;Rue Principale;1;50;false;true;true;false;false;false;209.0;0;1;0;0;0;false;78251;6190671693;-73.756725;45.358287;78024;6190672478;-73.753616;45.358959;0;16;17;9417490;Bus 26 : Direction Montréal;"";EXO;26;ch. Vinet / rue Edmour;Terminus Angrignon
790003861;"{\"type\":\"LineString\",\"coordinates\":[[-73.7541248,45.3588218],[-73.753672,45.3589312],[-73.7536211,45.3589444],[-73.7535492,45.3589608]]}";3;Rue Principale;2;50;false;true;true;false;false;false;48.0;0;1;1;0;0;false;78251;6190671693;-73.756725;45.358287;78024;6190672478;-73.753616;45.358959;2;16;17;9417490;Bus 26 : Direction Montréal;"";EXO;26;ch. Vinet / rue Edmour;Terminus Angrignon
339617752;"{\"type\":\"LineString\",\"coordinates\":[[-73.7535492,45.3589608],[-73.7534649,45.3589749],[-73.7534071,45.3589837],[-73.7512496,45.3595205],[-73.751146,45.3595462],[-73.7506054,45.3596826]]}";1;Rue Principale;1;30;false;true;true;false;false;false;122.5;0;2;0;0;0;false;78131;6190672389;-73.751789;45.35938;78162;6190671762;-73.748566;45.360168;1;18;19;9417490;Bus 26 : Direction Montréal;"";EXO;26;ch. Vinet / rue Edmour;Terminus Angrignon
44339177;"{\"type\":\"LineString\",\"coordinates\":[[-73.7506054,45.3596826],[-73.7503556,45.3597543]]}";2;Rue Principale;1;30;false;true;true;false;false;false;22.0;0;0;0;0;0;false;78131;6190672389;-73.751789;45.35938;78162;6190671762;-73.748566;45.360168;0;18;19;9417490;Bus 26 : Direction Montréal;"";EXO;26;ch. Vinet / rue Edmour;Terminus Angrignon
44339178;"{\"type\":\"LineString\",\"coordinates\":[[-73.7503556,45.3597543],[-73.7500159,45.3598421],[-73.7498751,45.3598965]]}";3;Rue Principale;1;30;false;true;true;false;false;false;41.0;0;0;0;0;0;false;78131;6190672389;-73.751789;45.35938;78162;6190671762;-73.748566;45.360168;0;18;19;9417490;Bus 26 : Direction Montréal;"";EXO;26;ch. Vinet / rue Edmour;Terminus Angrignon
789683139;"{\"type\":\"LineString\",\"coordinates\":[[-73.7498751,45.3598965],[-73.749635,45.3599612],[-73.7494106,45.3600217],[-73.7493161,45.3600431],[-73.7492575,45.3600573],[-73.7491738,45.3600764]]}";4;Rue Principale;2;30;false;true;true;false;false;false;59.0;1;1;0;0;0;false;78131;6190672389;-73.751789;45.35938;78162;6190671762;-73.748566;45.360168;0;18;19;9417490;Bus 26 : Direction Montréal;"";EXO;26;ch. Vinet / rue Edmour;Terminus Angrignon
529095088;"{\"type\":\"LineString\",\"coordinates\":[[-73.7491738,45.3600764],[-73.7490754,45.3600995],[-73.7489449,45.3601312],[-73.7488245,45.3601655],[-73.7487634,45.3601827],[-73.748699,45.360202],[-73.7485554,45.3602402],[-73.748338,45.360313],[-73.7482877,45.3603299],[-73.7481254,45.3603885],[-73.7478805,45.3605301],[-73.7475111,45.3607961],[-73.7474601,45.3608532]]}";5;Rue Principale;1;50;false;true;true;false;false;false;81.5;0;2;0;0;0;false;78131;6190672389;-73.751789;45.35938;78162;6190671762;-73.748566;45.360168;1;18;19;9417490;Bus 26 : Direction Montréal;"";EXO;26;ch. Vinet / rue Edmour;Terminus Angrignon
529095088;"{\"type\":\"LineString\",\"coordinates\":[[-73.7491738,45.3600764],[-73.7490754,45.3600995],[-73.7489449,45.3601312],[-73.7488245,45.3601655],[-73.7487634,45.3601827],[-73.748699,45.360202],[-73.7485554,45.3602402],[-73.748338,45.360313],[-73.7482877,45.3603299],[-73.7481254,45.3603885],[-73.7478805,45.3605301],[-73.7475111,45.3607961],[-73.7474601,45.3608532]]}";1;Rue Principale;1;50;false;true;true;false;false;false;81.5;0;2;0;0;0;false;78162;6190671762;-73.748566;45.360168;78112;6190672405;-73.751329;45.363313;1;19;20;9417490;Bus 26 : Direction Montréal;"";EXO;26;ch. Vinet / rue Edmour;Terminus Angrignon
806543246;"{\"type\":\"LineString\",\"coordinates\":[[-73.7469966,45.3611616],[-73.7474601,45.3608532]]}";2;Pont Arthur-Laberge;1;50;false;false;true;false;false;false;50.0;0;0;0;0;0;false;78162;6190671762;-73.748566;45.360168;78112;6190672405;-73.751329;45.363313;0;19;20;9417490;Bus 26 : Direction Montréal;"";EXO;26;ch. Vinet / rue Edmour;Terminus Angrignon
352177603;"{\"type\":\"LineString\",\"coordinates\":[[-73.746412,45.361533],[-73.7464608,45.3615025],[-73.7465485,45.3614467],[-73.7466175,45.3614028],[-73.7469966,45.3611616]]}";3;Pont Arthur-Laberge;3;50;false;false;true;false;false;false;62.0;1;1;0;0;0;false;78162;6190671762;-73.748566;45.360168;78112;6190672405;-73.751329;45.363313;0;19;20;9417490;Bus 26 : Direction Montréal;"";EXO;26;ch. Vinet / rue Edmour;Terminus Angrignon
473814502;"{\"type\":\"LineString\",\"coordinates\":[[-73.746412,45.361533],[-73.7462948,45.3616017]]}";4;Boulevard D'anjou;2;50;false;false;true;false;false;false;12.0;0;1;0;0;0;false;78162;6190671762;-73.748566;45.360168;78112;6190672405;-73.751329;45.363313;0;19;20;9417490;Bus 26 : Direction Montréal;"";EXO;26;ch. Vinet / rue Edmour;Terminus Angrignon
191331588;"{\"type\":\"LineString\",\"coordinates\":[[-73.7465284,45.3617625],[-73.74647,45.3617365],[-73.7464451,45.3617247],[-73.7464242,45.3617129],[-73.7463779,45.3616743],[-73.7463531,45.3616528],[-73.7462948,45.3616017]]}";5;Boulevard Salaberry Sud;4;40;false;false;true;false;false;false;26.0;1;1;0;0;0;false;78162;6190671762;-73.748566;45.360168;78112;6190672405;-73.751329;45.363313;0;19;20;9417490;Bus 26 : Direction Montréal;"";EXO;26;ch. Vinet / rue Edmour;Terminus Angrignon
339617745;"{\"type\":\"LineString\",\"coordinates\":[[-73.7465284,45.3617625],[-73.7466448,45.3617435],[-73.7469817,45.3616921]]}";6;Boulevard Salaberry Sud;3;50;false;false;true;false;false;false;37.0;0;0;0;0;0;false;78162;6190671762;-73.748566;45.360168;78112;6190672405;-73.751329;45.363313;0;19;20;9417490;Bus 26 : Direction Montréal;"";EXO;26;ch. Vinet / rue Edmour;Terminus Angrignon
788917613;"{\"type\":\"LineString\",\"coordinates\":[[-73.7476774,45.361772],[-73.7475296,45.361726],[-73.7473692,45.3616769],[-73.7473087,45.3616642],[-73.7472341,45.3616584],[-73.747195,45.3616596],[-73.7471599,45.361662],[-73.7471144,45.3616695],[-73.7470667,45.3616778],[-73.7469817,45.3616921]]}";7;Boulevard Salaberry Sud;2;50;false;false;false;false;false;false;58.0;0;0;0;0;0;false;78162;6190671762;-73.748566;45.360168;78112;6190672405;-73.751329;45.363313;0;19;20;9417490;Bus 26 : Direction Montréal;"";EXO;26;ch. Vinet / rue Edmour;Terminus Angrignon
14227975;"{\"type\":\"LineString\",\"coordinates\":[[-73.7517333,45.3642355],[-73.7515993,45.3637766],[-73.7514322,45.3633846],[-73.7513779,45.3632962],[-73.751305,45.3631887],[-73.7512285,45.3630956],[-73.7511368,45.3629944],[-73.7510751,45.36293],[-73.7509591,45.3628199],[-73.7507948,45.3626916],[-73.750706,45.362631],[-73.750612,45.3625722],[-73.7505218,45.3625226],[-73.7503183,45.362423],[-73.750233,45.3623841],[-73.7502106,45.3623761],[-73.7501007,45.3623416],[-73.7499278,45.3622935],[-73.7496299,45.3622259],[-73.7485547,45.361991],[-73.747882,45.3618266],[-73.7476774,45.361772]]}";8;Boulevard Salaberry Sud;2;50;false;false;false;false;false;false;229.0;0;0;0;0;0;false;78162;6190671762;-73.748566;45.360168;78112;6190672405;-73.751329;45.363313;1;19;20;9417490;Bus 26 : Direction Montréal;"";EXO;26;ch. Vinet / rue Edmour;Terminus Angrignon
14227975;"{\"type\":\"LineString\",\"coordinates\":[[-73.7517333,45.3642355],[-73.7515993,45.3637766],[-73.7514322,45.3633846],[-73.7513779,45.3632962],[-73.751305,45.3631887],[-73.7512285,45.3630956],[-73.7511368,45.3629944],[-73.7510751,45.36293],[-73.7509591,45.3628199],[-73.7507948,45.3626916],[-73.750706,45.362631],[-73.750612,45.3625722],[-73.7505218,45.3625226],[-73.7503183,45.362423],[-73.750233,45.3623841],[-73.7502106,45.3623761],[-73.7501007,45.3623416],[-73.7499278,45.3622935],[-73.7496299,45.3622259],[-73.7485547,45.361991],[-73.747882,45.3618266],[-73.7476774,45.361772]]}";1;Boulevard Salaberry Sud;2;50;false;false;false;false;false;false;229.0;0;0;0;0;0;false;78112;6190672405;-73.751329;45.363313;78252;6190671692;-73.751764;45.365104;1;20;21;9417490;Bus 26 : Direction Montréal;"";EXO;26;ch. Vinet / rue Edmour;Terminus Angrignon
45416556;"{\"type\":\"LineString\",\"coordinates\":[[-73.7514638,45.3687568],[-73.7510496,45.3683022],[-73.7509145,45.3681177],[-73.750842,45.3679496],[-73.7507845,45.3677244],[-73.7507765,45.3674231],[-73.7508273,45.367163],[-73.7509331,45.3669603],[-73.7515422,45.3661854],[-73.7516495,45.3660057],[-73.7517176,45.3658243],[-73.7518243,45.3654523],[-73.7518549,45.3651791],[-73.7518561,45.364868],[-73.7517333,45.3642355]]}";2;Boulevard Salaberry Nord;2;50;false;false;false;false;false;false;267.0;0;0;0;0;0;false;78112;6190672405;-73.751329;45.363313;78252;6190671692;-73.751764;45.365104;1;20;21;9417490;Bus 26 : Direction Montréal;"";EXO;26;ch. Vinet / rue Edmour;Terminus Angrignon
45416556;"{\"type\":\"LineString\",\"coordinates\":[[-73.7514638,45.3687568],[-73.7510496,45.3683022],[-73.7509145,45.3681177],[-73.750842,45.3679496],[-73.7507845,45.3677244],[-73.7507765,45.3674231],[-73.7508273,45.367163],[-73.7509331,45.3669603],[-73.7515422,45.3661854],[-73.7516495,45.3660057],[-73.7517176,45.3658243],[-73.7518243,45.3654523],[-73.7518549,45.3651791],[-73.7518561,45.364868],[-73.7517333,45.3642355]]}";1;Boulevard Salaberry Nord;2;50;false;false;false;false;false;false;267.0;0;0;0;0;0;false;78253;6190671691;-73.75069;45.367854;78191;6190671741;-73.751534;45.369299;1;22;23;9417490;Bus 26 : Direction Montréal;"";EXO;26;ch. Vinet / rue Edmour;Terminus Angrignon
678241600;"{\"type\":\"LineString\",\"coordinates\":[[-73.7514638,45.3687568],[-73.7515925,45.36901],[-73.7515894,45.3691674],[-73.7515448,45.3693413]]}";2;Boulevard Salaberry Nord;1;50;false;false;true;false;false;false;33.5;0;0;0;0;0;false;78253;6190671691;-73.75069;45.367854;78191;6190671741;-73.751534;45.369299;1;22;23;9417490;Bus 26 : Direction Montréal;"";EXO;26;ch. Vinet / rue Edmour;Terminus Angrignon
45416553;"{\"type\":\"LineString\",\"coordinates\":[[-73.7515448,45.3693413],[-73.7511508,45.3700865],[-73.7509707,45.3704777],[-73.7507688,45.3712798],[-73.7506226,45.3717476]]}";1;Boulevard Salaberry Nord;1;50;false;false;true;false;false;false;278.0;0;0;0;0;0;false;78191;6190671741;-73.751534;45.369299;78139;6190671782;-73.749755;45.372998;2;23;24;9417490;Bus 26 : Direction Montréal;"";EXO;26;ch. Vinet / rue Edmour;Terminus Angrignon
14896295;"{\"type\":\"LineString\",\"coordinates\":[[-73.7498303,45.3769305],[-73.7497439,45.3768094],[-73.7496098,45.3764444],[-73.7493008,45.3753049],[-73.7492789,45.3750053],[-73.7492408,45.3744849],[-73.7494296,45.3737252],[-73.7497323,45.373109],[-73.7497643,45.3730439],[-73.7501849,45.3726098],[-73.7504338,45.372242],[-73.7505149,45.3720713],[-73.7506226,45.3717476]]}";2;Boulevard Salaberry Nord;2;50;false;false;false;false;false;false;604.0;0;0;0;0;0;false;78191;6190671741;-73.751534;45.369299;78139;6190671782;-73.749755;45.372998;2;23;24;9417490;Bus 26 : Direction Montréal;"";EXO;26;ch. Vinet / rue Edmour;Terminus Angrignon
790426624;"{\"type\":\"LineString\",\"coordinates\":[[-73.7367055,45.3738399],[-73.7366008,45.373677],[-73.7364377,45.373478],[-73.7363489,45.3733672],[-73.736254,45.3732989],[-73.7359574,45.3730688],[-73.7357631,45.3729231],[-73.7352135,45.3724852],[-73.734965,45.3722828],[-73.7330817,45.3707587],[-73.7328071,45.3705235],[-73.7324037,45.3699447],[-73.7314997,45.3686828],[-73.7311059,45.3681352],[-73.7310832,45.3681016]]}";1;Boulevard Maple;2;50;false;false;false;false;false;false;390.5;0;0;0;0;0;false;78263;6190671081;-73.732462;45.369937;78182;6190671748;-73.731134;45.368079;1;32;33;9417490;Bus 26 : Direction Montréal;"";EXO;26;ch. Vinet / rue Edmour;Terminus Angrignon
340350768;"{\"type\":\"LineString\",\"coordinates\":[[-73.7310832,45.3681016],[-73.7314339,45.3679568],[-73.7315252,45.3678761]]}";2;Boulevard Saint-Francis;1;50;false;true;false;false;false;false;22.0;0;0;0;0;0;false;78263;6190671081;-73.732462;45.369937;78182;6190671748;-73.731134;45.368079;1;32;33;9417490;Bus 26 : Direction Montréal;"";EXO;26;ch. Vinet / rue Edmour;Terminus Angrignon
790426624;"{\"type\":\"LineString\",\"coordinates\":[[-73.7367055,45.3738399],[-73.7366008,45.373677],[-73.7364377,45.373478],[-73.7363489,45.3733672],[-73.736254,45.3732989],[-73.7359574,45.3730688],[-73.7357631,45.3729231],[-73.7352135,45.3724852],[-73.734965,45.3722828],[-73.7330817,45.3707587],[-73.7328071,45.3705235],[-73.7324037,45.3699447],[-73.7314997,45.3686828],[-73.7311059,45.3681352],[-73.7310832,45.3681016]]}";1;Boulevard Maple;2;50;false;false;false;false;false;false;781.0;0;0;0;0;0;false;78182;6190671748;-73.731134;45.368079;78265;6190671079;-73.735824;45.367996;2;33;34;9417490;Bus 26 : Direction Montréal;"";EXO;26;ch. Vinet / rue Edmour;Terminus Angrignon
340350768;"{\"type\":\"LineString\",\"coordinates\":[[-73.7310832,45.3681016],[-73.7314339,45.3679568],[-73.7315252,45.3678761]]}";2;Boulevard Saint-Francis;1;50;false;true;false;false;false;false;44.0;0;0;0;0;0;false;78182;6190671748;-73.731134;45.368079;78265;6190671079;-73.735824;45.367996;0;33;34;9417490;Bus 26 : Direction Montréal;"";EXO;26;ch. Vinet / rue Edmour;Terminus Angrignon
790429880;"{\"type\":\"LineString\",\"coordinates\":[[-73.7321606,45.3676393],[-73.7315252,45.3678761]]}";3;Boulevard Saint-Francis;2;50;false;false;false;false;false;false;57.0;0;0;0;0;0;false;78182;6190671748;-73.731134;45.368079;78265;6190671079;-73.735824;45.367996;0;33;34;9417490;Bus 26 : Direction Montréal;"";EXO;26;ch. Vinet / rue Edmour;Terminus Angrignon
678245772;"{\"type\":\"LineString\",\"coordinates\":[[-73.7384376,45.3682683],[-73.7383491,45.368259],[-73.7370261,45.3681198],[-73.7360442,45.3680151],[-73.7334617,45.3677036],[-73.7326265,45.3675792],[-73.7323943,45.3675863],[-73.7321606,45.3676393]]}";4;Boulevard Saint-Francis;2;50;false;false;true;false;false;false;499.0;0;0;0;0;0;false;78182;6190671748;-73.731134;45.368079;78265;6190671079;-73.735824;45.367996;2;33;34;9417490;Bus 26 : Direction Montréal;"";EXO;26;ch. Vinet / rue Edmour;Terminus Angrignon
678228603;"{\"type\":\"LineString\",\"coordinates\":[[-73.7327633,45.3604634],[-73.7326048,45.3604467]]}";1;Boulevard d'Anjou;5;50;false;false;true;false;false;false;13.0;0;0;0;0;0;false;78124;6190672395;-73.732825;45.360425;78171;570144086;-73.727642;45.359788;2;41;42;9417490;Bus 26 : Direction Montréal;"";EXO;26;ch. Vinet / rue Edmour;Terminus Angrignon
339617749;"{\"type\":\"LineString\",\"coordinates\":[[-73.7326048,45.3604467],[-73.7324663,45.360431],[-73.7298048,45.3601294],[-73.7294646,45.3600909],[-73.728216,45.3599494],[-73.7275633,45.3598721],[-73.7274757,45.3598617]]}";2;Boulevard d'Anjou;5;50;false;false;true;false;false;false;407.0;2;0;0;0;0;false;78124;6190672395;-73.732825;45.360425;78171;570144086;-73.727642;45.359788;2;41;42;9417490;Bus 26 : Direction Montréal;"";EXO;26;ch. Vinet / rue Edmour;Terminus Angrignon
678443243;"{\"type\":\"LineString\",\"coordinates\":[[-73.7274757,45.3598617],[-73.7272958,45.3598395]]}";1;Boulevard d'Anjou;5;50;false;false;true;false;false;false;15.0;0;0;0;0;0;false;78171;570144086;-73.727642;45.359788;78178;6190671752;-73.723465;45.359398;2;42;43;9417490;Bus 26 : Direction Montréal;"";EXO;26;ch. Vinet / rue Edmour;Terminus Angrignon
666350670;"{\"type\":\"LineString\",\"coordinates\":[[-73.7272958,45.3598395],[-73.7272012,45.359829],[-73.7252656,45.3596138],[-73.723463,45.3594134],[-73.722157,45.3592668],[-73.7215402,45.3591976],[-73.718471,45.3588747],[-73.7180761,45.3588332],[-73.7177888,45.3588022]]}";2;Boulevard d'Anjou;5;50;false;false;true;false;false;false;754.0;2;0;0;0;0;false;78171;570144086;-73.727642;45.359788;78178;6190671752;-73.723465;45.359398;2;42;43;9417490;Bus 26 : Direction Montréal;"";EXO;26;ch. Vinet / rue Edmour;Terminus Angrignon
666350670;"{\"type\":\"LineString\",\"coordinates\":[[-73.7272958,45.3598395],[-73.7272012,45.359829],[-73.7252656,45.3596138],[-73.723463,45.3594134],[-73.722157,45.3592668],[-73.7215402,45.3591976],[-73.718471,45.3588747],[-73.7180761,45.3588332],[-73.7177888,45.3588022]]}";1;Boulevard d'Anjou;5;50;false;false;true;false;false;false;377.0;2;0;0;0;0;false;78178;6190671752;-73.723465;45.359398;78132;6190672388;-73.715801;45.358657;1;43;44;9417490;Bus 26 : Direction Montréal;"";EXO;26;ch. Vinet / rue Edmour;Terminus Angrignon
462340967;"{\"type\":\"LineString\",\"coordinates\":[[-73.7177888,45.3588022],[-73.7159491,45.3585979]]}";2;Boulevard d'Anjou;5;50;false;false;true;false;false;false;146.0;1;0;0;0;0;false;78178;6190671752;-73.723465;45.359398;78132;6190672388;-73.715801;45.358657;0;43;44;9417490;Bus 26 : Direction Montréal;"";EXO;26;ch. Vinet / rue Edmour;Terminus Angrignon
462340968;"{\"type\":\"LineString\",\"coordinates\":[[-73.715174,45.3598686],[-73.7159491,45.3585979]]}";3;Boulevard Saint-Jean-Baptiste;5;50;false;false;true;false;false;false;77.0;1;0;0;0;0;false;78178;6190671752;-73.723465;45.359398;78132;6190672388;-73.715801;45.358657;1;43;44;9417490;Bus 26 : Direction Montréal;"";EXO;26;ch. Vinet / rue Edmour;Terminus Angrignon
462340967;"{\"type\":\"LineString\",\"coordinates\":[[-73.7177888,45.3588022],[-73.7159491,45.3585979]]}";1;Boulevard d'Anjou;5;50;false;false;true;false;false;false;146.0;1;0;0;0;0;false;78132;6190672388;-73.715801;45.358657;78179;6190671751;-73.713495;45.362459;2;44;45;9417490;Bus 26 : Direction Montréal;"";EXO;26;ch. Vinet / rue Edmour;Terminus Angrignon
462340968;"{\"type\":\"LineString\",\"coordinates\":[[-73.715174,45.3598686],[-73.7159491,45.3585979]]}";2;Boulevard Saint-Jean-Baptiste;5;50;false;false;true;false;false;false;154.0;1;0;0;0;0;false;78132;6190672388;-73.715801;45.358657;78179;6190671751;-73.713495;45.362459;0;44;45;9417490;Bus 26 : Direction Montréal;"";EXO;26;ch. Vinet / rue Edmour;Terminus Angrignon
462340969;"{\"type\":\"LineString\",\"coordinates\":[[-73.7135371,45.3625678],[-73.7142507,45.3613773],[-73.7143242,45.3612455],[-73.7147433,45.3605702],[-73.7150279,45.3601066],[-73.715174,45.3598686]]}";3;Boulevard Saint-Jean-Baptiste;5;50;false;false;true;false;false;false;327.0;1;0;0;0;0;false;78132;6190672388;-73.715801;45.358657;78179;6190671751;-73.713495;45.362459;2;44;45;9417490;Bus 26 : Direction Montréal;"";EXO;26;ch. Vinet / rue Edmour;Terminus Angrignon
677713370;"{\"type\":\"LineString\",\"coordinates\":[[-73.7115683,45.3658389],[-73.713018,45.3634711],[-73.7135371,45.3625678]]}";1;Boulevard Saint-Jean-Baptiste;5;50;false;false;true;false;false;false;197.5;2;0;0;0;0;false;78136;5515416123;-73.7117;45.365547;78125;6190672394;-73.710017;45.368313;1;46;47;9417490;Bus 26 : Direction Montréal;"";EXO;26;ch. Vinet / rue Edmour;Terminus Angrignon
666181870;"{\"type\":\"LineString\",\"coordinates\":[[-73.7109041,45.3669337],[-73.7115683,45.3658389]]}";2;Boulevard Saint-Jean-Baptiste;5;50;false;false;true;false;false;false;133.0;1;0;0;0;0;false;78136;5515416123;-73.7117;45.365547;78125;6190672394;-73.710017;45.368313;0;46;47;9417490;Bus 26 : Direction Montréal;"";EXO;26;ch. Vinet / rue Edmour;Terminus Angrignon
13810867;"{\"type\":\"LineString\",\"coordinates\":[[-73.7109041,45.3669337],[-73.7107783,45.3670448],[-73.7105598,45.3674213],[-73.7104644,45.3675857]]}";3;Boulevard Saint-Jean-Baptiste;5;50;false;true;true;false;false;false;81.0;1;0;0;0;0;false;78136;5515416123;-73.7117;45.365547;78125;6190672394;-73.710017;45.368313;0;46;47;9417490;Bus 26 : Direction Montréal;"";EXO;26;ch. Vinet / rue Edmour;Terminus Angrignon
476608730;"{\"type\":\"LineString\",\"coordinates\":[[-73.7104644,45.3675857],[-73.7104073,45.3676855]]}";4;Boulevard Saint-Jean-Baptiste;5;50;false;true;true;false;false;false;12.0;0;0;0;0;0;false;78136;5515416123;-73.7117;45.365547;78125;6190672394;-73.710017;45.368313;0;46;47;9417490;Bus 26 : Direction Montréal;"";EXO;26;ch. Vinet / rue Edmour;Terminus Angrignon
476608728;"{\"type\":\"LineString\",\"coordinates\":[[-73.7104073,45.3676855],[-73.7100703,45.36826],[-73.7099813,45.3684118]]}";5;Boulevard Saint-Jean-Baptiste;5;50;false;true;true;false;false;false;44.0;1;0;0;0;0;false;78136;5515416123;-73.7117;45.365547;78125;6190672394;-73.710017;45.368313;1;46;47;9417490;Bus 26 : Direction Montréal;"";EXO;26;ch. Vinet / rue Edmour;Terminus Angrignon
476606111;"{\"type\":\"LineString\",\"coordinates\":[[-73.7099813,45.3684118],[-73.7099292,45.3684994]]}";1;Boulevard Saint-Jean-Baptiste;5;50;false;true;true;false;false;false;11.0;0;0;0;0;0;false;78125;6190672394;-73.710017;45.368313;78730;6190668868;-73.70505;45.376806;2;47;48;9417490;Bus 26 : Direction Montréal;"";EXO;26;ch. Vinet / rue Edmour;Terminus Angrignon
342545891;"{\"type\":\"LineString\",\"coordinates\":[[-73.7099292,45.3684994],[-73.7096373,45.3690166],[-73.7095192,45.3692756],[-73.7094727,45.3694074]]}";2;Boulevard Saint-Jean-Baptiste;2;50;false;true;true;false;false;false;108.0;0;0;0;0;0;false;78125;6190672394;-73.710017;45.368313;78730;6190668868;-73.70505;45.376806;0;47;48;9417490;Bus 26 : Direction Montréal;"";EXO;26;ch. Vinet / rue Edmour;Terminus Angrignon
638130699;"{\"type\":\"LineString\",\"coordinates\":[[-73.7057841,45.3757376],[-73.7059489,45.3754557],[-73.7061827,45.3750558],[-73.7077504,45.3723743],[-73.7094727,45.3694074]]}";3;Route 132;5;70;false;false;true;false;false;false;760.0;0;0;0;0;0;false;78125;6190672394;-73.710017;45.368313;78730;6190668868;-73.70505;45.376806;0;47;48;9417490;Bus 26 : Direction Montréal;"";EXO;26;ch. Vinet / rue Edmour;Terminus Angrignon
638130701;"{\"type\":\"LineString\",\"coordinates\":[[-73.7057841,45.3757376],[-73.7056473,45.3758488],[-73.7050512,45.3768421]]}";4;Route 132;5;70;false;true;true;false;false;false;137.0;0;0;0;0;0;false;78125;6190672394;-73.710017;45.368313;78730;6190668868;-73.70505;45.376806;2;47;48;9417490;Bus 26 : Direction Montréal;"";EXO;26;ch. Vinet / rue Edmour;Terminus Angrignon
638130696;"{\"type\":\"LineString\",\"coordinates\":[[-73.7050512,45.3768421],[-73.7044644,45.3778365],[-73.7044729,45.3779945]]}";1;Route 132;5;70;false;true;true;false;false;false;138.0;0;0;0;0;0;false;78730;6190668868;-73.70505;45.376806;78731;6190668867;-73.695464;45.393205;2;48;49;9417490;Bus 26 : Direction Montréal;"";EXO;26;ch. Vinet / rue Edmour;Terminus Angrignon
638130703;"{\"type\":\"LineString\",\"coordinates\":[[-73.6964738,45.3918936],[-73.6983132,45.3886906],[-73.7044729,45.3779945]]}";2;Route 132;5;70;false;false;true;false;false;false;1666.0;0;0;0;0;0;false;78730;6190668868;-73.70505;45.376806;78731;6190668867;-73.695464;45.393205;0;48;49;9417490;Bus 26 : Direction Montréal;"";EXO;26;ch. Vinet / rue Edmour;Terminus Angrignon
494183739;"{\"type\":\"LineString\",\"coordinates\":[[-73.6964738,45.3918936],[-73.6961424,45.3923398],[-73.6955908,45.3932807]]}";3;Route 132/138;5;70;false;true;true;false;false;false;169.0;1;0;0;0;0;false;78730;6190668868;-73.70505;45.376806;78731;6190668867;-73.695464;45.393205;2;48;49;9417490;Bus 26 : Direction Montréal;"";EXO;26;ch. Vinet / rue Edmour;Terminus Angrignon
494183735;"{\"type\":\"LineString\",\"coordinates\":[[-73.6955908,45.3932807],[-73.6948254,45.3946547],[-73.6947906,45.3948515]]}";1;Route 132/138;5;70;false;true;true;false;false;false;186.0;1;0;0;0;0;false;78731;6190668867;-73.695464;45.393205;78734;6190668866;-73.689147;45.39876;2;49;50;9417490;Bus 26 : Direction Montréal;"";EXO;26;ch. Vinet / rue Edmour;Terminus Angrignon
494183738;"{\"type\":\"LineString\",\"coordinates\":[[-73.6935913,45.3969904],[-73.6944419,45.3954988],[-73.6947906,45.3948515]]}";2;Route 132/138;5;70;false;false;true;false;false;false;256.0;0;0;0;0;0;false;78731;6190668867;-73.695464;45.393205;78734;6190668866;-73.689147;45.39876;0;49;50;9417490;Bus 26 : Direction Montréal;"";EXO;26;ch. Vinet / rue Edmour;Terminus Angrignon
37625756;"{\"type\":\"LineString\",\"coordinates\":[[-73.6935913,45.3969904],[-73.6933137,45.3973011],[-73.6929837,45.3976439],[-73.6927866,45.3978294],[-73.6925828,45.3979952],[-73.6922287,45.398241],[-73.6918633,45.3984537],[-73.6914951,45.3986233],[-73.691125,45.3987617],[-73.6907615,45.3988757],[-73.6903766,45.3989727],[-73.6899475,45.3990357],[-73.6894578,45.3990763]]}";3;Route 132/138;2;70;false;true;true;false;false;false;417.0;1;0;0;0;0;false;78731;6190668867;-73.695464;45.393205;78734;6190668866;-73.689147;45.39876;0;49;50;9417490;Bus 26 : Direction Montréal;"";EXO;26;ch. Vinet / rue Edmour;Terminus Angrignon
482433028;"{\"type\":\"LineString\",\"coordinates\":[[-73.6894578,45.3990763],[-73.6890302,45.3990894],[-73.688593,45.3990791],[-73.6879331,45.3990254],[-73.6877887,45.3990193]]}";4;Route 132/138;3;70;false;true;true;false;false;false;132.0;1;0;0;0;0;false;78731;6190668867;-73.695464;45.393205;78734;6190668866;-73.689147;45.39876;2;49;50;9417490;Bus 26 : Direction Montréal;"";EXO;26;ch. Vinet / rue Edmour;Terminus Angrignon
482433028;"{\"type\":\"LineString\",\"coordinates\":[[-73.6894578,45.3990763],[-73.6890302,45.3990894],[-73.688593,45.3990791],[-73.6879331,45.3990254],[-73.6877887,45.3990193]]}";1;Route 132/138;3;70;false;true;true;false;false;false;66.0;1;0;0;0;0;false;78734;6190668866;-73.689147;45.39876;78275;6190671072;-73.68314;45.399543;1;50;51;9417490;Bus 26 : Direction Montréal;"";EXO;26;ch. Vinet / rue Edmour;Terminus Angrignon
678489518;"{\"type\":\"LineString\",\"coordinates\":[[-73.6877887,45.3990193],[-73.6873055,45.398999],[-73.686675,45.3989981],[-73.6863957,45.3990172]]}";2;Route 132;3;70;false;true;true;false;false;false;110.0;0;0;0;0;0;false;78734;6190668866;-73.689147;45.39876;78275;6190671072;-73.68314;45.399543;0;50;51;9417490;Bus 26 : Direction Montréal;"";EXO;26;ch. Vinet / rue Edmour;Terminus Angrignon
326317193;"{\"type\":\"LineString\",\"coordinates\":[[-73.6863957,45.3990172],[-73.6860704,45.3990395],[-73.6858456,45.399071],[-73.6851968,45.3991618],[-73.6843224,45.3993542],[-73.6830372,45.399692],[-73.6828864,45.3997322],[-73.6820288,45.3999606],[-73.6811632,45.4001912],[-73.6780117,45.4010481],[-73.6772725,45.4012441],[-73.673995,45.4021131]]}";3;Route 132;3;70;false;true;true;false;false;false;516.0;0;0;0;0;0;false;78734;6190668866;-73.689147;45.39876;78275;6190671072;-73.68314;45.399543;1;50;51;9417490;Bus 26 : Direction Montréal;"";EXO;26;ch. Vinet / rue Edmour;Terminus Angrignon
326317193;"{\"type\":\"LineString\",\"coordinates\":[[-73.6863957,45.3990172],[-73.6860704,45.3990395],[-73.6858456,45.399071],[-73.6851968,45.3991618],[-73.6843224,45.3993542],[-73.6830372,45.399692],[-73.6828864,45.3997322],[-73.6820288,45.3999606],[-73.6811632,45.4001912],[-73.6780117,45.4010481],[-73.6772725,45.4012441],[-73.673995,45.4021131]]}";1;Route 132;3;70;false;true;true;false;false;false;516.0;0;0;0;0;0;false;78275;6190671072;-73.68314;45.399543;78274;6190671073;-73.672873;45.402284;1;51;52;9417490;Bus 26 : Direction Montréal;"";EXO;26;ch. Vinet / rue Edmour;Terminus Angrignon
338423095;"{\"type\":\"LineString\",\"coordinates\":[[-73.673995,45.4021131],[-73.6721407,45.4025994]]}";2;Route 132;2;70;false;true;true;false;false;false;77.5;0;0;0;0;0;false;78275;6190671072;-73.68314;45.399543;78274;6190671073;-73.672873;45.402284;1;51;52;9417490;Bus 26 : Direction Montréal;"";EXO;26;ch. Vinet / rue Edmour;Terminus Angrignon
338423095;"{\"type\":\"LineString\",\"coordinates\":[[-73.673995,45.4021131],[-73.6721407,45.4025994]]}";1;Route 132;2;70;false;true;true;false;false;false;77.5;0;0;0;0;0;false;78274;6190671073;-73.672873;45.402284;77655;6190673001;-73.645618;45.424182;1;52;53;9417490;Bus 26 : Direction Montréal;"";EXO;26;ch. Vinet / rue Edmour;Terminus Angrignon
45271205;"{\"type\":\"LineString\",\"coordinates\":[[-73.6721407,45.4025994],[-73.6718259,45.4026793]]}";2;Route 132;2;70;false;true;false;false;false;false;27.0;0;0;0;0;0;false;78274;6190671073;-73.672873;45.402284;77655;6190673001;-73.645618;45.424182;0;52;53;9417490;Bus 26 : Direction Montréal;"";EXO;26;ch. Vinet / rue Edmour;Terminus Angrignon
45271206;"{\"type\":\"LineString\",\"coordinates\":[[-73.6718259,45.4026793],[-73.6686174,45.4035038]]}";3;Route 132/138;2;70;false;true;false;false;false;false;268.0;0;0;0;0;0;false;78274;6190671073;-73.672873;45.402284;77655;6190673001;-73.645618;45.424182;0;52;53;9417490;Bus 26 : Direction Montréal;"";EXO;26;ch. Vinet / rue Edmour;Terminus Angrignon
417092087;"{\"type\":\"LineString\",\"coordinates\":[[-73.6686174,45.4035038],[-73.6627339,45.4050963]]}";4;Pont Honoré-Mercier;1;70;false;true;false;false;false;false;494.0;0;0;0;0;0;false;78274;6190671073;-73.672873;45.402284;77655;6190673001;-73.645618;45.424182;0;52;53;9417490;Bus 26 : Direction Montréal;"";EXO;26;ch. Vinet / rue Edmour;Terminus Angrignon
417092090;"{\"type\":\"LineString\",\"coordinates\":[[-73.6627339,45.4050963],[-73.6622259,45.4052419],[-73.6616956,45.4053917],[-73.6613866,45.4054763],[-73.6611234,45.4055551],[-73.6608837,45.4056237],[-73.6606032,45.4057264],[-73.6603768,45.405835],[-73.6601685,45.4059512],[-73.6599729,45.4060934],[-73.6598269,45.4062138],[-73.6596904,45.4063519],[-73.6595614,45.406511],[-73.6594348,45.406698],[-73.6593651,45.4068313],[-73.6593054,45.4069675],[-73.659252,45.4071389],[-73.6592237,45.4072872],[-73.6592088,45.4074725],[-73.6592066,45.4076714],[-73.6591998,45.4079813],[-73.6592002,45.4082715],[-73.6591779,45.4085643],[-73.6591713,45.4086677],[-73.6591458,45.4087966],[-73.6591126,45.408904],[-73.6590792,45.409],[-73.6590214,45.4091479]]}";5;Pont Honoré-Mercier;2;70;false;true;false;false;false;false;601.0;1;0;0;0;0;false;78274;6190671073;-73.672873;45.402284;77655;6190673001;-73.645618;45.424182;0;52;53;9417490;Bus 26 : Direction Montréal;"";EXO;26;ch. Vinet / rue Edmour;Terminus Angrignon
720986411;"{\"type\":\"LineString\",\"coordinates\":[[-73.6590214,45.4091479],[-73.6585213,45.4101217],[-73.6580016,45.4111774],[-73.6572603,45.4126408],[-73.6566111,45.4138657],[-73.656491,45.4140705],[-73.6563268,45.4143483],[-73.654358,45.4175778],[-73.6520654,45.4212619]]}";6;Pont Honoré-Mercier;2;70;false;true;false;false;false;false;1452.0;0;0;0;0;0;false;78274;6190671073;-73.672873;45.402284;77655;6190673001;-73.645618;45.424182;0;52;53;9417490;Bus 26 : Direction Montréal;"";EXO;26;ch. Vinet / rue Edmour;Terminus Angrignon
482530516;"{\"type\":\"LineString\",\"coordinates\":[[-73.6520654,45.4212619],[-73.6519112,45.4215281],[-73.6518434,45.4216675],[-73.6517835,45.4218267]]}";7;Pont Honoré-Mercier;1;70;false;true;false;false;false;false;67.0;0;0;0;0;0;false;78274;6190671073;-73.672873;45.402284;77655;6190673001;-73.645618;45.424182;0;52;53;9417490;Bus 26 : Direction Montréal;"";EXO;26;ch. Vinet / rue Edmour;Terminus Angrignon
482530515;"{\"type\":\"LineString\",\"coordinates\":[[-73.6517835,45.4218267],[-73.6517192,45.4220142]]}";8;Pont Honoré-Mercier;1;70;false;true;false;false;false;false;22.0;0;0;0;0;0;false;78274;6190671073;-73.672873;45.402284;77655;6190673001;-73.645618;45.424182;0;52;53;9417490;Bus 26 : Direction Montréal;"";EXO;26;ch. Vinet / rue Edmour;Terminus Angrignon
482530514;"{\"type\":\"LineString\",\"coordinates\":[[-73.6517192,45.4220142],[-73.6516557,45.422336]]}";9;Pont Honoré-Mercier;1;70;false;true;true;false;false;false;37.0;0;0;0;0;0;false;78274;6190671073;-73.672873;45.402284;77655;6190673001;-73.645618;45.424182;0;52;53;9417490;Bus 26 : Direction Montréal;"";EXO;26;ch. Vinet / rue Edmour;Terminus Angrignon
104836575;"{\"type\":\"LineString\",\"coordinates\":[[-73.6516557,45.422336],[-73.6516448,45.422398]]}";10;Route 138;2;70;false;true;true;false;false;false;7.0;0;0;0;0;0;false;78274;6190671073;-73.672873;45.402284;77655;6190673001;-73.645618;45.424182;0;52;53;9417490;Bus 26 : Direction Montréal;"";EXO;26;ch. Vinet / rue Edmour;Terminus Angrignon
422417413;"{\"type\":\"LineString\",\"coordinates\":[[-73.6516448,45.422398],[-73.6514116,45.4231709],[-73.6513538,45.4234419],[-73.6513121,45.4236092],[-73.6512362,45.4237671],[-73.6511279,45.4239254],[-73.6509832,45.4240821],[-73.6507779,45.4242529],[-73.6505039,45.4244128],[-73.650213,45.424533]]}";11;"";1;50;false;true;false;false;false;false;275.0;0;0;0;0;0;false;78274;6190671073;-73.672873;45.402284;77655;6190673001;-73.645618;45.424182;0;52;53;9417490;Bus 26 : Direction Montréal;"";EXO;26;ch. Vinet / rue Edmour;Terminus Angrignon
490755726;"{\"type\":\"LineString\",\"coordinates\":[[-73.650213,45.424533],[-73.6497775,45.4246468]]}";12;"";1;50;false;true;false;false;false;false;37.0;0;0;0;0;0;false;78274;6190671073;-73.672873;45.402284;77655;6190673001;-73.645618;45.424182;0;52;53;9417490;Bus 26 : Direction Montréal;"";EXO;26;ch. Vinet / rue Edmour;Terminus Angrignon
490755725;"{\"type\":\"LineString\",\"coordinates\":[[-73.6497775,45.4246468],[-73.6494277,45.4246853],[-73.6490931,45.4246799],[-73.6487572,45.4246407],[-73.6468808,45.424196]]}";13;"";1;50;false;true;false;false;false;false;236.0;0;0;0;0;0;false;78274;6190671073;-73.672873;45.402284;77655;6190673001;-73.645618;45.424182;0;52;53;9417490;Bus 26 : Direction Montréal;"";EXO;26;ch. Vinet / rue Edmour;Terminus Angrignon
502887633;"{\"type\":\"LineString\",\"coordinates\":[[-73.6468808,45.424196],[-73.6457869,45.4239796]]}";14;"";1;50;false;true;true;false;false;false;89.0;0;0;0;0;0;false;78274;6190671073;-73.672873;45.402284;77655;6190673001;-73.645618;45.424182;0;52;53;9417490;Bus 26 : Direction Montréal;"";EXO;26;ch. Vinet / rue Edmour;Terminus Angrignon
26526488;"{\"type\":\"LineString\",\"coordinates\":[[-73.6457869,45.4239796],[-73.645735,45.4240793]]}";15;Rue Labatt;1;50;false;true;true;false;false;false;12.0;0;0;0;0;0;false;78274;6190671073;-73.672873;45.402284;77655;6190673001;-73.645618;45.424182;0;52;53;9417490;Bus 26 : Direction Montréal;"";EXO;26;ch. Vinet / rue Edmour;Terminus Angrignon
587344191;"{\"type\":\"LineString\",\"coordinates\":[[-73.6443837,45.4271686],[-73.645735,45.4240793]]}";16;Avenue Labatt;1;50;false;false;true;false;false;false;179.5;0;0;0;0;0;false;78274;6190671073;-73.672873;45.402284;77655;6190673001;-73.645618;45.424182;1;52;53;9417490;Bus 26 : Direction Montréal;"";EXO;26;ch. Vinet / rue Edmour;Terminus Angrignon
26526488;"{\"type\":\"LineString\",\"coordinates\":[[-73.6457869,45.4239796],[-73.645735,45.4240793]]}";1;Rue Labatt;1;50;false;true;true;false;false;false;12.0;0;0;0;0;0;false;77655;6190673001;-73.645618;45.424182;77501;6190673008;-73.644425;45.427072;2;53;54;9417490;Bus 26 : Direction Montréal;"";EXO;26;ch. Vinet / rue Edmour;Terminus Angrignon
587344191;"{\"type\":\"LineString\",\"coordinates\":[[-73.6443837,45.4271686],[-73.645735,45.4240793]]}";2;Avenue Labatt;1;50;false;false;true;false;false;false;359.0;0;0;0;0;0;false;77655;6190673001;-73.645618;45.424182;77501;6190673008;-73.644425;45.427072;2;53;54;9417490;Bus 26 : Direction Montréal;"";EXO;26;ch. Vinet / rue Edmour;Terminus Angrignon
473015241;"{\"type\":\"LineString\",\"coordinates\":[[-73.6434429,45.4275233],[-73.6435826,45.4274734],[-73.6443837,45.4271686]]}";1;Boulevard Newman;4;50;false;false;true;false;false;false;84.0;0;0;0;0;0;false;77501;6190673008;-73.644425;45.427072;77657;6190673000;-73.638993;45.428988;2;54;55;9417490;Bus 26 : Direction Montréal;"";EXO;26;ch. Vinet / rue Edmour;Terminus Angrignon
473015245;"{\"type\":\"LineString\",\"coordinates\":[[-73.6430408,45.4276713],[-73.6434429,45.4275233]]}";2;Boulevard Newman;4;50;false;false;true;false;false;false;36.0;0;0;0;0;0;false;77501;6190673008;-73.644425;45.427072;77657;6190673000;-73.638993;45.428988;0;54;55;9417490;Bus 26 : Direction Montréal;"";EXO;26;ch. Vinet / rue Edmour;Terminus Angrignon
424837410;"{\"type\":\"LineString\",\"coordinates\":[[-73.6400667,45.4287493],[-73.6402905,45.4286722],[-73.6407594,45.428503],[-73.6423823,45.4279076],[-73.6430408,45.4276713]]}";3;Boulevard Newman;4;50;false;false;true;false;false;false;262.0;0;0;0;0;0;false;77501;6190673008;-73.644425;45.427072;77657;6190673000;-73.638993;45.428988;0;54;55;9417490;Bus 26 : Direction Montréal;"";EXO;26;ch. Vinet / rue Edmour;Terminus Angrignon
453533478;"{\"type\":\"LineString\",\"coordinates\":[[-73.6396857,45.4288574],[-73.6400667,45.4287493]]}";4;Boulevard Newman;4;50;false;false;true;false;false;false;33.0;0;0;0;0;0;false;77501;6190673008;-73.644425;45.427072;77657;6190673000;-73.638993;45.428988;0;54;55;9417490;Bus 26 : Direction Montréal;"";EXO;26;ch. Vinet / rue Edmour;Terminus Angrignon
48160804;"{\"type\":\"LineString\",\"coordinates\":[[-73.6396857,45.4288574],[-73.6396395,45.4288467],[-73.6395513,45.4288738],[-73.6394571,45.4289027],[-73.6391485,45.4289974],[-73.6389535,45.4290573]]}";5;Boulevard Newman;2;50;false;true;true;false;false;false;63.0;3;0;0;0;0;false;77501;6190673008;-73.644425;45.427072;77657;6190673000;-73.638993;45.428988;2;54;55;9417490;Bus 26 : Direction Montréal;"";EXO;26;ch. Vinet / rue Edmour;Terminus Angrignon
477486649;"{\"type\":\"LineString\",\"coordinates\":[[-73.6389535,45.4290573],[-73.6388489,45.4290856]]}";1;Boulevard Newman;2;50;false;true;true;false;false;false;9.0;2;0;0;0;0;false;77657;6190673000;-73.638993;45.428988;77503;2496883138;-73.63564;45.430096;2;55;56;9417490;Bus 26 : Direction Montréal;"";EXO;26;ch. Vinet / rue Edmour;Terminus Angrignon
453533479;"{\"type\":\"LineString\",\"coordinates\":[[-73.6388489,45.4290856],[-73.6384158,45.4292491]]}";2;Boulevard Newman;2;50;false;true;true;false;false;false;39.0;1;0;0;0;0;false;77657;6190673000;-73.638993;45.428988;77503;2496883138;-73.63564;45.430096;0;55;56;9417490;Bus 26 : Direction Montréal;"";EXO;26;ch. Vinet / rue Edmour;Terminus Angrignon
453533480;"{\"type\":\"LineString\",\"coordinates\":[[-73.6384158,45.4292491],[-73.6366572,45.4298469]]}";3;Boulevard Newman;2;50;false;true;true;false;false;false;153.0;0;0;0;0;0;false;77657;6190673000;-73.638993;45.428988;77503;2496883138;-73.63564;45.430096;0;55;56;9417490;Bus 26 : Direction Montréal;"";EXO;26;ch. Vinet / rue Edmour;Terminus Angrignon
499892371;"{\"type\":\"LineString\",\"coordinates\":[[-73.6366572,45.4298469],[-73.6362702,45.4299785]]}";4;Boulevard Newman;2;50;false;true;true;false;false;false;34.0;0;0;0;0;0;false;77657;6190673000;-73.638993;45.428988;77503;2496883138;-73.63564;45.430096;0;55;56;9417490;Bus 26 : Direction Montréal;"";EXO;26;ch. Vinet / rue Edmour;Terminus Angrignon
499892373;"{\"type\":\"LineString\",\"coordinates\":[[-73.6362702,45.4299785],[-73.6354014,45.4302887],[-73.6351444,45.4303804]]}";5;Boulevard Newman;2;50;false;true;true;false;false;false;99.0;0;0;0;0;0;false;77657;6190673000;-73.638993;45.428988;77503;2496883138;-73.63564;45.430096;2;55;56;9417490;Bus 26 : Direction Montréal;"";EXO;26;ch. Vinet / rue Edmour;Terminus Angrignon
499892373;"{\"type\":\"LineString\",\"coordinates\":[[-73.6362702,45.4299785],[-73.6354014,45.4302887],[-73.6351444,45.4303804]]}";1;Boulevard Newman;2;50;false;true;true;false;false;false;49.5;0;0;0;0;0;false;77503;2496883138;-73.63564;45.430096;77504;6190673007;-73.629895;45.432271;1;56;57;9417490;Bus 26 : Direction Montréal;"";EXO;26;ch. Vinet / rue Edmour;Terminus Angrignon
48160833;"{\"type\":\"LineString\",\"coordinates\":[[-73.6351444,45.4303804],[-73.6347833,45.4305112]]}";2;Boulevard Newman;2;50;false;true;true;false;false;false;32.0;1;0;0;0;0;false;77503;2496883138;-73.63564;45.430096;77504;6190673007;-73.629895;45.432271;0;56;57;9417490;Bus 26 : Direction Montréal;"";EXO;26;ch. Vinet / rue Edmour;Terminus Angrignon
48160830;"{\"type\":\"LineString\",\"coordinates\":[[-73.6347833,45.4305112],[-73.6346683,45.4305503]]}";3;Boulevard Newman;2;50;false;true;true;false;false;false;10.0;2;0;0;0;0;false;77503;2496883138;-73.63564;45.430096;77504;6190673007;-73.629895;45.432271;0;56;57;9417490;Bus 26 : Direction Montréal;"";EXO;26;ch. Vinet / rue Edmour;Terminus Angrignon
451896832;"{\"type\":\"LineString\",\"coordinates\":[[-73.6346683,45.4305503],[-73.6335195,45.4309641]]}";4;Boulevard Newman;2;50;false;true;true;false;false;false;101.0;1;0;0;0;0;false;77503;2496883138;-73.63564;45.430096;77504;6190673007;-73.629895;45.432271;0;56;57;9417490;Bus 26 : Direction Montréal;"";EXO;26;ch. Vinet / rue Edmour;Terminus Angrignon
47919167;"{\"type\":\"LineString\",\"coordinates\":[[-73.6335195,45.4309641],[-73.633131,45.4311098],[-73.6325246,45.4313388],[-73.6312954,45.4317982],[-73.6305162,45.4320839],[-73.6300709,45.4322985],[-73.6299081,45.432377]]}";5;Boulevard Newman;2;50;false;true;true;false;false;false;162.0;2;0;0;0;0;false;77503;2496883138;-73.63564;45.430096;77504;6190673007;-73.629895;45.432271;1;56;57;9417490;Bus 26 : Direction Montréal;"";EXO;26;ch. Vinet / rue Edmour;Terminus Angrignon
48160850;"{\"type\":\"LineString\",\"coordinates\":[[-73.6299081,45.432377],[-73.6298122,45.4324512]]}";1;Boulevard Newman;2;50;false;true;true;false;false;false;12.0;2;0;0;0;0;false;77504;6190673007;-73.629895;45.432271;77505;6190673006;-73.625354;45.436357;2;57;58;9417490;Bus 26 : Direction Montréal;"";EXO;26;ch. Vinet / rue Edmour;Terminus Angrignon
451899718;"{\"type\":\"LineString\",\"coordinates\":[[-73.6298122,45.4324512],[-73.629582,45.4326091]]}";2;Boulevard Newman;2;50;false;true;true;false;false;false;26.0;1;0;0;0;0;false;77504;6190673007;-73.629895;45.432271;77505;6190673006;-73.625354;45.436357;0;57;58;9417490;Bus 26 : Direction Montréal;"";EXO;26;ch. Vinet / rue Edmour;Terminus Angrignon
451902772;"{\"type\":\"LineString\",\"coordinates\":[[-73.629582,45.4326091],[-73.6292799,45.4328249],[-73.6287516,45.4333223]]}";3;Boulevard Newman;2;50;false;true;true;false;false;false;103.0;1;0;0;0;0;false;77504;6190673007;-73.629895;45.432271;77505;6190673006;-73.625354;45.436357;0;57;58;9417490;Bus 26 : Direction Montréal;"";EXO;26;ch. Vinet / rue Edmour;Terminus Angrignon
459768275;"{\"type\":\"LineString\",\"coordinates\":[[-73.6287516,45.4333223],[-73.6283122,45.4337288]]}";4;Boulevard Newman;2;50;false;true;true;false;false;false;57.0;1;0;0;0;0;false;77504;6190673007;-73.629895;45.432271;77505;6190673006;-73.625354;45.436357;0;57;58;9417490;Bus 26 : Direction Montréal;"";EXO;26;ch. Vinet / rue Edmour;Terminus Angrignon
451902767;"{\"type\":\"LineString\",\"coordinates\":[[-73.6283122,45.4337288],[-73.6254463,45.4363803],[-73.6253754,45.4364459]]}";5;Boulevard Newman;2;50;false;true;true;false;false;false;380.0;1;0;0;0;0;false;77504;6190673007;-73.629895;45.432271;77505;6190673006;-73.625354;45.436357;2;57;58;9417490;Bus 26 : Direction Montréal;"";EXO;26;ch. Vinet / rue Edmour;Terminus Angrignon
474806498;"{\"type\":\"LineString\",\"coordinates\":[[-73.6253754,45.4364459],[-73.6252167,45.4365929]]}";1;Boulevard Newman;2;50;false;true;true;false;false;false;21.0;1;0;0;0;0;false;77505;6190673006;-73.625354;45.436357;77506;6190673005;-73.622184;45.439318;2;58;59;9417490;Bus 26 : Direction Montréal;"";EXO;26;ch. Vinet / rue Edmour;Terminus Angrignon
47919204;"{\"type\":\"LineString\",\"coordinates\":[[-73.6252167,45.4365929],[-73.6250068,45.4367873],[-73.6249228,45.4368651],[-73.6241656,45.4375664],[-73.6236633,45.4380316]]}";2;Boulevard Newman;2;50;false;true;true;false;false;false;201.0;0;0;0;0;0;false;77505;6190673006;-73.625354;45.436357;77506;6190673005;-73.622184;45.439318;0;58;59;9417490;Bus 26 : Direction Montréal;"";EXO;26;ch. Vinet / rue Edmour;Terminus Angrignon
451911438;"{\"type\":\"LineString\",\"coordinates\":[[-73.6236633,45.4380316],[-73.6222633,45.4393282],[-73.6221791,45.4394061]]}";3;Boulevard Newman;2;50;false;true;true;false;false;false;192.0;1;0;0;0;0;false;77505;6190673006;-73.625354;45.436357;77506;6190673005;-73.622184;45.439318;2;58;59;9417490;Bus 26 : Direction Montréal;"";EXO;26;ch. Vinet / rue Edmour;Terminus Angrignon
451912077;"{\"type\":\"LineString\",\"coordinates\":[[-73.6221791,45.4394061],[-73.6220357,45.4395171]]}";1;Boulevard Newman;2;50;false;true;true;false;false;false;17.0;1;0;0;0;0;false;77506;6190673005;-73.622184;45.439318;77509;6190673002;-73.618868;45.44129;2;59;60;9417490;Bus 26 : Direction Montréal;"";EXO;26;ch. Vinet / rue Edmour;Terminus Angrignon
451911443;"{\"type\":\"LineString\",\"coordinates\":[[-73.6220357,45.4395171],[-73.6217961,45.4397024],[-73.6215201,45.4398581],[-73.6207891,45.4402705],[-73.6201158,45.4406503]]}";2;Boulevard Newman;2;50;false;true;true;false;false;false;197.0;1;0;0;0;0;false;77506;6190673005;-73.622184;45.439318;77509;6190673002;-73.618868;45.44129;0;59;60;9417490;Bus 26 : Direction Montréal;"";EXO;26;ch. Vinet / rue Edmour;Terminus Angrignon
451919502;"{\"type\":\"LineString\",\"coordinates\":[[-73.6201158,45.4406503],[-73.6189511,45.4413215],[-73.6188492,45.4413802]]}";3;Boulevard Newman;2;50;false;true;true;false;false;false;128.0;2;0;0;0;0;false;77506;6190673005;-73.622184;45.439318;77509;6190673002;-73.618868;45.44129;2;59;60;9417490;Bus 26 : Direction Montréal;"";EXO;26;ch. Vinet / rue Edmour;Terminus Angrignon
451915381;"{\"type\":\"LineString\",\"coordinates\":[[-73.6188492,45.4413802],[-73.6184953,45.4415579]]}";1;Boulevard Newman;2;50;false;true;true;false;false;false;34.0;1;0;0;0;0;false;77509;6190673002;-73.618868;45.44129;77507;6190673004;-73.614193;45.444051;2;60;61;9417490;Bus 26 : Direction Montréal;"";EXO;26;ch. Vinet / rue Edmour;Terminus Angrignon
474611999;"{\"type\":\"LineString\",\"coordinates\":[[-73.6184953,45.4415579],[-73.6181417,45.441753]]}";2;Boulevard Newman;2;50;false;true;true;false;false;false;36.0;0;0;0;0;0;false;77509;6190673002;-73.618868;45.44129;77507;6190673004;-73.614193;45.444051;0;60;61;9417490;Bus 26 : Direction Montréal;"";EXO;26;ch. Vinet / rue Edmour;Terminus Angrignon
47919212;"{\"type\":\"LineString\",\"coordinates\":[[-73.6181417,45.441753],[-73.6181157,45.441764],[-73.616929,45.4424374]]}";3;Boulevard Newman;2;50;false;true;true;false;false;false;122.0;1;0;0;0;0;false;77509;6190673002;-73.618868;45.44129;77507;6190673004;-73.614193;45.444051;0;60;61;9417490;Bus 26 : Direction Montréal;"";EXO;26;ch. Vinet / rue Edmour;Terminus Angrignon
474611754;"{\"type\":\"LineString\",\"coordinates\":[[-73.616929,45.4424374],[-73.6162807,45.442805]]}";4;Boulevard Newman;2;50;false;true;true;false;false;false;66.0;1;0;0;0;0;false;77509;6190673002;-73.618868;45.44129;77507;6190673004;-73.614193;45.444051;0;60;61;9417490;Bus 26 : Direction Montréal;"";EXO;26;ch. Vinet / rue Edmour;Terminus Angrignon
451921073;"{\"type\":\"LineString\",\"coordinates\":[[-73.6162807,45.442805],[-73.6155407,45.4432328],[-73.6150091,45.4435611],[-73.6148294,45.4436721],[-73.6143092,45.4440406],[-73.614192,45.4441237]]}";5;Boulevard Newman;2;50;false;true;true;false;false;false;220.0;1;0;0;0;0;false;77509;6190673002;-73.618868;45.44129;77507;6190673004;-73.614193;45.444051;2;60;61;9417490;Bus 26 : Direction Montréal;"";EXO;26;ch. Vinet / rue Edmour;Terminus Angrignon
452083149;"{\"type\":\"LineString\",\"coordinates\":[[-73.614192,45.4441237],[-73.6140723,45.4442118],[-73.6139105,45.4443308]]}";1;Boulevard Newman;2;50;false;true;true;false;false;false;32.0;1;1;0;0;0;false;77507;6190673004;-73.614193;45.444051;77508;6190673003;-73.610059;45.447219;2;61;62;9417490;Bus 26 : Direction Montréal;"";EXO;26;ch. Vinet / rue Edmour;Terminus Angrignon
48421822;"{\"type\":\"LineString\",\"coordinates\":[[-73.6139105,45.4443308],[-73.6121161,45.4457914],[-73.6120452,45.4458491],[-73.6119053,45.4459509],[-73.6100401,45.4474404]]}";2;Boulevard Newman;2;50;false;true;true;false;false;false;460.0;2;0;0;0;0;false;77507;6190673004;-73.614193;45.444051;77508;6190673003;-73.610059;45.447219;2;61;62;9417490;Bus 26 : Direction Montréal;"";EXO;26;ch. Vinet / rue Edmour;Terminus Angrignon
48421822;"{\"type\":\"LineString\",\"coordinates\":[[-73.6139105,45.4443308],[-73.6121161,45.4457914],[-73.6120452,45.4458491],[-73.6119053,45.4459509],[-73.6100401,45.4474404]]}";1;Boulevard Newman;2;50;false;true;true;false;false;false;230.0;2;0;0;0;0;false;77508;6190673003;-73.610059;45.447219;78364;6190671014;-73.604996;45.446132;1;62;63;9417490;Bus 26 : Direction Montréal;"";EXO;26;ch. Vinet / rue Edmour;Terminus Angrignon
48421823;"{\"type\":\"LineString\",\"coordinates\":[[-73.6100401,45.4474404],[-73.6097951,45.4475011],[-73.6096536,45.4475354],[-73.6095051,45.4475336],[-73.6094491,45.4475329],[-73.6092461,45.4474675]]}";2;"";1;50;false;true;true;false;false;false;66.0;0;1;0;0;0;false;77508;6190673003;-73.610059;45.447219;78364;6190671014;-73.604996;45.446132;0;62;63;9417490;Bus 26 : Direction Montréal;"";EXO;26;ch. Vinet / rue Edmour;Terminus Angrignon
48422487;"{\"type\":\"LineString\",\"coordinates\":[[-73.6092461,45.4474675],[-73.6086772,45.4471995],[-73.6084232,45.4471241],[-73.6082155,45.4470716],[-73.6079899,45.4470352],[-73.6077512,45.4470107],[-73.6074132,45.4469994],[-73.6064181,45.4470371],[-73.6062518,45.4470427],[-73.6059407,45.4470615]]}";3;Boulevard Angrignon;2;50;false;true;true;false;false;false;272.0;0;0;0;0;0;false;77508;6190673003;-73.610059;45.447219;78364;6190671014;-73.604996;45.446132;0;62;63;9417490;Bus 26 : Direction Montréal;"";EXO;26;ch. Vinet / rue Edmour;Terminus Angrignon
453684373;"{\"type\":\"LineString\",\"coordinates\":[[-73.6059407,45.4470615],[-73.6054606,45.4471105],[-73.6052326,45.4471255],[-73.6049617,45.4471142]]}";4;Boulevard Angrignon;2;50;false;true;true;false;false;false;78.0;0;0;0;0;0;false;77508;6190673003;-73.610059;45.447219;78364;6190671014;-73.604996;45.446132;0;62;63;9417490;Bus 26 : Direction Montréal;"";EXO;26;ch. Vinet / rue Edmour;Terminus Angrignon
95223743;"{\"type\":\"LineString\",\"coordinates\":[[-73.6049617,45.4471142],[-73.6049128,45.4470551],[-73.6048528,45.4469826],[-73.6048528,45.4469187],[-73.6048551,45.4468838]]}";5;"";1;50;false;true;true;false;false;false;28.0;0;1;0;0;0;false;77508;6190673003;-73.610059;45.447219;78364;6190671014;-73.604996;45.446132;0;62;63;9417490;Bus 26 : Direction Montréal;"";EXO;26;ch. Vinet / rue Edmour;Terminus Angrignon
95223751;"{\"type\":\"LineString\",\"coordinates\":[[-73.6048551,45.4468838],[-73.6048618,45.4468414],[-73.6048479,45.4468084],[-73.6048201,45.4467749],[-73.6047148,45.4466934],[-73.6044861,45.4465021]]}";6;"";1;50;false;false;true;false;false;false;53.0;0;0;0;0;0;false;77508;6190673003;-73.610059;45.447219;78364;6190671014;-73.604996;45.446132;0;62;63;9417490;Bus 26 : Direction Montréal;"";EXO;26;ch. Vinet / rue Edmour;Terminus Angrignon
666126652;"{\"type\":\"LineString\",\"coordinates\":[[-73.6044861,45.4465021],[-73.6045483,45.4464154],[-73.6046588,45.4463452],[-73.6047923,45.4462689],[-73.6048822,45.4462112],[-73.6049058,45.446179],[-73.6048982,45.4461397]]}";7;"";1;50;false;true;true;false;false;false;54.0;0;0;0;0;0;false;77508;6190673003;-73.610059;45.447219;78364;6190671014;-73.604996;45.446132;1;62;63;9417490;Bus 26 : Direction Montréal;"";EXO;26;ch. Vinet / rue Edmour;Terminus Angrignon
