way_id;shape;index;name;nb_lanes;legal_speed;speed_zone_30;oneway;shares_bike;bike_box;bus_lane;dedicated_bus_lane;length;nb_traffic_signals;nb_crossings;nb_stops;nb_give_ways;nb_lvl_crossings;roundabout;stop_id_orig;node_id_orig;coord_x_orig;coord_y_orig;stop_id_dest;node_id_dest;coord_x_dest;coord_y_dest;nb_neighbouring_ways_bus_stop;ordre_orig;ordre_dest;id_line;line_name;colour;operator;ref;from;to
114875722;"{\"type\":\"LineString\",\"coordinates\":[[-73.5660382,45.4978987],[-73.5665157,45.4981355],[-73.5665292,45.4981543],[-73.5665399,45.4981825],[-73.5665292,45.4982276],[-73.5663897,45.4983743],[-73.5663334,45.4983912],[-73.5662851,45.4984006],[-73.5662368,45.4983874],[-73.5659569,45.4982563]]}";1;"";1;50;false;true;true;false;true;false;115.0;0;0;0;0;0;false;75263;6133323059;-73.566056;45.498377;75466;6133322816;-73.557793;45.496306;1;0;1;9513089;Bus 321 : Direction La Prairie;"";EXO;321 S;Terminus Centre-Ville;Stationnement incitatif La Prairie
114875709;"{\"type\":\"LineString\",\"coordinates\":[[-73.5660382,45.4978987],[-73.5661483,45.4977952],[-73.5662099,45.4977103]]}";2;"";1;50;false;true;true;false;true;false;25.0;0;0;0;0;0;false;75263;6133323059;-73.566056;45.498377;75466;6133322816;-73.557793;45.496306;0;0;1;9513089;Bus 321 : Direction La Prairie;"";EXO;321 S;Terminus Centre-Ville;Stationnement incitatif La Prairie
114875719;"{\"type\":\"LineString\",\"coordinates\":[[-73.5662099,45.4977103],[-73.5662723,45.4976542]]}";3;"";1;50;false;true;true;false;true;false;8.0;0;0;0;0;0;false;75263;6133323059;-73.566056;45.498377;75466;6133322816;-73.557793;45.496306;0;0;1;9513089;Bus 321 : Direction La Prairie;"";EXO;321 S;Terminus Centre-Ville;Stationnement incitatif La Prairie
685493151;"{\"type\":\"LineString\",\"coordinates\":[[-73.5662723,45.4976542],[-73.566035,45.497542]]}";4;Rue de la Cathédrale;1;50;false;true;true;false;false;false;23.0;1;0;0;0;0;false;75263;6133323059;-73.566056;45.498377;75466;6133322816;-73.557793;45.496306;0;0;1;9513089;Bus 321 : Direction La Prairie;"";EXO;321 S;Terminus Centre-Ville;Stationnement incitatif La Prairie
465653669;"{\"type\":\"LineString\",\"coordinates\":[[-73.565584,45.4979128],[-73.566035,45.497542]]}";5;Rue Saint-Antoine Ouest;4;50;false;false;true;false;false;false;55.0;1;0;0;0;0;false;75263;6133323059;-73.566056;45.498377;75466;6133322816;-73.557793;45.496306;0;0;1;9513089;Bus 321 : Direction La Prairie;"";EXO;321 S;Terminus Centre-Ville;Stationnement incitatif La Prairie
465653670;"{\"type\":\"LineString\",\"coordinates\":[[-73.5651977,45.4982305],[-73.565584,45.4979128]]}";6;Rue Saint-Antoine Ouest;4;50;false;false;true;false;false;false;47.0;1;0;0;0;0;false;75263;6133323059;-73.566056;45.498377;75466;6133322816;-73.557793;45.496306;0;0;1;9513089;Bus 321 : Direction La Prairie;"";EXO;321 S;Terminus Centre-Ville;Stationnement incitatif La Prairie
465653668;"{\"type\":\"LineString\",\"coordinates\":[[-73.5647776,45.4985685],[-73.5651977,45.4982305]]}";7;Rue Saint-Antoine Ouest;4;50;false;false;true;false;false;false;50.0;1;0;0;0;0;false;75263;6133323059;-73.566056;45.498377;75466;6133322816;-73.557793;45.496306;0;0;1;9513089;Bus 321 : Direction La Prairie;"";EXO;321 S;Terminus Centre-Ville;Stationnement incitatif La Prairie
114875712;"{\"type\":\"LineString\",\"coordinates\":[[-73.5646367,45.4986819],[-73.5647776,45.4985685]]}";8;Rue Saint-Antoine Ouest;4;50;false;false;true;false;false;false;17.0;0;0;0;0;0;false;75263;6133323059;-73.566056;45.498377;75466;6133322816;-73.557793;45.496306;0;0;1;9513089;Bus 321 : Direction La Prairie;"";EXO;321 S;Terminus Centre-Ville;Stationnement incitatif La Prairie
114875727;"{\"type\":\"LineString\",\"coordinates\":[[-73.5638176,45.4993408],[-73.5646367,45.4986819]]}";9;Rue Saint-Antoine Ouest;1;50;false;false;true;false;false;false;98.0;0;0;0;0;0;false;75263;6133323059;-73.566056;45.498377;75466;6133322816;-73.557793;45.496306;0;0;1;9513089;Bus 321 : Direction La Prairie;"";EXO;321 S;Terminus Centre-Ville;Stationnement incitatif La Prairie
456318009;"{\"type\":\"LineString\",\"coordinates\":[[-73.5635034,45.4995899],[-73.5638176,45.4993408]]}";10;Rue Saint-Antoine Ouest;1;50;false;false;true;false;false;false;37.0;1;0;0;0;0;false;75263;6133323059;-73.566056;45.498377;75466;6133322816;-73.557793;45.496306;0;0;1;9513089;Bus 321 : Direction La Prairie;"";EXO;321 S;Terminus Centre-Ville;Stationnement incitatif La Prairie
456321034;"{\"type\":\"LineString\",\"coordinates\":[[-73.5635034,45.4995899],[-73.5626665,45.4990006]]}";11;Boulevard Robert-Bourassa;4;50;false;true;true;false;false;false;93.0;2;0;0;0;0;false;75263;6133323059;-73.566056;45.498377;75466;6133322816;-73.557793;45.496306;0;0;1;9513089;Bus 321 : Direction La Prairie;"";EXO;321 S;Terminus Centre-Ville;Stationnement incitatif La Prairie
300627773;"{\"type\":\"LineString\",\"coordinates\":[[-73.5626665,45.4990006],[-73.5623547,45.4987872],[-73.5621626,45.4986172],[-73.5620042,45.4984483],[-73.5618002,45.4982427],[-73.5616856,45.4981447],[-73.5616582,45.4981239],[-73.5615338,45.4980295]]}";12;Boulevard Robert-Bourassa;4;50;false;true;true;false;false;false;140.0;2;0;0;0;0;false;75263;6133323059;-73.566056;45.498377;75466;6133322816;-73.557793;45.496306;0;0;1;9513089;Bus 321 : Direction La Prairie;"";EXO;321 S;Terminus Centre-Ville;Stationnement incitatif La Prairie
352392847;"{\"type\":\"LineString\",\"coordinates\":[[-73.5615338,45.4980295],[-73.5614113,45.4979602],[-73.5610365,45.4977732],[-73.5606297,45.4975779],[-73.5601383,45.4973487],[-73.5594743,45.4970519],[-73.5591756,45.4969344]]}";13;Boulevard Robert-Bourassa;3;50;false;true;true;false;false;false;221.0;2;0;0;0;0;false;75263;6133323059;-73.566056;45.498377;75466;6133322816;-73.557793;45.496306;0;0;1;9513089;Bus 321 : Direction La Prairie;"";EXO;321 S;Terminus Centre-Ville;Stationnement incitatif La Prairie
664696778;"{\"type\":\"LineString\",\"coordinates\":[[-73.5591756,45.4969344],[-73.5576146,45.4963618],[-73.5566334,45.4960019],[-73.5557327,45.4956715]]}";14;Boulevard Robert-Bourassa;5;50;false;true;true;false;false;false;152.0;3;0;0;0;0;false;75263;6133323059;-73.566056;45.498377;75466;6133322816;-73.557793;45.496306;1;0;1;9513089;Bus 321 : Direction La Prairie;"";EXO;321 S;Terminus Centre-Ville;Stationnement incitatif La Prairie
664696778;"{\"type\":\"LineString\",\"coordinates\":[[-73.5591756,45.4969344],[-73.5576146,45.4963618],[-73.5566334,45.4960019],[-73.5557327,45.4956715]]}";1;Boulevard Robert-Bourassa;5;50;false;true;true;false;false;false;152.0;3;0;0;0;0;false;75466;6133322816;-73.557793;45.496306;75017;6133324641;-73.46574;45.454576;1;1;2;9513089;Bus 321 : Direction La Prairie;"";EXO;321 S;Terminus Centre-Ville;Stationnement incitatif La Prairie
428978765;"{\"type\":\"LineString\",\"coordinates\":[[-73.5557327,45.4956715],[-73.5554185,45.4955444],[-73.5552568,45.4954742],[-73.5551287,45.4953983],[-73.5549327,45.4952567],[-73.5548013,45.4951309],[-73.5547029,45.495014],[-73.5546166,45.494885],[-73.554546,45.494732],[-73.5544449,45.4944655],[-73.5543449,45.4942123],[-73.5542567,45.4939794],[-73.5541868,45.4937959],[-73.5541179,45.4936077],[-73.5540485,45.4934289],[-73.5539834,45.4932646]]}";2;Autoroute Bonaventure Expressway;3;50;false;true;false;false;false;false;314.0;1;0;0;0;0;false;75466;6133322816;-73.557793;45.496306;75017;6133324641;-73.46574;45.454576;0;1;2;9513089;Bus 321 : Direction La Prairie;"";EXO;321 S;Terminus Centre-Ville;Stationnement incitatif La Prairie
428978767;"{\"type\":\"LineString\",\"coordinates\":[[-73.5539834,45.4932646],[-73.5538717,45.4930299],[-73.5537919,45.4928613],[-73.5537005,45.492684],[-73.5536109,45.492534],[-73.55351,45.4923856],[-73.5533999,45.4922211],[-73.5532714,45.4920547],[-73.5531387,45.4919071],[-73.5529876,45.4917566],[-73.5528396,45.4916157]]}";3;Autoroute Bonaventure Expressway;3;50;false;true;false;false;false;false;206.0;0;0;0;0;0;false;75466;6133322816;-73.557793;45.496306;75017;6133324641;-73.46574;45.454576;0;1;2;9513089;Bus 321 : Direction La Prairie;"";EXO;321 S;Terminus Centre-Ville;Stationnement incitatif La Prairie
385754237;"{\"type\":\"LineString\",\"coordinates\":[[-73.5528396,45.4916157],[-73.5526701,45.4914689],[-73.5524864,45.4913215],[-73.5523393,45.4912103],[-73.5521897,45.4911082],[-73.5520308,45.4910079],[-73.5518578,45.4909001],[-73.5516631,45.4907954],[-73.5514593,45.4906906]]}";4;Autoroute Bonaventure Expressway;4;50;false;true;false;false;false;false;150.0;0;0;0;0;0;false;75466;6133322816;-73.557793;45.496306;75017;6133324641;-73.46574;45.454576;0;1;2;9513089;Bus 321 : Direction La Prairie;"";EXO;321 S;Terminus Centre-Ville;Stationnement incitatif La Prairie
361815169;"{\"type\":\"LineString\",\"coordinates\":[[-73.5514593,45.4906906],[-73.5512408,45.4905856],[-73.5509789,45.4904728],[-73.5507265,45.4903708]]}";5;Autoroute Bonaventure Expressway;4;50;false;true;false;false;false;false;68.0;0;0;0;0;0;false;75466;6133322816;-73.557793;45.496306;75017;6133324641;-73.46574;45.454576;0;1;2;9513089;Bus 321 : Direction La Prairie;"";EXO;321 S;Terminus Centre-Ville;Stationnement incitatif La Prairie
385754241;"{\"type\":\"LineString\",\"coordinates\":[[-73.5507265,45.4903708],[-73.5505125,45.4902942],[-73.5503197,45.4902333],[-73.5500927,45.4901664],[-73.5498345,45.4901],[-73.5495773,45.4900379],[-73.5492978,45.489978],[-73.5490171,45.4899238],[-73.5461765,45.4893863]]}";6;Autoroute Bonaventure Expressway;3;50;false;true;false;false;false;false;373.0;0;0;0;0;0;false;75466;6133322816;-73.557793;45.496306;75017;6133324641;-73.46574;45.454576;0;1;2;9513089;Bus 321 : Direction La Prairie;"";EXO;321 S;Terminus Centre-Ville;Stationnement incitatif La Prairie
567717687;"{\"type\":\"LineString\",\"coordinates\":[[-73.5461765,45.4893863],[-73.5427334,45.4887242]]}";7;Autoroute Bonaventure Expressway;3;70;false;true;false;false;false;false;279.0;0;0;0;0;0;false;75466;6133322816;-73.557793;45.496306;75017;6133324641;-73.46574;45.454576;0;1;2;9513089;Bus 321 : Direction La Prairie;"";EXO;321 S;Terminus Centre-Ville;Stationnement incitatif La Prairie
48666271;"{\"type\":\"LineString\",\"coordinates\":[[-73.5427334,45.4887242],[-73.5422116,45.488558],[-73.542016,45.4884998]]}";8;"";1;50;false;true;true;false;false;false;62.0;0;0;0;0;0;false;75466;6133322816;-73.557793;45.496306;75017;6133324641;-73.46574;45.454576;0;1;2;9513089;Bus 321 : Direction La Prairie;"";EXO;321 S;Terminus Centre-Ville;Stationnement incitatif La Prairie
48666298;"{\"type\":\"LineString\",\"coordinates\":[[-73.542016,45.4884998],[-73.5418275,45.4884538]]}";9;"";1;50;false;true;true;false;false;false;16.0;0;0;0;0;0;false;75466;6133322816;-73.557793;45.496306;75017;6133324641;-73.46574;45.454576;0;1;2;9513089;Bus 321 : Direction La Prairie;"";EXO;321 S;Terminus Centre-Ville;Stationnement incitatif La Prairie
48666297;"{\"type\":\"LineString\",\"coordinates\":[[-73.5418275,45.4884538],[-73.5415554,45.488395],[-73.5411811,45.4883256],[-73.5409718,45.488284],[-73.5407814,45.4882388],[-73.54059,45.4881754],[-73.5404113,45.4881063]]}";10;"";1;50;false;true;true;false;false;false;118.0;0;0;0;0;0;false;75466;6133322816;-73.557793;45.496306;75017;6133324641;-73.46574;45.454576;0;1;2;9513089;Bus 321 : Direction La Prairie;"";EXO;321 S;Terminus Centre-Ville;Stationnement incitatif La Prairie
23027190;"{\"type\":\"LineString\",\"coordinates\":[[-73.5404113,45.4881063],[-73.5402157,45.48804],[-73.5400108,45.4879566],[-73.5398209,45.4878687],[-73.5396416,45.4877795],[-73.5394706,45.4876852],[-73.539289,45.4875746],[-73.5391318,45.4874685],[-73.5389634,45.4873398],[-73.5388076,45.4872055],[-73.5386646,45.4870673],[-73.5385313,45.4869226],[-73.5384158,45.4867854],[-73.5383118,45.4866546],[-73.5382178,45.4865288],[-73.5381429,45.4864193],[-73.5380756,45.4863127],[-73.5380134,45.4861965],[-73.5379497,45.4860576],[-73.5378929,45.4859065],[-73.5378527,45.4857565],[-73.5378202,45.4856055],[-73.5377921,45.4854451],[-73.5377756,45.4852961],[-73.5377689,45.4851382],[-73.5377729,45.4849658],[-73.5377873,45.4847776],[-73.5378115,45.4846227],[-73.5378426,45.4844612],[-73.5380341,45.4836661]]}";11;"";1;50;false;true;false;false;false;false;575.0;0;0;0;0;0;false;75466;6133322816;-73.557793;45.496306;75017;6133324641;-73.46574;45.454576;0;1;2;9513089;Bus 321 : Direction La Prairie;"";EXO;321 S;Terminus Centre-Ville;Stationnement incitatif La Prairie
685468121;"{\"type\":\"LineString\",\"coordinates\":[[-73.5380341,45.4836661],[-73.5382816,45.4829689],[-73.5384797,45.4824157],[-73.5387112,45.481754],[-73.5389705,45.4810329],[-73.5392547,45.4801208],[-73.5397419,45.478817],[-73.5400333,45.4781293],[-73.5404144,45.4773194]]}";12;Autoroute Bonaventure Expressway;1;70;false;true;false;false;false;false;730.0;0;0;0;0;0;false;75466;6133322816;-73.557793;45.496306;75017;6133324641;-73.46574;45.454576;0;1;2;9513089;Bus 321 : Direction La Prairie;"";EXO;321 S;Terminus Centre-Ville;Stationnement incitatif La Prairie
677782935;"{\"type\":\"LineString\",\"coordinates\":[[-73.5404144,45.4773194],[-73.5406017,45.4769354],[-73.5411113,45.4759718],[-73.5413755,45.4754887],[-73.5416588,45.4750109]]}";13;Pont Clément Bridge;2;70;false;true;false;false;false;false;275.0;0;0;0;0;0;false;75466;6133322816;-73.557793;45.496306;75017;6133324641;-73.46574;45.454576;0;1;2;9513089;Bus 321 : Direction La Prairie;"";EXO;321 S;Terminus Centre-Ville;Stationnement incitatif La Prairie
567717682;"{\"type\":\"LineString\",\"coordinates\":[[-73.5416588,45.4750109],[-73.5420724,45.4743571]]}";14;Pont Clément Bridge;2;50;false;true;false;false;false;false;80.0;0;0;0;0;0;false;75466;6133322816;-73.557793;45.496306;75017;6133324641;-73.46574;45.454576;0;1;2;9513089;Bus 321 : Direction La Prairie;"";EXO;321 S;Terminus Centre-Ville;Stationnement incitatif La Prairie
39180623;"{\"type\":\"LineString\",\"coordinates\":[[-73.5420724,45.4743571],[-73.5422524,45.4740884],[-73.5424157,45.4738315],[-73.5425961,45.4735652],[-73.5430496,45.4729449]]}";15;Autoroute Bonaventure;2;50;false;true;true;false;false;false;175.0;0;0;0;0;0;false;75466;6133322816;-73.557793;45.496306;75017;6133324641;-73.46574;45.454576;0;1;2;9513089;Bus 321 : Direction La Prairie;"";EXO;321 S;Terminus Centre-Ville;Stationnement incitatif La Prairie
43068386;"{\"type\":\"LineString\",\"coordinates\":[[-73.5430496,45.4729449],[-73.5432928,45.4726092]]}";16;Autoroute Bonaventure;2;50;false;true;true;false;false;false;42.0;0;0;0;0;0;false;75466;6133322816;-73.557793;45.496306;75017;6133324641;-73.46574;45.454576;0;1;2;9513089;Bus 321 : Direction La Prairie;"";EXO;321 S;Terminus Centre-Ville;Stationnement incitatif La Prairie
43068385;"{\"type\":\"LineString\",\"coordinates\":[[-73.5432928,45.4726092],[-73.5436727,45.4721223],[-73.5442333,45.4714332],[-73.5445429,45.4710827],[-73.5450373,45.4705371],[-73.5451519,45.470368],[-73.5451963,45.4702037],[-73.5451777,45.4700648],[-73.5451347,45.4699397],[-73.5450208,45.4697568],[-73.544847,45.4696114],[-73.5446799,45.4695157],[-73.5445055,45.4694536],[-73.5443311,45.4694183],[-73.5441751,45.4694066],[-73.5439949,45.4694138],[-73.5437722,45.4694511],[-73.5436193,45.4694983],[-73.54315,45.469709],[-73.5426519,45.4698258],[-73.542304,45.4699265],[-73.5418403,45.4699973],[-73.541601,45.4700149],[-73.540742,45.4700409],[-73.5400245,45.4700565]]}";17;Autoroute Bonaventure;3;50;false;true;true;false;false;false;777.0;0;0;0;0;0;false;75466;6133322816;-73.557793;45.496306;75017;6133324641;-73.46574;45.454576;0;1;2;9513089;Bus 321 : Direction La Prairie;"";EXO;321 S;Terminus Centre-Ville;Stationnement incitatif La Prairie
728797117;"{\"type\":\"LineString\",\"coordinates\":[[-73.5400245,45.4700565],[-73.5382768,45.4700942]]}";18;Autoroute Bonaventure;2;50;false;true;true;false;false;false;137.0;0;0;0;0;0;false;75466;6133322816;-73.557793;45.496306;75017;6133324641;-73.46574;45.454576;0;1;2;9513089;Bus 321 : Direction La Prairie;"";EXO;321 S;Terminus Centre-Ville;Stationnement incitatif La Prairie
728797118;"{\"type\":\"LineString\",\"coordinates\":[[-73.5382768,45.4700942],[-73.5378255,45.4701167]]}";19;Autoroute Bonaventure;2;50;false;true;true;false;false;false;36.0;0;0;0;0;0;false;75466;6133322816;-73.557793;45.496306;75017;6133324641;-73.46574;45.454576;0;1;2;9513089;Bus 321 : Direction La Prairie;"";EXO;321 S;Terminus Centre-Ville;Stationnement incitatif La Prairie
708682529;"{\"type\":\"LineString\",\"coordinates\":[[-73.5378255,45.4701167],[-73.536113,45.4701171]]}";20;Autoroute 15;5;80;false;true;true;false;false;false;134.0;0;0;0;0;0;false;75466;6133322816;-73.557793;45.496306;75017;6133324641;-73.46574;45.454576;0;1;2;9513089;Bus 321 : Direction La Prairie;"";EXO;321 S;Terminus Centre-Ville;Stationnement incitatif La Prairie
364775281;"{\"type\":\"LineString\",\"coordinates\":[[-73.536113,45.4701171],[-73.5335206,45.4700904],[-73.5293215,45.4699928],[-73.5256685,45.4698606],[-73.5246415,45.4698106],[-73.5211502,45.4696112],[-73.5196763,45.4695143],[-73.5181633,45.4694048],[-73.5163826,45.4692646],[-73.5145853,45.4691035],[-73.5082364,45.4684851]]}";21;Pont Samuel-De Champlain;3;80;false;true;true;false;false;false;2188.0;0;0;0;0;0;false;75466;6133322816;-73.557793;45.496306;75017;6133324641;-73.46574;45.454576;0;1;2;9513089;Bus 321 : Direction La Prairie;"";EXO;321 S;Terminus Centre-Ville;Stationnement incitatif La Prairie
646417293;"{\"type\":\"LineString\",\"coordinates\":[[-73.5082364,45.4684851],[-73.5072787,45.4683745],[-73.5044923,45.4680805],[-73.5015577,45.4677715]]}";22;Pont Samuel-De Champlain;3;80;false;true;true;false;false;false;528.0;0;0;0;0;0;false;75466;6133322816;-73.557793;45.496306;75017;6133324641;-73.46574;45.454576;0;1;2;9513089;Bus 321 : Direction La Prairie;"";EXO;321 S;Terminus Centre-Ville;Stationnement incitatif La Prairie
646417307;"{\"type\":\"LineString\",\"coordinates\":[[-73.5015577,45.4677715],[-73.4986974,45.4674663],[-73.4969674,45.4672651],[-73.4952108,45.4670394],[-73.4920054,45.4666495]]}";23;Pont Samuel-De Champlain;4;80;false;true;true;false;false;false;757.0;0;0;0;0;0;false;75466;6133322816;-73.557793;45.496306;75017;6133324641;-73.46574;45.454576;0;1;2;9513089;Bus 321 : Direction La Prairie;"";EXO;321 S;Terminus Centre-Ville;Stationnement incitatif La Prairie
698922475;"{\"type\":\"LineString\",\"coordinates\":[[-73.4920054,45.4666495],[-73.4890674,45.4662312]]}";24;Autoroute des Cantons-de-l'Est;4;80;false;true;true;false;false;false;235.0;0;0;0;0;0;false;75466;6133322816;-73.557793;45.496306;75017;6133324641;-73.46574;45.454576;0;1;2;9513089;Bus 321 : Direction La Prairie;"";EXO;321 S;Terminus Centre-Ville;Stationnement incitatif La Prairie
724437661;"{\"type\":\"LineString\",\"coordinates\":[[-73.4890674,45.4662312],[-73.4873281,45.4659783],[-73.4856025,45.4657592],[-73.4848513,45.4656558],[-73.4833534,45.4654796]]}";25;Autoroute des Cantons-de-l'Est;3;80;false;true;true;false;false;false;455.0;0;0;0;0;0;false;75466;6133322816;-73.557793;45.496306;75017;6133324641;-73.46574;45.454576;0;1;2;9513089;Bus 321 : Direction La Prairie;"";EXO;321 S;Terminus Centre-Ville;Stationnement incitatif La Prairie
699232599;"{\"type\":\"LineString\",\"coordinates\":[[-73.4833534,45.4654796],[-73.482022,45.4653559],[-73.4802248,45.4652297],[-73.4791933,45.4651729],[-73.4781865,45.4651216],[-73.474282,45.4649227],[-73.4725575,45.4648665]]}";26;Autoroute des Cantons-de-l'Est;1;80;false;true;true;false;false;false;847.0;0;0;0;0;0;false;75466;6133322816;-73.557793;45.496306;75017;6133324641;-73.46574;45.454576;0;1;2;9513089;Bus 321 : Direction La Prairie;"";EXO;321 S;Terminus Centre-Ville;Stationnement incitatif La Prairie
8289420;"{\"type\":\"LineString\",\"coordinates\":[[-73.4725575,45.4648665],[-73.4719735,45.4648082],[-73.4712459,45.46474],[-73.4703174,45.4646608],[-73.4692837,45.4645546],[-73.4687007,45.4644601],[-73.4682854,45.4643283],[-73.4677692,45.4640481],[-73.4674681,45.4638296],[-73.4671112,45.4636309],[-73.4668634,45.4635538],[-73.4665806,45.4635239]]}";27;"";1;50;false;true;true;false;false;false;505.0;0;0;0;0;0;false;75466;6133322816;-73.557793;45.496306;75017;6133324641;-73.46574;45.454576;0;1;2;9513089;Bus 321 : Direction La Prairie;"";EXO;321 S;Terminus Centre-Ville;Stationnement incitatif La Prairie
458455128;"{\"type\":\"LineString\",\"coordinates\":[[-73.4665806,45.4635239],[-73.4660691,45.4636232],[-73.4658502,45.4636921],[-73.465718,45.4637337]]}";28;"";1;50;false;true;true;false;false;false;72.0;1;0;0;0;0;false;75466;6133322816;-73.557793;45.496306;75017;6133324641;-73.46574;45.454576;0;1;2;9513089;Bus 321 : Direction La Prairie;"";EXO;321 S;Terminus Centre-Ville;Stationnement incitatif La Prairie
39239392;"{\"type\":\"LineString\",\"coordinates\":[[-73.4659376,45.4643951],[-73.465806,45.464038],[-73.465762,45.4638858],[-73.465718,45.4637337]]}";29;Boulevard Taschereau;1;50;false;true;false;false;false;false;76.0;1;0;0;0;0;false;75466;6133322816;-73.557793;45.496306;75017;6133324641;-73.46574;45.454576;0;1;2;9513089;Bus 321 : Direction La Prairie;"";EXO;321 S;Terminus Centre-Ville;Stationnement incitatif La Prairie
39239388;"{\"type\":\"LineString\",\"coordinates\":[[-73.465718,45.4637337],[-73.4655435,45.4637896]]}";30;"";1;50;false;true;true;false;false;false;15.0;0;0;0;0;0;false;75466;6133322816;-73.557793;45.496306;75017;6133324641;-73.46574;45.454576;0;1;2;9513089;Bus 321 : Direction La Prairie;"";EXO;321 S;Terminus Centre-Ville;Stationnement incitatif La Prairie
39239393;"{\"type\":\"LineString\",\"coordinates\":[[-73.465718,45.4637337],[-73.4656681,45.4634008],[-73.4656181,45.4629646]]}";31;Boulevard Taschereau;1;50;false;true;false;false;false;false;86.0;0;0;0;0;0;false;75466;6133322816;-73.557793;45.496306;75017;6133324641;-73.46574;45.454576;0;1;2;9513089;Bus 321 : Direction La Prairie;"";EXO;321 S;Terminus Centre-Ville;Stationnement incitatif La Prairie
468682401;"{\"type\":\"LineString\",\"coordinates\":[[-73.4656181,45.4629646],[-73.465593,45.4627206]]}";32;Boulevard Taschereau;1;50;false;true;false;false;false;false;28.0;0;0;0;0;0;false;75466;6133322816;-73.557793;45.496306;75017;6133324641;-73.46574;45.454576;0;1;2;9513089;Bus 321 : Direction La Prairie;"";EXO;321 S;Terminus Centre-Ville;Stationnement incitatif La Prairie
39239296;"{\"type\":\"LineString\",\"coordinates\":[[-73.465593,45.4627206],[-73.4655024,45.4617011],[-73.4653704,45.4604573]]}";33;Boulevard Taschereau;1;50;false;true;false;false;false;false;252.0;0;0;0;0;0;false;75466;6133322816;-73.557793;45.496306;75017;6133324641;-73.46574;45.454576;0;1;2;9513089;Bus 321 : Direction La Prairie;"";EXO;321 S;Terminus Centre-Ville;Stationnement incitatif La Prairie
479473733;"{\"type\":\"LineString\",\"coordinates\":[[-73.4653704,45.4604573],[-73.465268,45.4594547],[-73.4652581,45.4593577],[-73.465248,45.459259]]}";34;Boulevard Taschereau;1;50;false;true;false;false;false;false;134.0;1;0;0;0;0;false;75466;6133322816;-73.557793;45.496306;75017;6133324641;-73.46574;45.454576;0;1;2;9513089;Bus 321 : Direction La Prairie;"";EXO;321 S;Terminus Centre-Ville;Stationnement incitatif La Prairie
39239295;"{\"type\":\"LineString\",\"coordinates\":[[-73.465248,45.459259],[-73.4652378,45.4591592]]}";35;Boulevard Taschereau;1;50;false;true;true;false;false;false;12.0;0;0;0;0;0;false;75466;6133322816;-73.557793;45.496306;75017;6133324641;-73.46574;45.454576;0;1;2;9513089;Bus 321 : Direction La Prairie;"";EXO;321 S;Terminus Centre-Ville;Stationnement incitatif La Prairie
39239297;"{\"type\":\"LineString\",\"coordinates\":[[-73.4652378,45.4591592],[-73.4651641,45.458438],[-73.4651599,45.4580786],[-73.4651555,45.4576992]]}";36;Boulevard Taschereau;1;70;false;true;true;false;true;false;163.0;0;0;0;0;0;false;75466;6133322816;-73.557793;45.496306;75017;6133324641;-73.46574;45.454576;0;1;2;9513089;Bus 321 : Direction La Prairie;"";EXO;321 S;Terminus Centre-Ville;Stationnement incitatif La Prairie
39505955;"{\"type\":\"LineString\",\"coordinates\":[[-73.4651555,45.4576992],[-73.4651494,45.4571803],[-73.465147,45.4569751],[-73.4652296,45.4563722],[-73.4652389,45.4563045],[-73.4653351,45.4556025]]}";37;Boulevard Taschereau;1;70;false;true;true;false;true;false;234.0;0;0;0;0;0;false;75466;6133322816;-73.557793;45.496306;75017;6133324641;-73.46574;45.454576;0;1;2;9513089;Bus 321 : Direction La Prairie;"";EXO;321 S;Terminus Centre-Ville;Stationnement incitatif La Prairie
34686231;"{\"type\":\"LineString\",\"coordinates\":[[-73.4653351,45.4556025],[-73.4653773,45.4554101],[-73.4654037,45.4552894]]}";38;Boulevard Taschereau;1;50;false;true;true;false;true;false;36.0;1;0;0;0;0;false;75466;6133322816;-73.557793;45.496306;75017;6133324641;-73.46574;45.454576;0;1;2;9513089;Bus 321 : Direction La Prairie;"";EXO;321 S;Terminus Centre-Ville;Stationnement incitatif La Prairie
34686234;"{\"type\":\"LineString\",\"coordinates\":[[-73.4654037,45.4552894],[-73.4654588,45.455122]]}";39;Boulevard Taschereau;1;50;false;true;false;false;false;false;20.0;0;0;0;0;0;false;75466;6133322816;-73.557793;45.496306;75017;6133324641;-73.46574;45.454576;0;1;2;9513089;Bus 321 : Direction La Prairie;"";EXO;321 S;Terminus Centre-Ville;Stationnement incitatif La Prairie
34686242;"{\"type\":\"LineString\",\"coordinates\":[[-73.4654588,45.455122],[-73.4654987,45.4549964],[-73.4655396,45.4548863],[-73.4656108,45.4546946]]}";40;Boulevard Taschereau;1;50;false;true;true;false;true;false;49.0;0;0;0;0;0;false;75466;6133322816;-73.557793;45.496306;75017;6133324641;-73.46574;45.454576;0;1;2;9513089;Bus 321 : Direction La Prairie;"";EXO;321 S;Terminus Centre-Ville;Stationnement incitatif La Prairie
34686241;"{\"type\":\"LineString\",\"coordinates\":[[-73.4656108,45.4546946],[-73.4657271,45.4544569],[-73.4659177,45.4540673],[-73.4660334,45.4538306],[-73.4660716,45.4537526],[-73.4661096,45.4536855],[-73.4665351,45.4529338],[-73.4668097,45.4524642],[-73.4668527,45.45241],[-73.4671831,45.451862],[-73.467386,45.4515255],[-73.467659,45.4510727],[-73.4679344,45.4506159],[-73.4680709,45.4503896],[-73.4683587,45.4499122],[-73.4685955,45.4495195],[-73.4690265,45.4488046],[-73.4691831,45.4485796],[-73.4693538,45.4483342],[-73.4697811,45.4477202],[-73.469882,45.4476001],[-73.4699725,45.4474452]]}";41;Boulevard Taschereau;1;50;false;true;true;false;true;false;437.5;0;0;0;0;0;false;75466;6133322816;-73.557793;45.496306;75017;6133324641;-73.46574;45.454576;1;1;2;9513089;Bus 321 : Direction La Prairie;"";EXO;321 S;Terminus Centre-Ville;Stationnement incitatif La Prairie
34686242;"{\"type\":\"LineString\",\"coordinates\":[[-73.4654588,45.455122],[-73.4654987,45.4549964],[-73.4655396,45.4548863],[-73.4656108,45.4546946]]}";1;Boulevard Taschereau;1;50;false;true;true;false;true;false;49.0;0;0;0;0;0;false;75017;6133324641;-73.46574;45.454576;75140;6133323347;-73.481053;45.426171;2;2;3;9513089;Bus 321 : Direction La Prairie;"";EXO;321 S;Terminus Centre-Ville;Stationnement incitatif La Prairie
34686241;"{\"type\":\"LineString\",\"coordinates\":[[-73.4656108,45.4546946],[-73.4657271,45.4544569],[-73.4659177,45.4540673],[-73.4660334,45.4538306],[-73.4660716,45.4537526],[-73.4661096,45.4536855],[-73.4665351,45.4529338],[-73.4668097,45.4524642],[-73.4668527,45.45241],[-73.4671831,45.451862],[-73.467386,45.4515255],[-73.467659,45.4510727],[-73.4679344,45.4506159],[-73.4680709,45.4503896],[-73.4683587,45.4499122],[-73.4685955,45.4495195],[-73.4690265,45.4488046],[-73.4691831,45.4485796],[-73.4693538,45.4483342],[-73.4697811,45.4477202],[-73.469882,45.4476001],[-73.4699725,45.4474452]]}";2;Boulevard Taschereau;1;50;false;true;true;false;true;false;875.0;0;0;0;0;0;false;75017;6133324641;-73.46574;45.454576;75140;6133323347;-73.481053;45.426171;0;2;3;9513089;Bus 321 : Direction La Prairie;"";EXO;321 S;Terminus Centre-Ville;Stationnement incitatif La Prairie
34686271;"{\"type\":\"LineString\",\"coordinates\":[[-73.4699725,45.4474452],[-73.4701602,45.4471672],[-73.4701861,45.447123],[-73.4702214,45.4470719]]}";3;Boulevard Taschereau;1;70;false;true;true;false;true;false;46.0;1;1;0;0;0;false;75017;6133324641;-73.46574;45.454576;75140;6133323347;-73.481053;45.426171;0;2;3;9513089;Bus 321 : Direction La Prairie;"";EXO;321 S;Terminus Centre-Ville;Stationnement incitatif La Prairie
34686262;"{\"type\":\"LineString\",\"coordinates\":[[-73.4702214,45.4470719],[-73.4703,45.4469665]]}";4;Boulevard Taschereau;1;70;false;true;false;false;false;false;14.0;0;0;0;0;0;false;75017;6133324641;-73.46574;45.454576;75140;6133323347;-73.481053;45.426171;0;2;3;9513089;Bus 321 : Direction La Prairie;"";EXO;321 S;Terminus Centre-Ville;Stationnement incitatif La Prairie
34686263;"{\"type\":\"LineString\",\"coordinates\":[[-73.4703,45.4469665],[-73.4703262,45.4469232],[-73.4704877,45.4466565]]}";5;Boulevard Taschereau;1;70;false;true;false;false;false;false;38.0;0;1;0;0;0;false;75017;6133324641;-73.46574;45.454576;75140;6133323347;-73.481053;45.426171;0;2;3;9513089;Bus 321 : Direction La Prairie;"";EXO;321 S;Terminus Centre-Ville;Stationnement incitatif La Prairie
34686270;"{\"type\":\"LineString\",\"coordinates\":[[-73.4704877,45.4466565],[-73.4705549,45.4465401],[-73.4708483,45.4460787],[-73.4709511,45.445923],[-73.4711461,45.4456198],[-73.471297,45.4453984],[-73.4714655,45.4451338],[-73.4717001,45.4447787],[-73.4718666,45.4445153],[-73.4720107,45.444287],[-73.4721274,45.444118],[-73.4723873,45.4436764],[-73.4725355,45.4433814],[-73.4727728,45.4427801],[-73.4728951,45.4423268],[-73.4729616,45.4420169],[-73.4730196,45.4415789],[-73.4730798,45.4411476],[-73.4730969,45.44104],[-73.4731931,45.4406584],[-73.4733522,45.4402278],[-73.4735003,45.4398844],[-73.4736484,45.4395779],[-73.4738427,45.4392269],[-73.4739526,45.4390662],[-73.4742897,45.4385447]]}";6;Boulevard Taschereau;1;70;false;true;false;false;true;false;956.0;0;0;0;0;0;false;75017;6133324641;-73.46574;45.454576;75140;6133323347;-73.481053;45.426171;0;2;3;9513089;Bus 321 : Direction La Prairie;"";EXO;321 S;Terminus Centre-Ville;Stationnement incitatif La Prairie
34686309;"{\"type\":\"LineString\",\"coordinates\":[[-73.4742897,45.4385447],[-73.4743994,45.4383854],[-73.474472,45.4382665],[-73.4745151,45.4382053],[-73.474553,45.4381499]]}";7;Boulevard Taschereau;1;70;false;true;false;false;false;false;49.0;1;0;0;0;0;false;75017;6133324641;-73.46574;45.454576;75140;6133323347;-73.481053;45.426171;0;2;3;9513089;Bus 321 : Direction La Prairie;"";EXO;321 S;Terminus Centre-Ville;Stationnement incitatif La Prairie
34686308;"{\"type\":\"LineString\",\"coordinates\":[[-73.474553,45.4381499],[-73.4746148,45.4380539],[-73.4748345,45.4377182],[-73.4748829,45.4376394],[-73.4754036,45.4368308],[-73.475643,45.4364611],[-73.4757522,45.4362905],[-73.4760404,45.4358349]]}";8;Boulevard Taschereau;2;70;false;true;false;false;false;false;283.0;0;0;0;0;0;false;75017;6133324641;-73.46574;45.454576;75140;6133323347;-73.481053;45.426171;0;2;3;9513089;Bus 321 : Direction La Prairie;"";EXO;321 S;Terminus Centre-Ville;Stationnement incitatif La Prairie
751199291;"{\"type\":\"LineString\",\"coordinates\":[[-73.4760404,45.4358349],[-73.4762745,45.4354709]]}";9;Boulevard Taschereau;5;70;false;true;false;false;false;false;45.0;0;0;0;0;0;false;75017;6133324641;-73.46574;45.454576;75140;6133323347;-73.481053;45.426171;0;2;3;9513089;Bus 321 : Direction La Prairie;"";EXO;321 S;Terminus Centre-Ville;Stationnement incitatif La Prairie
751199292;"{\"type\":\"LineString\",\"coordinates\":[[-73.4762745,45.4354709],[-73.4764629,45.4352049]]}";10;Boulevard Taschereau;5;70;false;true;false;false;false;false;34.0;0;0;0;0;0;false;75017;6133324641;-73.46574;45.454576;75140;6133323347;-73.481053;45.426171;0;2;3;9513089;Bus 321 : Direction La Prairie;"";EXO;321 S;Terminus Centre-Ville;Stationnement incitatif La Prairie
34686336;"{\"type\":\"LineString\",\"coordinates\":[[-73.4764629,45.4352049],[-73.4765228,45.4351125],[-73.4766395,45.4349327],[-73.476685,45.4348611]]}";11;Boulevard Taschereau;4;50;false;true;false;false;false;false;42.0;1;0;0;0;0;false;75017;6133324641;-73.46574;45.454576;75140;6133323347;-73.481053;45.426171;0;2;3;9513089;Bus 321 : Direction La Prairie;"";EXO;321 S;Terminus Centre-Ville;Stationnement incitatif La Prairie
34686337;"{\"type\":\"LineString\",\"coordinates\":[[-73.476685,45.4348611],[-73.4767472,45.4347662]]}";12;Boulevard Taschereau;4;50;false;true;false;false;false;false;12.0;0;0;0;0;0;false;75017;6133324641;-73.46574;45.454576;75140;6133323347;-73.481053;45.426171;0;2;3;9513089;Bus 321 : Direction La Prairie;"";EXO;321 S;Terminus Centre-Ville;Stationnement incitatif La Prairie
34686338;"{\"type\":\"LineString\",\"coordinates\":[[-73.4767472,45.4347662],[-73.4767834,45.4347144],[-73.4770293,45.4343601]]}";13;Boulevard Taschereau;3;50;false;true;false;false;false;false;51.0;0;0;0;0;0;false;75017;6133324641;-73.46574;45.454576;75140;6133323347;-73.481053;45.426171;0;2;3;9513089;Bus 321 : Direction La Prairie;"";EXO;321 S;Terminus Centre-Ville;Stationnement incitatif La Prairie
34686339;"{\"type\":\"LineString\",\"coordinates\":[[-73.4770293,45.4343601],[-73.4770645,45.4343059],[-73.4776945,45.4333174],[-73.4780298,45.432791],[-73.4782603,45.4324267]]}";14;Boulevard Taschereau;4;70;false;true;false;false;false;false;236.0;0;0;0;0;0;false;75017;6133324641;-73.46574;45.454576;75140;6133323347;-73.481053;45.426171;0;2;3;9513089;Bus 321 : Direction La Prairie;"";EXO;321 S;Terminus Centre-Ville;Stationnement incitatif La Prairie
749260177;"{\"type\":\"LineString\",\"coordinates\":[[-73.4782603,45.4324267],[-73.4783987,45.432208]]}";15;Boulevard Taschereau;3;70;false;true;false;false;false;false;27.0;0;0;0;0;0;false;75017;6133324641;-73.46574;45.454576;75140;6133323347;-73.481053;45.426171;0;2;3;9513089;Bus 321 : Direction La Prairie;"";EXO;321 S;Terminus Centre-Ville;Stationnement incitatif La Prairie
749260176;"{\"type\":\"LineString\",\"coordinates\":[[-73.4783987,45.432208],[-73.4786552,45.4318026],[-73.4786784,45.4317626],[-73.4787167,45.4317014]]}";16;Boulevard Taschereau;4;70;false;true;false;false;false;false;62.0;1;0;0;0;0;false;75017;6133324641;-73.46574;45.454576;75140;6133323347;-73.481053;45.426171;0;2;3;9513089;Bus 321 : Direction La Prairie;"";EXO;321 S;Terminus Centre-Ville;Stationnement incitatif La Prairie
501589438;"{\"type\":\"LineString\",\"coordinates\":[[-73.4787167,45.4317014],[-73.4787939,45.4315726]]}";17;Boulevard Taschereau;1;70;false;true;false;false;false;false;16.0;0;0;0;0;0;false;75017;6133324641;-73.46574;45.454576;75140;6133323347;-73.481053;45.426171;0;2;3;9513089;Bus 321 : Direction La Prairie;"";EXO;321 S;Terminus Centre-Ville;Stationnement incitatif La Prairie
501589439;"{\"type\":\"LineString\",\"coordinates\":[[-73.4787939,45.4315726],[-73.4788254,45.4315133],[-73.4793744,45.4306635]]}";18;Boulevard Taschereau;3;70;false;true;true;false;false;false;111.0;0;1;0;0;0;false;75017;6133324641;-73.46574;45.454576;75140;6133323347;-73.481053;45.426171;0;2;3;9513089;Bus 321 : Direction La Prairie;"";EXO;321 S;Terminus Centre-Ville;Stationnement incitatif La Prairie
14335192;"{\"type\":\"LineString\",\"coordinates\":[[-73.4793744,45.4306635],[-73.4795384,45.4304161]]}";19;Boulevard Taschereau;3;70;false;true;true;false;false;false;31.0;0;0;0;0;0;false;75017;6133324641;-73.46574;45.454576;75140;6133323347;-73.481053;45.426171;0;2;3;9513089;Bus 321 : Direction La Prairie;"";EXO;321 S;Terminus Centre-Ville;Stationnement incitatif La Prairie
474399826;"{\"type\":\"LineString\",\"coordinates\":[[-73.4795384,45.4304161],[-73.4803706,45.4291381],[-73.4805332,45.4288885],[-73.4808306,45.4284416],[-73.481681,45.4271371]]}";20;Boulevard Taschereau;3;70;false;true;true;false;false;false;401.0;0;0;0;0;0;false;75017;6133324641;-73.46574;45.454576;75140;6133323347;-73.481053;45.426171;0;2;3;9513089;Bus 321 : Direction La Prairie;"";EXO;321 S;Terminus Centre-Ville;Stationnement incitatif La Prairie
784916206;"{\"type\":\"LineString\",\"coordinates\":[[-73.481681,45.4271371],[-73.4819602,45.42667]]}";21;Boulevard Taschereau;4;70;false;true;true;false;false;false;57.0;0;0;0;0;0;false;75017;6133324641;-73.46574;45.454576;75140;6133323347;-73.481053;45.426171;0;2;3;9513089;Bus 321 : Direction La Prairie;"";EXO;321 S;Terminus Centre-Ville;Stationnement incitatif La Prairie
474399825;"{\"type\":\"LineString\",\"coordinates\":[[-73.4819602,45.42667],[-73.4822268,45.4262638],[-73.482247,45.4262365]]}";22;Boulevard Taschereau;4;70;false;true;true;false;false;false;54.0;1;1;0;0;0;false;75017;6133324641;-73.46574;45.454576;75140;6133323347;-73.481053;45.426171;0;2;3;9513089;Bus 321 : Direction La Prairie;"";EXO;321 S;Terminus Centre-Ville;Stationnement incitatif La Prairie
784916202;"{\"type\":\"LineString\",\"coordinates\":[[-73.482247,45.4262365],[-73.4822982,45.426172]]}";23;Boulevard Taschereau;4;70;false;true;true;false;false;false;9.0;0;1;0;0;0;false;75017;6133324641;-73.46574;45.454576;75140;6133323347;-73.481053;45.426171;0;2;3;9513089;Bus 321 : Direction La Prairie;"";EXO;321 S;Terminus Centre-Ville;Stationnement incitatif La Prairie
474399824;"{\"type\":\"LineString\",\"coordinates\":[[-73.4822982,45.426172],[-73.4823466,45.4261092]]}";24;Boulevard Taschereau;4;70;false;true;true;false;false;false;8.0;0;0;0;0;0;false;75017;6133324641;-73.46574;45.454576;75140;6133323347;-73.481053;45.426171;0;2;3;9513089;Bus 321 : Direction La Prairie;"";EXO;321 S;Terminus Centre-Ville;Stationnement incitatif La Prairie
784908364;"{\"type\":\"LineString\",\"coordinates\":[[-73.4823466,45.4261092],[-73.4821615,45.4260501]]}";25;Avenue du Golf;2;50;false;true;true;false;false;false;16.0;0;0;0;0;0;false;75017;6133324641;-73.46574;45.454576;75140;6133323347;-73.481053;45.426171;0;2;3;9513089;Bus 321 : Direction La Prairie;"";EXO;321 S;Terminus Centre-Ville;Stationnement incitatif La Prairie
784914820;"{\"type\":\"LineString\",\"coordinates\":[[-73.4821615,45.4260501],[-73.4820086,45.4260023],[-73.4818287,45.4259423],[-73.4817042,45.4258857]]}";26;Avenue du Golf;1;50;false;true;true;false;false;false;41.0;0;1;0;0;0;false;75017;6133324641;-73.46574;45.454576;75140;6133323347;-73.481053;45.426171;0;2;3;9513089;Bus 321 : Direction La Prairie;"";EXO;321 S;Terminus Centre-Ville;Stationnement incitatif La Prairie
784908371;"{\"type\":\"LineString\",\"coordinates\":[[-73.4817042,45.4258857],[-73.4811571,45.4257067],[-73.4810372,45.4256675]]}";27;Avenue du Golf;2;50;false;true;true;false;false;false;58.0;0;0;1;0;0;false;75017;6133324641;-73.46574;45.454576;75140;6133323347;-73.481053;45.426171;0;2;3;9513089;Bus 321 : Direction La Prairie;"";EXO;321 S;Terminus Centre-Ville;Stationnement incitatif La Prairie
24262980;"{\"type\":\"LineString\",\"coordinates\":[[-73.4810372,45.4256675],[-73.480997,45.4257361]]}";28;"";2;50;false;false;true;false;true;false;9.0;0;0;0;0;0;false;75017;6133324641;-73.46574;45.454576;75140;6133323347;-73.481053;45.426171;0;2;3;9513089;Bus 321 : Direction La Prairie;"";EXO;321 S;Terminus Centre-Ville;Stationnement incitatif La Prairie
784908367;"{\"type\":\"LineString\",\"coordinates\":[[-73.480997,45.4257361],[-73.4809463,45.4258147],[-73.4808705,45.4259261],[-73.4808586,45.4259515],[-73.4808595,45.4259725],[-73.4808768,45.426001],[-73.4809072,45.4260255],[-73.4809417,45.4260433],[-73.4812639,45.4261534],[-73.4813112,45.4261641],[-73.4813493,45.4261674],[-73.4813912,45.4261595],[-73.4814235,45.4261424],[-73.4814474,45.4261216],[-73.4814672,45.4260993],[-73.4815293,45.4260122],[-73.481586,45.4259272]]}";29;"";1;50;false;true;true;false;true;false;108.0;0;0;1;0;0;false;75017;6133324641;-73.46574;45.454576;75140;6133323347;-73.481053;45.426171;1;2;3;9513089;Bus 321 : Direction La Prairie;"";EXO;321 S;Terminus Centre-Ville;Stationnement incitatif La Prairie
