way_id;shape;index;name;nb_lanes;legal_speed;speed_zone_30;oneway;shares_bike;bike_box;bus_lane;dedicated_bus_lane;length;nb_traffic_signals;nb_crossings;nb_stops;nb_give_ways;nb_lvl_crossings;roundabout;stop_id_orig;node_id_orig;coord_x_orig;coord_y_orig;stop_id_dest;node_id_dest;coord_x_dest;coord_y_dest;nb_neighbouring_ways_bus_stop;ordre_orig;ordre_dest;id_line;line_name;colour;operator;ref;from;to
263213891;"{\"type\":\"LineString\",\"coordinates\":[[-73.5794958,45.5033389],[-73.5797309,45.5034557],[-73.5802881,45.5037325],[-73.5810549,45.5041069],[-73.5818921,45.5045077],[-73.5819554,45.504538]]}";1;Rue Peel;2;50;false;false;true;false;false;false;234.0;2;0;0;0;0;false;52177;2695701233;-73.5798005;45.5033801;52276;6010968474;-73.576789;45.501898;1;2;3;3545688;Bus 107 : Verdun Sud;"";STM;107-S;des Pins / du Docteur-Penfield;Stephens / LaSalle
455083998;"{\"type\":\"LineString\",\"coordinates\":[[-73.5771838,45.5022103],[-73.5780979,45.5026575],[-73.5792683,45.503228],[-73.5794958,45.5033389]]}";2;Rue Peel;1;50;false;false;true;false;false;false;220.0;1;0;0;0;0;false;52177;2695701233;-73.5798005;45.5033801;52276;6010968474;-73.576789;45.501898;0;2;3;3545688;Bus 107 : Verdun Sud;"";STM;107-S;des Pins / du Docteur-Penfield;Stephens / LaSalle
37723610;"{\"type\":\"LineString\",\"coordinates\":[[-73.5766344,45.5018459],[-73.5767175,45.5019388],[-73.5767459,45.5019706],[-73.5771838,45.5022103]]}";3;Rue Peel;1;50;false;false;true;false;false;false;30.0;1;1;0;0;0;false;52177;2695701233;-73.5798005;45.5033801;52276;6010968474;-73.576789;45.501898;1;2;3;3545688;Bus 107 : Verdun Sud;"";STM;107-S;des Pins / du Docteur-Penfield;Stephens / LaSalle
219132792;"{\"type\":\"LineString\",\"coordinates\":[[-73.5733929,45.5002521],[-73.5734503,45.5002795],[-73.5746038,45.5008309],[-73.574613,45.5008353],[-73.5747066,45.50088]]}";1;Rue Peel;1;40;false;false;true;false;false;false;125.0;1;2;0;0;0;false;52338;6010978141;-73.574892;45.500911;52398;6010977353;-73.573095;45.50004;2;4;5;3545688;Bus 107 : Verdun Sud;"";STM;107-S;des Pins / du Docteur-Penfield;Stephens / LaSalle
455083996;"{\"type\":\"LineString\",\"coordinates\":[[-73.5729122,45.5000133],[-73.5733929,45.5002521]]}";2;Rue Peel;1;40;false;false;true;false;false;false;46.0;1;0;0;0;0;false;52338;6010978141;-73.574892;45.500911;52398;6010977353;-73.573095;45.50004;2;4;5;3545688;Bus 107 : Verdun Sud;"";STM;107-S;des Pins / du Docteur-Penfield;Stephens / LaSalle
455083997;"{\"type\":\"LineString\",\"coordinates\":[[-73.5703788,45.4987866],[-73.5703158,45.4986378]]}";1;Rue Peel;2;50;false;true;true;false;false;false;18.0;0;0;0;0;0;false;52484;6010964893;-73.570589;45.49882;52556;6010969630;-73.568826;45.497755;2;6;7;3545688;Bus 107 : Verdun Sud;"";STM;107-S;des Pins / du Docteur-Penfield;Stephens / LaSalle
36672936;"{\"type\":\"LineString\",\"coordinates\":[[-73.5703158,45.4986378],[-73.5702146,45.4985585],[-73.5700581,45.4984322],[-73.5698272,45.4983147],[-73.5695833,45.498195],[-73.5686331,45.497727],[-73.5680595,45.4974507],[-73.5669804,45.4969286],[-73.5668027,45.4968923]]}";2;Rue Peel;2;50;false;true;true;false;false;false;338.0;2;0;0;0;0;false;52484;6010964893;-73.570589;45.49882;52556;6010969630;-73.568826;45.497755;2;6;7;3545688;Bus 107 : Verdun Sud;"";STM;107-S;des Pins / du Docteur-Penfield;Stephens / LaSalle
36672936;"{\"type\":\"LineString\",\"coordinates\":[[-73.5703158,45.4986378],[-73.5702146,45.4985585],[-73.5700581,45.4984322],[-73.5698272,45.4983147],[-73.5695833,45.498195],[-73.5686331,45.497727],[-73.5680595,45.4974507],[-73.5669804,45.4969286],[-73.5668027,45.4968923]]}";1;Rue Peel;2;50;false;true;true;false;false;false;169.0;2;0;0;0;0;false;52619;6010967445;-73.567153;45.496944;52661;6010969844;-73.565572;45.496191;1;8;9;3545688;Bus 107 : Verdun Sud;"";STM;107-S;des Pins / du Docteur-Penfield;Stephens / LaSalle
354710422;"{\"type\":\"LineString\",\"coordinates\":[[-73.5653647,45.4961796],[-73.5659719,45.4964801],[-73.5663181,45.4966461],[-73.5667394,45.4968585],[-73.5668027,45.4968923]]}";2;Rue Peel;4;50;false;false;true;false;false;false;69.0;2;0;0;0;0;false;52619;6010967445;-73.567153;45.496944;52661;6010969844;-73.565572;45.496191;1;8;9;3545688;Bus 107 : Verdun Sud;"";STM;107-S;des Pins / du Docteur-Penfield;Stephens / LaSalle
37722302;"{\"type\":\"LineString\",\"coordinates\":[[-73.5630107,45.4954423],[-73.5631511,45.4954863],[-73.5634371,45.4955758],[-73.5647517,45.4959876],[-73.565177,45.4961208],[-73.5653647,45.4961796]]}";1;Rue Peel;4;50;false;false;true;false;false;false;101.0;2;1;0;0;0;false;52744;427618245;-73.5632927;45.4953897;53871;5754358296;-73.55956;45.494012;1;10;11;3545688;Bus 107 : Verdun Sud;"";STM;107-S;des Pins / du Docteur-Penfield;Stephens / LaSalle
456353760;"{\"type\":\"LineString\",\"coordinates\":[[-73.5613595,45.4947731],[-73.561407,45.4947923],[-73.5628262,45.495368],[-73.5628482,45.495377],[-73.5630107,45.4954423]]}";2;Rue Peel;4;50;false;false;true;false;false;false;149.0;2;2;0;0;0;false;52744;427618245;-73.5632927;45.4953897;53871;5754358296;-73.55956;45.494012;0;10;11;3545688;Bus 107 : Verdun Sud;"";STM;107-S;des Pins / du Docteur-Penfield;Stephens / LaSalle
455712867;"{\"type\":\"LineString\",\"coordinates\":[[-73.5594007,45.4940335],[-73.5594728,45.4940607],[-73.5598028,45.4941853],[-73.5612984,45.49475],[-73.5613595,45.4947731]]}";3;Rue Peel;4;50;false;false;true;false;false;false;87.0;2;2;0;0;0;false;52744;427618245;-73.5632927;45.4953897;53871;5754358296;-73.55956;45.494012;1;10;11;3545688;Bus 107 : Verdun Sud;"";STM;107-S;des Pins / du Docteur-Penfield;Stephens / LaSalle
455712869;"{\"type\":\"LineString\",\"coordinates\":[[-73.5574425,45.4933014],[-73.5575648,45.4933471],[-73.5593426,45.4940118],[-73.5594007,45.4940335]]}";1;Rue Peel;4;50;false;false;true;false;false;false;87.0;2;2;0;0;0;false;52920;5754358295;-73.557731;45.49332;52898;5754358289;-73.558192;45.492384;1;12;13;3545688;Bus 107 : Verdun Sud;"";STM;107-S;des Pins / du Docteur-Penfield;Stephens / LaSalle
455718964;"{\"type\":\"LineString\",\"coordinates\":[[-73.5577855,45.4927772],[-73.5574912,45.4932228],[-73.5574756,45.493248],[-73.5574425,45.4933014]]}";2;Rue Wellington;1;50;false;false;true;false;false;false;65.0;1;2;0;0;0;false;52920;5754358295;-73.557731;45.49332;52898;5754358289;-73.558192;45.492384;0;12;13;3545688;Bus 107 : Verdun Sud;"";STM;107-S;des Pins / du Docteur-Penfield;Stephens / LaSalle
492899793;"{\"type\":\"LineString\",\"coordinates\":[[-73.5577855,45.4927772],[-73.5579018,45.4927002],[-73.5582518,45.4922263],[-73.5583049,45.4921169],[-73.5583359,45.4919926],[-73.5583337,45.4918629],[-73.5583194,45.4917745]]}";3;Rue Wellington;1;50;false;true;true;false;false;false;61.5;1;0;0;0;0;false;52920;5754358295;-73.557731;45.49332;52898;5754358289;-73.558192;45.492384;1;12;13;3545688;Bus 107 : Verdun Sud;"";STM;107-S;des Pins / du Docteur-Penfield;Stephens / LaSalle
492899793;"{\"type\":\"LineString\",\"coordinates\":[[-73.5577855,45.4927772],[-73.5579018,45.4927002],[-73.5582518,45.4922263],[-73.5583049,45.4921169],[-73.5583359,45.4919926],[-73.5583337,45.4918629],[-73.5583194,45.4917745]]}";1;Rue Wellington;1;50;false;true;true;false;false;false;61.5;1;0;0;0;0;false;52898;5754358289;-73.558192;45.492384;52925;2687686486;-73.5575041;45.4874629;1;13;14;3545688;Bus 107 : Verdun Sud;"";STM;107-S;des Pins / du Docteur-Penfield;Stephens / LaSalle
129587031;"{\"type\":\"LineString\",\"coordinates\":[[-73.5583194,45.4917745],[-73.5582792,45.4916624],[-73.5582071,45.4915499],[-73.5581223,45.4914506],[-73.5578893,45.4912506],[-73.5577938,45.4911582],[-73.5577317,45.4910792],[-73.5576082,45.4908912],[-73.5575132,45.4908127]]}";2;Rue Wellington;1;50;false;true;true;false;false;false;126.0;1;0;0;0;0;false;52898;5754358289;-73.558192;45.492384;52925;2687686486;-73.5575041;45.4874629;0;13;14;3545688;Bus 107 : Verdun Sud;"";STM;107-S;des Pins / du Docteur-Penfield;Stephens / LaSalle
352905266;"{\"type\":\"LineString\",\"coordinates\":[[-73.5574469,45.4906138],[-73.5574783,45.490706],[-73.5575132,45.4908127]]}";3;Rue Wellington;1;50;false;false;true;false;false;false;23.0;0;0;0;0;0;false;52898;5754358289;-73.558192;45.492384;52925;2687686486;-73.5575041;45.4874629;0;13;14;3545688;Bus 107 : Verdun Sud;"";STM;107-S;des Pins / du Docteur-Penfield;Stephens / LaSalle
352905264;"{\"type\":\"LineString\",\"coordinates\":[[-73.557211,45.4896433],[-73.557229,45.4897135],[-73.5574469,45.4906138]]}";4;Rue Wellington;1;50;false;false;true;false;false;false;110.0;0;0;0;0;0;false;52898;5754358289;-73.558192;45.492384;52925;2687686486;-73.5575041;45.4874629;0;13;14;3545688;Bus 107 : Verdun Sud;"";STM;107-S;des Pins / du Docteur-Penfield;Stephens / LaSalle
41651789;"{\"type\":\"LineString\",\"coordinates\":[[-73.5571781,45.4880463],[-73.5570591,45.488758],[-73.5570547,45.489059],[-73.557211,45.4896433]]}";5;Rue Wellington;4;50;false;false;true;false;false;false;180.0;1;0;0;0;0;false;52898;5754358289;-73.558192;45.492384;52925;2687686486;-73.5575041;45.4874629;0;13;14;3545688;Bus 107 : Verdun Sud;"";STM;107-S;des Pins / du Docteur-Penfield;Stephens / LaSalle
37722304;"{\"type\":\"LineString\",\"coordinates\":[[-73.5573106,45.4873222],[-73.5571781,45.4880463]]}";6;Rue Wellington;5;50;false;false;true;false;false;false;41.0;1;0;0;0;0;false;52898;5754358289;-73.558192;45.492384;52925;2687686486;-73.5575041;45.4874629;1;13;14;3545688;Bus 107 : Verdun Sud;"";STM;107-S;des Pins / du Docteur-Penfield;Stephens / LaSalle
37722304;"{\"type\":\"LineString\",\"coordinates\":[[-73.5573106,45.4873222],[-73.5571781,45.4880463]]}";1;Rue Wellington;5;50;false;false;true;false;false;false;41.0;1;0;0;0;0;false;52925;2687686486;-73.5575041;45.4874629;53870;2701338580;-73.558332;45.4853055;1;14;15;3545688;Bus 107 : Verdun Sud;"";STM;107-S;des Pins / du Docteur-Penfield;Stephens / LaSalle
561511409;"{\"type\":\"LineString\",\"coordinates\":[[-73.5573106,45.4873222],[-73.5574104,45.4872308],[-73.5574273,45.4871396],[-73.5573721,45.4870444]]}";2;Rue Wellington;2;50;false;true;true;false;false;false;35.0;1;0;0;0;0;false;52925;2687686486;-73.5575041;45.4874629;53870;2701338580;-73.558332;45.4853055;0;14;15;3545688;Bus 107 : Verdun Sud;"";STM;107-S;des Pins / du Docteur-Penfield;Stephens / LaSalle
263213892;"{\"type\":\"LineString\",\"coordinates\":[[-73.5576414,45.4855861],[-73.5575645,45.4860029],[-73.5573721,45.4870444]]}";3;Rue Wellington;1;50;false;false;true;false;false;false;164.0;1;0;0;0;0;false;52925;2687686486;-73.5575041;45.4874629;53870;2701338580;-73.558332;45.4853055;0;14;15;3545688;Bus 107 : Verdun Sud;"";STM;107-S;des Pins / du Docteur-Penfield;Stephens / LaSalle
265250999;"{\"type\":\"LineString\",\"coordinates\":[[-73.5637081,45.4819094],[-73.5629674,45.4823602],[-73.5621931,45.4828314],[-73.562068,45.4829075],[-73.5619872,45.4829567],[-73.5609631,45.4835799],[-73.5605846,45.4838103],[-73.5604734,45.483878],[-73.5601935,45.4840483],[-73.55954,45.484446],[-73.5591458,45.4846858],[-73.5584256,45.4851241],[-73.558248,45.4852322],[-73.5579815,45.4853944],[-73.5576414,45.4855861]]}";4;Rue Centre;2;50;false;false;true;false;false;false;313.0;1;0;0;0;0;false;52925;2687686486;-73.5575041;45.4874629;53870;2701338580;-73.558332;45.4853055;1;14;15;3545688;Bus 107 : Verdun Sud;"";STM;107-S;des Pins / du Docteur-Penfield;Stephens / LaSalle
265250999;"{\"type\":\"LineString\",\"coordinates\":[[-73.5637081,45.4819094],[-73.5629674,45.4823602],[-73.5621931,45.4828314],[-73.562068,45.4829075],[-73.5619872,45.4829567],[-73.5609631,45.4835799],[-73.5605846,45.4838103],[-73.5604734,45.483878],[-73.5601935,45.4840483],[-73.55954,45.484446],[-73.5591458,45.4846858],[-73.5584256,45.4851241],[-73.558248,45.4852322],[-73.5579815,45.4853944],[-73.5576414,45.4855861]]}";1;Rue Centre;2;50;false;false;true;false;false;false;313.0;1;0;0;0;0;false;52796;2687686424;-73.562038;45.4830061;52716;2109933325;-73.5644606;45.4815434;1;17;18;3545688;Bus 107 : Verdun Sud;"";STM;107-S;des Pins / du Docteur-Penfield;Stephens / LaSalle
463433633;"{\"type\":\"LineString\",\"coordinates\":[[-73.5644916,45.4814267],[-73.5643916,45.4814886],[-73.5637081,45.4819094]]}";2;Rue Centre;2;50;false;false;true;false;false;false;41.0;1;0;0;0;0;false;52796;2687686424;-73.562038;45.4830061;52716;2109933325;-73.5644606;45.4815434;1;17;18;3545688;Bus 107 : Verdun Sud;"";STM;107-S;des Pins / du Docteur-Penfield;Stephens / LaSalle
463433634;"{\"type\":\"LineString\",\"coordinates\":[[-73.565823,45.4806172],[-73.564606,45.4813572],[-73.5644916,45.4814267]]}";1;Rue Centre;2;50;false;false;true;false;false;false;138.0;2;0;0;0;0;false;52716;2109933325;-73.5644606;45.4815434;52623;2709173064;-73.5670355;45.4799788;2;18;19;3545688;Bus 107 : Verdun Sud;"";STM;107-S;des Pins / du Docteur-Penfield;Stephens / LaSalle
463433635;"{\"type\":\"LineString\",\"coordinates\":[[-73.569365,45.4784599],[-73.5673016,45.4797537],[-73.5671769,45.479832],[-73.5669914,45.4799397],[-73.565823,45.4806172]]}";2;Rue Centre;2;50;false;false;true;false;false;false;367.0;2;0;0;0;0;false;52716;2109933325;-73.5644606;45.4815434;52623;2709173064;-73.5670355;45.4799788;2;18;19;3545688;Bus 107 : Verdun Sud;"";STM;107-S;des Pins / du Docteur-Penfield;Stephens / LaSalle
463433635;"{\"type\":\"LineString\",\"coordinates\":[[-73.569365,45.4784599],[-73.5673016,45.4797537],[-73.5671769,45.479832],[-73.5669914,45.4799397],[-73.565823,45.4806172]]}";1;Rue Centre;2;50;false;false;true;false;false;false;183.5;2;0;0;0;0;false;52623;2709173064;-73.5670355;45.4799788;53699;2109933306;-73.5689744;45.4781253;1;19;20;3545688;Bus 107 : Verdun Sud;"";STM;107-S;des Pins / du Docteur-Penfield;Stephens / LaSalle
639785878;"{\"type\":\"LineString\",\"coordinates\":[[-73.569365,45.4784599],[-73.5689493,45.4782263],[-73.5684804,45.4779628]]}";2;Rue Charlevoix;1;40;false;false;true;false;false;false;44.5;1;0;0;0;0;false;52623;2709173064;-73.5670355;45.4799788;53699;2109933306;-73.5689744;45.4781253;1;19;20;3545688;Bus 107 : Verdun Sud;"";STM;107-S;des Pins / du Docteur-Penfield;Stephens / LaSalle
639785878;"{\"type\":\"LineString\",\"coordinates\":[[-73.569365,45.4784599],[-73.5689493,45.4782263],[-73.5684804,45.4779628]]}";1;Rue Charlevoix;1;40;false;false;true;false;false;false;44.5;1;0;0;0;0;false;53699;2109933306;-73.5689744;45.4781253;52599;2709172842;-73.5681032;45.4776421;1;20;21;3545688;Bus 107 : Verdun Sud;"";STM;107-S;des Pins / du Docteur-Penfield;Stephens / LaSalle
463463397;"{\"type\":\"LineString\",\"coordinates\":[[-73.5684804,45.4779628],[-73.5680107,45.4776988],[-73.5677677,45.4775622]]}";2;Rue Charlevoix;1;40;false;false;true;false;false;false;36.0;1;0;0;0;0;false;53699;2109933306;-73.5689744;45.4781253;52599;2709172842;-73.5681032;45.4776421;1;20;21;3545688;Bus 107 : Verdun Sud;"";STM;107-S;des Pins / du Docteur-Penfield;Stephens / LaSalle
463463397;"{\"type\":\"LineString\",\"coordinates\":[[-73.5684804,45.4779628],[-73.5680107,45.4776988],[-73.5677677,45.4775622]]}";1;Rue Charlevoix;1;40;false;false;true;false;false;false;36.0;1;0;0;0;0;false;52599;2709172842;-73.5681032;45.4776421;53868;2109933310;-73.5704194;45.4760051;1;21;22;3545688;Bus 107 : Verdun Sud;"";STM;107-S;des Pins / du Docteur-Penfield;Stephens / LaSalle
265251004;"{\"type\":\"LineString\",\"coordinates\":[[-73.5677677,45.4775622],[-73.5705583,45.4762443]]}";2;Rue Grand Trunk;1;50;false;true;false;false;false;false;263.0;1;0;0;0;0;false;52599;2709172842;-73.5681032;45.4776421;53868;2109933310;-73.5704194;45.4760051;0;21;22;3545688;Bus 107 : Verdun Sud;"";STM;107-S;des Pins / du Docteur-Penfield;Stephens / LaSalle
265251008;"{\"type\":\"LineString\",\"coordinates\":[[-73.5705583,45.4762443],[-73.5705141,45.4762053],[-73.5703439,45.4760551],[-73.570128,45.4758645],[-73.570051,45.4757683]]}";3;Rue d'Argenson;2;50;false;false;false;false;false;false;33.5;0;0;0;0;0;false;52599;2709172842;-73.5681032;45.4776421;53868;2109933310;-73.5704194;45.4760051;1;21;22;3545688;Bus 107 : Verdun Sud;"";STM;107-S;des Pins / du Docteur-Penfield;Stephens / LaSalle
265251008;"{\"type\":\"LineString\",\"coordinates\":[[-73.5705583,45.4762443],[-73.5705141,45.4762053],[-73.5703439,45.4760551],[-73.570128,45.4758645],[-73.570051,45.4757683]]}";1;Rue d'Argenson;2;50;false;false;false;false;false;false;33.5;0;0;0;0;0;false;53868;2109933310;-73.5704194;45.4760051;56606;2709173058;-73.5701952;45.4743583;1;22;23;3545688;Bus 107 : Verdun Sud;"";STM;107-S;des Pins / du Docteur-Penfield;Stephens / LaSalle
545550691;"{\"type\":\"LineString\",\"coordinates\":[[-73.5700539,45.4747102],[-73.5700218,45.4751424],[-73.5700177,45.4752566],[-73.5700211,45.4754816],[-73.570051,45.4757683]]}";2;Rue d'Argenson;2;50;false;false;false;false;false;false;118.0;0;0;0;0;0;false;53868;2109933310;-73.5704194;45.4760051;56606;2709173058;-73.5701952;45.4743583;0;22;23;3545688;Bus 107 : Verdun Sud;"";STM;107-S;des Pins / du Docteur-Penfield;Stephens / LaSalle
561240853;"{\"type\":\"LineString\",\"coordinates\":[[-73.5700695,45.474564],[-73.5700616,45.4746381],[-73.5700539,45.4747102]]}";3;Rue d'Argenson;1;50;false;false;true;false;false;false;17.0;0;0;0;0;0;false;53868;2109933310;-73.5704194;45.4760051;56606;2709173058;-73.5701952;45.4743583;0;22;23;3545688;Bus 107 : Verdun Sud;"";STM;107-S;des Pins / du Docteur-Penfield;Stephens / LaSalle
25336364;"{\"type\":\"LineString\",\"coordinates\":[[-73.5695208,45.4723536],[-73.569583,45.4724531],[-73.5696557,45.4725693],[-73.5697607,45.4727372],[-73.5700284,45.4731655],[-73.5701363,45.4733381],[-73.5702049,45.4734479],[-73.570241,45.4735414],[-73.5702531,45.4736277],[-73.5701136,45.4742921],[-73.5701046,45.4743473],[-73.5700695,45.474564]]}";4;Boulevard LaSalle;2;50;false;false;true;false;false;false;129.5;1;0;1;0;0;false;53868;2109933310;-73.5704194;45.4760051;56606;2709173058;-73.5701952;45.4743583;1;22;23;3545688;Bus 107 : Verdun Sud;"";STM;107-S;des Pins / du Docteur-Penfield;Stephens / LaSalle
25336364;"{\"type\":\"LineString\",\"coordinates\":[[-73.5695208,45.4723536],[-73.569583,45.4724531],[-73.5696557,45.4725693],[-73.5697607,45.4727372],[-73.5700284,45.4731655],[-73.5701363,45.4733381],[-73.5702049,45.4734479],[-73.570241,45.4735414],[-73.5702531,45.4736277],[-73.5701136,45.4742921],[-73.5701046,45.4743473],[-73.5700695,45.474564]]}";1;Boulevard LaSalle;2;50;false;false;true;false;false;false;129.5;1;0;1;0;0;false;56608;2709173055;-73.5697521;45.4725375;56602;2709173052;-73.5707621;45.4705749;1;24;25;3545688;Bus 107 : Verdun Sud;"";STM;107-S;des Pins / du Docteur-Penfield;Stephens / LaSalle
639785877;"{\"type\":\"LineString\",\"coordinates\":[[-73.5695208,45.4723536],[-73.5696665,45.4723307],[-73.5697938,45.4723119],[-73.5702768,45.4723389],[-73.5703895,45.4723452],[-73.570522,45.4723526]]}";2;Rue Henri-Duhamel;1;50;false;true;false;false;false;false;79.0;2;0;0;0;0;false;56608;2709173055;-73.5697521;45.4725375;56602;2709173052;-73.5707621;45.4705749;0;24;25;3545688;Bus 107 : Verdun Sud;"";STM;107-S;des Pins / du Docteur-Penfield;Stephens / LaSalle
164827366;"{\"type\":\"LineString\",\"coordinates\":[[-73.570522,45.4723526],[-73.5705265,45.4722304]]}";3;Rue de Verdun;1;50;false;false;true;false;false;false;14.0;2;0;0;0;0;false;56608;2709173055;-73.5697521;45.4725375;56602;2709173052;-73.5707621;45.4705749;0;24;25;3545688;Bus 107 : Verdun Sud;"";STM;107-S;des Pins / du Docteur-Penfield;Stephens / LaSalle
475241415;"{\"type\":\"LineString\",\"coordinates\":[[-73.5705265,45.4722304],[-73.5705414,45.4720091],[-73.5705511,45.4718748],[-73.5706626,45.4705626],[-73.5706698,45.4704779],[-73.5706763,45.4704073],[-73.5708068,45.4689817],[-73.5708168,45.4688728],[-73.5708269,45.4687592],[-73.570944,45.4674367],[-73.5709549,45.4673125],[-73.570963,45.4672213],[-73.5710599,45.4661123],[-73.5711382,45.4651878],[-73.571146,45.4650956],[-73.5711527,45.4650192],[-73.5713147,45.4632072],[-73.571324,45.4630555],[-73.571331,45.4629736],[-73.5713373,45.4629167],[-73.5713741,45.4625834],[-73.5714263,45.4621159]]}";4;Rue de Verdun;2;40;false;false;true;false;false;false;563.0;3;0;4;0;0;false;56608;2709173055;-73.5697521;45.4725375;56602;2709173052;-73.5707621;45.4705749;1;24;25;3545688;Bus 107 : Verdun Sud;"";STM;107-S;des Pins / du Docteur-Penfield;Stephens / LaSalle
475241414;"{\"type\":\"LineString\",\"coordinates\":[[-73.5714263,45.4621159],[-73.571441,45.4619574],[-73.5714463,45.4618586],[-73.5714702,45.4616452]]}";1;Rue de Verdun;2;50;false;false;true;false;false;false;53.0;1;0;0;0;0;false;56588;2709173025;-73.5715073;45.4622166;56686;2709172917;-73.5718173;45.4591362;2;30;31;3545688;Bus 107 : Verdun Sud;"";STM;107-S;des Pins / du Docteur-Penfield;Stephens / LaSalle
476069398;"{\"type\":\"LineString\",\"coordinates\":[[-73.5714702,45.4616452],[-73.5715094,45.4612063],[-73.5715482,45.4607717],[-73.5715894,45.460311],[-73.5716399,45.4597451],[-73.5716626,45.4594916],[-73.571668,45.4594314],[-73.5716735,45.4593691],[-73.5716889,45.4591967],[-73.5716948,45.4591311],[-73.5717366,45.4586631],[-73.5717417,45.4586057],[-73.5717459,45.4585589],[-73.5717847,45.4581248],[-73.5717917,45.458046],[-73.5717995,45.4579592],[-73.5718041,45.4579077],[-73.5718425,45.4574783],[-73.5718876,45.4569727],[-73.5718941,45.4568999],[-73.5719521,45.4562513],[-73.5719571,45.4561954],[-73.5720038,45.4556784],[-73.572011,45.4555917],[-73.5720687,45.4549452],[-73.5720779,45.4548426]]}";2;Rue de Verdun;2;50;false;false;true;false;false;false;757.0;3;4;0;0;0;false;56588;2709173025;-73.5715073;45.4622166;56686;2709172917;-73.5718173;45.4591362;2;30;31;3545688;Bus 107 : Verdun Sud;"";STM;107-S;des Pins / du Docteur-Penfield;Stephens / LaSalle
476069397;"{\"type\":\"LineString\",\"coordinates\":[[-73.5720779,45.4548426],[-73.5720872,45.4547136]]}";1;Rue de Verdun;2;50;false;false;true;false;false;false;15.0;2;0;0;0;0;false;56582;2710853125;-73.5721543;45.4549497;56578;2710853129;-73.5723855;45.4526346;2;34;35;3545688;Bus 107 : Verdun Sud;"";STM;107-S;des Pins / du Docteur-Penfield;Stephens / LaSalle
265251010;"{\"type\":\"LineString\",\"coordinates\":[[-73.5720872,45.4547136],[-73.5720957,45.4546178],[-73.5721653,45.4538384],[-73.572232,45.4530909],[-73.5722732,45.4526294],[-73.5722836,45.4525132],[-73.5722915,45.4524244],[-73.5723276,45.4520201],[-73.5723823,45.4514071],[-73.5724308,45.4508628],[-73.5724391,45.4507697],[-73.5724484,45.4506663],[-73.5724975,45.4501162],[-73.5725581,45.4494367],[-73.5725667,45.4493402],[-73.5725733,45.4492666],[-73.5726337,45.4485896],[-73.5726766,45.4481085],[-73.5727072,45.4477582],[-73.5727184,45.4476404],[-73.5727797,45.4470443]]}";2;Rue de Verdun;2;50;false;false;true;false;false;false;854.0;2;0;0;0;0;false;56582;2710853125;-73.5721543;45.4549497;56578;2710853129;-73.5723855;45.4526346;2;34;35;3545688;Bus 107 : Verdun Sud;"";STM;107-S;des Pins / du Docteur-Penfield;Stephens / LaSalle
265251010;"{\"type\":\"LineString\",\"coordinates\":[[-73.5720872,45.4547136],[-73.5720957,45.4546178],[-73.5721653,45.4538384],[-73.572232,45.4530909],[-73.5722732,45.4526294],[-73.5722836,45.4525132],[-73.5722915,45.4524244],[-73.5723276,45.4520201],[-73.5723823,45.4514071],[-73.5724308,45.4508628],[-73.5724391,45.4507697],[-73.5724484,45.4506663],[-73.5724975,45.4501162],[-73.5725581,45.4494367],[-73.5725667,45.4493402],[-73.5725733,45.4492666],[-73.5726337,45.4485896],[-73.5726766,45.4481085],[-73.5727072,45.4477582],[-73.5727184,45.4476404],[-73.5727797,45.4470443]]}";1;Rue de Verdun;2;50;false;false;true;false;false;false;427.0;2;0;0;0;0;false;61320;6010976324;-73.572812;45.447872;56704;6010981073;-73.572765;45.446562;1;38;39;3545688;Bus 107 : Verdun Sud;"";STM;107-S;des Pins / du Docteur-Penfield;Stephens / LaSalle
164826466;"{\"type\":\"LineString\",\"coordinates\":[[-73.5724377,45.4470055],[-73.5727797,45.4470443]]}";2;Rue Godin;2;50;false;false;true;false;false;false;14.0;0;0;0;0;0;false;61320;6010976324;-73.572812;45.447872;56704;6010981073;-73.572765;45.446562;1;38;39;3545688;Bus 107 : Verdun Sud;"";STM;107-S;des Pins / du Docteur-Penfield;Stephens / LaSalle
164826466;"{\"type\":\"LineString\",\"coordinates\":[[-73.5724377,45.4470055],[-73.5727797,45.4470443]]}";1;Rue Godin;2;50;false;false;true;false;false;false;14.0;0;0;0;0;0;false;56704;6010981073;-73.572765;45.446562;56565;2710918077;-73.5743593;45.445108;1;39;40;3545688;Bus 107 : Verdun Sud;"";STM;107-S;des Pins / du Docteur-Penfield;Stephens / LaSalle
265251010;"{\"type\":\"LineString\",\"coordinates\":[[-73.5720872,45.4547136],[-73.5720957,45.4546178],[-73.5721653,45.4538384],[-73.572232,45.4530909],[-73.5722732,45.4526294],[-73.5722836,45.4525132],[-73.5722915,45.4524244],[-73.5723276,45.4520201],[-73.5723823,45.4514071],[-73.5724308,45.4508628],[-73.5724391,45.4507697],[-73.5724484,45.4506663],[-73.5724975,45.4501162],[-73.5725581,45.4494367],[-73.5725667,45.4493402],[-73.5725733,45.4492666],[-73.5726337,45.4485896],[-73.5726766,45.4481085],[-73.5727072,45.4477582],[-73.5727184,45.4476404],[-73.5727797,45.4470443]]}";2;Rue de Verdun;2;50;false;false;true;false;false;false;427.0;2;0;0;0;0;false;56704;6010981073;-73.572765;45.446562;56565;2710918077;-73.5743593;45.445108;1;39;40;3545688;Bus 107 : Verdun Sud;"";STM;107-S;des Pins / du Docteur-Penfield;Stephens / LaSalle
164826466;"{\"type\":\"LineString\",\"coordinates\":[[-73.5724377,45.4470055],[-73.5727797,45.4470443]]}";1;Rue Godin;2;50;false;false;true;false;false;false;28.0;0;0;0;0;0;false;56565;2710918077;-73.5743593;45.445108;56552;2710853119;-73.576943;45.4439351;2;40;41;3545688;Bus 107 : Verdun Sud;"";STM;107-S;des Pins / du Docteur-Penfield;Stephens / LaSalle
265251010;"{\"type\":\"LineString\",\"coordinates\":[[-73.5720872,45.4547136],[-73.5720957,45.4546178],[-73.5721653,45.4538384],[-73.572232,45.4530909],[-73.5722732,45.4526294],[-73.5722836,45.4525132],[-73.5722915,45.4524244],[-73.5723276,45.4520201],[-73.5723823,45.4514071],[-73.5724308,45.4508628],[-73.5724391,45.4507697],[-73.5724484,45.4506663],[-73.5724975,45.4501162],[-73.5725581,45.4494367],[-73.5725667,45.4493402],[-73.5725733,45.4492666],[-73.5726337,45.4485896],[-73.5726766,45.4481085],[-73.5727072,45.4477582],[-73.5727184,45.4476404],[-73.5727797,45.4470443]]}";2;Rue de Verdun;2;50;false;false;true;false;false;false;854.0;2;0;0;0;0;false;56565;2710918077;-73.5743593;45.445108;56552;2710853119;-73.576943;45.4439351;1;40;41;3545688;Bus 107 : Verdun Sud;"";STM;107-S;des Pins / du Docteur-Penfield;Stephens / LaSalle
