way_id;shape;index;name;nb_lanes;legal_speed;speed_zone_30;oneway;shares_bike;bike_box;bus_lane;dedicated_bus_lane;length;nb_traffic_signals;nb_crossings;nb_stops;nb_give_ways;nb_lvl_crossings;roundabout;stop_id_orig;node_id_orig;coord_x_orig;coord_y_orig;stop_id_dest;node_id_dest;coord_x_dest;coord_y_dest;nb_neighbouring_ways_bus_stop;ordre_orig;ordre_dest;id_line;line_name;colour;operator;ref;from;to
427806974;"{\"type\":\"LineString\",\"coordinates\":[[-70.563702,-33.5600765],[-70.5635061,-33.5600397],[-70.5633206,-33.5600049],[-70.5623776,-33.5598293],[-70.5621737,-33.5597895],[-70.5618823,-33.5597348],[-70.5616766,-33.5596962],[-70.5607482,-33.5595218],[-70.5600776,-33.5593959],[-70.5594511,-33.5592783],[-70.5593357,-33.5592573]]}";1;Avenida Diego Portales;2;50;false;false;true;false;false;false;522.0;0;0;0;0;0;false;PE279;1175507737;-70.5608904;-33.5596793;PE280;1175507762;-70.559138;-33.5592812;1;1;2;6475738;Diego Portales - Santa Rosa;#00c27f;Buses Vule;E01;Diego Portales;Santa Rosa
170276764;"{\"type\":\"LineString\",\"coordinates\":[[-70.5593357,-33.5592573],[-70.5589883,-33.5592209],[-70.558934,-33.5592154],[-70.5588844,-33.5592143],[-70.5588414,-33.5592154]]}";2;Avenida Diego Portales;1;50;false;true;true;false;false;false;58.5;1;0;0;0;0;false;PE279;1175507737;-70.5608904;-33.5596793;PE280;1175507762;-70.559138;-33.5592812;1;1;2;6475738;Diego Portales - Santa Rosa;#00c27f;Buses Vule;E01;Diego Portales;Santa Rosa
170276764;"{\"type\":\"LineString\",\"coordinates\":[[-70.5593357,-33.5592573],[-70.5589883,-33.5592209],[-70.558934,-33.5592154],[-70.5588844,-33.5592143],[-70.5588414,-33.5592154]]}";1;Avenida Diego Portales;1;50;false;true;true;false;false;false;58.5;1;0;0;0;0;false;PE280;1175507762;-70.559138;-33.5592812;PF11;1175680083;-70.5598541;-33.5574786;1;2;3;6475738;Diego Portales - Santa Rosa;#00c27f;Buses Vule;E01;Diego Portales;Santa Rosa
433122087;"{\"type\":\"LineString\",\"coordinates\":[[-70.5588414,-33.5592154],[-70.5586365,-33.5592274],[-70.558387,-33.5592582]]}";2;Avenida Diego Portales;2;50;false;true;true;false;false;false;107.0;2;0;0;0;0;false;PE280;1175507762;-70.559138;-33.5592812;PF11;1175680083;-70.5598541;-33.5574786;0;2;3;6475738;Diego Portales - Santa Rosa;#00c27f;Buses Vule;E01;Diego Portales;Santa Rosa
438205673;"{\"type\":\"LineString\",\"coordinates\":[[-70.558387,-33.5592582],[-70.5585031,-33.5591267],[-70.5587133,-33.5588784],[-70.5589663,-33.5586251]]}";3;Avenida Camilo Henríquez;3;50;false;true;true;false;false;false;223.0;2;0;0;0;0;false;PE280;1175507762;-70.559138;-33.5592812;PF11;1175680083;-70.5598541;-33.5574786;0;2;3;6475738;Diego Portales - Santa Rosa;#00c27f;Buses Vule;E01;Diego Portales;Santa Rosa
427806969;"{\"type\":\"LineString\",\"coordinates\":[[-70.5589663,-33.5586251],[-70.5590212,-33.5585567],[-70.559298,-33.5582849],[-70.5597808,-33.5576949],[-70.560213,-33.5571692],[-70.5607606,-33.5565031],[-70.5608338,-33.556414],[-70.5608723,-33.5563672]]}";4;Avenida Camilo Henríquez;2;50;false;true;true;false;false;false;385.5;0;1;0;0;0;false;PE280;1175507762;-70.559138;-33.5592812;PF11;1175680083;-70.5598541;-33.5574786;1;2;3;6475738;Diego Portales - Santa Rosa;#00c27f;Buses Vule;E01;Diego Portales;Santa Rosa
427806969;"{\"type\":\"LineString\",\"coordinates\":[[-70.5589663,-33.5586251],[-70.5590212,-33.5585567],[-70.559298,-33.5582849],[-70.5597808,-33.5576949],[-70.560213,-33.5571692],[-70.5607606,-33.5565031],[-70.5608338,-33.556414],[-70.5608723,-33.5563672]]}";1;Avenida Camilo Henríquez;2;50;false;true;true;false;false;false;385.5;0;1;0;0;0;false;PF11;1175680083;-70.5598541;-33.5574786;PE281;1175522878;-70.5668405;-33.5525681;1;3;4;6475738;Diego Portales - Santa Rosa;#00c27f;Buses Vule;E01;Diego Portales;Santa Rosa
437085077;"{\"type\":\"LineString\",\"coordinates\":[[-70.5608723,-33.5563672],[-70.5618817,-33.5551704],[-70.5642005,-33.5523444],[-70.5642718,-33.5522569]]}";2;Avenida Camilo Henríquez;2;50;false;true;true;false;false;false;1393.0;3;0;0;0;0;false;PF11;1175680083;-70.5598541;-33.5574786;PE281;1175522878;-70.5668405;-33.5525681;0;3;4;6475738;Diego Portales - Santa Rosa;#00c27f;Buses Vule;E01;Diego Portales;Santa Rosa
109791013;"{\"type\":\"LineString\",\"coordinates\":[[-70.5642718,-33.5522569],[-70.5644595,-33.5523608],[-70.5645798,-33.55242],[-70.5646448,-33.5524418],[-70.56472,-33.5524517],[-70.5650444,-33.5524594],[-70.5655791,-33.5524827],[-70.5659887,-33.5524997],[-70.5663661,-33.5525153],[-70.5667425,-33.5525338],[-70.5670948,-33.5525522],[-70.5675217,-33.5525703],[-70.5679225,-33.5525873],[-70.5682847,-33.5526076],[-70.5688862,-33.5526328],[-70.57064,-33.552742],[-70.5731515,-33.552843],[-70.5732374,-33.5528465],[-70.573786,-33.5528777],[-70.5739287,-33.5528861],[-70.574329,-33.5528985],[-70.5750661,-33.5529121],[-70.5757703,-33.5529222],[-70.5772478,-33.5529435]]}";3;Avenida San José de La Estrella;2;50;false;true;true;false;false;false;1522.5;3;1;0;0;0;false;PF11;1175680083;-70.5598541;-33.5574786;PE281;1175522878;-70.5668405;-33.5525681;1;3;4;6475738;Diego Portales - Santa Rosa;#00c27f;Buses Vule;E01;Diego Portales;Santa Rosa
109791013;"{\"type\":\"LineString\",\"coordinates\":[[-70.5642718,-33.5522569],[-70.5644595,-33.5523608],[-70.5645798,-33.55242],[-70.5646448,-33.5524418],[-70.56472,-33.5524517],[-70.5650444,-33.5524594],[-70.5655791,-33.5524827],[-70.5659887,-33.5524997],[-70.5663661,-33.5525153],[-70.5667425,-33.5525338],[-70.5670948,-33.5525522],[-70.5675217,-33.5525703],[-70.5679225,-33.5525873],[-70.5682847,-33.5526076],[-70.5688862,-33.5526328],[-70.57064,-33.552742],[-70.5731515,-33.552843],[-70.5732374,-33.5528465],[-70.573786,-33.5528777],[-70.5739287,-33.5528861],[-70.574329,-33.5528985],[-70.5750661,-33.5529121],[-70.5757703,-33.5529222],[-70.5772478,-33.5529435]]}";1;Avenida San José de La Estrella;2;50;false;true;true;false;false;false;1522.5;3;1;0;0;0;false;PE284;1175522834;-70.5770016;-33.5529105;PE285;1175522818;-70.5790181;-33.5530015;1;7;8;6475738;Diego Portales - Santa Rosa;#00c27f;Buses Vule;E01;Diego Portales;Santa Rosa
427806976;"{\"type\":\"LineString\",\"coordinates\":[[-70.5772478,-33.5529435],[-70.5773698,-33.5529959]]}";2;Avenida San José de La Estrella;1;50;false;true;true;false;false;false;32.0;2;0;0;0;0;false;PE284;1175522834;-70.5770016;-33.5529105;PE285;1175522818;-70.5790181;-33.5530015;0;7;8;6475738;Diego Portales - Santa Rosa;#00c27f;Buses Vule;E01;Diego Portales;Santa Rosa
450864543;"{\"type\":\"LineString\",\"coordinates\":[[-70.5773698,-33.5529959],[-70.5778645,-33.5529993],[-70.5782919,-33.5530101],[-70.578723,-33.5530194],[-70.5791112,-33.553029],[-70.5791997,-33.553031],[-70.5801076,-33.5530772],[-70.5810165,-33.5531042],[-70.5812966,-33.5531125]]}";3;Avenida San José de La Estrella;4;50;false;false;true;false;false;false;458.5;2;0;0;0;0;false;PE284;1175522834;-70.5770016;-33.5529105;PE285;1175522818;-70.5790181;-33.5530015;1;7;8;6475738;Diego Portales - Santa Rosa;#00c27f;Buses Vule;E01;Diego Portales;Santa Rosa
450864543;"{\"type\":\"LineString\",\"coordinates\":[[-70.5773698,-33.5529959],[-70.5778645,-33.5529993],[-70.5782919,-33.5530101],[-70.578723,-33.5530194],[-70.5791112,-33.553029],[-70.5791997,-33.553031],[-70.5801076,-33.5530772],[-70.5810165,-33.5531042],[-70.5812966,-33.5531125]]}";1;Avenida San José de La Estrella;4;50;false;false;true;false;false;false;458.5;2;0;0;0;0;false;PE286;1175522811;-70.581175;-33.5530695;PE287;1175522798;-70.5831129;-33.5530962;1;9;10;6475738;Diego Portales - Santa Rosa;#00c27f;Buses Vule;E01;Diego Portales;Santa Rosa
121473293;"{\"type\":\"LineString\",\"coordinates\":[[-70.5812966,-33.5531125],[-70.5820827,-33.5531543],[-70.5822088,-33.553161],[-70.5824885,-33.5531759],[-70.5830432,-33.5532054],[-70.5831529,-33.5532135],[-70.583796,-33.55324],[-70.5838327,-33.5532474],[-70.5844753,-33.5532815],[-70.5847123,-33.5532941],[-70.5852339,-33.5533219],[-70.5857266,-33.5533485],[-70.5863777,-33.5533827],[-70.5864041,-33.5533841]]}";2;Avenida San José de La Estrella;4;60;false;false;true;false;false;false;597.0;2;0;0;0;0;false;PE286;1175522811;-70.581175;-33.5530695;PE287;1175522798;-70.5831129;-33.5530962;1;9;10;6475738;Diego Portales - Santa Rosa;#00c27f;Buses Vule;E01;Diego Portales;Santa Rosa
121473293;"{\"type\":\"LineString\",\"coordinates\":[[-70.5812966,-33.5531125],[-70.5820827,-33.5531543],[-70.5822088,-33.553161],[-70.5824885,-33.5531759],[-70.5830432,-33.5532054],[-70.5831529,-33.5532135],[-70.583796,-33.55324],[-70.5838327,-33.5532474],[-70.5844753,-33.5532815],[-70.5847123,-33.5532941],[-70.5852339,-33.5533219],[-70.5857266,-33.5533485],[-70.5863777,-33.5533827],[-70.5864041,-33.5533841]]}";1;Avenida San José de La Estrella;4;60;false;false;true;false;false;false;597.0;2;0;0;0;0;false;PE247;1175523003;-70.5860238;-33.5532511;PE248;1175522983;-70.5892236;-33.5533804;1;11;12;6475738;Diego Portales - Santa Rosa;#00c27f;Buses Vule;E01;Diego Portales;Santa Rosa
450812612;"{\"type\":\"LineString\",\"coordinates\":[[-70.5864041,-33.5533841],[-70.5865476,-33.5533304]]}";2;Avenida San José de La Estrella;2;60;false;true;true;false;false;false;37.0;2;0;0;0;0;false;PE247;1175523003;-70.5860238;-33.5532511;PE248;1175522983;-70.5892236;-33.5533804;0;11;12;6475738;Diego Portales - Santa Rosa;#00c27f;Buses Vule;E01;Diego Portales;Santa Rosa
450677650;"{\"type\":\"LineString\",\"coordinates\":[[-70.5865476,-33.5533304],[-70.5867703,-33.5533443]]}";3;Avenida San José de La Estrella;2;60;false;true;true;false;false;false;53.0;2;0;0;0;0;false;PE247;1175523003;-70.5860238;-33.5532511;PE248;1175522983;-70.5892236;-33.5533804;0;11;12;6475738;Diego Portales - Santa Rosa;#00c27f;Buses Vule;E01;Diego Portales;Santa Rosa
121473295;"{\"type\":\"LineString\",\"coordinates\":[[-70.5867703,-33.5533443],[-70.5867971,-33.5533433],[-70.588244,-33.5533978],[-70.5886974,-33.5534149],[-70.5894249,-33.5534423],[-70.5896083,-33.5534492],[-70.5900521,-33.553466],[-70.590623,-33.5534889],[-70.5910442,-33.5535034],[-70.5912173,-33.5535099],[-70.5923677,-33.5535525],[-70.5943287,-33.5536297],[-70.5955345,-33.5536767],[-70.5958342,-33.5536892],[-70.5961063,-33.5536999],[-70.5963247,-33.5537084],[-70.5970595,-33.5537372],[-70.5971063,-33.5537392],[-70.5980664,-33.553781],[-70.5992418,-33.5538186],[-70.6000736,-33.5538553],[-70.6002607,-33.5538597],[-70.6010011,-33.5538772],[-70.6017946,-33.5538959],[-70.6019336,-33.5539],[-70.6022686,-33.5539585]]}";4;Avenida San José de La Estrella;2;60;false;true;true;false;false;false;1810.0;4;0;0;0;0;false;PE247;1175523003;-70.5860238;-33.5532511;PE248;1175522983;-70.5892236;-33.5533804;1;11;12;6475738;Diego Portales - Santa Rosa;#00c27f;Buses Vule;E01;Diego Portales;Santa Rosa
121473295;"{\"type\":\"LineString\",\"coordinates\":[[-70.5867703,-33.5533443],[-70.5867971,-33.5533433],[-70.588244,-33.5533978],[-70.5886974,-33.5534149],[-70.5894249,-33.5534423],[-70.5896083,-33.5534492],[-70.5900521,-33.553466],[-70.590623,-33.5534889],[-70.5910442,-33.5535034],[-70.5912173,-33.5535099],[-70.5923677,-33.5535525],[-70.5943287,-33.5536297],[-70.5955345,-33.5536767],[-70.5958342,-33.5536892],[-70.5961063,-33.5536999],[-70.5963247,-33.5537084],[-70.5970595,-33.5537372],[-70.5971063,-33.5537392],[-70.5980664,-33.553781],[-70.5992418,-33.5538186],[-70.6000736,-33.5538553],[-70.6002607,-33.5538597],[-70.6010011,-33.5538772],[-70.6017946,-33.5538959],[-70.6019336,-33.5539],[-70.6022686,-33.5539585]]}";1;Avenida San José de La Estrella;2;60;false;true;true;false;false;false;1810.0;4;0;0;0;0;false;PE252;1175522913;-70.6014838;-33.5538802;PE253;1175522910;-70.6053044;-33.5539375;1;16;17;6475738;Diego Portales - Santa Rosa;#00c27f;Buses Vule;E01;Diego Portales;Santa Rosa
230454850;"{\"type\":\"LineString\",\"coordinates\":[[-70.6022686,-33.5539585],[-70.6023878,-33.5539604],[-70.6027886,-33.5539666],[-70.6029733,-33.5539695]]}";2;Avenida San José de La Estrella;4;50;false;false;true;false;false;false;165.0;0;0;0;0;0;false;PE252;1175522913;-70.6014838;-33.5538802;PE253;1175522910;-70.6053044;-33.5539375;0;16;17;6475738;Diego Portales - Santa Rosa;#00c27f;Buses Vule;E01;Diego Portales;Santa Rosa
451935873;"{\"type\":\"LineString\",\"coordinates\":[[-70.6108753,-33.5540676],[-70.6107487,-33.554062],[-70.6104387,-33.5540489],[-70.6103572,-33.5540461],[-70.6100909,-33.5540422],[-70.6099949,-33.5540416],[-70.6096966,-33.5540398],[-70.6096356,-33.5540394],[-70.6092547,-33.554037],[-70.6089678,-33.5540352],[-70.6085166,-33.5540324],[-70.6078918,-33.5540285],[-70.6073385,-33.5540251],[-70.6068321,-33.5540219],[-70.6067943,-33.5540217],[-70.6056551,-33.5540046],[-70.6051835,-33.5539976],[-70.6050954,-33.553997],[-70.6049563,-33.5539975],[-70.6045521,-33.5539935],[-70.6044926,-33.5539932],[-70.6042745,-33.5539898],[-70.6038663,-33.5539834],[-70.6034612,-33.5539771],[-70.6031078,-33.5539716],[-70.6029733,-33.5539695]]}";3;Avenida San José de La Estrella;4;50;false;false;true;false;false;false;921.5;1;0;0;0;0;false;PE252;1175522913;-70.6014838;-33.5538802;PE253;1175522910;-70.6053044;-33.5539375;1;16;17;6475738;Diego Portales - Santa Rosa;#00c27f;Buses Vule;E01;Diego Portales;Santa Rosa
451935873;"{\"type\":\"LineString\",\"coordinates\":[[-70.6108753,-33.5540676],[-70.6107487,-33.554062],[-70.6104387,-33.5540489],[-70.6103572,-33.5540461],[-70.6100909,-33.5540422],[-70.6099949,-33.5540416],[-70.6096966,-33.5540398],[-70.6096356,-33.5540394],[-70.6092547,-33.554037],[-70.6089678,-33.5540352],[-70.6085166,-33.5540324],[-70.6078918,-33.5540285],[-70.6073385,-33.5540251],[-70.6068321,-33.5540219],[-70.6067943,-33.5540217],[-70.6056551,-33.5540046],[-70.6051835,-33.5539976],[-70.6050954,-33.553997],[-70.6049563,-33.5539975],[-70.6045521,-33.5539935],[-70.6044926,-33.5539932],[-70.6042745,-33.5539898],[-70.6038663,-33.5539834],[-70.6034612,-33.5539771],[-70.6031078,-33.5539716],[-70.6029733,-33.5539695]]}";1;Avenida San José de La Estrella;4;50;false;false;true;false;false;false;921.5;1;0;0;0;0;false;PE255;1175522788;-70.6094933;-33.5539694;PE256;1175522924;-70.612457;-33.5539832;1;19;20;6475738;Diego Portales - Santa Rosa;#00c27f;Buses Vule;E01;Diego Portales;Santa Rosa
484626597;"{\"type\":\"LineString\",\"coordinates\":[[-70.6123766,-33.5540607],[-70.6116905,-33.5540733],[-70.6108753,-33.5540676]]}";2;Avenida San José de La Estrella;1;50;false;false;true;false;false;false;351.0;0;0;0;0;0;false;PE255;1175522788;-70.6094933;-33.5539694;PE256;1175522924;-70.612457;-33.5539832;0;19;20;6475738;Diego Portales - Santa Rosa;#00c27f;Buses Vule;E01;Diego Portales;Santa Rosa
524208594;"{\"type\":\"LineString\",\"coordinates\":[[-70.6123766,-33.5540607],[-70.6127143,-33.5540734]]}";3;Avenida San José de La Estrella;2;50;false;true;true;false;false;false;39.5;1;0;0;0;0;false;PE255;1175522788;-70.6094933;-33.5539694;PE256;1175522924;-70.612457;-33.5539832;1;19;20;6475738;Diego Portales - Santa Rosa;#00c27f;Buses Vule;E01;Diego Portales;Santa Rosa
524208594;"{\"type\":\"LineString\",\"coordinates\":[[-70.6123766,-33.5540607],[-70.6127143,-33.5540734]]}";1;Avenida San José de La Estrella;2;50;false;true;true;false;false;false;39.5;1;0;0;0;0;false;PE256;1175522924;-70.612457;-33.5539832;PE218;1175525611;-70.6131463;-33.5520376;1;20;21;6475738;Diego Portales - Santa Rosa;#00c27f;Buses Vule;E01;Diego Portales;Santa Rosa
437095626;"{\"type\":\"LineString\",\"coordinates\":[[-70.6127143,-33.5540734],[-70.6128226,-33.5536448],[-70.6129201,-33.5532894],[-70.6129904,-33.5530584],[-70.6130099,-33.5529639],[-70.6130908,-33.5526787],[-70.6131042,-33.5526368],[-70.6131864,-33.552354],[-70.6132019,-33.5522862],[-70.6132799,-33.5520145]]}";2;Bahía Catalina;1;50;false;true;true;false;false;false;294.5;1;0;0;0;0;false;PE256;1175522924;-70.612457;-33.5539832;PE218;1175525611;-70.6131463;-33.5520376;1;20;21;6475738;Diego Portales - Santa Rosa;#00c27f;Buses Vule;E01;Diego Portales;Santa Rosa
437095626;"{\"type\":\"LineString\",\"coordinates\":[[-70.6127143,-33.5540734],[-70.6128226,-33.5536448],[-70.6129201,-33.5532894],[-70.6129904,-33.5530584],[-70.6130099,-33.5529639],[-70.6130908,-33.5526787],[-70.6131042,-33.5526368],[-70.6131864,-33.552354],[-70.6132019,-33.5522862],[-70.6132799,-33.5520145]]}";1;Bahía Catalina;1;50;false;true;true;false;false;false;294.5;1;0;0;0;0;false;PE218;1175525611;-70.6131463;-33.5520376;PE257;1175525602;-70.6136522;-33.5504386;1;21;22;6475738;Diego Portales - Santa Rosa;#00c27f;Buses Vule;E01;Diego Portales;Santa Rosa
232995445;"{\"type\":\"LineString\",\"coordinates\":[[-70.6132799,-33.5520145],[-70.6134013,-33.5515967],[-70.6134151,-33.5515568],[-70.6134843,-33.5513123],[-70.613514,-33.5512087],[-70.613559,-33.5510515],[-70.6136124,-33.5508605],[-70.6136475,-33.5507477],[-70.613726,-33.5504795],[-70.6138073,-33.5501872],[-70.6139021,-33.5498526],[-70.6139463,-33.5497028],[-70.6139749,-33.5496028],[-70.6140524,-33.5493192],[-70.6140901,-33.549205],[-70.6142232,-33.5487307]]}";2;Bahía Catalina;1;50;false;true;true;false;false;false;470.5;0;0;0;0;0;false;PE218;1175525611;-70.6131463;-33.5520376;PE257;1175525602;-70.6136522;-33.5504386;1;21;22;6475738;Diego Portales - Santa Rosa;#00c27f;Buses Vule;E01;Diego Portales;Santa Rosa
232995445;"{\"type\":\"LineString\",\"coordinates\":[[-70.6132799,-33.5520145],[-70.6134013,-33.5515967],[-70.6134151,-33.5515568],[-70.6134843,-33.5513123],[-70.613514,-33.5512087],[-70.613559,-33.5510515],[-70.6136124,-33.5508605],[-70.6136475,-33.5507477],[-70.613726,-33.5504795],[-70.6138073,-33.5501872],[-70.6139021,-33.5498526],[-70.6139463,-33.5497028],[-70.6139749,-33.5496028],[-70.6140524,-33.5493192],[-70.6140901,-33.549205],[-70.6142232,-33.5487307]]}";1;Bahía Catalina;1;50;false;true;true;false;false;false;470.5;0;0;0;0;0;false;PE257;1175525602;-70.6136522;-33.5504386;PE258;1175525584;-70.6142295;-33.5483485;1;22;23;6475738;Diego Portales - Santa Rosa;#00c27f;Buses Vule;E01;Diego Portales;Santa Rosa
443816920;"{\"type\":\"LineString\",\"coordinates\":[[-70.6142232,-33.5487307],[-70.6143393,-33.5483431],[-70.6144221,-33.5480641],[-70.6144992,-33.5477691],[-70.6145839,-33.5474897],[-70.6146742,-33.5471788]]}";2;Bahía Catalina;2;50;false;true;true;false;false;false;222.5;0;0;0;0;0;false;PE257;1175525602;-70.6136522;-33.5504386;PE258;1175525584;-70.6142295;-33.5483485;1;22;23;6475738;Diego Portales - Santa Rosa;#00c27f;Buses Vule;E01;Diego Portales;Santa Rosa
351003013;"{\"type\":\"LineString\",\"coordinates\":[[-70.6149354,-33.5466383],[-70.6150418,-33.5465437],[-70.6150715,-33.5465083],[-70.6151294,-33.5464265]]}";1;Coronel;2;50;false;false;true;false;false;false;37.5;1;0;0;0;0;false;PE201;1175399609;-70.6146267;-33.5464693;PE260;1175394754;-70.6150934;-33.5455249;1;24;25;6475738;Diego Portales - Santa Rosa;#00c27f;Buses Vule;E01;Diego Portales;Santa Rosa
438205722;"{\"type\":\"LineString\",\"coordinates\":[[-70.6151737,-33.5463276],[-70.6151294,-33.5464265]]}";2;Coronel;1;50;false;false;true;false;false;false;30.0;2;0;0;0;0;false;PE201;1175399609;-70.6146267;-33.5464693;PE260;1175394754;-70.6150934;-33.5455249;0;24;25;6475738;Diego Portales - Santa Rosa;#00c27f;Buses Vule;E01;Diego Portales;Santa Rosa
39016515;"{\"type\":\"LineString\",\"coordinates\":[[-70.6156338,-33.542483],[-70.6155715,-33.5426363],[-70.615484,-33.5430096],[-70.6153491,-33.5435382],[-70.6153229,-33.5439986],[-70.6152745,-33.5448865],[-70.6152449,-33.545294],[-70.6151737,-33.5463276]]}";3;Coronel;1;50;false;false;true;false;false;false;540.0;1;0;0;0;0;false;PE201;1175399609;-70.6146267;-33.5464693;PE260;1175394754;-70.6150934;-33.5455249;1;24;25;6475738;Diego Portales - Santa Rosa;#00c27f;Buses Vule;E01;Diego Portales;Santa Rosa
39016515;"{\"type\":\"LineString\",\"coordinates\":[[-70.6156338,-33.542483],[-70.6155715,-33.5426363],[-70.615484,-33.5430096],[-70.6153491,-33.5435382],[-70.6153229,-33.5439986],[-70.6152745,-33.5448865],[-70.6152449,-33.545294],[-70.6151737,-33.5463276]]}";1;Coronel;1;50;false;false;true;false;false;false;540.0;1;0;0;0;0;false;PE261;1175394728;-70.6154611;-33.5426206;PE262;1175394696;-70.616137;-33.5392665;1;26;27;6475738;Diego Portales - Santa Rosa;#00c27f;Buses Vule;E01;Diego Portales;Santa Rosa
436178831;"{\"type\":\"LineString\",\"coordinates\":[[-70.6159315,-33.5415781],[-70.6157313,-33.5422797],[-70.6156338,-33.542483]]}";2;Coronel;2;50;false;false;true;false;false;false;262.0;0;0;0;0;0;false;PE261;1175394728;-70.6154611;-33.5426206;PE262;1175394696;-70.616137;-33.5392665;0;26;27;6475738;Diego Portales - Santa Rosa;#00c27f;Buses Vule;E01;Diego Portales;Santa Rosa
36590653;"{\"type\":\"LineString\",\"coordinates\":[[-70.6161289,-33.5408117],[-70.6159315,-33.5415781]]}";3;Coronel;2;50;false;false;true;false;false;false;219.0;0;0;0;0;0;false;PE261;1175394728;-70.6154611;-33.5426206;PE262;1175394696;-70.616137;-33.5392665;0;26;27;6475738;Diego Portales - Santa Rosa;#00c27f;Buses Vule;E01;Diego Portales;Santa Rosa
41290841;"{\"type\":\"LineString\",\"coordinates\":[[-70.6164526,-33.5375413],[-70.6163196,-33.5387656],[-70.6162808,-33.5390834],[-70.6162557,-33.5393985],[-70.6162019,-33.5400262],[-70.6161289,-33.5408117]]}";4;Coronel;2;50;false;false;true;false;false;false;457.0;1;0;0;0;0;false;PE261;1175394728;-70.6154611;-33.5426206;PE262;1175394696;-70.616137;-33.5392665;1;26;27;6475738;Diego Portales - Santa Rosa;#00c27f;Buses Vule;E01;Diego Portales;Santa Rosa
41290841;"{\"type\":\"LineString\",\"coordinates\":[[-70.6164526,-33.5375413],[-70.6163196,-33.5387656],[-70.6162808,-33.5390834],[-70.6162557,-33.5393985],[-70.6162019,-33.5400262],[-70.6161289,-33.5408117]]}";1;Coronel;2;50;false;false;true;false;false;false;457.0;1;0;0;0;0;false;PE263;1175394673;-70.6163515;-33.5377734;PE288;1175394799;-70.6165363;-33.5355464;1;28;29;6475738;Diego Portales - Santa Rosa;#00c27f;Buses Vule;E01;Diego Portales;Santa Rosa
436178833;"{\"type\":\"LineString\",\"coordinates\":[[-70.6166693,-33.5352752],[-70.6165923,-33.5361457],[-70.6165765,-33.53631],[-70.6165238,-33.5368417],[-70.6164526,-33.5375413]]}";2;Coronel;1;50;false;false;true;false;false;false;316.5;1;0;0;0;0;false;PE263;1175394673;-70.6163515;-33.5377734;PE288;1175394799;-70.6165363;-33.5355464;1;28;29;6475738;Diego Portales - Santa Rosa;#00c27f;Buses Vule;E01;Diego Portales;Santa Rosa
436178833;"{\"type\":\"LineString\",\"coordinates\":[[-70.6166693,-33.5352752],[-70.6165923,-33.5361457],[-70.6165765,-33.53631],[-70.6165238,-33.5368417],[-70.6164526,-33.5375413]]}";1;Coronel;1;50;false;false;true;false;false;false;633.0;1;0;0;0;0;false;PE288;1175394799;-70.6165363;-33.5355464;PE289;1175398753;-70.618416;-33.5353661;1;29;30;6475738;Diego Portales - Santa Rosa;#00c27f;Buses Vule;E01;Diego Portales;Santa Rosa
34765250;"{\"type\":\"LineString\",\"coordinates\":[[-70.624744,-33.5358625],[-70.6245269,-33.5358471],[-70.6237613,-33.53579],[-70.6228822,-33.5357283],[-70.6226686,-33.5357088],[-70.6224745,-33.5356928],[-70.6214827,-33.5356223],[-70.6212936,-33.5356044],[-70.6202298,-33.5355382],[-70.6197098,-33.5354935],[-70.6194249,-33.535475],[-70.6190876,-33.5354497],[-70.6186298,-33.5354192],[-70.6181631,-33.5353847],[-70.6174886,-33.5353392],[-70.6166693,-33.5352752]]}";2;Padre Juan Meyer;1;50;false;false;true;false;false;false;945.0;1;0;0;0;0;false;PE288;1175394799;-70.6165363;-33.5355464;PE289;1175398753;-70.618416;-33.5353661;1;29;30;6475738;Diego Portales - Santa Rosa;#00c27f;Buses Vule;E01;Diego Portales;Santa Rosa
34765250;"{\"type\":\"LineString\",\"coordinates\":[[-70.624744,-33.5358625],[-70.6245269,-33.5358471],[-70.6237613,-33.53579],[-70.6228822,-33.5357283],[-70.6226686,-33.5357088],[-70.6224745,-33.5356928],[-70.6214827,-33.5356223],[-70.6212936,-33.5356044],[-70.6202298,-33.5355382],[-70.6197098,-33.5354935],[-70.6194249,-33.535475],[-70.6190876,-33.5354497],[-70.6186298,-33.5354192],[-70.6181631,-33.5353847],[-70.6174886,-33.5353392],[-70.6166693,-33.5352752]]}";1;Padre Juan Meyer;1;50;false;false;true;false;false;false;945.0;1;0;0;0;0;false;PE291;1175398791;-70.6244407;-33.5357452;PE292;1175394871;-70.6246456;-33.5374825;1;32;33;6475738;Diego Portales - Santa Rosa;#00c27f;Buses Vule;E01;Diego Portales;Santa Rosa
436178835;"{\"type\":\"LineString\",\"coordinates\":[[-70.6245616,-33.5375997],[-70.6246711,-33.5365977],[-70.624744,-33.5358625]]}";2;El Tabo;1;50;false;false;true;false;false;false;243.0;1;0;0;0;0;false;PE291;1175398791;-70.6244407;-33.5357452;PE292;1175394871;-70.6246456;-33.5374825;1;32;33;6475738;Diego Portales - Santa Rosa;#00c27f;Buses Vule;E01;Diego Portales;Santa Rosa
436178835;"{\"type\":\"LineString\",\"coordinates\":[[-70.6245616,-33.5375997],[-70.6246711,-33.5365977],[-70.624744,-33.5358625]]}";1;El Tabo;1;50;false;false;true;false;false;false;243.0;1;0;0;0;0;false;PE292;1175394871;-70.6246456;-33.5374825;PE293;1175398946;-70.6287103;-33.5374515;1;33;34;6475738;Diego Portales - Santa Rosa;#00c27f;Buses Vule;E01;Diego Portales;Santa Rosa
129560831;"{\"type\":\"LineString\",\"coordinates\":[[-70.6245616,-33.5375997],[-70.6253349,-33.5375702],[-70.62612,-33.5375259],[-70.6267945,-33.5374929],[-70.6271372,-33.537479],[-70.6274349,-33.5374683],[-70.6275644,-33.5374653]]}";2;Avenida San Gregorio;2;50;false;true;true;false;false;false;702.0;1;0;0;0;0;false;PE292;1175394871;-70.6246456;-33.5374825;PE293;1175398946;-70.6287103;-33.5374515;0;33;34;6475738;Diego Portales - Santa Rosa;#00c27f;Buses Vule;E01;Diego Portales;Santa Rosa
449450529;"{\"type\":\"LineString\",\"coordinates\":[[-70.6275644,-33.5374653],[-70.6277762,-33.5374667],[-70.6290536,-33.5374857],[-70.6302899,-33.5374405],[-70.6308728,-33.5374208],[-70.6311049,-33.537413],[-70.6312898,-33.5374088],[-70.6331044,-33.5373403],[-70.6344249,-33.5373],[-70.6344706,-33.5373146],[-70.6345518,-33.5373564]]}";3;Avenida San Gregorio;2;50;false;true;true;false;false;false;817.5;3;1;0;0;0;false;PE292;1175394871;-70.6246456;-33.5374825;PE293;1175398946;-70.6287103;-33.5374515;1;33;34;6475738;Diego Portales - Santa Rosa;#00c27f;Buses Vule;E01;Diego Portales;Santa Rosa
449450529;"{\"type\":\"LineString\",\"coordinates\":[[-70.6275644,-33.5374653],[-70.6277762,-33.5374667],[-70.6290536,-33.5374857],[-70.6302899,-33.5374405],[-70.6308728,-33.5374208],[-70.6311049,-33.537413],[-70.6312898,-33.5374088],[-70.6331044,-33.5373403],[-70.6344249,-33.5373],[-70.6344706,-33.5373146],[-70.6345518,-33.5373564]]}";1;Avenida San Gregorio;2;50;false;true;true;false;false;false;817.5;3;1;0;0;0;false;PE120;1175399022;-70.6342749;-33.5372549;PG94;1175640914;-70.6345026;-33.5386216;1;35;36;6475738;Diego Portales - Santa Rosa;#00c27f;Buses Vule;E01;Diego Portales;Santa Rosa
436178817;"{\"type\":\"LineString\",\"coordinates\":[[-70.6345518,-33.5373564],[-70.6345283,-33.537755],[-70.6344546,-33.5386586],[-70.6343962,-33.5396935],[-70.6343383,-33.5404822]]}";2;Avenida Santa Rosa;2;50;false;true;true;false;false;false;436.0;2;0;0;0;0;false;PE120;1175399022;-70.6342749;-33.5372549;PG94;1175640914;-70.6345026;-33.5386216;1;35;36;6475738;Diego Portales - Santa Rosa;#00c27f;Buses Vule;E01;Diego Portales;Santa Rosa
436178817;"{\"type\":\"LineString\",\"coordinates\":[[-70.6345518,-33.5373564],[-70.6345283,-33.537755],[-70.6344546,-33.5386586],[-70.6343962,-33.5396935],[-70.6343383,-33.5404822]]}";1;Avenida Santa Rosa;2;50;false;true;true;false;false;false;436.0;2;0;0;0;0;false;PG94;1175640914;-70.6345026;-33.5386216;PG423;1175640933;-70.6344209;-33.5412862;1;36;37;6475738;Diego Portales - Santa Rosa;#00c27f;Buses Vule;E01;Diego Portales;Santa Rosa
451475550;"{\"type\":\"LineString\",\"coordinates\":[[-70.6343383,-33.5404822],[-70.6343032,-33.5409603],[-70.6343066,-33.5412851],[-70.6343284,-33.5413982],[-70.6343291,-33.5414159],[-70.634332,-33.5414796],[-70.6343321,-33.5415099],[-70.6343324,-33.541669],[-70.6343324,-33.5416905],[-70.6343327,-33.5418179],[-70.6343334,-33.5421357]]}";2;Avenida Santa Rosa;2;40;false;true;true;false;false;false;231.0;1;0;0;0;0;false;PG94;1175640914;-70.6345026;-33.5386216;PG423;1175640933;-70.6344209;-33.5412862;1;36;37;6475738;Diego Portales - Santa Rosa;#00c27f;Buses Vule;E01;Diego Portales;Santa Rosa
