way_id;shape;index;name;nb_lanes;legal_speed;speed_zone_30;oneway;shares_bike;bike_box;bus_lane;dedicated_bus_lane;length;nb_traffic_signals;nb_crossings;nb_stops;nb_give_ways;nb_lvl_crossings;roundabout;stop_id_orig;node_id_orig;coord_x_orig;coord_y_orig;stop_id_dest;node_id_dest;coord_x_dest;coord_y_dest;nb_neighbouring_ways_bus_stop;ordre_orig;ordre_dest;id_line;line_name;colour;operator;ref;from;to
117527609;"{\"type\":\"LineString\",\"coordinates\":[[135.7826761,35.040666],[135.7827027,35.0405647],[135.7826918,35.0405315],[135.7821696,35.0388464],[135.7821421,35.0387565],[135.7821256,35.0386987],[135.7820185,35.038341],[135.7817976,35.0376132],[135.7816622,35.0371668],[135.7816357,35.0370795],[135.7815901,35.0369425],[135.7815322,35.0367687],[135.7814395,35.0364653],[135.7813511,35.0361734],[135.7812129,35.0357263],[135.7811594,35.0355276],[135.7810793,35.0352821],[135.7810071,35.0350335],[135.7809672,35.0348971],[135.7809562,35.0348593],[135.7809398,35.0348032],[135.7809289,35.0347662],[135.7808908,35.0346358],[135.780842,35.0344808],[135.7806293,35.0338517],[135.7805273,35.0335292],[135.7803827,35.0330434],[135.7802663,35.0326449],[135.7801203,35.0321685],[135.7799988,35.0317873],[135.7798619,35.0312926],[135.7796234,35.0300849],[135.7796187,35.0300609],[135.7796086,35.0300173],[135.7795677,35.0298401],[135.7794837,35.0294762],[135.7794503,35.0293403],[135.7794456,35.0293211],[135.779383,35.0290667],[135.7793635,35.0289865],[135.779356,35.0289578],[135.7793517,35.0289415],[135.7793222,35.0288304]]}";1;東大路通;1;50;false;true;true;false;false;false;687.5;8;9;0;0;0;false;飛鳥井町;1774463567;135.7802816;35.0325105;百万遍;1774463553;135.7791926;35.0281413;1;3;4;3947931;バス: 206: 北大路バスターミナル => 祗園 => 四条大宮 => 北大路バスターミナル;"";京都市交通局;206;北大路バスターミナル;北大路バスターミナル
273248233;"{\"type\":\"LineString\",\"coordinates\":[[135.7793222,35.0288304],[135.7792985,35.0287414],[135.7792654,35.0286168],[135.779261,35.0286002],[135.7792535,35.0285719],[135.779154,35.0282235],[135.7790198,35.0277751],[135.7789047,35.0273114],[135.7786846,35.0264435],[135.7786639,35.0263434],[135.7786323,35.0252281],[135.778607,35.0231278],[135.7785978,35.0223647],[135.778593,35.0219782],[135.7785916,35.0218581],[135.7785905,35.0217693],[135.778556,35.020994],[135.7785433,35.0206332],[135.7785236,35.0200269],[135.7785016,35.0194701],[135.7784732,35.0185202],[135.778451,35.0176172],[135.7784477,35.0174386],[135.7784463,35.0173616],[135.7784423,35.0171789],[135.7784309,35.0166443],[135.7784153,35.0157208],[135.778414,35.0156733]]}";2;"東大路通;京都市道181号京都環状線";1;50;false;true;true;false;false;false;747.0;8;6;0;0;0;false;飛鳥井町;1774463567;135.7802816;35.0325105;百万遍;1774463553;135.7791926;35.0281413;1;3;4;3947931;バス: 206: 北大路バスターミナル => 祗園 => 四条大宮 => 北大路バスターミナル;"";京都市交通局;206;北大路バスターミナル;北大路バスターミナル
273248233;"{\"type\":\"LineString\",\"coordinates\":[[135.7793222,35.0288304],[135.7792985,35.0287414],[135.7792654,35.0286168],[135.779261,35.0286002],[135.7792535,35.0285719],[135.779154,35.0282235],[135.7790198,35.0277751],[135.7789047,35.0273114],[135.7786846,35.0264435],[135.7786639,35.0263434],[135.7786323,35.0252281],[135.778607,35.0231278],[135.7785978,35.0223647],[135.778593,35.0219782],[135.7785916,35.0218581],[135.7785905,35.0217693],[135.778556,35.020994],[135.7785433,35.0206332],[135.7785236,35.0200269],[135.7785016,35.0194701],[135.7784732,35.0185202],[135.778451,35.0176172],[135.7784477,35.0174386],[135.7784463,35.0173616],[135.7784423,35.0171789],[135.7784309,35.0166443],[135.7784153,35.0157208],[135.778414,35.0156733]]}";1;"東大路通;京都市道181号京都環状線";1;50;false;true;true;false;false;false;747.0;8;6;0;0;0;false;熊野神社前;2503733713;135.7785139;35.0181642;東山二条;2503730840;135.7784379;35.0130096;1;7;8;3947931;バス: 206: 北大路バスターミナル => 祗園 => 四条大宮 => 北大路バスターミナル;"";京都市交通局;206;北大路バスターミナル;北大路バスターミナル
273248234;"{\"type\":\"LineString\",\"coordinates\":[[135.778414,35.0156733],[135.7784118,35.0155041],[135.7784119,35.0154721]]}";2;"東大路通;京都市道181号京都環状線";1;50;false;true;true;false;false;false;23.0;0;1;0;0;0;false;熊野神社前;2503733713;135.7785139;35.0181642;東山二条;2503730840;135.7784379;35.0130096;0;7;8;3947931;バス: 206: 北大路バスターミナル => 祗園 => 四条大宮 => 北大路バスターミナル;"";京都市交通局;206;北大路バスターミナル;北大路バスターミナル
273248232;"{\"type\":\"LineString\",\"coordinates\":[[135.7784119,35.0154721],[135.7784085,35.0154044]]}";3;"東大路通;京都市道181号京都環状線";1;50;false;true;true;false;false;false;8.0;1;0;0;0;0;false;熊野神社前;2503733713;135.7785139;35.0181642;東山二条;2503730840;135.7784379;35.0130096;0;7;8;3947931;バス: 206: 北大路バスターミナル => 祗園 => 四条大宮 => 北大路バスターミナル;"";京都市交通局;206;北大路バスターミナル;北大路バスターミナル
486230756;"{\"type\":\"LineString\",\"coordinates\":[[135.7784085,35.0154044],[135.7784045,35.0153232],[135.7783926,35.0148491],[135.778384,35.0140345],[135.7783783,35.013771],[135.778376,35.0136539],[135.778379,35.0135523],[135.7784069,35.0124858],[135.778419,35.012049],[135.7784288,35.0118233]]}";4;東大路通;1;50;false;true;true;false;false;false;202.5;3;2;0;0;0;false;熊野神社前;2503733713;135.7785139;35.0181642;東山二条;2503730840;135.7784379;35.0130096;1;7;8;3947931;バス: 206: 北大路バスターミナル => 祗園 => 四条大宮 => 北大路バスターミナル;"";京都市交通局;206;北大路バスターミナル;北大路バスターミナル
486230756;"{\"type\":\"LineString\",\"coordinates\":[[135.7784085,35.0154044],[135.7784045,35.0153232],[135.7783926,35.0148491],[135.778384,35.0140345],[135.7783783,35.013771],[135.778376,35.0136539],[135.778379,35.0135523],[135.7784069,35.0124858],[135.778419,35.012049],[135.7784288,35.0118233]]}";1;東大路通;1;50;false;true;true;false;false;false;405.0;3;2;0;0;0;false;東山二条;2503730840;135.7784379;35.0130096;東山仁王門;2503730837;135.7783484;35.010719;1;8;9;3947931;バス: 206: 北大路バスターミナル => 祗園 => 四条大宮 => 北大路バスターミナル;"";京都市交通局;206;北大路バスターミナル;北大路バスターミナル
549739482;"{\"type\":\"LineString\",\"coordinates\":[[135.7784288,35.0118233],[135.7784015,35.0115506],[135.7783927,35.0114919],[135.7783115,35.010716],[135.7782788,35.0104033],[135.7782108,35.0098522],[135.7781796,35.0096173],[135.7781689,35.0095074]]}";2;東大路通;1;50;false;true;true;false;false;false;131.5;2;2;0;0;0;false;東山二条;2503730840;135.7784379;35.0130096;東山仁王門;2503730837;135.7783484;35.010719;1;8;9;3947931;バス: 206: 北大路バスターミナル => 祗園 => 四条大宮 => 北大路バスターミナル;"";京都市交通局;206;北大路バスターミナル;北大路バスターミナル
549739482;"{\"type\":\"LineString\",\"coordinates\":[[135.7784288,35.0118233],[135.7784015,35.0115506],[135.7783927,35.0114919],[135.7783115,35.010716],[135.7782788,35.0104033],[135.7782108,35.0098522],[135.7781796,35.0096173],[135.7781689,35.0095074]]}";1;東大路通;1;50;false;true;true;false;false;false;131.5;2;2;0;0;0;false;東山仁王門;2503730837;135.7783484;35.010719;東山三条;3006140862;135.7781613;35.0090623;1;9;10;3947931;バス: 206: 北大路バスターミナル => 祗園 => 四条大宮 => 北大路バスターミナル;"";京都市交通局;206;北大路バスターミナル;北大路バスターミナル
273248235;"{\"type\":\"LineString\",\"coordinates\":[[135.7781689,35.0095074],[135.7781612,35.0094275]]}";2;東大路通;1;50;false;true;true;false;false;false;10.0;2;0;0;0;0;false;東山仁王門;2503730837;135.7783484;35.010719;東山三条;3006140862;135.7781613;35.0090623;0;9;10;3947931;バス: 206: 北大路バスターミナル => 祗園 => 四条大宮 => 北大路バスターミナル;"";京都市交通局;206;北大路バスターミナル;北大路バスターミナル
550582597;"{\"type\":\"LineString\",\"coordinates\":[[135.7781612,35.0094275],[135.7781523,35.0093363],[135.7781303,35.0091922],[135.7780497,35.0085724],[135.7779836,35.0079646],[135.7779778,35.0079257],[135.777967,35.0078338],[135.7779323,35.0075017],[135.7778535,35.0068697],[135.7778479,35.0068189],[135.7778402,35.0067541],[135.777816,35.0065188],[135.7778128,35.0064876]]}";3;東大路通;1;50;false;true;true;false;false;false;167.0;3;4;0;0;0;false;東山仁王門;2503730837;135.7783484;35.010719;東山三条;3006140862;135.7781613;35.0090623;1;9;10;3947931;バス: 206: 北大路バスターミナル => 祗園 => 四条大宮 => 北大路バスターミナル;"";京都市交通局;206;北大路バスターミナル;北大路バスターミナル
550582597;"{\"type\":\"LineString\",\"coordinates\":[[135.7781612,35.0094275],[135.7781523,35.0093363],[135.7781303,35.0091922],[135.7780497,35.0085724],[135.7779836,35.0079646],[135.7779778,35.0079257],[135.777967,35.0078338],[135.7779323,35.0075017],[135.7778535,35.0068697],[135.7778479,35.0068189],[135.7778402,35.0067541],[135.777816,35.0065188],[135.7778128,35.0064876]]}";1;東大路通;1;50;false;true;true;false;false;false;167.0;3;4;0;0;0;false;東山三条;3006140862;135.7781613;35.0090623;知恩院前;2503718441;135.77785;35.006442;1;10;11;3947931;バス: 206: 北大路バスターミナル => 祗園 => 四条大宮 => 北大路バスターミナル;"";京都市交通局;206;北大路バスターミナル;北大路バスターミナル
550582596;"{\"type\":\"LineString\",\"coordinates\":[[135.7778128,35.0064876],[135.7778029,35.0064005]]}";2;東大路通;1;50;false;true;true;false;false;false;5.0;0;0;0;0;0;false;東山三条;3006140862;135.7781613;35.0090623;知恩院前;2503718441;135.77785;35.006442;1;10;11;3947931;バス: 206: 北大路バスターミナル => 祗園 => 四条大宮 => 北大路バスターミナル;"";京都市交通局;206;北大路バスターミナル;北大路バスターミナル
550582596;"{\"type\":\"LineString\",\"coordinates\":[[135.7778128,35.0064876],[135.7778029,35.0064005]]}";1;東大路通;1;50;false;true;true;false;false;false;10.0;0;0;0;0;0;false;知恩院前;2503718441;135.77785;35.006442;五条坂;3006140858;135.7764919;34.9950591;2;11;12;3947931;バス: 206: 北大路バスターミナル => 祗園 => 四条大宮 => 北大路バスターミナル;"";京都市交通局;206;北大路バスターミナル;北大路バスターミナル
273673336;"{\"type\":\"LineString\",\"coordinates\":[[135.7778029,35.0064005],[135.777755,35.0059594],[135.7777199,35.0055946],[135.7777144,35.0055362],[135.7777081,35.0054805],[135.7776831,35.0052826],[135.777652,35.0050366],[135.7776341,35.0049319],[135.7776061,35.0048058],[135.7775242,35.0044222],[135.7774937,35.0043182],[135.7774596,35.0042295],[135.7774044,35.0041016],[135.7773475,35.0039573],[135.7772823,35.0037434],[135.777224,35.0035178],[135.7771585,35.0032259],[135.7771456,35.0031669],[135.777138,35.0031017],[135.7771417,35.003035],[135.7771601,35.0029468],[135.7772385,35.0027141],[135.7773299,35.002479],[135.7774656,35.0021132],[135.7774728,35.0020856],[135.7774799,35.0020504],[135.7774848,35.002016],[135.7775509,35.001438],[135.777607,35.0009244],[135.7776088,35.0008558],[135.7776013,35.0007754],[135.7774293,34.9998375],[135.7773569,34.9994634],[135.7773454,34.9994039],[135.7773364,34.9993528],[135.7773192,34.9992584],[135.7772168,34.9986987],[135.777206,34.9986356],[135.7771184,34.9981356],[135.7770473,34.9977036],[135.7770345,34.9976293],[135.7770222,34.9975568],[135.7769466,34.9972193],[135.776855,34.996822],[135.7767319,34.9962915],[135.7766565,34.9959539],[135.7766433,34.9958931],[135.7764289,34.9949593],[135.7763886,34.9947813],[135.7763386,34.9946066],[135.7763236,34.9945676],[135.776194,34.9943823]]}";2;東大路通;1;50;false;true;true;false;false;false;1383.0;11;14;0;0;0;false;知恩院前;2503718441;135.77785;35.006442;五条坂;3006140858;135.7764919;34.9950591;2;11;12;3947931;バス: 206: 北大路バスターミナル => 祗園 => 四条大宮 => 北大路バスターミナル;"";京都市交通局;206;北大路バスターミナル;北大路バスターミナル
273673336;"{\"type\":\"LineString\",\"coordinates\":[[135.7778029,35.0064005],[135.777755,35.0059594],[135.7777199,35.0055946],[135.7777144,35.0055362],[135.7777081,35.0054805],[135.7776831,35.0052826],[135.777652,35.0050366],[135.7776341,35.0049319],[135.7776061,35.0048058],[135.7775242,35.0044222],[135.7774937,35.0043182],[135.7774596,35.0042295],[135.7774044,35.0041016],[135.7773475,35.0039573],[135.7772823,35.0037434],[135.777224,35.0035178],[135.7771585,35.0032259],[135.7771456,35.0031669],[135.777138,35.0031017],[135.7771417,35.003035],[135.7771601,35.0029468],[135.7772385,35.0027141],[135.7773299,35.002479],[135.7774656,35.0021132],[135.7774728,35.0020856],[135.7774799,35.0020504],[135.7774848,35.002016],[135.7775509,35.001438],[135.777607,35.0009244],[135.7776088,35.0008558],[135.7776013,35.0007754],[135.7774293,34.9998375],[135.7773569,34.9994634],[135.7773454,34.9994039],[135.7773364,34.9993528],[135.7773192,34.9992584],[135.7772168,34.9986987],[135.777206,34.9986356],[135.7771184,34.9981356],[135.7770473,34.9977036],[135.7770345,34.9976293],[135.7770222,34.9975568],[135.7769466,34.9972193],[135.776855,34.996822],[135.7767319,34.9962915],[135.7766565,34.9959539],[135.7766433,34.9958931],[135.7764289,34.9949593],[135.7763886,34.9947813],[135.7763386,34.9946066],[135.7763236,34.9945676],[135.776194,34.9943823]]}";1;東大路通;1;50;false;true;true;false;false;false;691.5;11;14;0;0;0;false;五条坂;3006140858;135.7764919;34.9950591;馬町;3006140866;135.7748744;34.9920877;1;12;13;3947931;バス: 206: 北大路バスターミナル => 祗園 => 四条大宮 => 北大路バスターミナル;"";京都市交通局;206;北大路バスターミナル;北大路バスターミナル
312174333;"{\"type\":\"LineString\",\"coordinates\":[[135.776194,34.9943823],[135.7759809,34.9941296],[135.7758895,34.9940226],[135.7758104,34.9939301],[135.7755005,34.9935229],[135.7753473,34.9933192],[135.7750646,34.9929361],[135.7749964,34.992837],[135.7749392,34.9927252],[135.7749231,34.9926911],[135.7749069,34.992617],[135.7748887,34.9925134],[135.7748229,34.9919835],[135.774789,34.9916941],[135.7747246,34.991144],[135.7747203,34.9911068],[135.7746448,34.9904627],[135.7745748,34.9896464],[135.7745656,34.9895805],[135.7745434,34.9894214],[135.774523,34.9891972],[135.7744686,34.9890301]]}";2;東大路通;1;50;false;true;true;false;false;false;321.0;6;5;0;0;0;false;五条坂;3006140858;135.7764919;34.9950591;馬町;3006140866;135.7748744;34.9920877;1;12;13;3947931;バス: 206: 北大路バスターミナル => 祗園 => 四条大宮 => 北大路バスターミナル;"";京都市交通局;206;北大路バスターミナル;北大路バスターミナル
312174333;"{\"type\":\"LineString\",\"coordinates\":[[135.776194,34.9943823],[135.7759809,34.9941296],[135.7758895,34.9940226],[135.7758104,34.9939301],[135.7755005,34.9935229],[135.7753473,34.9933192],[135.7750646,34.9929361],[135.7749964,34.992837],[135.7749392,34.9927252],[135.7749231,34.9926911],[135.7749069,34.992617],[135.7748887,34.9925134],[135.7748229,34.9919835],[135.774789,34.9916941],[135.7747246,34.991144],[135.7747203,34.9911068],[135.7746448,34.9904627],[135.7745748,34.9896464],[135.7745656,34.9895805],[135.7745434,34.9894214],[135.774523,34.9891972],[135.7744686,34.9890301]]}";1;東大路通;1;50;false;true;true;false;false;false;321.0;6;5;0;0;0;false;馬町;3006140866;135.7748744;34.9920877;東山七条;3006140861;135.7736029;34.9889919;1;13;14;3947931;バス: 206: 北大路バスターミナル => 祗園 => 四条大宮 => 北大路バスターミナル;"";京都市交通局;206;北大路バスターミナル;北大路バスターミナル
273501214;"{\"type\":\"LineString\",\"coordinates\":[[135.7744686,34.9890301],[135.774281,34.9890234],[135.7742416,34.9890232],[135.7724897,34.989093],[135.7723767,34.9890978],[135.7714034,34.9891381],[135.7713615,34.9891429],[135.7712137,34.9891679],[135.7710336,34.9891983],[135.7709595,34.9892055],[135.7696515,34.9892664],[135.7695785,34.9892697],[135.7694935,34.9892716],[135.7689104,34.9892704],[135.7688511,34.9892699],[135.7681121,34.9892626],[135.7679802,34.9892643]]}";2;"七条通;京都府道113号梅津東山七条線";2;40;false;true;true;false;false;false;302.5;4;6;0;0;0;false;馬町;3006140866;135.7748744;34.9920877;東山七条;3006140861;135.7736029;34.9889919;1;13;14;3947931;バス: 206: 北大路バスターミナル => 祗園 => 四条大宮 => 北大路バスターミナル;"";京都市交通局;206;北大路バスターミナル;北大路バスターミナル
273501214;"{\"type\":\"LineString\",\"coordinates\":[[135.7744686,34.9890301],[135.774281,34.9890234],[135.7742416,34.9890232],[135.7724897,34.989093],[135.7723767,34.9890978],[135.7714034,34.9891381],[135.7713615,34.9891429],[135.7712137,34.9891679],[135.7710336,34.9891983],[135.7709595,34.9892055],[135.7696515,34.9892664],[135.7695785,34.9892697],[135.7694935,34.9892716],[135.7689104,34.9892704],[135.7688511,34.9892699],[135.7681121,34.9892626],[135.7679802,34.9892643]]}";1;"七条通;京都府道113号梅津東山七条線";2;40;false;true;true;false;false;false;302.5;4;6;0;0;0;false;七条京阪前;3006140856;135.7691048;34.9892208;七条河原町;3006140857;135.763664;34.9891786;1;16;17;3947931;バス: 206: 北大路バスターミナル => 祗園 => 四条大宮 => 北大路バスターミナル;"";京都市交通局;206;北大路バスターミナル;北大路バスターミナル
711986123;"{\"type\":\"LineString\",\"coordinates\":[[135.7679802,34.9892643],[135.7678608,34.9892658]]}";2;"七条通;京都府道113号梅津東山七条線";2;40;false;true;true;false;false;false;12.0;2;0;0;0;0;false;七条京阪前;3006140856;135.7691048;34.9892208;七条河原町;3006140857;135.763664;34.9891786;0;16;17;3947931;バス: 206: 北大路バスターミナル => 祗園 => 四条大宮 => 北大路バスターミナル;"";京都市交通局;206;北大路バスターミナル;北大路バスターミナル
273501226;"{\"type\":\"LineString\",\"coordinates\":[[135.7678608,34.9892658],[135.7677482,34.9892672],[135.7676655,34.9892684]]}";3;"七条通;京都府道113号梅津東山七条線";2;40;false;true;true;false;false;false;19.0;1;1;0;0;0;false;七条京阪前;3006140856;135.7691048;34.9892208;七条河原町;3006140857;135.763664;34.9891786;0;16;17;3947931;バス: 206: 北大路バスターミナル => 祗園 => 四条大宮 => 北大路バスターミナル;"";京都市交通局;206;北大路バスターミナル;北大路バスターミナル
273501223;"{\"type\":\"LineString\",\"coordinates\":[[135.7676655,34.9892684],[135.7667462,34.9892638]]}";4;"七条通;京都府道113号梅津東山七条線";2;40;false;true;true;false;false;false;86.0;0;0;0;0;0;false;七条京阪前;3006140856;135.7691048;34.9892208;七条河原町;3006140857;135.763664;34.9891786;0;16;17;3947931;バス: 206: 北大路バスターミナル => 祗園 => 四条大宮 => 北大路バスターミナル;"";京都市交通局;206;北大路バスターミナル;北大路バスターミナル
273501227;"{\"type\":\"LineString\",\"coordinates\":[[135.7667462,34.9892638],[135.7661788,34.9892539],[135.7660631,34.9892501],[135.7659634,34.9892474],[135.765878,34.9892466],[135.7655672,34.9892439],[135.7644319,34.9892152],[135.7642097,34.9892618]]}";5;七条通;2;40;false;true;true;false;false;false;237.0;1;2;0;0;0;false;七条京阪前;3006140856;135.7691048;34.9892208;七条河原町;3006140857;135.763664;34.9891786;0;16;17;3947931;バス: 206: 北大路バスターミナル => 祗園 => 四条大宮 => 北大路バスターミナル;"";京都市交通局;206;北大路バスターミナル;北大路バスターミナル
273673348;"{\"type\":\"LineString\",\"coordinates\":[[135.7610932,34.9892434],[135.7618719,34.989248],[135.762342,34.9892508],[135.7626192,34.9892524],[135.7627822,34.9892534],[135.7629791,34.9892545],[135.7633693,34.9892568],[135.7634272,34.9892572],[135.7636617,34.9892586],[135.7637831,34.9892593],[135.7639686,34.9892604],[135.7641499,34.9892614],[135.7642097,34.9892618]]}";6;七条通;4;40;false;false;true;false;false;false;290.0;4;2;0;0;0;false;七条京阪前;3006140856;135.7691048;34.9892208;七条河原町;3006140857;135.763664;34.9891786;1;16;17;3947931;バス: 206: 北大路バスターミナル => 祗園 => 四条大宮 => 北大路バスターミナル;"";京都市交通局;206;北大路バスターミナル;北大路バスターミナル
