way_id;shape;index;name;nb_lanes;legal_speed;speed_zone_30;oneway;shares_bike;bike_box;bus_lane;dedicated_bus_lane;length;nb_traffic_signals;nb_crossings;nb_stops;nb_give_ways;nb_lvl_crossings;roundabout;stop_id_orig;node_id_orig;coord_x_orig;coord_y_orig;stop_id_dest;node_id_dest;coord_x_dest;coord_y_dest;nb_neighbouring_ways_bus_stop;ordre_orig;ordre_dest;id_line;line_name;colour;operator;ref;from;to
531152680;"{\"type\":\"LineString\",\"coordinates\":[[135.7393003,34.9962123],[135.7394675,34.9962145],[135.7395119,34.9962151],[135.7401118,34.9962229],[135.740765,34.9962314],[135.7413053,34.9962384],[135.7414321,34.9962401],[135.7417426,34.9962441],[135.7418761,34.9962459],[135.7426064,34.9962554]]}";1;五条通;1;50;false;true;true;false;false;false;154.0;3;4;0;0;0;false;京都リサーチパーク前;1854284660;135.740554;34.9963082;五条壬生川;3000027408;135.7468457;34.9964505;1;0;1;3939845;バス: 75: 山越中町 => 京都駅前;"";京都市交通局;75;"";京都駅前
531152683;"{\"type\":\"LineString\",\"coordinates\":[[135.7426064,34.9962554],[135.7427901,34.9962628],[135.7438059,34.9963039],[135.7444874,34.9963163],[135.745097,34.9963285],[135.7459884,34.9963547],[135.7470264,34.9963851],[135.7475639,34.9964009],[135.7483492,34.996424],[135.7489181,34.9964407],[135.7491844,34.9964485]]}";2;五条通;4;50;false;true;true;false;false;false;306.0;4;2;0;0;0;false;京都リサーチパーク前;1854284660;135.740554;34.9963082;五条壬生川;3000027408;135.7468457;34.9964505;1;0;1;3939845;バス: 75: 山越中町 => 京都駅前;"";京都市交通局;75;"";京都駅前
531152683;"{\"type\":\"LineString\",\"coordinates\":[[135.7426064,34.9962554],[135.7427901,34.9962628],[135.7438059,34.9963039],[135.7444874,34.9963163],[135.745097,34.9963285],[135.7459884,34.9963547],[135.7470264,34.9963851],[135.7475639,34.9964009],[135.7483492,34.996424],[135.7489181,34.9964407],[135.7491844,34.9964485]]}";1;五条通;4;50;false;true;true;false;false;false;612.0;4;2;0;0;0;false;五条壬生川;3000027408;135.7468457;34.9964505;大宮五条;1854284601;135.7497813;34.9965148;1;1;2;3939845;バス: 75: 山越中町 => 京都駅前;"";京都市交通局;75;"";京都駅前
531155902;"{\"type\":\"LineString\",\"coordinates\":[[135.7491844,34.9964485],[135.7494125,34.9964502],[135.7500053,34.9964546]]}";2;五条通;4;50;false;true;true;false;false;false;38.5;1;1;0;0;0;false;五条壬生川;3000027408;135.7468457;34.9964505;大宮五条;1854284601;135.7497813;34.9965148;1;1;2;3939845;バス: 75: 山越中町 => 京都駅前;"";京都市交通局;75;"";京都駅前
531155902;"{\"type\":\"LineString\",\"coordinates\":[[135.7491844,34.9964485],[135.7494125,34.9964502],[135.7500053,34.9964546]]}";1;五条通;4;50;false;true;true;false;false;false;38.5;1;1;0;0;0;false;大宮五条;1854284601;135.7497813;34.9965148;堀川五条;3000027409;135.7527273;34.9956062;1;2;3;3939845;バス: 75: 山越中町 => 京都駅前;"";京都市交通局;75;"";京都駅前
531155904;"{\"type\":\"LineString\",\"coordinates\":[[135.7500053,34.9964546],[135.7506834,34.9964322],[135.75145,34.9964058],[135.7517732,34.9963981],[135.7522574,34.9963824]]}";2;五条通;1;50;false;true;true;false;false;false;210.0;2;0;0;0;0;false;大宮五条;1854284601;135.7497813;34.9965148;堀川五条;3000027409;135.7527273;34.9956062;0;2;3;3939845;バス: 75: 山越中町 => 京都駅前;"";京都市交通局;75;"";京都駅前
195261028;"{\"type\":\"LineString\",\"coordinates\":[[135.7522574,34.9963824],[135.752487,34.9963685]]}";3;五条通;4;50;false;true;true;false;false;false;22.0;2;0;0;0;0;false;大宮五条;1854284601;135.7497813;34.9965148;堀川五条;3000027409;135.7527273;34.9956062;0;2;3;3939845;バス: 75: 山越中町 => 京都駅前;"";京都市交通局;75;"";京都駅前
26295711;"{\"type\":\"LineString\",\"coordinates\":[[135.752487,34.9963685],[135.7525429,34.9961814]]}";4;堀川通;1;50;false;true;true;false;false;false;22.0;2;0;0;0;0;false;大宮五条;1854284601;135.7497813;34.9965148;堀川五条;3000027409;135.7527273;34.9956062;0;2;3;3939845;バス: 75: 山越中町 => 京都駅前;"";京都市交通局;75;"";京都駅前
152431706;"{\"type\":\"LineString\",\"coordinates\":[[135.7525429,34.9961814],[135.7526114,34.9956746],[135.7526086,34.9952628],[135.752656,34.9941215],[135.752663,34.9936435],[135.7526641,34.9934473],[135.7526654,34.9934242],[135.7526688,34.9933968],[135.7526748,34.993366],[135.7526855,34.9933325],[135.7527003,34.993294],[135.7527159,34.9932619],[135.7527442,34.9932195],[135.7527586,34.9931995],[135.7527774,34.9931781],[135.7528713,34.9930913],[135.7528894,34.9930732],[135.7529095,34.9930529],[135.7529269,34.9930314],[135.7529645,34.9929848],[135.7529832,34.9929589],[135.752998,34.9929326],[135.7530154,34.9929029],[135.7530274,34.99288],[135.7530389,34.9928557],[135.753049,34.9928276],[135.753057,34.9928029],[135.7530618,34.9927736],[135.7530686,34.9926524],[135.7530951,34.9914949],[135.7531238,34.9903294],[135.7531503,34.9894464],[135.7531521,34.9892281]]}";5;堀川通;2;50;false;true;true;false;false;false;398.5;5;0;0;0;0;false;大宮五条;1854284601;135.7497813;34.9965148;堀川五条;3000027409;135.7527273;34.9956062;1;2;3;3939845;バス: 75: 山越中町 => 京都駅前;"";京都市交通局;75;"";京都駅前
152431706;"{\"type\":\"LineString\",\"coordinates\":[[135.7525429,34.9961814],[135.7526114,34.9956746],[135.7526086,34.9952628],[135.752656,34.9941215],[135.752663,34.9936435],[135.7526641,34.9934473],[135.7526654,34.9934242],[135.7526688,34.9933968],[135.7526748,34.993366],[135.7526855,34.9933325],[135.7527003,34.993294],[135.7527159,34.9932619],[135.7527442,34.9932195],[135.7527586,34.9931995],[135.7527774,34.9931781],[135.7528713,34.9930913],[135.7528894,34.9930732],[135.7529095,34.9930529],[135.7529269,34.9930314],[135.7529645,34.9929848],[135.7529832,34.9929589],[135.752998,34.9929326],[135.7530154,34.9929029],[135.7530274,34.99288],[135.7530389,34.9928557],[135.753049,34.9928276],[135.753057,34.9928029],[135.7530618,34.9927736],[135.7530686,34.9926524],[135.7530951,34.9914949],[135.7531238,34.9903294],[135.7531503,34.9894464],[135.7531521,34.9892281]]}";1;堀川通;2;50;false;true;true;false;false;false;398.5;5;0;0;0;0;false;七条堀川;3000027406;135.7532287;34.9898222;下京区総合庁舎前;3000027407;135.7560355;34.9872534;1;5;6;3939845;バス: 75: 山越中町 => 京都駅前;"";京都市交通局;75;"";京都駅前
296688031;"{\"type\":\"LineString\",\"coordinates\":[[135.7531521,34.9892281],[135.7531545,34.9890222],[135.7531577,34.9887463],[135.7531634,34.9879379],[135.7531489,34.9878588],[135.7531516,34.9874737],[135.7531607,34.9871778]]}";2;堀川通;2;50;false;true;true;false;false;false;232.0;2;0;0;0;0;false;七条堀川;3000027406;135.7532287;34.9898222;下京区総合庁舎前;3000027407;135.7560355;34.9872534;0;5;6;3939845;バス: 75: 山越中町 => 京都駅前;"";京都市交通局;75;"";京都駅前
117061096;"{\"type\":\"LineString\",\"coordinates\":[[135.7531607,34.9871778],[135.7536075,34.9871803],[135.753835,34.9871816],[135.7543084,34.9871842],[135.754539,34.9871855],[135.755108,34.9871886],[135.7552135,34.9871892],[135.7552465,34.9871948]]}";3;塩小路通;2;50;false;true;true;false;false;false;194.0;2;2;0;0;0;false;七条堀川;3000027406;135.7532287;34.9898222;下京区総合庁舎前;3000027407;135.7560355;34.9872534;0;5;6;3939845;バス: 75: 山越中町 => 京都駅前;"";京都市交通局;75;"";京都駅前
27574598;"{\"type\":\"LineString\",\"coordinates\":[[135.7552465,34.9871948],[135.7553143,34.9871958],[135.7554202,34.9871975],[135.7566654,34.9872171],[135.7567384,34.9872183],[135.7567698,34.9872188],[135.7568047,34.9872193],[135.7568865,34.9872206],[135.7573613,34.9872281],[135.7575017,34.9872303],[135.7575775,34.9872315]]}";4;塩小路通;2;50;false;true;true;false;false;false;217.0;3;6;0;0;0;false;七条堀川;3000027406;135.7532287;34.9898222;下京区総合庁舎前;3000027407;135.7560355;34.9872534;1;5;6;3939845;バス: 75: 山越中町 => 京都駅前;"";京都市交通局;75;"";京都駅前
