way_id;shape;index;name;nb_lanes;legal_speed;speed_zone_30;oneway;shares_bike;bike_box;bus_lane;dedicated_bus_lane;length;nb_traffic_signals;nb_crossings;nb_stops;nb_give_ways;nb_lvl_crossings;roundabout;stop_id_orig;node_id_orig;coord_x_orig;coord_y_orig;stop_id_dest;node_id_dest;coord_x_dest;coord_y_dest;nb_neighbouring_ways_bus_stop;ordre_orig;ordre_dest;id_line;line_name;colour;operator;ref;from;to
683409566;"{\"type\":\"LineString\",\"coordinates\":[[-73.6831523,45.5132689],[-73.6828242,45.5130699]]}";1;Rue Gohier;1;50;false;false;true;false;false;false;34.0;0;0;0;0;0;false;"40151;40251";6269512750;-73.6829389;45.5134188;41899;6269512742;-73.69949;45.517384;1;0;1;9312807;Bus : 151 N - Direction Sainte-Rose;"";STL;151N;Métro Côte-Vertu Quai:19;Dufferin / Chemin De Fer C.P.
436375742;"{\"type\":\"LineString\",\"coordinates\":[[-73.6835316,45.5134991],[-73.6831523,45.5132689]]}";2;Rue Gohier;1;50;false;false;true;false;false;false;40.0;1;0;0;0;0;false;"40151;40251";6269512750;-73.6829389;45.5134188;41899;6269512742;-73.69949;45.517384;0;0;1;9312807;Bus : 151 N - Direction Sainte-Rose;"";STL;151N;Métro Côte-Vertu Quai:19;Dufferin / Chemin De Fer C.P.
436375741;"{\"type\":\"LineString\",\"coordinates\":[[-73.6836699,45.513583],[-73.6835316,45.5134991]]}";3;Rue Gohier;1;50;false;false;true;false;false;false;15.0;2;0;0;0;0;false;"40151;40251";6269512750;-73.6829389;45.5134188;41899;6269512742;-73.69949;45.517384;0;0;1;9312807;Bus : 151 N - Direction Sainte-Rose;"";STL;151N;Métro Côte-Vertu Quai:19;Dufferin / Chemin De Fer C.P.
436375740;"{\"type\":\"LineString\",\"coordinates\":[[-73.6836699,45.513583],[-73.6838898,45.5134079],[-73.6841428,45.5132063],[-73.6843893,45.51301],[-73.6845255,45.5129015],[-73.6845765,45.5128608]]}";4;Boulevard de la Côte-Vertu;1;50;false;true;true;false;false;false;107.0;1;0;0;0;0;false;"40151;40251";6269512750;-73.6829389;45.5134188;41899;6269512742;-73.69949;45.517384;0;0;1;9312807;Bus : 151 N - Direction Sainte-Rose;"";STL;151N;Métro Côte-Vertu Quai:19;Dufferin / Chemin De Fer C.P.
436375482;"{\"type\":\"LineString\",\"coordinates\":[[-73.6845765,45.5128608],[-73.6848043,45.5126795]]}";5;Boulevard de la Côte-Vertu;1;50;false;true;true;false;false;false;27.0;0;0;0;0;0;false;"40151;40251";6269512750;-73.6829389;45.5134188;41899;6269512742;-73.69949;45.517384;0;0;1;9312807;Bus : 151 N - Direction Sainte-Rose;"";STL;151N;Métro Côte-Vertu Quai:19;Dufferin / Chemin De Fer C.P.
436375481;"{\"type\":\"LineString\",\"coordinates\":[[-73.6848043,45.5126795],[-73.6855488,45.5120865]]}";6;Boulevard de la Côte-Vertu;1;50;false;true;true;false;false;false;88.0;0;0;0;0;0;false;"40151;40251";6269512750;-73.6829389;45.5134188;41899;6269512742;-73.69949;45.517384;0;0;1;9312807;Bus : 151 N - Direction Sainte-Rose;"";STL;151N;Métro Côte-Vertu Quai:19;Dufferin / Chemin De Fer C.P.
436375371;"{\"type\":\"LineString\",\"coordinates\":[[-73.6855488,45.5120865],[-73.6866465,45.5112121]]}";7;Boulevard de la Côte-Vertu;1;50;false;true;true;false;false;false;130.0;1;0;0;0;0;false;"40151;40251";6269512750;-73.6829389;45.5134188;41899;6269512742;-73.69949;45.517384;0;0;1;9312807;Bus : 151 N - Direction Sainte-Rose;"";STL;151N;Métro Côte-Vertu Quai:19;Dufferin / Chemin De Fer C.P.
436375274;"{\"type\":\"LineString\",\"coordinates\":[[-73.6866465,45.5112121],[-73.6867861,45.5111068],[-73.6877619,45.5103699]]}";8;Boulevard de la Côte-Vertu;1;50;false;true;true;false;false;false;128.0;1;0;0;0;0;false;"40151;40251";6269512750;-73.6829389;45.5134188;41899;6269512742;-73.69949;45.517384;0;0;1;9312807;Bus : 151 N - Direction Sainte-Rose;"";STL;151N;Métro Côte-Vertu Quai:19;Dufferin / Chemin De Fer C.P.
453489295;"{\"type\":\"LineString\",\"coordinates\":[[-73.6877619,45.5103699],[-73.6880358,45.5101493]]}";9;Boulevard de la Côte-Vertu;1;50;false;true;true;false;false;false;33.0;0;0;0;0;0;false;"40151;40251";6269512750;-73.6829389;45.5134188;41899;6269512742;-73.69949;45.517384;0;0;1;9312807;Bus : 151 N - Direction Sainte-Rose;"";STL;151N;Métro Côte-Vertu Quai:19;Dufferin / Chemin De Fer C.P.
436515364;"{\"type\":\"LineString\",\"coordinates\":[[-73.6880358,45.5101493],[-73.6885029,45.5104324]]}";10;Boulevard Marcel-Laurin;3;50;false;true;true;false;false;false;49.0;0;0;0;0;0;false;"40151;40251";6269512750;-73.6829389;45.5134188;41899;6269512742;-73.69949;45.517384;0;0;1;9312807;Bus : 151 N - Direction Sainte-Rose;"";STL;151N;Métro Côte-Vertu Quai:19;Dufferin / Chemin De Fer C.P.
453489294;"{\"type\":\"LineString\",\"coordinates\":[[-73.6885029,45.5104324],[-73.6891947,45.5108709],[-73.6895944,45.5111243],[-73.6907958,45.5118858],[-73.6915553,45.5123673]]}";11;Boulevard Marcel-Laurin;3;50;false;true;true;false;false;false;321.0;1;0;0;0;0;false;"40151;40251";6269512750;-73.6829389;45.5134188;41899;6269512742;-73.69949;45.517384;0;0;1;9312807;Bus : 151 N - Direction Sainte-Rose;"";STL;151N;Métro Côte-Vertu Quai:19;Dufferin / Chemin De Fer C.P.
561749069;"{\"type\":\"LineString\",\"coordinates\":[[-73.6915553,45.5123673],[-73.69268,45.5130802],[-73.6928161,45.5131664]]}";12;Boulevard Marcel-Laurin;3;50;false;true;true;false;false;false;133.0;2;0;0;0;0;false;"40151;40251";6269512750;-73.6829389;45.5134188;41899;6269512742;-73.69949;45.517384;0;0;1;9312807;Bus : 151 N - Direction Sainte-Rose;"";STL;151N;Métro Côte-Vertu Quai:19;Dufferin / Chemin De Fer C.P.
436517277;"{\"type\":\"LineString\",\"coordinates\":[[-73.6928161,45.5131664],[-73.6929326,45.5132415]]}";13;Boulevard Marcel-Laurin;3;50;false;true;true;false;false;false;13.0;1;0;0;0;0;false;"40151;40251";6269512750;-73.6829389;45.5134188;41899;6269512742;-73.69949;45.517384;0;0;1;9312807;Bus : 151 N - Direction Sainte-Rose;"";STL;151N;Métro Côte-Vertu Quai:19;Dufferin / Chemin De Fer C.P.
453734805;"{\"type\":\"LineString\",\"coordinates\":[[-73.6929326,45.5132415],[-73.6950795,45.5145689],[-73.6951069,45.5145858]]}";14;Boulevard Marcel-Laurin;3;50;false;true;true;false;false;false;227.0;0;0;0;0;0;false;"40151;40251";6269512750;-73.6829389;45.5134188;41899;6269512742;-73.69949;45.517384;0;0;1;9312807;Bus : 151 N - Direction Sainte-Rose;"";STL;151N;Métro Côte-Vertu Quai:19;Dufferin / Chemin De Fer C.P.
436517541;"{\"type\":\"LineString\",\"coordinates\":[[-73.6951069,45.5145858],[-73.6972635,45.5159191]]}";15;Boulevard Marcel-Laurin;3;50;false;true;true;false;false;false;225.0;0;0;0;0;0;false;"40151;40251";6269512750;-73.6829389;45.5134188;41899;6269512742;-73.69949;45.517384;0;0;1;9312807;Bus : 151 N - Direction Sainte-Rose;"";STL;151N;Métro Côte-Vertu Quai:19;Dufferin / Chemin De Fer C.P.
436518945;"{\"type\":\"LineString\",\"coordinates\":[[-73.6972635,45.5159191],[-73.6974499,45.5160344],[-73.6984537,45.5166602]]}";16;Boulevard Marcel-Laurin;3;50;false;true;true;false;false;false;125.0;0;0;0;0;0;false;"40151;40251";6269512750;-73.6829389;45.5134188;41899;6269512742;-73.69949;45.517384;0;0;1;9312807;Bus : 151 N - Direction Sainte-Rose;"";STL;151N;Métro Côte-Vertu Quai:19;Dufferin / Chemin De Fer C.P.
346310736;"{\"type\":\"LineString\",\"coordinates\":[[-73.6984537,45.5166602],[-73.699756,45.5174604],[-73.6998279,45.5175046]]}";17;Boulevard Marcel-Laurin;3;50;false;true;true;false;false;false;71.5;1;0;0;0;0;false;"40151;40251";6269512750;-73.6829389;45.5134188;41899;6269512742;-73.69949;45.517384;1;0;1;9312807;Bus : 151 N - Direction Sainte-Rose;"";STL;151N;Métro Côte-Vertu Quai:19;Dufferin / Chemin De Fer C.P.
346310736;"{\"type\":\"LineString\",\"coordinates\":[[-73.6984537,45.5166602],[-73.699756,45.5174604],[-73.6998279,45.5175046]]}";1;Boulevard Marcel-Laurin;3;50;false;true;true;false;false;false;71.5;1;0;0;0;0;false;41899;6269512742;-73.69949;45.517384;41897;6269511953;-73.70806;45.522642;1;1;2;9312807;Bus : 151 N - Direction Sainte-Rose;"";STL;151N;Métro Côte-Vertu Quai:19;Dufferin / Chemin De Fer C.P.
453249886;"{\"type\":\"LineString\",\"coordinates\":[[-73.6998279,45.5175046],[-73.6999122,45.5175612]]}";2;Boulevard Marcel-Laurin;3;50;false;true;true;false;false;false;10.0;0;0;0;0;0;false;41899;6269512742;-73.69949;45.517384;41897;6269511953;-73.70806;45.522642;0;1;2;9312807;Bus : 151 N - Direction Sainte-Rose;"";STL;151N;Métro Côte-Vertu Quai:19;Dufferin / Chemin De Fer C.P.
436519245;"{\"type\":\"LineString\",\"coordinates\":[[-73.6999122,45.5175612],[-73.7007592,45.5180826],[-73.7016417,45.518626]]}";3;Boulevard Marcel-Laurin;3;50;false;true;true;false;false;false;180.0;1;0;0;0;0;false;41899;6269512742;-73.69949;45.517384;41897;6269511953;-73.70806;45.522642;0;1;2;9312807;Bus : 151 N - Direction Sainte-Rose;"";STL;151N;Métro Côte-Vertu Quai:19;Dufferin / Chemin De Fer C.P.
436520268;"{\"type\":\"LineString\",\"coordinates\":[[-73.7016417,45.518626],[-73.7033278,45.5196684],[-73.7038305,45.5199791],[-73.7050289,45.52072]]}";4;Boulevard Marcel-Laurin;3;50;false;true;true;false;false;false;353.0;1;0;0;0;0;false;41899;6269512742;-73.69949;45.517384;41897;6269511953;-73.70806;45.522642;0;1;2;9312807;Bus : 151 N - Direction Sainte-Rose;"";STL;151N;Métro Côte-Vertu Quai:19;Dufferin / Chemin De Fer C.P.
436518947;"{\"type\":\"LineString\",\"coordinates\":[[-73.7050289,45.52072],[-73.705392,45.5209162],[-73.7055537,45.5209976]]}";5;Boulevard Marcel-Laurin;3;50;false;true;true;false;false;false;52.0;1;0;0;0;0;false;41899;6269512742;-73.69949;45.517384;41897;6269511953;-73.70806;45.522642;0;1;2;9312807;Bus : 151 N - Direction Sainte-Rose;"";STL;151N;Métro Côte-Vertu Quai:19;Dufferin / Chemin De Fer C.P.
5028790;"{\"type\":\"LineString\",\"coordinates\":[[-73.7055537,45.5209976],[-73.705802,45.5211304],[-73.7060866,45.5212918],[-73.7065589,45.5215394],[-73.7070962,45.5218624]]}";6;Boulevard Marcel-Laurin;1;50;false;true;true;false;false;false;155.0;1;0;0;0;0;false;41899;6269512742;-73.69949;45.517384;41897;6269511953;-73.70806;45.522642;0;1;2;9312807;Bus : 151 N - Direction Sainte-Rose;"";STL;151N;Métro Côte-Vertu Quai:19;Dufferin / Chemin De Fer C.P.
436520672;"{\"type\":\"LineString\",\"coordinates\":[[-73.7070962,45.5218624],[-73.7075549,45.5221641]]}";7;Boulevard Marcel-Laurin;1;50;false;true;true;false;false;false;50.0;1;0;0;0;0;false;41899;6269512742;-73.69949;45.517384;41897;6269511953;-73.70806;45.522642;0;1;2;9312807;Bus : 151 N - Direction Sainte-Rose;"";STL;151N;Métro Côte-Vertu Quai:19;Dufferin / Chemin De Fer C.P.
436529000;"{\"type\":\"LineString\",\"coordinates\":[[-73.7075549,45.5221641],[-73.7076729,45.522248]]}";8;Boulevard Marcel-Laurin;1;50;false;true;true;false;false;false;14.0;2;0;0;0;0;false;41899;6269512742;-73.69949;45.517384;41897;6269511953;-73.70806;45.522642;0;1;2;9312807;Bus : 151 N - Direction Sainte-Rose;"";STL;151N;Métro Côte-Vertu Quai:19;Dufferin / Chemin De Fer C.P.
453252581;"{\"type\":\"LineString\",\"coordinates\":[[-73.7076729,45.522248],[-73.7077925,45.5223239],[-73.7080494,45.5224921]]}";9;Boulevard Marcel-Laurin;1;50;false;true;true;false;false;false;40.0;1;0;0;0;0;false;41899;6269512742;-73.69949;45.517384;41897;6269511953;-73.70806;45.522642;0;1;2;9312807;Bus : 151 N - Direction Sainte-Rose;"";STL;151N;Métro Côte-Vertu Quai:19;Dufferin / Chemin De Fer C.P.
22894165;"{\"type\":\"LineString\",\"coordinates\":[[-73.7080494,45.5224921],[-73.7085562,45.5228083],[-73.7089748,45.5230725],[-73.7091363,45.5231772]]}";10;Boulevard Marcel-Laurin;1;50;false;true;true;false;false;false;57.0;0;0;0;0;0;false;41899;6269512742;-73.69949;45.517384;41897;6269511953;-73.70806;45.522642;1;1;2;9312807;Bus : 151 N - Direction Sainte-Rose;"";STL;151N;Métro Côte-Vertu Quai:19;Dufferin / Chemin De Fer C.P.
453252581;"{\"type\":\"LineString\",\"coordinates\":[[-73.7076729,45.522248],[-73.7077925,45.5223239],[-73.7080494,45.5224921]]}";1;Boulevard Marcel-Laurin;1;50;false;true;true;false;false;false;40.0;1;0;0;0;0;false;41897;6269511953;-73.70806;45.522642;41895;6269511010;-73.72153;45.531209;2;2;3;9312807;Bus : 151 N - Direction Sainte-Rose;"";STL;151N;Métro Côte-Vertu Quai:19;Dufferin / Chemin De Fer C.P.
22894165;"{\"type\":\"LineString\",\"coordinates\":[[-73.7080494,45.5224921],[-73.7085562,45.5228083],[-73.7089748,45.5230725],[-73.7091363,45.5231772]]}";2;Boulevard Marcel-Laurin;1;50;false;true;true;false;false;false;114.0;0;0;0;0;0;false;41897;6269511953;-73.70806;45.522642;41895;6269511010;-73.72153;45.531209;0;2;3;9312807;Bus : 151 N - Direction Sainte-Rose;"";STL;151N;Métro Côte-Vertu Quai:19;Dufferin / Chemin De Fer C.P.
766554176;"{\"type\":\"LineString\",\"coordinates\":[[-73.7091363,45.5231772],[-73.7093038,45.5232826]]}";3;Boulevard Laurentien;1;50;false;true;true;false;false;false;18.0;0;0;0;0;0;false;41897;6269511953;-73.70806;45.522642;41895;6269511010;-73.72153;45.531209;0;2;3;9312807;Bus : 151 N - Direction Sainte-Rose;"";STL;151N;Métro Côte-Vertu Quai:19;Dufferin / Chemin De Fer C.P.
436521603;"{\"type\":\"LineString\",\"coordinates\":[[-73.7093038,45.5232826],[-73.7107597,45.5242354],[-73.7112316,45.5245442]]}";4;Boulevard Laurentien;1;50;false;true;true;false;false;false;206.0;1;0;0;0;0;false;41897;6269511953;-73.70806;45.522642;41895;6269511010;-73.72153;45.531209;0;2;3;9312807;Bus : 151 N - Direction Sainte-Rose;"";STL;151N;Métro Côte-Vertu Quai:19;Dufferin / Chemin De Fer C.P.
436522808;"{\"type\":\"LineString\",\"coordinates\":[[-73.7112316,45.5245442],[-73.7115767,45.5247605],[-73.7119263,45.5249796],[-73.7120131,45.525034]]}";5;Boulevard Laurentien;1;50;false;true;true;false;false;false;82.0;2;0;0;0;0;false;41897;6269511953;-73.70806;45.522642;41895;6269511010;-73.72153;45.531209;0;2;3;9312807;Bus : 151 N - Direction Sainte-Rose;"";STL;151N;Métro Côte-Vertu Quai:19;Dufferin / Chemin De Fer C.P.
462280203;"{\"type\":\"LineString\",\"coordinates\":[[-73.7120131,45.525034],[-73.7123969,45.5252784]]}";6;Rue Lachapelle;1;50;false;true;true;false;false;false;41.0;1;0;0;0;0;false;41897;6269511953;-73.70806;45.522642;41895;6269511010;-73.72153;45.531209;0;2;3;9312807;Bus : 151 N - Direction Sainte-Rose;"";STL;151N;Métro Côte-Vertu Quai:19;Dufferin / Chemin De Fer C.P.
34228233;"{\"type\":\"LineString\",\"coordinates\":[[-73.7123969,45.5252784],[-73.7128231,45.5255384],[-73.7142881,45.5264541]]}";7;Rue Lachapelle;3;50;false;true;true;false;false;false;198.0;1;0;0;0;0;false;41897;6269511953;-73.70806;45.522642;41895;6269511010;-73.72153;45.531209;0;2;3;9312807;Bus : 151 N - Direction Sainte-Rose;"";STL;151N;Métro Côte-Vertu Quai:19;Dufferin / Chemin De Fer C.P.
462277756;"{\"type\":\"LineString\",\"coordinates\":[[-73.7142881,45.5264541],[-73.7147082,45.5267223],[-73.7158387,45.5274441],[-73.7173352,45.5283995],[-73.7184021,45.5290806],[-73.7192162,45.5296004],[-73.7211066,45.5308072],[-73.721773,45.5312326]]}";8;Rue Lachapelle;2;50;false;true;true;false;false;false;790.0;3;0;0;0;0;false;41897;6269511953;-73.70806;45.522642;41895;6269511010;-73.72153;45.531209;2;2;3;9312807;Bus : 151 N - Direction Sainte-Rose;"";STL;151N;Métro Côte-Vertu Quai:19;Dufferin / Chemin De Fer C.P.
542780649;"{\"type\":\"LineString\",\"coordinates\":[[-73.721773,45.5312326],[-73.7226882,45.5313326],[-73.7233987,45.5314102],[-73.7238269,45.531457],[-73.7253475,45.5316231]]}";1;Rue Lachapelle;2;50;false;true;true;false;false;false;283.0;1;0;0;0;0;false;41895;6269511010;-73.72153;45.531209;41431;6269510839;-73.7309;45.536015;2;3;4;9312807;Bus : 151 N - Direction Sainte-Rose;"";STL;151N;Métro Côte-Vertu Quai:19;Dufferin / Chemin De Fer C.P.
689388937;"{\"type\":\"LineString\",\"coordinates\":[[-73.7253475,45.5316231],[-73.7258129,45.5316138],[-73.726003,45.5316007],[-73.7261036,45.531608],[-73.7262157,45.5316262],[-73.726491,45.531705]]}";2;Rue Lachapelle;2;50;false;true;true;false;false;false;92.0;0;0;0;0;0;false;41895;6269511010;-73.72153;45.531209;41431;6269510839;-73.7309;45.536015;0;3;4;9312807;Bus : 151 N - Direction Sainte-Rose;"";STL;151N;Métro Côte-Vertu Quai:19;Dufferin / Chemin De Fer C.P.
581936364;"{\"type\":\"LineString\",\"coordinates\":[[-73.726491,45.531705],[-73.7266069,45.5317852],[-73.7267399,45.5319041]]}";3;Boulevard Laurentien;3;50;false;true;true;false;false;false;30.0;0;0;0;0;0;false;41895;6269511010;-73.72153;45.531209;41431;6269510839;-73.7309;45.536015;0;3;4;9312807;Bus : 151 N - Direction Sainte-Rose;"";STL;151N;Métro Côte-Vertu Quai:19;Dufferin / Chemin De Fer C.P.
5028806;"{\"type\":\"LineString\",\"coordinates\":[[-73.7267399,45.5319041],[-73.7291402,45.5339776]]}";4;Pont Lachapelle;3;50;false;true;true;false;false;false;297.0;0;0;0;0;0;false;41895;6269511010;-73.72153;45.531209;41431;6269510839;-73.7309;45.536015;0;3;4;9312807;Bus : 151 N - Direction Sainte-Rose;"";STL;151N;Métro Côte-Vertu Quai:19;Dufferin / Chemin De Fer C.P.
747868084;"{\"type\":\"LineString\",\"coordinates\":[[-73.7291402,45.5339776],[-73.7294401,45.5342485]]}";5;Boulevard Curé-Labelle;3;60;false;true;true;false;false;false;39.0;0;0;0;0;0;false;41895;6269511010;-73.72153;45.531209;41431;6269510839;-73.7309;45.536015;0;3;4;9312807;Bus : 151 N - Direction Sainte-Rose;"";STL;151N;Métro Côte-Vertu Quai:19;Dufferin / Chemin De Fer C.P.
45600838;"{\"type\":\"LineString\",\"coordinates\":[[-73.7294401,45.5342485],[-73.7316697,45.5367094],[-73.7317813,45.5368399]]}";6;Boulevard Curé-Labelle;3;60;false;true;false;false;false;false;341.0;2;0;0;0;0;false;41895;6269511010;-73.72153;45.531209;41431;6269510839;-73.7309;45.536015;2;3;4;9312807;Bus : 151 N - Direction Sainte-Rose;"";STL;151N;Métro Côte-Vertu Quai:19;Dufferin / Chemin De Fer C.P.
45600838;"{\"type\":\"LineString\",\"coordinates\":[[-73.7294401,45.5342485],[-73.7316697,45.5367094],[-73.7317813,45.5368399]]}";1;Boulevard Curé-Labelle;3;60;false;true;false;false;false;false;170.5;2;0;0;0;0;false;41431;6269510839;-73.7309;45.536015;41263;6269510781;-73.73471;45.538959;1;4;5;9312807;Bus : 151 N - Direction Sainte-Rose;"";STL;151N;Métro Côte-Vertu Quai:19;Dufferin / Chemin De Fer C.P.
686619023;"{\"type\":\"LineString\",\"coordinates\":[[-73.7317813,45.5368399],[-73.7338382,45.5390395]]}";2;Boulevard Curé-Labelle;3;60;false;true;false;false;false;false;293.0;2;0;0;0;0;false;41431;6269510839;-73.7309;45.536015;41263;6269510781;-73.73471;45.538959;0;4;5;9312807;Bus : 151 N - Direction Sainte-Rose;"";STL;151N;Métro Côte-Vertu Quai:19;Dufferin / Chemin De Fer C.P.
474807566;"{\"type\":\"LineString\",\"coordinates\":[[-73.7338382,45.5390395],[-73.733924,45.5391342]]}";3;Boulevard Curé-Labelle;2;60;false;true;true;false;false;false;13.0;2;0;0;0;0;false;41431;6269510839;-73.7309;45.536015;41263;6269510781;-73.73471;45.538959;0;4;5;9312807;Bus : 151 N - Direction Sainte-Rose;"";STL;151N;Métro Côte-Vertu Quai:19;Dufferin / Chemin De Fer C.P.
45600834;"{\"type\":\"LineString\",\"coordinates\":[[-73.733924,45.5391342],[-73.7341411,45.5390611]]}";4;Boulevard Cartier Ouest;2;50;false;true;true;false;false;false;19.0;2;0;0;0;0;false;41431;6269510839;-73.7309;45.536015;41263;6269510781;-73.73471;45.538959;0;4;5;9312807;Bus : 151 N - Direction Sainte-Rose;"";STL;151N;Métro Côte-Vertu Quai:19;Dufferin / Chemin De Fer C.P.
165090584;"{\"type\":\"LineString\",\"coordinates\":[[-73.7341411,45.5390611],[-73.7345005,45.5389618],[-73.7350378,45.5388117],[-73.7359253,45.5385746],[-73.7366707,45.538404]]}";5;Boulevard Curé-Labelle;2;50;false;true;true;false;false;false;105.5;1;0;0;0;0;false;41431;6269510839;-73.7309;45.536015;41263;6269510781;-73.73471;45.538959;1;4;5;9312807;Bus : 151 N - Direction Sainte-Rose;"";STL;151N;Métro Côte-Vertu Quai:19;Dufferin / Chemin De Fer C.P.
165090584;"{\"type\":\"LineString\",\"coordinates\":[[-73.7341411,45.5390611],[-73.7345005,45.5389618],[-73.7350378,45.5388117],[-73.7359253,45.5385746],[-73.7366707,45.538404]]}";1;Boulevard Curé-Labelle;2;50;false;true;true;false;false;false;105.5;1;0;0;0;0;false;41263;6269510781;-73.73471;45.538959;41461;6269510812;-73.73847;45.537989;1;5;6;9312807;Bus : 151 N - Direction Sainte-Rose;"";STL;151N;Métro Côte-Vertu Quai:19;Dufferin / Chemin De Fer C.P.
45601177;"{\"type\":\"LineString\",\"coordinates\":[[-73.7366707,45.538404],[-73.7373754,45.5382193],[-73.7379859,45.5380497],[-73.7380784,45.5380258],[-73.7388255,45.5378238],[-73.7398394,45.5375451],[-73.7408658,45.5372535],[-73.7414614,45.5371257],[-73.7420559,45.5370737],[-73.7424942,45.5370756],[-73.7429395,45.5371037],[-73.7433565,45.5371689]]}";2;Boulevard Curé-Labelle;4;50;false;false;true;false;false;false;275.0;0;0;0;0;0;false;41263;6269510781;-73.73471;45.538959;41461;6269510812;-73.73847;45.537989;1;5;6;9312807;Bus : 151 N - Direction Sainte-Rose;"";STL;151N;Métro Côte-Vertu Quai:19;Dufferin / Chemin De Fer C.P.
45601177;"{\"type\":\"LineString\",\"coordinates\":[[-73.7366707,45.538404],[-73.7373754,45.5382193],[-73.7379859,45.5380497],[-73.7380784,45.5380258],[-73.7388255,45.5378238],[-73.7398394,45.5375451],[-73.7408658,45.5372535],[-73.7414614,45.5371257],[-73.7420559,45.5370737],[-73.7424942,45.5370756],[-73.7429395,45.5371037],[-73.7433565,45.5371689]]}";1;Boulevard Curé-Labelle;4;50;false;false;true;false;false;false;275.0;0;0;0;0;0;false;41463;6269510806;-73.7417;45.537177;41410;6269510804;-73.74349;45.537293;1;7;8;9312807;Bus : 151 N - Direction Sainte-Rose;"";STL;151N;Métro Côte-Vertu Quai:19;Dufferin / Chemin De Fer C.P.
45601016;"{\"type\":\"LineString\",\"coordinates\":[[-73.7433565,45.5371689],[-73.7438279,45.5372933]]}";2;Boulevard Curé-Labelle;4;50;false;false;true;false;false;false;20.0;1;0;0;0;0;false;41463;6269510806;-73.7417;45.537177;41410;6269510804;-73.74349;45.537293;1;7;8;9312807;Bus : 151 N - Direction Sainte-Rose;"";STL;151N;Métro Côte-Vertu Quai:19;Dufferin / Chemin De Fer C.P.
45601177;"{\"type\":\"LineString\",\"coordinates\":[[-73.7366707,45.538404],[-73.7373754,45.5382193],[-73.7379859,45.5380497],[-73.7380784,45.5380258],[-73.7388255,45.5378238],[-73.7398394,45.5375451],[-73.7408658,45.5372535],[-73.7414614,45.5371257],[-73.7420559,45.5370737],[-73.7424942,45.5370756],[-73.7429395,45.5371037],[-73.7433565,45.5371689]]}";1;Boulevard Curé-Labelle;4;50;false;false;true;false;false;false;550.0;0;0;0;0;0;false;41410;6269510804;-73.74349;45.537293;41412;6269510785;-73.7456;45.538441;2;8;9;9312807;Bus : 151 N - Direction Sainte-Rose;"";STL;151N;Métro Côte-Vertu Quai:19;Dufferin / Chemin De Fer C.P.
45601016;"{\"type\":\"LineString\",\"coordinates\":[[-73.7433565,45.5371689],[-73.7438279,45.5372933]]}";2;Boulevard Curé-Labelle;4;50;false;false;true;false;false;false;40.0;1;0;0;0;0;false;41410;6269510804;-73.74349;45.537293;41412;6269510785;-73.7456;45.538441;0;8;9;9312807;Bus : 151 N - Direction Sainte-Rose;"";STL;151N;Métro Côte-Vertu Quai:19;Dufferin / Chemin De Fer C.P.
45601022;"{\"type\":\"LineString\",\"coordinates\":[[-73.7438279,45.5372933],[-73.7438791,45.5373074]]}";3;Boulevard Curé-Labelle;4;50;false;false;true;false;false;false;5.0;2;0;0;0;0;false;41410;6269510804;-73.74349;45.537293;41412;6269510785;-73.7456;45.538441;0;8;9;9312807;Bus : 151 N - Direction Sainte-Rose;"";STL;151N;Métro Côte-Vertu Quai:19;Dufferin / Chemin De Fer C.P.
292502205;"{\"type\":\"LineString\",\"coordinates\":[[-73.7438791,45.5373074],[-73.7441305,45.537398]]}";4;Boulevard Curé-Labelle;4;50;false;false;true;false;false;false;23.0;1;0;0;0;0;false;41410;6269510804;-73.74349;45.537293;41412;6269510785;-73.7456;45.538441;0;8;9;9312807;Bus : 151 N - Direction Sainte-Rose;"";STL;151N;Métro Côte-Vertu Quai:19;Dufferin / Chemin De Fer C.P.
45601176;"{\"type\":\"LineString\",\"coordinates\":[[-73.7441305,45.537398],[-73.7447515,45.5376647],[-73.7450813,45.5378824],[-73.7458431,45.5385588],[-73.7463009,45.5390024],[-73.7471413,45.5397611]]}";5;Boulevard Curé-Labelle;4;50;false;false;true;false;false;false;356.0;0;0;0;0;0;false;41410;6269510804;-73.74349;45.537293;41412;6269510785;-73.7456;45.538441;2;8;9;9312807;Bus : 151 N - Direction Sainte-Rose;"";STL;151N;Métro Côte-Vertu Quai:19;Dufferin / Chemin De Fer C.P.
45601176;"{\"type\":\"LineString\",\"coordinates\":[[-73.7441305,45.537398],[-73.7447515,45.5376647],[-73.7450813,45.5378824],[-73.7458431,45.5385588],[-73.7463009,45.5390024],[-73.7471413,45.5397611]]}";1;Boulevard Curé-Labelle;4;50;false;false;true;false;false;false;178.0;0;0;0;0;0;false;41412;6269510785;-73.7456;45.538441;41414;6269510755;-73.74804;45.540811;1;9;10;9312807;Bus : 151 N - Direction Sainte-Rose;"";STL;151N;Métro Côte-Vertu Quai:19;Dufferin / Chemin De Fer C.P.
58939604;"{\"type\":\"LineString\",\"coordinates\":[[-73.7471413,45.5397611],[-73.7473451,45.5400091],[-73.7478386,45.54049],[-73.7484502,45.5410837]]}";2;Boulevard Curé-Labelle;2;50;false;true;true;false;false;false;90.0;1;0;0;0;0;false;41412;6269510785;-73.7456;45.538441;41414;6269510755;-73.74804;45.540811;1;9;10;9312807;Bus : 151 N - Direction Sainte-Rose;"";STL;151N;Métro Côte-Vertu Quai:19;Dufferin / Chemin De Fer C.P.
58939604;"{\"type\":\"LineString\",\"coordinates\":[[-73.7471413,45.5397611],[-73.7473451,45.5400091],[-73.7478386,45.54049],[-73.7484502,45.5410837]]}";1;Boulevard Curé-Labelle;2;50;false;true;true;false;false;false;90.0;1;0;0;0;0;false;41414;6269510755;-73.74804;45.540811;41416;6269510707;-73.75047;45.543064;1;10;11;9312807;Bus : 151 N - Direction Sainte-Rose;"";STL;151N;Métro Côte-Vertu Quai:19;Dufferin / Chemin De Fer C.P.
669689624;"{\"type\":\"LineString\",\"coordinates\":[[-73.7484502,45.5410837],[-73.7496518,45.5422634],[-73.7498771,45.5423837]]}";2;Boulevard Curé-Labelle;2;50;false;true;true;false;false;false;184.0;1;0;0;0;0;false;41414;6269510755;-73.74804;45.540811;41416;6269510707;-73.75047;45.543064;0;10;11;9312807;Bus : 151 N - Direction Sainte-Rose;"";STL;151N;Métro Côte-Vertu Quai:19;Dufferin / Chemin De Fer C.P.
58939608;"{\"type\":\"LineString\",\"coordinates\":[[-73.7498771,45.5423837],[-73.7506758,45.543113],[-73.7527936,45.5450467],[-73.7536215,45.5458026],[-73.7542611,45.5463629],[-73.7555498,45.547535],[-73.7560614,45.5480035],[-73.7571942,45.5490409]]}";3;Boulevard Curé-Labelle;4;50;false;false;true;false;false;false;467.5;0;0;0;0;0;false;41414;6269510755;-73.74804;45.540811;41416;6269510707;-73.75047;45.543064;1;10;11;9312807;Bus : 151 N - Direction Sainte-Rose;"";STL;151N;Métro Côte-Vertu Quai:19;Dufferin / Chemin De Fer C.P.
58939608;"{\"type\":\"LineString\",\"coordinates\":[[-73.7498771,45.5423837],[-73.7506758,45.543113],[-73.7527936,45.5450467],[-73.7536215,45.5458026],[-73.7542611,45.5463629],[-73.7555498,45.547535],[-73.7560614,45.5480035],[-73.7571942,45.5490409]]}";1;Boulevard Curé-Labelle;4;50;false;false;true;false;false;false;467.5;0;0;0;0;0;false;41424;6269510649;-73.75679;45.548818;41426;6269510609;-73.75889;45.551108;1;14;15;9312807;Bus : 151 N - Direction Sainte-Rose;"";STL;151N;Métro Côte-Vertu Quai:19;Dufferin / Chemin De Fer C.P.
45592672;"{\"type\":\"LineString\",\"coordinates\":[[-73.7571942,45.5490409],[-73.7578057,45.5496495]]}";2;Boulevard Curé-Labelle;4;50;false;false;true;false;false;false;83.0;0;0;0;0;0;false;41424;6269510649;-73.75679;45.548818;41426;6269510609;-73.75889;45.551108;0;14;15;9312807;Bus : 151 N - Direction Sainte-Rose;"";STL;151N;Métro Côte-Vertu Quai:19;Dufferin / Chemin De Fer C.P.
45828315;"{\"type\":\"LineString\",\"coordinates\":[[-73.7578057,45.5496495],[-73.758155,45.5499926]]}";3;Boulevard Curé-Labelle;4;50;false;false;true;false;false;false;47.0;0;0;0;0;0;false;41424;6269510649;-73.75679;45.548818;41426;6269510609;-73.75889;45.551108;0;14;15;9312807;Bus : 151 N - Direction Sainte-Rose;"";STL;151N;Métro Côte-Vertu Quai:19;Dufferin / Chemin De Fer C.P.
46123681;"{\"type\":\"LineString\",\"coordinates\":[[-73.758155,45.5499926],[-73.7583189,45.5503111],[-73.7588035,45.5508817],[-73.7592183,45.5513484],[-73.7596927,45.5518084]]}";4;Boulevard Curé-Labelle;2;50;false;true;true;false;false;false;118.0;0;0;0;0;0;false;41424;6269510649;-73.75679;45.548818;41426;6269510609;-73.75889;45.551108;1;14;15;9312807;Bus : 151 N - Direction Sainte-Rose;"";STL;151N;Métro Côte-Vertu Quai:19;Dufferin / Chemin De Fer C.P.
46123681;"{\"type\":\"LineString\",\"coordinates\":[[-73.758155,45.5499926],[-73.7583189,45.5503111],[-73.7588035,45.5508817],[-73.7592183,45.5513484],[-73.7596927,45.5518084]]}";1;Boulevard Curé-Labelle;2;50;false;true;true;false;false;false;118.0;0;0;0;0;0;false;41426;6269510609;-73.75889;45.551108;41428;6269510576;-73.76065;45.552796;1;15;16;9312807;Bus : 151 N - Direction Sainte-Rose;"";STL;151N;Métro Côte-Vertu Quai:19;Dufferin / Chemin De Fer C.P.
680563983;"{\"type\":\"LineString\",\"coordinates\":[[-73.7596927,45.5518084],[-73.7602161,45.552265],[-73.7602516,45.5522972],[-73.7614095,45.5533465],[-73.7614928,45.553422],[-73.7619327,45.5537225],[-73.7623189,45.5539328],[-73.7632224,45.5543432],[-73.7635098,45.5544737],[-73.7638317,45.554654],[-73.7640234,45.5547665],[-73.7642286,45.5548869],[-73.7645642,45.5551434],[-73.7652807,45.5557616],[-73.7653994,45.5558677],[-73.7666052,45.556959]]}";2;Boulevard Curé-Labelle;2;60;false;true;true;false;false;false;396.5;0;0;0;0;0;false;41426;6269510609;-73.75889;45.551108;41428;6269510576;-73.76065;45.552796;1;15;16;9312807;Bus : 151 N - Direction Sainte-Rose;"";STL;151N;Métro Côte-Vertu Quai:19;Dufferin / Chemin De Fer C.P.
680563983;"{\"type\":\"LineString\",\"coordinates\":[[-73.7596927,45.5518084],[-73.7602161,45.552265],[-73.7602516,45.5522972],[-73.7614095,45.5533465],[-73.7614928,45.553422],[-73.7619327,45.5537225],[-73.7623189,45.5539328],[-73.7632224,45.5543432],[-73.7635098,45.5544737],[-73.7638317,45.554654],[-73.7640234,45.5547665],[-73.7642286,45.5548869],[-73.7645642,45.5551434],[-73.7652807,45.5557616],[-73.7653994,45.5558677],[-73.7666052,45.556959]]}";1;Boulevard Curé-Labelle;2;60;false;true;true;false;false;false;396.5;0;0;0;0;0;false;41433;6269510491;-73.76513;45.555746;41435;6269510373;-73.76692;45.557361;1;18;19;9312807;Bus : 151 N - Direction Sainte-Rose;"";STL;151N;Métro Côte-Vertu Quai:19;Dufferin / Chemin De Fer C.P.
680563982;"{\"type\":\"LineString\",\"coordinates\":[[-73.7666052,45.556959],[-73.7672877,45.557579],[-73.768314,45.5585112],[-73.7691655,45.5592846],[-73.7700179,45.5600703],[-73.7705051,45.5604567],[-73.7707947,45.5606263],[-73.7712942,45.560839],[-73.7719793,45.5610873]]}";2;Boulevard Curé-Labelle;2;60;false;true;true;false;false;false;314.5;0;0;0;0;0;false;41433;6269510491;-73.76513;45.555746;41435;6269510373;-73.76692;45.557361;1;18;19;9312807;Bus : 151 N - Direction Sainte-Rose;"";STL;151N;Métro Côte-Vertu Quai:19;Dufferin / Chemin De Fer C.P.
391452459;"{\"type\":\"LineString\",\"coordinates\":[[-73.7719793,45.5610873],[-73.7729834,45.5614376],[-73.7735949,45.5616704],[-73.7739295,45.5618347],[-73.7739872,45.561863],[-73.7742155,45.5620098],[-73.7742601,45.5620385],[-73.774483,45.5622059],[-73.7748502,45.5624817],[-73.7754321,45.5630326],[-73.7761395,45.5637024]]}";1;Boulevard Curé-Labelle;2;60;false;true;true;false;false;false;222.5;0;0;0;0;0;false;41441;6269510267;-73.77385;45.561889;43266;6269510028;-73.77948;45.566951;1;22;23;9312807;Bus : 151 N - Direction Sainte-Rose;"";STL;151N;Métro Côte-Vertu Quai:19;Dufferin / Chemin De Fer C.P.
140382624;"{\"type\":\"LineString\",\"coordinates\":[[-73.7761395,45.5637024],[-73.7770128,45.5645293]]}";2;Boulevard Curé-Labelle;2;60;false;true;true;false;false;false;115.0;0;0;0;0;0;false;41441;6269510267;-73.77385;45.561889;43266;6269510028;-73.77948;45.566951;0;22;23;9312807;Bus : 151 N - Direction Sainte-Rose;"";STL;151N;Métro Côte-Vertu Quai:19;Dufferin / Chemin De Fer C.P.
452046902;"{\"type\":\"LineString\",\"coordinates\":[[-73.7770128,45.5645293],[-73.7777844,45.5652883]]}";3;Boulevard Curé-Labelle;2;60;false;true;true;false;false;false;104.0;0;0;0;0;0;false;41441;6269510267;-73.77385;45.561889;43266;6269510028;-73.77948;45.566951;0;22;23;9312807;Bus : 151 N - Direction Sainte-Rose;"";STL;151N;Métro Côte-Vertu Quai:19;Dufferin / Chemin De Fer C.P.
452046899;"{\"type\":\"LineString\",\"coordinates\":[[-73.7777844,45.5652883],[-73.7785255,45.5659486]]}";4;Boulevard Curé-Labelle;2;60;false;true;true;false;false;false;94.0;0;0;0;0;0;false;41441;6269510267;-73.77385;45.561889;43266;6269510028;-73.77948;45.566951;0;22;23;9312807;Bus : 151 N - Direction Sainte-Rose;"";STL;151N;Métro Côte-Vertu Quai:19;Dufferin / Chemin De Fer C.P.
140382625;"{\"type\":\"LineString\",\"coordinates\":[[-73.7785255,45.5659486],[-73.7795055,45.5668565],[-73.7816149,45.5688107],[-73.7817036,45.5688928]]}";5;Boulevard Curé-Labelle;2;60;false;true;true;false;false;false;205.5;2;0;0;0;0;false;41441;6269510267;-73.77385;45.561889;43266;6269510028;-73.77948;45.566951;1;22;23;9312807;Bus : 151 N - Direction Sainte-Rose;"";STL;151N;Métro Côte-Vertu Quai:19;Dufferin / Chemin De Fer C.P.
140382625;"{\"type\":\"LineString\",\"coordinates\":[[-73.7785255,45.5659486],[-73.7795055,45.5668565],[-73.7816149,45.5688107],[-73.7817036,45.5688928]]}";1;Boulevard Curé-Labelle;2;60;false;true;true;false;false;false;205.5;2;0;0;0;0;false;41444;6269509367;-73.78139;45.568727;46424;6269509552;-73.78323;45.570406;1;24;25;9312807;Bus : 151 N - Direction Sainte-Rose;"";STL;151N;Métro Côte-Vertu Quai:19;Dufferin / Chemin De Fer C.P.
679942210;"{\"type\":\"LineString\",\"coordinates\":[[-73.7817036,45.5688928],[-73.782272,45.5694194]]}";2;Boulevard Curé-Labelle;2;60;false;true;false;false;false;false;74.0;1;0;0;0;0;false;41444;6269509367;-73.78139;45.568727;46424;6269509552;-73.78323;45.570406;0;24;25;9312807;Bus : 151 N - Direction Sainte-Rose;"";STL;151N;Métro Côte-Vertu Quai:19;Dufferin / Chemin De Fer C.P.
32542690;"{\"type\":\"LineString\",\"coordinates\":[[-73.782272,45.5694194],[-73.7824978,45.5696329],[-73.7834186,45.5705035],[-73.7840692,45.5710979],[-73.7845637,45.571567],[-73.7849511,45.5719344],[-73.7850403,45.5720193],[-73.7854428,45.5724012],[-73.7858802,45.5728162],[-73.7862321,45.5731887],[-73.7865411,45.5735853],[-73.7867214,45.5739938],[-73.7868233,45.5742707],[-73.7869517,45.5746198]]}";3;Boulevard Curé-Labelle;2;60;false;true;false;false;false;false;345.0;0;0;0;0;0;false;41444;6269509367;-73.78139;45.568727;46424;6269509552;-73.78323;45.570406;1;24;25;9312807;Bus : 151 N - Direction Sainte-Rose;"";STL;151N;Métro Côte-Vertu Quai:19;Dufferin / Chemin De Fer C.P.
32542690;"{\"type\":\"LineString\",\"coordinates\":[[-73.782272,45.5694194],[-73.7824978,45.5696329],[-73.7834186,45.5705035],[-73.7840692,45.5710979],[-73.7845637,45.571567],[-73.7849511,45.5719344],[-73.7850403,45.5720193],[-73.7854428,45.5724012],[-73.7858802,45.5728162],[-73.7862321,45.5731887],[-73.7865411,45.5735853],[-73.7867214,45.5739938],[-73.7868233,45.5742707],[-73.7869517,45.5746198]]}";1;Boulevard Curé-Labelle;2;60;false;true;false;false;false;false;345.0;0;0;0;0;0;false;41446;6269509339;-73.78676;45.574257;41448;6269508976;-73.78737;45.576505;1;27;28;9312807;Bus : 151 N - Direction Sainte-Rose;"";STL;151N;Métro Côte-Vertu Quai:19;Dufferin / Chemin De Fer C.P.
94987658;"{\"type\":\"LineString\",\"coordinates\":[[-73.7869517,45.5746198],[-73.7870132,45.5747869],[-73.7870838,45.5750166],[-73.7871091,45.5750989],[-73.7872472,45.5755486]]}";2;Boulevard Curé-Labelle;2;60;false;true;false;false;false;false;106.0;0;0;0;0;0;false;41446;6269509339;-73.78676;45.574257;41448;6269508976;-73.78737;45.576505;0;27;28;9312807;Bus : 151 N - Direction Sainte-Rose;"";STL;151N;Métro Côte-Vertu Quai:19;Dufferin / Chemin De Fer C.P.
451911254;"{\"type\":\"LineString\",\"coordinates\":[[-73.7872472,45.5755486],[-73.7873467,45.5759221],[-73.7873963,45.576108]]}";3;Boulevard Curé-Labelle;2;60;false;true;false;false;false;false;64.0;0;0;0;0;0;false;41446;6269509339;-73.78676;45.574257;41448;6269508976;-73.78737;45.576505;0;27;28;9312807;Bus : 151 N - Direction Sainte-Rose;"";STL;151N;Métro Côte-Vertu Quai:19;Dufferin / Chemin De Fer C.P.
94987655;"{\"type\":\"LineString\",\"coordinates\":[[-73.7873963,45.576108],[-73.7874925,45.5764176],[-73.7875412,45.5765746],[-73.7876621,45.5769639],[-73.7876941,45.5770388],[-73.7879294,45.5777742],[-73.7881565,45.5784838],[-73.7882973,45.5788972],[-73.7883897,45.5791897]]}";4;Boulevard Curé-Labelle;2;60;false;true;true;false;false;false;175.5;0;0;0;0;0;false;41446;6269509339;-73.78676;45.574257;41448;6269508976;-73.78737;45.576505;1;27;28;9312807;Bus : 151 N - Direction Sainte-Rose;"";STL;151N;Métro Côte-Vertu Quai:19;Dufferin / Chemin De Fer C.P.
94987655;"{\"type\":\"LineString\",\"coordinates\":[[-73.7873963,45.576108],[-73.7874925,45.5764176],[-73.7875412,45.5765746],[-73.7876621,45.5769639],[-73.7876941,45.5770388],[-73.7879294,45.5777742],[-73.7881565,45.5784838],[-73.7882973,45.5788972],[-73.7883897,45.5791897]]}";1;Boulevard Curé-Labelle;2;60;false;true;true;false;false;false;175.5;0;0;0;0;0;false;41448;6269508976;-73.78737;45.576505;41450;6269508907;-73.7885;45.579978;1;28;29;9312807;Bus : 151 N - Direction Sainte-Rose;"";STL;151N;Métro Côte-Vertu Quai:19;Dufferin / Chemin De Fer C.P.
455470999;"{\"type\":\"LineString\",\"coordinates\":[[-73.7883897,45.5791897],[-73.7884887,45.5794892]]}";2;Boulevard Curé-Labelle;2;60;false;true;true;false;false;false;35.0;0;0;0;0;0;false;41448;6269508976;-73.78737;45.576505;41450;6269508907;-73.7885;45.579978;0;28;29;9312807;Bus : 151 N - Direction Sainte-Rose;"";STL;151N;Métro Côte-Vertu Quai:19;Dufferin / Chemin De Fer C.P.
476035430;"{\"type\":\"LineString\",\"coordinates\":[[-73.7884887,45.5794892],[-73.7885201,45.5795844]]}";3;Boulevard Curé-Labelle;2;60;false;true;true;false;false;false;11.0;0;0;0;0;0;false;41448;6269508976;-73.78737;45.576505;41450;6269508907;-73.7885;45.579978;0;28;29;9312807;Bus : 151 N - Direction Sainte-Rose;"";STL;151N;Métro Côte-Vertu Quai:19;Dufferin / Chemin De Fer C.P.
455470998;"{\"type\":\"LineString\",\"coordinates\":[[-73.7885201,45.5795844],[-73.7885857,45.5797874],[-73.7886623,45.5800245],[-73.7887411,45.5802686],[-73.788784,45.5804014],[-73.7888021,45.5804573],[-73.7888255,45.5805298],[-73.7890271,45.5811536],[-73.7890797,45.5813328],[-73.7891032,45.5814129],[-73.7891342,45.5815185],[-73.7893229,45.5821623]]}";4;Boulevard Curé-Labelle;2;60;false;true;true;false;false;false;147.0;0;0;0;0;0;false;41448;6269508976;-73.78737;45.576505;41450;6269508907;-73.7885;45.579978;1;28;29;9312807;Bus : 151 N - Direction Sainte-Rose;"";STL;151N;Métro Côte-Vertu Quai:19;Dufferin / Chemin De Fer C.P.
455470998;"{\"type\":\"LineString\",\"coordinates\":[[-73.7885201,45.5795844],[-73.7885857,45.5797874],[-73.7886623,45.5800245],[-73.7887411,45.5802686],[-73.788784,45.5804014],[-73.7888021,45.5804573],[-73.7888255,45.5805298],[-73.7890271,45.5811536],[-73.7890797,45.5813328],[-73.7891032,45.5814129],[-73.7891342,45.5815185],[-73.7893229,45.5821623]]}";1;Boulevard Curé-Labelle;2;60;false;true;true;false;false;false;147.0;0;0;0;0;0;false;43390;6269508902;-73.78895;45.581342;41452;6269508852;-73.78926;45.583231;1;30;31;9312807;Bus : 151 N - Direction Sainte-Rose;"";STL;151N;Métro Côte-Vertu Quai:19;Dufferin / Chemin De Fer C.P.
452025684;"{\"type\":\"LineString\",\"coordinates\":[[-73.7893229,45.5821623],[-73.789449,45.5826669]]}";2;Boulevard Curé-Labelle;2;60;false;true;true;false;false;false;57.0;0;0;0;0;0;false;43390;6269508902;-73.78895;45.581342;41452;6269508852;-73.78926;45.583231;0;30;31;9312807;Bus : 151 N - Direction Sainte-Rose;"";STL;151N;Métro Côte-Vertu Quai:19;Dufferin / Chemin De Fer C.P.
430402074;"{\"type\":\"LineString\",\"coordinates\":[[-73.789449,45.5826669],[-73.789461,45.5827329],[-73.7894836,45.582888],[-73.7894363,45.5831022],[-73.789364,45.5832647],[-73.7892963,45.5833956],[-73.789132,45.58366],[-73.7880213,45.5849925],[-73.7876145,45.5854598]]}";3;Boulevard Curé-Labelle;2;60;false;true;true;false;false;false;174.0;0;0;0;0;0;false;43390;6269508902;-73.78895;45.581342;41452;6269508852;-73.78926;45.583231;1;30;31;9312807;Bus : 151 N - Direction Sainte-Rose;"";STL;151N;Métro Côte-Vertu Quai:19;Dufferin / Chemin De Fer C.P.
430402074;"{\"type\":\"LineString\",\"coordinates\":[[-73.789449,45.5826669],[-73.789461,45.5827329],[-73.7894836,45.582888],[-73.7894363,45.5831022],[-73.789364,45.5832647],[-73.7892963,45.5833956],[-73.789132,45.58366],[-73.7880213,45.5849925],[-73.7876145,45.5854598]]}";1;Boulevard Curé-Labelle;2;60;false;true;true;false;false;false;174.0;0;0;0;0;0;false;41452;6269508852;-73.78926;45.583231;46308;6269508699;-73.78599;45.589628;1;31;32;9312807;Bus : 151 N - Direction Sainte-Rose;"";STL;151N;Métro Côte-Vertu Quai:19;Dufferin / Chemin De Fer C.P.
46203722;"{\"type\":\"LineString\",\"coordinates\":[[-73.7876145,45.5854598],[-73.7869841,45.5861974]]}";2;Boulevard Curé-Labelle;2;60;false;true;true;false;false;false;96.0;0;0;0;0;0;false;41452;6269508852;-73.78926;45.583231;46308;6269508699;-73.78599;45.589628;0;31;32;9312807;Bus : 151 N - Direction Sainte-Rose;"";STL;151N;Métro Côte-Vertu Quai:19;Dufferin / Chemin De Fer C.P.
467117552;"{\"type\":\"LineString\",\"coordinates\":[[-73.7869841,45.5861974],[-73.7862594,45.587106]]}";3;Boulevard Curé-Labelle;3;60;false;true;true;false;false;false;116.0;1;0;0;0;0;false;41452;6269508852;-73.78926;45.583231;46308;6269508699;-73.78599;45.589628;0;31;32;9312807;Bus : 151 N - Direction Sainte-Rose;"";STL;151N;Métro Côte-Vertu Quai:19;Dufferin / Chemin De Fer C.P.
467117551;"{\"type\":\"LineString\",\"coordinates\":[[-73.7862594,45.587106],[-73.7861105,45.5873107],[-73.7859192,45.5876753]]}";4;Boulevard Curé-Labelle;3;60;false;true;true;false;false;false;69.0;1;0;0;0;0;false;41452;6269508852;-73.78926;45.583231;46308;6269508699;-73.78599;45.589628;0;31;32;9312807;Bus : 151 N - Direction Sainte-Rose;"";STL;151N;Métro Côte-Vertu Quai:19;Dufferin / Chemin De Fer C.P.
46203721;"{\"type\":\"LineString\",\"coordinates\":[[-73.7859192,45.5876753],[-73.7858613,45.5879123],[-73.7858232,45.5881676],[-73.785822,45.5883413],[-73.7858484,45.5885477],[-73.7858801,45.5887521],[-73.7859347,45.5889663],[-73.7860273,45.5892954],[-73.7862191,45.5900248],[-73.7862729,45.5902295],[-73.7865287,45.5910819]]}";5;Boulevard Curé-Labelle;3;60;false;true;true;false;false;false;192.0;1;0;0;0;0;false;41452;6269508852;-73.78926;45.583231;46308;6269508699;-73.78599;45.589628;1;31;32;9312807;Bus : 151 N - Direction Sainte-Rose;"";STL;151N;Métro Côte-Vertu Quai:19;Dufferin / Chemin De Fer C.P.
46203721;"{\"type\":\"LineString\",\"coordinates\":[[-73.7859192,45.5876753],[-73.7858613,45.5879123],[-73.7858232,45.5881676],[-73.785822,45.5883413],[-73.7858484,45.5885477],[-73.7858801,45.5887521],[-73.7859347,45.5889663],[-73.7860273,45.5892954],[-73.7862191,45.5900248],[-73.7862729,45.5902295],[-73.7865287,45.5910819]]}";1;Boulevard Curé-Labelle;3;60;false;true;true;false;false;false;192.0;1;0;0;0;0;false;46308;6269508699;-73.78599;45.589628;41454;6269508662;-73.78671;45.592254;1;32;33;9312807;Bus : 151 N - Direction Sainte-Rose;"";STL;151N;Métro Côte-Vertu Quai:19;Dufferin / Chemin De Fer C.P.
455261197;"{\"type\":\"LineString\",\"coordinates\":[[-73.7865287,45.5910819],[-73.7867045,45.5916674]]}";2;Boulevard Curé-Labelle;3;60;false;true;true;false;false;false;67.0;1;0;0;0;0;false;46308;6269508699;-73.78599;45.589628;41454;6269508662;-73.78671;45.592254;0;32;33;9312807;Bus : 151 N - Direction Sainte-Rose;"";STL;151N;Métro Côte-Vertu Quai:19;Dufferin / Chemin De Fer C.P.
455261196;"{\"type\":\"LineString\",\"coordinates\":[[-73.7867045,45.5916674],[-73.7868001,45.5920206],[-73.7868208,45.5920969]]}";3;Boulevard Curé-Labelle;3;60;false;true;true;false;false;false;49.0;1;0;0;0;0;false;46308;6269508699;-73.78599;45.589628;41454;6269508662;-73.78671;45.592254;0;32;33;9312807;Bus : 151 N - Direction Sainte-Rose;"";STL;151N;Métro Côte-Vertu Quai:19;Dufferin / Chemin De Fer C.P.
45762596;"{\"type\":\"LineString\",\"coordinates\":[[-73.7868208,45.5920969],[-73.7868327,45.5921429],[-73.786908,45.5924344],[-73.7871494,45.5933686],[-73.7873475,45.5941351],[-73.7874575,45.5945608],[-73.7876592,45.5953415],[-73.7894525,45.601817]]}";4;Boulevard Curé-Labelle;3;60;false;true;true;false;false;false;549.5;1;0;0;0;0;false;46308;6269508699;-73.78599;45.589628;41454;6269508662;-73.78671;45.592254;1;32;33;9312807;Bus : 151 N - Direction Sainte-Rose;"";STL;151N;Métro Côte-Vertu Quai:19;Dufferin / Chemin De Fer C.P.
455261196;"{\"type\":\"LineString\",\"coordinates\":[[-73.7867045,45.5916674],[-73.7868001,45.5920206],[-73.7868208,45.5920969]]}";1;Boulevard Curé-Labelle;3;60;false;true;true;false;false;false;49.0;1;0;0;0;0;false;41454;6269508662;-73.78671;45.592254;46620;6269508611;-73.78731;45.594451;2;33;34;9312807;Bus : 151 N - Direction Sainte-Rose;"";STL;151N;Métro Côte-Vertu Quai:19;Dufferin / Chemin De Fer C.P.
45762596;"{\"type\":\"LineString\",\"coordinates\":[[-73.7868208,45.5920969],[-73.7868327,45.5921429],[-73.786908,45.5924344],[-73.7871494,45.5933686],[-73.7873475,45.5941351],[-73.7874575,45.5945608],[-73.7876592,45.5953415],[-73.7894525,45.601817]]}";2;Boulevard Curé-Labelle;3;60;false;true;true;false;false;false;1099.0;1;0;0;0;0;false;41454;6269508662;-73.78671;45.592254;46620;6269508611;-73.78731;45.594451;2;33;34;9312807;Bus : 151 N - Direction Sainte-Rose;"";STL;151N;Métro Côte-Vertu Quai:19;Dufferin / Chemin De Fer C.P.
45762596;"{\"type\":\"LineString\",\"coordinates\":[[-73.7868208,45.5920969],[-73.7868327,45.5921429],[-73.786908,45.5924344],[-73.7871494,45.5933686],[-73.7873475,45.5941351],[-73.7874575,45.5945608],[-73.7876592,45.5953415],[-73.7894525,45.601817]]}";1;Boulevard Curé-Labelle;3;60;false;true;true;false;false;false;549.5;1;0;0;0;0;false;41458;6269507933;-73.78829;45.598036;46317;6269507973;-73.78945;45.602227;1;36;37;9312807;Bus : 151 N - Direction Sainte-Rose;"";STL;151N;Métro Côte-Vertu Quai:19;Dufferin / Chemin De Fer C.P.
673264007;"{\"type\":\"LineString\",\"coordinates\":[[-73.7894525,45.601817],[-73.7898552,45.6031015],[-73.7905568,45.6055399]]}";2;Boulevard Curé-Labelle;3;60;false;true;true;false;false;false;211.5;1;0;0;0;0;false;41458;6269507933;-73.78829;45.598036;46317;6269507973;-73.78945;45.602227;1;36;37;9312807;Bus : 151 N - Direction Sainte-Rose;"";STL;151N;Métro Côte-Vertu Quai:19;Dufferin / Chemin De Fer C.P.
673264007;"{\"type\":\"LineString\",\"coordinates\":[[-73.7894525,45.601817],[-73.7898552,45.6031015],[-73.7905568,45.6055399]]}";1;Boulevard Curé-Labelle;3;60;false;true;true;false;false;false;211.5;1;0;0;0;0;false;46277;6269507919;-73.79031;45.605301;46278;6269507870;-73.79085;45.607055;1;38;39;9312807;Bus : 151 N - Direction Sainte-Rose;"";STL;151N;Métro Côte-Vertu Quai:19;Dufferin / Chemin De Fer C.P.
673264008;"{\"type\":\"LineString\",\"coordinates\":[[-73.7905568,45.6055399],[-73.7905683,45.605603],[-73.790885,45.6066154],[-73.791008,45.606829]]}";2;Boulevard Curé-Labelle;3;60;false;true;true;false;false;false;148.0;0;0;0;0;0;false;46277;6269507919;-73.79031;45.605301;46278;6269507870;-73.79085;45.607055;0;38;39;9312807;Bus : 151 N - Direction Sainte-Rose;"";STL;151N;Métro Côte-Vertu Quai:19;Dufferin / Chemin De Fer C.P.
46203717;"{\"type\":\"LineString\",\"coordinates\":[[-73.7913849,45.6081997],[-73.7913678,45.6081374],[-73.791008,45.606829]]}";3;Boulevard Curé-Labelle;5;60;false;false;true;false;false;false;78.0;0;0;0;0;0;false;46277;6269507919;-73.79031;45.605301;46278;6269507870;-73.79085;45.607055;1;38;39;9312807;Bus : 151 N - Direction Sainte-Rose;"";STL;151N;Métro Côte-Vertu Quai:19;Dufferin / Chemin De Fer C.P.
46203717;"{\"type\":\"LineString\",\"coordinates\":[[-73.7913849,45.6081997],[-73.7913678,45.6081374],[-73.791008,45.606829]]}";1;Boulevard Curé-Labelle;5;60;false;false;true;false;false;false;78.0;0;0;0;0;0;false;46278;6269507870;-73.79085;45.607055;46319;6269507818;-73.79206;45.610876;1;39;40;9312807;Bus : 151 N - Direction Sainte-Rose;"";STL;151N;Métro Côte-Vertu Quai:19;Dufferin / Chemin De Fer C.P.
45800323;"{\"type\":\"LineString\",\"coordinates\":[[-73.7913849,45.6081997],[-73.7914173,45.6083176],[-73.7920258,45.6105302],[-73.7921736,45.6110677]]}";2;Boulevard Curé-Labelle;4;60;false;false;true;false;false;false;162.5;1;0;0;0;0;false;46278;6269507870;-73.79085;45.607055;46319;6269507818;-73.79206;45.610876;1;39;40;9312807;Bus : 151 N - Direction Sainte-Rose;"";STL;151N;Métro Côte-Vertu Quai:19;Dufferin / Chemin De Fer C.P.
45800323;"{\"type\":\"LineString\",\"coordinates\":[[-73.7913849,45.6081997],[-73.7914173,45.6083176],[-73.7920258,45.6105302],[-73.7921736,45.6110677]]}";1;Boulevard Curé-Labelle;4;60;false;false;true;false;false;false;162.5;1;0;0;0;0;false;46319;6269507818;-73.79206;45.610876;42999;6269507797;-73.79061;45.611815;1;40;41;9312807;Bus : 151 N - Direction Sainte-Rose;"";STL;151N;Métro Côte-Vertu Quai:19;Dufferin / Chemin De Fer C.P.
455259033;"{\"type\":\"LineString\",\"coordinates\":[[-73.7921736,45.6110677],[-73.7918363,45.6112602]]}";2;Boulevard Sainte-Rose;2;50;false;false;true;false;false;false;34.0;1;0;0;0;0;false;46319;6269507818;-73.79206;45.610876;42999;6269507797;-73.79061;45.611815;0;40;41;9312807;Bus : 151 N - Direction Sainte-Rose;"";STL;151N;Métro Côte-Vertu Quai:19;Dufferin / Chemin De Fer C.P.
45189008;"{\"type\":\"LineString\",\"coordinates\":[[-73.7918363,45.6112602],[-73.7911598,45.6115937],[-73.7906556,45.6118511],[-73.7902747,45.6120326],[-73.7898253,45.6121756],[-73.7897184,45.6122096],[-73.7890954,45.6123993],[-73.7888108,45.6124804],[-73.7885815,45.6125483],[-73.7884982,45.6125774],[-73.788419,45.6126168],[-73.7882284,45.6127217],[-73.7879137,45.612904],[-73.7875768,45.6131049],[-73.7875162,45.6131383],[-73.7873438,45.6132332],[-73.7872776,45.6132696],[-73.7867715,45.6137184],[-73.7865495,45.6139154],[-73.7863366,45.6141042],[-73.7857604,45.614525],[-73.7856951,45.6145784],[-73.7853246,45.6148486],[-73.784681,45.6153181],[-73.7841768,45.6156859],[-73.7835201,45.6161124],[-73.7827799,45.6166246]]}";3;Boulevard Sainte-Rose;2;50;false;false;true;false;false;false;467.5;0;0;0;0;0;false;46319;6269507818;-73.79206;45.610876;42999;6269507797;-73.79061;45.611815;1;40;41;9312807;Bus : 151 N - Direction Sainte-Rose;"";STL;151N;Métro Côte-Vertu Quai:19;Dufferin / Chemin De Fer C.P.
45189008;"{\"type\":\"LineString\",\"coordinates\":[[-73.7918363,45.6112602],[-73.7911598,45.6115937],[-73.7906556,45.6118511],[-73.7902747,45.6120326],[-73.7898253,45.6121756],[-73.7897184,45.6122096],[-73.7890954,45.6123993],[-73.7888108,45.6124804],[-73.7885815,45.6125483],[-73.7884982,45.6125774],[-73.788419,45.6126168],[-73.7882284,45.6127217],[-73.7879137,45.612904],[-73.7875768,45.6131049],[-73.7875162,45.6131383],[-73.7873438,45.6132332],[-73.7872776,45.6132696],[-73.7867715,45.6137184],[-73.7865495,45.6139154],[-73.7863366,45.6141042],[-73.7857604,45.614525],[-73.7856951,45.6145784],[-73.7853246,45.6148486],[-73.784681,45.6153181],[-73.7841768,45.6156859],[-73.7835201,45.6161124],[-73.7827799,45.6166246]]}";1;Boulevard Sainte-Rose;2;50;false;false;true;false;false;false;467.5;0;0;0;0;0;false;43008;6269507715;-73.78287;45.616442;42886;6269507686;-73.78107;45.618354;1;44;45;9312807;Bus : 151 N - Direction Sainte-Rose;"";STL;151N;Métro Côte-Vertu Quai:19;Dufferin / Chemin De Fer C.P.
673264006;"{\"type\":\"LineString\",\"coordinates\":[[-73.7827799,45.6166246],[-73.7824948,45.6168599],[-73.7822804,45.617076],[-73.7820704,45.6173717],[-73.781859,45.617657],[-73.7815741,45.6179874],[-73.7812727,45.6182978],[-73.7804729,45.618917],[-73.7802481,45.6191288],[-73.7800607,45.619342],[-73.7799208,45.6195081]]}";2;Boulevard Sainte-Rose;2;50;false;false;true;false;false;false;196.0;0;0;0;0;0;false;43008;6269507715;-73.78287;45.616442;42886;6269507686;-73.78107;45.618354;1;44;45;9312807;Bus : 151 N - Direction Sainte-Rose;"";STL;151N;Métro Côte-Vertu Quai:19;Dufferin / Chemin De Fer C.P.
