way_id;shape;index;name;nb_lanes;legal_speed;speed_zone_30;oneway;shares_bike;bike_box;bus_lane;dedicated_bus_lane;length;nb_traffic_signals;nb_crossings;nb_stops;nb_give_ways;nb_lvl_crossings;roundabout;stop_id_orig;node_id_orig;coord_x_orig;coord_y_orig;stop_id_dest;node_id_dest;coord_x_dest;coord_y_dest;nb_neighbouring_ways_bus_stop;ordre_orig;ordre_dest;id_line;line_name;colour;operator;ref;from;to
524208587;"{\"type\":\"LineString\",\"coordinates\":[[-70.5459732,-33.5353774],[-70.5467177,-33.5353084],[-70.547835,-33.5352505],[-70.5489205,-33.5351912],[-70.549008,-33.5351875],[-70.5492639,-33.5351779]]}";1;Rojas Magallanes;2;50;false;true;true;false;false;false;770.0;0;0;0;0;0;false;PE400;1175522148;-70.5492533;-33.5351092;PE402;1175522135;-70.5542138;-33.5356123;1;0;1;6449951;Rojas Magallanes - Bellavista de La Florida;#006633;Buses Vule;E07;Rojas Magallanes;Bellavista de La Florida
147971244;"{\"type\":\"LineString\",\"coordinates\":[[-70.5492639,-33.5351779],[-70.5496956,-33.5351643],[-70.5514359,-33.5350648],[-70.5516726,-33.5350445],[-70.5518924,-33.5350596],[-70.5520645,-33.5350984],[-70.5523066,-33.5351582],[-70.5525452,-33.5352536]]}";2;Rojas Magallanes;2;50;false;true;true;false;false;false;777.0;0;0;0;0;0;false;PE400;1175522148;-70.5492533;-33.5351092;PE402;1175522135;-70.5542138;-33.5356123;0;0;1;6449951;Rojas Magallanes - Bellavista de La Florida;#006633;Buses Vule;E07;Rojas Magallanes;Bellavista de La Florida
537318328;"{\"type\":\"LineString\",\"coordinates\":[[-70.5525452,-33.5352536],[-70.5532562,-33.5354732],[-70.5542782,-33.5356654]]}";3;Avenida Rojas Magallanes;2;50;false;true;true;false;false;false;421.0;0;0;0;0;0;false;PE400;1175522148;-70.5492533;-33.5351092;PE402;1175522135;-70.5542138;-33.5356123;2;0;1;6449951;Rojas Magallanes - Bellavista de La Florida;#006633;Buses Vule;E07;Rojas Magallanes;Bellavista de La Florida
537318328;"{\"type\":\"LineString\",\"coordinates\":[[-70.5525452,-33.5352536],[-70.5532562,-33.5354732],[-70.5542782,-33.5356654]]}";1;Avenida Rojas Magallanes;2;50;false;true;true;false;false;false;210.5;0;0;0;0;0;false;PE402;1175522135;-70.5542138;-33.5356123;PE403;1175522131;-70.5568419;-33.5359646;1;1;2;6449951;Rojas Magallanes - Bellavista de La Florida;#006633;Buses Vule;E07;Rojas Magallanes;Bellavista de La Florida
438890137;"{\"type\":\"LineString\",\"coordinates\":[[-70.5542782,-33.5356654],[-70.5546321,-33.5357284]]}";2;Avenida Rojas Magallanes;1;50;false;true;true;false;false;false;85.0;0;0;0;0;0;false;PE402;1175522135;-70.5542138;-33.5356123;PE403;1175522131;-70.5568419;-33.5359646;0;1;2;6449951;Rojas Magallanes - Bellavista de La Florida;#006633;Buses Vule;E07;Rojas Magallanes;Bellavista de La Florida
438890140;"{\"type\":\"LineString\",\"coordinates\":[[-70.5546321,-33.5357284],[-70.5548315,-33.5357397],[-70.5549053,-33.5357291],[-70.554995,-33.5357164],[-70.5551715,-33.5357432],[-70.5553919,-33.5357767],[-70.5554692,-33.5357915],[-70.555826,-33.5358874],[-70.555877,-33.5358997],[-70.5562998,-33.5359689],[-70.5564257,-33.5359888]]}";3;Rojas Magallanes;2;50;false;true;true;false;false;false;428.0;0;0;0;0;0;false;PE402;1175522135;-70.5542138;-33.5356123;PE403;1175522131;-70.5568419;-33.5359646;0;1;2;6449951;Rojas Magallanes - Bellavista de La Florida;#006633;Buses Vule;E07;Rojas Magallanes;Bellavista de La Florida
438890141;"{\"type\":\"LineString\",\"coordinates\":[[-70.5564257,-33.5359888],[-70.556546,-33.5360262],[-70.5569409,-33.536165]]}";4;Rojas Magallanes;1;50;false;true;true;false;false;false;65.0;0;0;0;0;0;false;PE402;1175522135;-70.5542138;-33.5356123;PE403;1175522131;-70.5568419;-33.5359646;1;1;2;6449951;Rojas Magallanes - Bellavista de La Florida;#006633;Buses Vule;E07;Rojas Magallanes;Bellavista de La Florida
438890141;"{\"type\":\"LineString\",\"coordinates\":[[-70.5564257,-33.5359888],[-70.556546,-33.5360262],[-70.5569409,-33.536165]]}";1;Rojas Magallanes;1;50;false;true;true;false;false;false;65.0;0;0;0;0;0;false;PE403;1175522131;-70.5568419;-33.5359646;PE551;1175522116;-70.5632893;-33.5352813;1;2;3;6449951;Rojas Magallanes - Bellavista de La Florida;#006633;Buses Vule;E07;Rojas Magallanes;Bellavista de La Florida
484627583;"{\"type\":\"LineString\",\"coordinates\":[[-70.5572771,-33.5362076],[-70.5569409,-33.536165]]}";2;Rojas Magallanes;2;40;false;false;true;false;false;false;80.0;1;0;0;0;0;false;PE403;1175522131;-70.5568419;-33.5359646;PE551;1175522116;-70.5632893;-33.5352813;0;2;3;6449951;Rojas Magallanes - Bellavista de La Florida;#006633;Buses Vule;E07;Rojas Magallanes;Bellavista de La Florida
438205752;"{\"type\":\"LineString\",\"coordinates\":[[-70.5651486,-33.5354423],[-70.5644764,-33.5354286],[-70.5641029,-33.5354156],[-70.563069,-33.5353905],[-70.5629026,-33.5353813],[-70.5616881,-33.5353424],[-70.5613479,-33.5353296],[-70.5609438,-33.5352958],[-70.560751,-33.5352975],[-70.5606557,-33.5353053],[-70.5605605,-33.5353176],[-70.5604977,-33.5353282],[-70.560435,-33.5353432],[-70.5603013,-33.5353734],[-70.5600738,-33.5354467],[-70.5598382,-33.5355312],[-70.5594424,-33.5357273],[-70.5588891,-33.5359944],[-70.558763,-33.5360582],[-70.5586597,-33.5361006],[-70.5585685,-33.5361331],[-70.5584673,-33.536161],[-70.5583479,-33.5361873],[-70.5580006,-33.5362448],[-70.5578772,-33.5362594],[-70.5577625,-33.5362689],[-70.5576566,-33.5362683],[-70.5575527,-33.5362616],[-70.5574621,-33.5362476],[-70.5572771,-33.5362076]]}";3;Avenida Rojas Magallanes;4;50;false;false;true;false;false;false;949.0;3;0;0;0;0;false;PE403;1175522131;-70.5568419;-33.5359646;PE551;1175522116;-70.5632893;-33.5352813;1;2;3;6449951;Rojas Magallanes - Bellavista de La Florida;#006633;Buses Vule;E07;Rojas Magallanes;Bellavista de La Florida
438205752;"{\"type\":\"LineString\",\"coordinates\":[[-70.5651486,-33.5354423],[-70.5644764,-33.5354286],[-70.5641029,-33.5354156],[-70.563069,-33.5353905],[-70.5629026,-33.5353813],[-70.5616881,-33.5353424],[-70.5613479,-33.5353296],[-70.5609438,-33.5352958],[-70.560751,-33.5352975],[-70.5606557,-33.5353053],[-70.5605605,-33.5353176],[-70.5604977,-33.5353282],[-70.560435,-33.5353432],[-70.5603013,-33.5353734],[-70.5600738,-33.5354467],[-70.5598382,-33.5355312],[-70.5594424,-33.5357273],[-70.5588891,-33.5359944],[-70.558763,-33.5360582],[-70.5586597,-33.5361006],[-70.5585685,-33.5361331],[-70.5584673,-33.536161],[-70.5583479,-33.5361873],[-70.5580006,-33.5362448],[-70.5578772,-33.5362594],[-70.5577625,-33.5362689],[-70.5576566,-33.5362683],[-70.5575527,-33.5362616],[-70.5574621,-33.5362476],[-70.5572771,-33.5362076]]}";1;Avenida Rojas Magallanes;4;50;false;false;true;false;false;false;949.0;3;0;0;0;0;false;PE551;1175522116;-70.5632893;-33.5352813;PE552;1175522106;-70.5667274;-33.5353478;1;3;4;6449951;Rojas Magallanes - Bellavista de La Florida;#006633;Buses Vule;E07;Rojas Magallanes;Bellavista de La Florida
451213963;"{\"type\":\"LineString\",\"coordinates\":[[-70.5732781,-33.5356277],[-70.5726469,-33.5356008],[-70.5705284,-33.535556],[-70.5702714,-33.5355506],[-70.5701849,-33.5355488],[-70.5697433,-33.5355394],[-70.5691236,-33.5355265],[-70.5686319,-33.5355162],[-70.5672505,-33.5354867],[-70.5668982,-33.5354793],[-70.5651486,-33.5354423]]}";2;Rojas Magallanes;4;50;false;false;true;false;false;false;948.0;2;1;0;0;0;false;PE551;1175522116;-70.5632893;-33.5352813;PE552;1175522106;-70.5667274;-33.5353478;1;3;4;6449951;Rojas Magallanes - Bellavista de La Florida;#006633;Buses Vule;E07;Rojas Magallanes;Bellavista de La Florida
451213963;"{\"type\":\"LineString\",\"coordinates\":[[-70.5732781,-33.5356277],[-70.5726469,-33.5356008],[-70.5705284,-33.535556],[-70.5702714,-33.5355506],[-70.5701849,-33.5355488],[-70.5697433,-33.5355394],[-70.5691236,-33.5355265],[-70.5686319,-33.5355162],[-70.5672505,-33.5354867],[-70.5668982,-33.5354793],[-70.5651486,-33.5354423]]}";1;Rojas Magallanes;4;50;false;false;true;false;false;false;948.0;2;1;0;0;0;false;PE554;1175522281;-70.5729847;-33.5355479;PE555;1175522266;-70.5752873;-33.5357771;1;6;7;6449951;Rojas Magallanes - Bellavista de La Florida;#006633;Buses Vule;E07;Rojas Magallanes;Bellavista de La Florida
451248480;"{\"type\":\"LineString\",\"coordinates\":[[-70.5736254,-33.5356548],[-70.5732781,-33.5356277]]}";2;Rojas Magallanes;4;50;false;false;true;false;false;false;82.0;2;0;0;0;0;false;PE554;1175522281;-70.5729847;-33.5355479;PE555;1175522266;-70.5752873;-33.5357771;0;6;7;6449951;Rojas Magallanes - Bellavista de La Florida;#006633;Buses Vule;E07;Rojas Magallanes;Bellavista de La Florida
511145808;"{\"type\":\"LineString\",\"coordinates\":[[-70.578262,-33.5361444],[-70.5770013,-33.5360101],[-70.5758232,-33.5358869],[-70.5745944,-33.5357571],[-70.5740133,-33.5356958],[-70.5736254,-33.5356548]]}";3;Rojas Magallanes;2;50;false;false;true;false;false;false;545.0;1;0;0;0;0;false;PE554;1175522281;-70.5729847;-33.5355479;PE555;1175522266;-70.5752873;-33.5357771;1;6;7;6449951;Rojas Magallanes - Bellavista de La Florida;#006633;Buses Vule;E07;Rojas Magallanes;Bellavista de La Florida
511145808;"{\"type\":\"LineString\",\"coordinates\":[[-70.578262,-33.5361444],[-70.5770013,-33.5360101],[-70.5758232,-33.5358869],[-70.5745944,-33.5357571],[-70.5740133,-33.5356958],[-70.5736254,-33.5356548]]}";1;Rojas Magallanes;2;50;false;false;true;false;false;false;545.0;1;0;0;0;0;false;PE556;1175522240;-70.5766586;-33.5358965;PE557;1175522219;-70.5793957;-33.5360125;1;8;9;6449951;Rojas Magallanes - Bellavista de La Florida;#006633;Buses Vule;E07;Rojas Magallanes;Bellavista de La Florida
450887556;"{\"type\":\"LineString\",\"coordinates\":[[-70.5920034,-33.5356082],[-70.5914252,-33.5356308],[-70.5900998,-33.5356825],[-70.5888069,-33.5357329],[-70.5874783,-33.5357848],[-70.586171,-33.5358358],[-70.5848566,-33.5358871],[-70.5835495,-33.5359381],[-70.5821975,-33.5359908],[-70.5808963,-33.5360416],[-70.5802439,-33.5360671],[-70.5795762,-33.5360931],[-70.578262,-33.5361444]]}";2;Rojas Magallanes;2;50;false;false;true;false;false;false;1603.5;2;0;0;0;0;false;PE556;1175522240;-70.5766586;-33.5358965;PE557;1175522219;-70.5793957;-33.5360125;1;8;9;6449951;Rojas Magallanes - Bellavista de La Florida;#006633;Buses Vule;E07;Rojas Magallanes;Bellavista de La Florida
450887556;"{\"type\":\"LineString\",\"coordinates\":[[-70.5920034,-33.5356082],[-70.5914252,-33.5356308],[-70.5900998,-33.5356825],[-70.5888069,-33.5357329],[-70.5874783,-33.5357848],[-70.586171,-33.5358358],[-70.5848566,-33.5358871],[-70.5835495,-33.5359381],[-70.5821975,-33.5359908],[-70.5808963,-33.5360416],[-70.5802439,-33.5360671],[-70.5795762,-33.5360931],[-70.578262,-33.5361444]]}";1;Rojas Magallanes;2;50;false;false;true;false;false;false;1603.5;2;0;0;0;0;false;PE561;1175522159;-70.5899388;-33.5356063;PE562;1175522092;-70.5923217;-33.5355682;1;13;14;6449951;Rojas Magallanes - Bellavista de La Florida;#006633;Buses Vule;E07;Rojas Magallanes;Bellavista de La Florida
450887557;"{\"type\":\"LineString\",\"coordinates\":[[-70.5920034,-33.5356082],[-70.5921684,-33.5355668],[-70.5927384,-33.5355537]]}";2;Rojas Magallanes;2;50;false;true;true;false;false;false;87.0;1;0;0;0;0;false;PE561;1175522159;-70.5899388;-33.5356063;PE562;1175522092;-70.5923217;-33.5355682;1;13;14;6449951;Rojas Magallanes - Bellavista de La Florida;#006633;Buses Vule;E07;Rojas Magallanes;Bellavista de La Florida
450887557;"{\"type\":\"LineString\",\"coordinates\":[[-70.5920034,-33.5356082],[-70.5921684,-33.5355668],[-70.5927384,-33.5355537]]}";1;Rojas Magallanes;2;50;false;true;true;false;false;false;87.0;1;0;0;0;0;false;PE562;1175522092;-70.5923217;-33.5355682;PE149;1175672231;-70.5939632;-33.5327914;1;14;15;6449951;Rojas Magallanes - Bellavista de La Florida;#006633;Buses Vule;E07;Rojas Magallanes;Bellavista de La Florida
435065268;"{\"type\":\"LineString\",\"coordinates\":[[-70.5927384,-33.5355537],[-70.592795,-33.5354432],[-70.5938212,-33.5330025],[-70.5940341,-33.5325176],[-70.5950011,-33.5303151]]}";2;Avenida Vicuña Mackenna Oriente;3;60;false;true;true;false;false;false;775.5;3;0;0;0;0;false;PE562;1175522092;-70.5923217;-33.5355682;PE149;1175672231;-70.5939632;-33.5327914;1;14;15;6449951;Rojas Magallanes - Bellavista de La Florida;#006633;Buses Vule;E07;Rojas Magallanes;Bellavista de La Florida
435065268;"{\"type\":\"LineString\",\"coordinates\":[[-70.5927384,-33.5355537],[-70.592795,-33.5354432],[-70.5938212,-33.5330025],[-70.5940341,-33.5325176],[-70.5950011,-33.5303151]]}";1;Avenida Vicuña Mackenna Oriente;3;60;false;true;true;false;false;false;775.5;3;0;0;0;0;false;PE150;1175672258;-70.5949717;-33.5305376;PE575;1175506851;-70.5963961;-33.5267353;1;16;17;6449951;Rojas Magallanes - Bellavista de La Florida;#006633;Buses Vule;E07;Rojas Magallanes;Bellavista de La Florida
433122093;"{\"type\":\"LineString\",\"coordinates\":[[-70.5950011,-33.5303151],[-70.5951733,-33.5299111],[-70.5952951,-33.5296051],[-70.5954668,-33.5291834],[-70.5957639,-33.5284438]]}";2;Avenida Vicuña Mackenna Oriente;3;60;false;true;true;false;false;false;551.0;2;0;0;0;0;false;PE150;1175672258;-70.5949717;-33.5305376;PE575;1175506851;-70.5963961;-33.5267353;0;16;17;6449951;Rojas Magallanes - Bellavista de La Florida;#006633;Buses Vule;E07;Rojas Magallanes;Bellavista de La Florida
427806980;"{\"type\":\"LineString\",\"coordinates\":[[-70.5957639,-33.5284438],[-70.596593,-33.5265089],[-70.5969027,-33.5257863],[-70.5971773,-33.5251455],[-70.5974097,-33.524603],[-70.5976392,-33.5240676],[-70.5980656,-33.5230724],[-70.5981656,-33.522839]]}";3;Avenida Vicuña Mackenna Oriente;3;50;false;true;true;false;false;false;829.0;3;0;0;0;0;false;PE150;1175672258;-70.5949717;-33.5305376;PE575;1175506851;-70.5963961;-33.5267353;1;16;17;6449951;Rojas Magallanes - Bellavista de La Florida;#006633;Buses Vule;E07;Rojas Magallanes;Bellavista de La Florida
