way_id;shape;index;name;nb_lanes;legal_speed;speed_zone_30;oneway;shares_bike;bike_box;bus_lane;dedicated_bus_lane;length;nb_traffic_signals;nb_crossings;nb_stops;nb_give_ways;nb_lvl_crossings;roundabout;stop_id_orig;node_id_orig;coord_x_orig;coord_y_orig;stop_id_dest;node_id_dest;coord_x_dest;coord_y_dest;nb_neighbouring_ways_bus_stop;ordre_orig;ordre_dest;id_line;line_name;colour;operator;ref;from;to
784908367;"{\"type\":\"LineString\",\"coordinates\":[[-73.480997,45.4257361],[-73.4809463,45.4258147],[-73.4808705,45.4259261],[-73.4808586,45.4259515],[-73.4808595,45.4259725],[-73.4808768,45.426001],[-73.4809072,45.4260255],[-73.4809417,45.4260433],[-73.4812639,45.4261534],[-73.4813112,45.4261641],[-73.4813493,45.4261674],[-73.4813912,45.4261595],[-73.4814235,45.4261424],[-73.4814474,45.4261216],[-73.4814672,45.4260993],[-73.4815293,45.4260122],[-73.481586,45.4259272]]}";1;"";1;50;false;true;true;false;true;false;108.0;0;0;1;0;0;false;75140;6133323347;-73.481053;45.426171;75236;6133323078;-73.486054;45.425233;1;0;1;9510106;Bus 29 : La Prairie hors pointe;"";EXO;29;Stationnement incitatif La Prairie;Stationnement incitatif La Prairie
487216955;"{\"type\":\"LineString\",\"coordinates\":[[-73.481586,45.4259272],[-73.4817445,45.4259779]]}";2;"";2;50;false;true;true;false;false;false;14.0;0;0;0;0;0;false;75140;6133323347;-73.481053;45.426171;75236;6133323078;-73.486054;45.425233;0;0;1;9510106;Bus 29 : La Prairie hors pointe;"";EXO;29;Stationnement incitatif La Prairie;Stationnement incitatif La Prairie
784908374;"{\"type\":\"LineString\",\"coordinates\":[[-73.4817445,45.4259779],[-73.4819456,45.426046],[-73.481975,45.4260559],[-73.4821227,45.4261076]]}";3;Avenue du Golf;2;50;false;true;true;false;false;false;33.0;1;1;0;0;0;false;75140;6133323347;-73.481053;45.426171;75236;6133323078;-73.486054;45.425233;0;0;1;9510106;Bus 29 : La Prairie hors pointe;"";EXO;29;Stationnement incitatif La Prairie;Stationnement incitatif La Prairie
496614176;"{\"type\":\"LineString\",\"coordinates\":[[-73.4821227,45.4261076],[-73.4822982,45.426172]]}";4;Avenue du Golf;2;50;false;true;true;false;false;false;16.0;0;0;0;0;0;false;75140;6133323347;-73.481053;45.426171;75236;6133323078;-73.486054;45.425233;0;0;1;9510106;Bus 29 : La Prairie hors pointe;"";EXO;29;Stationnement incitatif La Prairie;Stationnement incitatif La Prairie
496614174;"{\"type\":\"LineString\",\"coordinates\":[[-73.4822982,45.426172],[-73.4824482,45.4262298],[-73.48293,45.4263887]]}";5;Avenue de Balmoral;2;50;false;true;true;false;false;false;55.0;0;1;0;0;0;false;75140;6133323347;-73.481053;45.426171;75236;6133323078;-73.486054;45.425233;0;0;1;9510106;Bus 29 : La Prairie hors pointe;"";EXO;29;Stationnement incitatif La Prairie;Stationnement incitatif La Prairie
487216951;"{\"type\":\"LineString\",\"coordinates\":[[-73.48293,45.4263887],[-73.4831223,45.4264538],[-73.4833862,45.4265393],[-73.4834673,45.4265629],[-73.4835494,45.4265842],[-73.4836256,45.4266012],[-73.4836856,45.4266126],[-73.4837543,45.4266239],[-73.4838516,45.4266364],[-73.4839619,45.4266455],[-73.4840889,45.426651],[-73.4842084,45.4266497],[-73.4843237,45.426643],[-73.4844361,45.4266317],[-73.4845474,45.4266146],[-73.4846647,45.4265862],[-73.4847694,45.4265569],[-73.4848506,45.4265312],[-73.4849138,45.4265059],[-73.4850015,45.4264609],[-73.4850755,45.4264193],[-73.4851192,45.4263979]]}";6;Avenue de Balmoral;2;50;false;true;true;false;false;false;184.0;0;1;0;0;0;false;75140;6133323347;-73.481053;45.426171;75236;6133323078;-73.486054;45.425233;0;0;1;9510106;Bus 29 : La Prairie hors pointe;"";EXO;29;Stationnement incitatif La Prairie;Stationnement incitatif La Prairie
784926602;"{\"type\":\"LineString\",\"coordinates\":[[-73.4851192,45.4263979],[-73.4851722,45.4263683],[-73.4852657,45.4263133],[-73.485343,45.4262582],[-73.4853961,45.4262161],[-73.4854401,45.4261585],[-73.4854598,45.4261077]]}";7;Avenue de Balmoral;2;50;false;true;false;false;false;false;43.0;0;1;0;0;0;false;75140;6133323347;-73.481053;45.426171;75236;6133323078;-73.486054;45.425233;0;0;1;9510106;Bus 29 : La Prairie hors pointe;"";EXO;29;Stationnement incitatif La Prairie;Stationnement incitatif La Prairie
784926600;"{\"type\":\"LineString\",\"coordinates\":[[-73.4859531,45.4250953],[-73.4859185,45.4251774],[-73.485914,45.4251903],[-73.4857923,45.4254835],[-73.4857271,45.4256405],[-73.485693,45.4257219],[-73.4856518,45.4258157],[-73.4856082,45.4258906],[-73.4855961,45.4259098],[-73.4855478,45.4259863],[-73.4855081,45.4260463],[-73.4854598,45.4261077]]}";8;Avenue de Balmoral;2;40;false;false;false;false;false;false;60.0;0;1;1;0;0;false;75140;6133323347;-73.481053;45.426171;75236;6133323078;-73.486054;45.425233;1;0;1;9510106;Bus 29 : La Prairie hors pointe;"";EXO;29;Stationnement incitatif La Prairie;Stationnement incitatif La Prairie
794417770;"{\"type\":\"LineString\",\"coordinates\":[[-73.4861395,45.4246279],[-73.4860605,45.4248269],[-73.485994,45.4249943],[-73.4859761,45.4250395],[-73.4859531,45.4250953]]}";1;Avenue de Balmoral;2;40;false;false;false;false;false;false;54.0;0;0;1;0;0;false;75236;6133323078;-73.486054;45.425233;75234;428527211;-73.488669;45.423772;2;1;2;9510106;Bus 29 : La Prairie hors pointe;"";EXO;29;Stationnement incitatif La Prairie;Stationnement incitatif La Prairie
794417771;"{\"type\":\"LineString\",\"coordinates\":[[-73.4888803,45.4236694],[-73.4887743,45.4236467],[-73.4887349,45.4236388],[-73.4886048,45.4236116],[-73.4885241,45.4235961],[-73.4884248,45.423581],[-73.4883494,45.4235707],[-73.4882707,45.4235641],[-73.4882032,45.4235601],[-73.4881673,45.4235582],[-73.4881012,45.4235557],[-73.4880202,45.4235559],[-73.4879355,45.4235578],[-73.4878432,45.4235623],[-73.4877534,45.4235684],[-73.4876714,45.4235789],[-73.4875982,45.42359],[-73.4875717,45.423594],[-73.4875267,45.4236037],[-73.487463,45.4236176],[-73.4873961,45.4236344],[-73.4873215,45.4236543],[-73.4872744,45.4236682],[-73.4872142,45.4236883],[-73.4871672,45.4237048],[-73.4871285,45.4237185],[-73.4870572,45.4237456],[-73.487015,45.4237634],[-73.4869495,45.4237925],[-73.4868889,45.4238217],[-73.4868274,45.4238554],[-73.4867654,45.4238915],[-73.4867183,45.4239212],[-73.4866773,45.4239499],[-73.486595,45.4240089],[-73.4865354,45.4240582],[-73.4864776,45.424111],[-73.4864572,45.424131],[-73.486414,45.4241734],[-73.4863815,45.4242098],[-73.4863675,45.4242254],[-73.4863189,45.4242851],[-73.4862765,45.4243475],[-73.4862414,45.4244058],[-73.4862077,45.4244722],[-73.4861761,45.4245437],[-73.4861395,45.4246279]]}";2;Avenue de Balmoral;2;30;false;false;false;false;false;false;273.0;0;2;1;0;0;false;75236;6133323078;-73.486054;45.425233;75234;428527211;-73.488669;45.423772;2;1;2;9510106;Bus 29 : La Prairie hors pointe;"";EXO;29;Stationnement incitatif La Prairie;Stationnement incitatif La Prairie
794417771;"{\"type\":\"LineString\",\"coordinates\":[[-73.4888803,45.4236694],[-73.4887743,45.4236467],[-73.4887349,45.4236388],[-73.4886048,45.4236116],[-73.4885241,45.4235961],[-73.4884248,45.423581],[-73.4883494,45.4235707],[-73.4882707,45.4235641],[-73.4882032,45.4235601],[-73.4881673,45.4235582],[-73.4881012,45.4235557],[-73.4880202,45.4235559],[-73.4879355,45.4235578],[-73.4878432,45.4235623],[-73.4877534,45.4235684],[-73.4876714,45.4235789],[-73.4875982,45.42359],[-73.4875717,45.423594],[-73.4875267,45.4236037],[-73.487463,45.4236176],[-73.4873961,45.4236344],[-73.4873215,45.4236543],[-73.4872744,45.4236682],[-73.4872142,45.4236883],[-73.4871672,45.4237048],[-73.4871285,45.4237185],[-73.4870572,45.4237456],[-73.487015,45.4237634],[-73.4869495,45.4237925],[-73.4868889,45.4238217],[-73.4868274,45.4238554],[-73.4867654,45.4238915],[-73.4867183,45.4239212],[-73.4866773,45.4239499],[-73.486595,45.4240089],[-73.4865354,45.4240582],[-73.4864776,45.424111],[-73.4864572,45.424131],[-73.486414,45.4241734],[-73.4863815,45.4242098],[-73.4863675,45.4242254],[-73.4863189,45.4242851],[-73.4862765,45.4243475],[-73.4862414,45.4244058],[-73.4862077,45.4244722],[-73.4861761,45.4245437],[-73.4861395,45.4246279]]}";1;Avenue de Balmoral;2;30;false;false;false;false;false;false;136.5;0;2;1;0;0;false;75234;428527211;-73.488669;45.423772;75248;428528662;-73.49145;45.423359;1;2;3;9510106;Bus 29 : La Prairie hors pointe;"";EXO;29;Stationnement incitatif La Prairie;Stationnement incitatif La Prairie
794498657;"{\"type\":\"LineString\",\"coordinates\":[[-73.4911474,45.4221264],[-73.4911817,45.4222002],[-73.4912142,45.4222703],[-73.4912874,45.4224148],[-73.4913561,45.4225541],[-73.4913897,45.4226313],[-73.4913966,45.4226554],[-73.4914147,45.4227185],[-73.4914221,45.4227581],[-73.4914292,45.422796],[-73.4914335,45.4228577],[-73.4914312,45.4229221],[-73.4914185,45.4230032],[-73.4913985,45.4230807],[-73.4913779,45.4231388],[-73.4913718,45.4231558],[-73.4913277,45.4232403],[-73.4912816,45.4233117],[-73.4912524,45.4233487],[-73.4912038,45.4234081],[-73.4911291,45.4234806],[-73.4910553,45.4235415],[-73.4909663,45.4236056],[-73.4908749,45.4236586],[-73.4907837,45.4237029],[-73.4906938,45.4237404],[-73.4905943,45.4237752],[-73.4904983,45.4238048],[-73.4903989,45.4238306],[-73.4902836,45.4238495],[-73.4901623,45.4238628],[-73.4901267,45.4238648],[-73.4900555,45.4238687],[-73.4899304,45.4238696],[-73.4898056,45.4238634],[-73.4896874,45.4238453],[-73.489563,45.4238207],[-73.4890043,45.4236961],[-73.4888803,45.4236694]]}";2;Avenue de Balmoral;2;30;false;false;false;false;false;false;176.0;0;3;4;0;0;false;75234;428527211;-73.488669;45.423772;75248;428528662;-73.49145;45.423359;1;2;3;9510106;Bus 29 : La Prairie hors pointe;"";EXO;29;Stationnement incitatif La Prairie;Stationnement incitatif La Prairie
794498657;"{\"type\":\"LineString\",\"coordinates\":[[-73.4911474,45.4221264],[-73.4911817,45.4222002],[-73.4912142,45.4222703],[-73.4912874,45.4224148],[-73.4913561,45.4225541],[-73.4913897,45.4226313],[-73.4913966,45.4226554],[-73.4914147,45.4227185],[-73.4914221,45.4227581],[-73.4914292,45.422796],[-73.4914335,45.4228577],[-73.4914312,45.4229221],[-73.4914185,45.4230032],[-73.4913985,45.4230807],[-73.4913779,45.4231388],[-73.4913718,45.4231558],[-73.4913277,45.4232403],[-73.4912816,45.4233117],[-73.4912524,45.4233487],[-73.4912038,45.4234081],[-73.4911291,45.4234806],[-73.4910553,45.4235415],[-73.4909663,45.4236056],[-73.4908749,45.4236586],[-73.4907837,45.4237029],[-73.4906938,45.4237404],[-73.4905943,45.4237752],[-73.4904983,45.4238048],[-73.4903989,45.4238306],[-73.4902836,45.4238495],[-73.4901623,45.4238628],[-73.4901267,45.4238648],[-73.4900555,45.4238687],[-73.4899304,45.4238696],[-73.4898056,45.4238634],[-73.4896874,45.4238453],[-73.489563,45.4238207],[-73.4890043,45.4236961],[-73.4888803,45.4236694]]}";1;Avenue de Balmoral;2;30;false;false;false;false;false;false;176.0;0;3;4;0;0;false;75248;428528662;-73.49145;45.423359;75213;428528800;-73.490435;45.420905;1;3;4;9510106;Bus 29 : La Prairie hors pointe;"";EXO;29;Stationnement incitatif La Prairie;Stationnement incitatif La Prairie
25899308;"{\"type\":\"LineString\",\"coordinates\":[[-73.4902407,45.4208716],[-73.4902872,45.4208993],[-73.4903393,45.4209349],[-73.490384,45.4209669],[-73.4904332,45.4210041],[-73.4904856,45.4210485],[-73.4905394,45.4210959],[-73.4905789,45.421137],[-73.4905968,45.4211556],[-73.4906469,45.421218],[-73.4906891,45.4212759],[-73.4907302,45.4213366],[-73.4907719,45.4214088],[-73.4908126,45.4214831],[-73.4908402,45.421535],[-73.4908708,45.4215928],[-73.4910724,45.4219799],[-73.4911134,45.4220601],[-73.4911474,45.4221264]]}";2;Avenue de Balmoral;2;40;false;false;false;false;false;false;79.5;0;1;2;0;0;false;75248;428528662;-73.49145;45.423359;75213;428528800;-73.490435;45.420905;1;3;4;9510106;Bus 29 : La Prairie hors pointe;"";EXO;29;Stationnement incitatif La Prairie;Stationnement incitatif La Prairie
795375106;"{\"type\":\"LineString\",\"coordinates\":[[-73.4912096,45.4197009],[-73.490957,45.4201013],[-73.4908902,45.4202072],[-73.4908459,45.420272],[-73.4908299,45.4202954],[-73.4907645,45.4203818],[-73.4907141,45.4204466],[-73.4906509,45.4205175],[-73.490583,45.4205845],[-73.4905066,45.4206548],[-73.4904391,45.4207119],[-73.4903265,45.4208013],[-73.4902986,45.4208242],[-73.4902407,45.4208716]]}";1;Rue Notre-Dame;2;50;false;false;true;false;false;false;152.0;0;2;1;0;0;false;75213;428528800;-73.490435;45.420905;75202;6133323304;-73.492142;45.418485;2;4;5;9510106;Bus 29 : La Prairie hors pointe;"";EXO;29;Stationnement incitatif La Prairie;Stationnement incitatif La Prairie
795375184;"{\"type\":\"LineString\",\"coordinates\":[[-73.4921349,45.4183121],[-73.4920889,45.4183607],[-73.4920355,45.4184227],[-73.4920026,45.41847],[-73.4915957,45.4190964],[-73.4912096,45.4197009]]}";2;Rue Notre-Dame;2;50;false;false;true;false;false;false;171.0;0;2;1;0;0;false;75213;428528800;-73.490435;45.420905;75202;6133323304;-73.492142;45.418485;2;4;5;9510106;Bus 29 : La Prairie hors pointe;"";EXO;29;Stationnement incitatif La Prairie;Stationnement incitatif La Prairie
795026511;"{\"type\":\"LineString\",\"coordinates\":[[-73.4939703,45.4163894],[-73.4939242,45.4164379],[-73.4938995,45.416464],[-73.493721,45.416652],[-73.4934829,45.4169028],[-73.4934604,45.4169265],[-73.4934127,45.4169771]]}";1;Rue Notre-Dame;2;30;false;false;true;false;false;false;79.0;0;2;2;0;0;false;75160;6133323336;-73.493444;45.417074;75577;6133322663;-73.494627;45.415871;2;6;7;9510106;Bus 29 : La Prairie hors pointe;"";EXO;29;Stationnement incitatif La Prairie;Stationnement incitatif La Prairie
685298022;"{\"type\":\"LineString\",\"coordinates\":[[-73.4945956,45.4157439],[-73.4945427,45.4157938],[-73.4945203,45.4158148],[-73.4942548,45.4160937],[-73.494057,45.4162993],[-73.4940197,45.416338],[-73.4939703,45.4163894]]}";2;Rue Notre-Dame;2;50;false;false;true;false;false;false;87.0;0;2;2;0;0;false;75160;6133323336;-73.493444;45.417074;75577;6133322663;-73.494627;45.415871;2;6;7;9510106;Bus 29 : La Prairie hors pointe;"";EXO;29;Stationnement incitatif La Prairie;Stationnement incitatif La Prairie
685298023;"{\"type\":\"LineString\",\"coordinates\":[[-73.4945956,45.4157439],[-73.494665,45.4157755],[-73.4947021,45.4157924],[-73.4951063,45.415984],[-73.4954178,45.4161304],[-73.4959022,45.4163581],[-73.4962924,45.4165409],[-73.4963273,45.4165571],[-73.4963818,45.4165824]]}";1;Rue Saint-Henri;2;50;false;false;true;false;false;false;168.0;0;2;2;0;0;false;75577;6133322663;-73.494627;45.415871;75576;6133322664;-73.496615;45.416507;2;7;8;9510106;Bus 29 : La Prairie hors pointe;"";EXO;29;Stationnement incitatif La Prairie;Stationnement incitatif La Prairie
24048859;"{\"type\":\"LineString\",\"coordinates\":[[-73.4963818,45.4165824],[-73.4964367,45.4165299],[-73.496458,45.4165094],[-73.4967513,45.4162034],[-73.497019,45.4159168],[-73.4971808,45.4157382],[-73.4972154,45.4157],[-73.4976594,45.4152159],[-73.4977124,45.4151573],[-73.497897,45.4149557],[-73.4979621,45.4148847],[-73.4980424,45.4147981],[-73.4980983,45.4147374],[-73.4984658,45.4143388],[-73.4985036,45.4142972],[-73.498637,45.4141502],[-73.4992031,45.4135194],[-73.4992195,45.4134981],[-73.4992264,45.4134848],[-73.4992309,45.4134761],[-73.4992349,45.4134606],[-73.4992467,45.4134409],[-73.4992602,45.413426]]}";2;Rue Saint-Laurent;2;50;false;false;true;false;false;false;417.0;0;7;2;0;0;false;75577;6133322663;-73.494627;45.415871;75576;6133322664;-73.496615;45.416507;2;7;8;9510106;Bus 29 : La Prairie hors pointe;"";EXO;29;Stationnement incitatif La Prairie;Stationnement incitatif La Prairie
796260303;"{\"type\":\"LineString\",\"coordinates\":[[-73.4950897,45.4099266],[-73.4951307,45.4098833],[-73.495611,45.4093755],[-73.4956517,45.4093325]]}";1;Boulevard Taschereau;3;50;false;true;true;false;false;false;80.0;0;2;0;0;0;false;75152;6133323343;-73.495115;45.410016;75219;6133323292;-73.496152;45.408878;2;14;15;9510106;Bus 29 : La Prairie hors pointe;"";EXO;29;Stationnement incitatif La Prairie;Stationnement incitatif La Prairie
796260316;"{\"type\":\"LineString\",\"coordinates\":[[-73.4956517,45.4093325],[-73.4956996,45.4092787],[-73.4960632,45.4088711],[-73.4961289,45.4087974]]}";2;Boulevard Taschereau;3;50;false;true;true;false;false;false;71.0;0;2;0;0;0;false;75152;6133323343;-73.495115;45.410016;75219;6133323292;-73.496152;45.408878;2;14;15;9510106;Bus 29 : La Prairie hors pointe;"";EXO;29;Stationnement incitatif La Prairie;Stationnement incitatif La Prairie
24048384;"{\"type\":\"LineString\",\"coordinates\":[[-73.4961289,45.4087974],[-73.4962612,45.4087275],[-73.4963429,45.4086434],[-73.4964356,45.4085551],[-73.496458,45.4085328],[-73.4965413,45.4084571],[-73.4966377,45.4083783],[-73.4966802,45.4083487],[-73.4967467,45.4083037],[-73.496822,45.4082592],[-73.49688,45.4082293],[-73.496947,45.4081973],[-73.4970457,45.4081559],[-73.4971255,45.4081289],[-73.4971944,45.4081095],[-73.4972822,45.4080858],[-73.4973646,45.4080672],[-73.4974971,45.4080412],[-73.4975977,45.4080269],[-73.4977367,45.4080127]]}";1;"";1;50;false;true;true;false;false;false;159.0;0;2;0;0;0;false;75219;6133323292;-73.496152;45.408878;75220;6133323291;-73.499878;45.408087;2;15;16;9510106;Bus 29 : La Prairie hors pointe;"";EXO;29;Stationnement incitatif La Prairie;Stationnement incitatif La Prairie
796550270;"{\"type\":\"LineString\",\"coordinates\":[[-73.4977367,45.4080127],[-73.4981697,45.4079902],[-73.4982999,45.4079834]]}";2;Rue Salaberry;1;50;false;true;true;false;false;false;45.0;0;0;0;0;0;false;75219;6133323292;-73.496152;45.408878;75220;6133323291;-73.499878;45.408087;0;15;16;9510106;Bus 29 : La Prairie hors pointe;"";EXO;29;Stationnement incitatif La Prairie;Stationnement incitatif La Prairie
126219784;"{\"type\":\"LineString\",\"coordinates\":[[-73.5032312,45.4081684],[-73.5027083,45.4081478],[-73.502661,45.4081459],[-73.5025637,45.4081416],[-73.5024796,45.4081378],[-73.5024489,45.4081364],[-73.5001221,45.408038],[-73.5000893,45.4080366],[-73.4999977,45.4080324],[-73.4999048,45.408029],[-73.4998741,45.4080277],[-73.499523,45.4080132],[-73.4993107,45.4080063],[-73.4991023,45.408],[-73.49879,45.4079921],[-73.4982999,45.4079834]]}";3;Rue Salaberry;2;50;false;false;true;false;false;false;387.0;0;4;4;0;0;false;75219;6133323292;-73.496152;45.408878;75220;6133323291;-73.499878;45.408087;2;15;16;9510106;Bus 29 : La Prairie hors pointe;"";EXO;29;Stationnement incitatif La Prairie;Stationnement incitatif La Prairie
126219784;"{\"type\":\"LineString\",\"coordinates\":[[-73.5032312,45.4081684],[-73.5027083,45.4081478],[-73.502661,45.4081459],[-73.5025637,45.4081416],[-73.5024796,45.4081378],[-73.5024489,45.4081364],[-73.5001221,45.408038],[-73.5000893,45.4080366],[-73.4999977,45.4080324],[-73.4999048,45.408029],[-73.4998741,45.4080277],[-73.499523,45.4080132],[-73.4993107,45.4080063],[-73.4991023,45.408],[-73.49879,45.4079921],[-73.4982999,45.4079834]]}";1;Rue Salaberry;2;50;false;false;true;false;false;false;193.5;0;4;4;0;0;false;75157;6133323339;-73.502499;45.408203;75239;6133323076;-73.503834;45.407644;1;17;18;9510106;Bus 29 : La Prairie hors pointe;"";EXO;29;Stationnement incitatif La Prairie;Stationnement incitatif La Prairie
472920389;"{\"type\":\"LineString\",\"coordinates\":[[-73.5032312,45.4081684],[-73.5033286,45.4081732],[-73.5033977,45.408173],[-73.5034565,45.4081681],[-73.5035157,45.4081585],[-73.5036351,45.4081462],[-73.503661,45.4081476],[-73.5036889,45.4081559],[-73.5037519,45.4081841]]}";2;Rue Salaberry;1;50;false;true;true;false;false;false;43.0;0;1;0;0;0;false;75157;6133323339;-73.502499;45.408203;75239;6133323076;-73.503834;45.407644;0;17;18;9510106;Bus 29 : La Prairie hors pointe;"";EXO;29;Stationnement incitatif La Prairie;Stationnement incitatif La Prairie
796922831;"{\"type\":\"LineString\",\"coordinates\":[[-73.5037519,45.4081841],[-73.5037897,45.4082035],[-73.5038319,45.4082158],[-73.5038721,45.40822],[-73.5039126,45.4082179],[-73.5039515,45.4082097]]}";3;"";2;30;false;false;true;false;false;false;17.0;0;0;0;0;0;true;75157;6133323339;-73.502499;45.408203;75239;6133323076;-73.503834;45.407644;0;17;18;9510106;Bus 29 : La Prairie hors pointe;"";EXO;29;Stationnement incitatif La Prairie;Stationnement incitatif La Prairie
796922830;"{\"type\":\"LineString\",\"coordinates\":[[-73.5039515,45.4082097],[-73.5039962,45.4081906],[-73.5040314,45.4081634],[-73.5040543,45.4081304],[-73.504063,45.4080941],[-73.5040568,45.4080576]]}";4;"";2;30;false;false;true;false;false;false;21.0;0;0;0;0;0;true;75157;6133323339;-73.502499;45.408203;75239;6133323076;-73.503834;45.407644;0;17;18;9510106;Bus 29 : La Prairie hors pointe;"";EXO;29;Stationnement incitatif La Prairie;Stationnement incitatif La Prairie
685127908;"{\"type\":\"LineString\",\"coordinates\":[[-73.5040568,45.4080576],[-73.5040458,45.4080371],[-73.5040238,45.4080146],[-73.5039971,45.407995]]}";5;"";2;30;false;false;true;false;false;false;9.0;0;0;0;0;0;true;75157;6133323339;-73.502499;45.408203;75239;6133323076;-73.503834;45.407644;0;17;18;9510106;Bus 29 : La Prairie hors pointe;"";EXO;29;Stationnement incitatif La Prairie;Stationnement incitatif La Prairie
255307796;"{\"type\":\"LineString\",\"coordinates\":[[-73.5039971,45.407995],[-73.5039302,45.4079444],[-73.5038875,45.4079037],[-73.5038573,45.4078767],[-73.5038266,45.4078466],[-73.5037787,45.4077968],[-73.5037472,45.407758],[-73.5037173,45.4077142],[-73.5036795,45.4076502],[-73.5036472,45.4075991],[-73.503602,45.4075405]]}";6;Boulevard Saint-José;1;30;false;true;true;false;false;false;30.0;0;1;0;0;0;false;75157;6133323339;-73.502499;45.408203;75239;6133323076;-73.503834;45.407644;1;17;18;9510106;Bus 29 : La Prairie hors pointe;"";EXO;29;Stationnement incitatif La Prairie;Stationnement incitatif La Prairie
255307796;"{\"type\":\"LineString\",\"coordinates\":[[-73.5039971,45.407995],[-73.5039302,45.4079444],[-73.5038875,45.4079037],[-73.5038573,45.4078767],[-73.5038266,45.4078466],[-73.5037787,45.4077968],[-73.5037472,45.407758],[-73.5037173,45.4077142],[-73.5036795,45.4076502],[-73.5036472,45.4075991],[-73.503602,45.4075405]]}";1;Boulevard Saint-José;1;30;false;true;true;false;false;false;30.0;0;1;0;0;0;false;75239;6133323076;-73.503834;45.407644;75241;6133323075;-73.499864;45.405894;1;18;19;9510106;Bus 29 : La Prairie hors pointe;"";EXO;29;Stationnement incitatif La Prairie;Stationnement incitatif La Prairie
796922824;"{\"type\":\"LineString\",\"coordinates\":[[-73.503602,45.4075405],[-73.5035456,45.4074754],[-73.5034894,45.4074197],[-73.5034173,45.4073569],[-73.503328,45.4072891],[-73.5032123,45.4072025],[-73.5031236,45.407141],[-73.5030224,45.4070789],[-73.5028901,45.4070047],[-73.5028001,45.4069577],[-73.5027063,45.406914],[-73.5026185,45.4068763],[-73.5025674,45.4068563],[-73.50247,45.4068179],[-73.5023697,45.4067809],[-73.5023046,45.4067598],[-73.5021077,45.4066961],[-73.5020657,45.4066825],[-73.5019751,45.4066534],[-73.5012928,45.4064353],[-73.5004674,45.4061756],[-73.4999753,45.4060198],[-73.4999014,45.405997],[-73.4992839,45.4058009],[-73.4989421,45.4056855]]}";2;Boulevard Saint-José;2;30;false;true;true;false;false;false;212.5;0;4;0;0;0;false;75239;6133323076;-73.503834;45.407644;75241;6133323075;-73.499864;45.405894;1;18;19;9510106;Bus 29 : La Prairie hors pointe;"";EXO;29;Stationnement incitatif La Prairie;Stationnement incitatif La Prairie
796922824;"{\"type\":\"LineString\",\"coordinates\":[[-73.503602,45.4075405],[-73.5035456,45.4074754],[-73.5034894,45.4074197],[-73.5034173,45.4073569],[-73.503328,45.4072891],[-73.5032123,45.4072025],[-73.5031236,45.407141],[-73.5030224,45.4070789],[-73.5028901,45.4070047],[-73.5028001,45.4069577],[-73.5027063,45.406914],[-73.5026185,45.4068763],[-73.5025674,45.4068563],[-73.50247,45.4068179],[-73.5023697,45.4067809],[-73.5023046,45.4067598],[-73.5021077,45.4066961],[-73.5020657,45.4066825],[-73.5019751,45.4066534],[-73.5012928,45.4064353],[-73.5004674,45.4061756],[-73.4999753,45.4060198],[-73.4999014,45.405997],[-73.4992839,45.4058009],[-73.4989421,45.4056855]]}";1;Boulevard Saint-José;2;30;false;true;true;false;false;false;212.5;0;4;0;0;0;false;75241;6133323075;-73.499864;45.405894;75164;6133323332;-73.497221;45.405254;1;19;20;9510106;Bus 29 : La Prairie hors pointe;"";EXO;29;Stationnement incitatif La Prairie;Stationnement incitatif La Prairie
796922822;"{\"type\":\"LineString\",\"coordinates\":[[-73.4989421,45.4056855],[-73.4985353,45.4055549],[-73.4984972,45.4055421],[-73.4983529,45.4055033]]}";2;Boulevard Saint-José;3;30;false;true;true;false;false;false;51.0;1;1;0;0;0;false;75241;6133323075;-73.499864;45.405894;75164;6133323332;-73.497221;45.405254;0;19;20;9510106;Bus 29 : La Prairie hors pointe;"";EXO;29;Stationnement incitatif La Prairie;Stationnement incitatif La Prairie
685130567;"{\"type\":\"LineString\",\"coordinates\":[[-73.4983529,45.4055033],[-73.4981253,45.4054497]]}";3;Boulevard Saint-José;2;50;false;true;true;false;false;false;19.0;0;0;0;0;0;false;75241;6133323075;-73.499864;45.405894;75164;6133323332;-73.497221;45.405254;0;19;20;9510106;Bus 29 : La Prairie hors pointe;"";EXO;29;Stationnement incitatif La Prairie;Stationnement incitatif La Prairie
500078347;"{\"type\":\"LineString\",\"coordinates\":[[-73.4981253,45.4054497],[-73.4980596,45.4054348],[-73.4979732,45.4054204],[-73.4978766,45.4054121],[-73.497774,45.4054021],[-73.4976867,45.4053892],[-73.4976003,45.405374],[-73.4975151,45.4053577],[-73.4974215,45.4053343],[-73.4972951,45.4053064],[-73.4970779,45.4052585]]}";4;Chemin Saint-José;2;40;false;true;true;false;false;false;42.5;0;0;0;0;0;false;75241;6133323075;-73.499864;45.405894;75164;6133323332;-73.497221;45.405254;1;19;20;9510106;Bus 29 : La Prairie hors pointe;"";EXO;29;Stationnement incitatif La Prairie;Stationnement incitatif La Prairie
796546613;"{\"type\":\"LineString\",\"coordinates\":[[-73.4969679,45.4052213],[-73.4970779,45.4052585]]}";1;Chemin Saint-José;3;40;false;false;true;false;false;false;10.0;0;0;0;0;0;false;75164;6133323332;-73.497221;45.405254;75193;6133323311;-73.494729;45.403098;2;20;21;9510106;Bus 29 : La Prairie hors pointe;"";EXO;29;Stationnement incitatif La Prairie;Stationnement incitatif La Prairie
785585778;"{\"type\":\"LineString\",\"coordinates\":[[-73.4965066,45.404935],[-73.4966022,45.405019],[-73.4966843,45.4050839],[-73.4967569,45.4051309],[-73.4968241,45.4051645],[-73.4969,45.4051961],[-73.4969679,45.4052213]]}";2;Chemin Saint-José;3;40;false;false;true;false;false;false;49.0;0;1;0;0;0;false;75164;6133323332;-73.497221;45.405254;75193;6133323311;-73.494729;45.403098;0;20;21;9510106;Bus 29 : La Prairie hors pointe;"";EXO;29;Stationnement incitatif La Prairie;Stationnement incitatif La Prairie
804417619;"{\"type\":\"LineString\",\"coordinates\":[[-73.4964064,45.4048394],[-73.4964327,45.4048654],[-73.4965066,45.404935]]}";3;Chemin Saint-José;3;40;false;false;true;false;false;false;14.0;0;1;0;0;0;false;75164;6133323332;-73.497221;45.405254;75193;6133323311;-73.494729;45.403098;0;20;21;9510106;Bus 29 : La Prairie hors pointe;"";EXO;29;Stationnement incitatif La Prairie;Stationnement incitatif La Prairie
25654157;"{\"type\":\"LineString\",\"coordinates\":[[-73.494584,45.4030582],[-73.4948725,45.4033348],[-73.4952415,45.4036917],[-73.4952988,45.4037477],[-73.495796,45.4042344],[-73.4964064,45.4048394]]}";4;Chemin Saint-José;3;40;false;false;true;false;false;false;244.0;0;0;0;0;0;false;75164;6133323332;-73.497221;45.405254;75193;6133323311;-73.494729;45.403098;2;20;21;9510106;Bus 29 : La Prairie hors pointe;"";EXO;29;Stationnement incitatif La Prairie;Stationnement incitatif La Prairie
685130565;"{\"type\":\"LineString\",\"coordinates\":[[-73.4969528,45.4006072],[-73.4967876,45.4007822],[-73.4962258,45.4013773],[-73.4961688,45.4014376],[-73.4961344,45.401474],[-73.495883,45.4017402],[-73.4957186,45.4019144],[-73.4956794,45.4019559],[-73.4953888,45.4022636],[-73.4952217,45.4024406],[-73.4948443,45.4028403],[-73.4947505,45.4029396],[-73.494703,45.4029847],[-73.4946598,45.4030187],[-73.4946153,45.4030453],[-73.494584,45.4030582]]}";1;Rue Industrielle;2;50;false;false;true;false;false;false;165.0;0;0;1;0;0;false;75192;6133323312;-73.496867;45.400834;75196;6133323308;-73.492178;45.39865;1;22;23;9510106;Bus 29 : La Prairie hors pointe;"";EXO;29;Stationnement incitatif La Prairie;Stationnement incitatif La Prairie
13469101;"{\"type\":\"LineString\",\"coordinates\":[[-73.4969528,45.4006072],[-73.4967992,45.4005358],[-73.4961532,45.4002359],[-73.4958823,45.4001102],[-73.4957002,45.4000257],[-73.4955454,45.3999538],[-73.4952461,45.399817],[-73.4950893,45.3997454],[-73.4949978,45.3997036],[-73.494858,45.3996397],[-73.494762,45.3995943],[-73.4945552,45.3994966],[-73.4943261,45.3993883],[-73.4938705,45.399173],[-73.4937885,45.3991343],[-73.4932872,45.398899],[-73.4932207,45.3988737],[-73.4931408,45.3988465],[-73.4930537,45.3988224],[-73.4929482,45.3987995],[-73.4929107,45.3987937],[-73.4928022,45.3987771],[-73.4922071,45.3987042],[-73.4921589,45.3987023],[-73.4921114,45.3987025],[-73.4920669,45.3987048]]}";2;Rue Bernier;2;40;false;false;true;false;false;false;221.5;0;0;2;0;0;false;75192;6133323312;-73.496867;45.400834;75196;6133323308;-73.492178;45.39865;1;22;23;9510106;Bus 29 : La Prairie hors pointe;"";EXO;29;Stationnement incitatif La Prairie;Stationnement incitatif La Prairie
804237683;"{\"type\":\"LineString\",\"coordinates\":[[-73.4920669,45.3987048],[-73.4920024,45.3986999],[-73.4919429,45.3986964],[-73.491894,45.3986935],[-73.4915875,45.3987371],[-73.4913908,45.3987904]]}";1;Avenue de la Briqueterie;1;40;false;true;true;false;false;false;55.0;0;2;0;0;0;false;75196;6133323308;-73.492178;45.39865;75410;559783290;-73.489634;45.39906;2;23;24;9510106;Bus 29 : La Prairie hors pointe;"";EXO;29;Stationnement incitatif La Prairie;Stationnement incitatif La Prairie
804237690;"{\"type\":\"LineString\",\"coordinates\":[[-73.4905331,45.3989318],[-73.4907072,45.3988997],[-73.490899,45.3988655],[-73.4911372,45.3988271],[-73.4913908,45.3987904]]}";2;Avenue de la Briqueterie;2;40;false;false;true;false;false;false;69.0;0;0;0;0;0;false;75196;6133323308;-73.492178;45.39865;75410;559783290;-73.489634;45.39906;0;23;24;9510106;Bus 29 : La Prairie hors pointe;"";EXO;29;Stationnement incitatif La Prairie;Stationnement incitatif La Prairie
804483941;"{\"type\":\"LineString\",\"coordinates\":[[-73.4862904,45.3972905],[-73.4863314,45.3973532],[-73.4863512,45.3973828],[-73.4867093,45.3978556],[-73.4867891,45.3979646],[-73.4868541,45.3980616],[-73.4869055,45.3981254],[-73.4869526,45.3981783],[-73.4870184,45.3982478],[-73.4870736,45.3982972],[-73.4871267,45.3983394],[-73.4871883,45.3983818],[-73.4872542,45.3984231],[-73.4873205,45.39846],[-73.4875038,45.3985521],[-73.488227,45.3988885],[-73.4883981,45.3989666],[-73.4885119,45.3990164],[-73.4886185,45.3990595],[-73.4886829,45.399082],[-73.4887525,45.3991012],[-73.4888227,45.3991174],[-73.4889108,45.3991348],[-73.488993,45.3991481],[-73.4890924,45.3991571],[-73.4891973,45.3991613],[-73.489295,45.3991604],[-73.4893352,45.3991587],[-73.4893946,45.3991561],[-73.4895047,45.3991495],[-73.4895645,45.3991429],[-73.489629,45.399134],[-73.4896874,45.399123],[-73.4899812,45.3990626],[-73.4901929,45.3990054],[-73.4903676,45.3989653],[-73.4904519,45.3989475],[-73.4905331,45.3989318]]}";3;Avenue de la Briqueterie;2;40;false;false;true;false;false;false;431.0;0;3;3;0;0;false;75196;6133323308;-73.492178;45.39865;75410;559783290;-73.489634;45.39906;2;23;24;9510106;Bus 29 : La Prairie hors pointe;"";EXO;29;Stationnement incitatif La Prairie;Stationnement incitatif La Prairie
804274280;"{\"type\":\"LineString\",\"coordinates\":[[-73.4847497,45.3964474],[-73.4850012,45.3965654],[-73.4854755,45.3967916],[-73.4860095,45.3970391],[-73.4860605,45.3970639],[-73.4861096,45.3970927],[-73.4861462,45.3971197],[-73.4861926,45.3971574],[-73.486219,45.3971819],[-73.4862397,45.3972138],[-73.4862904,45.3972905]]}";1;Avenue de la Briqueterie;2;40;false;false;true;false;false;false;155.0;0;1;1;0;0;false;75411;559783271;-73.486445;45.397341;75434;559783281;-73.4841209;45.3962362;2;25;26;9510106;Bus 29 : La Prairie hors pointe;"";EXO;29;Stationnement incitatif La Prairie;Stationnement incitatif La Prairie
10149095;"{\"type\":\"LineString\",\"coordinates\":[[-73.4836709,45.3963062],[-73.4837651,45.3963081],[-73.483835,45.3963099],[-73.4839576,45.3963138],[-73.484167,45.3963141],[-73.4842316,45.396315],[-73.4842953,45.3963172],[-73.4843659,45.3963235],[-73.4844045,45.3963301],[-73.4844304,45.3963343],[-73.4844971,45.3963492],[-73.4845461,45.396364],[-73.4846055,45.3963854],[-73.4846675,45.3964097],[-73.4847497,45.3964474]]}";2;Avenue de la Briqueterie;2;30;false;false;true;false;false;false;88.0;0;1;1;0;0;false;75411;559783271;-73.486445;45.397341;75434;559783281;-73.4841209;45.3962362;2;25;26;9510106;Bus 29 : La Prairie hors pointe;"";EXO;29;Stationnement incitatif La Prairie;Stationnement incitatif La Prairie
10149095;"{\"type\":\"LineString\",\"coordinates\":[[-73.4836709,45.3963062],[-73.4837651,45.3963081],[-73.483835,45.3963099],[-73.4839576,45.3963138],[-73.484167,45.3963141],[-73.4842316,45.396315],[-73.4842953,45.3963172],[-73.4843659,45.3963235],[-73.4844045,45.3963301],[-73.4844304,45.3963343],[-73.4844971,45.3963492],[-73.4845461,45.396364],[-73.4846055,45.3963854],[-73.4846675,45.3964097],[-73.4847497,45.3964474]]}";1;Avenue de la Briqueterie;2;30;false;false;true;false;false;false;44.0;0;1;1;0;0;false;75434;559783281;-73.4841209;45.3962362;75413;6133322854;-73.481237;45.398774;1;26;27;9510106;Bus 29 : La Prairie hors pointe;"";EXO;29;Stationnement incitatif La Prairie;Stationnement incitatif La Prairie
53015280;"{\"type\":\"LineString\",\"coordinates\":[[-73.4836709,45.3963062],[-73.483666,45.396396],[-73.483664,45.3964415],[-73.4836587,45.396515],[-73.4836502,45.3965786],[-73.4836396,45.396635],[-73.4836272,45.3967],[-73.4836133,45.3967548],[-73.4835947,45.3968122],[-73.4835754,45.3968648],[-73.4835558,45.3969124],[-73.4835315,45.3969678],[-73.4835042,45.397026],[-73.4834782,45.3970718],[-73.4834387,45.3971368],[-73.483392,45.3972059],[-73.4833509,45.3972624],[-73.4833249,45.3972961],[-73.483301,45.3973261],[-73.4832916,45.3973373],[-73.4832683,45.3973651],[-73.4832284,45.3974105],[-73.483185,45.3974539],[-73.4831616,45.3974764],[-73.4831445,45.3974929],[-73.4830876,45.3975438],[-73.4830296,45.3975924],[-73.4829828,45.3976288],[-73.4829321,45.397668],[-73.482816,45.3977514],[-73.4827439,45.3978025],[-73.4826961,45.3978384],[-73.4820446,45.3983287],[-73.4819576,45.3983911],[-73.4818822,45.3984465],[-73.4813606,45.3988314],[-73.4813168,45.3988631],[-73.4812438,45.3989149],[-73.4811669,45.398973],[-73.481149,45.3989863],[-73.4805419,45.3994357],[-73.480469,45.3994897],[-73.4803843,45.3995506],[-73.4800216,45.3998166],[-73.4799027,45.3999016],[-73.4797901,45.3999801],[-73.4797234,45.4000262],[-73.479695,45.4000443],[-73.4795962,45.4001073],[-73.4795132,45.4001622],[-73.4790752,45.4004526],[-73.4789959,45.4005061],[-73.4789151,45.4005606],[-73.4788279,45.4006189],[-73.4782609,45.4010056],[-73.4782332,45.4010231],[-73.4781609,45.401069],[-73.4780845,45.4011167],[-73.4779539,45.4011904],[-73.4778863,45.4012244],[-73.4778151,45.4012555],[-73.4777498,45.40128],[-73.4776847,45.401301],[-73.477607,45.4013215],[-73.4775251,45.4013393],[-73.4774528,45.4013529],[-73.4773821,45.401363],[-73.4773057,45.4013715],[-73.477225,45.4013768],[-73.4766586,45.4014001],[-73.4765161,45.4014021],[-73.4764632,45.4014015],[-73.4764448,45.4014013],[-73.4763736,45.4013969],[-73.4763206,45.4013928],[-73.4762492,45.4013837],[-73.4761823,45.4013732],[-73.4761041,45.401357],[-73.4760523,45.4013445],[-73.4760259,45.4013381],[-73.475978,45.4013247],[-73.4759474,45.4013163],[-73.4758842,45.4012954],[-73.475805,45.4012656],[-73.4757182,45.4012284],[-73.4756389,45.4011908],[-73.4755934,45.4011654],[-73.4755725,45.4011537],[-73.4755129,45.4011192],[-73.4751431,45.4008715],[-73.4750799,45.4008304],[-73.4750041,45.4007807]]}";2;Avenue Jean-Baptiste-Varin;2;30;false;false;true;false;false;false;488.5;0;17;8;0;0;false;75434;559783281;-73.4841209;45.3962362;75413;6133322854;-73.481237;45.398774;1;26;27;9510106;Bus 29 : La Prairie hors pointe;"";EXO;29;Stationnement incitatif La Prairie;Stationnement incitatif La Prairie
533490639;"{\"type\":\"LineString\",\"coordinates\":[[-73.4750041,45.4007807],[-73.4749244,45.4007271]]}";1;Avenue Jean-Baptiste-Varin;2;30;false;false;true;false;false;false;9.0;0;0;0;0;0;false;75469;6133322814;-73.475175;45.400783;75467;6133322815;-73.473097;45.402888;2;29;30;9510106;Bus 29 : La Prairie hors pointe;"";EXO;29;Stationnement incitatif La Prairie;Stationnement incitatif La Prairie
685130564;"{\"type\":\"LineString\",\"coordinates\":[[-73.4749244,45.4007271],[-73.4748566,45.4007771],[-73.4747508,45.4008541],[-73.4744743,45.4010553],[-73.474394,45.4011137],[-73.4743238,45.4011646],[-73.4742594,45.4012113],[-73.4739909,45.4014065],[-73.4737237,45.4016016],[-73.473614,45.4016912],[-73.4735603,45.4017408],[-73.4735199,45.4017807],[-73.4734767,45.4018276],[-73.4734367,45.401876],[-73.4733843,45.4019412],[-73.4733501,45.4019894],[-73.4733177,45.4020385],[-73.4732877,45.402094],[-73.473256,45.4021588],[-73.4732276,45.4022292],[-73.4732065,45.4022918],[-73.4731937,45.4023383],[-73.4731842,45.4023798],[-73.4731732,45.4024346],[-73.4731689,45.4024684],[-73.4731658,45.4025244],[-73.4731689,45.4025978],[-73.4731755,45.4026898],[-73.473182,45.4027521],[-73.4731904,45.402817],[-73.4731951,45.4028477]]}";2;Boulevard de Palerme;1;30;false;true;true;false;false;false;285.0;0;6;2;0;0;false;75469;6133322814;-73.475175;45.400783;75467;6133322815;-73.473097;45.402888;0;29;30;9510106;Bus 29 : La Prairie hors pointe;"";EXO;29;Stationnement incitatif La Prairie;Stationnement incitatif La Prairie
685130563;"{\"type\":\"LineString\",\"coordinates\":[[-73.4731951,45.4028477],[-73.4732177,45.4029335],[-73.4732449,45.4030296],[-73.473427,45.4036314],[-73.4734435,45.403686]]}";3;Boulevard de Palerme;1;50;false;true;true;false;false;false;96.0;0;3;0;0;0;false;75469;6133322814;-73.475175;45.400783;75467;6133322815;-73.473097;45.402888;2;29;30;9510106;Bus 29 : La Prairie hors pointe;"";EXO;29;Stationnement incitatif La Prairie;Stationnement incitatif La Prairie
685130564;"{\"type\":\"LineString\",\"coordinates\":[[-73.4749244,45.4007271],[-73.4748566,45.4007771],[-73.4747508,45.4008541],[-73.4744743,45.4010553],[-73.474394,45.4011137],[-73.4743238,45.4011646],[-73.4742594,45.4012113],[-73.4739909,45.4014065],[-73.4737237,45.4016016],[-73.473614,45.4016912],[-73.4735603,45.4017408],[-73.4735199,45.4017807],[-73.4734767,45.4018276],[-73.4734367,45.401876],[-73.4733843,45.4019412],[-73.4733501,45.4019894],[-73.4733177,45.4020385],[-73.4732877,45.402094],[-73.473256,45.4021588],[-73.4732276,45.4022292],[-73.4732065,45.4022918],[-73.4731937,45.4023383],[-73.4731842,45.4023798],[-73.4731732,45.4024346],[-73.4731689,45.4024684],[-73.4731658,45.4025244],[-73.4731689,45.4025978],[-73.4731755,45.4026898],[-73.473182,45.4027521],[-73.4731904,45.402817],[-73.4731951,45.4028477]]}";1;Boulevard de Palerme;1;30;false;true;true;false;false;false;285.0;0;6;2;0;0;false;75467;6133322815;-73.473097;45.402888;75414;6133322853;-73.473968;45.405758;2;30;31;9510106;Bus 29 : La Prairie hors pointe;"";EXO;29;Stationnement incitatif La Prairie;Stationnement incitatif La Prairie
685130563;"{\"type\":\"LineString\",\"coordinates\":[[-73.4731951,45.4028477],[-73.4732177,45.4029335],[-73.4732449,45.4030296],[-73.473427,45.4036314],[-73.4734435,45.403686]]}";2;Boulevard de Palerme;1;50;false;true;true;false;false;false;96.0;0;3;0;0;0;false;75467;6133322815;-73.473097;45.402888;75414;6133322853;-73.473968;45.405758;0;30;31;9510106;Bus 29 : La Prairie hors pointe;"";EXO;29;Stationnement incitatif La Prairie;Stationnement incitatif La Prairie
533490638;"{\"type\":\"LineString\",\"coordinates\":[[-73.4734435,45.403686],[-73.473831,45.4049779],[-73.473855,45.4050579],[-73.4738816,45.4051446],[-73.4740343,45.4056411],[-73.4740448,45.4056756],[-73.4740782,45.405784],[-73.4741105,45.4058913],[-73.4743356,45.4066427],[-73.474399,45.4068437],[-73.4744068,45.4068894],[-73.4744048,45.4069245],[-73.4743896,45.4069627],[-73.474356,45.4070039],[-73.4741172,45.4072606],[-73.4740555,45.4073268],[-73.4739945,45.4073936],[-73.473536,45.4078824]]}";3;Boulevard de Palerme;1;50;false;true;true;false;false;false;495.0;0;6;1;0;0;false;75467;6133322815;-73.473097;45.402888;75414;6133322853;-73.473968;45.405758;2;30;31;9510106;Bus 29 : La Prairie hors pointe;"";EXO;29;Stationnement incitatif La Prairie;Stationnement incitatif La Prairie
685130560;"{\"type\":\"LineString\",\"coordinates\":[[-73.473536,45.4078824],[-73.473492,45.4079304],[-73.4731,45.4083573],[-73.4730711,45.4083873],[-73.4730082,45.4084351]]}";1;Boulevard de Palerme;1;50;false;true;true;false;false;false;75.0;0;1;0;0;0;false;75415;6133322852;-73.473508;45.40778;75186;5175613157;-73.472056;45.409381;2;32;33;9510106;Bus 29 : La Prairie hors pointe;"";EXO;29;Stationnement incitatif La Prairie;Stationnement incitatif La Prairie
791883710;"{\"type\":\"LineString\",\"coordinates\":[[-73.4730082,45.4084351],[-73.4727645,45.4086964],[-73.4727026,45.408766],[-73.4726844,45.4087866],[-73.4725996,45.4088978]]}";2;Boulevard de Palerme;2;50;false;true;true;false;false;false;61.0;1;1;0;0;0;false;75415;6133322852;-73.473508;45.40778;75186;5175613157;-73.472056;45.409381;0;32;33;9510106;Bus 29 : La Prairie hors pointe;"";EXO;29;Stationnement incitatif La Prairie;Stationnement incitatif La Prairie
685462397;"{\"type\":\"LineString\",\"coordinates\":[[-73.4725996,45.4088978],[-73.4725201,45.4090006],[-73.4723019,45.4092321],[-73.4722174,45.409324],[-73.4721453,45.4094103],[-73.4721131,45.4094493]]}";3;Boulevard des Champs-Fleuris;1;50;false;true;true;false;false;false;73.0;0;1;1;0;0;false;75415;6133322852;-73.473508;45.40778;75186;5175613157;-73.472056;45.409381;2;32;33;9510106;Bus 29 : La Prairie hors pointe;"";EXO;29;Stationnement incitatif La Prairie;Stationnement incitatif La Prairie
785656673;"{\"type\":\"LineString\",\"coordinates\":[[-73.4697805,45.4126284],[-73.4696964,45.412683]]}";1;Boulevard des Champs-Fleuris;1;50;false;true;true;false;false;false;9.0;0;0;0;0;0;false;75211;6133323297;-73.469809;45.412533;75116;6133323368;-73.467787;45.413461;2;34;35;9510106;Bus 29 : La Prairie hors pointe;"";EXO;29;Stationnement incitatif La Prairie;Stationnement incitatif La Prairie
785656671;"{\"type\":\"LineString\",\"coordinates\":[[-73.4696964,45.412683],[-73.4696291,45.4127228],[-73.4695439,45.41277],[-73.4694711,45.4128072],[-73.4693787,45.4128487],[-73.4692857,45.4128859],[-73.4691886,45.4129207],[-73.4687763,45.4130555],[-73.4686456,45.4130984]]}";2;Boulevard des Champs-Fleuris;1;50;false;true;true;false;false;false;95.0;0;1;0;0;0;false;75211;6133323297;-73.469809;45.412533;75116;6133323368;-73.467787;45.413461;0;34;35;9510106;Bus 29 : La Prairie hors pointe;"";EXO;29;Stationnement incitatif La Prairie;Stationnement incitatif La Prairie
792738658;"{\"type\":\"LineString\",\"coordinates\":[[-73.4686456,45.4130984],[-73.4685326,45.4131378],[-73.4684949,45.4131627],[-73.4683916,45.4132504]]}";3;Boulevard des Champs-Fleuris;1;50;false;true;true;false;false;false;27.0;0;1;0;0;0;false;75211;6133323297;-73.469809;45.412533;75116;6133323368;-73.467787;45.413461;0;34;35;9510106;Bus 29 : La Prairie hors pointe;"";EXO;29;Stationnement incitatif La Prairie;Stationnement incitatif La Prairie
11648791;"{\"type\":\"LineString\",\"coordinates\":[[-73.4683916,45.4132504],[-73.4682759,45.4133001],[-73.467851,45.4134826],[-73.4678309,45.4134915],[-73.467733,45.4135348],[-73.4676677,45.4135627],[-73.4676535,45.4135688],[-73.4675154,45.4136288],[-73.4673964,45.4136766],[-73.4673192,45.4137046],[-73.4669987,45.4138093],[-73.4661959,45.4140774],[-73.465918,45.4141702],[-73.4658036,45.414206],[-73.4657166,45.4142331],[-73.4650443,45.4144604],[-73.464921,45.4145024],[-73.4648185,45.4145369],[-73.4641729,45.4147546],[-73.4641508,45.4147622],[-73.4640514,45.4147963]]}";4;Boulevard des Champs-Fleuris;2;50;false;false;true;false;false;false;381.0;0;9;3;0;0;false;75211;6133323297;-73.469809;45.412533;75116;6133323368;-73.467787;45.413461;2;34;35;9510106;Bus 29 : La Prairie hors pointe;"";EXO;29;Stationnement incitatif La Prairie;Stationnement incitatif La Prairie
685298032;"{\"type\":\"LineString\",\"coordinates\":[[-73.4640514,45.4147963],[-73.4639494,45.4148302]]}";1;Boulevard des Champs-Fleuris;2;50;false;false;true;false;false;false;9.0;0;0;0;0;0;false;75120;6133323364;-73.464174;45.414676;75121;6133323363;-73.466339;45.417026;2;37;38;9510106;Bus 29 : La Prairie hors pointe;"";EXO;29;Stationnement incitatif La Prairie;Stationnement incitatif La Prairie
459379688;"{\"type\":\"LineString\",\"coordinates\":[[-73.4639494,45.4148302],[-73.4639839,45.4148835],[-73.4640066,45.414918],[-73.4643157,45.4153728],[-73.4643628,45.4154421],[-73.4644109,45.4155137],[-73.4647947,45.4160851],[-73.4648326,45.4161384],[-73.4648882,45.4162163],[-73.4649319,45.4162758],[-73.4649638,45.4163177],[-73.4649784,45.4163344],[-73.4650002,45.4163592],[-73.4650469,45.4164044],[-73.4650837,45.4164374],[-73.465121,45.416469],[-73.4651997,45.4165282],[-73.4652673,45.416578],[-73.465327,45.4166194],[-73.465386,45.4166554],[-73.4654551,45.4166946],[-73.4655259,45.4167308],[-73.465602,45.4167657],[-73.4656774,45.4167976],[-73.4657629,45.4168292],[-73.4658373,45.4168529],[-73.4658981,45.4168707],[-73.4659659,45.4168899],[-73.4660467,45.4169092],[-73.4661318,45.4169259],[-73.4662147,45.4169394],[-73.4662902,45.4169493],[-73.4663467,45.4169549],[-73.4664025,45.4169596],[-73.4664915,45.4169644],[-73.4665274,45.4169658],[-73.466554,45.4169668],[-73.4666075,45.4169678],[-73.4666912,45.416968],[-73.4667712,45.4169654],[-73.4668396,45.4169602],[-73.4669272,45.4169521],[-73.4670122,45.4169409],[-73.4671046,45.4169261],[-73.4672013,45.4169067],[-73.4672896,45.4168848],[-73.4673838,45.416858],[-73.4674634,45.4168334],[-73.4677753,45.4167296],[-73.4678912,45.416691],[-73.4680051,45.4166527],[-73.4688451,45.41637],[-73.4688646,45.4163635],[-73.4689725,45.4163282],[-73.4690954,45.4162887],[-73.4700727,45.415962],[-73.4701977,45.4159202],[-73.4703083,45.4158828],[-73.4711853,45.4155861],[-73.4719105,45.415348],[-73.4719596,45.4153319],[-73.4720303,45.4153087]]}";2;Boulevard de La Magdeleine;1;50;false;true;false;false;false;false;802.0;0;14;3;0;0;false;75120;6133323364;-73.464174;45.414676;75121;6133323363;-73.466339;45.417026;2;37;38;9510106;Bus 29 : La Prairie hors pointe;"";EXO;29;Stationnement incitatif La Prairie;Stationnement incitatif La Prairie
785657441;"{\"type\":\"LineString\",\"coordinates\":[[-73.4720303,45.4153087],[-73.4721315,45.4152756]]}";1;Boulevard de La Magdeleine;1;50;false;true;true;false;false;false;9.0;0;0;0;0;0;false;75125;6133323359;-73.471982;45.415409;75129;6133323357;-73.474882;45.414429;2;40;41;9510106;Bus 29 : La Prairie hors pointe;"";EXO;29;Stationnement incitatif La Prairie;Stationnement incitatif La Prairie
459379690;"{\"type\":\"LineString\",\"coordinates\":[[-73.4721315,45.4152756],[-73.4721951,45.4152541],[-73.4729684,45.4149976],[-73.4730771,45.4149616],[-73.4731956,45.4149217],[-73.4741858,45.4145904]]}";2;Boulevard de La Magdeleine;1;50;false;true;true;false;false;false;178.0;0;3;0;0;0;false;75125;6133323359;-73.471982;45.415409;75129;6133323357;-73.474882;45.414429;0;40;41;9510106;Bus 29 : La Prairie hors pointe;"";EXO;29;Stationnement incitatif La Prairie;Stationnement incitatif La Prairie
795841638;"{\"type\":\"LineString\",\"coordinates\":[[-73.4741858,45.4145904],[-73.4748139,45.4143811],[-73.4749219,45.4143452],[-73.4750051,45.4143172],[-73.4753958,45.4141861]]}";3;Boulevard de La Magdeleine;1;30;false;true;true;false;false;false;105.0;0;2;1;0;0;false;75125;6133323359;-73.471982;45.415409;75129;6133323357;-73.474882;45.414429;2;40;41;9510106;Bus 29 : La Prairie hors pointe;"";EXO;29;Stationnement incitatif La Prairie;Stationnement incitatif La Prairie
795841638;"{\"type\":\"LineString\",\"coordinates\":[[-73.4741858,45.4145904],[-73.4748139,45.4143811],[-73.4749219,45.4143452],[-73.4750051,45.4143172],[-73.4753958,45.4141861]]}";1;Boulevard de La Magdeleine;1;30;false;true;true;false;false;false;52.5;0;2;1;0;0;false;75129;6133323357;-73.474882;45.414429;75206;6133323300;-73.479178;45.412264;1;41;42;9510106;Bus 29 : La Prairie hors pointe;"";EXO;29;Stationnement incitatif La Prairie;Stationnement incitatif La Prairie
795841639;"{\"type\":\"LineString\",\"coordinates\":[[-73.4753958,45.4141861],[-73.4756767,45.414091],[-73.4757792,45.4140593],[-73.4758557,45.4140365],[-73.4759333,45.4140174],[-73.4760378,45.4139932],[-73.4761456,45.413972],[-73.4762498,45.4139549],[-73.4763576,45.4139399],[-73.4764436,45.4139286],[-73.4765319,45.4139193],[-73.4765933,45.4139141],[-73.4767061,45.4139077],[-73.476782,45.413907],[-73.4768216,45.4139064],[-73.4768554,45.413906],[-73.4769314,45.4139039],[-73.4770242,45.4138982],[-73.4771187,45.4138885],[-73.4772185,45.4138741],[-73.477314,45.4138557],[-73.4774084,45.4138337],[-73.4774958,45.4138094],[-73.4775637,45.4137872],[-73.4776469,45.4137582],[-73.4777172,45.4137297],[-73.4777937,45.4136942],[-73.4778657,45.4136594],[-73.4779312,45.4136237],[-73.4780057,45.4135773],[-73.4780735,45.413531],[-73.4781458,45.4134737],[-73.4782121,45.4134185],[-73.478265,45.413367],[-73.4783157,45.4133099],[-73.4783676,45.4132486],[-73.4784228,45.4131724],[-73.4784589,45.4131185],[-73.4787218,45.4127308],[-73.4787606,45.4126736],[-73.4788107,45.4126028],[-73.4788674,45.4125226]]}";2;Boulevard de La Magdeleine;1;50;false;true;true;false;false;false;355.0;0;2;0;0;0;false;75129;6133323357;-73.474882;45.414429;75206;6133323300;-73.479178;45.412264;0;41;42;9510106;Bus 29 : La Prairie hors pointe;"";EXO;29;Stationnement incitatif La Prairie;Stationnement incitatif La Prairie
795837692;"{\"type\":\"LineString\",\"coordinates\":[[-73.4788674,45.4125226],[-73.4790184,45.4123048],[-73.4791429,45.4121166],[-73.4791572,45.4120964],[-73.4791729,45.4120767],[-73.4792456,45.4119988]]}";3;Boulevard de La Magdeleine;2;50;false;true;true;false;false;false;33.0;1;1;0;0;0;false;75129;6133323357;-73.474882;45.414429;75206;6133323300;-73.479178;45.412264;1;41;42;9510106;Bus 29 : La Prairie hors pointe;"";EXO;29;Stationnement incitatif La Prairie;Stationnement incitatif La Prairie
795837692;"{\"type\":\"LineString\",\"coordinates\":[[-73.4788674,45.4125226],[-73.4790184,45.4123048],[-73.4791429,45.4121166],[-73.4791572,45.4120964],[-73.4791729,45.4120767],[-73.4792456,45.4119988]]}";1;Boulevard de La Magdeleine;2;50;false;true;true;false;false;false;33.0;1;1;0;0;0;false;75206;6133323300;-73.479178;45.412264;75131;6133323355;-73.482865;45.413765;1;42;43;9510106;Bus 29 : La Prairie hors pointe;"";EXO;29;Stationnement incitatif La Prairie;Stationnement incitatif La Prairie
795838957;"{\"type\":\"LineString\",\"coordinates\":[[-73.4819048,45.4132315],[-73.4814503,45.4130213],[-73.4812455,45.4129265],[-73.4811564,45.4128852],[-73.4810241,45.4128238],[-73.4808283,45.412733],[-73.4805547,45.4126062],[-73.480413,45.4125405],[-73.4803269,45.4125006],[-73.4801912,45.4124377],[-73.4799797,45.4123396],[-73.4797846,45.4122492],[-73.4795913,45.4121596],[-73.4793463,45.412046],[-73.4793112,45.4120297],[-73.4792456,45.4119988]]}";2;Chemin de Saint-Jean;4;50;false;false;true;false;false;false;250.0;1;1;0;0;0;false;75206;6133323300;-73.479178;45.412264;75131;6133323355;-73.482865;45.413765;0;42;43;9510106;Bus 29 : La Prairie hors pointe;"";EXO;29;Stationnement incitatif La Prairie;Stationnement incitatif La Prairie
795838955;"{\"type\":\"LineString\",\"coordinates\":[[-73.482826,45.4136594],[-73.4827491,45.4136239],[-73.4827311,45.4136156],[-73.4826768,45.4135903],[-73.4826232,45.4135654],[-73.4824777,45.4134978],[-73.4819048,45.4132315]]}";3;Chemin de Saint-Jean;4;50;false;false;true;false;false;false;87.0;1;2;0;0;0;false;75206;6133323300;-73.479178;45.412264;75131;6133323355;-73.482865;45.413765;0;42;43;9510106;Bus 29 : La Prairie hors pointe;"";EXO;29;Stationnement incitatif La Prairie;Stationnement incitatif La Prairie
795838956;"{\"type\":\"LineString\",\"coordinates\":[[-73.4837909,45.4141242],[-73.483033,45.4137558],[-73.482826,45.4136594]]}";4;Chemin de Saint-Jean;4;50;false;false;true;false;false;false;46.0;1;0;0;0;0;false;75206;6133323300;-73.479178;45.412264;75131;6133323355;-73.482865;45.413765;1;42;43;9510106;Bus 29 : La Prairie hors pointe;"";EXO;29;Stationnement incitatif La Prairie;Stationnement incitatif La Prairie
795838955;"{\"type\":\"LineString\",\"coordinates\":[[-73.482826,45.4136594],[-73.4827491,45.4136239],[-73.4827311,45.4136156],[-73.4826768,45.4135903],[-73.4826232,45.4135654],[-73.4824777,45.4134978],[-73.4819048,45.4132315]]}";1;Chemin de Saint-Jean;4;50;false;false;true;false;false;false;87.0;1;2;0;0;0;false;75131;6133323355;-73.482865;45.413765;75133;6133323353;-73.484935;45.414783;2;43;44;9510106;Bus 29 : La Prairie hors pointe;"";EXO;29;Stationnement incitatif La Prairie;Stationnement incitatif La Prairie
795838956;"{\"type\":\"LineString\",\"coordinates\":[[-73.4837909,45.4141242],[-73.483033,45.4137558],[-73.482826,45.4136594]]}";2;Chemin de Saint-Jean;4;50;false;false;true;false;false;false;92.0;1;0;0;0;0;false;75131;6133323355;-73.482865;45.413765;75133;6133323353;-73.484935;45.414783;0;43;44;9510106;Bus 29 : La Prairie hors pointe;"";EXO;29;Stationnement incitatif La Prairie;Stationnement incitatif La Prairie
685129133;"{\"type\":\"LineString\",\"coordinates\":[[-73.4852915,45.4148507],[-73.4851866,45.4148001],[-73.4850603,45.4147385],[-73.4850398,45.4147283],[-73.4847828,45.414604],[-73.4845173,45.4144756],[-73.4844168,45.414427],[-73.484265,45.4143548],[-73.4840787,45.4142661],[-73.4840392,45.4142466],[-73.4837909,45.4141242]]}";3;Chemin de Saint-Jean;4;50;false;false;true;false;false;false;143.0;1;1;0;0;0;false;75131;6133323355;-73.482865;45.413765;75133;6133323353;-73.484935;45.414783;2;43;44;9510106;Bus 29 : La Prairie hors pointe;"";EXO;29;Stationnement incitatif La Prairie;Stationnement incitatif La Prairie
685129133;"{\"type\":\"LineString\",\"coordinates\":[[-73.4852915,45.4148507],[-73.4851866,45.4148001],[-73.4850603,45.4147385],[-73.4850398,45.4147283],[-73.4847828,45.414604],[-73.4845173,45.4144756],[-73.4844168,45.414427],[-73.484265,45.4143548],[-73.4840787,45.4142661],[-73.4840392,45.4142466],[-73.4837909,45.4141242]]}";1;Chemin de Saint-Jean;4;50;false;false;true;false;false;false;71.5;1;1;0;0;0;false;75133;6133323353;-73.484935;45.414783;75185;6133323315;-73.479488;45.416043;1;44;45;9510106;Bus 29 : La Prairie hors pointe;"";EXO;29;Stationnement incitatif La Prairie;Stationnement incitatif La Prairie
685298034;"{\"type\":\"LineString\",\"coordinates\":[[-73.4848002,45.4152519],[-73.4848397,45.4152408],[-73.4848781,45.4152266],[-73.484925,45.4152069],[-73.4849513,45.4151938],[-73.4849735,45.4151816],[-73.4850044,45.4151577],[-73.4850419,45.4151232],[-73.4850984,45.4150646],[-73.4851873,45.4149724],[-73.4852216,45.4149365],[-73.4852915,45.4148507]]}";2;Avenue du Maire;3;50;false;false;true;false;false;false;61.0;1;2;0;0;0;false;75133;6133323353;-73.484935;45.414783;75185;6133323315;-73.479488;45.416043;0;44;45;9510106;Bus 29 : La Prairie hors pointe;"";EXO;29;Stationnement incitatif La Prairie;Stationnement incitatif La Prairie
795426421;"{\"type\":\"LineString\",\"coordinates\":[[-73.4846539,45.4152624],[-73.4846856,45.4152634],[-73.4847186,45.4152619],[-73.4847539,45.4152583],[-73.4848002,45.4152519]]}";3;Avenue du Maire;2;50;false;false;false;false;false;false;12.0;0;0;0;0;0;false;75133;6133323353;-73.484935;45.414783;75185;6133323315;-73.479488;45.416043;0;44;45;9510106;Bus 29 : La Prairie hors pointe;"";EXO;29;Stationnement incitatif La Prairie;Stationnement incitatif La Prairie
24217845;"{\"type\":\"LineString\",\"coordinates\":[[-73.4752036,45.4171145],[-73.4753441,45.4170811],[-73.4765651,45.4167928],[-73.476638,45.4167755],[-73.4793444,45.4161417],[-73.4794386,45.4161203],[-73.4795463,45.4160948],[-73.4829994,45.415285],[-73.4830989,45.4152648],[-73.4831762,45.4152522],[-73.4832632,45.4152417],[-73.4833559,45.4152347],[-73.4834789,45.4152281],[-73.4836289,45.4152224],[-73.4840984,45.415211],[-73.4841906,45.4152111],[-73.4842453,45.4152142],[-73.4842894,45.4152171],[-73.4843561,45.4152235],[-73.4844381,45.4152346],[-73.4845234,45.4152485],[-73.4845945,45.4152578],[-73.4846539,45.4152624]]}";4;Avenue du Maire;2;50;false;false;false;false;false;false;387.0;0;4;0;0;0;false;75133;6133323353;-73.484935;45.414783;75185;6133323315;-73.479488;45.416043;1;44;45;9510106;Bus 29 : La Prairie hors pointe;"";EXO;29;Stationnement incitatif La Prairie;Stationnement incitatif La Prairie
13512718;"{\"type\":\"LineString\",\"coordinates\":[[-73.4752036,45.4171145],[-73.4752391,45.4171949],[-73.4752494,45.4172188],[-73.4753519,45.4174468],[-73.4753758,45.417479],[-73.4754032,45.4175019],[-73.4754453,45.417523],[-73.4754939,45.417541],[-73.4775585,45.4181555],[-73.4782957,45.4183724],[-73.4784428,45.4184168],[-73.4785543,45.4184495],[-73.4785851,45.4184583],[-73.4789004,45.4185514]]}";1;Avenue Ernest-Rochette;2;30;false;false;false;false;false;false;172.0;0;1;3;0;0;false;75136;6133323350;-73.4784;45.418458;75137;6133323349;-73.482044;45.417108;1;47;48;9510106;Bus 29 : La Prairie hors pointe;"";EXO;29;Stationnement incitatif La Prairie;Stationnement incitatif La Prairie
795621920;"{\"type\":\"LineString\",\"coordinates\":[[-73.4789004,45.4185514],[-73.4789686,45.4185699],[-73.4790456,45.4185883],[-73.4791064,45.4186015],[-73.4791696,45.4186144],[-73.4792349,45.4186218],[-73.479304,45.4186232],[-73.4793752,45.4186167],[-73.4794368,45.4186028],[-73.479498,45.4185792],[-73.4795514,45.4185528],[-73.479604,45.4185242],[-73.4796442,45.4184952],[-73.4796747,45.4184644],[-73.4797108,45.4184181]]}";2;Avenue Ernest-Rochette;2;30;false;false;true;false;false;false;74.0;0;0;0;0;0;false;75136;6133323350;-73.4784;45.418458;75137;6133323349;-73.482044;45.417108;0;47;48;9510106;Bus 29 : La Prairie hors pointe;"";EXO;29;Stationnement incitatif La Prairie;Stationnement incitatif La Prairie
795621921;"{\"type\":\"LineString\",\"coordinates\":[[-73.4797108,45.4184181],[-73.4800256,45.4179494],[-73.4802688,45.4175828],[-73.4803019,45.4175361],[-73.4803349,45.4174997],[-73.4803744,45.417466],[-73.4804114,45.4174405],[-73.4804484,45.4174161],[-73.480496,45.4173913],[-73.4805351,45.417374],[-73.4805789,45.4173585],[-73.480624,45.4173451],[-73.4806663,45.417334],[-73.4810802,45.4172393],[-73.4819212,45.4170423],[-73.4820634,45.4170091],[-73.4821498,45.4169895],[-73.4824855,45.4169083],[-73.4825526,45.4168962],[-73.4826266,45.4168848],[-73.4827128,45.4168738],[-73.4827947,45.4168689],[-73.4828769,45.4168664],[-73.4829634,45.4168675],[-73.4830458,45.4168709],[-73.4831186,45.4168788],[-73.4831999,45.4168907],[-73.4832674,45.4169033],[-73.4833356,45.416917],[-73.4834089,45.4169347],[-73.4835896,45.4169852],[-73.483746,45.4170308],[-73.4838462,45.4170548]]}";3;Avenue Ernest-Rochette;2;50;false;false;false;false;false;false;203.0;0;0;3;0;0;false;75136;6133323350;-73.4784;45.418458;75137;6133323349;-73.482044;45.417108;1;47;48;9510106;Bus 29 : La Prairie hors pointe;"";EXO;29;Stationnement incitatif La Prairie;Stationnement incitatif La Prairie
795621921;"{\"type\":\"LineString\",\"coordinates\":[[-73.4797108,45.4184181],[-73.4800256,45.4179494],[-73.4802688,45.4175828],[-73.4803019,45.4175361],[-73.4803349,45.4174997],[-73.4803744,45.417466],[-73.4804114,45.4174405],[-73.4804484,45.4174161],[-73.480496,45.4173913],[-73.4805351,45.417374],[-73.4805789,45.4173585],[-73.480624,45.4173451],[-73.4806663,45.417334],[-73.4810802,45.4172393],[-73.4819212,45.4170423],[-73.4820634,45.4170091],[-73.4821498,45.4169895],[-73.4824855,45.4169083],[-73.4825526,45.4168962],[-73.4826266,45.4168848],[-73.4827128,45.4168738],[-73.4827947,45.4168689],[-73.4828769,45.4168664],[-73.4829634,45.4168675],[-73.4830458,45.4168709],[-73.4831186,45.4168788],[-73.4831999,45.4168907],[-73.4832674,45.4169033],[-73.4833356,45.416917],[-73.4834089,45.4169347],[-73.4835896,45.4169852],[-73.483746,45.4170308],[-73.4838462,45.4170548]]}";1;Avenue Ernest-Rochette;2;50;false;false;false;false;false;false;203.0;0;0;3;0;0;false;75137;6133323349;-73.482044;45.417108;75138;6133323348;-73.485595;45.417653;1;48;49;9510106;Bus 29 : La Prairie hors pointe;"";EXO;29;Stationnement incitatif La Prairie;Stationnement incitatif La Prairie
24922773;"{\"type\":\"LineString\",\"coordinates\":[[-73.4838462,45.4170548],[-73.4839872,45.4170932],[-73.4846898,45.4172986],[-73.4853858,45.4175036]]}";2;Avenue Ernest-Rochette;2;50;false;false;true;false;false;false;131.0;0;1;1;0;0;false;75137;6133323349;-73.482044;45.417108;75138;6133323348;-73.485595;45.417653;0;48;49;9510106;Bus 29 : La Prairie hors pointe;"";EXO;29;Stationnement incitatif La Prairie;Stationnement incitatif La Prairie
795243487;"{\"type\":\"LineString\",\"coordinates\":[[-73.4853858,45.4175036],[-73.4855637,45.4175549],[-73.4856565,45.4175813],[-73.485761,45.417611],[-73.4858531,45.4176379],[-73.486368,45.4177892],[-73.4864669,45.4178179],[-73.4869961,45.4179732]]}";3;Avenue Ernest-Rochette;2;50;false;false;true;false;false;false;68.5;0;3;0;0;0;false;75137;6133323349;-73.482044;45.417108;75138;6133323348;-73.485595;45.417653;1;48;49;9510106;Bus 29 : La Prairie hors pointe;"";EXO;29;Stationnement incitatif La Prairie;Stationnement incitatif La Prairie
795243487;"{\"type\":\"LineString\",\"coordinates\":[[-73.4853858,45.4175036],[-73.4855637,45.4175549],[-73.4856565,45.4175813],[-73.485761,45.417611],[-73.4858531,45.4176379],[-73.486368,45.4177892],[-73.4864669,45.4178179],[-73.4869961,45.4179732]]}";1;Avenue Ernest-Rochette;2;50;false;false;true;false;false;false;68.5;0;3;0;0;0;false;75138;6133323348;-73.485595;45.417653;75181;6133323319;-73.485604;45.420532;1;49;50;9510106;Bus 29 : La Prairie hors pointe;"";EXO;29;Stationnement incitatif La Prairie;Stationnement incitatif La Prairie
793938199;"{\"type\":\"LineString\",\"coordinates\":[[-73.4869961,45.4179732],[-73.4871319,45.4180347],[-73.487167,45.4180535],[-73.487189,45.4180685],[-73.4872065,45.4180862],[-73.4872185,45.4181065],[-73.4872279,45.4181225],[-73.4872328,45.4181448],[-73.4872329,45.4181737],[-73.4872219,45.4182005],[-73.4871942,45.4182437],[-73.4871617,45.4182923],[-73.4869541,45.418673],[-73.4868078,45.4189549]]}";2;Avenue Ernest-Rochette;1;50;false;true;true;false;false;false;124.0;0;1;0;0;0;false;75138;6133323348;-73.485595;45.417653;75181;6133323319;-73.485604;45.420532;0;49;50;9510106;Bus 29 : La Prairie hors pointe;"";EXO;29;Stationnement incitatif La Prairie;Stationnement incitatif La Prairie
478233565;"{\"type\":\"LineString\",\"coordinates\":[[-73.4868078,45.4189549],[-73.4863444,45.4196545]]}";3;Boulevard Taschereau;3;50;false;true;true;false;false;false;86.0;0;0;0;0;0;false;75138;6133323348;-73.485595;45.417653;75181;6133323319;-73.485604;45.420532;0;49;50;9510106;Bus 29 : La Prairie hors pointe;"";EXO;29;Stationnement incitatif La Prairie;Stationnement incitatif La Prairie
795243473;"{\"type\":\"LineString\",\"coordinates\":[[-73.4863444,45.4196545],[-73.4857294,45.4206014],[-73.4857169,45.42062],[-73.4856865,45.4206645]]}";4;Boulevard Taschereau;4;50;false;true;true;false;false;false;62.0;1;1;0;0;0;false;75138;6133323348;-73.485595;45.417653;75181;6133323319;-73.485604;45.420532;1;49;50;9510106;Bus 29 : La Prairie hors pointe;"";EXO;29;Stationnement incitatif La Prairie;Stationnement incitatif La Prairie
681104231;"{\"type\":\"LineString\",\"coordinates\":[[-73.4856865,45.4206645],[-73.4856375,45.4207375]]}";1;Boulevard Taschereau;3;70;false;true;true;false;false;false;9.0;0;0;0;0;0;false;75181;6133323319;-73.485604;45.420532;75140;6133323347;-73.481053;45.426171;2;50;51;9510106;Bus 29 : La Prairie hors pointe;"";EXO;29;Stationnement incitatif La Prairie;Stationnement incitatif La Prairie
793957977;"{\"type\":\"LineString\",\"coordinates\":[[-73.4856375,45.4207375],[-73.4825524,45.4254526]]}";2;Boulevard Taschereau;3;70;false;true;true;false;false;false;577.0;0;0;0;0;0;false;75181;6133323319;-73.485604;45.420532;75140;6133323347;-73.481053;45.426171;0;50;51;9510106;Bus 29 : La Prairie hors pointe;"";EXO;29;Stationnement incitatif La Prairie;Stationnement incitatif La Prairie
795788183;"{\"type\":\"LineString\",\"coordinates\":[[-73.4825524,45.4254526],[-73.4824289,45.4255537],[-73.4822637,45.4257559],[-73.4822179,45.425806],[-73.4821886,45.4258345],[-73.4821072,45.4258769],[-73.4820478,45.4258994],[-73.4820047,45.4259103]]}";3;"";1;50;false;true;true;false;false;false;69.0;0;1;0;0;0;false;75181;6133323319;-73.485604;45.420532;75140;6133323347;-73.481053;45.426171;0;50;51;9510106;Bus 29 : La Prairie hors pointe;"";EXO;29;Stationnement incitatif La Prairie;Stationnement incitatif La Prairie
784914821;"{\"type\":\"LineString\",\"coordinates\":[[-73.4820047,45.4259103],[-73.4819523,45.4259197],[-73.4818936,45.4259203],[-73.4818202,45.4259115],[-73.4817042,45.4258857]]}";4;"";1;50;false;true;true;false;false;false;25.0;0;1;0;0;0;false;75181;6133323319;-73.485604;45.420532;75140;6133323347;-73.481053;45.426171;0;50;51;9510106;Bus 29 : La Prairie hors pointe;"";EXO;29;Stationnement incitatif La Prairie;Stationnement incitatif La Prairie
784908371;"{\"type\":\"LineString\",\"coordinates\":[[-73.4817042,45.4258857],[-73.4811571,45.4257067],[-73.4810372,45.4256675]]}";5;Avenue du Golf;2;50;false;true;true;false;false;false;58.0;0;0;1;0;0;false;75181;6133323319;-73.485604;45.420532;75140;6133323347;-73.481053;45.426171;0;50;51;9510106;Bus 29 : La Prairie hors pointe;"";EXO;29;Stationnement incitatif La Prairie;Stationnement incitatif La Prairie
24262980;"{\"type\":\"LineString\",\"coordinates\":[[-73.4810372,45.4256675],[-73.480997,45.4257361]]}";6;"";2;50;false;false;true;false;true;false;9.0;0;0;0;0;0;false;75181;6133323319;-73.485604;45.420532;75140;6133323347;-73.481053;45.426171;0;50;51;9510106;Bus 29 : La Prairie hors pointe;"";EXO;29;Stationnement incitatif La Prairie;Stationnement incitatif La Prairie
784908367;"{\"type\":\"LineString\",\"coordinates\":[[-73.480997,45.4257361],[-73.4809463,45.4258147],[-73.4808705,45.4259261],[-73.4808586,45.4259515],[-73.4808595,45.4259725],[-73.4808768,45.426001],[-73.4809072,45.4260255],[-73.4809417,45.4260433],[-73.4812639,45.4261534],[-73.4813112,45.4261641],[-73.4813493,45.4261674],[-73.4813912,45.4261595],[-73.4814235,45.4261424],[-73.4814474,45.4261216],[-73.4814672,45.4260993],[-73.4815293,45.4260122],[-73.481586,45.4259272]]}";7;"";1;50;false;true;true;false;true;false;108.0;0;0;1;0;0;false;75181;6133323319;-73.485604;45.420532;75140;6133323347;-73.481053;45.426171;1;50;51;9510106;Bus 29 : La Prairie hors pointe;"";EXO;29;Stationnement incitatif La Prairie;Stationnement incitatif La Prairie
