way_id;shape;index;name;nb_lanes;legal_speed;speed_zone_30;oneway;shares_bike;bike_box;bus_lane;dedicated_bus_lane;length;nb_traffic_signals;nb_crossings;nb_stops;nb_give_ways;nb_lvl_crossings;roundabout;stop_id_orig;node_id_orig;coord_x_orig;coord_y_orig;stop_id_dest;node_id_dest;coord_x_dest;coord_y_dest;nb_neighbouring_ways_bus_stop;order_orig;order_dest;id_line;line_name;colour;operator;ref;from;to
729449922;"{\"type\":\"LineString\",\"coordinates\":[[-6.2324987,53.3973461],[-6.2308012,53.3974959],[-6.2306024,53.3974752]]}";1;Coolock Lane;2;50;false;true;true;false;false;false;129.0;1;0;0;0;0;false;7044;5121047938;-6.2325138;53.3973957;1184;4989754522;-6.25389;53.350769;1;0;1;7468114;27B - Harristown - Eden Quay;"";Dublin Bus;27B;Harristown;Eden Quay
3818440;"{\"type\":\"LineString\",\"coordinates\":[[-6.2306024,53.3974752],[-6.2303358,53.3975047],[-6.2281714,53.3977036],[-6.2279002,53.3977292],[-6.2276289,53.3977548],[-6.2274695,53.3977699],[-6.2264305,53.3978166],[-6.2257499,53.3978444],[-6.2251297,53.3978485]]}";2;Coolock Lane;4;50;false;false;true;false;false;false;370.0;2;0;0;0;0;false;7044;5121047938;-6.2325138;53.3973957;1184;4989754522;-6.25389;53.350769;0;0;1;7468114;27B - Harristown - Eden Quay;"";Dublin Bus;27B;Harristown;Eden Quay
197053260;"{\"type\":\"LineString\",\"coordinates\":[[-6.2251297,53.3978485],[-6.2245529,53.3978413],[-6.2239303,53.3978188]]}";3;Oscar Traynor Road;4;60;false;false;true;false;false;false;81.0;1;0;0;0;0;false;7044;5121047938;-6.2325138;53.3973957;1184;4989754522;-6.25389;53.350769;0;0;1;7468114;27B - Harristown - Eden Quay;"";Dublin Bus;27B;Harristown;Eden Quay
116264262;"{\"type\":\"LineString\",\"coordinates\":[[-6.2252187,53.3953509],[-6.2249878,53.3956772],[-6.2246909,53.3961182],[-6.224508,53.396398],[-6.2242671,53.396892],[-6.2241021,53.3972533],[-6.2240075,53.3975209],[-6.2239721,53.3976211],[-6.2239482,53.3977343],[-6.2239303,53.3978188]]}";4;Dundaniel Road;2;50;false;false;true;false;false;false;291.0;1;1;0;0;0;false;7044;5121047938;-6.2325138;53.3973957;1184;4989754522;-6.25389;53.350769;0;0;1;7468114;27B - Harristown - Eden Quay;"";Dublin Bus;27B;Harristown;Eden Quay
439444480;"{\"type\":\"LineString\",\"coordinates\":[[-6.2254521,53.3950326],[-6.2253835,53.395118],[-6.2252187,53.3953509]]}";5;Dundaniel Road;2;50;false;false;true;false;false;false;39.0;0;0;0;0;0;false;7044;5121047938;-6.2325138;53.3973957;1184;4989754522;-6.25389;53.350769;0;0;1;7468114;27B - Harristown - Eden Quay;"";Dublin Bus;27B;Harristown;Eden Quay
4631488;"{\"type\":\"LineString\",\"coordinates\":[[-6.2319666,53.3955429],[-6.231198,53.3953778],[-6.2309366,53.3953436],[-6.2307057,53.3953173],[-6.2306273,53.3953158],[-6.2303615,53.3953106],[-6.2299212,53.3953398],[-6.2295056,53.395393],[-6.2291985,53.3954434],[-6.2289723,53.3954801],[-6.2285244,53.3955209],[-6.2281654,53.3955275],[-6.2277049,53.3955039],[-6.2274384,53.3954644],[-6.2271784,53.3954198],[-6.2269576,53.3953707],[-6.2263092,53.3952254],[-6.2255078,53.395046],[-6.2254521,53.3950326]]}";6;Castletimon Road;2;50;false;false;true;false;false;false;452.0;0;0;0;1;0;false;7044;5121047938;-6.2325138;53.3973957;1184;4989754522;-6.25389;53.350769;0;0;1;7468114;27B - Harristown - Eden Quay;"";Dublin Bus;27B;Harristown;Eden Quay
485626564;"{\"type\":\"LineString\",\"coordinates\":[[-6.2327169,53.3944263],[-6.2323868,53.3949108],[-6.2320025,53.3954784],[-6.2319666,53.3955429]]}";7;Ballyshannon Avenue;2;50;false;false;true;false;false;false;135.0;0;0;0;1;0;false;7044;5121047938;-6.2325138;53.3973957;1184;4989754522;-6.25389;53.350769;0;0;1;7468114;27B - Harristown - Eden Quay;"";Dublin Bus;27B;Harristown;Eden Quay
485626565;"{\"type\":\"LineString\",\"coordinates\":[[-6.2266881,53.3933168],[-6.2272015,53.3933991],[-6.2280749,53.3935354],[-6.2282608,53.393557],[-6.2292138,53.3937178],[-6.2294633,53.3937614],[-6.2297651,53.3938145],[-6.2303114,53.393925],[-6.2308876,53.3940339],[-6.2310906,53.3940789],[-6.231411,53.3941529],[-6.2319454,53.3942615],[-6.2327169,53.3944263]]}";8;Ballyshannon Road;2;50;false;false;true;false;false;false;423.0;0;0;0;0;0;false;7044;5121047938;-6.2325138;53.3973957;1184;4989754522;-6.25389;53.350769;0;0;1;7468114;27B - Harristown - Eden Quay;"";Dublin Bus;27B;Harristown;Eden Quay
334873782;"{\"type\":\"LineString\",\"coordinates\":[[-6.2266881,53.3933168],[-6.2266506,53.3933692],[-6.2265159,53.3935557],[-6.2261076,53.3941244],[-6.2258744,53.3944494],[-6.2258112,53.3945089]]}";9;Dundaniel Road;2;50;false;false;true;false;false;false;146.0;0;0;0;2;0;false;7044;5121047938;-6.2325138;53.3973957;1184;4989754522;-6.25389;53.350769;0;0;1;7468114;27B - Harristown - Eden Quay;"";Dublin Bus;27B;Harristown;Eden Quay
129924299;"{\"type\":\"LineString\",\"coordinates\":[[-6.2258112,53.3945089],[-6.2256863,53.3944562],[-6.2256336,53.394434],[-6.224781,53.3941075],[-6.2244194,53.3939806],[-6.2237626,53.3937763],[-6.2231086,53.3935813],[-6.2227151,53.3934785],[-6.2216229,53.3932069]]}";10;Kilbarron Road;2;50;false;false;true;false;false;false;317.0;1;0;0;1;0;false;7044;5121047938;-6.2325138;53.3973957;1184;4989754522;-6.25389;53.350769;0;0;1;7468114;27B - Harristown - Eden Quay;"";Dublin Bus;27B;Harristown;Eden Quay
129924301;"{\"type\":\"LineString\",\"coordinates\":[[-6.2149488,53.3918466],[-6.2151256,53.3918596],[-6.2164312,53.3920762],[-6.2171835,53.3922175],[-6.2178804,53.3923497],[-6.2183079,53.3924424],[-6.2188482,53.3925538],[-6.2193842,53.3926679],[-6.2196599,53.3927262],[-6.2199624,53.3928006],[-6.2204808,53.3929265],[-6.2210424,53.3930574],[-6.2211181,53.3930769],[-6.2212733,53.3931169],[-6.2216229,53.3932069]]}";11;Kilbarron Road;2;50;false;false;true;false;false;false;473.0;2;0;0;0;0;false;7044;5121047938;-6.2325138;53.3973957;1184;4989754522;-6.25389;53.350769;0;0;1;7468114;27B - Harristown - Eden Quay;"";Dublin Bus;27B;Harristown;Eden Quay
360174249;"{\"type\":\"LineString\",\"coordinates\":[[-6.2149597,53.3917785],[-6.2149488,53.3918466]]}";12;Kilmore Road;2;50;false;false;true;false;false;false;8.0;1;0;0;0;0;false;7044;5121047938;-6.2325138;53.3973957;1184;4989754522;-6.25389;53.350769;0;0;1;7468114;27B - Harristown - Eden Quay;"";Dublin Bus;27B;Harristown;Eden Quay
360174253;"{\"type\":\"LineString\",\"coordinates\":[[-6.2151093,53.3909086],[-6.2150452,53.3912442],[-6.2149829,53.3916336],[-6.2149597,53.3917785]]}";13;Kilmore Road;2;50;false;false;true;false;false;false;98.0;0;0;0;0;0;false;7044;5121047938;-6.2325138;53.3973957;1184;4989754522;-6.25389;53.350769;0;0;1;7468114;27B - Harristown - Eden Quay;"";Dublin Bus;27B;Harristown;Eden Quay
334870618;"{\"type\":\"LineString\",\"coordinates\":[[-6.2151541,53.3905895],[-6.2151242,53.390801],[-6.2151093,53.3909086]]}";14;Kilmore Road;1;50;false;false;true;false;false;false;36.0;0;0;0;0;0;false;7044;5121047938;-6.2325138;53.3973957;1184;4989754522;-6.25389;53.350769;0;0;1;7468114;27B - Harristown - Eden Quay;"";Dublin Bus;27B;Harristown;Eden Quay
334281817;"{\"type\":\"LineString\",\"coordinates\":[[-6.2151469,53.3898653],[-6.2151535,53.389959],[-6.2151552,53.3899984],[-6.2151678,53.3902827],[-6.2151653,53.3905105],[-6.2151541,53.3905895]]}";15;Kilmore Road;1;50;false;false;true;false;false;false;82.0;0;0;0;0;0;false;7044;5121047938;-6.2325138;53.3973957;1184;4989754522;-6.25389;53.350769;0;0;1;7468114;27B - Harristown - Eden Quay;"";Dublin Bus;27B;Harristown;Eden Quay
360174262;"{\"type\":\"LineString\",\"coordinates\":[[-6.2150474,53.389291],[-6.2151322,53.3896584],[-6.2151469,53.3898653]]}";16;Kilmore Road;1;50;false;false;true;false;false;false;65.0;0;0;0;0;0;false;7044;5121047938;-6.2325138;53.3973957;1184;4989754522;-6.25389;53.350769;0;0;1;7468114;27B - Harristown - Eden Quay;"";Dublin Bus;27B;Harristown;Eden Quay
360174291;"{\"type\":\"LineString\",\"coordinates\":[[-6.2151203,53.3869384],[-6.2149382,53.3873407],[-6.2148701,53.3875194],[-6.2148341,53.3877428],[-6.2147971,53.3881938],[-6.2148033,53.3883107],[-6.2148112,53.3883871],[-6.2148519,53.3885889],[-6.2149226,53.388839],[-6.2150474,53.389291]]}";17;Kilmore Road;1;50;false;false;true;false;false;false;268.0;1;1;0;0;0;false;7044;5121047938;-6.2325138;53.3973957;1184;4989754522;-6.25389;53.350769;0;0;1;7468114;27B - Harristown - Eden Quay;"";Dublin Bus;27B;Harristown;Eden Quay
19431059;"{\"type\":\"LineString\",\"coordinates\":[[-6.2151203,53.3869384],[-6.2149443,53.3868942],[-6.2147111,53.3868614],[-6.2142268,53.3868468]]}";18;Ardlea Road;2;50;false;false;true;false;false;false;62.0;1;0;0;0;0;false;7044;5121047938;-6.2325138;53.3973957;1184;4989754522;-6.25389;53.350769;0;0;1;7468114;27B - Harristown - Eden Quay;"";Dublin Bus;27B;Harristown;Eden Quay
129924262;"{\"type\":\"LineString\",\"coordinates\":[[-6.2142268,53.3868468],[-6.2137241,53.3869277],[-6.2132929,53.3870007],[-6.213155,53.3870043],[-6.2128292,53.3870128],[-6.2122234,53.3869764],[-6.211705,53.3868921],[-6.2116134,53.3868772],[-6.211247,53.3867943],[-6.2110154,53.3867427],[-6.2107066,53.3866739],[-6.210406,53.3865965],[-6.2102733,53.3865526],[-6.2101514,53.3865097],[-6.2099679,53.3863987],[-6.2096479,53.386183],[-6.2090237,53.3857218],[-6.2089524,53.3856691],[-6.2086647,53.3854653],[-6.2082528,53.3851682],[-6.2078993,53.3849133],[-6.2075172,53.3846431],[-6.2071086,53.3843542],[-6.2064667,53.3839003],[-6.2062565,53.3837402],[-6.2061888,53.3836868],[-6.2056665,53.3833091],[-6.2055753,53.3832412],[-6.2054556,53.3831234]]}";19;Ardlea Road;2;50;false;false;true;false;false;false;779.0;0;2;0;0;0;false;7044;5121047938;-6.2325138;53.3973957;1184;4989754522;-6.25389;53.350769;0;0;1;7468114;27B - Harristown - Eden Quay;"";Dublin Bus;27B;Harristown;Eden Quay
515121890;"{\"type\":\"LineString\",\"coordinates\":[[-6.2054556,53.3831234],[-6.205377,53.3831561],[-6.2053141,53.3831684],[-6.2052482,53.3831716],[-6.2051904,53.3831666],[-6.2051356,53.3831545]]}";20;Artane Roundabout;2;50;false;false;true;false;false;false;24.0;0;0;0;0;0;true;7044;5121047938;-6.2325138;53.3973957;1184;4989754522;-6.25389;53.350769;0;0;1;7468114;27B - Harristown - Eden Quay;"";Dublin Bus;27B;Harristown;Eden Quay
492223518;"{\"type\":\"LineString\",\"coordinates\":[[-6.2051356,53.3831545],[-6.2050916,53.3831385],[-6.2050534,53.3831178],[-6.2050064,53.3830763],[-6.2049888,53.3830474],[-6.2049804,53.383017],[-6.2049818,53.3829846],[-6.2049936,53.382953]]}";21;Artane Roundabout;2;50;false;false;true;false;false;false;27.0;0;0;0;0;0;true;7044;5121047938;-6.2325138;53.3973957;1184;4989754522;-6.25389;53.350769;0;0;1;7468114;27B - Harristown - Eden Quay;"";Dublin Bus;27B;Harristown;Eden Quay
4572049;"{\"type\":\"LineString\",\"coordinates\":[[-6.2049936,53.382953],[-6.2050171,53.3829218],[-6.2050619,53.382887],[-6.2051383,53.3828548]]}";22;Artane Roundabout;2;50;false;false;true;false;false;false;16.0;0;0;0;0;0;true;7044;5121047938;-6.2325138;53.3973957;1184;4989754522;-6.25389;53.350769;0;0;1;7468114;27B - Harristown - Eden Quay;"";Dublin Bus;27B;Harristown;Eden Quay
317183863;"{\"type\":\"LineString\",\"coordinates\":[[-6.2051383,53.3828548],[-6.205212,53.3828408],[-6.2052894,53.3828394],[-6.2053381,53.3828453],[-6.2053975,53.3828604],[-6.2054495,53.3828832],[-6.2054858,53.3829078],[-6.2055133,53.3829361]]}";23;Artane Roundabout;2;50;false;false;true;false;false;false;30.0;0;0;0;0;0;true;7044;5121047938;-6.2325138;53.3973957;1184;4989754522;-6.25389;53.350769;0;0;1;7468114;27B - Harristown - Eden Quay;"";Dublin Bus;27B;Harristown;Eden Quay
361316722;"{\"type\":\"LineString\",\"coordinates\":[[-6.2059287,53.38279],[-6.2057573,53.3828588],[-6.2055133,53.3829361]]}";24;Malahide Road;3;50;false;false;true;false;false;false;33.0;0;1;0;0;0;false;7044;5121047938;-6.2325138;53.3973957;1184;4989754522;-6.25389;53.350769;0;0;1;7468114;27B - Harristown - Eden Quay;"";Dublin Bus;27B;Harristown;Eden Quay
157072278;"{\"type\":\"LineString\",\"coordinates\":[[-6.2080493,53.3815844],[-6.2078781,53.3817176],[-6.2077128,53.3818462],[-6.2074974,53.3820156],[-6.2072642,53.3821871],[-6.2071541,53.3822582],[-6.2071179,53.3822816],[-6.2068112,53.3824344],[-6.206648,53.3825157],[-6.2062154,53.3826938],[-6.2059287,53.38279]]}";25;Malahide Road;4;50;false;false;true;false;false;false;199.0;0;0;0;0;0;false;7044;5121047938;-6.2325138;53.3973957;1184;4989754522;-6.25389;53.350769;0;0;1;7468114;27B - Harristown - Eden Quay;"";Dublin Bus;27B;Harristown;Eden Quay
129313733;"{\"type\":\"LineString\",\"coordinates\":[[-6.2103169,53.3799382],[-6.2101497,53.3800278],[-6.2099629,53.3801446],[-6.2097378,53.380295],[-6.2094769,53.3804881],[-6.2092685,53.3806481],[-6.2089901,53.3808551],[-6.2086539,53.381121],[-6.2084975,53.3812475],[-6.2082938,53.3814123],[-6.2080493,53.3815844]]}";26;Malahide Road;3;50;false;false;false;false;false;false;240.0;1;1;0;0;0;false;7044;5121047938;-6.2325138;53.3973957;1184;4989754522;-6.25389;53.350769;0;0;1;7468114;27B - Harristown - Eden Quay;"";Dublin Bus;27B;Harristown;Eden Quay
317675352;"{\"type\":\"LineString\",\"coordinates\":[[-6.2131872,53.3784154],[-6.2130144,53.3784773],[-6.2127798,53.3785797],[-6.2126384,53.3786415],[-6.2122777,53.3788273],[-6.2117732,53.3791054],[-6.2116685,53.3791624],[-6.2113685,53.3793259],[-6.2111193,53.3794637],[-6.2105571,53.3797962],[-6.2103169,53.3799382]]}";27;Malahide Road;4;50;false;false;true;false;false;false;258.0;2;0;0;0;0;false;7044;5121047938;-6.2325138;53.3973957;1184;4989754522;-6.25389;53.350769;0;0;1;7468114;27B - Harristown - Eden Quay;"";Dublin Bus;27B;Harristown;Eden Quay
317127410;"{\"type\":\"LineString\",\"coordinates\":[[-6.2154624,53.3773138],[-6.2153418,53.3773956],[-6.2150837,53.3775704],[-6.2148518,53.3777296],[-6.2147124,53.3778155],[-6.2145596,53.3778982],[-6.2143413,53.3779918],[-6.2141135,53.3780799],[-6.2134056,53.3783374],[-6.2131872,53.3784154]]}";28;Malahide Road;4;50;false;false;true;false;false;false;198.0;1;0;0;0;0;false;7044;5121047938;-6.2325138;53.3973957;1184;4989754522;-6.25389;53.350769;0;0;1;7468114;27B - Harristown - Eden Quay;"";Dublin Bus;27B;Harristown;Eden Quay
4900226;"{\"type\":\"LineString\",\"coordinates\":[[-6.217939,53.3759626],[-6.2177354,53.3760647],[-6.2176743,53.3760958],[-6.2172619,53.3763062],[-6.2171093,53.3763819],[-6.216388,53.3767513],[-6.216217,53.3768452],[-6.2160418,53.3769407],[-6.2154624,53.3773138]]}";29;Malahide Road;4;50;false;false;true;false;false;false;225.0;0;0;0;0;0;false;7044;5121047938;-6.2325138;53.3973957;1184;4989754522;-6.25389;53.350769;0;0;1;7468114;27B - Harristown - Eden Quay;"";Dublin Bus;27B;Harristown;Eden Quay
378875553;"{\"type\":\"LineString\",\"coordinates\":[[-6.218782,53.3754956],[-6.2185639,53.3756327],[-6.218121,53.3758694],[-6.2179832,53.3759431],[-6.217939,53.3759626]]}";30;Malahide Road;4;50;false;false;true;false;false;false;78.0;1;0;0;0;0;false;7044;5121047938;-6.2325138;53.3973957;1184;4989754522;-6.25389;53.350769;0;0;1;7468114;27B - Harristown - Eden Quay;"";Dublin Bus;27B;Harristown;Eden Quay
342674853;"{\"type\":\"LineString\",\"coordinates\":[[-6.218782,53.3754956],[-6.2187968,53.375409],[-6.2189448,53.3752959],[-6.2192251,53.3750817],[-6.2196101,53.374734],[-6.2196568,53.3746891]]}";31;Malahide Road;2;50;false;true;true;false;false;false;109.0;1;0;0;0;0;false;7044;5121047938;-6.2325138;53.3973957;1184;4989754522;-6.25389;53.350769;0;0;1;7468114;27B - Harristown - Eden Quay;"";Dublin Bus;27B;Harristown;Eden Quay
529166773;"{\"type\":\"LineString\",\"coordinates\":[[-6.2196568,53.3746891],[-6.2197694,53.3745809],[-6.2198848,53.3745331]]}";32;Malahide Road;2;50;false;true;true;false;false;false;24.0;0;1;0;0;0;false;7044;5121047938;-6.2325138;53.3973957;1184;4989754522;-6.25389;53.350769;0;0;1;7468114;27B - Harristown - Eden Quay;"";Dublin Bus;27B;Harristown;Eden Quay
317675351;"{\"type\":\"LineString\",\"coordinates\":[[-6.2214248,53.3732001],[-6.2211514,53.3733719],[-6.2210749,53.3734221],[-6.2209495,53.373511],[-6.2205741,53.3737771],[-6.2203594,53.3739673],[-6.2201855,53.3741611],[-6.2200469,53.3743417],[-6.2199785,53.3744294],[-6.2198848,53.3745331]]}";33;Malahide Road;4;50;false;false;true;false;false;false;183.0;0;1;0;0;0;false;7044;5121047938;-6.2325138;53.3973957;1184;4989754522;-6.25389;53.350769;0;0;1;7468114;27B - Harristown - Eden Quay;"";Dublin Bus;27B;Harristown;Eden Quay
56722994;"{\"type\":\"LineString\",\"coordinates\":[[-6.2214925,53.3731575],[-6.2214248,53.3732001]]}";34;Malahide Road;4;50;false;false;true;false;false;false;7.0;0;0;0;0;0;false;7044;5121047938;-6.2325138;53.3973957;1184;4989754522;-6.25389;53.350769;0;0;1;7468114;27B - Harristown - Eden Quay;"";Dublin Bus;27B;Harristown;Eden Quay
56722985;"{\"type\":\"LineString\",\"coordinates\":[[-6.2214925,53.3731575],[-6.221582,53.373002]]}";35;Malahide Road;2;50;false;true;true;false;false;false;19.0;0;1;0;0;0;false;7044;5121047938;-6.2325138;53.3973957;1184;4989754522;-6.25389;53.350769;0;0;1;7468114;27B - Harristown - Eden Quay;"";Dublin Bus;27B;Harristown;Eden Quay
750263308;"{\"type\":\"LineString\",\"coordinates\":[[-6.221582,53.373002],[-6.221851,53.3727812],[-6.2221169,53.3725128],[-6.2225247,53.3720985],[-6.2231924,53.3714349],[-6.2238967,53.3707177],[-6.224314,53.3702919],[-6.2246958,53.3699026],[-6.2254395,53.3691458],[-6.225639,53.3689801],[-6.2260967,53.3686041]]}";36;Malahide Road;2;50;false;true;false;false;false;false;579.0;0;2;0;0;0;false;7044;5121047938;-6.2325138;53.3973957;1184;4989754522;-6.25389;53.350769;0;0;1;7468114;27B - Harristown - Eden Quay;"";Dublin Bus;27B;Harristown;Eden Quay
750263309;"{\"type\":\"LineString\",\"coordinates\":[[-6.2260967,53.3686041],[-6.2263298,53.3684385],[-6.2268307,53.3681257],[-6.2269495,53.3680522],[-6.2270273,53.3680056],[-6.2273532,53.3678049]]}";37;Malahide Road;2;50;false;true;true;false;false;false;123.0;1;0;0;0;0;false;7044;5121047938;-6.2325138;53.3973957;1184;4989754522;-6.25389;53.350769;0;0;1;7468114;27B - Harristown - Eden Quay;"";Dublin Bus;27B;Harristown;Eden Quay
326993767;"{\"type\":\"LineString\",\"coordinates\":[[-6.227407,53.3677631],[-6.2273532,53.3678049]]}";38;Malahide Road;3;50;false;false;false;false;false;false;6.0;0;0;0;0;0;false;7044;5121047938;-6.2325138;53.3973957;1184;4989754522;-6.25389;53.350769;0;0;1;7468114;27B - Harristown - Eden Quay;"";Dublin Bus;27B;Harristown;Eden Quay
360696797;"{\"type\":\"LineString\",\"coordinates\":[[-6.2292855,53.3648599],[-6.2292127,53.3651874],[-6.2291433,53.3653726],[-6.2289794,53.3657324],[-6.2288907,53.3658899],[-6.2287939,53.3660445],[-6.2286036,53.3663091],[-6.2283054,53.3667262],[-6.2282882,53.3667522],[-6.228019,53.3671343],[-6.2278836,53.3673136],[-6.2277239,53.3674803],[-6.2275532,53.3676339],[-6.2274843,53.3676984],[-6.227407,53.3677631]]}";39;Malahide Road;3;50;false;false;false;false;false;false;352.0;1;0;0;0;0;false;7044;5121047938;-6.2325138;53.3973957;1184;4989754522;-6.25389;53.350769;0;0;1;7468114;27B - Harristown - Eden Quay;"";Dublin Bus;27B;Harristown;Eden Quay
3818324;"{\"type\":\"LineString\",\"coordinates\":[[-6.2298176,53.3643593],[-6.22963,53.3644894],[-6.2294875,53.364615],[-6.2294597,53.3646395],[-6.2293384,53.3647896],[-6.2292855,53.3648599]]}";40;Malahide Road;4;50;false;false;true;false;false;false;67.0;2;0;0;0;0;false;7044;5121047938;-6.2325138;53.3973957;1184;4989754522;-6.25389;53.350769;0;0;1;7468114;27B - Harristown - Eden Quay;"";Dublin Bus;27B;Harristown;Eden Quay
197048019;"{\"type\":\"LineString\",\"coordinates\":[[-6.2329627,53.3638733],[-6.2327655,53.3639237],[-6.2326329,53.3639576],[-6.2318186,53.364153],[-6.2315617,53.3642009],[-6.2309918,53.3642942],[-6.2305584,53.3643355],[-6.2301531,53.3643532],[-6.2298176,53.3643593]]}";41;Marino Mart;6;50;false;false;true;false;false;false;220.0;1;0;0;0;0;false;7044;5121047938;-6.2325138;53.3973957;1184;4989754522;-6.25389;53.350769;0;0;1;7468114;27B - Harristown - Eden Quay;"";Dublin Bus;27B;Harristown;Eden Quay
146465050;"{\"type\":\"LineString\",\"coordinates\":[[-6.2332619,53.3637949],[-6.2329627,53.3638733]]}";42;Marino Mart;5;50;false;false;true;false;false;false;22.0;0;0;0;0;0;false;7044;5121047938;-6.2325138;53.3973957;1184;4989754522;-6.25389;53.350769;0;0;1;7468114;27B - Harristown - Eden Quay;"";Dublin Bus;27B;Harristown;Eden Quay
368990036;"{\"type\":\"LineString\",\"coordinates\":[[-6.234743,53.3633522],[-6.2342918,53.3634823],[-6.2335724,53.3636985],[-6.2332619,53.3637949]]}";43;Fairview;6;50;false;false;true;false;false;false;111.0;0;0;0;0;0;false;7044;5121047938;-6.2325138;53.3973957;1184;4989754522;-6.25389;53.350769;0;0;1;7468114;27B - Harristown - Eden Quay;"";Dublin Bus;27B;Harristown;Eden Quay
22716429;"{\"type\":\"LineString\",\"coordinates\":[[-6.2364566,53.362849],[-6.2359464,53.3630073],[-6.235517,53.36313],[-6.2351937,53.3632223],[-6.234743,53.3633522]]}";44;Fairview;5;50;false;false;true;false;false;false;128.0;1;0;0;0;0;false;7044;5121047938;-6.2325138;53.3973957;1184;4989754522;-6.25389;53.350769;0;0;1;7468114;27B - Harristown - Eden Quay;"";Dublin Bus;27B;Harristown;Eden Quay
442928296;"{\"type\":\"LineString\",\"coordinates\":[[-6.2368792,53.3624417],[-6.2366371,53.362675],[-6.2364566,53.362849]]}";45;Annesley Bridge Road;4;50;false;false;true;false;false;false;54.0;1;0;0;0;0;false;7044;5121047938;-6.2325138;53.3973957;1184;4989754522;-6.25389;53.350769;0;0;1;7468114;27B - Harristown - Eden Quay;"";Dublin Bus;27B;Harristown;Eden Quay
4287188;"{\"type\":\"LineString\",\"coordinates\":[[-6.2385622,53.3610019],[-6.2384712,53.361078],[-6.2384312,53.3611116],[-6.2381319,53.3613631],[-6.2378516,53.3615991],[-6.2376588,53.3617555],[-6.2374039,53.3619789],[-6.2368792,53.3624417]]}";46;Annesley Bridge Road;5;50;false;false;true;false;false;false;197.0;0;0;0;0;0;false;7044;5121047938;-6.2325138;53.3973957;1184;4989754522;-6.25389;53.350769;0;0;1;7468114;27B - Harristown - Eden Quay;"";Dublin Bus;27B;Harristown;Eden Quay
379071734;"{\"type\":\"LineString\",\"coordinates\":[[-6.2386869,53.3608994],[-6.2385622,53.3610019]]}";47;Annesley Bridge;5;50;false;false;true;false;false;false;15.0;0;0;0;0;0;false;7044;5121047938;-6.2325138;53.3973957;1184;4989754522;-6.25389;53.350769;0;0;1;7468114;27B - Harristown - Eden Quay;"";Dublin Bus;27B;Harristown;Eden Quay
317219085;"{\"type\":\"LineString\",\"coordinates\":[[-6.2387285,53.3608653],[-6.2386869,53.3608994]]}";48;Annesley Bridge;5;50;false;false;true;false;false;false;5.0;0;0;0;0;0;false;7044;5121047938;-6.2325138;53.3973957;1184;4989754522;-6.25389;53.350769;0;0;1;7468114;27B - Harristown - Eden Quay;"";Dublin Bus;27B;Harristown;Eden Quay
4937391;"{\"type\":\"LineString\",\"coordinates\":[[-6.2389493,53.3606838],[-6.2387285,53.3608653]]}";49;Annesley Bridge;5;50;false;false;true;false;false;false;26.0;0;0;0;0;0;false;7044;5121047938;-6.2325138;53.3973957;1184;4989754522;-6.25389;53.350769;0;0;1;7468114;27B - Harristown - Eden Quay;"";Dublin Bus;27B;Harristown;Eden Quay
4937390;"{\"type\":\"LineString\",\"coordinates\":[[-6.2390148,53.3606292],[-6.2389493,53.3606838]]}";50;Annesley Bridge Road;5;50;false;false;true;false;false;false;8.0;1;0;0;0;0;false;7044;5121047938;-6.2325138;53.3973957;1184;4989754522;-6.25389;53.350769;0;0;1;7468114;27B - Harristown - Eden Quay;"";Dublin Bus;27B;Harristown;Eden Quay
37096954;"{\"type\":\"LineString\",\"coordinates\":[[-6.2393619,53.3602691],[-6.2393368,53.3602973],[-6.2390148,53.3606292]]}";51;North Strand Road;5;50;false;false;true;false;false;false;47.0;1;0;0;0;0;false;7044;5121047938;-6.2325138;53.3973957;1184;4989754522;-6.25389;53.350769;0;0;1;7468114;27B - Harristown - Eden Quay;"";Dublin Bus;27B;Harristown;Eden Quay
37812705;"{\"type\":\"LineString\",\"coordinates\":[[-6.2399931,53.3596662],[-6.2398718,53.3597745],[-6.2397449,53.3598965],[-6.2395592,53.3600684],[-6.2393619,53.3602691]]}";52;North Strand Road;6;50;false;false;true;false;false;false;80.0;0;0;0;0;0;false;7044;5121047938;-6.2325138;53.3973957;1184;4989754522;-6.25389;53.350769;0;0;1;7468114;27B - Harristown - Eden Quay;"";Dublin Bus;27B;Harristown;Eden Quay
37691265;"{\"type\":\"LineString\",\"coordinates\":[[-6.2402921,53.3594225],[-6.2401285,53.3595559],[-6.2399931,53.3596662]]}";53;North Strand Road;1;50;false;false;true;false;false;false;34.0;1;1;0;0;0;false;7044;5121047938;-6.2325138;53.3973957;1184;4989754522;-6.25389;53.350769;0;0;1;7468114;27B - Harristown - Eden Quay;"";Dublin Bus;27B;Harristown;Eden Quay
481221022;"{\"type\":\"LineString\",\"coordinates\":[[-6.2403848,53.3593319],[-6.2402921,53.3594225]]}";54;North Strand Road;4;50;false;false;true;false;false;false;12.0;1;0;0;0;0;false;7044;5121047938;-6.2325138;53.3973957;1184;4989754522;-6.25389;53.350769;0;0;1;7468114;27B - Harristown - Eden Quay;"";Dublin Bus;27B;Harristown;Eden Quay
375581292;"{\"type\":\"LineString\",\"coordinates\":[[-6.2406104,53.3591044],[-6.2405626,53.3591582],[-6.2403848,53.3593319]]}";55;North Strand Road;4;50;false;false;true;false;false;false;30.0;0;0;0;0;0;false;7044;5121047938;-6.2325138;53.3973957;1184;4989754522;-6.25389;53.350769;0;0;1;7468114;27B - Harristown - Eden Quay;"";Dublin Bus;27B;Harristown;Eden Quay
375581291;"{\"type\":\"LineString\",\"coordinates\":[[-6.2411525,53.3586229],[-6.2410033,53.3587408],[-6.2407429,53.3589741],[-6.2406104,53.3591044]]}";56;North Strand Road;4;50;false;false;true;false;false;false;66.0;0;0;0;0;0;false;7044;5121047938;-6.2325138;53.3973957;1184;4989754522;-6.25389;53.350769;0;0;1;7468114;27B - Harristown - Eden Quay;"";Dublin Bus;27B;Harristown;Eden Quay
4287187;"{\"type\":\"LineString\",\"coordinates\":[[-6.2440112,53.3566966],[-6.2439907,53.3567109],[-6.2439701,53.3567252],[-6.2438134,53.3568295],[-6.2433013,53.3571552],[-6.2428201,53.3574756],[-6.2427373,53.3575342],[-6.2426136,53.3576186],[-6.242318,53.3578072],[-6.242179,53.3578988],[-6.2420588,53.3579854],[-6.2416794,53.3582301],[-6.2411525,53.3586229]]}";57;North Strand Road;4;50;false;false;true;false;false;false;289.0;1;0;0;0;0;false;7044;5121047938;-6.2325138;53.3973957;1184;4989754522;-6.25389;53.350769;0;0;1;7468114;27B - Harristown - Eden Quay;"";Dublin Bus;27B;Harristown;Eden Quay
128947808;"{\"type\":\"LineString\",\"coordinates\":[[-6.2440112,53.3566966],[-6.2441549,53.3565972],[-6.2442545,53.3565305]]}";58;North Strand Road;4;50;false;false;true;false;false;false;25.0;0;0;0;0;0;false;7044;5121047938;-6.2325138;53.3973957;1184;4989754522;-6.25389;53.350769;0;0;1;7468114;27B - Harristown - Eden Quay;"";Dublin Bus;27B;Harristown;Eden Quay
482926564;"{\"type\":\"LineString\",\"coordinates\":[[-6.2442545,53.3565305],[-6.2442572,53.356529]]}";59;North Strand Road;4;50;false;false;true;false;false;false;1.0;0;0;0;0;0;false;7044;5121047938;-6.2325138;53.3973957;1184;4989754522;-6.25389;53.350769;0;0;1;7468114;27B - Harristown - Eden Quay;"";Dublin Bus;27B;Harristown;Eden Quay
317219095;"{\"type\":\"LineString\",\"coordinates\":[[-6.2442572,53.356529],[-6.2443719,53.3564514]]}";60;Newcomen Bridge;4;50;false;false;true;false;false;false;12.0;0;0;0;0;0;false;7044;5121047938;-6.2325138;53.3973957;1184;4989754522;-6.25389;53.350769;0;0;1;7468114;27B - Harristown - Eden Quay;"";Dublin Bus;27B;Harristown;Eden Quay
502143950;"{\"type\":\"LineString\",\"coordinates\":[[-6.244431,53.3564115],[-6.2443719,53.3564514]]}";61;North Strand Road;4;50;false;false;true;false;false;false;6.0;0;0;0;0;0;false;7044;5121047938;-6.2325138;53.3973957;1184;4989754522;-6.25389;53.350769;0;0;1;7468114;27B - Harristown - Eden Quay;"";Dublin Bus;27B;Harristown;Eden Quay
37720965;"{\"type\":\"LineString\",\"coordinates\":[[-6.2451039,53.3559576],[-6.2448331,53.3561421],[-6.2446829,53.3562416],[-6.244431,53.3564115]]}";62;North Strand Road;4;50;false;false;true;false;false;false;68.0;0;0;0;0;0;false;7044;5121047938;-6.2325138;53.3973957;1184;4989754522;-6.25389;53.350769;0;0;1;7468114;27B - Harristown - Eden Quay;"";Dublin Bus;27B;Harristown;Eden Quay
37866821;"{\"type\":\"LineString\",\"coordinates\":[[-6.246288,53.3550671],[-6.2461724,53.355154],[-6.2455796,53.3555999],[-6.2454208,53.3557193],[-6.2451039,53.3559576]]}";63;North Strand Road;4;50;false;false;true;false;false;false;128.0;0;0;0;0;0;false;7044;5121047938;-6.2325138;53.3973957;1184;4989754522;-6.25389;53.350769;0;0;1;7468114;27B - Harristown - Eden Quay;"";Dublin Bus;27B;Harristown;Eden Quay
130277328;"{\"type\":\"LineString\",\"coordinates\":[[-6.2466832,53.3547073],[-6.2464207,53.3549463],[-6.246288,53.3550671]]}";64;North Strand Road;4;50;false;false;true;false;false;false;49.0;1;0;0;0;0;false;7044;5121047938;-6.2325138;53.3973957;1184;4989754522;-6.25389;53.350769;0;0;1;7468114;27B - Harristown - Eden Quay;"";Dublin Bus;27B;Harristown;Eden Quay
354359921;"{\"type\":\"LineString\",\"coordinates\":[[-6.2482417,53.3532579],[-6.2480663,53.3534157],[-6.2479425,53.3535212],[-6.2477435,53.3537091],[-6.2476425,53.3538045],[-6.2474421,53.3539932],[-6.2467814,53.3546178],[-6.2466832,53.3547073]]}";65;Amiens Street;4;50;false;false;true;false;false;false;194.0;1;0;0;0;0;false;7044;5121047938;-6.2325138;53.3973957;1184;4989754522;-6.25389;53.350769;0;0;1;7468114;27B - Harristown - Eden Quay;"";Dublin Bus;27B;Harristown;Eden Quay
354359922;"{\"type\":\"LineString\",\"coordinates\":[[-6.2486188,53.3529497],[-6.2482417,53.3532579]]}";66;Amiens Street;3;50;false;false;true;false;false;false;43.0;0;0;0;0;0;false;7044;5121047938;-6.2325138;53.3973957;1184;4989754522;-6.25389;53.350769;0;0;1;7468114;27B - Harristown - Eden Quay;"";Dublin Bus;27B;Harristown;Eden Quay
520012242;"{\"type\":\"LineString\",\"coordinates\":[[-6.2488824,53.3527225],[-6.2487534,53.3528355],[-6.2486188,53.3529497]]}";67;Amiens Street;3;50;false;false;true;false;false;false;31.0;0;0;0;0;0;false;7044;5121047938;-6.2325138;53.3973957;1184;4989754522;-6.25389;53.350769;0;0;1;7468114;27B - Harristown - Eden Quay;"";Dublin Bus;27B;Harristown;Eden Quay
37865180;"{\"type\":\"LineString\",\"coordinates\":[[-6.2494985,53.3521529],[-6.249236,53.3524035],[-6.2489537,53.3526565],[-6.2488824,53.3527225]]}";68;Amiens Street;3;50;false;false;true;false;false;false;77.0;0;1;0;0;0;false;7044;5121047938;-6.2325138;53.3973957;1184;4989754522;-6.25389;53.350769;0;0;1;7468114;27B - Harristown - Eden Quay;"";Dublin Bus;27B;Harristown;Eden Quay
37865179;"{\"type\":\"LineString\",\"coordinates\":[[-6.2497435,53.3518457],[-6.2497261,53.351872],[-6.2494985,53.3521529]]}";69;Amiens Street;4;50;false;false;true;false;false;false;39.0;0;0;0;0;0;false;7044;5121047938;-6.2325138;53.3973957;1184;4989754522;-6.25389;53.350769;0;0;1;7468114;27B - Harristown - Eden Quay;"";Dublin Bus;27B;Harristown;Eden Quay
37865178;"{\"type\":\"LineString\",\"coordinates\":[[-6.2500678,53.3513705],[-6.2500118,53.3514696],[-6.2498406,53.3517174],[-6.2497435,53.3518457]]}";70;Amiens Street;5;50;false;false;true;false;false;false;58.0;1;0;0;0;0;false;7044;5121047938;-6.2325138;53.3973957;1184;4989754522;-6.25389;53.350769;0;0;1;7468114;27B - Harristown - Eden Quay;"";Dublin Bus;27B;Harristown;Eden Quay
50214631;"{\"type\":\"LineString\",\"coordinates\":[[-6.2500678,53.3513705],[-6.2502517,53.351399],[-6.2503298,53.3514111],[-6.2504867,53.351415],[-6.2506263,53.3513849],[-6.2507508,53.3513236],[-6.2511367,53.3512594],[-6.251187,53.351251]]}";71;Talbot Street;1;30;false;true;true;false;false;false;80.0;1;0;0;0;0;false;7044;5121047938;-6.2325138;53.3973957;1184;4989754522;-6.25389;53.350769;0;0;1;7468114;27B - Harristown - Eden Quay;"";Dublin Bus;27B;Harristown;Eden Quay
584286612;"{\"type\":\"LineString\",\"coordinates\":[[-6.251187,53.351251],[-6.2513925,53.351217],[-6.2516543,53.3511778],[-6.2522025,53.3510978],[-6.2522591,53.351056],[-6.2524118,53.3510339],[-6.2528073,53.3509702],[-6.2528129,53.3509693],[-6.2530002,53.3509413],[-6.2530513,53.3509412]]}";72;Talbot Street;1;30;false;true;true;false;false;false;131.0;0;0;0;0;0;false;7044;5121047938;-6.2325138;53.3973957;1184;4989754522;-6.25389;53.350769;0;0;1;7468114;27B - Harristown - Eden Quay;"";Dublin Bus;27B;Harristown;Eden Quay
584286613;"{\"type\":\"LineString\",\"coordinates\":[[-6.2530513,53.3509412],[-6.2531516,53.350939],[-6.253572,53.3508659],[-6.2536518,53.3508653]]}";73;Talbot Street;1;30;false;true;true;false;false;false;42.0;0;0;0;0;0;false;7044;5121047938;-6.2325138;53.3973957;1184;4989754522;-6.25389;53.350769;0;0;1;7468114;27B - Harristown - Eden Quay;"";Dublin Bus;27B;Harristown;Eden Quay
481221021;"{\"type\":\"LineString\",\"coordinates\":[[-6.2536518,53.3508653],[-6.2537052,53.3508663],[-6.2539188,53.3508295]]}";74;Talbot Street;1;30;false;true;true;false;false;false;19.0;0;0;0;0;0;false;7044;5121047938;-6.2325138;53.3973957;1184;4989754522;-6.25389;53.350769;1;0;1;7468114;27B - Harristown - Eden Quay;"";Dublin Bus;27B;Harristown;Eden Quay
