way_id;shape;index;name;nb_lanes;legal_speed;speed_zone_30;oneway;shares_bike;bike_box;bus_lane;dedicated_bus_lane;length;nb_traffic_signals;nb_crossings;nb_stops;nb_give_ways;nb_lvl_crossings;roundabout;stop_id_orig;node_id_orig;coord_x_orig;coord_y_orig;stop_id_dest;node_id_dest;coord_x_dest;coord_y_dest;nb_neighbouring_ways_bus_stop;ordre_orig;ordre_dest;id_line;line_name;colour;operator;ref;from;to
110168223;"{\"type\":\"LineString\",\"coordinates\":[[-73.9405954,45.4035725],[-73.9407105,45.4036313],[-73.9408699,45.4036513],[-73.940955,45.4036514],[-73.9410069,45.4036276],[-73.9410353,45.4035838],[-73.9410246,45.4035009],[-73.9409846,45.4034005]]}";1;STM Terminus d'Autobus Macdonald;1;50;false;false;true;false;false;false;62.0;0;0;0;0;0;false;72448;6133274303;-73.941309;45.403548;72451;6133274300;-73.951067;45.406365;1;0;1;9492868;Bus 335 : Direction Gare Pincourt T-V et Gare Dorion;"";EXO;335 O;Terminus Mcdonald (taxis);avenue de la Fabrique / École du Papillon-Bleu
37641503;"{\"type\":\"LineString\",\"coordinates\":[[-73.9409846,45.4034005],[-73.9413922,45.4033043],[-73.9417488,45.4032504],[-73.942646,45.4031772],[-73.9429904,45.4031006],[-73.9439653,45.4028382],[-73.9442647,45.4027639],[-73.9445332,45.4027051]]}";2;Rue Lakeshore;2;50;false;false;true;false;false;false;290.0;0;0;0;0;0;false;72448;6133274303;-73.941309;45.403548;72451;6133274300;-73.951067;45.406365;0;0;1;9492868;Bus 335 : Direction Gare Pincourt T-V et Gare Dorion;"";EXO;335 O;Terminus Mcdonald (taxis);avenue de la Fabrique / École du Papillon-Bleu
106665038;"{\"type\":\"LineString\",\"coordinates\":[[-73.9445332,45.4027051],[-73.9450798,45.4026533],[-73.9458511,45.4026825],[-73.9465593,45.402717],[-73.9466304,45.4027164],[-73.9470194,45.4026908],[-73.9475878,45.4027103],[-73.9477027,45.4027214],[-73.94832,45.4028113],[-73.9483825,45.4028232],[-73.9485376,45.4028518],[-73.9497379,45.403117],[-73.9503669,45.4032544]]}";3;Rue Sainte-Anne;2;50;false;false;true;false;false;false;466.0;0;0;0;0;0;false;72448;6133274303;-73.941309;45.403548;72451;6133274300;-73.951067;45.406365;0;0;1;9492868;Bus 335 : Direction Gare Pincourt T-V et Gare Dorion;"";EXO;335 O;Terminus Mcdonald (taxis);avenue de la Fabrique / École du Papillon-Bleu
683402656;"{\"type\":\"LineString\",\"coordinates\":[[-73.9503669,45.4032544],[-73.9507175,45.4033054],[-73.9520805,45.4035636],[-73.9523207,45.4036709],[-73.9525849,45.4038108],[-73.9527164,45.4038805],[-73.952808,45.4039252],[-73.9530244,45.4040236],[-73.9530498,45.4040352],[-73.9531731,45.4040912],[-73.9532078,45.404107],[-73.9535128,45.4042457]]}";4;Rue Sainte-Anne;2;50;false;false;true;false;false;false;274.0;0;0;0;0;0;false;72448;6133274303;-73.941309;45.403548;72451;6133274300;-73.951067;45.406365;0;0;1;9492868;Bus 335 : Direction Gare Pincourt T-V et Gare Dorion;"";EXO;335 O;Terminus Mcdonald (taxis);avenue de la Fabrique / École du Papillon-Bleu
21893576;"{\"type\":\"LineString\",\"coordinates\":[[-73.9535128,45.4042457],[-73.9534617,45.4044801],[-73.9533957,45.4049053],[-73.9533915,45.4049327],[-73.953364,45.4051476],[-73.9533384,45.4053473],[-73.9533138,45.4053829],[-73.9525859,45.4058658]]}";5;Rue du Collège;1;50;false;true;true;false;false;false;206.0;0;0;0;0;0;false;72448;6133274303;-73.941309;45.403548;72451;6133274300;-73.951067;45.406365;0;0;1;9492868;Bus 335 : Direction Gare Pincourt T-V et Gare Dorion;"";EXO;335 O;Terminus Mcdonald (taxis);avenue de la Fabrique / École du Papillon-Bleu
217379651;"{\"type\":\"LineString\",\"coordinates\":[[-73.9525859,45.4058658],[-73.9520261,45.4062027],[-73.9517669,45.4063275],[-73.9514912,45.4064032],[-73.9511384,45.4064112],[-73.9509039,45.4063817]]}";6;Rue du Collège;3;50;false;false;true;false;false;false;76.0;0;0;0;0;0;false;72448;6133274303;-73.941309;45.403548;72451;6133274300;-73.951067;45.406365;1;0;1;9492868;Bus 335 : Direction Gare Pincourt T-V et Gare Dorion;"";EXO;335 O;Terminus Mcdonald (taxis);avenue de la Fabrique / École du Papillon-Bleu
47460001;"{\"type\":\"LineString\",\"coordinates\":[[-73.9509039,45.4063817],[-73.9508668,45.4065233],[-73.9508699,45.4066053]]}";1;Boulevard des Anciens-Combattants;2;50;false;true;true;false;false;false;26.0;0;0;0;0;0;false;72451;6133274300;-73.951067;45.406365;72071;6133275253;-73.958048;45.396261;2;1;2;9492868;Bus 335 : Direction Gare Pincourt T-V et Gare Dorion;"";EXO;335 O;Terminus Mcdonald (taxis);avenue de la Fabrique / École du Papillon-Bleu
454883874;"{\"type\":\"LineString\",\"coordinates\":[[-73.9508699,45.4066053],[-73.9509334,45.4068165]]}";2;Boulevard des Anciens-Combattants;2;50;false;true;true;false;false;false;24.0;1;0;0;0;0;false;72451;6133274300;-73.951067;45.406365;72071;6133275253;-73.958048;45.396261;0;1;2;9492868;Bus 335 : Direction Gare Pincourt T-V et Gare Dorion;"";EXO;335 O;Terminus Mcdonald (taxis);avenue de la Fabrique / École du Papillon-Bleu
359425023;"{\"type\":\"LineString\",\"coordinates\":[[-73.9509334,45.4068165],[-73.9509607,45.4068942],[-73.9510702,45.4071675]]}";3;Boulevard des Anciens-Combattants;2;50;false;true;true;false;false;false;41.0;2;0;0;0;0;false;72451;6133274300;-73.951067;45.406365;72071;6133275253;-73.958048;45.396261;0;1;2;9492868;Bus 335 : Direction Gare Pincourt T-V et Gare Dorion;"";EXO;335 O;Terminus Mcdonald (taxis);avenue de la Fabrique / École du Papillon-Bleu
454883080;"{\"type\":\"LineString\",\"coordinates\":[[-73.9510702,45.4071675],[-73.9512071,45.4071096]]}";4;"";1;50;false;true;true;false;false;false;13.0;2;0;0;0;0;false;72451;6133274300;-73.951067;45.406365;72071;6133275253;-73.958048;45.396261;0;1;2;9492868;Bus 335 : Direction Gare Pincourt T-V et Gare Dorion;"";EXO;335 O;Terminus Mcdonald (taxis);avenue de la Fabrique / École du Papillon-Bleu
48262911;"{\"type\":\"LineString\",\"coordinates\":[[-73.9512071,45.4071096],[-73.9518827,45.4068096],[-73.9528187,45.4063045],[-73.9533893,45.4058993],[-73.9537539,45.405572],[-73.9541146,45.4052399],[-73.9543248,45.405002]]}";5;"";1;50;false;true;true;false;false;false;342.0;1;0;0;0;0;false;72451;6133274300;-73.951067;45.406365;72071;6133275253;-73.958048;45.396261;0;1;2;9492868;Bus 335 : Direction Gare Pincourt T-V et Gare Dorion;"";EXO;335 O;Terminus Mcdonald (taxis);avenue de la Fabrique / École du Papillon-Bleu
5168677;"{\"type\":\"LineString\",\"coordinates\":[[-73.9543248,45.405002],[-73.9548269,45.4044211]]}";6;Autoroute du Souvenir;2;70;false;true;true;false;false;false;76.0;0;0;0;0;0;false;72451;6133274300;-73.951067;45.406365;72071;6133275253;-73.958048;45.396261;0;1;2;9492868;Bus 335 : Direction Gare Pincourt T-V et Gare Dorion;"";EXO;335 O;Terminus Mcdonald (taxis);avenue de la Fabrique / École du Papillon-Bleu
770514600;"{\"type\":\"LineString\",\"coordinates\":[[-73.9548269,45.4044211],[-73.9549741,45.4042508]]}";7;Autoroute du Souvenir;2;70;false;true;true;false;false;false;23.0;0;0;0;0;0;false;72451;6133274300;-73.951067;45.406365;72071;6133275253;-73.958048;45.396261;0;1;2;9492868;Bus 335 : Direction Gare Pincourt T-V et Gare Dorion;"";EXO;335 O;Terminus Mcdonald (taxis);avenue de la Fabrique / École du Papillon-Bleu
770514601;"{\"type\":\"LineString\",\"coordinates\":[[-73.9549741,45.4042508],[-73.9562928,45.4027155],[-73.9575511,45.4012695]]}";8;Autoroute du Souvenir;2;70;false;true;true;false;false;false;388.0;0;0;0;0;0;false;72451;6133274300;-73.951067;45.406365;72071;6133275253;-73.958048;45.396261;0;1;2;9492868;Bus 335 : Direction Gare Pincourt T-V et Gare Dorion;"";EXO;335 O;Terminus Mcdonald (taxis);avenue de la Fabrique / École du Papillon-Bleu
19616013;"{\"type\":\"LineString\",\"coordinates\":[[-73.9575511,45.4012695],[-73.9577933,45.4010027],[-73.9580206,45.4007581],[-73.9583588,45.4003954]]}";9;Autoroute du Souvenir;2;70;false;true;true;false;false;false;116.0;0;0;0;0;0;false;72451;6133274300;-73.951067;45.406365;72071;6133275253;-73.958048;45.396261;0;1;2;9492868;Bus 335 : Direction Gare Pincourt T-V et Gare Dorion;"";EXO;335 O;Terminus Mcdonald (taxis);avenue de la Fabrique / École du Papillon-Bleu
436939998;"{\"type\":\"LineString\",\"coordinates\":[[-73.9583588,45.4003954],[-73.9586721,45.4000408]]}";10;Autoroute du Souvenir;2;70;false;true;true;false;false;false;47.0;0;0;0;0;0;false;72451;6133274300;-73.951067;45.406365;72071;6133275253;-73.958048;45.396261;0;1;2;9492868;Bus 335 : Direction Gare Pincourt T-V et Gare Dorion;"";EXO;335 O;Terminus Mcdonald (taxis);avenue de la Fabrique / École du Papillon-Bleu
574700845;"{\"type\":\"LineString\",\"coordinates\":[[-73.9586721,45.4000408],[-73.9590569,45.3996152]]}";11;Autoroute du Souvenir;2;70;false;true;true;false;false;false;57.0;0;0;0;0;0;false;72451;6133274300;-73.951067;45.406365;72071;6133275253;-73.958048;45.396261;0;1;2;9492868;Bus 335 : Direction Gare Pincourt T-V et Gare Dorion;"";EXO;335 O;Terminus Mcdonald (taxis);avenue de la Fabrique / École du Papillon-Bleu
110348658;"{\"type\":\"LineString\",\"coordinates\":[[-73.9590569,45.3996152],[-73.959491,45.3991224]]}";12;Autoroute du Souvenir;3;70;false;true;true;false;false;false;65.0;0;0;0;0;0;false;72451;6133274300;-73.951067;45.406365;72071;6133275253;-73.958048;45.396261;0;1;2;9492868;Bus 335 : Direction Gare Pincourt T-V et Gare Dorion;"";EXO;335 O;Terminus Mcdonald (taxis);avenue de la Fabrique / École du Papillon-Bleu
110348656;"{\"type\":\"LineString\",\"coordinates\":[[-73.959491,45.3991224],[-73.9596266,45.3989533],[-73.9598625,45.3986848]]}";13;Autoroute du Souvenir;2;70;false;true;false;false;false;false;57.0;0;0;0;0;0;false;72451;6133274300;-73.951067;45.406365;72071;6133275253;-73.958048;45.396261;0;1;2;9492868;Bus 335 : Direction Gare Pincourt T-V et Gare Dorion;"";EXO;335 O;Terminus Mcdonald (taxis);avenue de la Fabrique / École du Papillon-Bleu
770548039;"{\"type\":\"LineString\",\"coordinates\":[[-73.9598625,45.3986848],[-73.9600656,45.3984537],[-73.9602912,45.3981969],[-73.9611804,45.3971849]]}";14;Autoroute du Souvenir;3;70;false;true;false;false;false;false;196.0;0;0;0;0;0;false;72451;6133274300;-73.951067;45.406365;72071;6133275253;-73.958048;45.396261;0;1;2;9492868;Bus 335 : Direction Gare Pincourt T-V et Gare Dorion;"";EXO;335 O;Terminus Mcdonald (taxis);avenue de la Fabrique / École du Papillon-Bleu
770548038;"{\"type\":\"LineString\",\"coordinates\":[[-73.9611804,45.3971849],[-73.9620096,45.3962543]]}";15;Autoroute du Souvenir;4;70;false;true;false;false;false;false;123.0;0;0;0;0;0;false;72451;6133274300;-73.951067;45.406365;72071;6133275253;-73.958048;45.396261;0;1;2;9492868;Bus 335 : Direction Gare Pincourt T-V et Gare Dorion;"";EXO;335 O;Terminus Mcdonald (taxis);avenue de la Fabrique / École du Papillon-Bleu
770548036;"{\"type\":\"LineString\",\"coordinates\":[[-73.9620096,45.3962543],[-73.9624437,45.3957644],[-73.962534,45.3956637],[-73.9626265,45.3955765]]}";16;Autoroute du Souvenir;5;70;false;true;false;false;false;false;90.0;1;0;0;0;0;false;72451;6133274300;-73.951067;45.406365;72071;6133275253;-73.958048;45.396261;0;1;2;9492868;Bus 335 : Direction Gare Pincourt T-V et Gare Dorion;"";EXO;335 O;Terminus Mcdonald (taxis);avenue de la Fabrique / École du Papillon-Bleu
683983710;"{\"type\":\"LineString\",\"coordinates\":[[-73.9626265,45.3955765],[-73.962427,45.3954634]]}";17;Boulevard Perrot;2;50;false;true;true;false;false;false;21.0;0;0;0;0;0;false;72451;6133274300;-73.951067;45.406365;72071;6133275253;-73.958048;45.396261;0;1;2;9492868;Bus 335 : Direction Gare Pincourt T-V et Gare Dorion;"";EXO;335 O;Terminus Mcdonald (taxis);avenue de la Fabrique / École du Papillon-Bleu
110304439;"{\"type\":\"LineString\",\"coordinates\":[[-73.962427,45.3954634],[-73.9623111,45.3954363],[-73.9621649,45.3954081],[-73.9620124,45.3953834],[-73.961856,45.39536],[-73.9616802,45.3953337],[-73.9612473,45.3952736],[-73.9611713,45.3952649],[-73.9610614,45.3952543]]}";18;Boulevard Perrot;2;30;false;true;true;false;false;false;110.0;0;0;0;0;0;false;72451;6133274300;-73.951067;45.406365;72071;6133275253;-73.958048;45.396261;0;1;2;9492868;Bus 335 : Direction Gare Pincourt T-V et Gare Dorion;"";EXO;335 O;Terminus Mcdonald (taxis);avenue de la Fabrique / École du Papillon-Bleu
683402669;"{\"type\":\"LineString\",\"coordinates\":[[-73.9610614,45.3952543],[-73.9610424,45.3952732]]}";19;2e Avenue;2;30;false;false;true;false;false;false;3.0;0;0;0;0;0;false;72451;6133274300;-73.951067;45.406365;72071;6133275253;-73.958048;45.396261;0;1;2;9492868;Bus 335 : Direction Gare Pincourt T-V et Gare Dorion;"";EXO;335 O;Terminus Mcdonald (taxis);avenue de la Fabrique / École du Papillon-Bleu
771044842;"{\"type\":\"LineString\",\"coordinates\":[[-73.9610424,45.3952732],[-73.9609525,45.3953621],[-73.9608482,45.3954632]]}";20;2e Avenue;2;30;false;false;true;false;false;false;27.0;0;0;1;0;0;false;72451;6133274300;-73.951067;45.406365;72071;6133275253;-73.958048;45.396261;0;1;2;9492868;Bus 335 : Direction Gare Pincourt T-V et Gare Dorion;"";EXO;335 O;Terminus Mcdonald (taxis);avenue de la Fabrique / École du Papillon-Bleu
42288562;"{\"type\":\"LineString\",\"coordinates\":[[-73.9608482,45.3954632],[-73.9609178,45.3955091],[-73.9609426,45.3955269],[-73.9609735,45.3955446],[-73.9610129,45.3955599],[-73.9610979,45.3955799],[-73.9612367,45.395605],[-73.9612949,45.395614],[-73.9615744,45.3956571],[-73.9616183,45.3956714],[-73.9616448,45.3956929],[-73.961659,45.395718],[-73.9616593,45.3957499],[-73.961649,45.395782],[-73.9616373,45.3958075],[-73.9616088,45.395842],[-73.9615681,45.3958801],[-73.9615555,45.3958919],[-73.9613708,45.3960452],[-73.9612338,45.3961618],[-73.9612233,45.3961707],[-73.9609897,45.3963712],[-73.9608223,45.3965149],[-73.9607182,45.3966043],[-73.9604853,45.3968042],[-73.9602969,45.3969659],[-73.9601326,45.3971069],[-73.9598096,45.3973842],[-73.9596783,45.397497],[-73.959553,45.3976045],[-73.9594969,45.3976527],[-73.9593658,45.3977652],[-73.9592966,45.3978246],[-73.9592051,45.3978942]]}";21;1re Avenue;2;30;false;false;true;false;false;false;383.0;0;0;2;0;0;false;72451;6133274300;-73.951067;45.406365;72071;6133275253;-73.958048;45.396261;0;1;2;9492868;Bus 335 : Direction Gare Pincourt T-V et Gare Dorion;"";EXO;335 O;Terminus Mcdonald (taxis);avenue de la Fabrique / École du Papillon-Bleu
110412015;"{\"type\":\"LineString\",\"coordinates\":[[-73.9592051,45.3978942],[-73.9589296,45.3975359],[-73.9588369,45.3974153],[-73.9587237,45.397268],[-73.9586853,45.3972182]]}";22;Grand Boulevard;2;50;false;false;false;false;false;false;86.0;0;1;0;0;0;false;72451;6133274300;-73.951067;45.406365;72071;6133275253;-73.958048;45.396261;0;1;2;9492868;Bus 335 : Direction Gare Pincourt T-V et Gare Dorion;"";EXO;335 O;Terminus Mcdonald (taxis);avenue de la Fabrique / École du Papillon-Bleu
771655174;"{\"type\":\"LineString\",\"coordinates\":[[-73.9586853,45.3972182],[-73.9586304,45.3971468],[-73.9585702,45.3970685],[-73.95841,45.3968602],[-73.958318,45.3967405]]}";23;Grand Boulevard;2;50;false;false;false;false;false;false;61.0;0;1;0;0;0;false;72451;6133274300;-73.951067;45.406365;72071;6133275253;-73.958048;45.396261;0;1;2;9492868;Bus 335 : Direction Gare Pincourt T-V et Gare Dorion;"";EXO;335 O;Terminus Mcdonald (taxis);avenue de la Fabrique / École du Papillon-Bleu
778423747;"{\"type\":\"LineString\",\"coordinates\":[[-73.958318,45.3967405],[-73.9582759,45.3966878],[-73.9581168,45.3964849],[-73.9580266,45.3963698],[-73.9578874,45.3961923],[-73.9578529,45.3961436],[-73.9577524,45.3959877],[-73.9577059,45.3958607],[-73.9577032,45.3958463],[-73.957687,45.3957582],[-73.9576828,45.3957148],[-73.9576744,45.3956273],[-73.9576725,45.3955832],[-73.9576774,45.3955072]]}";24;Grand Boulevard;2;50;false;false;false;false;false;false;149.0;0;3;0;0;0;false;72451;6133274300;-73.951067;45.406365;72071;6133275253;-73.958048;45.396261;2;1;2;9492868;Bus 335 : Direction Gare Pincourt T-V et Gare Dorion;"";EXO;335 O;Terminus Mcdonald (taxis);avenue de la Fabrique / École du Papillon-Bleu
778423747;"{\"type\":\"LineString\",\"coordinates\":[[-73.958318,45.3967405],[-73.9582759,45.3966878],[-73.9581168,45.3964849],[-73.9580266,45.3963698],[-73.9578874,45.3961923],[-73.9578529,45.3961436],[-73.9577524,45.3959877],[-73.9577059,45.3958607],[-73.9577032,45.3958463],[-73.957687,45.3957582],[-73.9576828,45.3957148],[-73.9576744,45.3956273],[-73.9576725,45.3955832],[-73.9576774,45.3955072]]}";1;Grand Boulevard;2;50;false;false;false;false;false;false;74.5;0;3;0;0;0;false;72071;6133275253;-73.958048;45.396261;72067;1460617137;-73.959437;45.393342;1;2;3;9492868;Bus 335 : Direction Gare Pincourt T-V et Gare Dorion;"";EXO;335 O;Terminus Mcdonald (taxis);avenue de la Fabrique / École du Papillon-Bleu
683968389;"{\"type\":\"LineString\",\"coordinates\":[[-73.9576774,45.3955072],[-73.9576859,45.3954263],[-73.9576929,45.3953596],[-73.9577135,45.3951974],[-73.9577464,45.3950264],[-73.9577918,45.3948276],[-73.9578073,45.3947753],[-73.9578424,45.3946789],[-73.9578743,45.3946188]]}";2;Grand Boulevard;2;50;false;false;false;false;false;false;101.0;1;1;0;0;0;false;72071;6133275253;-73.958048;45.396261;72067;1460617137;-73.959437;45.393342;0;2;3;9492868;Bus 335 : Direction Gare Pincourt T-V et Gare Dorion;"";EXO;335 O;Terminus Mcdonald (taxis);avenue de la Fabrique / École du Papillon-Bleu
778719216;"{\"type\":\"LineString\",\"coordinates\":[[-73.95941,45.3932355],[-73.9593591,45.3932883],[-73.9593376,45.3933072],[-73.9592645,45.3933711],[-73.9592063,45.393422],[-73.9591686,45.3934547],[-73.9590422,45.3935644],[-73.9589691,45.3936278],[-73.9588283,45.3937523],[-73.9585832,45.393967],[-73.9584737,45.394061],[-73.958208,45.3942892],[-73.9581283,45.3943604],[-73.957998,45.3944767],[-73.9579832,45.3944913],[-73.9579719,45.3945023],[-73.9579449,45.3945311],[-73.9579164,45.3945621],[-73.9578743,45.3946188]]}";3;Grand Boulevard;2;30;false;false;false;false;false;false;98.0;1;1;1;0;0;false;72071;6133275253;-73.958048;45.396261;72067;1460617137;-73.959437;45.393342;1;2;3;9492868;Bus 335 : Direction Gare Pincourt T-V et Gare Dorion;"";EXO;335 O;Terminus Mcdonald (taxis);avenue de la Fabrique / École du Papillon-Bleu
455054804;"{\"type\":\"LineString\",\"coordinates\":[[-73.9636571,45.3895572],[-73.9635958,45.3896097],[-73.9635504,45.3896506],[-73.9634657,45.389724],[-73.9633912,45.3897871],[-73.9632828,45.38988],[-73.9631623,45.3899831],[-73.9630621,45.390069],[-73.962877,45.3902275],[-73.962776,45.3903159],[-73.9626642,45.3904139],[-73.9624777,45.3905713],[-73.9623083,45.3907142],[-73.9621138,45.3908837],[-73.9620816,45.3909118],[-73.9619235,45.3910496],[-73.9618468,45.3911165],[-73.9617755,45.3911786],[-73.9616902,45.3912526],[-73.9615073,45.3914111],[-73.9613152,45.3915777],[-73.9610574,45.3918012],[-73.961045,45.3918119],[-73.9610327,45.3918225],[-73.9609828,45.3918659],[-73.9609286,45.3919128]]}";1;Grand Boulevard;2;50;false;false;false;false;false;false;169.0;0;3;1;0;0;false;72043;1460579664;-73.963426;45.389875;72103;6133275221;-73.967667;45.387745;1;5;6;9492868;Bus 335 : Direction Gare Pincourt T-V et Gare Dorion;"";EXO;335 O;Terminus Mcdonald (taxis);avenue de la Fabrique / École du Papillon-Bleu
455054803;"{\"type\":\"LineString\",\"coordinates\":[[-73.9639188,45.3893407],[-73.963866,45.3893844],[-73.9638127,45.3894285],[-73.9636571,45.3895572]]}";2;Grand Boulevard;2;50;false;false;false;false;false;false;32.0;1;1;0;0;0;false;72043;1460579664;-73.963426;45.389875;72103;6133275221;-73.967667;45.387745;0;5;6;9492868;Bus 335 : Direction Gare Pincourt T-V et Gare Dorion;"";EXO;335 O;Terminus Mcdonald (taxis);avenue de la Fabrique / École du Papillon-Bleu
683964248;"{\"type\":\"LineString\",\"coordinates\":[[-73.9640887,45.3892174],[-73.9639188,45.3893407]]}";3;Grand Boulevard;2;50;false;false;false;false;false;false;20.0;0;0;0;0;0;false;72043;1460579664;-73.963426;45.389875;72103;6133275221;-73.967667;45.387745;0;5;6;9492868;Bus 335 : Direction Gare Pincourt T-V et Gare Dorion;"";EXO;335 O;Terminus Mcdonald (taxis);avenue de la Fabrique / École du Papillon-Bleu
771364550;"{\"type\":\"LineString\",\"coordinates\":[[-73.9645071,45.388855],[-73.9644563,45.3888998],[-73.964417,45.3889345],[-73.9642783,45.3890575],[-73.9641716,45.389153],[-73.9641629,45.3891609],[-73.9640887,45.3892174]]}";4;Grand Boulevard;4;30;false;false;false;false;false;false;52.0;1;1;0;0;0;false;72043;1460579664;-73.963426;45.389875;72103;6133275221;-73.967667;45.387745;0;5;6;9492868;Bus 335 : Direction Gare Pincourt T-V et Gare Dorion;"";EXO;335 O;Terminus Mcdonald (taxis);avenue de la Fabrique / École du Papillon-Bleu
771362654;"{\"type\":\"LineString\",\"coordinates\":[[-73.9669249,45.3878601],[-73.9668971,45.3878666],[-73.9668586,45.3878756],[-73.9667784,45.3878951],[-73.966407,45.3879857],[-73.9663445,45.388001],[-73.9662538,45.3880231],[-73.9659811,45.3880917],[-73.9659399,45.3881021],[-73.9655925,45.3881895],[-73.9654944,45.3882175],[-73.9654757,45.3882234],[-73.9654465,45.3882327],[-73.9653939,45.3882495],[-73.9653013,45.3882876],[-73.9652097,45.3883252],[-73.9651381,45.3883579],[-73.9650812,45.3883877],[-73.9650107,45.3884323],[-73.9649454,45.3884788],[-73.9649002,45.3885149],[-73.9648647,45.3885437],[-73.964797,45.3885987],[-73.9646433,45.3887349],[-73.9646186,45.3887566],[-73.9645071,45.388855]]}";5;Grand Boulevard;3;30;false;false;false;false;false;false;226.0;0;4;0;0;0;false;72043;1460579664;-73.963426;45.389875;72103;6133275221;-73.967667;45.387745;0;5;6;9492868;Bus 335 : Direction Gare Pincourt T-V et Gare Dorion;"";EXO;335 O;Terminus Mcdonald (taxis);avenue de la Fabrique / École du Papillon-Bleu
113242157;"{\"type\":\"LineString\",\"coordinates\":[[-73.9677689,45.3876474],[-73.9676104,45.3876895],[-73.9671543,45.387804],[-73.9670745,45.3878239],[-73.9669249,45.3878601]]}";6;Grand Boulevard;3;30;false;false;false;false;false;false;35.5;0;1;0;0;0;false;72043;1460579664;-73.963426;45.389875;72103;6133275221;-73.967667;45.387745;1;5;6;9492868;Bus 335 : Direction Gare Pincourt T-V et Gare Dorion;"";EXO;335 O;Terminus Mcdonald (taxis);avenue de la Fabrique / École du Papillon-Bleu
683964246;"{\"type\":\"LineString\",\"coordinates\":[[-73.9687506,45.3874071],[-73.9686618,45.3874289],[-73.9686101,45.3874416],[-73.968539,45.387459],[-73.9677689,45.3876474]]}";1;Grand Boulevard;2;30;false;false;false;false;false;false;82.0;0;1;0;0;0;false;72103;6133275221;-73.967667;45.387745;72290;6133274735;-73.972212;45.386301;2;6;7;9492868;Bus 335 : Direction Gare Pincourt T-V et Gare Dorion;"";EXO;335 O;Terminus Mcdonald (taxis);avenue de la Fabrique / École du Papillon-Bleu
746176282;"{\"type\":\"LineString\",\"coordinates\":[[-73.9690995,45.3873209],[-73.9687506,45.3874071]]}";2;Grand Boulevard;2;50;false;false;false;false;false;false;29.0;0;0;0;0;0;false;72103;6133275221;-73.967667;45.387745;72290;6133274735;-73.972212;45.386301;0;6;7;9492868;Bus 335 : Direction Gare Pincourt T-V et Gare Dorion;"";EXO;335 O;Terminus Mcdonald (taxis);avenue de la Fabrique / École du Papillon-Bleu
683964247;"{\"type\":\"LineString\",\"coordinates\":[[-73.9695958,45.3872023],[-73.9693394,45.3872635],[-73.9691844,45.3873006],[-73.9690995,45.3873209]]}";3;Grand Boulevard;2;50;false;false;false;false;false;false;42.0;0;1;0;0;0;false;72103;6133275221;-73.967667;45.387745;72290;6133274735;-73.972212;45.386301;0;6;7;9492868;Bus 335 : Direction Gare Pincourt T-V et Gare Dorion;"";EXO;335 O;Terminus Mcdonald (taxis);avenue de la Fabrique / École du Papillon-Bleu
473599643;"{\"type\":\"LineString\",\"coordinates\":[[-73.9715341,45.3867389],[-73.9707087,45.3869346],[-73.9706499,45.3869496],[-73.97027,45.3870413],[-73.9699116,45.3871279],[-73.9697865,45.387158],[-73.9695958,45.3872023]]}";4;5e Avenue;2;50;false;false;false;false;false;false;161.0;0;0;0;0;0;false;72103;6133275221;-73.967667;45.387745;72290;6133274735;-73.972212;45.386301;0;6;7;9492868;Bus 335 : Direction Gare Pincourt T-V et Gare Dorion;"";EXO;335 O;Terminus Mcdonald (taxis);avenue de la Fabrique / École du Papillon-Bleu
473599644;"{\"type\":\"LineString\",\"coordinates\":[[-73.9722078,45.3865801],[-73.9718959,45.3866534],[-73.9715341,45.3867389]]}";5;5e Avenue;2;50;false;false;false;false;false;false;56.0;0;0;0;0;0;false;72103;6133275221;-73.967667;45.387745;72290;6133274735;-73.972212;45.386301;0;6;7;9492868;Bus 335 : Direction Gare Pincourt T-V et Gare Dorion;"";EXO;335 O;Terminus Mcdonald (taxis);avenue de la Fabrique / École du Papillon-Bleu
60909143;"{\"type\":\"LineString\",\"coordinates\":[[-73.9722078,45.3865801],[-73.9722147,45.386499],[-73.9721863,45.3864649]]}";6;Boulevard Pincourt;2;30;false;true;false;false;false;false;14.0;0;1;0;0;0;false;72103;6133275221;-73.967667;45.387745;72290;6133274735;-73.972212;45.386301;0;6;7;9492868;Bus 335 : Direction Gare Pincourt T-V et Gare Dorion;"";EXO;335 O;Terminus Mcdonald (taxis);avenue de la Fabrique / École du Papillon-Bleu
772400124;"{\"type\":\"LineString\",\"coordinates\":[[-73.9721863,45.3864649],[-73.9721442,45.3864264],[-73.9720631,45.3863608],[-73.9718272,45.3861731],[-73.9717781,45.3861368],[-73.9717205,45.3860942],[-73.9716599,45.3860572],[-73.9716403,45.3860453],[-73.9714901,45.385962],[-73.971408,45.3859165],[-73.9709713,45.3856802],[-73.9708954,45.3856391],[-73.9704585,45.3854071],[-73.9703483,45.3853482],[-73.969689,45.3849957],[-73.9694061,45.384848],[-73.969002,45.3846752]]}";7;Boulevard Pincourt;2;30;false;true;true;false;false;false;320.0;0;3;0;0;0;false;72103;6133275221;-73.967667;45.387745;72290;6133274735;-73.972212;45.386301;2;6;7;9492868;Bus 335 : Direction Gare Pincourt T-V et Gare Dorion;"";EXO;335 O;Terminus Mcdonald (taxis);avenue de la Fabrique / École du Papillon-Bleu
60909143;"{\"type\":\"LineString\",\"coordinates\":[[-73.9722078,45.3865801],[-73.9722147,45.386499],[-73.9721863,45.3864649]]}";1;Boulevard Pincourt;2;30;false;true;false;false;false;false;14.0;0;1;0;0;0;false;72290;6133274735;-73.972212;45.386301;72292;6133274733;-73.965957;45.382208;2;7;8;9492868;Bus 335 : Direction Gare Pincourt T-V et Gare Dorion;"";EXO;335 O;Terminus Mcdonald (taxis);avenue de la Fabrique / École du Papillon-Bleu
772400124;"{\"type\":\"LineString\",\"coordinates\":[[-73.9721863,45.3864649],[-73.9721442,45.3864264],[-73.9720631,45.3863608],[-73.9718272,45.3861731],[-73.9717781,45.3861368],[-73.9717205,45.3860942],[-73.9716599,45.3860572],[-73.9716403,45.3860453],[-73.9714901,45.385962],[-73.971408,45.3859165],[-73.9709713,45.3856802],[-73.9708954,45.3856391],[-73.9704585,45.3854071],[-73.9703483,45.3853482],[-73.969689,45.3849957],[-73.9694061,45.384848],[-73.969002,45.3846752]]}";2;Boulevard Pincourt;2;30;false;true;true;false;false;false;320.0;0;3;0;0;0;false;72290;6133274735;-73.972212;45.386301;72292;6133274733;-73.965957;45.382208;0;7;8;9492868;Bus 335 : Direction Gare Pincourt T-V et Gare Dorion;"";EXO;335 O;Terminus Mcdonald (taxis);avenue de la Fabrique / École du Papillon-Bleu
110165912;"{\"type\":\"LineString\",\"coordinates\":[[-73.969002,45.3846752],[-73.9681443,45.3842141]]}";3;Boulevard Pincourt;2;50;false;false;true;false;false;false;85.0;0;0;0;0;0;false;72290;6133274735;-73.972212;45.386301;72292;6133274733;-73.965957;45.382208;0;7;8;9492868;Bus 335 : Direction Gare Pincourt T-V et Gare Dorion;"";EXO;335 O;Terminus Mcdonald (taxis);avenue de la Fabrique / École du Papillon-Bleu
772239249;"{\"type\":\"LineString\",\"coordinates\":[[-73.9681443,45.3842141],[-73.9681008,45.3841907],[-73.966698,45.3834362],[-73.9665487,45.3833507],[-73.966464,45.3832978],[-73.9663839,45.3832328],[-73.9663421,45.3831913],[-73.966298,45.3831414],[-73.9662689,45.3831055]]}";4;Boulevard Pincourt;2;50;false;false;true;false;false;false;193.0;0;0;0;0;0;false;72290;6133274735;-73.972212;45.386301;72292;6133274733;-73.965957;45.382208;0;7;8;9492868;Bus 335 : Direction Gare Pincourt T-V et Gare Dorion;"";EXO;335 O;Terminus Mcdonald (taxis);avenue de la Fabrique / École du Papillon-Bleu
772239251;"{\"type\":\"LineString\",\"coordinates\":[[-73.9662689,45.3831055],[-73.9662522,45.3830833],[-73.9662081,45.3830187],[-73.96616,45.3829368],[-73.9661429,45.3829001],[-73.966125,45.3828593]]}";5;Boulevard Pincourt;2;50;false;false;false;false;false;false;30.0;0;0;0;0;0;false;72290;6133274735;-73.972212;45.386301;72292;6133274733;-73.965957;45.382208;0;7;8;9492868;Bus 335 : Direction Gare Pincourt T-V et Gare Dorion;"";EXO;335 O;Terminus Mcdonald (taxis);avenue de la Fabrique / École du Papillon-Bleu
769425229;"{\"type\":\"LineString\",\"coordinates\":[[-73.966125,45.3828593],[-73.9661045,45.3828015],[-73.9660046,45.3825401],[-73.9658795,45.3822035],[-73.9658554,45.3821387],[-73.9657887,45.381962],[-73.9656861,45.3816902],[-73.9655821,45.3814147],[-73.9655654,45.3813723],[-73.9655271,45.3812751],[-73.9655106,45.3812334],[-73.9654869,45.381174]]}";6;Boulevard Pincourt;2;50;false;false;false;false;false;false;194.0;0;0;1;0;0;false;72290;6133274735;-73.972212;45.386301;72292;6133274733;-73.965957;45.382208;2;7;8;9492868;Bus 335 : Direction Gare Pincourt T-V et Gare Dorion;"";EXO;335 O;Terminus Mcdonald (taxis);avenue de la Fabrique / École du Papillon-Bleu
42294473;"{\"type\":\"LineString\",\"coordinates\":[[-73.9654869,45.381174],[-73.9655684,45.3811576],[-73.966449,45.380992],[-73.9666888,45.3809477],[-73.9667671,45.380933],[-73.9672366,45.3808447],[-73.967419,45.3808042],[-73.9675409,45.3807737],[-73.9677713,45.3807018],[-73.9678417,45.3806744],[-73.9679027,45.3806507],[-73.9680278,45.3805998],[-73.9681779,45.3805358],[-73.9683262,45.380465],[-73.9684593,45.3803928],[-73.9685437,45.3803451],[-73.9686129,45.3803021],[-73.9686268,45.3802934],[-73.9687326,45.3802242],[-73.9689199,45.3800885],[-73.9690835,45.3799671],[-73.969207,45.3798738],[-73.9693003,45.3798041],[-73.9693586,45.3797606],[-73.9696362,45.3795521],[-73.9700227,45.3792767],[-73.9701018,45.3792259],[-73.9702123,45.3791549],[-73.9703564,45.3790783],[-73.9705009,45.3790088],[-73.9706142,45.3789615],[-73.9707304,45.3789148],[-73.9708694,45.3788695],[-73.9709575,45.3788436],[-73.9710426,45.378819],[-73.9711589,45.3787914],[-73.9712827,45.3787628],[-73.9714056,45.3787352],[-73.9715982,45.3786963],[-73.9717157,45.3786734],[-73.9718766,45.378642],[-73.972582,45.3785032],[-73.9726771,45.3784848],[-73.9728521,45.3784488],[-73.9729391,45.3784308],[-73.9731423,45.37839]]}";1;Avenue Forest;2;50;false;false;true;false;false;false;346.0;0;8;0;0;0;false;72381;6133274362;-73.969961;45.37934;72377;6133274366;-73.973433;45.378364;1;11;12;9492868;Bus 335 : Direction Gare Pincourt T-V et Gare Dorion;"";EXO;335 O;Terminus Mcdonald (taxis);avenue de la Fabrique / École du Papillon-Bleu
774736183;"{\"type\":\"LineString\",\"coordinates\":[[-73.9731423,45.37839],[-73.9733642,45.3783462],[-73.9735355,45.3783143],[-73.9736562,45.3782908],[-73.9744328,45.3781438],[-73.9745338,45.3781237],[-73.9748247,45.3780709],[-73.9754784,45.3779472],[-73.9757648,45.3778943],[-73.9758693,45.3778746],[-73.9765962,45.3777374],[-73.9766946,45.3777188],[-73.977258,45.3776093],[-73.9776359,45.3775441],[-73.9776803,45.3775378],[-73.9777565,45.3775288],[-73.9778912,45.3775162],[-73.9781306,45.3774986],[-73.9785053,45.3774735],[-73.9786197,45.3774632],[-73.9786884,45.3774571]]}";2;Avenue Forest;2;50;false;false;false;false;false;false;224.0;0;0;0;0;0;false;72381;6133274362;-73.969961;45.37934;72377;6133274366;-73.973433;45.378364;1;11;12;9492868;Bus 335 : Direction Gare Pincourt T-V et Gare Dorion;"";EXO;335 O;Terminus Mcdonald (taxis);avenue de la Fabrique / École du Papillon-Bleu
683393886;"{\"type\":\"LineString\",\"coordinates\":[[-73.9789478,45.3803773],[-73.9790492,45.3799938],[-73.9790891,45.3798491],[-73.9791158,45.379729],[-73.9791353,45.3796313],[-73.9791464,45.3795365],[-73.9791546,45.3794405],[-73.9791563,45.3793317],[-73.9791495,45.3792181],[-73.9791376,45.3791132],[-73.9791146,45.3789875],[-73.9790096,45.3785918],[-73.9789745,45.378468],[-73.9787061,45.3775216],[-73.9786884,45.3774571]]}";1;Boulevard de l'Île;2;50;false;false;false;false;false;false;330.0;0;0;0;0;0;false;72363;2186107468;-73.978571;45.377501;72383;6133274360;-73.978782;45.380785;2;14;15;9492868;Bus 335 : Direction Gare Pincourt T-V et Gare Dorion;"";EXO;335 O;Terminus Mcdonald (taxis);avenue de la Fabrique / École du Papillon-Bleu
683402667;"{\"type\":\"LineString\",\"coordinates\":[[-73.9788132,45.3808526],[-73.9789478,45.3803773]]}";2;Boulevard de l'Île;2;50;false;false;false;false;false;false;54.0;0;0;0;0;0;false;72363;2186107468;-73.978571;45.377501;72383;6133274360;-73.978782;45.380785;2;14;15;9492868;Bus 335 : Direction Gare Pincourt T-V et Gare Dorion;"";EXO;335 O;Terminus Mcdonald (taxis);avenue de la Fabrique / École du Papillon-Bleu
683393896;"{\"type\":\"LineString\",\"coordinates\":[[-73.9814424,45.3760304],[-73.9819428,45.3757101],[-73.9820731,45.3756259],[-73.9821862,45.3755541],[-73.9823139,45.3754758],[-73.9824452,45.3753981],[-73.982569,45.3753276],[-73.9826863,45.3752601],[-73.9828359,45.375179],[-73.9829918,45.3750974]]}";1;Avenue Forest;2;50;false;false;false;false;false;false;160.0;0;0;1;0;0;false;72367;2186107568;-73.983103;45.375136;72365;2186107618;-73.978824;45.377397;2;19;20;9492868;Bus 335 : Direction Gare Pincourt T-V et Gare Dorion;"";EXO;335 O;Terminus Mcdonald (taxis);avenue de la Fabrique / École du Papillon-Bleu
683393897;"{\"type\":\"LineString\",\"coordinates\":[[-73.9786884,45.3774571],[-73.9787806,45.3774472],[-73.9788937,45.3774309],[-73.9790228,45.3774084],[-73.9791151,45.3773895],[-73.9792164,45.3773648],[-73.9793041,45.3773405],[-73.9794131,45.3773023],[-73.9794941,45.3772707],[-73.9795656,45.3772397],[-73.979633,45.3772038],[-73.9797005,45.3771635],[-73.9797642,45.3771259],[-73.9798441,45.3770759],[-73.9801084,45.3769038],[-73.9803145,45.37677],[-73.9805272,45.37663],[-73.9807818,45.3764633],[-73.9808829,45.3763969],[-73.9810946,45.3762588],[-73.9812672,45.3761457],[-73.9814424,45.3760304]]}";2;Avenue Forest;2;50;false;false;false;false;false;false;273.0;0;0;0;0;0;false;72367;2186107568;-73.983103;45.375136;72365;2186107618;-73.978824;45.377397;2;19;20;9492868;Bus 335 : Direction Gare Pincourt T-V et Gare Dorion;"";EXO;335 O;Terminus Mcdonald (taxis);avenue de la Fabrique / École du Papillon-Bleu
208286760;"{\"type\":\"LineString\",\"coordinates\":[[-73.9786254,45.3708175],[-73.9786023,45.3708839],[-73.9785764,45.3709635],[-73.9785576,45.3710342],[-73.9785443,45.3711087],[-73.9785342,45.3711799],[-73.9785283,45.3712702],[-73.9785186,45.3713888],[-73.9785153,45.3714603],[-73.9785124,45.3714962],[-73.9785059,45.3715788],[-73.9784994,45.3716771],[-73.9784933,45.3717703],[-73.9784766,45.3719976],[-73.978409,45.3729967],[-73.9784009,45.3731123],[-73.9783922,45.3732326],[-73.9783419,45.3739361]]}";1;Boulevard de l'Île;2;50;false;false;false;false;false;false;348.0;0;0;0;0;0;false;72322;6133274705;-73.978389;45.374027;72372;2186107533;-73.97937;45.369281;2;21;22;9492868;Bus 335 : Direction Gare Pincourt T-V et Gare Dorion;"";EXO;335 O;Terminus Mcdonald (taxis);avenue de la Fabrique / École du Papillon-Bleu
682480336;"{\"type\":\"LineString\",\"coordinates\":[[-73.9792735,45.3691698],[-73.9792303,45.3692797],[-73.9790792,45.3696522],[-73.9787529,45.3704859],[-73.9787033,45.3706135],[-73.9786254,45.3708175]]}";2;Boulevard de l'Île;2;50;false;false;true;false;false;false;190.0;0;0;1;0;0;false;72322;6133274705;-73.978389;45.374027;72372;2186107533;-73.97937;45.369281;2;21;22;9492868;Bus 335 : Direction Gare Pincourt T-V et Gare Dorion;"";EXO;335 O;Terminus Mcdonald (taxis);avenue de la Fabrique / École du Papillon-Bleu
208286762;"{\"type\":\"LineString\",\"coordinates\":[[-73.9797579,45.3685593],[-73.979657,45.3686348],[-73.9795799,45.3687054],[-73.9794956,45.3687948],[-73.9794235,45.3688917],[-73.9793675,45.368975],[-73.9793302,45.3690461],[-73.9792735,45.3691698]]}";1;Boulevard de l'Île;2;50;false;false;true;false;false;false;79.0;0;0;1;0;0;false;72372;2186107533;-73.97937;45.369281;72284;6133274740;-73.982779;45.367312;2;22;23;9492868;Bus 335 : Direction Gare Pincourt T-V et Gare Dorion;"";EXO;335 O;Terminus Mcdonald (taxis);avenue de la Fabrique / École du Papillon-Bleu
772208693;"{\"type\":\"LineString\",\"coordinates\":[[-73.9798335,45.3685051],[-73.9797579,45.3685593]]}";2;Boulevard de l'Île;2;50;false;false;true;false;false;false;9.0;0;0;0;0;0;false;72372;2186107533;-73.97937;45.369281;72284;6133274740;-73.982779;45.367312;0;22;23;9492868;Bus 335 : Direction Gare Pincourt T-V et Gare Dorion;"";EXO;335 O;Terminus Mcdonald (taxis);avenue de la Fabrique / École du Papillon-Bleu
179378718;"{\"type\":\"LineString\",\"coordinates\":[[-73.9817833,45.3676094],[-73.9817005,45.3676457],[-73.9808406,45.3680218],[-73.9804368,45.3682021],[-73.9801801,45.3683155],[-73.9800687,45.3683678],[-73.9799862,45.3684099],[-73.9799064,45.3684568],[-73.979852,45.3684918],[-73.9798335,45.3685051]]}";3;Boulevard de l'Île;2;50;false;false;false;false;false;false;183.0;0;0;1;0;0;false;72372;2186107533;-73.97937;45.369281;72284;6133274740;-73.982779;45.367312;0;22;23;9492868;Bus 335 : Direction Gare Pincourt T-V et Gare Dorion;"";EXO;335 O;Terminus Mcdonald (taxis);avenue de la Fabrique / École du Papillon-Bleu
682480338;"{\"type\":\"LineString\",\"coordinates\":[[-73.9834973,45.3668532],[-73.9833677,45.36691],[-73.9826524,45.3672236],[-73.9825242,45.3672798],[-73.9819407,45.3675374],[-73.9817833,45.3676094]]}";4;Boulevard de l'Île;2;50;false;false;false;false;false;false;159.0;0;0;1;0;0;false;72372;2186107533;-73.97937;45.369281;72284;6133274740;-73.982779;45.367312;2;22;23;9492868;Bus 335 : Direction Gare Pincourt T-V et Gare Dorion;"";EXO;335 O;Terminus Mcdonald (taxis);avenue de la Fabrique / École du Papillon-Bleu
682480338;"{\"type\":\"LineString\",\"coordinates\":[[-73.9834973,45.3668532],[-73.9833677,45.36691],[-73.9826524,45.3672236],[-73.9825242,45.3672798],[-73.9819407,45.3675374],[-73.9817833,45.3676094]]}";1;Boulevard de l'Île;2;50;false;false;false;false;false;false;79.5;0;0;1;0;0;false;72284;6133274740;-73.982779;45.367312;72319;6133274708;-73.984482;45.366487;1;23;24;9492868;Bus 335 : Direction Gare Pincourt T-V et Gare Dorion;"";EXO;335 O;Terminus Mcdonald (taxis);avenue de la Fabrique / École du Papillon-Bleu
769435629;"{\"type\":\"LineString\",\"coordinates\":[[-73.9835984,45.3668063],[-73.9834973,45.3668532]]}";2;Boulevard de l'Île;2;50;false;false;false;false;false;false;10.0;0;0;0;0;0;false;72284;6133274740;-73.982779;45.367312;72319;6133274708;-73.984482;45.366487;0;23;24;9492868;Bus 335 : Direction Gare Pincourt T-V et Gare Dorion;"";EXO;335 O;Terminus Mcdonald (taxis);avenue de la Fabrique / École du Papillon-Bleu
179378726;"{\"type\":\"LineString\",\"coordinates\":[[-73.9835984,45.3668063],[-73.9837887,45.3667407],[-73.9844629,45.366455],[-73.9844829,45.3664494],[-73.9845339,45.3664354],[-73.9846147,45.3664159]]}";3;Boulevard de l'Île;1;50;false;true;true;false;false;false;45.5;0;0;1;0;0;false;72284;6133274740;-73.982779;45.367312;72319;6133274708;-73.984482;45.366487;1;23;24;9492868;Bus 335 : Direction Gare Pincourt T-V et Gare Dorion;"";EXO;335 O;Terminus Mcdonald (taxis);avenue de la Fabrique / École du Papillon-Bleu
682480344;"{\"type\":\"LineString\",\"coordinates\":[[-73.9866288,45.3708633],[-73.9860798,45.3696214],[-73.9860409,45.3695295],[-73.9855867,45.3685327],[-73.9853036,45.3679177],[-73.9846549,45.3665035],[-73.9846472,45.3664867],[-73.9846147,45.3664159]]}";1;Boulevard Cardinal-Léger;2;50;false;false;false;false;false;false;259.5;0;0;0;0;0;false;72396;6133274347;-73.985955;45.369462;72333;6133274695;-73.987846;45.373531;1;25;26;9492868;Bus 335 : Direction Gare Pincourt T-V et Gare Dorion;"";EXO;335 O;Terminus Mcdonald (taxis);avenue de la Fabrique / École du Papillon-Bleu
179377834;"{\"type\":\"LineString\",\"coordinates\":[[-73.9875001,45.3726763],[-73.9866288,45.3708633]]}";2;Boulevard Cardinal-Léger;2;30;false;false;true;false;false;false;213.0;0;0;0;0;0;false;72396;6133274347;-73.985955;45.369462;72333;6133274695;-73.987846;45.373531;0;25;26;9492868;Bus 335 : Direction Gare Pincourt T-V et Gare Dorion;"";EXO;335 O;Terminus Mcdonald (taxis);avenue de la Fabrique / École du Papillon-Bleu
769506183;"{\"type\":\"LineString\",\"coordinates\":[[-73.9878893,45.373512],[-73.9878585,45.3734442],[-73.9875001,45.3726763]]}";3;Boulevard Cardinal-Léger;2;30;false;false;false;false;false;false;98.0;0;0;1;0;0;false;72396;6133274347;-73.985955;45.369462;72333;6133274695;-73.987846;45.373531;0;25;26;9492868;Bus 335 : Direction Gare Pincourt T-V et Gare Dorion;"";EXO;335 O;Terminus Mcdonald (taxis);avenue de la Fabrique / École du Papillon-Bleu
769506199;"{\"type\":\"LineString\",\"coordinates\":[[-73.9879231,45.3735837],[-73.9878893,45.373512]]}";4;Boulevard Cardinal-Léger;2;30;false;false;false;false;false;false;4.5;0;0;0;0;0;false;72396;6133274347;-73.985955;45.369462;72333;6133274695;-73.987846;45.373531;1;25;26;9492868;Bus 335 : Direction Gare Pincourt T-V et Gare Dorion;"";EXO;335 O;Terminus Mcdonald (taxis);avenue de la Fabrique / École du Papillon-Bleu
769506183;"{\"type\":\"LineString\",\"coordinates\":[[-73.9878893,45.373512],[-73.9878585,45.3734442],[-73.9875001,45.3726763]]}";1;Boulevard Cardinal-Léger;2;30;false;false;false;false;false;false;98.0;0;0;1;0;0;false;72333;6133274695;-73.987846;45.373531;72336;6133274692;-73.988652;45.375257;2;26;27;9492868;Bus 335 : Direction Gare Pincourt T-V et Gare Dorion;"";EXO;335 O;Terminus Mcdonald (taxis);avenue de la Fabrique / École du Papillon-Bleu
769506199;"{\"type\":\"LineString\",\"coordinates\":[[-73.9879231,45.3735837],[-73.9878893,45.373512]]}";2;Boulevard Cardinal-Léger;2;30;false;false;false;false;false;false;9.0;0;0;0;0;0;false;72333;6133274695;-73.987846;45.373531;72336;6133274692;-73.988652;45.375257;0;26;27;9492868;Bus 335 : Direction Gare Pincourt T-V et Gare Dorion;"";EXO;335 O;Terminus Mcdonald (taxis);avenue de la Fabrique / École du Papillon-Bleu
201487488;"{\"type\":\"LineString\",\"coordinates\":[[-73.9906475,45.3794777],[-73.9906172,45.3794119],[-73.9905941,45.3793617],[-73.9896913,45.3773961],[-73.9887479,45.3753675],[-73.9887244,45.3753169],[-73.9886973,45.375258],[-73.9884057,45.3746229],[-73.9879879,45.3737229],[-73.987956,45.3736573],[-73.9879231,45.3735837]]}";3;Boulevard Cardinal-Léger;2;30;false;false;false;false;false;false;689.0;1;1;2;0;0;false;72333;6133274695;-73.987846;45.373531;72336;6133274692;-73.988652;45.375257;2;26;27;9492868;Bus 335 : Direction Gare Pincourt T-V et Gare Dorion;"";EXO;335 O;Terminus Mcdonald (taxis);avenue de la Fabrique / École du Papillon-Bleu
47459931;"{\"type\":\"LineString\",\"coordinates\":[[-73.9906475,45.3794777],[-73.9906572,45.3795428],[-73.990668,45.3796147],[-73.9909278,45.3801865],[-73.991065,45.3804929],[-73.9912386,45.3808807],[-73.9913611,45.3811486],[-73.9914363,45.381313],[-73.991571,45.3816075],[-73.9915975,45.3816655],[-73.9916391,45.3817565],[-73.9916769,45.3818392],[-73.9916941,45.3818768],[-73.9917278,45.3819507],[-73.9917492,45.3819974],[-73.9917654,45.3820327],[-73.9918859,45.382295],[-73.9919439,45.3824213],[-73.99205,45.3826524],[-73.99212,45.3828047],[-73.9921356,45.3828386],[-73.9922461,45.3830792],[-73.9922765,45.3831456],[-73.992283,45.3831598],[-73.9923413,45.3832867],[-73.9923788,45.3833682],[-73.9924425,45.3835134],[-73.9925759,45.3838373],[-73.992584,45.3838566],[-73.9926208,45.3839413]]}";1;Boulevard Cardinal-Léger;2;50;false;true;true;false;false;false;260.0;2;2;0;0;0;false;72350;2186107462;-73.992195;45.382983;72332;2186107582;-73.995573;45.383788;1;31;32;9492868;Bus 335 : Direction Gare Pincourt T-V et Gare Dorion;"";EXO;335 O;Terminus Mcdonald (taxis);avenue de la Fabrique / École du Papillon-Bleu
683402658;"{\"type\":\"LineString\",\"coordinates\":[[-73.9926208,45.3839413],[-73.9927617,45.3839111]]}";2;Avenue Joseph-Laflèche;2;50;false;false;true;false;false;false;12.0;0;0;0;0;0;false;72350;2186107462;-73.992195;45.382983;72332;2186107582;-73.995573;45.383788;0;31;32;9492868;Bus 335 : Direction Gare Pincourt T-V et Gare Dorion;"";EXO;335 O;Terminus Mcdonald (taxis);avenue de la Fabrique / École du Papillon-Bleu
42321612;"{\"type\":\"LineString\",\"coordinates\":[[-73.9927617,45.3839111],[-73.9928573,45.3838886],[-73.992871,45.3838854],[-73.9931795,45.3838137]]}";3;Avenue Joseph-Laflèche;2;50;false;false;true;false;false;false;35.0;1;0;0;0;0;false;72350;2186107462;-73.992195;45.382983;72332;2186107582;-73.995573;45.383788;0;31;32;9492868;Bus 335 : Direction Gare Pincourt T-V et Gare Dorion;"";EXO;335 O;Terminus Mcdonald (taxis);avenue de la Fabrique / École du Papillon-Bleu
769971318;"{\"type\":\"LineString\",\"coordinates\":[[-73.9931795,45.3838137],[-73.9932503,45.3837976],[-73.9934768,45.3837461],[-73.9938934,45.3836527],[-73.9940489,45.3836151],[-73.9946948,45.3834645],[-73.9950118,45.3833906],[-73.9953197,45.3833207]]}";4;Avenue Joseph-Laflèche;2;50;false;false;true;false;false;false;177.0;0;0;0;0;0;false;72350;2186107462;-73.992195;45.382983;72332;2186107582;-73.995573;45.383788;0;31;32;9492868;Bus 335 : Direction Gare Pincourt T-V et Gare Dorion;"";EXO;335 O;Terminus Mcdonald (taxis);avenue de la Fabrique / École du Papillon-Bleu
110998900;"{\"type\":\"LineString\",\"coordinates\":[[-73.9955211,45.3837542],[-73.9954988,45.3837059],[-73.9954885,45.3836838],[-73.9954037,45.3835007],[-73.9953885,45.383468],[-73.9953614,45.3834099],[-73.9953197,45.3833207]]}";5;"";1;50;false;false;true;false;true;false;51.0;0;0;3;0;0;false;72350;2186107462;-73.992195;45.382983;72332;2186107582;-73.995573;45.383788;0;31;32;9492868;Bus 335 : Direction Gare Pincourt T-V et Gare Dorion;"";EXO;335 O;Terminus Mcdonald (taxis);avenue de la Fabrique / École du Papillon-Bleu
110998887;"{\"type\":\"LineString\",\"coordinates\":[[-73.9955211,45.3837542],[-73.9955755,45.3837422],[-73.9956494,45.3837258],[-73.9958867,45.38367],[-73.9960938,45.3836217],[-73.9962573,45.3835829],[-73.9962974,45.3835735],[-73.9963174,45.3835687],[-73.9963676,45.3835574],[-73.9964979,45.3835281],[-73.9967025,45.3834821],[-73.9968642,45.3834457],[-73.9968839,45.3834413]]}";6;"";1;50;false;false;true;false;true;false;56.5;0;0;4;0;0;false;72350;2186107462;-73.992195;45.382983;72332;2186107582;-73.995573;45.383788;1;31;32;9492868;Bus 335 : Direction Gare Pincourt T-V et Gare Dorion;"";EXO;335 O;Terminus Mcdonald (taxis);avenue de la Fabrique / École du Papillon-Bleu
110998900;"{\"type\":\"LineString\",\"coordinates\":[[-73.9955211,45.3837542],[-73.9954988,45.3837059],[-73.9954885,45.3836838],[-73.9954037,45.3835007],[-73.9953885,45.383468],[-73.9953614,45.3834099],[-73.9953197,45.3833207]]}";1;"";1;50;false;false;true;false;true;false;51.0;0;0;3;0;0;false;72332;2186107582;-73.995573;45.383788;72335;6133274693;-73.996045;45.383074;2;32;33;9492868;Bus 335 : Direction Gare Pincourt T-V et Gare Dorion;"";EXO;335 O;Terminus Mcdonald (taxis);avenue de la Fabrique / École du Papillon-Bleu
683402662;"{\"type\":\"LineString\",\"coordinates\":[[-73.9953197,45.3833207],[-73.9954561,45.3832903],[-73.9956906,45.3832359],[-73.9960878,45.3831437],[-73.9965525,45.3830344],[-73.9967005,45.3829997]]}";2;Avenue Joseph-Laflèche;2;50;false;false;true;false;false;false;114.0;0;0;0;0;0;false;72332;2186107582;-73.995573;45.383788;72335;6133274693;-73.996045;45.383074;2;32;33;9492868;Bus 335 : Direction Gare Pincourt T-V et Gare Dorion;"";EXO;335 O;Terminus Mcdonald (taxis);avenue de la Fabrique / École du Papillon-Bleu
683402662;"{\"type\":\"LineString\",\"coordinates\":[[-73.9953197,45.3833207],[-73.9954561,45.3832903],[-73.9956906,45.3832359],[-73.9960878,45.3831437],[-73.9965525,45.3830344],[-73.9967005,45.3829997]]}";1;Avenue Joseph-Laflèche;2;50;false;false;true;false;false;false;57.0;0;0;0;0;0;false;72335;6133274693;-73.996045;45.383074;72310;2186107424;-73.992894;45.384737;1;33;34;9492868;Bus 335 : Direction Gare Pincourt T-V et Gare Dorion;"";EXO;335 O;Terminus Mcdonald (taxis);avenue de la Fabrique / École du Papillon-Bleu
110998900;"{\"type\":\"LineString\",\"coordinates\":[[-73.9955211,45.3837542],[-73.9954988,45.3837059],[-73.9954885,45.3836838],[-73.9954037,45.3835007],[-73.9953885,45.383468],[-73.9953614,45.3834099],[-73.9953197,45.3833207]]}";2;"";1;50;false;false;true;false;true;false;51.0;0;0;3;0;0;false;72335;6133274693;-73.996045;45.383074;72310;2186107424;-73.992894;45.384737;0;33;34;9492868;Bus 335 : Direction Gare Pincourt T-V et Gare Dorion;"";EXO;335 O;Terminus Mcdonald (taxis);avenue de la Fabrique / École du Papillon-Bleu
769971318;"{\"type\":\"LineString\",\"coordinates\":[[-73.9931795,45.3838137],[-73.9932503,45.3837976],[-73.9934768,45.3837461],[-73.9938934,45.3836527],[-73.9940489,45.3836151],[-73.9946948,45.3834645],[-73.9950118,45.3833906],[-73.9953197,45.3833207]]}";3;Avenue Joseph-Laflèche;2;50;false;false;true;false;false;false;177.0;0;0;0;0;0;false;72335;6133274693;-73.996045;45.383074;72310;2186107424;-73.992894;45.384737;0;33;34;9492868;Bus 335 : Direction Gare Pincourt T-V et Gare Dorion;"";EXO;335 O;Terminus Mcdonald (taxis);avenue de la Fabrique / École du Papillon-Bleu
42321612;"{\"type\":\"LineString\",\"coordinates\":[[-73.9927617,45.3839111],[-73.9928573,45.3838886],[-73.992871,45.3838854],[-73.9931795,45.3838137]]}";4;Avenue Joseph-Laflèche;2;50;false;false;true;false;false;false;35.0;1;0;0;0;0;false;72335;6133274693;-73.996045;45.383074;72310;2186107424;-73.992894;45.384737;0;33;34;9492868;Bus 335 : Direction Gare Pincourt T-V et Gare Dorion;"";EXO;335 O;Terminus Mcdonald (taxis);avenue de la Fabrique / École du Papillon-Bleu
683402658;"{\"type\":\"LineString\",\"coordinates\":[[-73.9926208,45.3839413],[-73.9927617,45.3839111]]}";5;Avenue Joseph-Laflèche;2;50;false;false;true;false;false;false;12.0;0;0;0;0;0;false;72335;6133274693;-73.996045;45.383074;72310;2186107424;-73.992894;45.384737;0;33;34;9492868;Bus 335 : Direction Gare Pincourt T-V et Gare Dorion;"";EXO;335 O;Terminus Mcdonald (taxis);avenue de la Fabrique / École du Papillon-Bleu
47459931;"{\"type\":\"LineString\",\"coordinates\":[[-73.9906475,45.3794777],[-73.9906572,45.3795428],[-73.990668,45.3796147],[-73.9909278,45.3801865],[-73.991065,45.3804929],[-73.9912386,45.3808807],[-73.9913611,45.3811486],[-73.9914363,45.381313],[-73.991571,45.3816075],[-73.9915975,45.3816655],[-73.9916391,45.3817565],[-73.9916769,45.3818392],[-73.9916941,45.3818768],[-73.9917278,45.3819507],[-73.9917492,45.3819974],[-73.9917654,45.3820327],[-73.9918859,45.382295],[-73.9919439,45.3824213],[-73.99205,45.3826524],[-73.99212,45.3828047],[-73.9921356,45.3828386],[-73.9922461,45.3830792],[-73.9922765,45.3831456],[-73.992283,45.3831598],[-73.9923413,45.3832867],[-73.9923788,45.3833682],[-73.9924425,45.3835134],[-73.9925759,45.3838373],[-73.992584,45.3838566],[-73.9926208,45.3839413]]}";6;Boulevard Cardinal-Léger;2;50;false;true;true;false;false;false;520.0;2;2;0;0;0;false;72335;6133274693;-73.996045;45.383074;72310;2186107424;-73.992894;45.384737;0;33;34;9492868;Bus 335 : Direction Gare Pincourt T-V et Gare Dorion;"";EXO;335 O;Terminus Mcdonald (taxis);avenue de la Fabrique / École du Papillon-Bleu
683402666;"{\"type\":\"LineString\",\"coordinates\":[[-73.9926208,45.3839413],[-73.9926675,45.3840422],[-73.9926866,45.3840863],[-73.9929385,45.3846444],[-73.9930037,45.3847855],[-73.9930469,45.3848774]]}";7;Boulevard Cardinal-Léger;2;50;false;true;true;false;false;false;55.0;0;0;0;0;0;false;72335;6133274693;-73.996045;45.383074;72310;2186107424;-73.992894;45.384737;1;33;34;9492868;Bus 335 : Direction Gare Pincourt T-V et Gare Dorion;"";EXO;335 O;Terminus Mcdonald (taxis);avenue de la Fabrique / École du Papillon-Bleu
474314586;"{\"type\":\"LineString\",\"coordinates\":[[-73.9930469,45.3848774],[-73.9931994,45.3851971],[-73.993211,45.3852313]]}";1;Boulevard Cardinal-Léger;3;50;false;true;true;false;false;false;42.0;1;1;0;0;0;false;72310;2186107424;-73.992894;45.384737;72343;762420309;-73.991601;45.387962;2;34;35;9492868;Bus 335 : Direction Gare Pincourt T-V et Gare Dorion;"";EXO;335 O;Terminus Mcdonald (taxis);avenue de la Fabrique / École du Papillon-Bleu
778719202;"{\"type\":\"LineString\",\"coordinates\":[[-73.993211,45.3852313],[-73.9932203,45.3852847]]}";2;Boulevard Cardinal-Léger;3;50;false;true;true;false;false;false;6.0;0;1;0;0;0;false;72310;2186107424;-73.992894;45.384737;72343;762420309;-73.991601;45.387962;0;34;35;9492868;Bus 335 : Direction Gare Pincourt T-V et Gare Dorion;"";EXO;335 O;Terminus Mcdonald (taxis);avenue de la Fabrique / École du Papillon-Bleu
474314585;"{\"type\":\"LineString\",\"coordinates\":[[-73.9932203,45.3852847],[-73.993233,45.3853707]]}";3;Boulevard Cardinal-Léger;3;50;false;true;true;false;false;false;10.0;0;0;0;0;0;false;72310;2186107424;-73.992894;45.384737;72343;762420309;-73.991601;45.387962;0;34;35;9492868;Bus 335 : Direction Gare Pincourt T-V et Gare Dorion;"";EXO;335 O;Terminus Mcdonald (taxis);avenue de la Fabrique / École du Papillon-Bleu
455057389;"{\"type\":\"LineString\",\"coordinates\":[[-73.993233,45.3853707],[-73.9932486,45.3854562],[-73.9932952,45.3856808],[-73.9933204,45.3858734],[-73.9933425,45.3861117],[-73.9933524,45.386121],[-73.9934289,45.3861925]]}";4;Boulevard Cardinal-Léger;2;50;false;true;true;false;false;false;95.0;1;0;0;0;0;false;72310;2186107424;-73.992894;45.384737;72343;762420309;-73.991601;45.387962;0;34;35;9492868;Bus 335 : Direction Gare Pincourt T-V et Gare Dorion;"";EXO;335 O;Terminus Mcdonald (taxis);avenue de la Fabrique / École du Papillon-Bleu
197189768;"{\"type\":\"LineString\",\"coordinates\":[[-73.9934289,45.3861925],[-73.9934263,45.386256],[-73.9934269,45.3862718],[-73.9934483,45.3866308],[-73.9934515,45.3866975]]}";5;Boulevard Cardinal-Léger;4;50;false;false;true;false;false;false;57.0;2;0;0;0;0;false;72310;2186107424;-73.992894;45.384737;72343;762420309;-73.991601;45.387962;0;34;35;9492868;Bus 335 : Direction Gare Pincourt T-V et Gare Dorion;"";EXO;335 O;Terminus Mcdonald (taxis);avenue de la Fabrique / École du Papillon-Bleu
42321655;"{\"type\":\"LineString\",\"coordinates\":[[-73.9934515,45.3866975],[-73.9934926,45.3866995],[-73.9935338,45.3867047],[-73.9935643,45.3867099],[-73.9936168,45.3867157],[-73.993674,45.3867164],[-73.9940377,45.3866883],[-73.9946634,45.3866302],[-73.995318,45.3865651],[-73.9960164,45.3864958],[-73.9965119,45.3864504],[-73.997705,45.386344]]}";6;"";1;65;false;true;false;false;false;false;336.0;0;0;0;0;0;false;72310;2186107424;-73.992894;45.384737;72343;762420309;-73.991601;45.387962;0;34;35;9492868;Bus 335 : Direction Gare Pincourt T-V et Gare Dorion;"";EXO;335 O;Terminus Mcdonald (taxis);avenue de la Fabrique / École du Papillon-Bleu
197189777;"{\"type\":\"LineString\",\"coordinates\":[[-73.9926939,45.3867474],[-73.9932091,45.386713],[-73.9933267,45.3867051],[-73.9934515,45.3866975]]}";7;3e Avenue;3;50;false;false;true;false;false;false;60.0;1;0;0;0;0;false;72310;2186107424;-73.992894;45.384737;72343;762420309;-73.991601;45.387962;0;34;35;9492868;Bus 335 : Direction Gare Pincourt T-V et Gare Dorion;"";EXO;335 O;Terminus Mcdonald (taxis);avenue de la Fabrique / École du Papillon-Bleu
47459936;"{\"type\":\"LineString\",\"coordinates\":[[-73.9926939,45.3867474],[-73.9922407,45.3867508],[-73.9919818,45.3867457],[-73.991752,45.3867355],[-73.9916697,45.3867362],[-73.9915939,45.3867436],[-73.9915129,45.3867651],[-73.991459,45.386788],[-73.9914195,45.3868116],[-73.9913848,45.3868362]]}";8;3e Avenue;1;50;false;true;true;false;false;false;106.0;1;0;0;0;0;false;72310;2186107424;-73.992894;45.384737;72343;762420309;-73.991601;45.387962;0;34;35;9492868;Bus 335 : Direction Gare Pincourt T-V et Gare Dorion;"";EXO;335 O;Terminus Mcdonald (taxis);avenue de la Fabrique / École du Papillon-Bleu
533369993;"{\"type\":\"LineString\",\"coordinates\":[[-73.9917352,45.3868278],[-73.9919139,45.3868205],[-73.9920231,45.3868167],[-73.9922753,45.3868052],[-73.992436,45.3867911],[-73.9926939,45.3867474]]}";9;3e Avenue;2;50;false;true;true;false;false;false;76.0;0;0;0;0;0;false;72310;2186107424;-73.992894;45.384737;72343;762420309;-73.991601;45.387962;0;34;35;9492868;Bus 335 : Direction Gare Pincourt T-V et Gare Dorion;"";EXO;335 O;Terminus Mcdonald (taxis);avenue de la Fabrique / École du Papillon-Bleu
42321743;"{\"type\":\"LineString\",\"coordinates\":[[-73.9913541,45.3870087],[-73.9914443,45.3869304],[-73.991482,45.3869057],[-73.9915345,45.3868805],[-73.9915688,45.386869],[-73.9917352,45.3868278]]}";10;3e Avenue;1;50;false;true;true;false;false;false;37.0;0;0;0;0;0;false;72310;2186107424;-73.992894;45.384737;72343;762420309;-73.991601;45.387962;0;34;35;9492868;Bus 335 : Direction Gare Pincourt T-V et Gare Dorion;"";EXO;335 O;Terminus Mcdonald (taxis);avenue de la Fabrique / École du Papillon-Bleu
533369994;"{\"type\":\"LineString\",\"coordinates\":[[-73.9913848,45.3868362],[-73.9913645,45.3868696],[-73.991356,45.3869016],[-73.9913547,45.3869336],[-73.9913553,45.386968],[-73.9913541,45.3870087]]}";11;3e Avenue;1;50;false;true;true;false;false;false;20.0;0;0;0;0;0;false;72310;2186107424;-73.992894;45.384737;72343;762420309;-73.991601;45.387962;0;34;35;9492868;Bus 335 : Direction Gare Pincourt T-V et Gare Dorion;"";EXO;335 O;Terminus Mcdonald (taxis);avenue de la Fabrique / École du Papillon-Bleu
196778897;"{\"type\":\"LineString\",\"coordinates\":[[-73.9913541,45.3870087],[-73.9913393,45.3870266],[-73.9913123,45.3870664],[-73.9912469,45.3871513],[-73.9911904,45.387229],[-73.9911641,45.3872691],[-73.9910918,45.3873722],[-73.9910477,45.3874443],[-73.9910218,45.3874881],[-73.9910003,45.3875293],[-73.9909855,45.3875641]]}";12;3e Avenue;2;40;false;false;true;false;false;false;69.0;0;0;0;0;0;false;72310;2186107424;-73.992894;45.384737;72343;762420309;-73.991601;45.387962;0;34;35;9492868;Bus 335 : Direction Gare Pincourt T-V et Gare Dorion;"";EXO;335 O;Terminus Mcdonald (taxis);avenue de la Fabrique / École du Papillon-Bleu
509079301;"{\"type\":\"LineString\",\"coordinates\":[[-73.9909855,45.3875641],[-73.9909784,45.3875833],[-73.9909714,45.3876114],[-73.9909745,45.3876525],[-73.9909919,45.3877114],[-73.9910088,45.3877542]]}";13;3e Avenue;2;40;false;false;true;false;false;false;22.0;0;1;0;0;0;false;72310;2186107424;-73.992894;45.384737;72343;762420309;-73.991601;45.387962;0;34;35;9492868;Bus 335 : Direction Gare Pincourt T-V et Gare Dorion;"";EXO;335 O;Terminus Mcdonald (taxis);avenue de la Fabrique / École du Papillon-Bleu
770904518;"{\"type\":\"LineString\",\"coordinates\":[[-73.9913272,45.3877239],[-73.9912802,45.3877203],[-73.9912332,45.3877217],[-73.9911904,45.3877274],[-73.9911541,45.3877322],[-73.9911043,45.3877382],[-73.9910088,45.3877542]]}";14;"";1;50;false;true;true;false;true;false;26.0;0;1;1;0;0;false;72310;2186107424;-73.992894;45.384737;72343;762420309;-73.991601;45.387962;0;34;35;9492868;Bus 335 : Direction Gare Pincourt T-V et Gare Dorion;"";EXO;335 O;Terminus Mcdonald (taxis);avenue de la Fabrique / École du Papillon-Bleu
682480330;"{\"type\":\"LineString\",\"coordinates\":[[-73.9910088,45.3877542],[-73.9910322,45.3877989],[-73.9910561,45.3878377],[-73.9911004,45.3878955],[-73.9911759,45.3879816],[-73.9912304,45.3880352],[-73.9912962,45.3880976],[-73.991466,45.3882409]]}";15;3e Avenue;2;40;false;false;true;false;false;false;66.0;0;0;0;0;0;false;72310;2186107424;-73.992894;45.384737;72343;762420309;-73.991601;45.387962;0;34;35;9492868;Bus 335 : Direction Gare Pincourt T-V et Gare Dorion;"";EXO;335 O;Terminus Mcdonald (taxis);avenue de la Fabrique / École du Papillon-Bleu
682480328;"{\"type\":\"LineString\",\"coordinates\":[[-73.9916502,45.3881771],[-73.991562,45.3882076],[-73.9915413,45.3882148],[-73.9915011,45.3882287],[-73.991466,45.3882409]]}";16;4e Boulevard;2;40;false;false;true;false;false;false;17.0;0;1;1;0;0;false;72310;2186107424;-73.992894;45.384737;72343;762420309;-73.991601;45.387962;0;34;35;9492868;Bus 335 : Direction Gare Pincourt T-V et Gare Dorion;"";EXO;335 O;Terminus Mcdonald (taxis);avenue de la Fabrique / École du Papillon-Bleu
682480346;"{\"type\":\"LineString\",\"coordinates\":[[-73.9916502,45.3881771],[-73.9915401,45.3880164],[-73.9914876,45.3879399]]}";17;"";1;50;false;true;true;false;true;false;30.0;0;0;0;0;0;false;72310;2186107424;-73.992894;45.384737;72343;762420309;-73.991601;45.387962;2;34;35;9492868;Bus 335 : Direction Gare Pincourt T-V et Gare Dorion;"";EXO;335 O;Terminus Mcdonald (taxis);avenue de la Fabrique / École du Papillon-Bleu
110304436;"{\"type\":\"LineString\",\"coordinates\":[[-73.9914876,45.3879399],[-73.9914213,45.3878465],[-73.9913996,45.3877985],[-73.9913895,45.3877646],[-73.9913857,45.3877337]]}";1;"";1;50;false;true;true;false;true;false;25.0;0;0;0;0;0;false;72343;762420309;-73.991601;45.387962;72917;6133272240;-74.01226;45.383959;2;35;36;9492868;Bus 335 : Direction Gare Pincourt T-V et Gare Dorion;"";EXO;335 O;Terminus Mcdonald (taxis);avenue de la Fabrique / École du Papillon-Bleu
682480346;"{\"type\":\"LineString\",\"coordinates\":[[-73.9916502,45.3881771],[-73.9915401,45.3880164],[-73.9914876,45.3879399]]}";2;"";1;50;false;true;true;false;true;false;30.0;0;0;0;0;0;false;72343;762420309;-73.991601;45.387962;72917;6133272240;-74.01226;45.383959;0;35;36;9492868;Bus 335 : Direction Gare Pincourt T-V et Gare Dorion;"";EXO;335 O;Terminus Mcdonald (taxis);avenue de la Fabrique / École du Papillon-Bleu
682480328;"{\"type\":\"LineString\",\"coordinates\":[[-73.9916502,45.3881771],[-73.991562,45.3882076],[-73.9915413,45.3882148],[-73.9915011,45.3882287],[-73.991466,45.3882409]]}";3;4e Boulevard;2;40;false;false;true;false;false;false;17.0;0;1;1;0;0;false;72343;762420309;-73.991601;45.387962;72917;6133272240;-74.01226;45.383959;0;35;36;9492868;Bus 335 : Direction Gare Pincourt T-V et Gare Dorion;"";EXO;335 O;Terminus Mcdonald (taxis);avenue de la Fabrique / École du Papillon-Bleu
682480330;"{\"type\":\"LineString\",\"coordinates\":[[-73.9910088,45.3877542],[-73.9910322,45.3877989],[-73.9910561,45.3878377],[-73.9911004,45.3878955],[-73.9911759,45.3879816],[-73.9912304,45.3880352],[-73.9912962,45.3880976],[-73.991466,45.3882409]]}";4;3e Avenue;2;40;false;false;true;false;false;false;66.0;0;0;0;0;0;false;72343;762420309;-73.991601;45.387962;72917;6133272240;-74.01226;45.383959;0;35;36;9492868;Bus 335 : Direction Gare Pincourt T-V et Gare Dorion;"";EXO;335 O;Terminus Mcdonald (taxis);avenue de la Fabrique / École du Papillon-Bleu
770904518;"{\"type\":\"LineString\",\"coordinates\":[[-73.9913272,45.3877239],[-73.9912802,45.3877203],[-73.9912332,45.3877217],[-73.9911904,45.3877274],[-73.9911541,45.3877322],[-73.9911043,45.3877382],[-73.9910088,45.3877542]]}";5;"";1;50;false;true;true;false;true;false;26.0;0;1;1;0;0;false;72343;762420309;-73.991601;45.387962;72917;6133272240;-74.01226;45.383959;0;35;36;9492868;Bus 335 : Direction Gare Pincourt T-V et Gare Dorion;"";EXO;335 O;Terminus Mcdonald (taxis);avenue de la Fabrique / École du Papillon-Bleu
509079301;"{\"type\":\"LineString\",\"coordinates\":[[-73.9909855,45.3875641],[-73.9909784,45.3875833],[-73.9909714,45.3876114],[-73.9909745,45.3876525],[-73.9909919,45.3877114],[-73.9910088,45.3877542]]}";6;3e Avenue;2;40;false;false;true;false;false;false;22.0;0;1;0;0;0;false;72343;762420309;-73.991601;45.387962;72917;6133272240;-74.01226;45.383959;0;35;36;9492868;Bus 335 : Direction Gare Pincourt T-V et Gare Dorion;"";EXO;335 O;Terminus Mcdonald (taxis);avenue de la Fabrique / École du Papillon-Bleu
196778897;"{\"type\":\"LineString\",\"coordinates\":[[-73.9913541,45.3870087],[-73.9913393,45.3870266],[-73.9913123,45.3870664],[-73.9912469,45.3871513],[-73.9911904,45.387229],[-73.9911641,45.3872691],[-73.9910918,45.3873722],[-73.9910477,45.3874443],[-73.9910218,45.3874881],[-73.9910003,45.3875293],[-73.9909855,45.3875641]]}";7;3e Avenue;2;40;false;false;true;false;false;false;69.0;0;0;0;0;0;false;72343;762420309;-73.991601;45.387962;72917;6133272240;-74.01226;45.383959;0;35;36;9492868;Bus 335 : Direction Gare Pincourt T-V et Gare Dorion;"";EXO;335 O;Terminus Mcdonald (taxis);avenue de la Fabrique / École du Papillon-Bleu
533369994;"{\"type\":\"LineString\",\"coordinates\":[[-73.9913848,45.3868362],[-73.9913645,45.3868696],[-73.991356,45.3869016],[-73.9913547,45.3869336],[-73.9913553,45.386968],[-73.9913541,45.3870087]]}";8;3e Avenue;1;50;false;true;true;false;false;false;20.0;0;0;0;0;0;false;72343;762420309;-73.991601;45.387962;72917;6133272240;-74.01226;45.383959;0;35;36;9492868;Bus 335 : Direction Gare Pincourt T-V et Gare Dorion;"";EXO;335 O;Terminus Mcdonald (taxis);avenue de la Fabrique / École du Papillon-Bleu
47459936;"{\"type\":\"LineString\",\"coordinates\":[[-73.9926939,45.3867474],[-73.9922407,45.3867508],[-73.9919818,45.3867457],[-73.991752,45.3867355],[-73.9916697,45.3867362],[-73.9915939,45.3867436],[-73.9915129,45.3867651],[-73.991459,45.386788],[-73.9914195,45.3868116],[-73.9913848,45.3868362]]}";9;3e Avenue;1;50;false;true;true;false;false;false;106.0;1;0;0;0;0;false;72343;762420309;-73.991601;45.387962;72917;6133272240;-74.01226;45.383959;0;35;36;9492868;Bus 335 : Direction Gare Pincourt T-V et Gare Dorion;"";EXO;335 O;Terminus Mcdonald (taxis);avenue de la Fabrique / École du Papillon-Bleu
197189777;"{\"type\":\"LineString\",\"coordinates\":[[-73.9926939,45.3867474],[-73.9932091,45.386713],[-73.9933267,45.3867051],[-73.9934515,45.3866975]]}";10;3e Avenue;3;50;false;false;true;false;false;false;60.0;1;0;0;0;0;false;72343;762420309;-73.991601;45.387962;72917;6133272240;-74.01226;45.383959;0;35;36;9492868;Bus 335 : Direction Gare Pincourt T-V et Gare Dorion;"";EXO;335 O;Terminus Mcdonald (taxis);avenue de la Fabrique / École du Papillon-Bleu
197189768;"{\"type\":\"LineString\",\"coordinates\":[[-73.9934289,45.3861925],[-73.9934263,45.386256],[-73.9934269,45.3862718],[-73.9934483,45.3866308],[-73.9934515,45.3866975]]}";11;Boulevard Cardinal-Léger;4;50;false;false;true;false;false;false;57.0;2;0;0;0;0;false;72343;762420309;-73.991601;45.387962;72917;6133272240;-74.01226;45.383959;0;35;36;9492868;Bus 335 : Direction Gare Pincourt T-V et Gare Dorion;"";EXO;335 O;Terminus Mcdonald (taxis);avenue de la Fabrique / École du Papillon-Bleu
42321655;"{\"type\":\"LineString\",\"coordinates\":[[-73.9934515,45.3866975],[-73.9934926,45.3866995],[-73.9935338,45.3867047],[-73.9935643,45.3867099],[-73.9936168,45.3867157],[-73.993674,45.3867164],[-73.9940377,45.3866883],[-73.9946634,45.3866302],[-73.995318,45.3865651],[-73.9960164,45.3864958],[-73.9965119,45.3864504],[-73.997705,45.386344]]}";12;"";1;65;false;true;false;false;false;false;336.0;0;0;0;0;0;false;72343;762420309;-73.991601;45.387962;72917;6133272240;-74.01226;45.383959;0;35;36;9492868;Bus 335 : Direction Gare Pincourt T-V et Gare Dorion;"";EXO;335 O;Terminus Mcdonald (taxis);avenue de la Fabrique / École du Papillon-Bleu
683402661;"{\"type\":\"LineString\",\"coordinates\":[[-73.997705,45.386344],[-73.9987026,45.3862973]]}";13;Autoroute du Souvenir;2;70;false;true;false;false;false;false;79.0;0;0;0;0;0;false;72343;762420309;-73.991601;45.387962;72917;6133272240;-74.01226;45.383959;0;35;36;9492868;Bus 335 : Direction Gare Pincourt T-V et Gare Dorion;"";EXO;335 O;Terminus Mcdonald (taxis);avenue de la Fabrique / École du Papillon-Bleu
197189776;"{\"type\":\"LineString\",\"coordinates\":[[-73.9987026,45.3862973],[-74.0041338,45.3860654]]}";14;Autoroute du Souvenir;2;70;false;true;false;false;false;false;426.0;0;0;0;0;0;false;72343;762420309;-73.991601;45.387962;72917;6133272240;-74.01226;45.383959;0;35;36;9492868;Bus 335 : Direction Gare Pincourt T-V et Gare Dorion;"";EXO;335 O;Terminus Mcdonald (taxis);avenue de la Fabrique / École du Papillon-Bleu
409634190;"{\"type\":\"LineString\",\"coordinates\":[[-74.0041338,45.3860654],[-74.0050458,45.386048],[-74.0053713,45.3860237],[-74.0056104,45.3859942],[-74.0058058,45.385968],[-74.0061714,45.3858851]]}";15;Boulevard Harwood;2;50;false;true;false;false;false;false;162.0;0;0;0;0;0;false;72343;762420309;-73.991601;45.387962;72917;6133272240;-74.01226;45.383959;0;35;36;9492868;Bus 335 : Direction Gare Pincourt T-V et Gare Dorion;"";EXO;335 O;Terminus Mcdonald (taxis);avenue de la Fabrique / École du Papillon-Bleu
365007693;"{\"type\":\"LineString\",\"coordinates\":[[-74.0061714,45.3858851],[-74.006506,45.3857873],[-74.0070074,45.3856083]]}";16;Boulevard Harwood;3;50;false;true;true;false;false;false;73.0;0;0;0;0;0;false;72343;762420309;-73.991601;45.387962;72917;6133272240;-74.01226;45.383959;0;35;36;9492868;Bus 335 : Direction Gare Pincourt T-V et Gare Dorion;"";EXO;335 O;Terminus Mcdonald (taxis);avenue de la Fabrique / École du Papillon-Bleu
502873321;"{\"type\":\"LineString\",\"coordinates\":[[-74.0070074,45.3856083],[-74.0074587,45.3853984],[-74.0077212,45.3852571]]}";17;Boulevard Harwood;4;50;false;true;true;false;false;false;69.0;0;0;0;0;0;false;72343;762420309;-73.991601;45.387962;72917;6133272240;-74.01226;45.383959;0;35;36;9492868;Bus 335 : Direction Gare Pincourt T-V et Gare Dorion;"";EXO;335 O;Terminus Mcdonald (taxis);avenue de la Fabrique / École du Papillon-Bleu
517292777;"{\"type\":\"LineString\",\"coordinates\":[[-74.0077212,45.3852571],[-74.0083817,45.3849069]]}";18;Boulevard Harwood;4;50;false;true;true;false;false;false;65.0;0;0;0;0;0;false;72343;762420309;-73.991601;45.387962;72917;6133272240;-74.01226;45.383959;0;35;36;9492868;Bus 335 : Direction Gare Pincourt T-V et Gare Dorion;"";EXO;335 O;Terminus Mcdonald (taxis);avenue de la Fabrique / École du Papillon-Bleu
365007726;"{\"type\":\"LineString\",\"coordinates\":[[-74.0083817,45.3849069],[-74.0091028,45.3845246]]}";19;Boulevard Harwood;4;50;false;true;true;false;false;false;71.0;1;0;0;0;0;false;72343;762420309;-73.991601;45.387962;72917;6133272240;-74.01226;45.383959;0;35;36;9492868;Bus 335 : Direction Gare Pincourt T-V et Gare Dorion;"";EXO;335 O;Terminus Mcdonald (taxis);avenue de la Fabrique / École du Papillon-Bleu
220538044;"{\"type\":\"LineString\",\"coordinates\":[[-74.0091028,45.3845246],[-74.0097784,45.384176]]}";20;Boulevard Harwood;2;50;false;true;true;false;false;false;66.0;2;0;0;0;0;false;72343;762420309;-73.991601;45.387962;72917;6133272240;-74.01226;45.383959;0;35;36;9492868;Bus 335 : Direction Gare Pincourt T-V et Gare Dorion;"";EXO;335 O;Terminus Mcdonald (taxis);avenue de la Fabrique / École du Papillon-Bleu
452011809;"{\"type\":\"LineString\",\"coordinates\":[[-74.0097784,45.384176],[-74.0103055,45.3839103]]}";21;Boulevard Harwood;2;50;false;true;true;false;false;false;51.0;1;0;0;0;0;false;72343;762420309;-73.991601;45.387962;72917;6133272240;-74.01226;45.383959;0;35;36;9492868;Bus 335 : Direction Gare Pincourt T-V et Gare Dorion;"";EXO;335 O;Terminus Mcdonald (taxis);avenue de la Fabrique / École du Papillon-Bleu
682297501;"{\"type\":\"LineString\",\"coordinates\":[[-74.0103055,45.3839103],[-74.0107969,45.3836519]]}";22;Boulevard Harwood;2;50;false;true;true;false;false;false;48.0;1;0;0;0;0;false;72343;762420309;-73.991601;45.387962;72917;6133272240;-74.01226;45.383959;0;35;36;9492868;Bus 335 : Direction Gare Pincourt T-V et Gare Dorion;"";EXO;335 O;Terminus Mcdonald (taxis);avenue de la Fabrique / École du Papillon-Bleu
44334288;"{\"type\":\"LineString\",\"coordinates\":[[-74.0107969,45.3836519],[-74.0111361,45.3839185],[-74.0113048,45.3841017],[-74.0113721,45.3841747],[-74.0114196,45.3842297],[-74.0115049,45.3842759],[-74.0115779,45.3842985],[-74.0116941,45.384318],[-74.01182,45.3843025],[-74.0119379,45.3842705],[-74.0123549,45.384015]]}";23;Avenue de la Fabrique;2;50;false;false;true;false;false;false;168.0;1;0;0;0;0;false;72343;762420309;-73.991601;45.387962;72917;6133272240;-74.01226;45.383959;1;35;36;9492868;Bus 335 : Direction Gare Pincourt T-V et Gare Dorion;"";EXO;335 O;Terminus Mcdonald (taxis);avenue de la Fabrique / École du Papillon-Bleu
