way_id;shape;index;name;nb_lanes;legal_speed;speed_zone_30;oneway;shares_bike;bike_box;bus_lane;dedicated_bus_lane;length;nb_traffic_signals;nb_crossings;nb_stops;nb_give_ways;nb_lvl_crossings;roundabout;stop_id_orig;node_id_orig;coord_x_orig;coord_y_orig;stop_id_dest;node_id_dest;coord_x_dest;coord_y_dest;nb_neighbouring_ways_bus_stop;ordre_orig;ordre_dest;id_line;line_name;colour;operator;ref;from;to
573205707;"{\"type\":\"LineString\",\"coordinates\":[[-73.5166644,45.393351],[-73.5169161,45.3933324],[-73.5170041,45.3933282],[-73.5171998,45.3933179],[-73.5172392,45.3933119],[-73.5172645,45.3933059],[-73.5172914,45.3932977],[-73.5173378,45.393281]]}";1;"";1;50;false;true;true;false;true;false;54.0;0;1;1;0;0;false;75642;6133322653;-73.516834;45.393405;75258;6133323064;-73.508104;45.370396;1;0;1;9506675;Bus 11 : Service PM;"";EXO;11 PM;Stationnement incitatif Candiac;boul. Édouard-VII / montée Monette
685125000;"{\"type\":\"LineString\",\"coordinates\":[[-73.5173378,45.393281],[-73.5172646,45.3931798],[-73.5171372,45.3930185]]}";2;Boulevard Montcalm Nord;2;50;false;false;true;false;false;false;34.0;0;0;0;0;0;false;75642;6133322653;-73.516834;45.393405;75258;6133323064;-73.508104;45.370396;0;0;1;9506675;Bus 11 : Service PM;"";EXO;11 PM;Stationnement incitatif Candiac;boul. Édouard-VII / montée Monette
685125003;"{\"type\":\"LineString\",\"coordinates\":[[-73.5171372,45.3930185],[-73.5170727,45.3929397],[-73.517012,45.3928653]]}";3;Boulevard Montcalm Nord;2;50;false;false;true;false;false;false;20.0;0;1;0;0;0;false;75642;6133322653;-73.516834;45.393405;75258;6133323064;-73.508104;45.370396;0;0;1;9506675;Bus 11 : Service PM;"";EXO;11 PM;Stationnement incitatif Candiac;boul. Édouard-VII / montée Monette
798090940;"{\"type\":\"LineString\",\"coordinates\":[[-73.517012,45.3928653],[-73.5169504,45.3927919]]}";4;Boulevard Montcalm Nord;2;50;false;false;true;false;false;false;10.0;0;0;0;0;0;false;75642;6133322653;-73.516834;45.393405;75258;6133323064;-73.508104;45.370396;0;0;1;9506675;Bus 11 : Service PM;"";EXO;11 PM;Stationnement incitatif Candiac;boul. Édouard-VII / montée Monette
25654340;"{\"type\":\"LineString\",\"coordinates\":[[-73.5169504,45.3927919],[-73.516797,45.392551]]}";5;Boulevard Montcalm Nord;1;50;false;true;true;false;false;false;30.0;0;0;0;0;0;false;75642;6133322653;-73.516834;45.393405;75258;6133323064;-73.508104;45.370396;0;0;1;9506675;Bus 11 : Service PM;"";EXO;11 PM;Stationnement incitatif Candiac;boul. Édouard-VII / montée Monette
798085661;"{\"type\":\"LineString\",\"coordinates\":[[-73.516797,45.392551],[-73.5166571,45.3924334],[-73.5166434,45.3924191],[-73.5166175,45.392392]]}";6;Boulevard Montcalm Nord;2;50;false;true;true;false;false;false;23.0;1;1;0;0;0;false;75642;6133322653;-73.516834;45.393405;75258;6133323064;-73.508104;45.370396;0;0;1;9506675;Bus 11 : Service PM;"";EXO;11 PM;Stationnement incitatif Candiac;boul. Édouard-VII / montée Monette
798085663;"{\"type\":\"LineString\",\"coordinates\":[[-73.5166175,45.392392],[-73.5165695,45.3923404]]}";7;Boulevard Montcalm Nord;2;50;false;true;true;false;false;false;7.0;0;0;0;0;0;false;75642;6133322653;-73.516834;45.393405;75258;6133323064;-73.508104;45.370396;0;0;1;9506675;Bus 11 : Service PM;"";EXO;11 PM;Stationnement incitatif Candiac;boul. Édouard-VII / montée Monette
798085655;"{\"type\":\"LineString\",\"coordinates\":[[-73.5165695,45.3923404],[-73.5165253,45.3922991],[-73.5163618,45.3921839],[-73.5162625,45.3921243],[-73.5161804,45.3920793],[-73.5160667,45.3920217]]}";8;Boulevard Montcalm Nord;1;50;false;true;true;false;false;false;54.0;0;0;0;0;0;false;75642;6133322653;-73.516834;45.393405;75258;6133323064;-73.508104;45.370396;0;0;1;9506675;Bus 11 : Service PM;"";EXO;11 PM;Stationnement incitatif Candiac;boul. Édouard-VII / montée Monette
222469860;"{\"type\":\"LineString\",\"coordinates\":[[-73.5160667,45.3920217],[-73.5157023,45.3918583],[-73.5156789,45.3918481],[-73.5156097,45.3918183]]}";9;Boulevard Montcalm Nord;2;50;false;true;true;false;false;false;43.0;1;1;0;0;0;false;75642;6133322653;-73.516834;45.393405;75258;6133323064;-73.508104;45.370396;0;0;1;9506675;Bus 11 : Service PM;"";EXO;11 PM;Stationnement incitatif Candiac;boul. Édouard-VII / montée Monette
798090943;"{\"type\":\"LineString\",\"coordinates\":[[-73.5156097,45.3918183],[-73.5155334,45.3917878]]}";10;Boulevard Montcalm Nord;2;50;false;true;true;false;false;false;7.0;0;0;0;0;0;false;75642;6133322653;-73.516834;45.393405;75258;6133323064;-73.508104;45.370396;0;0;1;9506675;Bus 11 : Service PM;"";EXO;11 PM;Stationnement incitatif Candiac;boul. Édouard-VII / montée Monette
340489004;"{\"type\":\"LineString\",\"coordinates\":[[-73.5155334,45.3917878],[-73.5154548,45.3917554],[-73.5153116,45.3916882],[-73.5148603,45.3914812],[-73.51477,45.3914386],[-73.5146844,45.3913956],[-73.5146689,45.3913876],[-73.5146076,45.3913557]]}";11;Boulevard Montcalm Nord;2;50;false;true;true;false;false;false;87.0;0;2;0;0;0;false;75642;6133322653;-73.516834;45.393405;75258;6133323064;-73.508104;45.370396;0;0;1;9506675;Bus 11 : Service PM;"";EXO;11 PM;Stationnement incitatif Candiac;boul. Édouard-VII / montée Monette
685444582;"{\"type\":\"LineString\",\"coordinates\":[[-73.5146076,45.3913557],[-73.5144957,45.3912961]]}";12;Boulevard Montcalm Sud;2;50;false;true;true;false;false;false;11.0;0;0;0;0;0;false;75642;6133322653;-73.516834;45.393405;75258;6133323064;-73.508104;45.370396;0;0;1;9506675;Bus 11 : Service PM;"";EXO;11 PM;Stationnement incitatif Candiac;boul. Édouard-VII / montée Monette
25654339;"{\"type\":\"LineString\",\"coordinates\":[[-73.5144957,45.3912961],[-73.5144537,45.3912729],[-73.5141653,45.3911131],[-73.5135425,45.3907189],[-73.5135078,45.3906969]]}";13;Boulevard Montcalm Sud;2;50;false;true;true;false;false;false;103.0;0;2;0;0;0;false;75642;6133322653;-73.516834;45.393405;75258;6133323064;-73.508104;45.370396;0;0;1;9506675;Bus 11 : Service PM;"";EXO;11 PM;Stationnement incitatif Candiac;boul. Édouard-VII / montée Monette
801794029;"{\"type\":\"LineString\",\"coordinates\":[[-73.5135078,45.3906969],[-73.5134407,45.3906542],[-73.5130242,45.3903662],[-73.5125859,45.3901456]]}";14;Boulevard Montcalm Sud;1;50;false;true;true;false;false;false;95.0;0;2;0;0;0;false;75642;6133322653;-73.516834;45.393405;75258;6133323064;-73.508104;45.370396;0;0;1;9506675;Bus 11 : Service PM;"";EXO;11 PM;Stationnement incitatif Candiac;boul. Édouard-VII / montée Monette
801794021;"{\"type\":\"LineString\",\"coordinates\":[[-73.5125859,45.3901456],[-73.5125052,45.390105]]}";15;Boulevard Montcalm Sud;1;50;false;true;true;false;false;false;8.0;0;1;0;0;0;false;75642;6133322653;-73.516834;45.393405;75258;6133323064;-73.508104;45.370396;0;0;1;9506675;Bus 11 : Service PM;"";EXO;11 PM;Stationnement incitatif Candiac;boul. Édouard-VII / montée Monette
685302118;"{\"type\":\"LineString\",\"coordinates\":[[-73.5125052,45.390105],[-73.5117329,45.389716],[-73.5116203,45.3896593],[-73.5115304,45.3896138],[-73.511397,45.3895463],[-73.5077942,45.3877278],[-73.5076771,45.3876779]]}";16;Boulevard Montcalm Sud;2;50;false;false;false;false;false;false;465.0;0;0;3;0;0;false;75642;6133322653;-73.516834;45.393405;75258;6133323064;-73.508104;45.370396;0;0;1;9506675;Bus 11 : Service PM;"";EXO;11 PM;Stationnement incitatif Candiac;boul. Édouard-VII / montée Monette
10319425;"{\"type\":\"LineString\",\"coordinates\":[[-73.5076771,45.3876779],[-73.5076158,45.3876518]]}";17;Boulevard Montcalm Sud;2;30;false;false;false;false;false;false;6.0;0;1;0;0;0;false;75642;6133322653;-73.516834;45.393405;75258;6133323064;-73.508104;45.370396;0;0;1;9506675;Bus 11 : Service PM;"";EXO;11 PM;Stationnement incitatif Candiac;boul. Édouard-VII / montée Monette
785384118;"{\"type\":\"LineString\",\"coordinates\":[[-73.5076158,45.3876518],[-73.507592,45.3876398],[-73.5075638,45.387626],[-73.5073142,45.3875024],[-73.5072261,45.3874563],[-73.507162,45.3874183],[-73.507102,45.3873741],[-73.5070578,45.3873391],[-73.5070099,45.3873004],[-73.5069791,45.3872731],[-73.506962,45.3872579],[-73.5069302,45.3872281],[-73.5069079,45.3872029],[-73.5068903,45.3871788],[-73.5068621,45.3871356],[-73.5068264,45.3870805],[-73.5067987,45.3870376],[-73.5067641,45.386976],[-73.506731,45.3869125],[-73.5066962,45.386841],[-73.5066569,45.3867526],[-73.5066306,45.3866859],[-73.5066028,45.386612],[-73.5065715,45.3865279],[-73.5065386,45.386433],[-73.5064999,45.3863244],[-73.5064626,45.3862128],[-73.5064265,45.3860996],[-73.5063911,45.3859872],[-73.506341,45.3858146],[-73.5062802,45.3855984],[-73.5062694,45.3855525],[-73.5062489,45.3854715],[-73.5062243,45.3853728],[-73.5061997,45.3852554],[-73.506172,45.3851036]]}";18;Boulevard Montcalm Sud;2;30;false;false;false;false;false;false;317.0;0;4;1;0;0;false;75642;6133322653;-73.516834;45.393405;75258;6133323064;-73.508104;45.370396;0;0;1;9506675;Bus 11 : Service PM;"";EXO;11 PM;Stationnement incitatif Candiac;boul. Édouard-VII / montée Monette
785384120;"{\"type\":\"LineString\",\"coordinates\":[[-73.506172,45.3851036],[-73.5061256,45.3847942],[-73.5061228,45.3847717],[-73.5061148,45.3847072],[-73.5061075,45.3846313],[-73.5060979,45.3845211],[-73.5060837,45.3843756],[-73.506077,45.3842362],[-73.5060743,45.3841118],[-73.5060783,45.3839481],[-73.5060793,45.3838586],[-73.5060783,45.3837473],[-73.5060773,45.3836158],[-73.5060779,45.3834586],[-73.5060797,45.3832975],[-73.5060854,45.3832066],[-73.5060917,45.3831183],[-73.506101,45.3830325],[-73.5061198,45.3829216],[-73.5061516,45.3827644],[-73.5061552,45.3827386],[-73.5061678,45.3826841],[-73.5061762,45.3826524],[-73.506188,45.3826162],[-73.5062067,45.3825715],[-73.5062499,45.3824769],[-73.5063174,45.3823387],[-73.5063731,45.3822438],[-73.5064279,45.3821563],[-73.5064933,45.3820623],[-73.5065744,45.3819602],[-73.5066641,45.3818555],[-73.5072812,45.3811786],[-73.5076876,45.3807427],[-73.5077209,45.3807082],[-73.5077753,45.3806522]]}";19;Boulevard Montcalm Sud;2;40;false;false;true;false;false;false;530.0;0;3;5;0;0;false;75642;6133322653;-73.516834;45.393405;75258;6133323064;-73.508104;45.370396;0;0;1;9506675;Bus 11 : Service PM;"";EXO;11 PM;Stationnement incitatif Candiac;boul. Édouard-VII / montée Monette
340489006;"{\"type\":\"LineString\",\"coordinates\":[[-73.5077753,45.3806522],[-73.507686,45.3806148],[-73.5076415,45.3805956],[-73.5073732,45.3804731],[-73.5069038,45.3802588],[-73.5052075,45.3794931],[-73.5051792,45.3794792]]}";20;Boulevard Jean-Leman;2;50;false;false;true;false;false;false;242.0;0;1;1;0;0;false;75642;6133322653;-73.516834;45.393405;75258;6133323064;-73.508104;45.370396;0;0;1;9506675;Bus 11 : Service PM;"";EXO;11 PM;Stationnement incitatif Candiac;boul. Édouard-VII / montée Monette
685305038;"{\"type\":\"LineString\",\"coordinates\":[[-73.5051792,45.3794792],[-73.5050159,45.3793613],[-73.5049252,45.3793007],[-73.5047937,45.3792084],[-73.504693,45.379127],[-73.5046238,45.3790627],[-73.5045322,45.3789744],[-73.5044946,45.378936],[-73.5044496,45.3788897],[-73.5043979,45.3788316]]}";21;Boulevard Jean-Leman;1;50;false;true;true;false;false;false;95.0;0;0;0;0;0;false;75642;6133322653;-73.516834;45.393405;75258;6133323064;-73.508104;45.370396;0;0;1;9506675;Bus 11 : Service PM;"";EXO;11 PM;Stationnement incitatif Candiac;boul. Édouard-VII / montée Monette
784454113;"{\"type\":\"LineString\",\"coordinates\":[[-73.5043979,45.3788316],[-73.5043427,45.3787599],[-73.5042306,45.3785982],[-73.5041828,45.378511]]}";22;Boulevard Jean-Leman;2;50;false;true;true;false;false;false;40.0;0;0;1;0;0;false;75642;6133322653;-73.516834;45.393405;75258;6133323064;-73.508104;45.370396;0;0;1;9506675;Bus 11 : Service PM;"";EXO;11 PM;Stationnement incitatif Candiac;boul. Édouard-VII / montée Monette
685305033;"{\"type\":\"LineString\",\"coordinates\":[[-73.5041828,45.378511],[-73.5041541,45.3784485],[-73.5041462,45.3784312],[-73.5041354,45.3784077],[-73.5040705,45.3782247],[-73.504038,45.3781066],[-73.5040127,45.3779879],[-73.5039829,45.3778098],[-73.5039603,45.3775709]]}";23;Boulevard Jean-Leman;1;30;false;true;true;false;false;false;107.0;0;2;0;0;0;false;75642;6133322653;-73.516834;45.393405;75258;6133323064;-73.508104;45.370396;0;0;1;9506675;Bus 11 : Service PM;"";EXO;11 PM;Stationnement incitatif Candiac;boul. Édouard-VII / montée Monette
784454177;"{\"type\":\"LineString\",\"coordinates\":[[-73.5039603,45.3775709],[-73.5039606,45.3775257],[-73.5039607,45.377514],[-73.5039664,45.3774422],[-73.5039978,45.3772874],[-73.504046,45.377162]]}";24;Boulevard Jean-Leman;2;30;false;true;true;false;false;false;47.0;0;0;1;0;0;false;75642;6133322653;-73.516834;45.393405;75258;6133323064;-73.508104;45.370396;0;0;1;9506675;Bus 11 : Service PM;"";EXO;11 PM;Stationnement incitatif Candiac;boul. Édouard-VII / montée Monette
25649223;"{\"type\":\"LineString\",\"coordinates\":[[-73.504046,45.377162],[-73.5040787,45.3770716],[-73.5041006,45.3770168],[-73.5041949,45.3767353],[-73.5043167,45.3763608],[-73.5043669,45.3762185]]}";25;Boulevard Jean-Leman;1;30;false;true;true;false;false;false;108.0;0;1;0;0;0;false;75642;6133322653;-73.516834;45.393405;75258;6133323064;-73.508104;45.370396;0;0;1;9506675;Bus 11 : Service PM;"";EXO;11 PM;Stationnement incitatif Candiac;boul. Édouard-VII / montée Monette
784454489;"{\"type\":\"LineString\",\"coordinates\":[[-73.5043669,45.3762185],[-73.504436,45.3760223],[-73.5044652,45.3759362],[-73.5044952,45.3758474],[-73.5045474,45.3756749]]}";26;Boulevard Jean-Leman;2;30;false;true;true;false;false;false;63.0;0;0;0;0;0;false;75642;6133322653;-73.516834;45.393405;75258;6133323064;-73.508104;45.370396;0;0;1;9506675;Bus 11 : Service PM;"";EXO;11 PM;Stationnement incitatif Candiac;boul. Édouard-VII / montée Monette
784454101;"{\"type\":\"LineString\",\"coordinates\":[[-73.5045474,45.3756749],[-73.5046621,45.3753431],[-73.504671,45.3753211],[-73.5046967,45.3752577]]}";27;Boulevard Jean-Leman;3;30;false;true;true;false;false;false;48.0;1;1;0;0;0;false;75642;6133322653;-73.516834;45.393405;75258;6133323064;-73.508104;45.370396;0;0;1;9506675;Bus 11 : Service PM;"";EXO;11 PM;Stationnement incitatif Candiac;boul. Édouard-VII / montée Monette
685305031;"{\"type\":\"LineString\",\"coordinates\":[[-73.5046967,45.3752577],[-73.5047375,45.3751645]]}";28;Boulevard Jean-Leman;3;50;false;true;true;false;false;false;11.0;0;0;0;0;0;false;75642;6133322653;-73.516834;45.393405;75258;6133323064;-73.508104;45.370396;0;0;1;9506675;Bus 11 : Service PM;"";EXO;11 PM;Stationnement incitatif Candiac;boul. Édouard-VII / montée Monette
784454099;"{\"type\":\"LineString\",\"coordinates\":[[-73.5047375,45.3751645],[-73.5047641,45.3750988],[-73.50537,45.3732718]]}";29;Boulevard Jean-Leman;2;50;false;true;true;false;false;false;216.0;0;0;0;0;0;false;75642;6133322653;-73.516834;45.393405;75258;6133323064;-73.508104;45.370396;0;0;1;9506675;Bus 11 : Service PM;"";EXO;11 PM;Stationnement incitatif Candiac;boul. Édouard-VII / montée Monette
190362025;"{\"type\":\"LineString\",\"coordinates\":[[-73.50537,45.3732718],[-73.5055277,45.3728136],[-73.5055823,45.3726464]]}";30;Boulevard Jean-Leman;2;50;false;true;true;false;false;false;72.0;0;0;0;0;0;false;75642;6133322653;-73.516834;45.393405;75258;6133323064;-73.508104;45.370396;0;0;1;9506675;Bus 11 : Service PM;"";EXO;11 PM;Stationnement incitatif Candiac;boul. Édouard-VII / montée Monette
685124999;"{\"type\":\"LineString\",\"coordinates\":[[-73.5055823,45.3726464],[-73.5057626,45.3721181],[-73.5058419,45.3718894],[-73.505955,45.3715686],[-73.5060424,45.3712849]]}";31;Boulevard Jean-Leman;2;50;false;true;true;false;false;false;156.0;0;0;0;0;0;false;75642;6133322653;-73.516834;45.393405;75258;6133323064;-73.508104;45.370396;0;0;1;9506675;Bus 11 : Service PM;"";EXO;11 PM;Stationnement incitatif Candiac;boul. Édouard-VII / montée Monette
784277052;"{\"type\":\"LineString\",\"coordinates\":[[-73.5060424,45.3712849],[-73.5061618,45.370906],[-73.5062007,45.3708193]]}";32;Boulevard Jean-Leman;3;50;false;true;true;false;false;false;54.0;1;0;0;0;0;false;75642;6133322653;-73.516834;45.393405;75258;6133323064;-73.508104;45.370396;0;0;1;9506675;Bus 11 : Service PM;"";EXO;11 PM;Stationnement incitatif Candiac;boul. Édouard-VII / montée Monette
475121757;"{\"type\":\"LineString\",\"coordinates\":[[-73.5062007,45.3708193],[-73.5063006,45.3708355]]}";33;Boulevard de Sardaigne;2;50;false;true;true;false;false;false;9.0;0;1;0;0;0;false;75642;6133322653;-73.516834;45.393405;75258;6133323064;-73.508104;45.370396;0;0;1;9506675;Bus 11 : Service PM;"";EXO;11 PM;Stationnement incitatif Candiac;boul. Édouard-VII / montée Monette
784277056;"{\"type\":\"LineString\",\"coordinates\":[[-73.5063006,45.3708355],[-73.5063361,45.3708415],[-73.5066978,45.3708854],[-73.506942,45.3709132],[-73.5070598,45.3709233],[-73.5071626,45.3709265],[-73.5072854,45.3709232],[-73.5073869,45.3709181]]}";34;Boulevard de Sardaigne;2;50;false;true;true;false;false;false;86.0;0;1;0;0;0;false;75642;6133322653;-73.516834;45.393405;75258;6133323064;-73.508104;45.370396;0;0;1;9506675;Bus 11 : Service PM;"";EXO;11 PM;Stationnement incitatif Candiac;boul. Édouard-VII / montée Monette
475121758;"{\"type\":\"LineString\",\"coordinates\":[[-73.5073869,45.3709181],[-73.5075097,45.3709024],[-73.5076111,45.3708839],[-73.5077123,45.3708621],[-73.5078135,45.3708338],[-73.5079318,45.3707927],[-73.5080123,45.3707596],[-73.5081166,45.37071],[-73.5081895,45.3706707],[-73.5082444,45.3706375]]}";35;Boulevard de Sardaigne;2;50;false;true;true;false;false;false;76.0;1;0;0;0;0;false;75642;6133322653;-73.516834;45.393405;75258;6133323064;-73.508104;45.370396;0;0;1;9506675;Bus 11 : Service PM;"";EXO;11 PM;Stationnement incitatif Candiac;boul. Édouard-VII / montée Monette
475121759;"{\"type\":\"LineString\",\"coordinates\":[[-73.5081527,45.370551],[-73.5082444,45.3706375]]}";36;"";2;40;false;false;true;false;false;false;12.0;0;0;0;0;0;false;75642;6133322653;-73.516834;45.393405;75258;6133323064;-73.508104;45.370396;0;0;1;9506675;Bus 11 : Service PM;"";EXO;11 PM;Stationnement incitatif Candiac;boul. Édouard-VII / montée Monette
25653307;"{\"type\":\"LineString\",\"coordinates\":[[-73.5079695,45.3689701],[-73.5079508,45.3690021],[-73.5079397,45.3690267],[-73.5079285,45.3690571],[-73.5078161,45.3693959],[-73.5077498,45.3695955],[-73.5077307,45.369653],[-73.5076896,45.3697768],[-73.5076397,45.3699271],[-73.5076315,45.3699556],[-73.5076273,45.36997],[-73.507624,45.3700069],[-73.5076323,45.3700445],[-73.507654,45.3700751],[-73.5077001,45.3701212],[-73.5077247,45.3701446],[-73.5077604,45.3701786],[-73.5078644,45.3702791],[-73.5080709,45.3704773],[-73.5080908,45.3704961],[-73.5081527,45.370551]]}";37;Rue de Ségovie;1;40;false;false;true;false;false;false;96.5;1;1;1;0;0;false;75642;6133322653;-73.516834;45.393405;75258;6133323064;-73.508104;45.370396;1;0;1;9506675;Bus 11 : Service PM;"";EXO;11 PM;Stationnement incitatif Candiac;boul. Édouard-VII / montée Monette
475121759;"{\"type\":\"LineString\",\"coordinates\":[[-73.5081527,45.370551],[-73.5082444,45.3706375]]}";1;"";2;40;false;false;true;false;false;false;12.0;0;0;0;0;0;false;75258;6133323064;-73.508104;45.370396;75259;6133323063;-73.507026;45.36858;2;1;2;9506675;Bus 11 : Service PM;"";EXO;11 PM;Stationnement incitatif Candiac;boul. Édouard-VII / montée Monette
25653307;"{\"type\":\"LineString\",\"coordinates\":[[-73.5079695,45.3689701],[-73.5079508,45.3690021],[-73.5079397,45.3690267],[-73.5079285,45.3690571],[-73.5078161,45.3693959],[-73.5077498,45.3695955],[-73.5077307,45.369653],[-73.5076896,45.3697768],[-73.5076397,45.3699271],[-73.5076315,45.3699556],[-73.5076273,45.36997],[-73.507624,45.3700069],[-73.5076323,45.3700445],[-73.507654,45.3700751],[-73.5077001,45.3701212],[-73.5077247,45.3701446],[-73.5077604,45.3701786],[-73.5078644,45.3702791],[-73.5080709,45.3704773],[-73.5080908,45.3704961],[-73.5081527,45.370551]]}";2;Rue de Ségovie;1;40;false;false;true;false;false;false;193.0;1;1;1;0;0;false;75258;6133323064;-73.508104;45.370396;75259;6133323063;-73.507026;45.36858;0;1;2;9506675;Bus 11 : Service PM;"";EXO;11 PM;Stationnement incitatif Candiac;boul. Édouard-VII / montée Monette
685125005;"{\"type\":\"LineString\",\"coordinates\":[[-73.507472,45.3688158],[-73.507689,45.3688509],[-73.5077407,45.3688621],[-73.5077758,45.3688709],[-73.5078171,45.3688883],[-73.5078876,45.3689258],[-73.5079695,45.3689701]]}";3;Rue de la Seine;2;40;false;false;true;false;false;false;44.0;0;0;1;0;0;false;75258;6133323064;-73.508104;45.370396;75259;6133323063;-73.507026;45.36858;0;1;2;9506675;Bus 11 : Service PM;"";EXO;11 PM;Stationnement incitatif Candiac;boul. Édouard-VII / montée Monette
25653203;"{\"type\":\"LineString\",\"coordinates\":[[-73.507472,45.3688158],[-73.5072426,45.3687198],[-73.5070912,45.3686607],[-73.5070403,45.368644],[-73.5069929,45.3686331],[-73.5069505,45.3686249],[-73.5069148,45.3686186]]}";4;Rue de la Seine;1;40;false;true;true;false;false;false;50.0;0;0;1;0;0;false;75258;6133323064;-73.508104;45.370396;75259;6133323063;-73.507026;45.36858;2;1;2;9506675;Bus 11 : Service PM;"";EXO;11 PM;Stationnement incitatif Candiac;boul. Édouard-VII / montée Monette
685125004;"{\"type\":\"LineString\",\"coordinates\":[[-73.5066221,45.3694655],[-73.5066677,45.3693293],[-73.5068171,45.3689038],[-73.5068531,45.368801],[-73.5069148,45.3686186]]}";1;Boulevard Jean-Leman;2;50;false;false;true;false;false;false;97.0;0;0;1;0;0;false;75259;6133323063;-73.507026;45.36858;75267;6133323056;-73.494867;45.374578;2;2;3;9506675;Bus 11 : Service PM;"";EXO;11 PM;Stationnement incitatif Candiac;boul. Édouard-VII / montée Monette
419596434;"{\"type\":\"LineString\",\"coordinates\":[[-73.5066221,45.3694655],[-73.5065403,45.369577],[-73.5064591,45.3697395],[-73.5063879,45.3698976],[-73.5063461,45.3700045]]}";2;Boulevard Jean-Leman;1;50;false;true;true;false;false;false;64.0;0;0;0;0;0;false;75259;6133323063;-73.507026;45.36858;75267;6133323056;-73.494867;45.374578;0;2;3;9506675;Bus 11 : Service PM;"";EXO;11 PM;Stationnement incitatif Candiac;boul. Édouard-VII / montée Monette
419596436;"{\"type\":\"LineString\",\"coordinates\":[[-73.5063461,45.3700045],[-73.5062162,45.3702554],[-73.506143,45.3703921],[-73.5060883,45.3704696],[-73.5060435,45.3705172],[-73.5059973,45.3705504],[-73.5059391,45.3705761],[-73.5058939,45.3705899],[-73.5058392,45.3706029],[-73.5057713,45.3706131],[-73.5056581,45.3706177],[-73.5055498,45.370623]]}";3;"";1;45;false;true;true;false;false;false;104.0;0;0;0;0;0;false;75259;6133323063;-73.507026;45.36858;75267;6133323056;-73.494867;45.374578;0;2;3;9506675;Bus 11 : Service PM;"";EXO;11 PM;Stationnement incitatif Candiac;boul. Édouard-VII / montée Monette
462485182;"{\"type\":\"LineString\",\"coordinates\":[[-73.5055498,45.370623],[-73.5053472,45.3705993],[-73.5051925,45.3705875],[-73.5050773,45.3705856],[-73.5047982,45.3706001]]}";4;Boulevard de Sardaigne;2;50;false;true;true;false;false;false;60.0;0;0;0;0;0;false;75259;6133323063;-73.507026;45.36858;75267;6133323056;-73.494867;45.374578;0;2;3;9506675;Bus 11 : Service PM;"";EXO;11 PM;Stationnement incitatif Candiac;boul. Édouard-VII / montée Monette
760956850;"{\"type\":\"LineString\",\"coordinates\":[[-73.5047982,45.3706001],[-73.5046625,45.3705933],[-73.5045444,45.3705889],[-73.5044264,45.3705867]]}";5;Boulevard de Sardaigne;3;50;false;false;true;false;false;false;30.0;0;0;0;0;0;false;75259;6133323063;-73.507026;45.36858;75267;6133323056;-73.494867;45.374578;0;2;3;9506675;Bus 11 : Service PM;"";EXO;11 PM;Stationnement incitatif Candiac;boul. Édouard-VII / montée Monette
784286892;"{\"type\":\"LineString\",\"coordinates\":[[-73.5044264,45.3705867],[-73.5042734,45.3705883],[-73.5040846,45.3705929],[-73.5038611,45.3706029],[-73.503775,45.3706082]]}";6;Boulevard de Sardaigne;3;50;false;false;true;false;false;false;52.0;0;0;1;0;0;false;75259;6133323063;-73.507026;45.36858;75267;6133323056;-73.494867;45.374578;0;2;3;9506675;Bus 11 : Service PM;"";EXO;11 PM;Stationnement incitatif Candiac;boul. Édouard-VII / montée Monette
784286890;"{\"type\":\"LineString\",\"coordinates\":[[-73.503775,45.3706082],[-73.5036559,45.3706139]]}";7;Boulevard de Sardaigne;3;50;false;false;true;false;false;false;10.0;0;0;0;0;0;false;75259;6133323063;-73.507026;45.36858;75267;6133323056;-73.494867;45.374578;0;2;3;9506675;Bus 11 : Service PM;"";EXO;11 PM;Stationnement incitatif Candiac;boul. Édouard-VII / montée Monette
419596431;"{\"type\":\"LineString\",\"coordinates\":[[-73.5036559,45.3706139],[-73.5035577,45.3706198],[-73.5033534,45.3706429],[-73.5028739,45.3707193]]}";8;Boulevard de Sardaigne;2;50;false;false;true;false;false;false;63.0;0;0;1;0;0;false;75259;6133323063;-73.507026;45.36858;75267;6133323056;-73.494867;45.374578;0;2;3;9506675;Bus 11 : Service PM;"";EXO;11 PM;Stationnement incitatif Candiac;boul. Édouard-VII / montée Monette
784286891;"{\"type\":\"LineString\",\"coordinates\":[[-73.5028739,45.3707193],[-73.5025645,45.3707776],[-73.5021583,45.3708452],[-73.5019195,45.3708882],[-73.5017918,45.3709157],[-73.5016689,45.3709457],[-73.5015386,45.3709799],[-73.5013215,45.3710455],[-73.5012086,45.3710842],[-73.5010236,45.3711533],[-73.5008594,45.3712216],[-73.5006976,45.3712969],[-73.5005662,45.3713624],[-73.5004395,45.3714319],[-73.5003142,45.3715042],[-73.5001871,45.3715877],[-73.5000494,45.3716804],[-73.4999312,45.3717687],[-73.4997772,45.3718966],[-73.4993718,45.3722456],[-73.498516,45.3729725],[-73.4979612,45.373446],[-73.4975268,45.37382],[-73.4972741,45.374035],[-73.4971043,45.3741833],[-73.4969875,45.3742753],[-73.4969045,45.3743343],[-73.4968102,45.3743927],[-73.4967568,45.3744211],[-73.4966574,45.3744737],[-73.496558,45.3745183],[-73.4964691,45.3745516],[-73.4963588,45.374588],[-73.4962345,45.3746201],[-73.4960892,45.3746494],[-73.4959506,45.3746693],[-73.4958112,45.3746831],[-73.4956585,45.3746913],[-73.4955174,45.3746948],[-73.4953978,45.3746911],[-73.4952666,45.3746759],[-73.4951903,45.3746645],[-73.4950955,45.3746457],[-73.4949824,45.3746224],[-73.4948608,45.3745941]]}";9;Boulevard de Sardaigne;2;50;false;false;true;false;false;false;806.0;0;0;0;0;0;false;75259;6133323063;-73.507026;45.36858;75267;6133323056;-73.494867;45.374578;0;2;3;9506675;Bus 11 : Service PM;"";EXO;11 PM;Stationnement incitatif Candiac;boul. Édouard-VII / montée Monette
169780326;"{\"type\":\"LineString\",\"coordinates\":[[-73.4948608,45.3745941],[-73.4947489,45.3745563],[-73.4946852,45.3745281],[-73.4945553,45.3744666],[-73.4943424,45.3743639],[-73.4921099,45.3731865],[-73.4919949,45.3731234],[-73.4914193,45.372816],[-73.4908903,45.3725336]]}";10;Chemin Sanguinet;2;50;false;false;false;false;false;false;387.0;0;1;0;0;0;false;75259;6133323063;-73.507026;45.36858;75267;6133323056;-73.494867;45.374578;2;2;3;9506675;Bus 11 : Service PM;"";EXO;11 PM;Stationnement incitatif Candiac;boul. Édouard-VII / montée Monette
784286891;"{\"type\":\"LineString\",\"coordinates\":[[-73.5028739,45.3707193],[-73.5025645,45.3707776],[-73.5021583,45.3708452],[-73.5019195,45.3708882],[-73.5017918,45.3709157],[-73.5016689,45.3709457],[-73.5015386,45.3709799],[-73.5013215,45.3710455],[-73.5012086,45.3710842],[-73.5010236,45.3711533],[-73.5008594,45.3712216],[-73.5006976,45.3712969],[-73.5005662,45.3713624],[-73.5004395,45.3714319],[-73.5003142,45.3715042],[-73.5001871,45.3715877],[-73.5000494,45.3716804],[-73.4999312,45.3717687],[-73.4997772,45.3718966],[-73.4993718,45.3722456],[-73.498516,45.3729725],[-73.4979612,45.373446],[-73.4975268,45.37382],[-73.4972741,45.374035],[-73.4971043,45.3741833],[-73.4969875,45.3742753],[-73.4969045,45.3743343],[-73.4968102,45.3743927],[-73.4967568,45.3744211],[-73.4966574,45.3744737],[-73.496558,45.3745183],[-73.4964691,45.3745516],[-73.4963588,45.374588],[-73.4962345,45.3746201],[-73.4960892,45.3746494],[-73.4959506,45.3746693],[-73.4958112,45.3746831],[-73.4956585,45.3746913],[-73.4955174,45.3746948],[-73.4953978,45.3746911],[-73.4952666,45.3746759],[-73.4951903,45.3746645],[-73.4950955,45.3746457],[-73.4949824,45.3746224],[-73.4948608,45.3745941]]}";1;Boulevard de Sardaigne;2;50;false;false;true;false;false;false;806.0;0;0;0;0;0;false;75267;6133323056;-73.494867;45.374578;75269;6133323054;-73.492108;45.373125;2;3;4;9506675;Bus 11 : Service PM;"";EXO;11 PM;Stationnement incitatif Candiac;boul. Édouard-VII / montée Monette
169780326;"{\"type\":\"LineString\",\"coordinates\":[[-73.4948608,45.3745941],[-73.4947489,45.3745563],[-73.4946852,45.3745281],[-73.4945553,45.3744666],[-73.4943424,45.3743639],[-73.4921099,45.3731865],[-73.4919949,45.3731234],[-73.4914193,45.372816],[-73.4908903,45.3725336]]}";2;Chemin Sanguinet;2;50;false;false;false;false;false;false;387.0;0;1;0;0;0;false;75267;6133323056;-73.494867;45.374578;75269;6133323054;-73.492108;45.373125;2;3;4;9506675;Bus 11 : Service PM;"";EXO;11 PM;Stationnement incitatif Candiac;boul. Édouard-VII / montée Monette
685125013;"{\"type\":\"LineString\",\"coordinates\":[[-73.4908903,45.3725336],[-73.4898736,45.3721128]]}";1;Chemin Sanguinet;2;50;false;false;false;false;false;false;93.0;0;1;0;0;0;false;75271;6133323052;-73.490983;45.372536;75291;6133323033;-73.490469;45.367973;2;5;6;9506675;Bus 11 : Service PM;"";EXO;11 PM;Stationnement incitatif Candiac;boul. Édouard-VII / montée Monette
685125009;"{\"type\":\"LineString\",\"coordinates\":[[-73.4912212,45.3681726],[-73.4898736,45.3721128]]}";2;Rue Marthe;2;50;false;false;true;false;false;false;451.0;0;0;0;0;0;false;75271;6133323052;-73.490983;45.372536;75291;6133323033;-73.490469;45.367973;0;5;6;9506675;Bus 11 : Service PM;"";EXO;11 PM;Stationnement incitatif Candiac;boul. Édouard-VII / montée Monette
685125010;"{\"type\":\"LineString\",\"coordinates\":[[-73.4912212,45.3681726],[-73.4902282,45.3680184]]}";3;Rue José;2;50;false;false;true;false;false;false;80.0;0;0;0;0;0;false;75271;6133323052;-73.490983;45.372536;75291;6133323033;-73.490469;45.367973;2;5;6;9506675;Bus 11 : Service PM;"";EXO;11 PM;Stationnement incitatif Candiac;boul. Édouard-VII / montée Monette
685125012;"{\"type\":\"LineString\",\"coordinates\":[[-73.4889466,45.3718124],[-73.4891502,45.3710644],[-73.4898221,45.3690647],[-73.4902282,45.3680184]]}";1;Rue de Gaule Sud;2;50;false;false;true;false;false;false;217.0;0;0;0;0;0;false;75022;6133324637;-73.489764;45.369014;75265;6133323058;-73.483675;45.37026;1;7;8;9506675;Bus 11 : Service PM;"";EXO;11 PM;Stationnement incitatif Candiac;boul. Édouard-VII / montée Monette
597926661;"{\"type\":\"LineString\",\"coordinates\":[[-73.4889466,45.3718124],[-73.4854427,45.370932],[-73.4844469,45.3706801],[-73.4838723,45.3705305],[-73.4837755,45.3705053]]}";2;Chemin Sanguinet;2;50;false;false;false;false;false;false;431.0;0;0;0;0;0;false;75022;6133324637;-73.489764;45.369014;75265;6133323058;-73.483675;45.37026;0;7;8;9506675;Bus 11 : Service PM;"";EXO;11 PM;Stationnement incitatif Candiac;boul. Édouard-VII / montée Monette
117933036;"{\"type\":\"LineString\",\"coordinates\":[[-73.4837755,45.3705053],[-73.4834523,45.3703549],[-73.4833985,45.3703116],[-73.4833522,45.3701871],[-73.4833318,45.3700886]]}";3;"";1;50;false;true;true;false;false;false;31.5;0;0;0;0;0;false;75022;6133324637;-73.489764;45.369014;75265;6133323058;-73.483675;45.37026;1;7;8;9506675;Bus 11 : Service PM;"";EXO;11 PM;Stationnement incitatif Candiac;boul. Édouard-VII / montée Monette
117933036;"{\"type\":\"LineString\",\"coordinates\":[[-73.4837755,45.3705053],[-73.4834523,45.3703549],[-73.4833985,45.3703116],[-73.4833522,45.3701871],[-73.4833318,45.3700886]]}";1;"";1;50;false;true;true;false;false;false;31.5;0;0;0;0;0;false;75265;6133323058;-73.483675;45.37026;75289;6133323034;-73.483485;45.365872;1;8;9;9506675;Bus 11 : Service PM;"";EXO;11 PM;Stationnement incitatif Candiac;boul. Édouard-VII / montée Monette
814941197;"{\"type\":\"LineString\",\"coordinates\":[[-73.4829101,45.3642405],[-73.4831148,45.3647546],[-73.4831913,45.3650815],[-73.4832852,45.3656987],[-73.4833246,45.3660794],[-73.4833625,45.366755],[-73.4833888,45.367241],[-73.4834049,45.3675189],[-73.4834363,45.3683106],[-73.483453,45.369121],[-73.483433,45.3692809],[-73.4833318,45.3700886]]}";2;Route Édouard-VII;2;70;false;false;true;false;false;false;327.0;0;0;0;0;0;false;75265;6133323058;-73.483675;45.37026;75289;6133323034;-73.483485;45.365872;1;8;9;9506675;Bus 11 : Service PM;"";EXO;11 PM;Stationnement incitatif Candiac;boul. Édouard-VII / montée Monette
83711371;"{\"type\":\"LineString\",\"coordinates\":[[-73.4825965,45.3635082],[-73.4829101,45.3642405]]}";1;Route Édouard-VII;2;50;false;false;true;false;false;false;85.0;0;0;0;0;0;false;75279;6133323044;-73.48311;45.364319;75285;6133323038;-73.481032;45.361136;2;10;11;9506675;Bus 11 : Service PM;"";EXO;11 PM;Stationnement incitatif Candiac;boul. Édouard-VII / montée Monette
48828091;"{\"type\":\"LineString\",\"coordinates\":[[-73.4824448,45.3632217],[-73.4825965,45.3635082]]}";2;Route Édouard-VII;2;50;false;false;true;false;false;false;34.0;0;0;0;0;0;false;75279;6133323044;-73.48311;45.364319;75285;6133323038;-73.481032;45.361136;0;10;11;9506675;Bus 11 : Service PM;"";EXO;11 PM;Stationnement incitatif Candiac;boul. Édouard-VII / montée Monette
242287916;"{\"type\":\"LineString\",\"coordinates\":[[-73.4781977,45.3584879],[-73.4794826,45.3597846],[-73.4812316,45.3615471],[-73.4818345,45.3622733],[-73.4821328,45.3626326],[-73.4824448,45.3632217]]}";3;Route Édouard-VII;1;50;false;false;true;false;false;false;625.0;0;0;0;0;0;false;75279;6133323044;-73.48311;45.364319;75285;6133323038;-73.481032;45.361136;2;10;11;9506675;Bus 11 : Service PM;"";EXO;11 PM;Stationnement incitatif Candiac;boul. Édouard-VII / montée Monette
242287916;"{\"type\":\"LineString\",\"coordinates\":[[-73.4781977,45.3584879],[-73.4794826,45.3597846],[-73.4812316,45.3615471],[-73.4818345,45.3622733],[-73.4821328,45.3626326],[-73.4824448,45.3632217]]}";1;Route Édouard-VII;1;50;false;false;true;false;false;false;312.5;0;0;0;0;0;false;75304;6133323021;-73.479553;45.359671;75021;6133324638;-73.478541;45.358415;1;12;13;9506675;Bus 11 : Service PM;"";EXO;11 PM;Stationnement incitatif Candiac;boul. Édouard-VII / montée Monette
117933009;"{\"type\":\"LineString\",\"coordinates\":[[-73.4781977,45.3584879],[-73.479057,45.3580423],[-73.4789844,45.357968]]}";2;Rue des Ormes Ouest;1;50;false;true;true;false;false;false;47.0;0;0;0;0;0;false;75304;6133323021;-73.479553;45.359671;75021;6133324638;-73.478541;45.358415;1;12;13;9506675;Bus 11 : Service PM;"";EXO;11 PM;Stationnement incitatif Candiac;boul. Édouard-VII / montée Monette
117933009;"{\"type\":\"LineString\",\"coordinates\":[[-73.4781977,45.3584879],[-73.479057,45.3580423],[-73.4789844,45.357968]]}";1;Rue des Ormes Ouest;1;50;false;true;true;false;false;false;47.0;0;0;0;0;0;false;75021;6133324638;-73.478541;45.358415;75025;6133324636;-73.47844;45.357291;1;13;14;9506675;Bus 11 : Service PM;"";EXO;11 PM;Stationnement incitatif Candiac;boul. Édouard-VII / montée Monette
117933027;"{\"type\":\"LineString\",\"coordinates\":[[-73.4789844,45.357968],[-73.4788505,45.3578241]]}";2;Rue des Ormes Ouest;1;50;false;false;true;false;false;false;20.0;0;0;0;0;0;false;75021;6133324638;-73.478541;45.358415;75025;6133324636;-73.47844;45.357291;0;13;14;9506675;Bus 11 : Service PM;"";EXO;11 PM;Stationnement incitatif Candiac;boul. Édouard-VII / montée Monette
685125016;"{\"type\":\"LineString\",\"coordinates\":[[-73.4788505,45.3578241],[-73.4784931,45.3574731],[-73.4783528,45.357329],[-73.4783146,45.357257],[-73.4783146,45.357203],[-73.4783273,45.3571671],[-73.4783657,45.3571221],[-73.4784678,45.3570771],[-73.478838,45.3568882],[-73.4797189,45.3564384],[-73.4805734,45.3560015]]}";3;Rue Granger;1;50;false;false;true;false;false;false;152.5;0;0;0;0;0;false;75021;6133324638;-73.478541;45.358415;75025;6133324636;-73.47844;45.357291;1;13;14;9506675;Bus 11 : Service PM;"";EXO;11 PM;Stationnement incitatif Candiac;boul. Édouard-VII / montée Monette
685125017;"{\"type\":\"LineString\",\"coordinates\":[[-73.4805734,45.3560015],[-73.4798979,45.3553316]]}";1;Rue Mercier;1;50;false;false;true;false;false;false;92.0;0;0;0;0;0;false;75026;6133324635;-73.480509;45.356122;75274;6133323049;-73.478906;45.355773;2;15;16;9506675;Bus 11 : Service PM;"";EXO;11 PM;Stationnement incitatif Candiac;boul. Édouard-VII / montée Monette
685125018;"{\"type\":\"LineString\",\"coordinates\":[[-73.4766642,45.3569297],[-73.4774403,45.3565461],[-73.4777549,45.3563907],[-73.4784359,45.3560541],[-73.4788411,45.3558539],[-73.4798979,45.3553316]]}";2;Rue Perron;2;50;false;false;true;false;false;false;310.0;0;0;0;0;0;false;75026;6133324635;-73.480509;45.356122;75274;6133323049;-73.478906;45.355773;2;15;16;9506675;Bus 11 : Service PM;"";EXO;11 PM;Stationnement incitatif Candiac;boul. Édouard-VII / montée Monette
685125019;"{\"type\":\"LineString\",\"coordinates\":[[-73.4753526,45.355016],[-73.4754473,45.3555424],[-73.4756126,45.3557936],[-73.4761621,45.3564257],[-73.4766642,45.3569297]]}";1;Route Édouard-VII;1;50;false;false;true;false;false;false;241.0;0;0;0;0;0;false;75297;6133323027;-73.476696;45.356856;75331;6133323003;-73.47544;45.355025;2;17;18;9506675;Bus 11 : Service PM;"";EXO;11 PM;Stationnement incitatif Candiac;boul. Édouard-VII / montée Monette
685125020;"{\"type\":\"LineString\",\"coordinates\":[[-73.4782996,45.3534572],[-73.4775713,45.3538305],[-73.4762816,45.3546503],[-73.4757516,45.3548953],[-73.4753526,45.355016]]}";2;Rue Foucreault;2;50;false;false;true;false;false;false;291.0;0;0;0;0;0;false;75297;6133323027;-73.476696;45.356856;75331;6133323003;-73.47544;45.355025;2;17;18;9506675;Bus 11 : Service PM;"";EXO;11 PM;Stationnement incitatif Candiac;boul. Édouard-VII / montée Monette
685125019;"{\"type\":\"LineString\",\"coordinates\":[[-73.4753526,45.355016],[-73.4754473,45.3555424],[-73.4756126,45.3557936],[-73.4761621,45.3564257],[-73.4766642,45.3569297]]}";1;Route Édouard-VII;1;50;false;false;true;false;false;false;241.0;0;0;0;0;0;false;75331;6133323003;-73.47544;45.355025;75305;6133323020;-73.48007;45.352577;2;18;19;9506675;Bus 11 : Service PM;"";EXO;11 PM;Stationnement incitatif Candiac;boul. Édouard-VII / montée Monette
685125020;"{\"type\":\"LineString\",\"coordinates\":[[-73.4782996,45.3534572],[-73.4775713,45.3538305],[-73.4762816,45.3546503],[-73.4757516,45.3548953],[-73.4753526,45.355016]]}";2;Rue Foucreault;2;50;false;false;true;false;false;false;291.0;0;0;0;0;0;false;75331;6133323003;-73.47544;45.355025;75305;6133323020;-73.48007;45.352577;0;18;19;9506675;Bus 11 : Service PM;"";EXO;11 PM;Stationnement incitatif Candiac;boul. Édouard-VII / montée Monette
48828046;"{\"type\":\"LineString\",\"coordinates\":[[-73.4782996,45.3534572],[-73.478761,45.3538922],[-73.4789448,45.3539002],[-73.4795472,45.3535961],[-73.4803845,45.3531736],[-73.4804294,45.3530643],[-73.480018,45.3526512],[-73.4798439,45.3526284],[-73.4784185,45.3533242],[-73.4782996,45.3534572]]}";3;Rue Foucreault;2;50;false;false;true;false;false;false;450.0;0;0;0;0;0;false;75331;6133323003;-73.47544;45.355025;75305;6133323020;-73.48007;45.352577;2;18;19;9506675;Bus 11 : Service PM;"";EXO;11 PM;Stationnement incitatif Candiac;boul. Édouard-VII / montée Monette
685125020;"{\"type\":\"LineString\",\"coordinates\":[[-73.4782996,45.3534572],[-73.4775713,45.3538305],[-73.4762816,45.3546503],[-73.4757516,45.3548953],[-73.4753526,45.355016]]}";1;Rue Foucreault;2;50;false;false;true;false;false;false;291.0;0;0;0;0;0;false;75317;6133323017;-73.478273;45.353367;75283;6133323040;-73.475278;45.353956;2;20;21;9506675;Bus 11 : Service PM;"";EXO;11 PM;Stationnement incitatif Candiac;boul. Édouard-VII / montée Monette
685125021;"{\"type\":\"LineString\",\"coordinates\":[[-73.4742172,45.3526818],[-73.4750979,45.3538271],[-73.4752349,45.3541362],[-73.4753526,45.355016]]}";2;Route Édouard-VII;1;50;false;false;true;false;false;false;279.0;0;0;0;0;0;false;75317;6133323017;-73.478273;45.353367;75283;6133323040;-73.475278;45.353956;2;20;21;9506675;Bus 11 : Service PM;"";EXO;11 PM;Stationnement incitatif Candiac;boul. Édouard-VII / montée Monette
