way_id;shape;index;name;nb_lanes;legal_speed;speed_zone_30;oneway;shares_bike;bike_box;bus_lane;dedicated_bus_lane;length;nb_traffic_signals;nb_crossings;nb_stops;nb_give_ways;nb_lvl_crossings;roundabout;stop_id_orig;node_id_orig;coord_x_orig;coord_y_orig;stop_id_dest;node_id_dest;coord_x_dest;coord_y_dest;nb_neighbouring_ways_bus_stop;ordre_orig;ordre_dest;id_line;line_name;colour;operator;ref;from;to
694200780;"{\"type\":\"LineString\",\"coordinates\":[[-73.7480275,45.5685377],[-73.7478281,45.5683851]]}";1;"";1;50;false;true;true;false;false;false;24.0;0;0;0;0;0;false;"44070;44139";6269509580;-73.74814;45.568472;41931;6269509373;-73.74128;45.572194;1;0;1;9312779;Bus : 39 N - Direction Auteuil;"";STL;39N;Terminus Le Carrefour Quai:6;Terminus Bienville
678347082;"{\"type\":\"LineString\",\"coordinates\":[[-73.7478281,45.5683851],[-73.7477706,45.5683413]]}";2;"";1;50;false;true;true;false;false;false;7.0;0;0;0;0;0;false;"44070;44139";6269509580;-73.74814;45.568472;41931;6269509373;-73.74128;45.572194;0;0;1;9312779;Bus : 39 N - Direction Auteuil;"";STL;39N;Terminus Le Carrefour Quai:6;Terminus Bienville
662152609;"{\"type\":\"LineString\",\"coordinates\":[[-73.7477706,45.5683413],[-73.7475508,45.5684635]]}";3;"";1;50;false;false;true;false;false;false;22.0;0;0;0;0;0;false;"44070;44139";6269509580;-73.74814;45.568472;41931;6269509373;-73.74128;45.572194;0;0;1;9312779;Bus : 39 N - Direction Auteuil;"";STL;39N;Terminus Le Carrefour Quai:6;Terminus Bienville
662152608;"{\"type\":\"LineString\",\"coordinates\":[[-73.7475508,45.5684635],[-73.7470932,45.5687155]]}";4;"";1;50;false;false;true;false;false;false;46.0;0;0;0;0;0;false;"44070;44139";6269509580;-73.74814;45.568472;41931;6269509373;-73.74128;45.572194;0;0;1;9312779;Bus : 39 N - Direction Auteuil;"";STL;39N;Terminus Le Carrefour Quai:6;Terminus Bienville
45760900;"{\"type\":\"LineString\",\"coordinates\":[[-73.7480536,45.5693169],[-73.7477738,45.569102],[-73.7477012,45.5690397],[-73.7476345,45.569001],[-73.747466,45.5689034],[-73.7473901,45.5688594],[-73.7472267,45.5687802],[-73.7470932,45.5687155]]}";5;Avenue Terry Fox;2;50;false;false;false;false;false;false;101.0;1;0;0;0;0;false;"44070;44139";6269509580;-73.74814;45.568472;41931;6269509373;-73.74128;45.572194;0;0;1;9312779;Bus : 39 N - Direction Auteuil;"";STL;39N;Terminus Le Carrefour Quai:6;Terminus Bienville
652937897;"{\"type\":\"LineString\",\"coordinates\":[[-73.7480536,45.5693169],[-73.747605,45.5695129],[-73.7471654,45.5696881],[-73.7460729,45.5701116]]}";6;Boulevard Le Carrefour;2;50;false;true;false;false;false;false;178.0;1;0;0;0;0;false;"44070;44139";6269509580;-73.74814;45.568472;41931;6269509373;-73.74128;45.572194;0;0;1;9312779;Bus : 39 N - Direction Auteuil;"";STL;39N;Terminus Le Carrefour Quai:6;Terminus Bienville
45755858;"{\"type\":\"LineString\",\"coordinates\":[[-73.7460729,45.5701116],[-73.7443762,45.5707482]]}";7;Boulevard Le Carrefour;2;50;false;true;false;false;false;false;151.0;0;0;0;0;0;false;"44070;44139";6269509580;-73.74814;45.568472;41931;6269509373;-73.74128;45.572194;0;0;1;9312779;Bus : 39 N - Direction Auteuil;"";STL;39N;Terminus Le Carrefour Quai:6;Terminus Bienville
45755729;"{\"type\":\"LineString\",\"coordinates\":[[-73.7443762,45.5707482],[-73.7438228,45.5709423],[-73.7438005,45.5709526],[-73.7433719,45.5711499],[-73.7431441,45.5712668],[-73.7429955,45.5713431],[-73.7420247,45.571886],[-73.7418024,45.5720154],[-73.7414375,45.5722279],[-73.7413885,45.5722574]]}";8;Boulevard Le Carrefour;2;50;false;true;false;false;false;false;288.0;0;0;0;0;0;false;"44070;44139";6269509580;-73.74814;45.568472;41931;6269509373;-73.74128;45.572194;0;0;1;9312779;Bus : 39 N - Direction Auteuil;"";STL;39N;Terminus Le Carrefour Quai:6;Terminus Bienville
455474957;"{\"type\":\"LineString\",\"coordinates\":[[-73.7413885,45.5722574],[-73.7412072,45.5722668],[-73.7409074,45.5722348]]}";9;"";1;50;false;true;true;false;false;false;19.0;0;0;0;0;0;false;"44070;44139";6269509580;-73.74814;45.568472;41931;6269509373;-73.74128;45.572194;1;0;1;9312779;Bus : 39 N - Direction Auteuil;"";STL;39N;Terminus Le Carrefour Quai:6;Terminus Bienville
45755729;"{\"type\":\"LineString\",\"coordinates\":[[-73.7443762,45.5707482],[-73.7438228,45.5709423],[-73.7438005,45.5709526],[-73.7433719,45.5711499],[-73.7431441,45.5712668],[-73.7429955,45.5713431],[-73.7420247,45.571886],[-73.7418024,45.5720154],[-73.7414375,45.5722279],[-73.7413885,45.5722574]]}";1;Boulevard Le Carrefour;2;50;false;true;false;false;false;false;288.0;0;0;0;0;0;false;41931;6269509373;-73.74128;45.572194;41964;6269509532;-73.73876;45.570201;2;1;2;9312779;Bus : 39 N - Direction Auteuil;"";STL;39N;Terminus Le Carrefour Quai:6;Terminus Bienville
455474957;"{\"type\":\"LineString\",\"coordinates\":[[-73.7413885,45.5722574],[-73.7412072,45.5722668],[-73.7409074,45.5722348]]}";2;"";1;50;false;true;true;false;false;false;38.0;0;0;0;0;0;false;41931;6269509373;-73.74128;45.572194;41964;6269509532;-73.73876;45.570201;0;1;2;9312779;Bus : 39 N - Direction Auteuil;"";STL;39N;Terminus Le Carrefour Quai:6;Terminus Bienville
455474949;"{\"type\":\"LineString\",\"coordinates\":[[-73.7409074,45.5722348],[-73.7385431,45.5701423]]}";3;Boulevard Le Corbusier;2;60;false;true;false;false;false;false;297.0;1;0;0;0;0;false;41931;6269509373;-73.74128;45.572194;41964;6269509532;-73.73876;45.570201;2;1;2;9312779;Bus : 39 N - Direction Auteuil;"";STL;39N;Terminus Le Carrefour Quai:6;Terminus Bienville
45755901;"{\"type\":\"LineString\",\"coordinates\":[[-73.7385431,45.5701423],[-73.737953,45.5695957],[-73.7364192,45.5682736],[-73.7359495,45.5679546]]}";1;Boulevard Le Corbusier;2;60;false;true;false;false;false;false;158.5;1;0;0;0;0;false;41966;6269509986;-73.73689;45.568559;41941;6269510040;-73.73419;45.566715;1;3;4;9312779;Bus : 39 N - Direction Auteuil;"";STL;39N;Terminus Le Carrefour Quai:6;Terminus Bienville
672433262;"{\"type\":\"LineString\",\"coordinates\":[[-73.7359495,45.5679546],[-73.7354273,45.5676427],[-73.735038,45.5674116],[-73.7348281,45.5672748],[-73.7344214,45.5669228],[-73.7339125,45.5664918],[-73.7326313,45.5653828],[-73.7324832,45.5652926]]}";2;Voie réservée - boulevard Le Corbusier;1;50;false;true;true;false;true;false;201.0;0;0;0;0;0;false;41966;6269509986;-73.73689;45.568559;41941;6269510040;-73.73419;45.566715;1;3;4;9312779;Bus : 39 N - Direction Auteuil;"";STL;39N;Terminus Le Carrefour Quai:6;Terminus Bienville
672433262;"{\"type\":\"LineString\",\"coordinates\":[[-73.7359495,45.5679546],[-73.7354273,45.5676427],[-73.735038,45.5674116],[-73.7348281,45.5672748],[-73.7344214,45.5669228],[-73.7339125,45.5664918],[-73.7326313,45.5653828],[-73.7324832,45.5652926]]}";1;Voie réservée - boulevard Le Corbusier;1;50;false;true;true;false;true;false;201.0;0;0;0;0;0;false;41941;6269510040;-73.73419;45.566715;41958;6269510083;-73.73102;45.563894;1;4;5;9312779;Bus : 39 N - Direction Auteuil;"";STL;39N;Terminus Le Carrefour Quai:6;Terminus Bienville
679314213;"{\"type\":\"LineString\",\"coordinates\":[[-73.7324832,45.5652926],[-73.731199,45.5641242],[-73.7288698,45.5620685],[-73.727183,45.5605226],[-73.72707,45.5604132]]}";2;Voie réservée - boulevard Le Corbusier;1;50;false;true;true;false;true;false;344.0;0;0;0;0;0;false;41941;6269510040;-73.73419;45.566715;41958;6269510083;-73.73102;45.563894;1;4;5;9312779;Bus : 39 N - Direction Auteuil;"";STL;39N;Terminus Le Carrefour Quai:6;Terminus Bienville
679314213;"{\"type\":\"LineString\",\"coordinates\":[[-73.7324832,45.5652926],[-73.731199,45.5641242],[-73.7288698,45.5620685],[-73.727183,45.5605226],[-73.72707,45.5604132]]}";1;Voie réservée - boulevard Le Corbusier;1;50;false;true;true;false;true;false;344.0;0;0;0;0;0;false;41937;6269510251;-73.72867;45.561807;43147;6269510273;-73.72528;45.560919;1;6;7;9312779;Bus : 39 N - Direction Auteuil;"";STL;39N;Terminus Le Carrefour Quai:6;Terminus Bienville
475251790;"{\"type\":\"LineString\",\"coordinates\":[[-73.72707,45.5604132],[-73.7270131,45.5604364],[-73.7269504,45.5604619]]}";2;Boulevard du Souvenir;3;50;false;true;false;false;false;false;11.0;1;0;0;0;0;false;41937;6269510251;-73.72867;45.561807;43147;6269510273;-73.72528;45.560919;0;6;7;9312779;Bus : 39 N - Direction Auteuil;"";STL;39N;Terminus Le Carrefour Quai:6;Terminus Bienville
475251788;"{\"type\":\"LineString\",\"coordinates\":[[-73.7269504,45.5604619],[-73.7266639,45.5605658],[-73.7264044,45.5606501],[-73.7255372,45.5609316]]}";3;Boulevard du Souvenir;3;50;false;true;false;false;false;false;122.0;1;0;0;0;0;false;41937;6269510251;-73.72867;45.561807;43147;6269510273;-73.72528;45.560919;0;6;7;9312779;Bus : 39 N - Direction Auteuil;"";STL;39N;Terminus Le Carrefour Quai:6;Terminus Bienville
475237531;"{\"type\":\"LineString\",\"coordinates\":[[-73.7255372,45.5609316],[-73.7249098,45.5611404],[-73.7238338,45.5614515],[-73.722752,45.5617595]]}";4;Boulevard du Souvenir;3;50;false;true;false;false;false;false;118.0;1;0;0;0;0;false;41937;6269510251;-73.72867;45.561807;43147;6269510273;-73.72528;45.560919;1;6;7;9312779;Bus : 39 N - Direction Auteuil;"";STL;39N;Terminus Le Carrefour Quai:6;Terminus Bienville
475237531;"{\"type\":\"LineString\",\"coordinates\":[[-73.7255372,45.5609316],[-73.7249098,45.5611404],[-73.7238338,45.5614515],[-73.722752,45.5617595]]}";1;Boulevard du Souvenir;3;50;false;true;false;false;false;false;118.0;1;0;0;0;0;false;43148;6269510225;-73.72296;45.561631;"46509;43507;46443";6269510304;-73.72082;45.559592;1;8;9;9312779;Bus : 39 N - Direction Auteuil;"";STL;39N;Terminus Le Carrefour Quai:6;Terminus Bienville
29081985;"{\"type\":\"LineString\",\"coordinates\":[[-73.722752,45.5617595],[-73.7225279,45.561532],[-73.7214827,45.5604479],[-73.7211098,45.5600515],[-73.7210472,45.5599848],[-73.7205915,45.5595102]]}";2;Boulevard de l'Avenir;3;50;false;true;false;false;false;false;151.0;1;0;0;0;0;false;43148;6269510225;-73.72296;45.561631;"46509;43507;46443";6269510304;-73.72082;45.559592;1;8;9;9312779;Bus : 39 N - Direction Auteuil;"";STL;39N;Terminus Le Carrefour Quai:6;Terminus Bienville
29081985;"{\"type\":\"LineString\",\"coordinates\":[[-73.722752,45.5617595],[-73.7225279,45.561532],[-73.7214827,45.5604479],[-73.7211098,45.5600515],[-73.7210472,45.5599848],[-73.7205915,45.5595102]]}";1;Boulevard de l'Avenir;3;50;false;true;false;false;false;false;151.0;1;0;0;0;0;false;"46509;43507;46443";6269510304;-73.72082;45.559592;"48039;48050";6269510332;-73.72043;45.558562;1;9;10;9312779;Bus : 39 N - Direction Auteuil;"";STL;39N;Terminus Le Carrefour Quai:6;Terminus Bienville
695738775;"{\"type\":\"LineString\",\"coordinates\":[[-73.7205915,45.5595102],[-73.7199464,45.5588146]]}";2;Boulevard de l'Avenir;3;50;false;true;false;false;false;false;93.0;0;0;0;0;0;false;"46509;43507;46443";6269510304;-73.72082;45.559592;"48039;48050";6269510332;-73.72043;45.558562;0;9;10;9312779;Bus : 39 N - Direction Auteuil;"";STL;39N;Terminus Le Carrefour Quai:6;Terminus Bienville
475848926;"{\"type\":\"LineString\",\"coordinates\":[[-73.7199464,45.5588146],[-73.719872,45.558742],[-73.7198603,45.5587298],[-73.7197703,45.558636]]}";3;Boulevard de l'Avenir;3;50;false;true;false;false;false;false;25.0;0;1;0;0;0;false;"46509;43507;46443";6269510304;-73.72082;45.559592;"48039;48050";6269510332;-73.72043;45.558562;0;9;10;9312779;Bus : 39 N - Direction Auteuil;"";STL;39N;Terminus Le Carrefour Quai:6;Terminus Bienville
292607262;"{\"type\":\"LineString\",\"coordinates\":[[-73.7195653,45.558719],[-73.7197703,45.558636]]}";4;"";1;50;false;false;true;false;false;false;19.0;0;0;0;0;0;false;"46509;43507;46443";6269510304;-73.72082;45.559592;"48039;48050";6269510332;-73.72043;45.558562;0;9;10;9312779;Bus : 39 N - Direction Auteuil;"";STL;39N;Terminus Le Carrefour Quai:6;Terminus Bienville
673250003;"{\"type\":\"LineString\",\"coordinates\":[[-73.7200309,45.5584789],[-73.7198217,45.5586049],[-73.7197703,45.558636]]}";5;"";1;30;false;false;false;false;false;false;27.0;0;1;0;0;0;false;"46509;43507;46443";6269510304;-73.72082;45.559592;"48039;48050";6269510332;-73.72043;45.558562;0;9;10;9312779;Bus : 39 N - Direction Auteuil;"";STL;39N;Terminus Le Carrefour Quai:6;Terminus Bienville
673246437;"{\"type\":\"LineString\",\"coordinates\":[[-73.7200309,45.5584789],[-73.720124,45.5585758],[-73.7201474,45.5585648]]}";6;"";1;30;false;true;false;false;false;false;16.0;0;0;0;0;0;false;"46509;43507;46443";6269510304;-73.72082;45.559592;"48039;48050";6269510332;-73.72043;45.558562;0;9;10;9312779;Bus : 39 N - Direction Auteuil;"";STL;39N;Terminus Le Carrefour Quai:6;Terminus Bienville
624217210;"{\"type\":\"LineString\",\"coordinates\":[[-73.7201474,45.5585648],[-73.720206,45.5585372],[-73.7203325,45.5584776]]}";7;"";1;30;false;true;false;false;false;false;18.0;0;0;0;0;0;false;"46509;43507;46443";6269510304;-73.72082;45.559592;"48039;48050";6269510332;-73.72043;45.558562;0;9;10;9312779;Bus : 39 N - Direction Auteuil;"";STL;39N;Terminus Le Carrefour Quai:6;Terminus Bienville
673264013;"{\"type\":\"LineString\",\"coordinates\":[[-73.7203325,45.5584776],[-73.7205612,45.55837]]}";8;"";1;30;false;true;false;false;false;false;11.0;0;0;0;0;0;false;"46509;43507;46443";6269510304;-73.72082;45.559592;"48039;48050";6269510332;-73.72043;45.558562;1;9;10;9312779;Bus : 39 N - Direction Auteuil;"";STL;39N;Terminus Le Carrefour Quai:6;Terminus Bienville
624217210;"{\"type\":\"LineString\",\"coordinates\":[[-73.7201474,45.5585648],[-73.720206,45.5585372],[-73.7203325,45.5584776]]}";1;"";1;30;false;true;false;false;false;false;18.0;0;0;0;0;0;false;"48039;48050";6269510332;-73.72043;45.558562;41028;6269510258;-73.72204;45.561381;2;10;11;9312779;Bus : 39 N - Direction Auteuil;"";STL;39N;Terminus Le Carrefour Quai:6;Terminus Bienville
673264013;"{\"type\":\"LineString\",\"coordinates\":[[-73.7203325,45.5584776],[-73.7205612,45.55837]]}";2;"";1;30;false;true;false;false;false;false;22.0;0;0;0;0;0;false;"48039;48050";6269510332;-73.72043;45.558562;41028;6269510258;-73.72204;45.561381;0;10;11;9312779;Bus : 39 N - Direction Auteuil;"";STL;39N;Terminus Le Carrefour Quai:6;Terminus Bienville
673264014;"{\"type\":\"LineString\",\"coordinates\":[[-73.7205612,45.55837],[-73.7207712,45.5582711]]}";3;"";1;30;false;true;false;false;false;false;20.0;0;0;0;0;0;false;"48039;48050";6269510332;-73.72043;45.558562;41028;6269510258;-73.72204;45.561381;0;10;11;9312779;Bus : 39 N - Direction Auteuil;"";STL;39N;Terminus Le Carrefour Quai:6;Terminus Bienville
475848923;"{\"type\":\"LineString\",\"coordinates\":[[-73.7207712,45.5582711],[-73.7209137,45.558204]]}";4;"";1;30;false;true;true;false;false;false;14.0;0;0;0;0;0;false;"48039;48050";6269510332;-73.72043;45.558562;41028;6269510258;-73.72204;45.561381;0;10;11;9312779;Bus : 39 N - Direction Auteuil;"";STL;39N;Terminus Le Carrefour Quai:6;Terminus Bienville
673264015;"{\"type\":\"LineString\",\"coordinates\":[[-73.7209137,45.558204],[-73.7207353,45.5580182]]}";5;"";1;30;false;true;true;false;false;false;25.0;0;0;0;0;0;false;"48039;48050";6269510332;-73.72043;45.558562;41028;6269510258;-73.72204;45.561381;0;10;11;9312779;Bus : 39 N - Direction Auteuil;"";STL;39N;Terminus Le Carrefour Quai:6;Terminus Bienville
669689629;"{\"type\":\"LineString\",\"coordinates\":[[-73.7207353,45.5580182],[-73.720718,45.5580002],[-73.7204415,45.5581303]]}";6;"";1;30;false;true;true;false;false;false;29.0;0;0;0;0;0;false;"48039;48050";6269510332;-73.72043;45.558562;41028;6269510258;-73.72204;45.561381;0;10;11;9312779;Bus : 39 N - Direction Auteuil;"";STL;39N;Terminus Le Carrefour Quai:6;Terminus Bienville
669709387;"{\"type\":\"LineString\",\"coordinates\":[[-73.7204415,45.5581303],[-73.7202192,45.558235]]}";7;"";1;30;false;true;true;false;false;false;21.0;0;0;0;0;0;false;"48039;48050";6269510332;-73.72043;45.558562;41028;6269510258;-73.72204;45.561381;0;10;11;9312779;Bus : 39 N - Direction Auteuil;"";STL;39N;Terminus Le Carrefour Quai:6;Terminus Bienville
673264017;"{\"type\":\"LineString\",\"coordinates\":[[-73.7202192,45.558235],[-73.7200265,45.5583257]]}";8;"";1;30;false;true;true;false;false;false;19.0;0;0;0;0;0;false;"48039;48050";6269510332;-73.72043;45.558562;41028;6269510258;-73.72204;45.561381;0;10;11;9312779;Bus : 39 N - Direction Auteuil;"";STL;39N;Terminus Le Carrefour Quai:6;Terminus Bienville
669709385;"{\"type\":\"LineString\",\"coordinates\":[[-73.7200265,45.5583257],[-73.7199282,45.558372]]}";9;"";1;30;false;true;true;false;false;false;10.0;0;0;0;0;0;false;"48039;48050";6269510332;-73.72043;45.558562;41028;6269510258;-73.72204;45.561381;0;10;11;9312779;Bus : 39 N - Direction Auteuil;"";STL;39N;Terminus Le Carrefour Quai:6;Terminus Bienville
673250002;"{\"type\":\"LineString\",\"coordinates\":[[-73.7199282,45.558372],[-73.7200309,45.5584789]]}";10;"";1;30;false;true;false;false;false;false;15.0;0;0;0;0;0;false;"48039;48050";6269510332;-73.72043;45.558562;41028;6269510258;-73.72204;45.561381;0;10;11;9312779;Bus : 39 N - Direction Auteuil;"";STL;39N;Terminus Le Carrefour Quai:6;Terminus Bienville
673250003;"{\"type\":\"LineString\",\"coordinates\":[[-73.7200309,45.5584789],[-73.7198217,45.5586049],[-73.7197703,45.558636]]}";11;"";1;30;false;false;false;false;false;false;27.0;0;1;0;0;0;false;"48039;48050";6269510332;-73.72043;45.558562;41028;6269510258;-73.72204;45.561381;0;10;11;9312779;Bus : 39 N - Direction Auteuil;"";STL;39N;Terminus Le Carrefour Quai:6;Terminus Bienville
292607262;"{\"type\":\"LineString\",\"coordinates\":[[-73.7195653,45.558719],[-73.7197703,45.558636]]}";12;"";1;50;false;false;true;false;false;false;19.0;0;0;0;0;0;false;"48039;48050";6269510332;-73.72043;45.558562;41028;6269510258;-73.72204;45.561381;0;10;11;9312779;Bus : 39 N - Direction Auteuil;"";STL;39N;Terminus Le Carrefour Quai:6;Terminus Bienville
29081977;"{\"type\":\"LineString\",\"coordinates\":[[-73.7195653,45.558719],[-73.7196614,45.5588173],[-73.7199922,45.5591559],[-73.7204185,45.5595948]]}";13;Boulevard de l'Avenir;3;50;false;true;true;false;false;false;118.0;0;1;0;0;0;false;"48039;48050";6269510332;-73.72043;45.558562;41028;6269510258;-73.72204;45.561381;0;10;11;9312779;Bus : 39 N - Direction Auteuil;"";STL;39N;Terminus Le Carrefour Quai:6;Terminus Bienville
475848924;"{\"type\":\"LineString\",\"coordinates\":[[-73.7204185,45.5595948],[-73.7210127,45.5602042],[-73.7212014,45.5603978],[-73.7213245,45.560524],[-73.7225737,45.5618077]]}";14;Boulevard de l'Avenir;3;50;false;true;true;false;false;false;298.0;1;0;0;0;0;false;"48039;48050";6269510332;-73.72043;45.558562;41028;6269510258;-73.72204;45.561381;2;10;11;9312779;Bus : 39 N - Direction Auteuil;"";STL;39N;Terminus Le Carrefour Quai:6;Terminus Bienville
475848924;"{\"type\":\"LineString\",\"coordinates\":[[-73.7204185,45.5595948],[-73.7210127,45.5602042],[-73.7212014,45.5603978],[-73.7213245,45.560524],[-73.7225737,45.5618077]]}";1;Boulevard de l'Avenir;3;50;false;true;true;false;false;false;149.0;1;0;0;0;0;false;41028;6269510258;-73.72204;45.561381;43149;605440549;-73.72037;45.562446;1;11;12;9312779;Bus : 39 N - Direction Auteuil;"";STL;39N;Terminus Le Carrefour Quai:6;Terminus Bienville
165090589;"{\"type\":\"LineString\",\"coordinates\":[[-73.7225737,45.5618077],[-73.7212088,45.5622403],[-73.7210757,45.5622834],[-73.720329,45.5625718],[-73.7197017,45.5628442],[-73.7195808,45.5628967],[-73.7195508,45.5629116],[-73.718144,45.5636075],[-73.7179285,45.5637147],[-73.7172839,45.5640372]]}";2;Boulevard du Souvenir;3;50;false;true;true;false;false;false;241.5;2;0;0;0;0;false;41028;6269510258;-73.72204;45.561381;43149;605440549;-73.72037;45.562446;1;11;12;9312779;Bus : 39 N - Direction Auteuil;"";STL;39N;Terminus Le Carrefour Quai:6;Terminus Bienville
165090589;"{\"type\":\"LineString\",\"coordinates\":[[-73.7225737,45.5618077],[-73.7212088,45.5622403],[-73.7210757,45.5622834],[-73.720329,45.5625718],[-73.7197017,45.5628442],[-73.7195808,45.5628967],[-73.7195508,45.5629116],[-73.718144,45.5636075],[-73.7179285,45.5637147],[-73.7172839,45.5640372]]}";1;Boulevard du Souvenir;3;50;false;true;true;false;false;false;241.5;2;0;0;0;0;false;43149;605440549;-73.72037;45.562446;41915;6269509992;-73.71857;45.565707;1;12;13;9312779;Bus : 39 N - Direction Auteuil;"";STL;39N;Terminus Le Carrefour Quai:6;Terminus Bienville
475808343;"{\"type\":\"LineString\",\"coordinates\":[[-73.7172839,45.5640372],[-73.7171169,45.564123]]}";2;Boulevard du Souvenir;3;50;false;true;true;false;false;false;17.0;2;0;0;0;0;false;43149;605440549;-73.72037;45.562446;41915;6269509992;-73.71857;45.565707;0;12;13;9312779;Bus : 39 N - Direction Auteuil;"";STL;39N;Terminus Le Carrefour Quai:6;Terminus Bienville
475808337;"{\"type\":\"LineString\",\"coordinates\":[[-73.7171169,45.564123],[-73.717209,45.5642194]]}";3;Boulevard Laval;1;50;false;true;false;false;false;false;13.0;2;0;0;0;0;false;43149;605440549;-73.72037;45.562446;41915;6269509992;-73.71857;45.565707;0;12;13;9312779;Bus : 39 N - Direction Auteuil;"";STL;39N;Terminus Le Carrefour Quai:6;Terminus Bienville
32800153;"{\"type\":\"LineString\",\"coordinates\":[[-73.717209,45.5642194],[-73.7176013,45.5646133],[-73.7183009,45.5652706],[-73.7188819,45.5658078],[-73.7193851,45.5663167],[-73.7197311,45.566776],[-73.7198663,45.5670283],[-73.7199398,45.5672563],[-73.7200213,45.5675574],[-73.7200487,45.5679927],[-73.720075,45.5686366],[-73.720098,45.5690939],[-73.7201526,45.5700723],[-73.7201628,45.5701657],[-73.7202546,45.5705088],[-73.7203067,45.5706681],[-73.7203963,45.5708442],[-73.7205384,45.5710638],[-73.7206752,45.5712178]]}";4;Boulevard Laval;3;50;false;true;false;false;false;false;425.5;1;0;0;0;0;false;43149;605440549;-73.72037;45.562446;41915;6269509992;-73.71857;45.565707;1;12;13;9312779;Bus : 39 N - Direction Auteuil;"";STL;39N;Terminus Le Carrefour Quai:6;Terminus Bienville
32800153;"{\"type\":\"LineString\",\"coordinates\":[[-73.717209,45.5642194],[-73.7176013,45.5646133],[-73.7183009,45.5652706],[-73.7188819,45.5658078],[-73.7193851,45.5663167],[-73.7197311,45.566776],[-73.7198663,45.5670283],[-73.7199398,45.5672563],[-73.7200213,45.5675574],[-73.7200487,45.5679927],[-73.720075,45.5686366],[-73.720098,45.5690939],[-73.7201526,45.5700723],[-73.7201628,45.5701657],[-73.7202546,45.5705088],[-73.7203067,45.5706681],[-73.7203963,45.5708442],[-73.7205384,45.5710638],[-73.7206752,45.5712178]]}";1;Boulevard Laval;3;50;false;true;false;false;false;false;425.5;1;0;0;0;0;false;41921;6269509507;-73.72018;45.570847;42844;6269509358;-73.71864;45.572518;1;16;17;9312779;Bus : 39 N - Direction Auteuil;"";STL;39N;Terminus Le Carrefour Quai:6;Terminus Bienville
29155641;"{\"type\":\"LineString\",\"coordinates\":[[-73.7206752,45.5712178],[-73.7207802,45.5714781],[-73.7207898,45.5715521],[-73.7207646,45.5716149],[-73.720515,45.5718318]]}";2;"";1;50;false;true;true;false;false;false;77.0;0;0;0;0;0;false;41921;6269509507;-73.72018;45.570847;42844;6269509358;-73.71864;45.572518;0;16;17;9312779;Bus : 39 N - Direction Auteuil;"";STL;39N;Terminus Le Carrefour Quai:6;Terminus Bienville
37722262;"{\"type\":\"LineString\",\"coordinates\":[[-73.720515,45.5718318],[-73.7200701,45.5720217],[-73.7190082,45.572475],[-73.7188073,45.5725649],[-73.717904,45.572939],[-73.7169092,45.5735112],[-73.716005,45.5740296],[-73.7153794,45.5744063],[-73.714744,45.5748304],[-73.714152,45.5752527],[-73.7130579,45.5760867],[-73.7127425,45.5763141],[-73.7125876,45.5764258],[-73.7120893,45.5767866],[-73.711585,45.5771593],[-73.7114449,45.5772598],[-73.7104624,45.5780763],[-73.7103389,45.5781837],[-73.7087343,45.579674],[-73.7081337,45.5801718],[-73.7075918,45.5805716],[-73.7070529,45.5808714],[-73.7059229,45.5814878]]}";3;Boulevard Saint-Martin Ouest;3;60;false;true;false;false;false;false;788.0;0;0;0;0;0;false;41921;6269509507;-73.72018;45.570847;42844;6269509358;-73.71864;45.572518;1;16;17;9312779;Bus : 39 N - Direction Auteuil;"";STL;39N;Terminus Le Carrefour Quai:6;Terminus Bienville
37722262;"{\"type\":\"LineString\",\"coordinates\":[[-73.720515,45.5718318],[-73.7200701,45.5720217],[-73.7190082,45.572475],[-73.7188073,45.5725649],[-73.717904,45.572939],[-73.7169092,45.5735112],[-73.716005,45.5740296],[-73.7153794,45.5744063],[-73.714744,45.5748304],[-73.714152,45.5752527],[-73.7130579,45.5760867],[-73.7127425,45.5763141],[-73.7125876,45.5764258],[-73.7120893,45.5767866],[-73.711585,45.5771593],[-73.7114449,45.5772598],[-73.7104624,45.5780763],[-73.7103389,45.5781837],[-73.7087343,45.579674],[-73.7081337,45.5801718],[-73.7075918,45.5805716],[-73.7070529,45.5808714],[-73.7059229,45.5814878]]}";1;Boulevard Saint-Martin Ouest;3;60;false;true;false;false;false;false;788.0;0;0;0;0;0;false;42852;6269508939;-73.71046;45.577924;41814;6269508848;-73.70612;45.582737;1;20;21;9312779;Bus : 39 N - Direction Auteuil;"";STL;39N;Terminus Le Carrefour Quai:6;Terminus Bienville
452204242;"{\"type\":\"LineString\",\"coordinates\":[[-73.7059229,45.5814878],[-73.7054813,45.5817192]]}";2;Boulevard Saint-Martin Ouest;3;60;false;true;false;false;false;false;43.0;0;0;0;0;0;false;42852;6269508939;-73.71046;45.577924;41814;6269508848;-73.70612;45.582737;0;20;21;9312779;Bus : 39 N - Direction Auteuil;"";STL;39N;Terminus Le Carrefour Quai:6;Terminus Bienville
100170189;"{\"type\":\"LineString\",\"coordinates\":[[-73.7054813,45.5817192],[-73.7053967,45.5817671],[-73.7052532,45.5818483]]}";3;Boulevard Saint-Martin Est;3;60;false;true;true;false;false;false;23.0;0;0;0;0;0;false;42852;6269508939;-73.71046;45.577924;41814;6269508848;-73.70612;45.582737;0;20;21;9312779;Bus : 39 N - Direction Auteuil;"";STL;39N;Terminus Le Carrefour Quai:6;Terminus Bienville
436680546;"{\"type\":\"LineString\",\"coordinates\":[[-73.7052532,45.5818483],[-73.7053864,45.5819745]]}";4;Boulevard des Laurentides;1;50;false;true;true;false;false;false;18.0;0;0;0;0;0;false;42852;6269508939;-73.71046;45.577924;41814;6269508848;-73.70612;45.582737;0;20;21;9312779;Bus : 39 N - Direction Auteuil;"";STL;39N;Terminus Le Carrefour Quai:6;Terminus Bienville
452204247;"{\"type\":\"LineString\",\"coordinates\":[[-73.7053864,45.5819745],[-73.7056499,45.5822138]]}";5;Boulevard des Laurentides;1;50;false;true;true;false;false;false;34.0;0;0;0;0;0;false;42852;6269508939;-73.71046;45.577924;41814;6269508848;-73.70612;45.582737;0;20;21;9312779;Bus : 39 N - Direction Auteuil;"";STL;39N;Terminus Le Carrefour Quai:6;Terminus Bienville
436680547;"{\"type\":\"LineString\",\"coordinates\":[[-73.7056499,45.5822138],[-73.7075122,45.5838421],[-73.7084553,45.5847397],[-73.7089958,45.5851859],[-73.7092377,45.5853605]]}";6;Boulevard des Laurentides;1;50;false;true;true;false;false;false;224.0;0;0;0;0;0;false;42852;6269508939;-73.71046;45.577924;41814;6269508848;-73.70612;45.582737;1;20;21;9312779;Bus : 39 N - Direction Auteuil;"";STL;39N;Terminus Le Carrefour Quai:6;Terminus Bienville
436680547;"{\"type\":\"LineString\",\"coordinates\":[[-73.7056499,45.5822138],[-73.7075122,45.5838421],[-73.7084553,45.5847397],[-73.7089958,45.5851859],[-73.7092377,45.5853605]]}";1;Boulevard des Laurentides;1;50;false;true;true;false;false;false;224.0;0;0;0;0;0;false;41817;6269508828;-73.70735;45.583805;41820;6269508795;-73.70929;45.585601;1;22;23;9312779;Bus : 39 N - Direction Auteuil;"";STL;39N;Terminus Le Carrefour Quai:6;Terminus Bienville
23292070;"{\"type\":\"LineString\",\"coordinates\":[[-73.7092377,45.5853605],[-73.7110568,45.587011],[-73.7127438,45.5885415],[-73.7128208,45.5886113],[-73.7131232,45.5888858],[-73.7137609,45.5894643]]}";2;Boulevard des Laurentides;4;50;false;false;true;false;false;false;288.5;0;0;0;0;0;false;41817;6269508828;-73.70735;45.583805;41820;6269508795;-73.70929;45.585601;1;22;23;9312779;Bus : 39 N - Direction Auteuil;"";STL;39N;Terminus Le Carrefour Quai:6;Terminus Bienville
23292070;"{\"type\":\"LineString\",\"coordinates\":[[-73.7092377,45.5853605],[-73.7110568,45.587011],[-73.7127438,45.5885415],[-73.7128208,45.5886113],[-73.7131232,45.5888858],[-73.7137609,45.5894643]]}";1;Boulevard des Laurentides;4;50;false;false;true;false;false;false;288.5;0;0;0;0;0;false;41824;6269508703;-73.71327;45.589128;41826;6269508670;-73.7145;45.590559;1;25;26;9312779;Bus : 39 N - Direction Auteuil;"";STL;39N;Terminus Le Carrefour Quai:6;Terminus Bienville
453312145;"{\"type\":\"LineString\",\"coordinates\":[[-73.7137609,45.5894643],[-73.7142928,45.5902066],[-73.714455,45.5904265]]}";2;Boulevard des Laurentides;2;50;false;true;true;false;false;false;120.0;0;0;0;0;0;false;41824;6269508703;-73.71327;45.589128;41826;6269508670;-73.7145;45.590559;0;25;26;9312779;Bus : 39 N - Direction Auteuil;"";STL;39N;Terminus Le Carrefour Quai:6;Terminus Bienville
23292074;"{\"type\":\"LineString\",\"coordinates\":[[-73.714455,45.5904265],[-73.7148183,45.5908968],[-73.7148782,45.5909846],[-73.715175,45.59132]]}";3;Boulevard des Laurentides;2;50;false;true;true;false;false;false;57.5;0;0;0;0;0;false;41824;6269508703;-73.71327;45.589128;41826;6269508670;-73.7145;45.590559;1;25;26;9312779;Bus : 39 N - Direction Auteuil;"";STL;39N;Terminus Le Carrefour Quai:6;Terminus Bienville
453312145;"{\"type\":\"LineString\",\"coordinates\":[[-73.7137609,45.5894643],[-73.7142928,45.5902066],[-73.714455,45.5904265]]}";1;Boulevard des Laurentides;2;50;false;true;true;false;false;false;120.0;0;0;0;0;0;false;41826;6269508670;-73.7145;45.590559;41828;6269508378;-73.72003;45.595272;2;26;27;9312779;Bus : 39 N - Direction Auteuil;"";STL;39N;Terminus Le Carrefour Quai:6;Terminus Bienville
23292074;"{\"type\":\"LineString\",\"coordinates\":[[-73.714455,45.5904265],[-73.7148183,45.5908968],[-73.7148782,45.5909846],[-73.715175,45.59132]]}";2;Boulevard des Laurentides;2;50;false;true;true;false;false;false;115.0;0;0;0;0;0;false;41826;6269508670;-73.7145;45.590559;41828;6269508378;-73.72003;45.595272;0;26;27;9312779;Bus : 39 N - Direction Auteuil;"";STL;39N;Terminus Le Carrefour Quai:6;Terminus Bienville
481017015;"{\"type\":\"LineString\",\"coordinates\":[[-73.715175,45.59132],[-73.7154776,45.5916173],[-73.7155938,45.5917315]]}";3;Boulevard des Laurentides;2;50;false;true;true;false;false;false;57.0;0;0;0;0;0;false;41826;6269508670;-73.7145;45.590559;41828;6269508378;-73.72003;45.595272;0;26;27;9312779;Bus : 39 N - Direction Auteuil;"";STL;39N;Terminus Le Carrefour Quai:6;Terminus Bienville
37722248;"{\"type\":\"LineString\",\"coordinates\":[[-73.7155938,45.5917315],[-73.7159615,45.5920833]]}";4;Boulevard des Laurentides;2;50;false;true;true;false;false;false;49.0;0;0;0;0;0;false;41826;6269508670;-73.7145;45.590559;41828;6269508378;-73.72003;45.595272;0;26;27;9312779;Bus : 39 N - Direction Auteuil;"";STL;39N;Terminus Le Carrefour Quai:6;Terminus Bienville
511504674;"{\"type\":\"LineString\",\"coordinates\":[[-73.7159615,45.5920833],[-73.7161288,45.5922433]]}";5;Boulevard des Laurentides;2;50;false;true;true;false;false;false;23.0;0;0;0;0;0;false;41826;6269508670;-73.7145;45.590559;41828;6269508378;-73.72003;45.595272;0;26;27;9312779;Bus : 39 N - Direction Auteuil;"";STL;39N;Terminus Le Carrefour Quai:6;Terminus Bienville
483683382;"{\"type\":\"LineString\",\"coordinates\":[[-73.7161288,45.5922433],[-73.7161818,45.5922874]]}";6;Boulevard des Laurentides;2;50;false;true;true;false;false;false;7.0;0;0;0;0;0;false;41826;6269508670;-73.7145;45.590559;41828;6269508378;-73.72003;45.595272;0;26;27;9312779;Bus : 39 N - Direction Auteuil;"";STL;39N;Terminus Le Carrefour Quai:6;Terminus Bienville
511504669;"{\"type\":\"LineString\",\"coordinates\":[[-73.7161818,45.5922874],[-73.7163811,45.5924579],[-73.71656,45.5926074],[-73.716887,45.5928537],[-73.7171441,45.5930421]]}";7;Boulevard des Laurentides;2;50;false;true;true;false;false;false;113.0;0;0;0;0;0;false;41826;6269508670;-73.7145;45.590559;41828;6269508378;-73.72003;45.595272;0;26;27;9312779;Bus : 39 N - Direction Auteuil;"";STL;39N;Terminus Le Carrefour Quai:6;Terminus Bienville
37722249;"{\"type\":\"LineString\",\"coordinates\":[[-73.7171441,45.5930421],[-73.7185014,45.5939442],[-73.7192899,45.5945481],[-73.719687,45.5948774],[-73.7198448,45.5949882],[-73.7200206,45.5950952]]}";8;Boulevard des Laurentides;2;50;false;true;true;false;false;false;321.0;0;0;0;0;0;false;41826;6269508670;-73.7145;45.590559;41828;6269508378;-73.72003;45.595272;0;26;27;9312779;Bus : 39 N - Direction Auteuil;"";STL;39N;Terminus Le Carrefour Quai:6;Terminus Bienville
694161758;"{\"type\":\"LineString\",\"coordinates\":[[-73.7217949,45.596756],[-73.7209128,45.5959303],[-73.7202442,45.5953045],[-73.7200206,45.5950952]]}";9;Boulevard des Laurentides;4;50;false;false;true;false;false;false;231.0;0;0;0;0;0;false;41826;6269508670;-73.7145;45.590559;41828;6269508378;-73.72003;45.595272;2;26;27;9312779;Bus : 39 N - Direction Auteuil;"";STL;39N;Terminus Le Carrefour Quai:6;Terminus Bienville
37722249;"{\"type\":\"LineString\",\"coordinates\":[[-73.7171441,45.5930421],[-73.7185014,45.5939442],[-73.7192899,45.5945481],[-73.719687,45.5948774],[-73.7198448,45.5949882],[-73.7200206,45.5950952]]}";1;Boulevard des Laurentides;2;50;false;true;true;false;false;false;321.0;0;0;0;0;0;false;41828;6269508378;-73.72003;45.595272;41831;6269508368;-73.72142;45.596556;2;27;28;9312779;Bus : 39 N - Direction Auteuil;"";STL;39N;Terminus Le Carrefour Quai:6;Terminus Bienville
694161758;"{\"type\":\"LineString\",\"coordinates\":[[-73.7217949,45.596756],[-73.7209128,45.5959303],[-73.7202442,45.5953045],[-73.7200206,45.5950952]]}";2;Boulevard des Laurentides;4;50;false;false;true;false;false;false;231.0;0;0;0;0;0;false;41828;6269508378;-73.72003;45.595272;41831;6269508368;-73.72142;45.596556;2;27;28;9312779;Bus : 39 N - Direction Auteuil;"";STL;39N;Terminus Le Carrefour Quai:6;Terminus Bienville
694161758;"{\"type\":\"LineString\",\"coordinates\":[[-73.7217949,45.596756],[-73.7209128,45.5959303],[-73.7202442,45.5953045],[-73.7200206,45.5950952]]}";1;Boulevard des Laurentides;4;50;false;false;true;false;false;false;115.5;0;0;0;0;0;false;41831;6269508368;-73.72142;45.596556;41130;6269507932;-73.7205;45.59735;1;28;29;9312779;Bus : 39 N - Direction Auteuil;"";STL;39N;Terminus Le Carrefour Quai:6;Terminus Bienville
41338897;"{\"type\":\"LineString\",\"coordinates\":[[-73.7185425,45.5987581],[-73.7186566,45.5984633],[-73.7187757,45.5983312],[-73.7194757,45.5979552],[-73.7204372,45.5974543],[-73.721267,45.5970261],[-73.7217949,45.596756]]}";2;Rue De la Bernina;1;50;false;false;true;false;false;false;172.5;0;0;0;0;0;false;41831;6269508368;-73.72142;45.596556;41130;6269507932;-73.7205;45.59735;1;28;29;9312779;Bus : 39 N - Direction Auteuil;"";STL;39N;Terminus Le Carrefour Quai:6;Terminus Bienville
41338602;"{\"type\":\"LineString\",\"coordinates\":[[-73.7185425,45.5987581],[-73.718939,45.5988564],[-73.7192567,45.5990083],[-73.7203451,45.6000304],[-73.7212283,45.6008609],[-73.7213121,45.6010845],[-73.7213292,45.6013015],[-73.7213043,45.6014844],[-73.7208761,45.6026196],[-73.7206241,45.6029858],[-73.719847,45.6034024],[-73.7188722,45.6039218],[-73.7179408,45.6044116],[-73.7171683,45.6048019],[-73.7158466,45.6055285]]}";1;Rue de Lucerne;2;50;false;false;true;false;false;false;516.5;0;0;0;0;0;false;42160;6269507925;-73.71798;45.604302;42718;6269507872;-73.71623;45.606167;1;35;36;9312779;Bus : 39 N - Direction Auteuil;"";STL;39N;Terminus Le Carrefour Quai:6;Terminus Bienville
679314265;"{\"type\":\"LineString\",\"coordinates\":[[-73.7158466,45.6055285],[-73.7157155,45.6055985]]}";2;Boulevard Yvan-Pavlov;1;50;false;false;true;false;false;false;13.0;0;0;0;0;0;false;42160;6269507925;-73.71798;45.604302;42718;6269507872;-73.71623;45.606167;0;35;36;9312779;Bus : 39 N - Direction Auteuil;"";STL;39N;Terminus Le Carrefour Quai:6;Terminus Bienville
679314268;"{\"type\":\"LineString\",\"coordinates\":[[-73.7157155,45.6055985],[-73.7173694,45.6071186],[-73.7176117,45.6073413],[-73.7182052,45.6078995],[-73.7190011,45.6087245],[-73.7200342,45.6096926],[-73.7204013,45.6100366]]}";3;Boulevard René-Laennec;2;50;false;true;true;false;false;false;307.0;0;0;0;0;0;false;42160;6269507925;-73.71798;45.604302;42718;6269507872;-73.71623;45.606167;1;35;36;9312779;Bus : 39 N - Direction Auteuil;"";STL;39N;Terminus Le Carrefour Quai:6;Terminus Bienville
679314268;"{\"type\":\"LineString\",\"coordinates\":[[-73.7157155,45.6055985],[-73.7173694,45.6071186],[-73.7176117,45.6073413],[-73.7182052,45.6078995],[-73.7190011,45.6087245],[-73.7200342,45.6096926],[-73.7204013,45.6100366]]}";1;Boulevard René-Laennec;2;50;false;true;true;false;false;false;307.0;0;0;0;0;0;false;42717;6269507821;-73.72014;45.609921;45014;6269507788;-73.72125;45.611359;1;38;39;9312779;Bus : 39 N - Direction Auteuil;"";STL;39N;Terminus Le Carrefour Quai:6;Terminus Bienville
669902219;"{\"type\":\"LineString\",\"coordinates\":[[-73.7204013,45.6100366],[-73.7205301,45.6101737],[-73.7214606,45.6114323],[-73.7223272,45.6125659],[-73.7228119,45.6131871],[-73.7229335,45.6133839],[-73.7231544,45.614003],[-73.7232717,45.6144419],[-73.7232821,45.6148718],[-73.7232728,45.6151707],[-73.7231244,45.6158432]]}";2;Boulevard René-Laennec;2;50;false;true;true;false;false;false;349.5;0;0;0;0;0;false;42717;6269507821;-73.72014;45.609921;45014;6269507788;-73.72125;45.611359;1;38;39;9312779;Bus : 39 N - Direction Auteuil;"";STL;39N;Terminus Le Carrefour Quai:6;Terminus Bienville
118165286;"{\"type\":\"LineString\",\"coordinates\":[[-73.7231244,45.6158432],[-73.7231438,45.6159301]]}";1;Boulevard René-Laennec;2;50;false;true;false;false;false;false;10.0;0;0;0;0;0;false;42709;648582337;-73.72308;45.615737;42710;6269507680;-73.72265;45.618561;2;42;43;9312779;Bus : 39 N - Direction Auteuil;"";STL;39N;Terminus Le Carrefour Quai:6;Terminus Bienville
52585690;"{\"type\":\"LineString\",\"coordinates\":[[-73.7231438,45.6159301],[-73.7230455,45.616466],[-73.7227838,45.6180258],[-73.7227365,45.6184284],[-73.722791,45.6186879],[-73.7228096,45.6187762],[-73.7230842,45.6191724],[-73.7235475,45.6195729],[-73.7236301,45.6196402],[-73.7237193,45.6197129],[-73.7237818,45.6197638]]}";2;Boulevard René-Laennec;2;50;false;true;false;false;false;false;453.0;0;0;0;0;0;false;42709;648582337;-73.72308;45.615737;42710;6269507680;-73.72265;45.618561;2;42;43;9312779;Bus : 39 N - Direction Auteuil;"";STL;39N;Terminus Le Carrefour Quai:6;Terminus Bienville
52585690;"{\"type\":\"LineString\",\"coordinates\":[[-73.7231438,45.6159301],[-73.7230455,45.616466],[-73.7227838,45.6180258],[-73.7227365,45.6184284],[-73.722791,45.6186879],[-73.7228096,45.6187762],[-73.7230842,45.6191724],[-73.7235475,45.6195729],[-73.7236301,45.6196402],[-73.7237193,45.6197129],[-73.7237818,45.6197638]]}";1;Boulevard René-Laennec;2;50;false;true;false;false;false;false;226.5;0;0;0;0;0;false;42710;6269507680;-73.72265;45.618561;41099;648577973;-73.72456;45.619343;1;43;44;9312779;Bus : 39 N - Direction Auteuil;"";STL;39N;Terminus Le Carrefour Quai:6;Terminus Bienville
41337635;"{\"type\":\"LineString\",\"coordinates\":[[-73.7237818,45.6197638],[-73.723918,45.6196687],[-73.724699,45.6191704],[-73.7250681,45.6188583],[-73.7257633,45.6178977],[-73.7259779,45.6175735],[-73.726815,45.6164689],[-73.7268877,45.6163729],[-73.7272225,45.6160907],[-73.7278478,45.6157207],[-73.7284756,45.6154303],[-73.7293831,45.6150504],[-73.7298351,45.6147951],[-73.730424,45.6143857],[-73.7320573,45.6133073],[-73.7328463,45.6128506],[-73.7343893,45.6120562],[-73.7348786,45.611792],[-73.7357046,45.611337],[-73.7360791,45.6111308]]}";2;Boulevard Bellerose Est;2;50;false;true;false;false;false;false;689.5;0;0;0;0;0;false;42710;6269507680;-73.72265;45.618561;41099;648577973;-73.72456;45.619343;1;43;44;9312779;Bus : 39 N - Direction Auteuil;"";STL;39N;Terminus Le Carrefour Quai:6;Terminus Bienville
41337635;"{\"type\":\"LineString\",\"coordinates\":[[-73.7237818,45.6197638],[-73.723918,45.6196687],[-73.724699,45.6191704],[-73.7250681,45.6188583],[-73.7257633,45.6178977],[-73.7259779,45.6175735],[-73.726815,45.6164689],[-73.7268877,45.6163729],[-73.7272225,45.6160907],[-73.7278478,45.6157207],[-73.7284756,45.6154303],[-73.7293831,45.6150504],[-73.7298351,45.6147951],[-73.730424,45.6143857],[-73.7320573,45.6133073],[-73.7328463,45.6128506],[-73.7343893,45.6120562],[-73.7348786,45.611792],[-73.7357046,45.611337],[-73.7360791,45.6111308]]}";1;Boulevard Bellerose Est;2;50;false;true;false;false;false;false;689.5;0;0;0;0;0;false;41094;6269507789;-73.73556;45.611492;41848;6269507792;-73.73648;45.611629;1;49;50;9312779;Bus : 39 N - Direction Auteuil;"";STL;39N;Terminus Le Carrefour Quai:6;Terminus Bienville
265243759;"{\"type\":\"LineString\",\"coordinates\":[[-73.7360791,45.6111308],[-73.7362678,45.6111408],[-73.7364561,45.6111733]]}";2;"";1;50;false;true;true;false;false;false;30.0;0;0;0;0;0;false;41094;6269507789;-73.73556;45.611492;41848;6269507792;-73.73648;45.611629;0;49;50;9312779;Bus : 39 N - Direction Auteuil;"";STL;39N;Terminus Le Carrefour Quai:6;Terminus Bienville
453313642;"{\"type\":\"LineString\",\"coordinates\":[[-73.7364561,45.6111733],[-73.736659,45.6118593]]}";3;Boulevard des Laurentides;2;50;false;true;true;false;false;false;39.0;0;0;0;0;0;false;41094;6269507789;-73.73556;45.611492;41848;6269507792;-73.73648;45.611629;1;49;50;9312779;Bus : 39 N - Direction Auteuil;"";STL;39N;Terminus Le Carrefour Quai:6;Terminus Bienville
453313642;"{\"type\":\"LineString\",\"coordinates\":[[-73.7364561,45.6111733],[-73.736659,45.6118593]]}";1;Boulevard des Laurentides;2;50;false;true;true;false;false;false;39.0;0;0;0;0;0;false;41848;6269507792;-73.73648;45.611629;41849;6269507765;-73.73761;45.613288;1;50;51;9312779;Bus : 39 N - Direction Auteuil;"";STL;39N;Terminus Le Carrefour Quai:6;Terminus Bienville
455260226;"{\"type\":\"LineString\",\"coordinates\":[[-73.7400403,45.6154592],[-73.7396278,45.6150647],[-73.7387648,45.6142395],[-73.7378909,45.6134045],[-73.7374315,45.6129487],[-73.7371568,45.6126485],[-73.7370187,45.612488],[-73.7368022,45.612143],[-73.7367228,45.612007],[-73.736659,45.6118593]]}";2;Boulevard des Laurentides;4;50;false;false;true;false;false;false;240.5;0;0;0;0;0;false;41848;6269507792;-73.73648;45.611629;41849;6269507765;-73.73761;45.613288;1;50;51;9312779;Bus : 39 N - Direction Auteuil;"";STL;39N;Terminus Le Carrefour Quai:6;Terminus Bienville
455269000;"{\"type\":\"LineString\",\"coordinates\":[[-73.7455032,45.620589],[-73.7446231,45.6197693]]}";1;Boulevard des Laurentides;4;50;false;false;true;false;false;false;114.0;1;0;0;0;0;false;41856;698029122;-73.74448;45.619743;41858;6269507645;-73.7465;45.621637;2;54;55;9312779;Bus : 39 N - Direction Auteuil;"";STL;39N;Terminus Le Carrefour Quai:6;Terminus Bienville
686611413;"{\"type\":\"LineString\",\"coordinates\":[[-73.7467167,45.6217277],[-73.7455032,45.620589]]}";2;Boulevard des Laurentides;4;50;false;false;true;false;false;false;158.0;1;0;0;0;0;false;41856;698029122;-73.74448;45.619743;41858;6269507645;-73.7465;45.621637;2;54;55;9312779;Bus : 39 N - Direction Auteuil;"";STL;39N;Terminus Le Carrefour Quai:6;Terminus Bienville
544424356;"{\"type\":\"LineString\",\"coordinates\":[[-73.7482323,45.6231499],[-73.7467167,45.6217277]]}";1;Boulevard des Laurentides;4;50;false;false;true;false;false;false;198.0;1;0;0;0;0;false;41858;6269507645;-73.7465;45.621637;41860;6269507615;-73.7484;45.62343;2;55;56;9312779;Bus : 39 N - Direction Auteuil;"";STL;39N;Terminus Le Carrefour Quai:6;Terminus Bienville
46302742;"{\"type\":\"LineString\",\"coordinates\":[[-73.7519892,45.6284861],[-73.7514819,45.6265813],[-73.7514291,45.6264151],[-73.7512443,45.6260802],[-73.751084,45.625858],[-73.7507723,45.6255315],[-73.7505717,45.6253425],[-73.7497516,45.6245739],[-73.7494982,45.6243363],[-73.748602,45.6234964],[-73.7482323,45.6231499]]}";2;Boulevard des Laurentides;4;50;false;false;true;false;false;false;676.0;1;0;0;0;0;false;41858;6269507645;-73.7465;45.621637;41860;6269507615;-73.7484;45.62343;2;55;56;9312779;Bus : 39 N - Direction Auteuil;"";STL;39N;Terminus Le Carrefour Quai:6;Terminus Bienville
46302834;"{\"type\":\"LineString\",\"coordinates\":[[-73.7519892,45.6284861],[-73.7519271,45.6285891],[-73.7520613,45.6291521],[-73.7524328,45.6304388]]}";1;Boulevard des Laurentides;2;50;false;true;true;false;false;false;111.0;2;0;0;0;0;false;41867;6269507539;-73.75222;45.629939;41869;6269507526;-73.75277;45.631684;1;59;60;9312779;Bus : 39 N - Direction Auteuil;"";STL;39N;Terminus Le Carrefour Quai:6;Terminus Bienville
686078339;"{\"type\":\"LineString\",\"coordinates\":[[-73.7524328,45.6304388],[-73.7526603,45.6311532],[-73.7527698,45.6312639]]}";2;Boulevard des Laurentides;2;50;false;true;true;false;false;false;97.0;1;0;0;0;0;false;41867;6269507539;-73.75222;45.629939;41869;6269507526;-73.75277;45.631684;0;59;60;9312779;Bus : 39 N - Direction Auteuil;"";STL;39N;Terminus Le Carrefour Quai:6;Terminus Bienville
45289922;"{\"type\":\"LineString\",\"coordinates\":[[-73.7555723,45.6408757],[-73.7549784,45.6388653],[-73.7547047,45.6379031],[-73.7545546,45.6373773],[-73.7543724,45.6367691],[-73.7543289,45.6366239],[-73.754212,45.6362341],[-73.754131,45.6359638],[-73.7540991,45.6358574],[-73.7540854,45.6358118],[-73.7540712,45.6357645],[-73.7536418,45.6343323],[-73.7532601,45.633032],[-73.7531562,45.6326621],[-73.7530374,45.632239],[-73.7529152,45.6318041],[-73.7527698,45.6312639]]}";3;Boulevard des Laurentides;4;50;false;false;true;false;false;false;545.0;2;0;0;0;0;false;41867;6269507539;-73.75222;45.629939;41869;6269507526;-73.75277;45.631684;1;59;60;9312779;Bus : 39 N - Direction Auteuil;"";STL;39N;Terminus Le Carrefour Quai:6;Terminus Bienville
694196055;"{\"type\":\"LineString\",\"coordinates\":[[-73.7543477,45.6447451],[-73.7537012,45.6451721],[-73.7524223,45.6458862]]}";1;Boulevard des Laurentides;4;50;false;false;true;false;false;false;98.5;1;0;0;0;0;false;41884;6269507417;-73.75261;45.645658;46438;6269507411;-73.75044;45.646896;1;67;68;9312779;Bus : 39 N - Direction Auteuil;"";STL;39N;Terminus Le Carrefour Quai:6;Terminus Bienville
53332411;"{\"type\":\"LineString\",\"coordinates\":[[-73.7524223,45.6458862],[-73.7514961,45.646332],[-73.7507324,45.6467415],[-73.7504224,45.6470045],[-73.750209,45.6472856],[-73.7500265,45.6475667],[-73.7497447,45.6479892],[-73.7494497,45.6484612],[-73.748926,45.649281],[-73.7487461,45.6495782],[-73.7486383,45.6497966],[-73.7484693,45.6502605],[-73.7484361,45.6504215],[-73.7483893,45.6507053],[-73.7483547,45.6510296],[-73.7483364,45.6512972],[-73.7483217,45.6521419],[-73.7483292,45.6524562],[-73.7483093,45.6527542],[-73.7482828,45.6529997]]}";2;Boulevard des Laurentides;2;50;false;false;false;false;false;false;449.5;1;0;0;0;0;false;41884;6269507417;-73.75261;45.645658;46438;6269507411;-73.75044;45.646896;1;67;68;9312779;Bus : 39 N - Direction Auteuil;"";STL;39N;Terminus Le Carrefour Quai:6;Terminus Bienville
53332411;"{\"type\":\"LineString\",\"coordinates\":[[-73.7524223,45.6458862],[-73.7514961,45.646332],[-73.7507324,45.6467415],[-73.7504224,45.6470045],[-73.750209,45.6472856],[-73.7500265,45.6475667],[-73.7497447,45.6479892],[-73.7494497,45.6484612],[-73.748926,45.649281],[-73.7487461,45.6495782],[-73.7486383,45.6497966],[-73.7484693,45.6502605],[-73.7484361,45.6504215],[-73.7483893,45.6507053],[-73.7483547,45.6510296],[-73.7483364,45.6512972],[-73.7483217,45.6521419],[-73.7483292,45.6524562],[-73.7483093,45.6527542],[-73.7482828,45.6529997]]}";1;Boulevard des Laurentides;2;50;false;false;false;false;false;false;449.5;1;0;0;0;0;false;41070;6269507389;-73.74825;45.651085;41892;6269507278;-73.74851;45.653263;1;71;72;9312779;Bus : 39 N - Direction Auteuil;"";STL;39N;Terminus Le Carrefour Quai:6;Terminus Bienville
53332410;"{\"type\":\"LineString\",\"coordinates\":[[-73.7482828,45.6529997],[-73.7484522,45.6529765],[-73.7485738,45.6529562]]}";2;Rue Bergeron;2;50;false;false;false;false;false;false;24.0;0;0;0;0;0;false;41070;6269507389;-73.74825;45.651085;41892;6269507278;-73.74851;45.653263;0;71;72;9312779;Bus : 39 N - Direction Auteuil;"";STL;39N;Terminus Le Carrefour Quai:6;Terminus Bienville
32641588;"{\"type\":\"LineString\",\"coordinates\":[[-73.7485738,45.6529562],[-73.748626,45.65305],[-73.7486353,45.6531613],[-73.7485656,45.6534419],[-73.7485452,45.6535846],[-73.748556,45.6537107],[-73.7489719,45.6551502],[-73.7493423,45.656395]]}";3;Rue Bienville;2;50;false;false;false;false;false;false;195.0;0;0;0;0;0;false;41070;6269507389;-73.74825;45.651085;41892;6269507278;-73.74851;45.653263;1;71;72;9312779;Bus : 39 N - Direction Auteuil;"";STL;39N;Terminus Le Carrefour Quai:6;Terminus Bienville
32641588;"{\"type\":\"LineString\",\"coordinates\":[[-73.7485738,45.6529562],[-73.748626,45.65305],[-73.7486353,45.6531613],[-73.7485656,45.6534419],[-73.7485452,45.6535846],[-73.748556,45.6537107],[-73.7489719,45.6551502],[-73.7493423,45.656395]]}";1;Rue Bienville;2;50;false;false;false;false;false;false;195.0;0;0;0;0;0;false;41892;6269507278;-73.74851;45.653263;"49017;49145;49039";6269507271;-73.74969;45.657838;1;72;73;9312779;Bus : 39 N - Direction Auteuil;"";STL;39N;Terminus Le Carrefour Quai:6;Terminus Bienville
45289919;"{\"type\":\"LineString\",\"coordinates\":[[-73.7493423,45.656395],[-73.749618,45.6573037]]}";2;Rue Bienville;1;50;false;false;true;false;false;false;104.0;0;0;0;0;0;false;41892;6269507278;-73.74851;45.653263;"49017;49145;49039";6269507271;-73.74969;45.657838;0;72;73;9312779;Bus : 39 N - Direction Auteuil;"";STL;39N;Terminus Le Carrefour Quai:6;Terminus Bienville
679623761;"{\"type\":\"LineString\",\"coordinates\":[[-73.749618,45.6573037],[-73.7496436,45.6574531],[-73.7496865,45.6575988],[-73.7497574,45.6578243]]}";3;Rue Bienville;1;50;false;false;true;false;false;false;59.0;0;0;0;0;0;false;41892;6269507278;-73.74851;45.653263;"49017;49145;49039";6269507271;-73.74969;45.657838;1;72;73;9312779;Bus : 39 N - Direction Auteuil;"";STL;39N;Terminus Le Carrefour Quai:6;Terminus Bienville
