way_id;shape;index;name;nb_lanes;legal_speed;speed_zone_30;oneway;shares_bike;bike_box;bus_lane;dedicated_bus_lane;length;nb_traffic_signals;nb_crossings;nb_stops;nb_give_ways;nb_lvl_crossings;roundabout;stop_id_orig;node_id_orig;coord_x_orig;coord_y_orig;stop_id_dest;node_id_dest;coord_x_dest;coord_y_dest;nb_neighbouring_ways_bus_stop;ordre_orig;ordre_dest;id_line;line_name;colour;operator;ref;from;to
495992804;"{\"type\":\"LineString\",\"coordinates\":[[135.7585774,34.986615],[135.7583773,34.9866134]]}";1;"";1;50;false;true;true;false;true;false;19.0;0;0;0;0;0;false;京都駅前;2794181942;135.758579;34.9865692;塩小路高倉;3004644477;135.7636427;34.987327;1;0;1;3946069;バス: 17: 京都駅前 => 錦林車庫前;"";京都市交通局;17;京都駅前;錦林車庫前
495992811;"{\"type\":\"LineString\",\"coordinates\":[[135.7583773,34.9866134],[135.7582268,34.9866126]]}";2;"";1;50;false;true;true;false;true;false;14.0;0;0;0;0;0;false;京都駅前;2794181942;135.758579;34.9865692;塩小路高倉;3004644477;135.7636427;34.987327;0;0;1;3946069;バス: 17: 京都駅前 => 錦林車庫前;"";京都市交通局;17;京都駅前;錦林車庫前
274176325;"{\"type\":\"LineString\",\"coordinates\":[[135.7582268,34.9866126],[135.7581986,34.9867262]]}";3;"";1;50;false;true;true;false;true;false;14.0;0;0;0;0;0;false;京都駅前;2794181942;135.758579;34.9865692;塩小路高倉;3004644477;135.7636427;34.987327;0;0;1;3946069;バス: 17: 京都駅前 => 錦林車庫前;"";京都市交通局;17;京都駅前;錦林車庫前
536429013;"{\"type\":\"LineString\",\"coordinates\":[[135.7581986,34.9867262],[135.7581805,34.9867783]]}";4;"";1;50;false;true;true;false;true;false;7.0;0;0;0;0;0;false;京都駅前;2794181942;135.758579;34.9865692;塩小路高倉;3004644477;135.7636427;34.987327;0;0;1;3946069;バス: 17: 京都駅前 => 錦林車庫前;"";京都市交通局;17;京都駅前;錦林車庫前
174762083;"{\"type\":\"LineString\",\"coordinates\":[[135.7581805,34.9867783],[135.7581721,34.9867968],[135.7581594,34.9868136],[135.758143,34.9868281],[135.7581235,34.9868397],[135.7581015,34.986848],[135.7580781,34.9868526],[135.758054,34.9868533]]}";5;"";1;50;false;true;true;false;true;false;16.0;0;0;0;0;0;false;京都駅前;2794181942;135.758579;34.9865692;塩小路高倉;3004644477;135.7636427;34.987327;0;0;1;3946069;バス: 17: 京都駅前 => 錦林車庫前;"";京都市交通局;17;京都駅前;錦林車庫前
536429012;"{\"type\":\"LineString\",\"coordinates\":[[135.758054,34.9868533],[135.758001,34.9868546]]}";6;"";1;50;false;true;true;false;true;false;5.0;0;0;0;0;0;false;京都駅前;2794181942;135.758579;34.9865692;塩小路高倉;3004644477;135.7636427;34.987327;0;0;1;3946069;バス: 17: 京都駅前 => 錦林車庫前;"";京都市交通局;17;京都駅前;錦林車庫前
495992812;"{\"type\":\"LineString\",\"coordinates\":[[135.758001,34.9868546],[135.7576615,34.9868512]]}";7;"";2;50;false;true;true;false;true;false;32.0;0;0;0;0;0;false;京都駅前;2794181942;135.758579;34.9865692;塩小路高倉;3004644477;135.7636427;34.987327;0;0;1;3946069;バス: 17: 京都駅前 => 錦林車庫前;"";京都市交通局;17;京都駅前;錦林車庫前
495992813;"{\"type\":\"LineString\",\"coordinates\":[[135.7576615,34.9868512],[135.7576193,34.9868759],[135.7575996,34.986891],[135.7575859,34.9869104],[135.7575794,34.986932],[135.7575789,34.9870741],[135.7575782,34.9871521]]}";8;"";1;50;false;true;true;false;true;false;38.0;0;0;0;0;0;false;京都駅前;2794181942;135.758579;34.9865692;塩小路高倉;3004644477;135.7636427;34.987327;0;0;1;3946069;バス: 17: 京都駅前 => 錦林車庫前;"";京都市交通局;17;京都駅前;錦林車庫前
385665662;"{\"type\":\"LineString\",\"coordinates\":[[135.7575782,34.9871521],[135.7575775,34.9872315]]}";9;"";1;50;false;true;true;false;true;false;9.0;0;0;0;0;0;false;京都駅前;2794181942;135.758579;34.9865692;塩小路高倉;3004644477;135.7636427;34.987327;0;0;1;3946069;バス: 17: 京都駅前 => 錦林車庫前;"";京都市交通局;17;京都駅前;錦林車庫前
174742689;"{\"type\":\"LineString\",\"coordinates\":[[135.7575775,34.9872315],[135.7576406,34.9872259]]}";10;塩小路通;2;50;false;true;true;false;false;false;6.0;0;0;0;0;0;false;京都駅前;2794181942;135.758579;34.9865692;塩小路高倉;3004644477;135.7636427;34.987327;0;0;1;3946069;バス: 17: 京都駅前 => 錦林車庫前;"";京都市交通局;17;京都駅前;錦林車庫前
296213731;"{\"type\":\"LineString\",\"coordinates\":[[135.7576406,34.9872259],[135.7581157,34.9872239],[135.7582747,34.9872233],[135.7589929,34.9872203],[135.7595028,34.9872182]]}";11;塩小路通;2;50;false;true;true;false;false;false;174.0;0;1;0;0;0;false;京都駅前;2794181942;135.758579;34.9865692;塩小路高倉;3004644477;135.7636427;34.987327;0;0;1;3946069;バス: 17: 京都駅前 => 錦林車庫前;"";京都市交通局;17;京都駅前;錦林車庫前
174762074;"{\"type\":\"LineString\",\"coordinates\":[[135.7595028,34.9872182],[135.7597012,34.9872218]]}";12;塩小路通;2;50;false;true;true;false;false;false;19.0;1;1;0;0;0;false;京都駅前;2794181942;135.758579;34.9865692;塩小路高倉;3004644477;135.7636427;34.987327;0;0;1;3946069;バス: 17: 京都駅前 => 錦林車庫前;"";京都市交通局;17;京都駅前;錦林車庫前
54982321;"{\"type\":\"LineString\",\"coordinates\":[[135.7597012,34.9872218],[135.7597546,34.9872232],[135.7597779,34.9872232],[135.7598307,34.987224]]}";13;塩小路通;2;50;false;true;true;false;false;false;13.0;2;0;0;0;0;false;京都駅前;2794181942;135.758579;34.9865692;塩小路高倉;3004644477;135.7636427;34.987327;0;0;1;3946069;バス: 17: 京都駅前 => 錦林車庫前;"";京都市交通局;17;京都駅前;錦林車庫前
174762075;"{\"type\":\"LineString\",\"coordinates\":[[135.7598307,34.987224],[135.7599844,34.9872266],[135.7603909,34.9872345],[135.7606922,34.9872385],[135.7608079,34.987244],[135.7609602,34.9872558],[135.7610181,34.987259],[135.7611054,34.9872691]]}";14;塩小路通;2;40;false;true;true;false;false;false;119.0;2;3;0;0;0;false;京都駅前;2794181942;135.758579;34.9865692;塩小路高倉;3004644477;135.7636427;34.987327;0;0;1;3946069;バス: 17: 京都駅前 => 錦林車庫前;"";京都市交通局;17;京都駅前;錦林車庫前
711986119;"{\"type\":\"LineString\",\"coordinates\":[[135.7611054,34.9872691],[135.7611207,34.9872709],[135.7612155,34.9872795],[135.7619162,34.9872824],[135.7626566,34.9872923]]}";15;塩小路通;2;40;false;true;true;false;false;false;145.0;2;2;0;0;0;false;京都駅前;2794181942;135.758579;34.9865692;塩小路高倉;3004644477;135.7636427;34.987327;0;0;1;3946069;バス: 17: 京都駅前 => 錦林車庫前;"";京都市交通局;17;京都駅前;錦林車庫前
27279149;"{\"type\":\"LineString\",\"coordinates\":[[135.7626566,34.9872923],[135.7629734,34.9872926],[135.7634145,34.9872922],[135.7636986,34.9872784],[135.7639473,34.9872747],[135.7639992,34.9872738],[135.7640326,34.9872727],[135.7641827,34.9872521]]}";16;塩小路通;2;50;false;true;true;false;false;false;143.0;2;0;0;0;0;false;京都駅前;2794181942;135.758579;34.9865692;塩小路高倉;3004644477;135.7636427;34.987327;2;0;1;3946069;バス: 17: 京都駅前 => 錦林車庫前;"";京都市交通局;17;京都駅前;錦林車庫前
27279149;"{\"type\":\"LineString\",\"coordinates\":[[135.7626566,34.9872923],[135.7629734,34.9872926],[135.7634145,34.9872922],[135.7636986,34.9872784],[135.7639473,34.9872747],[135.7639992,34.9872738],[135.7640326,34.9872727],[135.7641827,34.9872521]]}";1;塩小路通;2;50;false;true;true;false;false;false;71.5;2;0;0;0;0;false;塩小路高倉;3004644477;135.7636427;34.987327;七条河原町;3004644473;135.764125;34.9885402;1;1;2;3946069;バス: 17: 京都駅前 => 錦林車庫前;"";京都市交通局;17;京都駅前;錦林車庫前
273673324;"{\"type\":\"LineString\",\"coordinates\":[[135.7641827,34.9872521],[135.7641835,34.9874225],[135.7641863,34.9879855],[135.7641873,34.9881852],[135.7641874,34.9882137],[135.7641711,34.9885452],[135.7641459,34.9890564],[135.7642097,34.9892618]]}";2;河原町通;2;40;false;true;true;false;false;false;114.0;2;0;0;0;0;false;塩小路高倉;3004644477;135.7636427;34.987327;七条河原町;3004644473;135.764125;34.9885402;1;1;2;3946069;バス: 17: 京都駅前 => 錦林車庫前;"";京都市交通局;17;京都駅前;錦林車庫前
273673324;"{\"type\":\"LineString\",\"coordinates\":[[135.7641827,34.9872521],[135.7641835,34.9874225],[135.7641863,34.9879855],[135.7641873,34.9881852],[135.7641874,34.9882137],[135.7641711,34.9885452],[135.7641459,34.9890564],[135.7642097,34.9892618]]}";1;河原町通;2;40;false;true;true;false;false;false;114.0;2;0;0;0;0;false;七条河原町;3004644473;135.764125;34.9885402;河原町正面;3004644481;135.7641056;34.9917516;1;2;3;3946069;バス: 17: 京都駅前 => 錦林車庫前;"";京都市交通局;17;京都駅前;錦林車庫前
174762069;"{\"type\":\"LineString\",\"coordinates\":[[135.766197,34.9957872],[135.7660777,34.9955982],[135.7657754,34.9951601],[135.7653996,34.9945899],[135.7650731,34.9940244],[135.7648577,34.9935994],[135.7646986,34.9932857],[135.7644906,34.9929057],[135.7642285,34.9923133],[135.7642117,34.9921993],[135.7642119,34.9917755],[135.764212,34.9916431],[135.7642132,34.9904009],[135.7642174,34.9896562],[135.7642186,34.9894537],[135.7642097,34.9892618]]}";2;河原町通;4;40;false;false;true;false;false;false;389.5;3;1;0;0;0;false;七条河原町;3004644473;135.764125;34.9885402;河原町正面;3004644481;135.7641056;34.9917516;1;2;3;3946069;バス: 17: 京都駅前 => 錦林車庫前;"";京都市交通局;17;京都駅前;錦林車庫前
174762069;"{\"type\":\"LineString\",\"coordinates\":[[135.766197,34.9957872],[135.7660777,34.9955982],[135.7657754,34.9951601],[135.7653996,34.9945899],[135.7650731,34.9940244],[135.7648577,34.9935994],[135.7646986,34.9932857],[135.7644906,34.9929057],[135.7642285,34.9923133],[135.7642117,34.9921993],[135.7642119,34.9917755],[135.764212,34.9916431],[135.7642132,34.9904009],[135.7642174,34.9896562],[135.7642186,34.9894537],[135.7642097,34.9892618]]}";1;河原町通;4;40;false;false;true;false;false;false;389.5;3;1;0;0;0;false;河原町正面;3004644481;135.7641056;34.9917516;河原町五条;3004644479;135.766457;34.99648;1;3;4;3946069;バス: 17: 京都駅前 => 錦林車庫前;"";京都市交通局;17;京都駅前;錦林車庫前
174762070;"{\"type\":\"LineString\",\"coordinates\":[[135.76932,35.0037796],[135.7693156,35.003513],[135.769326,35.0031269],[135.7693364,35.0027441],[135.7693398,35.0026765],[135.7693372,35.0025383],[135.7693266,35.0024766],[135.7693141,35.0024246],[135.7692978,35.0023767],[135.7692807,35.0023316],[135.7692531,35.0022665],[135.7692079,35.0021746],[135.7691071,35.0019732],[135.7690292,35.0018186],[135.7687964,35.0013654],[135.7687087,35.0011953],[135.7686805,35.0011405],[135.7686383,35.0010577],[135.7682069,35.0002123],[135.7681757,35.0001511],[135.7681609,35.0001219],[135.7680842,34.9999604],[135.7677647,34.9992875],[135.7677069,34.9991616],[135.7676726,34.9990858],[135.7676204,34.9989662],[135.7675761,34.9988645],[135.7674522,34.9985578],[135.7671113,34.9977586],[135.7670855,34.9976975],[135.767029,34.9975577],[135.7668601,34.997153],[135.76666,34.9966756],[135.7665701,34.9964739],[135.766426,34.9961505],[135.766329,34.9959964],[135.766197,34.9957872]]}";2;河原町通;4;40;false;false;true;false;false;false;479.0;6;8;0;0;0;false;河原町正面;3004644481;135.7641056;34.9917516;河原町五条;3004644479;135.766457;34.99648;1;3;4;3946069;バス: 17: 京都駅前 => 錦林車庫前;"";京都市交通局;17;京都駅前;錦林車庫前
174762070;"{\"type\":\"LineString\",\"coordinates\":[[135.76932,35.0037796],[135.7693156,35.003513],[135.769326,35.0031269],[135.7693364,35.0027441],[135.7693398,35.0026765],[135.7693372,35.0025383],[135.7693266,35.0024766],[135.7693141,35.0024246],[135.7692978,35.0023767],[135.7692807,35.0023316],[135.7692531,35.0022665],[135.7692079,35.0021746],[135.7691071,35.0019732],[135.7690292,35.0018186],[135.7687964,35.0013654],[135.7687087,35.0011953],[135.7686805,35.0011405],[135.7686383,35.0010577],[135.7682069,35.0002123],[135.7681757,35.0001511],[135.7681609,35.0001219],[135.7680842,34.9999604],[135.7677647,34.9992875],[135.7677069,34.9991616],[135.7676726,34.9990858],[135.7676204,34.9989662],[135.7675761,34.9988645],[135.7674522,34.9985578],[135.7671113,34.9977586],[135.7670855,34.9976975],[135.767029,34.9975577],[135.7668601,34.997153],[135.76666,34.9966756],[135.7665701,34.9964739],[135.766426,34.9961505],[135.766329,34.9959964],[135.766197,34.9957872]]}";1;河原町通;4;40;false;false;true;false;false;false;479.0;6;8;0;0;0;false;河原町松原;2503718436;135.7676916;34.9993006;四条河原町;3004644476;135.7691627;35.0051159;1;5;6;3946069;バス: 17: 京都駅前 => 錦林車庫前;"";京都市交通局;17;京都駅前;錦林車庫前
174762071;"{\"type\":\"LineString\",\"coordinates\":[[135.7689914,35.0087848],[135.7689984,35.0086263],[135.7690002,35.0085879],[135.7690013,35.0085659],[135.7690022,35.0085445],[135.7690264,35.0083509],[135.7690373,35.00814],[135.7690449,35.0079943],[135.7690517,35.0078805],[135.7690606,35.0077433],[135.7690668,35.0076542],[135.7690741,35.0075374],[135.7690803,35.0074483],[135.7691096,35.0070966],[135.7691539,35.0064692],[135.7691749,35.0062522],[135.7691829,35.0061692],[135.7692023,35.0058593],[135.7692081,35.0057869],[135.7692516,35.0052505],[135.7692835,35.0047248],[135.7692852,35.004634],[135.7693002,35.0042852],[135.7693087,35.0040551],[135.76932,35.0037796]]}";2;河原町通;4;40;false;false;true;false;false;false;283.5;4;2;0;0;0;false;河原町松原;2503718436;135.7676916;34.9993006;四条河原町;3004644476;135.7691627;35.0051159;1;5;6;3946069;バス: 17: 京都駅前 => 錦林車庫前;"";京都市交通局;17;京都駅前;錦林車庫前
174762071;"{\"type\":\"LineString\",\"coordinates\":[[135.7689914,35.0087848],[135.7689984,35.0086263],[135.7690002,35.0085879],[135.7690013,35.0085659],[135.7690022,35.0085445],[135.7690264,35.0083509],[135.7690373,35.00814],[135.7690449,35.0079943],[135.7690517,35.0078805],[135.7690606,35.0077433],[135.7690668,35.0076542],[135.7690741,35.0075374],[135.7690803,35.0074483],[135.7691096,35.0070966],[135.7691539,35.0064692],[135.7691749,35.0062522],[135.7691829,35.0061692],[135.7692023,35.0058593],[135.7692081,35.0057869],[135.7692516,35.0052505],[135.7692835,35.0047248],[135.7692852,35.004634],[135.7693002,35.0042852],[135.7693087,35.0040551],[135.76932,35.0037796]]}";1;河原町通;4;40;false;false;true;false;false;false;283.5;4;2;0;0;0;false;四条河原町;3004644476;135.7691627;35.0051159;京都市役所前;2503730838;135.7688755;35.0125769;1;6;7;3946069;バス: 17: 京都駅前 => 錦林車庫前;"";京都市交通局;17;京都駅前;錦林車庫前
465066430;"{\"type\":\"LineString\",\"coordinates\":[[135.7689598,35.0106787],[135.7689641,35.0102186],[135.7689653,35.0100427],[135.7689662,35.0099034],[135.7689664,35.0098434],[135.7689672,35.0097479],[135.7689682,35.0096118],[135.7689694,35.0094321],[135.7689703,35.0093052],[135.7689779,35.0090088],[135.7689789,35.0089867],[135.7689795,35.008969],[135.7689914,35.0087848]]}";2;河原町通;4;40;false;false;true;false;false;false;214.0;1;2;0;0;0;false;四条河原町;3004644476;135.7691627;35.0051159;京都市役所前;2503730838;135.7688755;35.0125769;0;6;7;3946069;バス: 17: 京都駅前 => 錦林車庫前;"";京都市交通局;17;京都駅前;錦林車庫前
268601755;"{\"type\":\"LineString\",\"coordinates\":[[135.7689661,35.0110041],[135.7689633,35.010862],[135.7689598,35.0106787]]}";3;河原町通;4;40;false;false;true;false;false;false;37.0;2;1;0;0;0;false;四条河原町;3004644476;135.7691627;35.0051159;京都市役所前;2503730838;135.7688755;35.0125769;0;6;7;3946069;バス: 17: 京都駅前 => 錦林車庫前;"";京都市交通局;17;京都駅前;錦林車庫前
554834984;"{\"type\":\"LineString\",\"coordinates\":[[135.7692798,35.0219167],[135.7693055,35.0217636],[135.7693482,35.021487],[135.7693673,35.0213611],[135.769378,35.0212663],[135.7693868,35.0211788],[135.769426,35.0207941],[135.7694349,35.0206969],[135.7694283,35.0201717],[135.7694079,35.0199004],[135.7693686,35.0195848],[135.7693568,35.0195306],[135.7693052,35.0192078],[135.7692833,35.0190401],[135.769215,35.0186164],[135.7692084,35.0185912],[135.7691679,35.0182786],[135.7690874,35.0179218],[135.7690737,35.017768],[135.7690407,35.0175638],[135.7690344,35.0174846],[135.769009,35.0172729],[135.768952,35.0167756],[135.7689342,35.0165499],[135.768914,35.0156195],[135.7689115,35.0155309],[135.7689174,35.0154537],[135.7689381,35.0145913],[135.7689373,35.0145095],[135.7689379,35.0144242],[135.7689694,35.0133958],[135.7689674,35.0132178],[135.7689654,35.0130453],[135.768969,35.012096],[135.7689694,35.0111743],[135.7689661,35.0110041]]}";4;河原町通;4;50;false;false;true;false;false;false;618.5;6;12;0;0;0;false;四条河原町;3004644476;135.7691627;35.0051159;京都市役所前;2503730838;135.7688755;35.0125769;1;6;7;3946069;バス: 17: 京都駅前 => 錦林車庫前;"";京都市交通局;17;京都駅前;錦林車庫前
554834984;"{\"type\":\"LineString\",\"coordinates\":[[135.7692798,35.0219167],[135.7693055,35.0217636],[135.7693482,35.021487],[135.7693673,35.0213611],[135.769378,35.0212663],[135.7693868,35.0211788],[135.769426,35.0207941],[135.7694349,35.0206969],[135.7694283,35.0201717],[135.7694079,35.0199004],[135.7693686,35.0195848],[135.7693568,35.0195306],[135.7693052,35.0192078],[135.7692833,35.0190401],[135.769215,35.0186164],[135.7692084,35.0185912],[135.7691679,35.0182786],[135.7690874,35.0179218],[135.7690737,35.017768],[135.7690407,35.0175638],[135.7690344,35.0174846],[135.769009,35.0172729],[135.768952,35.0167756],[135.7689342,35.0165499],[135.768914,35.0156195],[135.7689115,35.0155309],[135.7689174,35.0154537],[135.7689381,35.0145913],[135.7689373,35.0145095],[135.7689379,35.0144242],[135.7689694,35.0133958],[135.7689674,35.0132178],[135.7689654,35.0130453],[135.768969,35.012096],[135.7689694,35.0111743],[135.7689661,35.0110041]]}";1;河原町通;4;50;false;false;true;false;false;false;618.5;6;12;0;0;0;false;荒神口;274030995;135.7693321;35.0208403;府立医大病院前;274031007;135.7691068;35.0227505;1;8;9;3946069;バス: 17: 京都駅前 => 錦林車庫前;"";京都市交通局;17;京都駅前;錦林車庫前
559409910;"{\"type\":\"LineString\",\"coordinates\":[[135.7692053,35.0225473],[135.7692079,35.0223942],[135.769244,35.0221303],[135.7692798,35.0219167]]}";2;河原町通;4;50;false;false;true;false;false;false;72.0;0;0;0;0;0;false;荒神口;274030995;135.7693321;35.0208403;府立医大病院前;274031007;135.7691068;35.0227505;0;8;9;3946069;バス: 17: 京都駅前 => 錦林車庫前;"";京都市交通局;17;京都駅前;錦林車庫前
559409911;"{\"type\":\"LineString\",\"coordinates\":[[135.7692143,35.0233179],[135.7692133,35.0231688],[135.7692053,35.0225473]]}";3;河原町通;4;50;false;false;true;false;false;false;44.0;1;1;0;0;0;false;荒神口;274030995;135.7693321;35.0208403;府立医大病院前;274031007;135.7691068;35.0227505;1;8;9;3946069;バス: 17: 京都駅前 => 錦林車庫前;"";京都市交通局;17;京都駅前;錦林車庫前
559409911;"{\"type\":\"LineString\",\"coordinates\":[[135.7692143,35.0233179],[135.7692133,35.0231688],[135.7692053,35.0225473]]}";1;河原町通;4;50;false;false;true;false;false;false;44.0;1;1;0;0;0;false;府立医大病院前;274031007;135.7691068;35.0227505;河原町今出川;3004644480;135.7705389;35.0291836;1;9;10;3946069;バス: 17: 京都駅前 => 錦林車庫前;"";京都市交通局;17;京都駅前;錦林車庫前
559409913;"{\"type\":\"LineString\",\"coordinates\":[[135.7693277,35.0267375],[135.7693113,35.0265519],[135.769266,35.0260366],[135.769231,35.0253613],[135.7692135,35.0234065],[135.7692143,35.0233179]]}";2;河原町通;4;50;false;false;true;false;false;false;387.0;1;1;0;0;0;false;府立医大病院前;274031007;135.7691068;35.0227505;河原町今出川;3004644480;135.7705389;35.0291836;0;9;10;3946069;バス: 17: 京都駅前 => 錦林車庫前;"";京都市交通局;17;京都駅前;錦林車庫前
554834983;"{\"type\":\"LineString\",\"coordinates\":[[135.7695107,35.0283695],[135.7694857,35.0281467],[135.7694571,35.0278919],[135.769434,35.0276851],[135.7694255,35.0276181],[135.7694157,35.0275224],[135.7694081,35.0274548],[135.7693277,35.0267375]]}";3;河原町通;4;50;false;false;true;false;false;false;186.0;2;2;0;0;0;false;府立医大病院前;274031007;135.7691068;35.0227505;河原町今出川;3004644480;135.7705389;35.0291836;0;9;10;3946069;バス: 17: 京都駅前 => 錦林車庫前;"";京都市交通局;17;京都駅前;錦林車庫前
268601769;"{\"type\":\"LineString\",\"coordinates\":[[135.7696899,35.0292082],[135.7696594,35.0290936],[135.7696161,35.0288639],[135.7695172,35.0284259],[135.7695107,35.0283695]]}";4;河原町通;4;50;false;false;true;false;false;false;97.0;2;1;0;0;0;false;府立医大病院前;274031007;135.7691068;35.0227505;河原町今出川;3004644480;135.7705389;35.0291836;0;9;10;3946069;バス: 17: 京都駅前 => 錦林車庫前;"";京都市交通局;17;京都駅前;錦林車庫前
296659292;"{\"type\":\"LineString\",\"coordinates\":[[135.7696899,35.0292082],[135.7699806,35.0291941],[135.7700687,35.0291892],[135.7704805,35.0291491],[135.7705857,35.0291379],[135.7706988,35.0291267],[135.770791,35.029117]]}";5;"";2;50;false;true;true;false;false;false;51.5;1;1;0;0;0;false;府立医大病院前;274031007;135.7691068;35.0227505;河原町今出川;3004644480;135.7705389;35.0291836;1;9;10;3946069;バス: 17: 京都駅前 => 錦林車庫前;"";京都市交通局;17;京都駅前;錦林車庫前
296659292;"{\"type\":\"LineString\",\"coordinates\":[[135.7696899,35.0292082],[135.7699806,35.0291941],[135.7700687,35.0291892],[135.7704805,35.0291491],[135.7705857,35.0291379],[135.7706988,35.0291267],[135.770791,35.029117]]}";1;"";2;50;false;true;true;false;false;false;51.5;1;1;0;0;0;false;河原町今出川;3004644480;135.7705389;35.0291836;出町柳駅前;2504836198;135.7730594;35.0289354;1;10;11;3946069;バス: 17: 京都駅前 => 錦林車庫前;"";京都市交通局;17;京都駅前;錦林車庫前
25144483;"{\"type\":\"LineString\",\"coordinates\":[[135.770791,35.029117],[135.7722891,35.0289764],[135.7723378,35.0289726]]}";2;今出川通;2;50;false;true;true;false;false;false;145.0;0;0;0;0;0;false;河原町今出川;3004644480;135.7705389;35.0291836;出町柳駅前;2504836198;135.7730594;35.0289354;0;10;11;3946069;バス: 17: 京都駅前 => 錦林車庫前;"";京都市交通局;17;京都駅前;錦林車庫前
24932617;"{\"type\":\"LineString\",\"coordinates\":[[135.7723378,35.0289726],[135.7724313,35.0289619],[135.7725199,35.0289517],[135.7726575,35.0289359]]}";3;今出川通;2;50;false;true;true;false;false;false;30.0;2;0;0;0;0;false;河原町今出川;3004644480;135.7705389;35.0291836;出町柳駅前;2504836198;135.7730594;35.0289354;0;10;11;3946069;バス: 17: 京都駅前 => 錦林車庫前;"";京都市交通局;17;京都駅前;錦林車庫前
703241567;"{\"type\":\"LineString\",\"coordinates\":[[135.7726575,35.0289359],[135.7730587,35.0288926],[135.7736125,35.0288359],[135.7742935,35.0287657],[135.7744479,35.0287552],[135.7748947,35.0287112],[135.7750291,35.0286944],[135.7754619,35.0286681],[135.7755935,35.0286624],[135.7759576,35.0286722],[135.776403,35.0286978],[135.7769045,35.0287443],[135.7774705,35.0287917],[135.7781443,35.0288555],[135.7782816,35.0288669],[135.7785065,35.0288816],[135.778747,35.0288703],[135.7790288,35.0288505],[135.7790657,35.028848],[135.7790828,35.0288468],[135.7792271,35.0288368],[135.7793222,35.0288304],[135.7794661,35.0288199],[135.7794821,35.0288187],[135.7795155,35.0288164],[135.7799273,35.0287851],[135.7804636,35.0287132],[135.7816318,35.0285989],[135.7820004,35.0285862],[135.7830353,35.0285826],[135.783685,35.0285856],[135.784146,35.0285832],[135.7842716,35.0285882],[135.7849059,35.0286957],[135.785256,35.0287533],[135.7853738,35.0287734],[135.785458,35.0287852],[135.7855328,35.0288009],[135.7859992,35.0288897],[135.7861076,35.0289093],[135.7862663,35.0289269],[135.7863905,35.0289416],[135.7865214,35.028937],[135.7866495,35.0289232],[135.7870282,35.028857],[135.7871365,35.028835],[135.7890542,35.0284338],[135.7895062,35.0283405],[135.7895795,35.0283254],[135.7902008,35.0281976]]}";4;今出川通;2;50;false;true;true;false;false;false;825.0;9;4;0;0;0;false;河原町今出川;3004644480;135.7705389;35.0291836;出町柳駅前;2504836198;135.7730594;35.0289354;1;10;11;3946069;バス: 17: 京都駅前 => 錦林車庫前;"";京都市交通局;17;京都駅前;錦林車庫前
703241567;"{\"type\":\"LineString\",\"coordinates\":[[135.7726575,35.0289359],[135.7730587,35.0288926],[135.7736125,35.0288359],[135.7742935,35.0287657],[135.7744479,35.0287552],[135.7748947,35.0287112],[135.7750291,35.0286944],[135.7754619,35.0286681],[135.7755935,35.0286624],[135.7759576,35.0286722],[135.776403,35.0286978],[135.7769045,35.0287443],[135.7774705,35.0287917],[135.7781443,35.0288555],[135.7782816,35.0288669],[135.7785065,35.0288816],[135.778747,35.0288703],[135.7790288,35.0288505],[135.7790657,35.028848],[135.7790828,35.0288468],[135.7792271,35.0288368],[135.7793222,35.0288304],[135.7794661,35.0288199],[135.7794821,35.0288187],[135.7795155,35.0288164],[135.7799273,35.0287851],[135.7804636,35.0287132],[135.7816318,35.0285989],[135.7820004,35.0285862],[135.7830353,35.0285826],[135.783685,35.0285856],[135.784146,35.0285832],[135.7842716,35.0285882],[135.7849059,35.0286957],[135.785256,35.0287533],[135.7853738,35.0287734],[135.785458,35.0287852],[135.7855328,35.0288009],[135.7859992,35.0288897],[135.7861076,35.0289093],[135.7862663,35.0289269],[135.7863905,35.0289416],[135.7865214,35.028937],[135.7866495,35.0289232],[135.7870282,35.028857],[135.7871365,35.028835],[135.7890542,35.0284338],[135.7895062,35.0283405],[135.7895795,35.0283254],[135.7902008,35.0281976]]}";1;今出川通;2;50;false;true;true;false;false;false;825.0;9;4;0;0;0;false;北白川;3004644475;135.7861204;35.0289464;銀閣寺道;3004644482;135.7905402;35.028185;1;14;15;3946069;バス: 17: 京都駅前 => 錦林車庫前;"";京都市交通局;17;京都駅前;錦林車庫前
619299977;"{\"type\":\"LineString\",\"coordinates\":[[135.7902008,35.0281976],[135.790413,35.0281496],[135.7907464,35.028083],[135.7910124,35.0280274],[135.7912119,35.0279875],[135.7914178,35.0279225]]}";2;今出川通;2;50;false;true;true;false;false;false;59.0;1;1;0;0;0;false;北白川;3004644475;135.7861204;35.0289464;銀閣寺道;3004644482;135.7905402;35.028185;1;14;15;3946069;バス: 17: 京都駅前 => 錦林車庫前;"";京都市交通局;17;京都駅前;錦林車庫前
619299977;"{\"type\":\"LineString\",\"coordinates\":[[135.7902008,35.0281976],[135.790413,35.0281496],[135.7907464,35.028083],[135.7910124,35.0280274],[135.7912119,35.0279875],[135.7914178,35.0279225]]}";1;今出川通;2;50;false;true;true;false;false;false;59.0;1;1;0;0;0;false;銀閣寺道;3004644482;135.7905402;35.028185;浄土寺;2504836193;135.7920241;35.0252434;1;15;16;3946069;バス: 17: 京都駅前 => 錦林車庫前;"";京都市交通局;17;京都駅前;錦林車庫前
25146504;"{\"type\":\"LineString\",\"coordinates\":[[135.7914178,35.0279225],[135.7914981,35.0279178]]}";2;今出川通;1;40;false;false;true;false;false;false;8.0;2;0;0;0;0;false;銀閣寺道;3004644482;135.7905402;35.028185;浄土寺;2504836193;135.7920241;35.0252434;0;15;16;3946069;バス: 17: 京都駅前 => 錦林車庫前;"";京都市交通局;17;京都駅前;錦林車庫前
273673342;"{\"type\":\"LineString\",\"coordinates\":[[135.7914981,35.0279178],[135.7915176,35.0277691],[135.7915457,35.0275444],[135.7915898,35.027262],[135.7916357,35.0270093],[135.7916908,35.0267231],[135.7917083,35.0266322],[135.7917298,35.0265171],[135.791777,35.0262357],[135.7918211,35.0259944],[135.791919,35.0254584]]}";3;"白川通;京都市道182号蹴上高野線";2;50;false;true;true;false;false;false;281.0;1;0;0;0;0;false;銀閣寺道;3004644482;135.7905402;35.028185;浄土寺;2504836193;135.7920241;35.0252434;0;15;16;3946069;バス: 17: 京都駅前 => 錦林車庫前;"";京都市交通局;17;京都駅前;錦林車庫前
619299959;"{\"type\":\"LineString\",\"coordinates\":[[135.791919,35.0254584],[135.7920042,35.0249981],[135.7920137,35.024947],[135.79203,35.0248613],[135.7921676,35.0241381],[135.7923097,35.0233706],[135.7923189,35.0233207],[135.7923287,35.0232636],[135.7924404,35.0226193]]}";4;"白川通;京都市道182号蹴上高野線";2;50;false;true;true;false;false;false;162.5;2;0;0;0;0;false;銀閣寺道;3004644482;135.7905402;35.028185;浄土寺;2504836193;135.7920241;35.0252434;1;15;16;3946069;バス: 17: 京都駅前 => 錦林車庫前;"";京都市交通局;17;京都駅前;錦林車庫前
619299959;"{\"type\":\"LineString\",\"coordinates\":[[135.791919,35.0254584],[135.7920042,35.0249981],[135.7920137,35.024947],[135.79203,35.0248613],[135.7921676,35.0241381],[135.7923097,35.0233706],[135.7923189,35.0233207],[135.7923287,35.0232636],[135.7924404,35.0226193]]}";1;"白川通;京都市道182号蹴上高野線";2;50;false;true;true;false;false;false;162.5;2;0;0;0;0;false;浄土寺;2504836193;135.7920241;35.0252434;錦林車庫前;3004644483;135.7924209;35.0214861;1;16;17;3946069;バス: 17: 京都駅前 => 錦林車庫前;"";京都市交通局;17;京都駅前;錦林車庫前
216778918;"{\"type\":\"LineString\",\"coordinates\":[[135.7924404,35.0226193],[135.7924578,35.0225216]]}";2;"白川通;京都市道182号蹴上高野線";2;50;false;true;true;false;false;false;12.0;0;0;0;0;0;false;浄土寺;2504836193;135.7920241;35.0252434;錦林車庫前;3004644483;135.7924209;35.0214861;0;16;17;3946069;バス: 17: 京都駅前 => 錦林車庫前;"";京都市交通局;17;京都駅前;錦林車庫前
216778916;"{\"type\":\"LineString\",\"coordinates\":[[135.7924578,35.0225216],[135.7924637,35.0224917],[135.7924674,35.0224732],[135.7924776,35.0224217],[135.792509,35.0222634]]}";3;"白川通;京都市道182号蹴上高野線";2;50;false;true;true;false;false;false;30.0;1;1;0;0;0;false;浄土寺;2504836193;135.7920241;35.0252434;錦林車庫前;3004644483;135.7924209;35.0214861;0;16;17;3946069;バス: 17: 京都駅前 => 錦林車庫前;"";京都市交通局;17;京都駅前;錦林車庫前
788322236;"{\"type\":\"LineString\",\"coordinates\":[[135.792509,35.0222634],[135.7925224,35.0220956],[135.7924967,35.021961],[135.7924529,35.021774],[135.7923533,35.0215041]]}";4;"白川通;京都市道182号蹴上高野線";2;50;false;true;true;false;false;false;88.0;0;0;0;0;0;false;浄土寺;2504836193;135.7920241;35.0252434;錦林車庫前;3004644483;135.7924209;35.0214861;1;16;17;3946069;バス: 17: 京都駅前 => 錦林車庫前;"";京都市交通局;17;京都駅前;錦林車庫前
