way_id;shape;index;name;nb_lanes;legal_speed;speed_zone_30;oneway;shares_bike;bike_box;bus_lane;dedicated_bus_lane;length;nb_traffic_signals;nb_crossings;nb_stops;nb_give_ways;nb_lvl_crossings;roundabout;stop_id_orig;node_id_orig;coord_x_orig;coord_y_orig;stop_id_dest;node_id_dest;coord_x_dest;coord_y_dest;nb_neighbouring_ways_bus_stop;ordre_orig;ordre_dest;id_line;line_name;colour;operator;ref;from;to
678177379;"{\"type\":\"LineString\",\"coordinates\":[[-73.7225845,45.3472288],[-73.722616,45.3472369],[-73.7226652,45.3472494],[-73.7227926,45.3472835]]}";1;Rue Chopin;2;50;false;false;true;false;false;false;18.0;0;1;1;0;0;false;78055;6190672448;-73.722471;45.347295;78042;6190672460;-73.720436;45.348977;1;0;1;9415966;Bus 22 : Direction Montréal;"";EXO;22 E;rue Chopin / boul. St-Jean-Baptiste;Terminus Angrignon
678177378;"{\"type\":\"LineString\",\"coordinates\":[[-73.7227926,45.3472835],[-73.722382,45.3479572],[-73.721704,45.3491023],[-73.7216394,45.3492092]]}";2;Boulevard Saint-Jean-Baptiste;2;50;false;false;true;false;false;false;233.0;1;0;0;0;0;false;78055;6190672448;-73.722471;45.347295;78042;6190672460;-73.720436;45.348977;0;0;1;9415966;Bus 22 : Direction Montréal;"";EXO;22 E;rue Chopin / boul. St-Jean-Baptiste;Terminus Angrignon
13726953;"{\"type\":\"LineString\",\"coordinates\":[[-73.7216394,45.3492092],[-73.720647,45.3490575],[-73.7203459,45.3491287],[-73.7202567,45.349164],[-73.720085,45.3492479],[-73.7199751,45.3492639],[-73.719727,45.349246],[-73.717864,45.3490173],[-73.7160959,45.3488423],[-73.7146711,45.3486915],[-73.7128085,45.3484925],[-73.7118644,45.3483658]]}";3;Boulevard Rameau;2;50;false;true;true;false;false;false;390.5;0;0;0;0;0;false;78055;6190672448;-73.722471;45.347295;78042;6190672460;-73.720436;45.348977;1;0;1;9415966;Bus 22 : Direction Montréal;"";EXO;22 E;rue Chopin / boul. St-Jean-Baptiste;Terminus Angrignon
13726953;"{\"type\":\"LineString\",\"coordinates\":[[-73.7216394,45.3492092],[-73.720647,45.3490575],[-73.7203459,45.3491287],[-73.7202567,45.349164],[-73.720085,45.3492479],[-73.7199751,45.3492639],[-73.719727,45.349246],[-73.717864,45.3490173],[-73.7160959,45.3488423],[-73.7146711,45.3486915],[-73.7128085,45.3484925],[-73.7118644,45.3483658]]}";1;Boulevard Rameau;2;50;false;true;true;false;false;false;390.5;0;0;0;0;0;false;78040;6190672462;-73.712972;45.348424;78038;6190672464;-73.712411;45.347049;1;3;4;9415966;Bus 22 : Direction Montréal;"";EXO;22 E;rue Chopin / boul. St-Jean-Baptiste;Terminus Angrignon
678177382;"{\"type\":\"LineString\",\"coordinates\":[[-73.7122268,45.3469659],[-73.7118644,45.3483658]]}";2;Avenue Brahms;2;50;false;false;true;false;false;false;79.5;0;0;1;0;0;false;78040;6190672462;-73.712972;45.348424;78038;6190672464;-73.712411;45.347049;1;3;4;9415966;Bus 22 : Direction Montréal;"";EXO;22 E;rue Chopin / boul. St-Jean-Baptiste;Terminus Angrignon
678177383;"{\"type\":\"LineString\",\"coordinates\":[[-73.707075,45.354271],[-73.7064399,45.3542046],[-73.7038478,45.353891],[-73.7027835,45.3537884]]}";1;Boulevard Sainte-Marguerite;1;50;false;false;true;false;false;false;170.5;0;0;1;0;0;false;78028;6190672474;-73.704026;45.35381;78025;6190672477;-73.702509;45.354413;1;9;10;9415966;Bus 22 : Direction Montréal;"";EXO;22 E;rue Chopin / boul. St-Jean-Baptiste;Terminus Angrignon
14368914;"{\"type\":\"LineString\",\"coordinates\":[[-73.7027835,45.3537884],[-73.7025689,45.3545182],[-73.7022428,45.3559175],[-73.7018995,45.3575158],[-73.7017879,45.3582275]]}";2;Boulevard Albert-Einstein;1;50;false;false;true;false;false;false;250.0;0;0;1;0;0;false;78028;6190672474;-73.704026;45.35381;78025;6190672477;-73.702509;45.354413;1;9;10;9415966;Bus 22 : Direction Montréal;"";EXO;22 E;rue Chopin / boul. St-Jean-Baptiste;Terminus Angrignon
677713370;"{\"type\":\"LineString\",\"coordinates\":[[-73.7115683,45.3658389],[-73.713018,45.3634711],[-73.7135371,45.3625678]]}";1;Boulevard Saint-Jean-Baptiste;5;50;false;false;true;false;false;false;197.5;2;0;0;0;0;false;78136;5515416123;-73.7117;45.365547;78125;6190672394;-73.710017;45.368313;1;17;18;9415966;Bus 22 : Direction Montréal;"";EXO;22 E;rue Chopin / boul. St-Jean-Baptiste;Terminus Angrignon
666181870;"{\"type\":\"LineString\",\"coordinates\":[[-73.7109041,45.3669337],[-73.7115683,45.3658389]]}";2;Boulevard Saint-Jean-Baptiste;5;50;false;false;true;false;false;false;133.0;1;0;0;0;0;false;78136;5515416123;-73.7117;45.365547;78125;6190672394;-73.710017;45.368313;0;17;18;9415966;Bus 22 : Direction Montréal;"";EXO;22 E;rue Chopin / boul. St-Jean-Baptiste;Terminus Angrignon
13810867;"{\"type\":\"LineString\",\"coordinates\":[[-73.7109041,45.3669337],[-73.7107783,45.3670448],[-73.7105598,45.3674213],[-73.7104644,45.3675857]]}";3;Boulevard Saint-Jean-Baptiste;5;50;false;true;true;false;false;false;81.0;1;0;0;0;0;false;78136;5515416123;-73.7117;45.365547;78125;6190672394;-73.710017;45.368313;0;17;18;9415966;Bus 22 : Direction Montréal;"";EXO;22 E;rue Chopin / boul. St-Jean-Baptiste;Terminus Angrignon
476608730;"{\"type\":\"LineString\",\"coordinates\":[[-73.7104644,45.3675857],[-73.7104073,45.3676855]]}";4;Boulevard Saint-Jean-Baptiste;5;50;false;true;true;false;false;false;12.0;0;0;0;0;0;false;78136;5515416123;-73.7117;45.365547;78125;6190672394;-73.710017;45.368313;0;17;18;9415966;Bus 22 : Direction Montréal;"";EXO;22 E;rue Chopin / boul. St-Jean-Baptiste;Terminus Angrignon
476608728;"{\"type\":\"LineString\",\"coordinates\":[[-73.7104073,45.3676855],[-73.7100703,45.36826],[-73.7099813,45.3684118]]}";5;Boulevard Saint-Jean-Baptiste;5;50;false;true;true;false;false;false;44.0;1;0;0;0;0;false;78136;5515416123;-73.7117;45.365547;78125;6190672394;-73.710017;45.368313;1;17;18;9415966;Bus 22 : Direction Montréal;"";EXO;22 E;rue Chopin / boul. St-Jean-Baptiste;Terminus Angrignon
476606111;"{\"type\":\"LineString\",\"coordinates\":[[-73.7099813,45.3684118],[-73.7099292,45.3684994]]}";1;Boulevard Saint-Jean-Baptiste;5;50;false;true;true;false;false;false;11.0;0;0;0;0;0;false;78125;6190672394;-73.710017;45.368313;78730;6190668868;-73.70505;45.376806;2;18;19;9415966;Bus 22 : Direction Montréal;"";EXO;22 E;rue Chopin / boul. St-Jean-Baptiste;Terminus Angrignon
342545891;"{\"type\":\"LineString\",\"coordinates\":[[-73.7099292,45.3684994],[-73.7096373,45.3690166],[-73.7095192,45.3692756],[-73.7094727,45.3694074]]}";2;Boulevard Saint-Jean-Baptiste;2;50;false;true;true;false;false;false;108.0;0;0;0;0;0;false;78125;6190672394;-73.710017;45.368313;78730;6190668868;-73.70505;45.376806;0;18;19;9415966;Bus 22 : Direction Montréal;"";EXO;22 E;rue Chopin / boul. St-Jean-Baptiste;Terminus Angrignon
638130699;"{\"type\":\"LineString\",\"coordinates\":[[-73.7057841,45.3757376],[-73.7059489,45.3754557],[-73.7061827,45.3750558],[-73.7077504,45.3723743],[-73.7094727,45.3694074]]}";3;Route 132;5;70;false;false;true;false;false;false;760.0;0;0;0;0;0;false;78125;6190672394;-73.710017;45.368313;78730;6190668868;-73.70505;45.376806;0;18;19;9415966;Bus 22 : Direction Montréal;"";EXO;22 E;rue Chopin / boul. St-Jean-Baptiste;Terminus Angrignon
638130701;"{\"type\":\"LineString\",\"coordinates\":[[-73.7057841,45.3757376],[-73.7056473,45.3758488],[-73.7050512,45.3768421]]}";4;Route 132;5;70;false;true;true;false;false;false;137.0;0;0;0;0;0;false;78125;6190672394;-73.710017;45.368313;78730;6190668868;-73.70505;45.376806;2;18;19;9415966;Bus 22 : Direction Montréal;"";EXO;22 E;rue Chopin / boul. St-Jean-Baptiste;Terminus Angrignon
638130696;"{\"type\":\"LineString\",\"coordinates\":[[-73.7050512,45.3768421],[-73.7044644,45.3778365],[-73.7044729,45.3779945]]}";1;Route 132;5;70;false;true;true;false;false;false;138.0;0;0;0;0;0;false;78730;6190668868;-73.70505;45.376806;78731;6190668867;-73.695464;45.393205;2;19;20;9415966;Bus 22 : Direction Montréal;"";EXO;22 E;rue Chopin / boul. St-Jean-Baptiste;Terminus Angrignon
638130703;"{\"type\":\"LineString\",\"coordinates\":[[-73.6964738,45.3918936],[-73.6983132,45.3886906],[-73.7044729,45.3779945]]}";2;Route 132;5;70;false;false;true;false;false;false;1666.0;0;0;0;0;0;false;78730;6190668868;-73.70505;45.376806;78731;6190668867;-73.695464;45.393205;0;19;20;9415966;Bus 22 : Direction Montréal;"";EXO;22 E;rue Chopin / boul. St-Jean-Baptiste;Terminus Angrignon
494183739;"{\"type\":\"LineString\",\"coordinates\":[[-73.6964738,45.3918936],[-73.6961424,45.3923398],[-73.6955908,45.3932807]]}";3;Route 132/138;5;70;false;true;true;false;false;false;169.0;1;0;0;0;0;false;78730;6190668868;-73.70505;45.376806;78731;6190668867;-73.695464;45.393205;2;19;20;9415966;Bus 22 : Direction Montréal;"";EXO;22 E;rue Chopin / boul. St-Jean-Baptiste;Terminus Angrignon
494183735;"{\"type\":\"LineString\",\"coordinates\":[[-73.6955908,45.3932807],[-73.6948254,45.3946547],[-73.6947906,45.3948515]]}";1;Route 132/138;5;70;false;true;true;false;false;false;186.0;1;0;0;0;0;false;78731;6190668867;-73.695464;45.393205;78734;6190668866;-73.689147;45.39876;2;20;21;9415966;Bus 22 : Direction Montréal;"";EXO;22 E;rue Chopin / boul. St-Jean-Baptiste;Terminus Angrignon
494183738;"{\"type\":\"LineString\",\"coordinates\":[[-73.6935913,45.3969904],[-73.6944419,45.3954988],[-73.6947906,45.3948515]]}";2;Route 132/138;5;70;false;false;true;false;false;false;256.0;0;0;0;0;0;false;78731;6190668867;-73.695464;45.393205;78734;6190668866;-73.689147;45.39876;0;20;21;9415966;Bus 22 : Direction Montréal;"";EXO;22 E;rue Chopin / boul. St-Jean-Baptiste;Terminus Angrignon
37625756;"{\"type\":\"LineString\",\"coordinates\":[[-73.6935913,45.3969904],[-73.6933137,45.3973011],[-73.6929837,45.3976439],[-73.6927866,45.3978294],[-73.6925828,45.3979952],[-73.6922287,45.398241],[-73.6918633,45.3984537],[-73.6914951,45.3986233],[-73.691125,45.3987617],[-73.6907615,45.3988757],[-73.6903766,45.3989727],[-73.6899475,45.3990357],[-73.6894578,45.3990763]]}";3;Route 132/138;2;70;false;true;true;false;false;false;417.0;1;0;0;0;0;false;78731;6190668867;-73.695464;45.393205;78734;6190668866;-73.689147;45.39876;0;20;21;9415966;Bus 22 : Direction Montréal;"";EXO;22 E;rue Chopin / boul. St-Jean-Baptiste;Terminus Angrignon
482433028;"{\"type\":\"LineString\",\"coordinates\":[[-73.6894578,45.3990763],[-73.6890302,45.3990894],[-73.688593,45.3990791],[-73.6879331,45.3990254],[-73.6877887,45.3990193]]}";4;Route 132/138;3;70;false;true;true;false;false;false;132.0;1;0;0;0;0;false;78731;6190668867;-73.695464;45.393205;78734;6190668866;-73.689147;45.39876;2;20;21;9415966;Bus 22 : Direction Montréal;"";EXO;22 E;rue Chopin / boul. St-Jean-Baptiste;Terminus Angrignon
482433028;"{\"type\":\"LineString\",\"coordinates\":[[-73.6894578,45.3990763],[-73.6890302,45.3990894],[-73.688593,45.3990791],[-73.6879331,45.3990254],[-73.6877887,45.3990193]]}";1;Route 132/138;3;70;false;true;true;false;false;false;66.0;1;0;0;0;0;false;78734;6190668866;-73.689147;45.39876;78275;6190671072;-73.68314;45.399543;1;21;22;9415966;Bus 22 : Direction Montréal;"";EXO;22 E;rue Chopin / boul. St-Jean-Baptiste;Terminus Angrignon
678489518;"{\"type\":\"LineString\",\"coordinates\":[[-73.6877887,45.3990193],[-73.6873055,45.398999],[-73.686675,45.3989981],[-73.6863957,45.3990172]]}";2;Route 132;3;70;false;true;true;false;false;false;110.0;0;0;0;0;0;false;78734;6190668866;-73.689147;45.39876;78275;6190671072;-73.68314;45.399543;0;21;22;9415966;Bus 22 : Direction Montréal;"";EXO;22 E;rue Chopin / boul. St-Jean-Baptiste;Terminus Angrignon
326317193;"{\"type\":\"LineString\",\"coordinates\":[[-73.6863957,45.3990172],[-73.6860704,45.3990395],[-73.6858456,45.399071],[-73.6851968,45.3991618],[-73.6843224,45.3993542],[-73.6830372,45.399692],[-73.6828864,45.3997322],[-73.6820288,45.3999606],[-73.6811632,45.4001912],[-73.6780117,45.4010481],[-73.6772725,45.4012441],[-73.673995,45.4021131]]}";3;Route 132;3;70;false;true;true;false;false;false;516.0;0;0;0;0;0;false;78734;6190668866;-73.689147;45.39876;78275;6190671072;-73.68314;45.399543;1;21;22;9415966;Bus 22 : Direction Montréal;"";EXO;22 E;rue Chopin / boul. St-Jean-Baptiste;Terminus Angrignon
326317193;"{\"type\":\"LineString\",\"coordinates\":[[-73.6863957,45.3990172],[-73.6860704,45.3990395],[-73.6858456,45.399071],[-73.6851968,45.3991618],[-73.6843224,45.3993542],[-73.6830372,45.399692],[-73.6828864,45.3997322],[-73.6820288,45.3999606],[-73.6811632,45.4001912],[-73.6780117,45.4010481],[-73.6772725,45.4012441],[-73.673995,45.4021131]]}";1;Route 132;3;70;false;true;true;false;false;false;516.0;0;0;0;0;0;false;78275;6190671072;-73.68314;45.399543;78274;6190671073;-73.672873;45.402284;1;22;23;9415966;Bus 22 : Direction Montréal;"";EXO;22 E;rue Chopin / boul. St-Jean-Baptiste;Terminus Angrignon
338423095;"{\"type\":\"LineString\",\"coordinates\":[[-73.673995,45.4021131],[-73.6721407,45.4025994]]}";2;Route 132;2;70;false;true;true;false;false;false;77.5;0;0;0;0;0;false;78275;6190671072;-73.68314;45.399543;78274;6190671073;-73.672873;45.402284;1;22;23;9415966;Bus 22 : Direction Montréal;"";EXO;22 E;rue Chopin / boul. St-Jean-Baptiste;Terminus Angrignon
338423095;"{\"type\":\"LineString\",\"coordinates\":[[-73.673995,45.4021131],[-73.6721407,45.4025994]]}";1;Route 132;2;70;false;true;true;false;false;false;77.5;0;0;0;0;0;false;78274;6190671073;-73.672873;45.402284;77655;6190673001;-73.645618;45.424182;1;23;24;9415966;Bus 22 : Direction Montréal;"";EXO;22 E;rue Chopin / boul. St-Jean-Baptiste;Terminus Angrignon
45271205;"{\"type\":\"LineString\",\"coordinates\":[[-73.6721407,45.4025994],[-73.6718259,45.4026793]]}";2;Route 132;2;70;false;true;false;false;false;false;27.0;0;0;0;0;0;false;78274;6190671073;-73.672873;45.402284;77655;6190673001;-73.645618;45.424182;0;23;24;9415966;Bus 22 : Direction Montréal;"";EXO;22 E;rue Chopin / boul. St-Jean-Baptiste;Terminus Angrignon
45271206;"{\"type\":\"LineString\",\"coordinates\":[[-73.6718259,45.4026793],[-73.6686174,45.4035038]]}";3;Route 132/138;2;70;false;true;false;false;false;false;268.0;0;0;0;0;0;false;78274;6190671073;-73.672873;45.402284;77655;6190673001;-73.645618;45.424182;0;23;24;9415966;Bus 22 : Direction Montréal;"";EXO;22 E;rue Chopin / boul. St-Jean-Baptiste;Terminus Angrignon
417092087;"{\"type\":\"LineString\",\"coordinates\":[[-73.6686174,45.4035038],[-73.6627339,45.4050963]]}";4;Pont Honoré-Mercier;1;70;false;true;false;false;false;false;494.0;0;0;0;0;0;false;78274;6190671073;-73.672873;45.402284;77655;6190673001;-73.645618;45.424182;0;23;24;9415966;Bus 22 : Direction Montréal;"";EXO;22 E;rue Chopin / boul. St-Jean-Baptiste;Terminus Angrignon
417092090;"{\"type\":\"LineString\",\"coordinates\":[[-73.6627339,45.4050963],[-73.6622259,45.4052419],[-73.6616956,45.4053917],[-73.6613866,45.4054763],[-73.6611234,45.4055551],[-73.6608837,45.4056237],[-73.6606032,45.4057264],[-73.6603768,45.405835],[-73.6601685,45.4059512],[-73.6599729,45.4060934],[-73.6598269,45.4062138],[-73.6596904,45.4063519],[-73.6595614,45.406511],[-73.6594348,45.406698],[-73.6593651,45.4068313],[-73.6593054,45.4069675],[-73.659252,45.4071389],[-73.6592237,45.4072872],[-73.6592088,45.4074725],[-73.6592066,45.4076714],[-73.6591998,45.4079813],[-73.6592002,45.4082715],[-73.6591779,45.4085643],[-73.6591713,45.4086677],[-73.6591458,45.4087966],[-73.6591126,45.408904],[-73.6590792,45.409],[-73.6590214,45.4091479]]}";5;Pont Honoré-Mercier;2;70;false;true;false;false;false;false;601.0;1;0;0;0;0;false;78274;6190671073;-73.672873;45.402284;77655;6190673001;-73.645618;45.424182;0;23;24;9415966;Bus 22 : Direction Montréal;"";EXO;22 E;rue Chopin / boul. St-Jean-Baptiste;Terminus Angrignon
720986411;"{\"type\":\"LineString\",\"coordinates\":[[-73.6590214,45.4091479],[-73.6585213,45.4101217],[-73.6580016,45.4111774],[-73.6572603,45.4126408],[-73.6566111,45.4138657],[-73.656491,45.4140705],[-73.6563268,45.4143483],[-73.654358,45.4175778],[-73.6520654,45.4212619]]}";6;Pont Honoré-Mercier;2;70;false;true;false;false;false;false;1452.0;0;0;0;0;0;false;78274;6190671073;-73.672873;45.402284;77655;6190673001;-73.645618;45.424182;0;23;24;9415966;Bus 22 : Direction Montréal;"";EXO;22 E;rue Chopin / boul. St-Jean-Baptiste;Terminus Angrignon
482530516;"{\"type\":\"LineString\",\"coordinates\":[[-73.6520654,45.4212619],[-73.6519112,45.4215281],[-73.6518434,45.4216675],[-73.6517835,45.4218267]]}";7;Pont Honoré-Mercier;1;70;false;true;false;false;false;false;67.0;0;0;0;0;0;false;78274;6190671073;-73.672873;45.402284;77655;6190673001;-73.645618;45.424182;0;23;24;9415966;Bus 22 : Direction Montréal;"";EXO;22 E;rue Chopin / boul. St-Jean-Baptiste;Terminus Angrignon
482530515;"{\"type\":\"LineString\",\"coordinates\":[[-73.6517835,45.4218267],[-73.6517192,45.4220142]]}";8;Pont Honoré-Mercier;1;70;false;true;false;false;false;false;22.0;0;0;0;0;0;false;78274;6190671073;-73.672873;45.402284;77655;6190673001;-73.645618;45.424182;0;23;24;9415966;Bus 22 : Direction Montréal;"";EXO;22 E;rue Chopin / boul. St-Jean-Baptiste;Terminus Angrignon
482530514;"{\"type\":\"LineString\",\"coordinates\":[[-73.6517192,45.4220142],[-73.6516557,45.422336]]}";9;Pont Honoré-Mercier;1;70;false;true;true;false;false;false;37.0;0;0;0;0;0;false;78274;6190671073;-73.672873;45.402284;77655;6190673001;-73.645618;45.424182;0;23;24;9415966;Bus 22 : Direction Montréal;"";EXO;22 E;rue Chopin / boul. St-Jean-Baptiste;Terminus Angrignon
104836575;"{\"type\":\"LineString\",\"coordinates\":[[-73.6516557,45.422336],[-73.6516448,45.422398]]}";10;Route 138;2;70;false;true;true;false;false;false;7.0;0;0;0;0;0;false;78274;6190671073;-73.672873;45.402284;77655;6190673001;-73.645618;45.424182;0;23;24;9415966;Bus 22 : Direction Montréal;"";EXO;22 E;rue Chopin / boul. St-Jean-Baptiste;Terminus Angrignon
422417413;"{\"type\":\"LineString\",\"coordinates\":[[-73.6516448,45.422398],[-73.6514116,45.4231709],[-73.6513538,45.4234419],[-73.6513121,45.4236092],[-73.6512362,45.4237671],[-73.6511279,45.4239254],[-73.6509832,45.4240821],[-73.6507779,45.4242529],[-73.6505039,45.4244128],[-73.650213,45.424533]]}";11;"";1;50;false;true;false;false;false;false;275.0;0;0;0;0;0;false;78274;6190671073;-73.672873;45.402284;77655;6190673001;-73.645618;45.424182;0;23;24;9415966;Bus 22 : Direction Montréal;"";EXO;22 E;rue Chopin / boul. St-Jean-Baptiste;Terminus Angrignon
490755726;"{\"type\":\"LineString\",\"coordinates\":[[-73.650213,45.424533],[-73.6497775,45.4246468]]}";12;"";1;50;false;true;false;false;false;false;37.0;0;0;0;0;0;false;78274;6190671073;-73.672873;45.402284;77655;6190673001;-73.645618;45.424182;0;23;24;9415966;Bus 22 : Direction Montréal;"";EXO;22 E;rue Chopin / boul. St-Jean-Baptiste;Terminus Angrignon
490755725;"{\"type\":\"LineString\",\"coordinates\":[[-73.6497775,45.4246468],[-73.6494277,45.4246853],[-73.6490931,45.4246799],[-73.6487572,45.4246407],[-73.6468808,45.424196]]}";13;"";1;50;false;true;false;false;false;false;236.0;0;0;0;0;0;false;78274;6190671073;-73.672873;45.402284;77655;6190673001;-73.645618;45.424182;0;23;24;9415966;Bus 22 : Direction Montréal;"";EXO;22 E;rue Chopin / boul. St-Jean-Baptiste;Terminus Angrignon
502887633;"{\"type\":\"LineString\",\"coordinates\":[[-73.6468808,45.424196],[-73.6457869,45.4239796]]}";14;"";1;50;false;true;true;false;false;false;89.0;0;0;0;0;0;false;78274;6190671073;-73.672873;45.402284;77655;6190673001;-73.645618;45.424182;0;23;24;9415966;Bus 22 : Direction Montréal;"";EXO;22 E;rue Chopin / boul. St-Jean-Baptiste;Terminus Angrignon
26526488;"{\"type\":\"LineString\",\"coordinates\":[[-73.6457869,45.4239796],[-73.645735,45.4240793]]}";15;Rue Labatt;1;50;false;true;true;false;false;false;12.0;0;0;0;0;0;false;78274;6190671073;-73.672873;45.402284;77655;6190673001;-73.645618;45.424182;0;23;24;9415966;Bus 22 : Direction Montréal;"";EXO;22 E;rue Chopin / boul. St-Jean-Baptiste;Terminus Angrignon
587344191;"{\"type\":\"LineString\",\"coordinates\":[[-73.6443837,45.4271686],[-73.645735,45.4240793]]}";16;Avenue Labatt;1;50;false;false;true;false;false;false;179.5;0;0;0;0;0;false;78274;6190671073;-73.672873;45.402284;77655;6190673001;-73.645618;45.424182;1;23;24;9415966;Bus 22 : Direction Montréal;"";EXO;22 E;rue Chopin / boul. St-Jean-Baptiste;Terminus Angrignon
26526488;"{\"type\":\"LineString\",\"coordinates\":[[-73.6457869,45.4239796],[-73.645735,45.4240793]]}";1;Rue Labatt;1;50;false;true;true;false;false;false;12.0;0;0;0;0;0;false;77655;6190673001;-73.645618;45.424182;77501;6190673008;-73.644425;45.427072;2;24;25;9415966;Bus 22 : Direction Montréal;"";EXO;22 E;rue Chopin / boul. St-Jean-Baptiste;Terminus Angrignon
587344191;"{\"type\":\"LineString\",\"coordinates\":[[-73.6443837,45.4271686],[-73.645735,45.4240793]]}";2;Avenue Labatt;1;50;false;false;true;false;false;false;359.0;0;0;0;0;0;false;77655;6190673001;-73.645618;45.424182;77501;6190673008;-73.644425;45.427072;2;24;25;9415966;Bus 22 : Direction Montréal;"";EXO;22 E;rue Chopin / boul. St-Jean-Baptiste;Terminus Angrignon
473015241;"{\"type\":\"LineString\",\"coordinates\":[[-73.6434429,45.4275233],[-73.6435826,45.4274734],[-73.6443837,45.4271686]]}";1;Boulevard Newman;4;50;false;false;true;false;false;false;84.0;0;0;0;0;0;false;77501;6190673008;-73.644425;45.427072;77657;6190673000;-73.638993;45.428988;2;25;26;9415966;Bus 22 : Direction Montréal;"";EXO;22 E;rue Chopin / boul. St-Jean-Baptiste;Terminus Angrignon
473015245;"{\"type\":\"LineString\",\"coordinates\":[[-73.6430408,45.4276713],[-73.6434429,45.4275233]]}";2;Boulevard Newman;4;50;false;false;true;false;false;false;36.0;0;0;0;0;0;false;77501;6190673008;-73.644425;45.427072;77657;6190673000;-73.638993;45.428988;0;25;26;9415966;Bus 22 : Direction Montréal;"";EXO;22 E;rue Chopin / boul. St-Jean-Baptiste;Terminus Angrignon
424837410;"{\"type\":\"LineString\",\"coordinates\":[[-73.6400667,45.4287493],[-73.6402905,45.4286722],[-73.6407594,45.428503],[-73.6423823,45.4279076],[-73.6430408,45.4276713]]}";3;Boulevard Newman;4;50;false;false;true;false;false;false;262.0;0;0;0;0;0;false;77501;6190673008;-73.644425;45.427072;77657;6190673000;-73.638993;45.428988;0;25;26;9415966;Bus 22 : Direction Montréal;"";EXO;22 E;rue Chopin / boul. St-Jean-Baptiste;Terminus Angrignon
453533478;"{\"type\":\"LineString\",\"coordinates\":[[-73.6396857,45.4288574],[-73.6400667,45.4287493]]}";4;Boulevard Newman;4;50;false;false;true;false;false;false;33.0;0;0;0;0;0;false;77501;6190673008;-73.644425;45.427072;77657;6190673000;-73.638993;45.428988;0;25;26;9415966;Bus 22 : Direction Montréal;"";EXO;22 E;rue Chopin / boul. St-Jean-Baptiste;Terminus Angrignon
48160804;"{\"type\":\"LineString\",\"coordinates\":[[-73.6396857,45.4288574],[-73.6396395,45.4288467],[-73.6395513,45.4288738],[-73.6394571,45.4289027],[-73.6391485,45.4289974],[-73.6389535,45.4290573]]}";5;Boulevard Newman;2;50;false;true;true;false;false;false;63.0;3;0;0;0;0;false;77501;6190673008;-73.644425;45.427072;77657;6190673000;-73.638993;45.428988;2;25;26;9415966;Bus 22 : Direction Montréal;"";EXO;22 E;rue Chopin / boul. St-Jean-Baptiste;Terminus Angrignon
477486649;"{\"type\":\"LineString\",\"coordinates\":[[-73.6389535,45.4290573],[-73.6388489,45.4290856]]}";1;Boulevard Newman;2;50;false;true;true;false;false;false;9.0;2;0;0;0;0;false;77657;6190673000;-73.638993;45.428988;77503;2496883138;-73.63564;45.430096;2;26;27;9415966;Bus 22 : Direction Montréal;"";EXO;22 E;rue Chopin / boul. St-Jean-Baptiste;Terminus Angrignon
453533479;"{\"type\":\"LineString\",\"coordinates\":[[-73.6388489,45.4290856],[-73.6384158,45.4292491]]}";2;Boulevard Newman;2;50;false;true;true;false;false;false;39.0;1;0;0;0;0;false;77657;6190673000;-73.638993;45.428988;77503;2496883138;-73.63564;45.430096;0;26;27;9415966;Bus 22 : Direction Montréal;"";EXO;22 E;rue Chopin / boul. St-Jean-Baptiste;Terminus Angrignon
453533480;"{\"type\":\"LineString\",\"coordinates\":[[-73.6384158,45.4292491],[-73.6366572,45.4298469]]}";3;Boulevard Newman;2;50;false;true;true;false;false;false;153.0;0;0;0;0;0;false;77657;6190673000;-73.638993;45.428988;77503;2496883138;-73.63564;45.430096;0;26;27;9415966;Bus 22 : Direction Montréal;"";EXO;22 E;rue Chopin / boul. St-Jean-Baptiste;Terminus Angrignon
499892371;"{\"type\":\"LineString\",\"coordinates\":[[-73.6366572,45.4298469],[-73.6362702,45.4299785]]}";4;Boulevard Newman;2;50;false;true;true;false;false;false;34.0;0;0;0;0;0;false;77657;6190673000;-73.638993;45.428988;77503;2496883138;-73.63564;45.430096;0;26;27;9415966;Bus 22 : Direction Montréal;"";EXO;22 E;rue Chopin / boul. St-Jean-Baptiste;Terminus Angrignon
499892373;"{\"type\":\"LineString\",\"coordinates\":[[-73.6362702,45.4299785],[-73.6354014,45.4302887],[-73.6351444,45.4303804]]}";5;Boulevard Newman;2;50;false;true;true;false;false;false;99.0;0;0;0;0;0;false;77657;6190673000;-73.638993;45.428988;77503;2496883138;-73.63564;45.430096;2;26;27;9415966;Bus 22 : Direction Montréal;"";EXO;22 E;rue Chopin / boul. St-Jean-Baptiste;Terminus Angrignon
499892373;"{\"type\":\"LineString\",\"coordinates\":[[-73.6362702,45.4299785],[-73.6354014,45.4302887],[-73.6351444,45.4303804]]}";1;Boulevard Newman;2;50;false;true;true;false;false;false;49.5;0;0;0;0;0;false;77503;2496883138;-73.63564;45.430096;77504;6190673007;-73.629895;45.432271;1;27;28;9415966;Bus 22 : Direction Montréal;"";EXO;22 E;rue Chopin / boul. St-Jean-Baptiste;Terminus Angrignon
48160833;"{\"type\":\"LineString\",\"coordinates\":[[-73.6351444,45.4303804],[-73.6347833,45.4305112]]}";2;Boulevard Newman;2;50;false;true;true;false;false;false;32.0;1;0;0;0;0;false;77503;2496883138;-73.63564;45.430096;77504;6190673007;-73.629895;45.432271;0;27;28;9415966;Bus 22 : Direction Montréal;"";EXO;22 E;rue Chopin / boul. St-Jean-Baptiste;Terminus Angrignon
48160830;"{\"type\":\"LineString\",\"coordinates\":[[-73.6347833,45.4305112],[-73.6346683,45.4305503]]}";3;Boulevard Newman;2;50;false;true;true;false;false;false;10.0;2;0;0;0;0;false;77503;2496883138;-73.63564;45.430096;77504;6190673007;-73.629895;45.432271;0;27;28;9415966;Bus 22 : Direction Montréal;"";EXO;22 E;rue Chopin / boul. St-Jean-Baptiste;Terminus Angrignon
451896832;"{\"type\":\"LineString\",\"coordinates\":[[-73.6346683,45.4305503],[-73.6335195,45.4309641]]}";4;Boulevard Newman;2;50;false;true;true;false;false;false;101.0;1;0;0;0;0;false;77503;2496883138;-73.63564;45.430096;77504;6190673007;-73.629895;45.432271;0;27;28;9415966;Bus 22 : Direction Montréal;"";EXO;22 E;rue Chopin / boul. St-Jean-Baptiste;Terminus Angrignon
47919167;"{\"type\":\"LineString\",\"coordinates\":[[-73.6335195,45.4309641],[-73.633131,45.4311098],[-73.6325246,45.4313388],[-73.6312954,45.4317982],[-73.6305162,45.4320839],[-73.6300709,45.4322985],[-73.6299081,45.432377]]}";5;Boulevard Newman;2;50;false;true;true;false;false;false;162.0;2;0;0;0;0;false;77503;2496883138;-73.63564;45.430096;77504;6190673007;-73.629895;45.432271;1;27;28;9415966;Bus 22 : Direction Montréal;"";EXO;22 E;rue Chopin / boul. St-Jean-Baptiste;Terminus Angrignon
48160850;"{\"type\":\"LineString\",\"coordinates\":[[-73.6299081,45.432377],[-73.6298122,45.4324512]]}";1;Boulevard Newman;2;50;false;true;true;false;false;false;12.0;2;0;0;0;0;false;77504;6190673007;-73.629895;45.432271;77505;6190673006;-73.625354;45.436357;2;28;29;9415966;Bus 22 : Direction Montréal;"";EXO;22 E;rue Chopin / boul. St-Jean-Baptiste;Terminus Angrignon
451899718;"{\"type\":\"LineString\",\"coordinates\":[[-73.6298122,45.4324512],[-73.629582,45.4326091]]}";2;Boulevard Newman;2;50;false;true;true;false;false;false;26.0;1;0;0;0;0;false;77504;6190673007;-73.629895;45.432271;77505;6190673006;-73.625354;45.436357;0;28;29;9415966;Bus 22 : Direction Montréal;"";EXO;22 E;rue Chopin / boul. St-Jean-Baptiste;Terminus Angrignon
451902772;"{\"type\":\"LineString\",\"coordinates\":[[-73.629582,45.4326091],[-73.6292799,45.4328249],[-73.6287516,45.4333223]]}";3;Boulevard Newman;2;50;false;true;true;false;false;false;103.0;1;0;0;0;0;false;77504;6190673007;-73.629895;45.432271;77505;6190673006;-73.625354;45.436357;0;28;29;9415966;Bus 22 : Direction Montréal;"";EXO;22 E;rue Chopin / boul. St-Jean-Baptiste;Terminus Angrignon
459768275;"{\"type\":\"LineString\",\"coordinates\":[[-73.6287516,45.4333223],[-73.6283122,45.4337288]]}";4;Boulevard Newman;2;50;false;true;true;false;false;false;57.0;1;0;0;0;0;false;77504;6190673007;-73.629895;45.432271;77505;6190673006;-73.625354;45.436357;0;28;29;9415966;Bus 22 : Direction Montréal;"";EXO;22 E;rue Chopin / boul. St-Jean-Baptiste;Terminus Angrignon
451902767;"{\"type\":\"LineString\",\"coordinates\":[[-73.6283122,45.4337288],[-73.6254463,45.4363803],[-73.6253754,45.4364459]]}";5;Boulevard Newman;2;50;false;true;true;false;false;false;380.0;1;0;0;0;0;false;77504;6190673007;-73.629895;45.432271;77505;6190673006;-73.625354;45.436357;2;28;29;9415966;Bus 22 : Direction Montréal;"";EXO;22 E;rue Chopin / boul. St-Jean-Baptiste;Terminus Angrignon
474806498;"{\"type\":\"LineString\",\"coordinates\":[[-73.6253754,45.4364459],[-73.6252167,45.4365929]]}";1;Boulevard Newman;2;50;false;true;true;false;false;false;21.0;1;0;0;0;0;false;77505;6190673006;-73.625354;45.436357;77506;6190673005;-73.622184;45.439318;2;29;30;9415966;Bus 22 : Direction Montréal;"";EXO;22 E;rue Chopin / boul. St-Jean-Baptiste;Terminus Angrignon
47919204;"{\"type\":\"LineString\",\"coordinates\":[[-73.6252167,45.4365929],[-73.6250068,45.4367873],[-73.6249228,45.4368651],[-73.6241656,45.4375664],[-73.6236633,45.4380316]]}";2;Boulevard Newman;2;50;false;true;true;false;false;false;201.0;0;0;0;0;0;false;77505;6190673006;-73.625354;45.436357;77506;6190673005;-73.622184;45.439318;0;29;30;9415966;Bus 22 : Direction Montréal;"";EXO;22 E;rue Chopin / boul. St-Jean-Baptiste;Terminus Angrignon
451911438;"{\"type\":\"LineString\",\"coordinates\":[[-73.6236633,45.4380316],[-73.6222633,45.4393282],[-73.6221791,45.4394061]]}";3;Boulevard Newman;2;50;false;true;true;false;false;false;192.0;1;0;0;0;0;false;77505;6190673006;-73.625354;45.436357;77506;6190673005;-73.622184;45.439318;2;29;30;9415966;Bus 22 : Direction Montréal;"";EXO;22 E;rue Chopin / boul. St-Jean-Baptiste;Terminus Angrignon
451912077;"{\"type\":\"LineString\",\"coordinates\":[[-73.6221791,45.4394061],[-73.6220357,45.4395171]]}";1;Boulevard Newman;2;50;false;true;true;false;false;false;17.0;1;0;0;0;0;false;77506;6190673005;-73.622184;45.439318;77509;6190673002;-73.618868;45.44129;2;30;31;9415966;Bus 22 : Direction Montréal;"";EXO;22 E;rue Chopin / boul. St-Jean-Baptiste;Terminus Angrignon
451911443;"{\"type\":\"LineString\",\"coordinates\":[[-73.6220357,45.4395171],[-73.6217961,45.4397024],[-73.6215201,45.4398581],[-73.6207891,45.4402705],[-73.6201158,45.4406503]]}";2;Boulevard Newman;2;50;false;true;true;false;false;false;197.0;1;0;0;0;0;false;77506;6190673005;-73.622184;45.439318;77509;6190673002;-73.618868;45.44129;0;30;31;9415966;Bus 22 : Direction Montréal;"";EXO;22 E;rue Chopin / boul. St-Jean-Baptiste;Terminus Angrignon
451919502;"{\"type\":\"LineString\",\"coordinates\":[[-73.6201158,45.4406503],[-73.6189511,45.4413215],[-73.6188492,45.4413802]]}";3;Boulevard Newman;2;50;false;true;true;false;false;false;128.0;2;0;0;0;0;false;77506;6190673005;-73.622184;45.439318;77509;6190673002;-73.618868;45.44129;2;30;31;9415966;Bus 22 : Direction Montréal;"";EXO;22 E;rue Chopin / boul. St-Jean-Baptiste;Terminus Angrignon
451915381;"{\"type\":\"LineString\",\"coordinates\":[[-73.6188492,45.4413802],[-73.6184953,45.4415579]]}";1;Boulevard Newman;2;50;false;true;true;false;false;false;34.0;1;0;0;0;0;false;77509;6190673002;-73.618868;45.44129;77507;6190673004;-73.614193;45.444051;2;31;32;9415966;Bus 22 : Direction Montréal;"";EXO;22 E;rue Chopin / boul. St-Jean-Baptiste;Terminus Angrignon
474611999;"{\"type\":\"LineString\",\"coordinates\":[[-73.6184953,45.4415579],[-73.6181417,45.441753]]}";2;Boulevard Newman;2;50;false;true;true;false;false;false;36.0;0;0;0;0;0;false;77509;6190673002;-73.618868;45.44129;77507;6190673004;-73.614193;45.444051;0;31;32;9415966;Bus 22 : Direction Montréal;"";EXO;22 E;rue Chopin / boul. St-Jean-Baptiste;Terminus Angrignon
47919212;"{\"type\":\"LineString\",\"coordinates\":[[-73.6181417,45.441753],[-73.6181157,45.441764],[-73.616929,45.4424374]]}";3;Boulevard Newman;2;50;false;true;true;false;false;false;122.0;1;0;0;0;0;false;77509;6190673002;-73.618868;45.44129;77507;6190673004;-73.614193;45.444051;0;31;32;9415966;Bus 22 : Direction Montréal;"";EXO;22 E;rue Chopin / boul. St-Jean-Baptiste;Terminus Angrignon
474611754;"{\"type\":\"LineString\",\"coordinates\":[[-73.616929,45.4424374],[-73.6162807,45.442805]]}";4;Boulevard Newman;2;50;false;true;true;false;false;false;66.0;1;0;0;0;0;false;77509;6190673002;-73.618868;45.44129;77507;6190673004;-73.614193;45.444051;0;31;32;9415966;Bus 22 : Direction Montréal;"";EXO;22 E;rue Chopin / boul. St-Jean-Baptiste;Terminus Angrignon
451921073;"{\"type\":\"LineString\",\"coordinates\":[[-73.6162807,45.442805],[-73.6155407,45.4432328],[-73.6150091,45.4435611],[-73.6148294,45.4436721],[-73.6143092,45.4440406],[-73.614192,45.4441237]]}";5;Boulevard Newman;2;50;false;true;true;false;false;false;220.0;1;0;0;0;0;false;77509;6190673002;-73.618868;45.44129;77507;6190673004;-73.614193;45.444051;2;31;32;9415966;Bus 22 : Direction Montréal;"";EXO;22 E;rue Chopin / boul. St-Jean-Baptiste;Terminus Angrignon
452083149;"{\"type\":\"LineString\",\"coordinates\":[[-73.614192,45.4441237],[-73.6140723,45.4442118],[-73.6139105,45.4443308]]}";1;Boulevard Newman;2;50;false;true;true;false;false;false;32.0;1;1;0;0;0;false;77507;6190673004;-73.614193;45.444051;77508;6190673003;-73.610059;45.447219;2;32;33;9415966;Bus 22 : Direction Montréal;"";EXO;22 E;rue Chopin / boul. St-Jean-Baptiste;Terminus Angrignon
48421822;"{\"type\":\"LineString\",\"coordinates\":[[-73.6139105,45.4443308],[-73.6121161,45.4457914],[-73.6120452,45.4458491],[-73.6119053,45.4459509],[-73.6100401,45.4474404]]}";2;Boulevard Newman;2;50;false;true;true;false;false;false;460.0;2;0;0;0;0;false;77507;6190673004;-73.614193;45.444051;77508;6190673003;-73.610059;45.447219;2;32;33;9415966;Bus 22 : Direction Montréal;"";EXO;22 E;rue Chopin / boul. St-Jean-Baptiste;Terminus Angrignon
48421822;"{\"type\":\"LineString\",\"coordinates\":[[-73.6139105,45.4443308],[-73.6121161,45.4457914],[-73.6120452,45.4458491],[-73.6119053,45.4459509],[-73.6100401,45.4474404]]}";1;Boulevard Newman;2;50;false;true;true;false;false;false;230.0;2;0;0;0;0;false;77508;6190673003;-73.610059;45.447219;78364;6190671014;-73.604996;45.446132;1;33;34;9415966;Bus 22 : Direction Montréal;"";EXO;22 E;rue Chopin / boul. St-Jean-Baptiste;Terminus Angrignon
48421823;"{\"type\":\"LineString\",\"coordinates\":[[-73.6100401,45.4474404],[-73.6097951,45.4475011],[-73.6096536,45.4475354],[-73.6095051,45.4475336],[-73.6094491,45.4475329],[-73.6092461,45.4474675]]}";2;"";1;50;false;true;true;false;false;false;66.0;0;1;0;0;0;false;77508;6190673003;-73.610059;45.447219;78364;6190671014;-73.604996;45.446132;0;33;34;9415966;Bus 22 : Direction Montréal;"";EXO;22 E;rue Chopin / boul. St-Jean-Baptiste;Terminus Angrignon
48422487;"{\"type\":\"LineString\",\"coordinates\":[[-73.6092461,45.4474675],[-73.6086772,45.4471995],[-73.6084232,45.4471241],[-73.6082155,45.4470716],[-73.6079899,45.4470352],[-73.6077512,45.4470107],[-73.6074132,45.4469994],[-73.6064181,45.4470371],[-73.6062518,45.4470427],[-73.6059407,45.4470615]]}";3;Boulevard Angrignon;2;50;false;true;true;false;false;false;272.0;0;0;0;0;0;false;77508;6190673003;-73.610059;45.447219;78364;6190671014;-73.604996;45.446132;0;33;34;9415966;Bus 22 : Direction Montréal;"";EXO;22 E;rue Chopin / boul. St-Jean-Baptiste;Terminus Angrignon
453684373;"{\"type\":\"LineString\",\"coordinates\":[[-73.6059407,45.4470615],[-73.6054606,45.4471105],[-73.6052326,45.4471255],[-73.6049617,45.4471142]]}";4;Boulevard Angrignon;2;50;false;true;true;false;false;false;78.0;0;0;0;0;0;false;77508;6190673003;-73.610059;45.447219;78364;6190671014;-73.604996;45.446132;0;33;34;9415966;Bus 22 : Direction Montréal;"";EXO;22 E;rue Chopin / boul. St-Jean-Baptiste;Terminus Angrignon
95223743;"{\"type\":\"LineString\",\"coordinates\":[[-73.6049617,45.4471142],[-73.6049128,45.4470551],[-73.6048528,45.4469826],[-73.6048528,45.4469187],[-73.6048551,45.4468838]]}";5;"";1;50;false;true;true;false;false;false;28.0;0;1;0;0;0;false;77508;6190673003;-73.610059;45.447219;78364;6190671014;-73.604996;45.446132;0;33;34;9415966;Bus 22 : Direction Montréal;"";EXO;22 E;rue Chopin / boul. St-Jean-Baptiste;Terminus Angrignon
95223751;"{\"type\":\"LineString\",\"coordinates\":[[-73.6048551,45.4468838],[-73.6048618,45.4468414],[-73.6048479,45.4468084],[-73.6048201,45.4467749],[-73.6047148,45.4466934],[-73.6044861,45.4465021]]}";6;"";1;50;false;false;true;false;false;false;53.0;0;0;0;0;0;false;77508;6190673003;-73.610059;45.447219;78364;6190671014;-73.604996;45.446132;0;33;34;9415966;Bus 22 : Direction Montréal;"";EXO;22 E;rue Chopin / boul. St-Jean-Baptiste;Terminus Angrignon
666126652;"{\"type\":\"LineString\",\"coordinates\":[[-73.6044861,45.4465021],[-73.6045483,45.4464154],[-73.6046588,45.4463452],[-73.6047923,45.4462689],[-73.6048822,45.4462112],[-73.6049058,45.446179],[-73.6048982,45.4461397]]}";7;"";1;50;false;true;true;false;false;false;54.0;0;0;0;0;0;false;77508;6190673003;-73.610059;45.447219;78364;6190671014;-73.604996;45.446132;1;33;34;9415966;Bus 22 : Direction Montréal;"";EXO;22 E;rue Chopin / boul. St-Jean-Baptiste;Terminus Angrignon
