way_id;shape;index;name;nb_lanes;legal_speed;speed_zone_30;oneway;shares_bike;bike_box;bus_lane;dedicated_bus_lane;length;nb_traffic_signals;nb_crossings;nb_stops;nb_give_ways;nb_lvl_crossings;roundabout;stop_id_orig;node_id_orig;coord_x_orig;coord_y_orig;stop_id_dest;node_id_dest;coord_x_dest;coord_y_dest;nb_neighbouring_ways_bus_stop;ordre_orig;ordre_dest;id_line;line_name;colour;operator;ref;from;to
95223773;"{\"type\":\"LineString\",\"coordinates\":[[-73.6048982,45.4461397],[-73.6047641,45.446023],[-73.604713,45.4460061],[-73.6046676,45.4460079],[-73.6046185,45.4460181],[-73.6045657,45.4460418],[-73.6042813,45.4462225],[-73.604259,45.4462484],[-73.6042492,45.4462751],[-73.6042505,45.4463058],[-73.6042713,45.4463356],[-73.6044861,45.4465021]]}";1;"";1;50;false;true;true;false;false;false;102.0;0;0;0;0;0;false;78364;6190671014;-73.604996;45.446132;78561;6190670033;-73.61232;45.445965;1;0;1;9417262;Bus 23 : Direction Châteauguay;"";EXO;23 O;Terminus Angrignon;boul. Primeau / boul. René-Lévesque
95223751;"{\"type\":\"LineString\",\"coordinates\":[[-73.6048551,45.4468838],[-73.6048618,45.4468414],[-73.6048479,45.4468084],[-73.6048201,45.4467749],[-73.6047148,45.4466934],[-73.6044861,45.4465021]]}";2;"";1;50;false;false;true;false;false;false;53.0;0;0;0;0;0;false;78364;6190671014;-73.604996;45.446132;78561;6190670033;-73.61232;45.445965;0;0;1;9417262;Bus 23 : Direction Châteauguay;"";EXO;23 O;Terminus Angrignon;boul. Primeau / boul. René-Lévesque
95223758;"{\"type\":\"LineString\",\"coordinates\":[[-73.6045251,45.4469498],[-73.6046816,45.4468988],[-73.6047117,45.44688],[-73.6047435,45.4468706],[-73.6047709,45.4468683],[-73.6048551,45.4468838]]}";3;"";1;50;false;false;true;false;false;false;29.0;0;0;0;0;0;false;78364;6190671014;-73.604996;45.446132;78561;6190670033;-73.61232;45.445965;0;0;1;9417262;Bus 23 : Direction Châteauguay;"";EXO;23 O;Terminus Angrignon;boul. Primeau / boul. René-Lévesque
453684367;"{\"type\":\"LineString\",\"coordinates\":[[-73.6044858,45.4470492],[-73.604502,45.4470082],[-73.6045251,45.4469498]]}";4;"";1;50;false;false;true;false;false;false;12.0;0;1;0;0;0;false;78364;6190671014;-73.604996;45.446132;78561;6190670033;-73.61232;45.445965;0;0;1;9417262;Bus 23 : Direction Châteauguay;"";EXO;23 O;Terminus Angrignon;boul. Primeau / boul. René-Lévesque
453684369;"{\"type\":\"LineString\",\"coordinates\":[[-73.6044485,45.4471798],[-73.6044858,45.4470492]]}";5;Avenue Irwin;1;50;false;false;true;false;false;false;15.0;0;0;0;0;0;false;78364;6190671014;-73.604996;45.446132;78561;6190670033;-73.61232;45.445965;0;0;1;9417262;Bus 23 : Direction Châteauguay;"";EXO;23 O;Terminus Angrignon;boul. Primeau / boul. René-Lévesque
453684374;"{\"type\":\"LineString\",\"coordinates\":[[-73.6044485,45.4471798],[-73.6045924,45.4472009],[-73.6049,45.4472459]]}";6;Boulevard Angrignon;2;50;false;true;true;false;false;false;37.0;0;1;0;0;0;false;78364;6190671014;-73.604996;45.446132;78561;6190670033;-73.61232;45.445965;0;0;1;9417262;Bus 23 : Direction Châteauguay;"";EXO;23 O;Terminus Angrignon;boul. Primeau / boul. René-Lévesque
48422488;"{\"type\":\"LineString\",\"coordinates\":[[-73.6049,45.4472459],[-73.605195,45.4472403],[-73.6059755,45.4471688],[-73.6071232,45.4471161],[-73.6075773,45.4471227],[-73.6077628,45.4471398],[-73.6081153,45.447197],[-73.6083563,45.4472496],[-73.6085426,45.4473127],[-73.60904,45.4475279]]}";7;Boulevard Angrignon;2;50;false;true;true;false;false;false;335.0;0;0;0;0;0;false;78364;6190671014;-73.604996;45.446132;78561;6190670033;-73.61232;45.445965;0;0;1;9417262;Bus 23 : Direction Châteauguay;"";EXO;23 O;Terminus Angrignon;boul. Primeau / boul. René-Lévesque
48421819;"{\"type\":\"LineString\",\"coordinates\":[[-73.60904,45.4475279],[-73.6094694,45.4477276],[-73.6096053,45.4477908]]}";8;Boulevard Angrignon;2;50;false;true;true;false;false;false;53.0;1;1;0;0;0;false;78364;6190671014;-73.604996;45.446132;78561;6190670033;-73.61232;45.445965;0;0;1;9417262;Bus 23 : Direction Châteauguay;"";EXO;23 O;Terminus Angrignon;boul. Primeau / boul. René-Lévesque
48421830;"{\"type\":\"LineString\",\"coordinates\":[[-73.6096053,45.4477908],[-73.6097401,45.447852]]}";9;Boulevard Angrignon;2;50;false;true;true;false;false;false;13.0;2;0;0;0;0;false;78364;6190671014;-73.604996;45.446132;78561;6190670033;-73.61232;45.445965;0;0;1;9417262;Bus 23 : Direction Châteauguay;"";EXO;23 O;Terminus Angrignon;boul. Primeau / boul. René-Lévesque
48421831;"{\"type\":\"LineString\",\"coordinates\":[[-73.6097401,45.447852],[-73.609856,45.4477474]]}";10;Boulevard Newman;2;50;false;true;true;false;false;false;15.0;2;0;0;0;0;false;78364;6190671014;-73.604996;45.446132;78561;6190670033;-73.61232;45.445965;0;0;1;9417262;Bus 23 : Direction Châteauguay;"";EXO;23 O;Terminus Angrignon;boul. Primeau / boul. René-Lévesque
452083388;"{\"type\":\"LineString\",\"coordinates\":[[-73.609856,45.4477474],[-73.609897,45.4477113],[-73.6102145,45.4474316]]}";11;Boulevard Newman;4;50;false;true;true;false;false;false;45.0;1;1;0;0;0;false;78364;6190671014;-73.604996;45.446132;78561;6190670033;-73.61232;45.445965;0;0;1;9417262;Bus 23 : Direction Châteauguay;"";EXO;23 O;Terminus Angrignon;boul. Primeau / boul. René-Lévesque
164759173;"{\"type\":\"LineString\",\"coordinates\":[[-73.6102145,45.4474316],[-73.6103195,45.4473487],[-73.6108105,45.4469604],[-73.6119363,45.44607],[-73.6120419,45.4459864],[-73.6121228,45.4459272],[-73.6133122,45.444979],[-73.6141426,45.444332],[-73.6141914,45.4442959],[-73.6143457,45.4441958]]}";12;Boulevard Newman;4;50;false;true;true;false;false;false;242.0;3;1;0;0;0;false;78364;6190671014;-73.604996;45.446132;78561;6190670033;-73.61232;45.445965;1;0;1;9417262;Bus 23 : Direction Châteauguay;"";EXO;23 O;Terminus Angrignon;boul. Primeau / boul. René-Lévesque
452083150;"{\"type\":\"LineString\",\"coordinates\":[[-73.6143457,45.4441958],[-73.6146378,45.4440045]]}";1;Boulevard Newman;4;50;false;true;true;false;false;false;32.0;1;0;0;0;0;false;78564;6190670031;-73.614322;45.4443;78568;6190670028;-73.619604;45.441188;2;2;3;9417262;Bus 23 : Direction Châteauguay;"";EXO;23 O;Terminus Angrignon;boul. Primeau / boul. René-Lévesque
452083151;"{\"type\":\"LineString\",\"coordinates\":[[-73.6146378,45.4440045],[-73.6152217,45.4436317],[-73.6156832,45.4433659],[-73.6157717,45.4433118],[-73.6164012,45.4429272],[-73.6169238,45.4426079]]}";2;Boulevard Newman;4;50;false;true;true;false;false;false;237.0;0;0;0;0;0;false;78564;6190670031;-73.614322;45.4443;78568;6190670028;-73.619604;45.441188;0;2;3;9417262;Bus 23 : Direction Châteauguay;"";EXO;23 O;Terminus Angrignon;boul. Primeau / boul. René-Lévesque
451921072;"{\"type\":\"LineString\",\"coordinates\":[[-73.6169238,45.4426079],[-73.6169976,45.4425628],[-73.617067,45.4425234]]}";3;Boulevard Newman;4;50;false;true;true;false;false;false;15.0;1;0;0;0;0;false;78564;6190670031;-73.614322;45.4443;78568;6190670028;-73.619604;45.441188;0;2;3;9417262;Bus 23 : Direction Châteauguay;"";EXO;23 O;Terminus Angrignon;boul. Primeau / boul. René-Lévesque
474611752;"{\"type\":\"LineString\",\"coordinates\":[[-73.617067,45.4425234],[-73.6172827,45.4423886],[-73.6174863,45.4422756]]}";4;Boulevard Newman;4;50;false;true;true;false;false;false;43.0;1;0;0;0;0;false;78564;6190670031;-73.614322;45.4443;78568;6190670028;-73.619604;45.441188;0;2;3;9417262;Bus 23 : Direction Châteauguay;"";EXO;23 O;Terminus Angrignon;boul. Primeau / boul. René-Lévesque
451921074;"{\"type\":\"LineString\",\"coordinates\":[[-73.6174863,45.4422756],[-73.6178819,45.4420562],[-73.6182692,45.4418413],[-73.6188681,45.4415136],[-73.6189965,45.4414433]]}";5;Boulevard Newman;4;50;false;true;true;false;false;false;150.0;1;0;0;0;0;false;78564;6190670031;-73.614322;45.4443;78568;6190670028;-73.619604;45.441188;0;2;3;9417262;Bus 23 : Direction Châteauguay;"";EXO;23 O;Terminus Angrignon;boul. Primeau / boul. René-Lévesque
451915378;"{\"type\":\"LineString\",\"coordinates\":[[-73.6189965,45.4414433],[-73.6193815,45.4412225]]}";6;Boulevard Newman;4;50;false;true;true;false;false;false;39.0;1;0;0;0;0;false;78564;6190670031;-73.614322;45.4443;78568;6190670028;-73.619604;45.441188;0;2;3;9417262;Bus 23 : Direction Châteauguay;"";EXO;23 O;Terminus Angrignon;boul. Primeau / boul. René-Lévesque
474608653;"{\"type\":\"LineString\",\"coordinates\":[[-73.6193815,45.4412225],[-73.6202355,45.4407491]]}";7;Boulevard Newman;4;50;false;true;true;false;false;false;85.0;1;0;0;0;0;false;78564;6190670031;-73.614322;45.4443;78568;6190670028;-73.619604;45.441188;2;2;3;9417262;Bus 23 : Direction Châteauguay;"";EXO;23 O;Terminus Angrignon;boul. Primeau / boul. René-Lévesque
451915378;"{\"type\":\"LineString\",\"coordinates\":[[-73.6189965,45.4414433],[-73.6193815,45.4412225]]}";1;Boulevard Newman;4;50;false;true;true;false;false;false;39.0;1;0;0;0;0;false;78568;6190670028;-73.619604;45.441188;78565;6190670030;-73.622314;45.439561;2;3;4;9417262;Bus 23 : Direction Châteauguay;"";EXO;23 O;Terminus Angrignon;boul. Primeau / boul. René-Lévesque
474608653;"{\"type\":\"LineString\",\"coordinates\":[[-73.6193815,45.4412225],[-73.6202355,45.4407491]]}";2;Boulevard Newman;4;50;false;true;true;false;false;false;85.0;1;0;0;0;0;false;78568;6190670028;-73.619604;45.441188;78565;6190670030;-73.622314;45.439561;0;3;4;9417262;Bus 23 : Direction Châteauguay;"";EXO;23 O;Terminus Angrignon;boul. Primeau / boul. René-Lévesque
451915386;"{\"type\":\"LineString\",\"coordinates\":[[-73.6202355,45.4407491],[-73.6206368,45.4405217],[-73.6210471,45.4402903],[-73.6215578,45.4399919]]}";3;Boulevard Newman;4;50;false;true;true;false;false;false;134.0;1;0;0;0;0;false;78568;6190670028;-73.619604;45.441188;78565;6190670030;-73.622314;45.439561;0;3;4;9417262;Bus 23 : Direction Châteauguay;"";EXO;23 O;Terminus Angrignon;boul. Primeau / boul. René-Lévesque
474596231;"{\"type\":\"LineString\",\"coordinates\":[[-73.6215578,45.4399919],[-73.6218378,45.4398282],[-73.6221853,45.4395763],[-73.6223316,45.4394703]]}";4;Boulevard Newman;4;50;false;true;true;false;false;false;84.0;1;0;0;0;0;false;78568;6190670028;-73.619604;45.441188;78565;6190670030;-73.622314;45.439561;2;3;4;9417262;Bus 23 : Direction Châteauguay;"";EXO;23 O;Terminus Angrignon;boul. Primeau / boul. René-Lévesque
451911436;"{\"type\":\"LineString\",\"coordinates\":[[-73.6223316,45.4394703],[-73.6235227,45.4383628]]}";1;Boulevard Newman;4;50;false;true;true;false;false;false;155.0;1;0;0;0;0;false;78565;6190670030;-73.622314;45.439561;78567;6190670029;-73.625516;45.436575;2;4;5;9417262;Bus 23 : Direction Châteauguay;"";EXO;23 O;Terminus Angrignon;boul. Primeau / boul. René-Lévesque
451911442;"{\"type\":\"LineString\",\"coordinates\":[[-73.6235227,45.4383628],[-73.623804,45.4381013],[-73.6245338,45.4374227],[-73.6251694,45.4368318]]}";2;Boulevard Newman;4;50;false;true;true;false;false;false;214.0;0;0;0;0;0;false;78565;6190670030;-73.622314;45.439561;78567;6190670029;-73.625516;45.436575;0;4;5;9417262;Bus 23 : Direction Châteauguay;"";EXO;23 O;Terminus Angrignon;boul. Primeau / boul. René-Lévesque
474806499;"{\"type\":\"LineString\",\"coordinates\":[[-73.6251694,45.4368318],[-73.6254258,45.4365934],[-73.6255181,45.4365075]]}";3;Boulevard Newman;4;50;false;true;true;false;false;false;46.0;1;0;0;0;0;false;78565;6190670030;-73.622314;45.439561;78567;6190670029;-73.625516;45.436575;2;4;5;9417262;Bus 23 : Direction Châteauguay;"";EXO;23 O;Terminus Angrignon;boul. Primeau / boul. René-Lévesque
451902771;"{\"type\":\"LineString\",\"coordinates\":[[-73.6255181,45.4365075],[-73.6262213,45.4358634]]}";1;Boulevard Newman;4;50;false;true;true;false;false;false;91.0;1;0;0;0;0;false;78567;6190670029;-73.625516;45.436575;78559;6190670035;-73.630103;45.432593;2;5;6;9417262;Bus 23 : Direction Châteauguay;"";EXO;23 O;Terminus Angrignon;boul. Primeau / boul. René-Lévesque
451902762;"{\"type\":\"LineString\",\"coordinates\":[[-73.6262213,45.4358634],[-73.626498,45.4356099],[-73.6266151,45.4355026],[-73.6268099,45.4353242],[-73.6269009,45.4352381],[-73.6270871,45.4350618],[-73.6272686,45.43489],[-73.6273137,45.4348473],[-73.6282783,45.4339341],[-73.6283462,45.4338698],[-73.6284204,45.4337997]]}";2;Boulevard Newman;4;50;false;true;true;false;false;false;287.0;0;0;0;0;0;false;78567;6190670029;-73.625516;45.436575;78559;6190670035;-73.630103;45.432593;0;5;6;9417262;Bus 23 : Direction Châteauguay;"";EXO;23 O;Terminus Angrignon;boul. Primeau / boul. René-Lévesque
459768278;"{\"type\":\"LineString\",\"coordinates\":[[-73.6284204,45.4337997],[-73.6288556,45.4333888]]}";3;Boulevard Newman;4;50;false;true;true;false;false;false;57.0;1;0;0;0;0;false;78567;6190670029;-73.625516;45.436575;78559;6190670035;-73.630103;45.432593;0;5;6;9417262;Bus 23 : Direction Châteauguay;"";EXO;23 O;Terminus Angrignon;boul. Primeau / boul. René-Lévesque
459768280;"{\"type\":\"LineString\",\"coordinates\":[[-73.6288556,45.4333888],[-73.6293722,45.4329385],[-73.6294164,45.4329],[-73.6295903,45.432759],[-73.6299666,45.4325058],[-73.6300393,45.4324616]]}";4;Boulevard Newman;4;50;false;true;true;false;false;false;139.0;2;0;0;0;0;false;78567;6190670029;-73.625516;45.436575;78559;6190670035;-73.630103;45.432593;2;5;6;9417262;Bus 23 : Direction Châteauguay;"";EXO;23 O;Terminus Angrignon;boul. Primeau / boul. René-Lévesque
451899719;"{\"type\":\"LineString\",\"coordinates\":[[-73.6300393,45.4324616],[-73.6302113,45.4323882],[-73.6309698,45.4320402],[-73.6314594,45.4318686]]}";1;Boulevard Newman;4;50;false;true;true;false;false;false;130.0;1;0;0;0;0;false;78559;6190670035;-73.630103;45.432593;78569;6190670027;-73.634174;45.43094;2;6;7;9417262;Bus 23 : Direction Châteauguay;"";EXO;23 O;Terminus Angrignon;boul. Primeau / boul. René-Lévesque
451899720;"{\"type\":\"LineString\",\"coordinates\":[[-73.6314594,45.4318686],[-73.631905,45.4317125],[-73.6319849,45.4316817],[-73.6325545,45.4314695],[-73.6335091,45.4311139],[-73.6336195,45.4310728],[-73.6337925,45.4310083],[-73.6343674,45.4307942]]}";2;Boulevard Newman;4;50;false;true;true;false;false;false;257.0;1;0;0;0;0;false;78559;6190670035;-73.630103;45.432593;78569;6190670027;-73.634174;45.43094;2;6;7;9417262;Bus 23 : Direction Châteauguay;"";EXO;23 O;Terminus Angrignon;boul. Primeau / boul. René-Lévesque
451899720;"{\"type\":\"LineString\",\"coordinates\":[[-73.6314594,45.4318686],[-73.631905,45.4317125],[-73.6319849,45.4316817],[-73.6325545,45.4314695],[-73.6335091,45.4311139],[-73.6336195,45.4310728],[-73.6337925,45.4310083],[-73.6343674,45.4307942]]}";1;Boulevard Newman;4;50;false;true;true;false;false;false;128.5;1;0;0;0;0;false;78569;6190670027;-73.634174;45.43094;78563;6190670032;-73.638512;45.429398;1;7;8;9417262;Bus 23 : Direction Châteauguay;"";EXO;23 O;Terminus Angrignon;boul. Primeau / boul. René-Lévesque
451896831;"{\"type\":\"LineString\",\"coordinates\":[[-73.6343674,45.4307942],[-73.6348092,45.4306453]]}";2;Boulevard Newman;4;50;false;true;true;false;false;false;39.0;1;0;0;0;0;false;78569;6190670027;-73.634174;45.43094;78563;6190670032;-73.638512;45.429398;0;7;8;9417262;Bus 23 : Direction Châteauguay;"";EXO;23 O;Terminus Angrignon;boul. Primeau / boul. René-Lévesque
451896830;"{\"type\":\"LineString\",\"coordinates\":[[-73.6348092,45.4306453],[-73.6349345,45.430603],[-73.6355536,45.4303763],[-73.6362864,45.4301087],[-73.6363447,45.4300874]]}";3;Boulevard Newman;4;50;false;true;true;false;false;false;136.0;2;0;0;0;0;false;78569;6190670027;-73.634174;45.43094;78563;6190670032;-73.638512;45.429398;0;7;8;9417262;Bus 23 : Direction Châteauguay;"";EXO;23 O;Terminus Angrignon;boul. Primeau / boul. René-Lévesque
499892370;"{\"type\":\"LineString\",\"coordinates\":[[-73.6363447,45.4300874],[-73.6367216,45.4299511]]}";4;Boulevard Newman;4;50;false;true;true;false;false;false;34.0;0;0;0;0;0;false;78569;6190670027;-73.634174;45.43094;78563;6190670032;-73.638512;45.429398;0;7;8;9417262;Bus 23 : Direction Châteauguay;"";EXO;23 O;Terminus Angrignon;boul. Primeau / boul. René-Lévesque
499892372;"{\"type\":\"LineString\",\"coordinates\":[[-73.6367216,45.4299511],[-73.6387666,45.4292114],[-73.6389079,45.4291628]]}";5;Boulevard Newman;4;50;false;true;true;false;false;false;96.5;1;0;0;0;0;false;78569;6190670027;-73.634174;45.43094;78563;6190670032;-73.638512;45.429398;1;7;8;9417262;Bus 23 : Direction Châteauguay;"";EXO;23 O;Terminus Angrignon;boul. Primeau / boul. René-Lévesque
499892372;"{\"type\":\"LineString\",\"coordinates\":[[-73.6367216,45.4299511],[-73.6387666,45.4292114],[-73.6389079,45.4291628]]}";1;Boulevard Newman;4;50;false;true;true;false;false;false;96.5;1;0;0;0;0;false;78563;6190670032;-73.638512;45.429398;76557;6190673009;-73.644449;45.42728;1;8;9;9417262;Bus 23 : Direction Châteauguay;"";EXO;23 O;Terminus Angrignon;boul. Primeau / boul. René-Lévesque
477486651;"{\"type\":\"LineString\",\"coordinates\":[[-73.6389079,45.4291628],[-73.6390096,45.4291304]]}";2;Boulevard Newman;4;50;false;true;true;false;false;false;9.0;2;0;0;0;0;false;78563;6190670032;-73.638512;45.429398;76557;6190673009;-73.644449;45.42728;0;8;9;9417262;Bus 23 : Direction Châteauguay;"";EXO;23 O;Terminus Angrignon;boul. Primeau / boul. René-Lévesque
477486650;"{\"type\":\"LineString\",\"coordinates\":[[-73.6390096,45.4291304],[-73.6394363,45.4289689],[-73.6395494,45.4289278]]}";3;Boulevard Newman;4;50;false;true;true;false;false;false;48.0;2;0;0;0;0;false;78563;6190670032;-73.638512;45.429398;76557;6190673009;-73.644449;45.42728;0;8;9;9417262;Bus 23 : Direction Châteauguay;"";EXO;23 O;Terminus Angrignon;boul. Primeau / boul. René-Lévesque
555505982;"{\"type\":\"LineString\",\"coordinates\":[[-73.6395494,45.4289278],[-73.6396252,45.4288995]]}";4;Boulevard Newman;4;50;false;true;true;false;false;false;7.0;2;0;0;0;0;false;78563;6190670032;-73.638512;45.429398;76557;6190673009;-73.644449;45.42728;0;8;9;9417262;Bus 23 : Direction Châteauguay;"";EXO;23 O;Terminus Angrignon;boul. Primeau / boul. René-Lévesque
456360852;"{\"type\":\"LineString\",\"coordinates\":[[-73.6396252,45.4288995],[-73.6396682,45.4288806],[-73.6396857,45.4288574]]}";5;Boulevard Newman;4;50;false;true;true;false;false;false;7.0;1;0;0;0;0;false;78563;6190670032;-73.638512;45.429398;76557;6190673009;-73.644449;45.42728;0;8;9;9417262;Bus 23 : Direction Châteauguay;"";EXO;23 O;Terminus Angrignon;boul. Primeau / boul. René-Lévesque
453533478;"{\"type\":\"LineString\",\"coordinates\":[[-73.6396857,45.4288574],[-73.6400667,45.4287493]]}";6;Boulevard Newman;4;50;false;false;true;false;false;false;33.0;0;0;0;0;0;false;78563;6190670032;-73.638512;45.429398;76557;6190673009;-73.644449;45.42728;0;8;9;9417262;Bus 23 : Direction Châteauguay;"";EXO;23 O;Terminus Angrignon;boul. Primeau / boul. René-Lévesque
424837410;"{\"type\":\"LineString\",\"coordinates\":[[-73.6400667,45.4287493],[-73.6402905,45.4286722],[-73.6407594,45.428503],[-73.6423823,45.4279076],[-73.6430408,45.4276713]]}";7;Boulevard Newman;4;50;false;false;true;false;false;false;262.0;0;0;0;0;0;false;78563;6190670032;-73.638512;45.429398;76557;6190673009;-73.644449;45.42728;0;8;9;9417262;Bus 23 : Direction Châteauguay;"";EXO;23 O;Terminus Angrignon;boul. Primeau / boul. René-Lévesque
473015245;"{\"type\":\"LineString\",\"coordinates\":[[-73.6430408,45.4276713],[-73.6434429,45.4275233]]}";8;Boulevard Newman;4;50;false;false;true;false;false;false;36.0;0;0;0;0;0;false;78563;6190670032;-73.638512;45.429398;76557;6190673009;-73.644449;45.42728;0;8;9;9417262;Bus 23 : Direction Châteauguay;"";EXO;23 O;Terminus Angrignon;boul. Primeau / boul. René-Lévesque
473015241;"{\"type\":\"LineString\",\"coordinates\":[[-73.6434429,45.4275233],[-73.6435826,45.4274734],[-73.6443837,45.4271686]]}";9;Boulevard Newman;4;50;false;false;true;false;false;false;42.0;0;0;0;0;0;false;78563;6190670032;-73.638512;45.429398;76557;6190673009;-73.644449;45.42728;1;8;9;9417262;Bus 23 : Direction Châteauguay;"";EXO;23 O;Terminus Angrignon;boul. Primeau / boul. René-Lévesque
452039035;"{\"type\":\"LineString\",\"coordinates\":[[-73.6491969,45.4254348],[-73.6497035,45.4251971]]}";1;Boulevard Newman;4;50;false;false;true;false;false;false;48.0;0;0;0;0;0;false;78315;6190671056;-73.649156;45.425473;78606;6190670003;-73.683171;45.399932;2;10;11;9417262;Bus 23 : Direction Châteauguay;"";EXO;23 O;Terminus Angrignon;boul. Primeau / boul. René-Lévesque
452039036;"{\"type\":\"LineString\",\"coordinates\":[[-73.6501443,45.4252705],[-73.6497035,45.4251971]]}";2;Rue Airlie;1;50;false;false;true;false;false;false;36.0;0;0;0;0;0;false;78315;6190671056;-73.649156;45.425473;78606;6190670003;-73.683171;45.399932;0;10;11;9417262;Bus 23 : Direction Châteauguay;"";EXO;23 O;Terminus Angrignon;boul. Primeau / boul. René-Lévesque
673471346;"{\"type\":\"LineString\",\"coordinates\":[[-73.6503762,45.4253084],[-73.6501443,45.4252705]]}";3;Rue Airlie;1;50;false;false;true;false;false;false;19.0;0;0;0;0;0;false;78315;6190671056;-73.649156;45.425473;78606;6190670003;-73.683171;45.399932;0;10;11;9417262;Bus 23 : Direction Châteauguay;"";EXO;23 O;Terminus Angrignon;boul. Primeau / boul. René-Lévesque
422433304;"{\"type\":\"LineString\",\"coordinates\":[[-73.6503762,45.4253084],[-73.6504724,45.4252292],[-73.6505603,45.4251427],[-73.650629,45.4250297],[-73.6507629,45.4247626],[-73.650858,45.4245509],[-73.6509106,45.4244531],[-73.6509705,45.4243699]]}";4;"";1;50;false;true;true;false;false;false;116.0;0;0;0;0;0;false;78315;6190671056;-73.649156;45.425473;78606;6190670003;-73.683171;45.399932;0;10;11;9417262;Bus 23 : Direction Châteauguay;"";EXO;23 O;Terminus Angrignon;boul. Primeau / boul. René-Lévesque
490755724;"{\"type\":\"LineString\",\"coordinates\":[[-73.6509705,45.4243699],[-73.6511138,45.4242673],[-73.6513461,45.4240427],[-73.6515249,45.4237494],[-73.6517747,45.4232899],[-73.652203,45.4226081]]}";5;"";1;50;false;true;false;false;false;false;220.0;0;0;0;0;0;false;78315;6190671056;-73.649156;45.425473;78606;6190670003;-73.683171;45.399932;0;10;11;9417262;Bus 23 : Direction Châteauguay;"";EXO;23 O;Terminus Angrignon;boul. Primeau / boul. René-Lévesque
467989463;"{\"type\":\"LineString\",\"coordinates\":[[-73.652203,45.4226081],[-73.652266,45.4224832]]}";6;Route 138;1;50;false;true;true;false;false;false;15.0;0;0;0;0;0;false;78315;6190671056;-73.649156;45.425473;78606;6190670003;-73.683171;45.399932;0;10;11;9417262;Bus 23 : Direction Châteauguay;"";EXO;23 O;Terminus Angrignon;boul. Primeau / boul. René-Lévesque
417092084;"{\"type\":\"LineString\",\"coordinates\":[[-73.652266,45.4224832],[-73.6523849,45.4222466]]}";7;Pont Honoré-Mercier;1;50;false;true;true;false;false;false;28.0;0;0;0;0;0;false;78315;6190671056;-73.649156;45.425473;78606;6190670003;-73.683171;45.399932;0;10;11;9417262;Bus 23 : Direction Châteauguay;"";EXO;23 O;Terminus Angrignon;boul. Primeau / boul. René-Lévesque
482530517;"{\"type\":\"LineString\",\"coordinates\":[[-73.6523849,45.4222466],[-73.6524512,45.4221211]]}";8;Pont Honoré-Mercier;1;50;false;true;false;false;false;false;15.0;0;0;0;0;0;false;78315;6190671056;-73.649156;45.425473;78606;6190670003;-73.683171;45.399932;0;10;11;9417262;Bus 23 : Direction Châteauguay;"";EXO;23 O;Terminus Angrignon;boul. Primeau / boul. René-Lévesque
482530518;"{\"type\":\"LineString\",\"coordinates\":[[-73.6524512,45.4221211],[-73.6527798,45.4214923]]}";9;Pont Honoré-Mercier;1;50;false;true;false;false;false;false;75.0;0;0;0;0;0;false;78315;6190671056;-73.649156;45.425473;78606;6190670003;-73.683171;45.399932;0;10;11;9417262;Bus 23 : Direction Châteauguay;"";EXO;23 O;Terminus Angrignon;boul. Primeau / boul. René-Lévesque
567465771;"{\"type\":\"LineString\",\"coordinates\":[[-73.6527798,45.4214923],[-73.6547778,45.4177144],[-73.656277,45.4147936],[-73.6564471,45.4144551],[-73.6567326,45.4138965],[-73.6574807,45.4124561],[-73.658502,45.410453],[-73.6592403,45.4089848]]}";10;Pont Honoré-Mercier;2;50;false;true;false;false;false;false;1479.0;0;0;0;0;0;false;78315;6190671056;-73.649156;45.425473;78606;6190670003;-73.683171;45.399932;0;10;11;9417262;Bus 23 : Direction Châteauguay;"";EXO;23 O;Terminus Angrignon;boul. Primeau / boul. René-Lévesque
685945572;"{\"type\":\"LineString\",\"coordinates\":[[-73.6592403,45.4089848],[-73.6593146,45.4088561],[-73.6593951,45.4087253],[-73.6594779,45.4085928],[-73.6595361,45.408509],[-73.6596993,45.4082977]]}";11;Pont Honoré-Mercier;2;70;false;true;false;false;false;false;85.0;0;0;0;0;0;false;78315;6190671056;-73.649156;45.425473;78606;6190670003;-73.683171;45.399932;0;10;11;9417262;Bus 23 : Direction Châteauguay;"";EXO;23 O;Terminus Angrignon;boul. Primeau / boul. René-Lévesque
482530519;"{\"type\":\"LineString\",\"coordinates\":[[-73.6596993,45.4082977],[-73.6603312,45.4075269],[-73.660621,45.4071637],[-73.6608681,45.4068579],[-73.6613401,45.4062694],[-73.6615113,45.4060485],[-73.6616561,45.4058905],[-73.6618306,45.4057249],[-73.662051,45.405562],[-73.6622966,45.4054152],[-73.6624994,45.4053157],[-73.662652,45.4052519],[-73.6627964,45.405198]]}";12;Pont Honoré-Mercier;2;70;false;true;false;false;false;false;428.0;0;0;0;0;0;false;78315;6190671056;-73.649156;45.425473;78606;6190670003;-73.683171;45.399932;0;10;11;9417262;Bus 23 : Direction Châteauguay;"";EXO;23 O;Terminus Angrignon;boul. Primeau / boul. René-Lévesque
48747491;"{\"type\":\"LineString\",\"coordinates\":[[-73.6627964,45.405198],[-73.6630775,45.4051134],[-73.6635366,45.4049902],[-73.6642348,45.4048001],[-73.6648979,45.4046224],[-73.6655088,45.4044566],[-73.6661857,45.4042722],[-73.6668546,45.4040911],[-73.6674442,45.4039379],[-73.6679272,45.4038067],[-73.6695947,45.4033564]]}";13;Pont Honoré-Mercier;2;70;false;true;false;false;false;false;570.0;0;0;0;0;0;false;78315;6190671056;-73.649156;45.425473;78606;6190670003;-73.683171;45.399932;0;10;11;9417262;Bus 23 : Direction Châteauguay;"";EXO;23 O;Terminus Angrignon;boul. Primeau / boul. René-Lévesque
678489529;"{\"type\":\"LineString\",\"coordinates\":[[-73.6695947,45.4033564],[-73.6718958,45.4027794]]}";14;Route 132/138;2;70;false;true;false;false;false;false;192.0;0;0;0;0;0;false;78315;6190671056;-73.649156;45.425473;78606;6190670003;-73.683171;45.399932;0;10;11;9417262;Bus 23 : Direction Châteauguay;"";EXO;23 O;Terminus Angrignon;boul. Primeau / boul. René-Lévesque
341667136;"{\"type\":\"LineString\",\"coordinates\":[[-73.6718958,45.4027794],[-73.6722556,45.4026894]]}";15;Route 132;2;70;false;true;true;false;false;false;30.0;0;0;0;0;0;false;78315;6190671056;-73.649156;45.425473;78606;6190670003;-73.683171;45.399932;0;10;11;9417262;Bus 23 : Direction Châteauguay;"";EXO;23 O;Terminus Angrignon;boul. Primeau / boul. René-Lévesque
45271209;"{\"type\":\"LineString\",\"coordinates\":[[-73.6722556,45.4026894],[-73.6756545,45.4017831],[-73.6760442,45.4016792],[-73.6761514,45.4016506],[-73.6770081,45.4014221],[-73.6780331,45.4011488],[-73.6786454,45.4009848],[-73.6805,45.4004879],[-73.6814883,45.4002232],[-73.6826567,45.3999102],[-73.6832169,45.3997601],[-73.6840441,45.3995385],[-73.6852715,45.3992613],[-73.6858973,45.3991751],[-73.6864028,45.3991285],[-73.6865411,45.3991158],[-73.6871365,45.399112],[-73.6877226,45.3991356],[-73.6885903,45.3991949]]}";16;Route 132;2;70;false;true;true;false;false;false;1349.0;0;0;0;0;0;false;78315;6190671056;-73.649156;45.425473;78606;6190670003;-73.683171;45.399932;2;10;11;9417262;Bus 23 : Direction Châteauguay;"";EXO;23 O;Terminus Angrignon;boul. Primeau / boul. René-Lévesque
45271209;"{\"type\":\"LineString\",\"coordinates\":[[-73.6722556,45.4026894],[-73.6756545,45.4017831],[-73.6760442,45.4016792],[-73.6761514,45.4016506],[-73.6770081,45.4014221],[-73.6780331,45.4011488],[-73.6786454,45.4009848],[-73.6805,45.4004879],[-73.6814883,45.4002232],[-73.6826567,45.3999102],[-73.6832169,45.3997601],[-73.6840441,45.3995385],[-73.6852715,45.3992613],[-73.6858973,45.3991751],[-73.6864028,45.3991285],[-73.6865411,45.3991158],[-73.6871365,45.399112],[-73.6877226,45.3991356],[-73.6885903,45.3991949]]}";1;Route 132;2;70;false;true;true;false;false;false;674.5;0;0;0;0;0;false;78606;6190670003;-73.683171;45.399932;78898;6190668828;-73.7052;45.376988;1;11;12;9417262;Bus 23 : Direction Châteauguay;"";EXO;23 O;Terminus Angrignon;boul. Primeau / boul. René-Lévesque
462337783;"{\"type\":\"LineString\",\"coordinates\":[[-73.6885903,45.3991949],[-73.6890208,45.3992024],[-73.6894727,45.3991883]]}";2;Route 132/138;2;70;false;true;true;false;false;false;70.0;1;0;0;0;0;false;78606;6190670003;-73.683171;45.399932;78898;6190668828;-73.7052;45.376988;0;11;12;9417262;Bus 23 : Direction Châteauguay;"";EXO;23 O;Terminus Angrignon;boul. Primeau / boul. René-Lévesque
462337784;"{\"type\":\"LineString\",\"coordinates\":[[-73.6894727,45.3991883],[-73.6899582,45.3991497],[-73.6904651,45.3990772]]}";3;Route 132/138;2;70;false;true;true;false;false;false;79.0;1;0;0;0;0;false;78606;6190670003;-73.683171;45.399932;78898;6190668828;-73.7052;45.376988;0;11;12;9417262;Bus 23 : Direction Châteauguay;"";EXO;23 O;Terminus Angrignon;boul. Primeau / boul. René-Lévesque
326317194;"{\"type\":\"LineString\",\"coordinates\":[[-73.6904651,45.3990772],[-73.6908661,45.3989764],[-73.6911357,45.398902],[-73.6914066,45.3988003],[-73.6917861,45.3986365],[-73.6921684,45.3984387],[-73.6925948,45.3981779],[-73.6929818,45.3978533],[-73.6932932,45.3975337],[-73.6934411,45.3973407],[-73.6935913,45.3969904]]}";4;Route 132/138;2;70;false;true;true;false;false;false;352.0;0;0;0;0;0;false;78606;6190670003;-73.683171;45.399932;78898;6190668828;-73.7052;45.376988;0;11;12;9417262;Bus 23 : Direction Châteauguay;"";EXO;23 O;Terminus Angrignon;boul. Primeau / boul. René-Lévesque
494183738;"{\"type\":\"LineString\",\"coordinates\":[[-73.6935913,45.3969904],[-73.6944419,45.3954988],[-73.6947906,45.3948515]]}";5;Route 132/138;5;70;false;false;true;false;false;false;256.0;0;0;0;0;0;false;78606;6190670003;-73.683171;45.399932;78898;6190668828;-73.7052;45.376988;0;11;12;9417262;Bus 23 : Direction Châteauguay;"";EXO;23 O;Terminus Angrignon;boul. Primeau / boul. René-Lévesque
13856278;"{\"type\":\"LineString\",\"coordinates\":[[-73.6947906,45.3948515],[-73.6949582,45.3946793],[-73.695728,45.393318]]}";6;Route 132/138;5;70;false;true;true;false;false;false;186.0;1;0;0;0;0;false;78606;6190670003;-73.683171;45.399932;78898;6190668828;-73.7052;45.376988;0;11;12;9417262;Bus 23 : Direction Châteauguay;"";EXO;23 O;Terminus Angrignon;boul. Primeau / boul. René-Lévesque
494183736;"{\"type\":\"LineString\",\"coordinates\":[[-73.695728,45.393318],[-73.6962819,45.3923626],[-73.6964738,45.3918936]]}";7;Route 132/138;5;70;false;true;true;false;false;false;169.0;1;0;0;0;0;false;78606;6190670003;-73.683171;45.399932;78898;6190668828;-73.7052;45.376988;0;11;12;9417262;Bus 23 : Direction Châteauguay;"";EXO;23 O;Terminus Angrignon;boul. Primeau / boul. René-Lévesque
638130703;"{\"type\":\"LineString\",\"coordinates\":[[-73.6964738,45.3918936],[-73.6983132,45.3886906],[-73.7044729,45.3779945]]}";8;Route 132;5;70;false;false;true;false;false;false;1666.0;0;0;0;0;0;false;78606;6190670003;-73.683171;45.399932;78898;6190668828;-73.7052;45.376988;0;11;12;9417262;Bus 23 : Direction Châteauguay;"";EXO;23 O;Terminus Angrignon;boul. Primeau / boul. René-Lévesque
494183737;"{\"type\":\"LineString\",\"coordinates\":[[-73.7044729,45.3779945],[-73.7046146,45.3778855],[-73.7052121,45.3768862]]}";9;Route 132;5;70;false;true;true;false;false;false;68.5;1;0;0;0;0;false;78606;6190670003;-73.683171;45.399932;78898;6190668828;-73.7052;45.376988;1;11;12;9417262;Bus 23 : Direction Châteauguay;"";EXO;23 O;Terminus Angrignon;boul. Primeau / boul. René-Lévesque
638130697;"{\"type\":\"LineString\",\"coordinates\":[[-73.7052121,45.3768862],[-73.7056223,45.376185],[-73.7058002,45.3758808]]}";1;Route 132;5;70;false;true;true;false;false;false;121.0;1;0;0;0;0;false;78898;6190668828;-73.7052;45.376988;78128;6190672391;-73.712612;45.368834;2;12;13;9417262;Bus 23 : Direction Châteauguay;"";EXO;23 O;Terminus Angrignon;boul. Primeau / boul. René-Lévesque
638130700;"{\"type\":\"LineString\",\"coordinates\":[[-73.7058002,45.3758808],[-73.7057841,45.3757376]]}";2;Route 132;5;70;false;true;true;false;false;false;16.0;0;0;0;0;0;false;78898;6190668828;-73.7052;45.376988;78128;6190672391;-73.712612;45.368834;0;12;13;9417262;Bus 23 : Direction Châteauguay;"";EXO;23 O;Terminus Angrignon;boul. Primeau / boul. René-Lévesque
638130699;"{\"type\":\"LineString\",\"coordinates\":[[-73.7057841,45.3757376],[-73.7059489,45.3754557],[-73.7061827,45.3750558],[-73.7077504,45.3723743],[-73.7094727,45.3694074]]}";3;Route 132;5;70;false;false;true;false;false;false;760.0;0;0;0;0;0;false;78898;6190668828;-73.7052;45.376988;78128;6190672391;-73.712612;45.368834;0;12;13;9417262;Bus 23 : Direction Châteauguay;"";EXO;23 O;Terminus Angrignon;boul. Primeau / boul. René-Lévesque
342545892;"{\"type\":\"LineString\",\"coordinates\":[[-73.7094727,45.3694074],[-73.7095933,45.3692952],[-73.7099265,45.3687802]]}";4;Boulevard Saint-Jean-Baptiste;2;50;false;true;true;false;false;false;79.0;0;0;0;0;0;false;78898;6190668828;-73.7052;45.376988;78128;6190672391;-73.712612;45.368834;0;12;13;9417262;Bus 23 : Direction Châteauguay;"";EXO;23 O;Terminus Angrignon;boul. Primeau / boul. René-Lévesque
341667133;"{\"type\":\"LineString\",\"coordinates\":[[-73.7099265,45.3687802],[-73.7101067,45.3686221],[-73.7101943,45.3685874],[-73.7102726,45.3685688],[-73.7103689,45.3685601],[-73.710492,45.3685568]]}";5;"";1;50;false;true;true;false;false;false;55.0;0;0;0;0;0;false;78898;6190668828;-73.7052;45.376988;78128;6190672391;-73.712612;45.368834;0;12;13;9417262;Bus 23 : Direction Châteauguay;"";EXO;23 O;Terminus Angrignon;boul. Primeau / boul. René-Lévesque
462338991;"{\"type\":\"LineString\",\"coordinates\":[[-73.710492,45.3685568],[-73.710709,45.3685793],[-73.7111722,45.3686273],[-73.7121931,45.3687332],[-73.7138278,45.3689027],[-73.7147545,45.3689988]]}";6;Boulevard Saint-Francis;2;50;false;true;false;false;false;false;338.0;0;0;0;0;0;false;78898;6190668828;-73.7052;45.376988;78128;6190672391;-73.712612;45.368834;2;12;13;9417262;Bus 23 : Direction Châteauguay;"";EXO;23 O;Terminus Angrignon;boul. Primeau / boul. René-Lévesque
462338991;"{\"type\":\"LineString\",\"coordinates\":[[-73.710492,45.3685568],[-73.710709,45.3685793],[-73.7111722,45.3686273],[-73.7121931,45.3687332],[-73.7138278,45.3689027],[-73.7147545,45.3689988]]}";1;Boulevard Saint-Francis;2;50;false;true;false;false;false;false;169.0;0;0;0;0;0;false;78128;6190672391;-73.712612;45.368834;78089;6190672418;-73.716035;45.369108;1;13;14;9417262;Bus 23 : Direction Châteauguay;"";EXO;23 O;Terminus Angrignon;boul. Primeau / boul. René-Lévesque
680838748;"{\"type\":\"LineString\",\"coordinates\":[[-73.7147545,45.3689988],[-73.7162388,45.3691528]]}";2;Boulevard Saint-Francis;2;50;false;true;false;false;false;false;59.0;0;0;0;0;0;false;78128;6190672391;-73.712612;45.368834;78089;6190672418;-73.716035;45.369108;1;13;14;9417262;Bus 23 : Direction Châteauguay;"";EXO;23 O;Terminus Angrignon;boul. Primeau / boul. René-Lévesque
492755320;"{\"type\":\"LineString\",\"coordinates\":[[-73.7162463,45.369058],[-73.7162388,45.3691528]]}";1;Rue Woodbine;1;50;false;false;true;false;false;false;11.0;0;0;0;0;0;false;78089;6190672418;-73.716035;45.369108;78084;6190672423;-73.718425;45.366442;2;14;15;9417262;Bus 23 : Direction Châteauguay;"";EXO;23 O;Terminus Angrignon;boul. Primeau / boul. René-Lévesque
492755321;"{\"type\":\"LineString\",\"coordinates\":[[-73.7167579,45.3682125],[-73.7166739,45.3682778],[-73.7166042,45.3683324],[-73.716513,45.3684003],[-73.7164508,45.3684648],[-73.7163757,45.368576],[-73.7163199,45.3686848],[-73.7162914,45.3688088],[-73.7162463,45.369058]]}";2;Rue Woodbine;1;50;false;false;true;false;false;false;106.0;0;0;0;0;0;false;78089;6190672418;-73.716035;45.369108;78084;6190672423;-73.718425;45.366442;0;14;15;9417262;Bus 23 : Direction Châteauguay;"";EXO;23 O;Terminus Angrignon;boul. Primeau / boul. René-Lévesque
14328271;"{\"type\":\"LineString\",\"coordinates\":[[-73.721177,45.3638663],[-73.720801,45.3641645],[-73.7191959,45.3656962],[-73.718638,45.3661968],[-73.7184155,45.3664192],[-73.7180435,45.3667857],[-73.7176995,45.3671005],[-73.7175671,45.367236],[-73.7173318,45.3675345],[-73.7172872,45.3676058],[-73.7172341,45.3676909],[-73.7171178,45.3678643],[-73.7170199,45.368027],[-73.716903,45.3680987],[-73.7167579,45.3682125]]}";3;Rue Craik;1;50;false;false;true;false;false;false;597.0;0;1;0;0;0;false;78089;6190672418;-73.716035;45.369108;78084;6190672423;-73.718425;45.366442;2;14;15;9417262;Bus 23 : Direction Châteauguay;"";EXO;23 O;Terminus Angrignon;boul. Primeau / boul. René-Lévesque
14328271;"{\"type\":\"LineString\",\"coordinates\":[[-73.721177,45.3638663],[-73.720801,45.3641645],[-73.7191959,45.3656962],[-73.718638,45.3661968],[-73.7184155,45.3664192],[-73.7180435,45.3667857],[-73.7176995,45.3671005],[-73.7175671,45.367236],[-73.7173318,45.3675345],[-73.7172872,45.3676058],[-73.7172341,45.3676909],[-73.7171178,45.3678643],[-73.7170199,45.368027],[-73.716903,45.3680987],[-73.7167579,45.3682125]]}";1;Rue Craik;1;50;false;false;true;false;false;false;298.5;0;1;0;0;0;false;78082;6190672425;-73.720837;45.364169;78079;6190672428;-73.722655;45.363657;1;16;17;9417262;Bus 23 : Direction Châteauguay;"";EXO;23 O;Terminus Angrignon;boul. Primeau / boul. René-Lévesque
14210774;"{\"type\":\"LineString\",\"coordinates\":[[-73.7317873,45.3644841],[-73.7308668,45.3643937],[-73.7300364,45.3643274],[-73.7295506,45.36428],[-73.7273155,45.364062],[-73.7263199,45.3639655],[-73.7253242,45.363869],[-73.7226377,45.3635796],[-73.7223631,45.3635675],[-73.7219425,45.3636158],[-73.7215048,45.3637364],[-73.721177,45.3638663]]}";2;Rue McLeod;2;50;false;false;false;false;false;false;422.5;0;0;0;0;0;false;78082;6190672425;-73.720837;45.364169;78079;6190672428;-73.722655;45.363657;1;16;17;9417262;Bus 23 : Direction Châteauguay;"";EXO;23 O;Terminus Angrignon;boul. Primeau / boul. René-Lévesque
14210774;"{\"type\":\"LineString\",\"coordinates\":[[-73.7317873,45.3644841],[-73.7308668,45.3643937],[-73.7300364,45.3643274],[-73.7295506,45.36428],[-73.7273155,45.364062],[-73.7263199,45.3639655],[-73.7253242,45.363869],[-73.7226377,45.3635796],[-73.7223631,45.3635675],[-73.7219425,45.3636158],[-73.7215048,45.3637364],[-73.721177,45.3638663]]}";1;Rue McLeod;2;50;false;false;false;false;false;false;422.5;0;0;0;0;0;false;78073;6190672432;-73.727418;45.364102;78203;6190671733;-73.731812;45.36449;1;19;20;9417262;Bus 23 : Direction Châteauguay;"";EXO;23 O;Terminus Angrignon;boul. Primeau / boul. René-Lévesque
476616724;"{\"type\":\"LineString\",\"coordinates\":[[-73.7319968,45.3644977],[-73.7317873,45.3644841]]}";2;Rue McLeod;1;50;false;false;false;false;false;false;8.5;0;0;0;0;0;false;78073;6190672432;-73.727418;45.364102;78203;6190671733;-73.731812;45.36449;1;19;20;9417262;Bus 23 : Direction Châteauguay;"";EXO;23 O;Terminus Angrignon;boul. Primeau / boul. René-Lévesque
14210774;"{\"type\":\"LineString\",\"coordinates\":[[-73.7317873,45.3644841],[-73.7308668,45.3643937],[-73.7300364,45.3643274],[-73.7295506,45.36428],[-73.7273155,45.364062],[-73.7263199,45.3639655],[-73.7253242,45.363869],[-73.7226377,45.3635796],[-73.7223631,45.3635675],[-73.7219425,45.3636158],[-73.7215048,45.3637364],[-73.721177,45.3638663]]}";1;Rue McLeod;2;50;false;false;false;false;false;false;845.0;0;0;0;0;0;false;78203;6190671733;-73.731812;45.36449;78072;6190672433;-73.732809;45.360589;2;20;21;9417262;Bus 23 : Direction Châteauguay;"";EXO;23 O;Terminus Angrignon;boul. Primeau / boul. René-Lévesque
476616724;"{\"type\":\"LineString\",\"coordinates\":[[-73.7319968,45.3644977],[-73.7317873,45.3644841]]}";2;Rue McLeod;1;50;false;false;false;false;false;false;17.0;0;0;0;0;0;false;78203;6190671733;-73.731812;45.36449;78072;6190672433;-73.732809;45.360589;0;20;21;9417262;Bus 23 : Direction Châteauguay;"";EXO;23 O;Terminus Angrignon;boul. Primeau / boul. René-Lévesque
476616729;"{\"type\":\"LineString\",\"coordinates\":[[-73.7319968,45.3644977],[-73.7320517,45.3642062],[-73.7320632,45.3641486],[-73.7321372,45.3637856]]}";3;Boulevard Maple;2;50;false;true;true;false;false;false;80.0;0;0;0;0;0;false;78203;6190671733;-73.731812;45.36449;78072;6190672433;-73.732809;45.360589;0;20;21;9417262;Bus 23 : Direction Châteauguay;"";EXO;23 O;Terminus Angrignon;boul. Primeau / boul. René-Lévesque
476616716;"{\"type\":\"LineString\",\"coordinates\":[[-73.7321372,45.3637856],[-73.732214,45.3633732],[-73.732306,45.362879],[-73.7323605,45.3625863],[-73.732455,45.3620792],[-73.7325215,45.3617219],[-73.7325729,45.3614459]]}";4;Boulevard Maple;2;50;false;true;true;false;false;false;263.0;0;0;0;0;0;false;78203;6190671733;-73.731812;45.36449;78072;6190672433;-73.732809;45.360589;0;20;21;9417262;Bus 23 : Direction Châteauguay;"";EXO;23 O;Terminus Angrignon;boul. Primeau / boul. René-Lévesque
476616717;"{\"type\":\"LineString\",\"coordinates\":[[-73.7325729,45.3614459],[-73.7326298,45.3611201]]}";5;Boulevard Maple;2;50;false;true;true;false;false;false;37.0;0;0;0;0;0;false;78203;6190671733;-73.731812;45.36449;78072;6190672433;-73.732809;45.360589;0;20;21;9417262;Bus 23 : Direction Châteauguay;"";EXO;23 O;Terminus Angrignon;boul. Primeau / boul. René-Lévesque
476616722;"{\"type\":\"LineString\",\"coordinates\":[[-73.7326298,45.3611201],[-73.7326501,45.3610215],[-73.7327488,45.3605422],[-73.732757,45.3605021],[-73.7327633,45.3604634]]}";6;Boulevard Maple;2;50;false;true;true;false;false;false;74.0;1;0;0;0;0;false;78203;6190671733;-73.731812;45.36449;78072;6190672433;-73.732809;45.360589;2;20;21;9417262;Bus 23 : Direction Châteauguay;"";EXO;23 O;Terminus Angrignon;boul. Primeau / boul. René-Lévesque
666350672;"{\"type\":\"LineString\",\"coordinates\":[[-73.7389788,45.3611854],[-73.7379699,45.361054],[-73.7369873,45.3609436],[-73.7363184,45.3608729],[-73.7355666,45.3607843]]}";1;Boulevard d'Anjou;5;50;false;false;true;false;false;false;271.0;2;0;0;0;0;false;78155;6190671768;-73.735479;45.360783;78174;6190671756;-73.739014;45.361197;2;22;23;9417262;Bus 23 : Direction Châteauguay;"";EXO;23 O;Terminus Angrignon;boul. Primeau / boul. René-Lévesque
376030272;"{\"type\":\"LineString\",\"coordinates\":[[-73.7430071,45.3616212],[-73.7410139,45.3613889],[-73.7399877,45.3612946],[-73.7389788,45.3611854]]}";2;Boulevard d'Anjou;4;50;false;false;true;false;false;false;320.0;1;0;0;0;0;false;78155;6190671768;-73.735479;45.360783;78174;6190671756;-73.739014;45.361197;2;22;23;9417262;Bus 23 : Direction Châteauguay;"";EXO;23 O;Terminus Angrignon;boul. Primeau / boul. René-Lévesque
666350672;"{\"type\":\"LineString\",\"coordinates\":[[-73.7389788,45.3611854],[-73.7379699,45.361054],[-73.7369873,45.3609436],[-73.7363184,45.3608729],[-73.7355666,45.3607843]]}";1;Boulevard d'Anjou;5;50;false;false;true;false;false;false;271.0;2;0;0;0;0;false;78174;6190671756;-73.739014;45.361197;78158;6190671765;-73.74297;45.361649;2;23;24;9417262;Bus 23 : Direction Châteauguay;"";EXO;23 O;Terminus Angrignon;boul. Primeau / boul. René-Lévesque
376030272;"{\"type\":\"LineString\",\"coordinates\":[[-73.7430071,45.3616212],[-73.7410139,45.3613889],[-73.7399877,45.3612946],[-73.7389788,45.3611854]]}";2;Boulevard d'Anjou;4;50;false;false;true;false;false;false;320.0;1;0;0;0;0;false;78174;6190671756;-73.739014;45.361197;78158;6190671765;-73.74297;45.361649;2;23;24;9417262;Bus 23 : Direction Châteauguay;"";EXO;23 O;Terminus Angrignon;boul. Primeau / boul. René-Lévesque
806555421;"{\"type\":\"LineString\",\"coordinates\":[[-73.7443609,45.3617766],[-73.7440524,45.3617408],[-73.7437166,45.3617021],[-73.7431063,45.3616327],[-73.7430071,45.3616212]]}";1;Boulevard d'Anjou;4;50;false;false;true;false;false;false;108.0;0;0;0;0;0;false;78158;6190671765;-73.74297;45.361649;78173;6190671757;-73.744923;45.361884;2;24;25;9417262;Bus 23 : Direction Châteauguay;"";EXO;23 O;Terminus Angrignon;boul. Primeau / boul. René-Lévesque
806553363;"{\"type\":\"LineString\",\"coordinates\":[[-73.7443609,45.3617766],[-73.7446161,45.3618175]]}";2;Boulevard d'Anjou;4;50;false;true;true;false;false;false;21.0;0;0;0;0;0;false;78158;6190671765;-73.74297;45.361649;78173;6190671757;-73.744923;45.361884;0;24;25;9417262;Bus 23 : Direction Châteauguay;"";EXO;23 O;Terminus Angrignon;boul. Primeau / boul. René-Lévesque
44339145;"{\"type\":\"LineString\",\"coordinates\":[[-73.7446161,45.3618175],[-73.7449581,45.3618424]]}";3;Boulevard d'Anjou;3;50;false;true;true;false;false;false;27.0;0;0;0;0;0;false;78158;6190671765;-73.74297;45.361649;78173;6190671757;-73.744923;45.361884;2;24;25;9417262;Bus 23 : Direction Châteauguay;"";EXO;23 O;Terminus Angrignon;boul. Primeau / boul. René-Lévesque
13811756;"{\"type\":\"LineString\",\"coordinates\":[[-73.7449581,45.3618424],[-73.7450896,45.3618577],[-73.7452276,45.3618584],[-73.7453264,45.3618588]]}";1;Boulevard d'Anjou;2;50;false;true;true;false;false;false;29.0;0;0;0;0;0;false;78173;6190671757;-73.744923;45.361884;78184;6190671746;-73.749221;45.360154;2;25;26;9417262;Bus 23 : Direction Châteauguay;"";EXO;23 O;Terminus Angrignon;boul. Primeau / boul. René-Lévesque
339067977;"{\"type\":\"LineString\",\"coordinates\":[[-73.7453264,45.3618588],[-73.7454376,45.361844],[-73.7456289,45.361831],[-73.7457602,45.361818],[-73.7458581,45.3617981],[-73.745938,45.3617777],[-73.7460306,45.3617452],[-73.7461032,45.3617176],[-73.7461671,45.36169],[-73.7462948,45.3616017]]}";2;Boulevard d'Anjou;1;50;false;true;true;false;false;false;84.0;1;0;0;0;0;false;78173;6190671757;-73.744923;45.361884;78184;6190671746;-73.749221;45.360154;0;25;26;9417262;Bus 23 : Direction Châteauguay;"";EXO;23 O;Terminus Angrignon;boul. Primeau / boul. René-Lévesque
473814502;"{\"type\":\"LineString\",\"coordinates\":[[-73.746412,45.361533],[-73.7462948,45.3616017]]}";3;Boulevard D'anjou;2;50;false;false;true;false;false;false;12.0;0;1;0;0;0;false;78173;6190671757;-73.744923;45.361884;78184;6190671746;-73.749221;45.360154;0;25;26;9417262;Bus 23 : Direction Châteauguay;"";EXO;23 O;Terminus Angrignon;boul. Primeau / boul. René-Lévesque
352177603;"{\"type\":\"LineString\",\"coordinates\":[[-73.746412,45.361533],[-73.7464608,45.3615025],[-73.7465485,45.3614467],[-73.7466175,45.3614028],[-73.7469966,45.3611616]]}";4;Pont Arthur-Laberge;3;50;false;false;true;false;false;false;62.0;1;1;0;0;0;false;78173;6190671757;-73.744923;45.361884;78184;6190671746;-73.749221;45.360154;0;25;26;9417262;Bus 23 : Direction Châteauguay;"";EXO;23 O;Terminus Angrignon;boul. Primeau / boul. René-Lévesque
806543246;"{\"type\":\"LineString\",\"coordinates\":[[-73.7469966,45.3611616],[-73.7474601,45.3608532]]}";5;Pont Arthur-Laberge;1;50;false;false;true;false;false;false;50.0;0;0;0;0;0;false;78173;6190671757;-73.744923;45.361884;78184;6190671746;-73.749221;45.360154;0;25;26;9417262;Bus 23 : Direction Châteauguay;"";EXO;23 O;Terminus Angrignon;boul. Primeau / boul. René-Lévesque
44027273;"{\"type\":\"LineString\",\"coordinates\":[[-73.7474601,45.3608532],[-73.7475552,45.3608169],[-73.7479338,45.3605758],[-73.7481349,45.360486],[-73.7482745,45.3604304]]}";6;Rue Principale;1;50;false;true;true;false;false;false;80.0;0;0;0;0;0;false;78173;6190671757;-73.744923;45.361884;78184;6190671746;-73.749221;45.360154;0;25;26;9417262;Bus 23 : Direction Châteauguay;"";EXO;23 O;Terminus Angrignon;boul. Primeau / boul. René-Lévesque
789683131;"{\"type\":\"LineString\",\"coordinates\":[[-73.7482745,45.3604304],[-73.7483282,45.360411],[-73.7484975,45.3603565],[-73.7486659,45.360294]]}";7;Rue Principale;2;50;false;true;true;false;false;false;35.0;0;0;0;0;0;false;78173;6190671757;-73.744923;45.361884;78184;6190671746;-73.749221;45.360154;0;25;26;9417262;Bus 23 : Direction Châteauguay;"";EXO;23 O;Terminus Angrignon;boul. Primeau / boul. René-Lévesque
789683130;"{\"type\":\"LineString\",\"coordinates\":[[-73.7486659,45.360294],[-73.7489188,45.3602205],[-73.749066,45.3601777],[-73.7491143,45.3601631],[-73.7492409,45.360125]]}";8;Rue Principale;3;50;false;true;true;false;false;false;49.0;1;1;0;0;0;false;78173;6190671757;-73.744923;45.361884;78184;6190671746;-73.749221;45.360154;2;25;26;9417262;Bus 23 : Direction Châteauguay;"";EXO;23 O;Terminus Angrignon;boul. Primeau / boul. René-Lévesque
44339180;"{\"type\":\"LineString\",\"coordinates\":[[-73.7512833,45.3595921],[-73.7516961,45.3594874]]}";1;Rue Principale;1;30;false;true;true;false;false;false;35.0;0;0;0;0;0;false;78130;6190672390;-73.751235;45.359596;78023;6190672479;-73.753547;45.359041;2;27;28;9417262;Bus 23 : Direction Châteauguay;"";EXO;23 O;Terminus Angrignon;boul. Primeau / boul. René-Lévesque
44339181;"{\"type\":\"LineString\",\"coordinates\":[[-73.7516961,45.3594874],[-73.7525456,45.3592762],[-73.752884,45.3591763]]}";2;Rue Principale;1;30;false;true;true;false;false;false;100.0;0;0;0;0;0;false;78130;6190672390;-73.751235;45.359596;78023;6190672479;-73.753547;45.359041;0;27;28;9417262;Bus 23 : Direction Châteauguay;"";EXO;23 O;Terminus Angrignon;boul. Primeau / boul. René-Lévesque
792233010;"{\"type\":\"LineString\",\"coordinates\":[[-73.752884,45.3591763],[-73.7534352,45.3590419]]}";3;Rue Principale;2;30;false;true;true;false;false;false;46.0;0;0;1;0;0;false;78130;6190672390;-73.751235;45.359596;78023;6190672479;-73.753547;45.359041;0;27;28;9417262;Bus 23 : Direction Châteauguay;"";EXO;23 O;Terminus Angrignon;boul. Primeau / boul. René-Lévesque
790003862;"{\"type\":\"LineString\",\"coordinates\":[[-73.7534352,45.3590419],[-73.7535393,45.3590301],[-73.7535795,45.3590199],[-73.7536208,45.3590101]]}";4;Rue Principale;1;50;false;true;true;false;false;false;16.0;0;2;1;0;0;false;78130;6190672390;-73.751235;45.359596;78023;6190672479;-73.753547;45.359041;2;27;28;9417262;Bus 23 : Direction Châteauguay;"";EXO;23 O;Terminus Angrignon;boul. Primeau / boul. René-Lévesque
790003866;"{\"type\":\"LineString\",\"coordinates\":[[-73.7536208,45.3590101],[-73.7537089,45.3589874],[-73.7541651,45.3588759],[-73.7543456,45.3588153]]}";1;Rue Principale;1;50;false;true;true;false;false;false;61.0;0;1;0;0;0;false;78023;6190672479;-73.753547;45.359041;78144;6190671777;-73.756579;45.3583;2;28;29;9417262;Bus 23 : Direction Châteauguay;"";EXO;23 O;Terminus Angrignon;boul. Primeau / boul. René-Lévesque
790003859;"{\"type\":\"LineString\",\"coordinates\":[[-73.7543456,45.3588153],[-73.7549324,45.3586733]]}";2;Rue Principale;2;50;false;true;true;false;false;false;49.0;0;0;0;0;0;false;78023;6190672479;-73.753547;45.359041;78144;6190671777;-73.756579;45.3583;0;28;29;9417262;Bus 23 : Direction Châteauguay;"";EXO;23 O;Terminus Angrignon;boul. Primeau / boul. René-Lévesque
790003860;"{\"type\":\"LineString\",\"coordinates\":[[-73.7549324,45.3586733],[-73.7550434,45.3586511],[-73.7552583,45.3586083],[-73.7555913,45.3585281],[-73.7559941,45.3584191]]}";3;Rue Principale;1;50;false;true;true;false;false;false;88.0;0;0;0;0;0;false;78023;6190672479;-73.753547;45.359041;78144;6190671777;-73.756579;45.3583;0;28;29;9417262;Bus 23 : Direction Châteauguay;"";EXO;23 O;Terminus Angrignon;boul. Primeau / boul. René-Lévesque
788875371;"{\"type\":\"LineString\",\"coordinates\":[[-73.7559941,45.3584191],[-73.7561415,45.358383],[-73.7562727,45.3583514]]}";4;Rue Principale;2;50;false;true;true;false;false;false;24.0;0;0;0;0;0;false;78023;6190672479;-73.753547;45.359041;78144;6190671777;-73.756579;45.3583;0;28;29;9417262;Bus 23 : Direction Châteauguay;"";EXO;23 O;Terminus Angrignon;boul. Primeau / boul. René-Lévesque
789056548;"{\"type\":\"LineString\",\"coordinates\":[[-73.7562727,45.3583514],[-73.7563501,45.3583332],[-73.7565057,45.3582965],[-73.7565473,45.3582885],[-73.7566716,45.3582709]]}";5;Rue Principale;2;50;false;true;false;false;false;false;33.0;1;1;0;0;0;false;78023;6190672479;-73.753547;45.359041;78144;6190671777;-73.756579;45.3583;2;28;29;9417262;Bus 23 : Direction Châteauguay;"";EXO;23 O;Terminus Angrignon;boul. Primeau / boul. René-Lévesque
789064189;"{\"type\":\"LineString\",\"coordinates\":[[-73.7566716,45.3582709],[-73.7568418,45.3582312]]}";1;Rue Principale;1;50;false;true;false;false;false;false;15.0;0;1;0;0;0;false;78144;6190671777;-73.756579;45.3583;78215;6190671721;-73.764045;45.356501;2;29;30;9417262;Bus 23 : Direction Châteauguay;"";EXO;23 O;Terminus Angrignon;boul. Primeau / boul. René-Lévesque
789288344;"{\"type\":\"LineString\",\"coordinates\":[[-73.7568418,45.3582312],[-73.7569824,45.3581977],[-73.7572155,45.3581421],[-73.7576919,45.3580316],[-73.7577026,45.3580291],[-73.7578553,45.3579526]]}";2;Rue Principale;1;50;false;true;true;false;false;false;86.0;0;1;0;0;0;false;78144;6190671777;-73.756579;45.3583;78215;6190671721;-73.764045;45.356501;0;29;30;9417262;Bus 23 : Direction Châteauguay;"";EXO;23 O;Terminus Angrignon;boul. Primeau / boul. René-Lévesque
788885532;"{\"type\":\"LineString\",\"coordinates\":[[-73.7593009,45.3576071],[-73.7591829,45.3576344],[-73.759058,45.3576643],[-73.7590034,45.3576774],[-73.7588878,45.3577051],[-73.7584846,45.3578018],[-73.7580866,45.3578972],[-73.7578553,45.3579526]]}";3;Rue Principale;3;50;false;false;true;false;false;false;120.0;0;1;0;0;0;false;78144;6190671777;-73.756579;45.3583;78215;6190671721;-73.764045;45.356501;0;29;30;9417262;Bus 23 : Direction Châteauguay;"";EXO;23 O;Terminus Angrignon;boul. Primeau / boul. René-Lévesque
789022468;"{\"type\":\"LineString\",\"coordinates\":[[-73.7638272,45.3565066],[-73.7636243,45.3565578],[-73.7633324,45.3566315],[-73.7632352,45.3566552],[-73.7621723,45.3569143],[-73.7618156,45.3570012],[-73.7613293,45.3571197],[-73.7602531,45.3573781],[-73.7596934,45.3575127],[-73.7594356,45.3575747],[-73.7593009,45.3576071]]}";4;Rue Principale;3;50;false;false;true;false;false;false;375.0;0;2;0;0;0;false;78144;6190671777;-73.756579;45.3583;78215;6190671721;-73.764045;45.356501;0;29;30;9417262;Bus 23 : Direction Châteauguay;"";EXO;23 O;Terminus Angrignon;boul. Primeau / boul. René-Lévesque
789022469;"{\"type\":\"LineString\",\"coordinates\":[[-73.7638272,45.3565066],[-73.7640416,45.3564912],[-73.7642832,45.356422],[-73.7643707,45.356397]]}";5;Rue Principale;1;50;false;true;true;false;false;false;45.0;0;0;0;0;0;false;78144;6190671777;-73.756579;45.3583;78215;6190671721;-73.764045;45.356501;2;29;30;9417262;Bus 23 : Direction Châteauguay;"";EXO;23 O;Terminus Angrignon;boul. Primeau / boul. René-Lévesque
789022468;"{\"type\":\"LineString\",\"coordinates\":[[-73.7638272,45.3565066],[-73.7636243,45.3565578],[-73.7633324,45.3566315],[-73.7632352,45.3566552],[-73.7621723,45.3569143],[-73.7618156,45.3570012],[-73.7613293,45.3571197],[-73.7602531,45.3573781],[-73.7596934,45.3575127],[-73.7594356,45.3575747],[-73.7593009,45.3576071]]}";1;Rue Principale;3;50;false;false;true;false;false;false;375.0;0;2;0;0;0;false;78215;6190671721;-73.764045;45.356501;78216;6190671720;-73.764949;45.355858;2;30;31;9417262;Bus 23 : Direction Châteauguay;"";EXO;23 O;Terminus Angrignon;boul. Primeau / boul. René-Lévesque
789022469;"{\"type\":\"LineString\",\"coordinates\":[[-73.7638272,45.3565066],[-73.7640416,45.3564912],[-73.7642832,45.356422],[-73.7643707,45.356397]]}";2;Rue Principale;1;50;false;true;true;false;false;false;45.0;0;0;0;0;0;false;78215;6190671721;-73.764045;45.356501;78216;6190671720;-73.764949;45.355858;0;30;31;9417262;Bus 23 : Direction Châteauguay;"";EXO;23 O;Terminus Angrignon;boul. Primeau / boul. René-Lévesque
789022471;"{\"type\":\"LineString\",\"coordinates\":[[-73.7643707,45.356397],[-73.7644792,45.3563695],[-73.7646932,45.3563153],[-73.7648229,45.3562825],[-73.7648725,45.3562439]]}";3;Rue Principale;2;50;false;true;true;false;false;false;44.0;0;1;0;0;0;false;78215;6190671721;-73.764045;45.356501;78216;6190671720;-73.764949;45.355858;0;30;31;9417262;Bus 23 : Direction Châteauguay;"";EXO;23 O;Terminus Angrignon;boul. Primeau / boul. René-Lévesque
666126654;"{\"type\":\"LineString\",\"coordinates\":[[-73.7650196,45.3562098],[-73.7648725,45.3562439]]}";4;Rue Principale;3;50;false;false;true;false;false;false;13.0;0;1;0;0;0;false;78215;6190671721;-73.764045;45.356501;78216;6190671720;-73.764949;45.355858;0;30;31;9417262;Bus 23 : Direction Châteauguay;"";EXO;23 O;Terminus Angrignon;boul. Primeau / boul. René-Lévesque
678486009;"{\"type\":\"LineString\",\"coordinates\":[[-73.7650196,45.3562098],[-73.7650055,45.3561793],[-73.7649905,45.35614],[-73.7649739,45.3561],[-73.7649519,45.3560571]]}";5;Avenue Bourdon;2;40;false;false;true;false;false;false;18.0;0;1;1;0;0;false;78215;6190671721;-73.764045;45.356501;78216;6190671720;-73.764949;45.355858;0;30;31;9417262;Bus 23 : Direction Châteauguay;"";EXO;23 O;Terminus Angrignon;boul. Primeau / boul. René-Lévesque
14896281;"{\"type\":\"LineString\",\"coordinates\":[[-73.7649519,45.3560571],[-73.7649348,45.3560206],[-73.7648761,45.3558957],[-73.7647494,45.3556262],[-73.7647101,45.35554],[-73.7646687,45.3554602],[-73.7644207,45.354949],[-73.7641717,45.3544492],[-73.7641349,45.3543759],[-73.7640965,45.3542985],[-73.7638604,45.3538169],[-73.7638212,45.3537427],[-73.763776,45.3536516],[-73.7636793,45.3534567],[-73.7634954,45.3530748],[-73.7631325,45.3523486],[-73.763028,45.3521426],[-73.7627718,45.3516376],[-73.7625481,45.3511852],[-73.762405,45.3508903]]}";6;Avenue Bourdon;2;40;false;false;true;false;false;false;608.0;0;0;5;0;0;false;78215;6190671721;-73.764045;45.356501;78216;6190671720;-73.764949;45.355858;2;30;31;9417262;Bus 23 : Direction Châteauguay;"";EXO;23 O;Terminus Angrignon;boul. Primeau / boul. René-Lévesque
13721102;"{\"type\":\"LineString\",\"coordinates\":[[-73.7555244,45.3521826],[-73.7554854,45.3522609],[-73.755323,45.3525869],[-73.7553231,45.3526174],[-73.7553332,45.3526464]]}";1;Rue Labelle;2;40;false;false;true;false;false;false;55.0;0;0;1;0;0;false;78066;6190672439;-73.7556384;45.3521545;78064;6190672441;-73.755558;45.353248;2;36;37;9417262;Bus 23 : Direction Châteauguay;"";EXO;23 O;Terminus Angrignon;boul. Primeau / boul. René-Lévesque
678228614;"{\"type\":\"LineString\",\"coordinates\":[[-73.7553332,45.3526464],[-73.7556231,45.35321],[-73.7556621,45.353287]]}";2;Rue Labelle;2;40;false;false;true;false;false;false;76.0;0;0;1;0;0;false;78066;6190672439;-73.7556384;45.3521545;78064;6190672441;-73.755558;45.353248;2;36;37;9417262;Bus 23 : Direction Châteauguay;"";EXO;23 O;Terminus Angrignon;boul. Primeau / boul. René-Lévesque
678228616;"{\"type\":\"LineString\",\"coordinates\":[[-73.7527533,45.3553438],[-73.7526871,45.3552424],[-73.7526576,45.3551808],[-73.752443,45.3547718],[-73.7521986,45.3542893],[-73.752145,45.3541835]]}";1;Rue Cabot;2;30;false;false;true;false;false;false;138.0;0;0;2;0;0;false;78062;6190672443;-73.752193;45.354115;78060;6190672445;-73.752738;45.355355;2;38;39;9417262;Bus 23 : Direction Châteauguay;"";EXO;23 O;Terminus Angrignon;boul. Primeau / boul. René-Lévesque
678228618;"{\"type\":\"LineString\",\"coordinates\":[[-73.7527533,45.3553438],[-73.7526559,45.3553694],[-73.7526495,45.3553711],[-73.7521338,45.3555001],[-73.7519779,45.3555374],[-73.7519029,45.3555548],[-73.751819,45.3555715]]}";2;Rue Richelieu;2;30;false;false;true;false;false;false;78.0;0;2;2;0;0;false;78062;6190672443;-73.752193;45.354115;78060;6190672445;-73.752738;45.355355;2;38;39;9417262;Bus 23 : Direction Châteauguay;"";EXO;23 O;Terminus Angrignon;boul. Primeau / boul. René-Lévesque
678228616;"{\"type\":\"LineString\",\"coordinates\":[[-73.7527533,45.3553438],[-73.7526871,45.3552424],[-73.7526576,45.3551808],[-73.752443,45.3547718],[-73.7521986,45.3542893],[-73.752145,45.3541835]]}";1;Rue Cabot;2;30;false;false;true;false;false;false;138.0;0;0;2;0;0;false;78060;6190672445;-73.752738;45.355355;78058;6190672447;-73.751828;45.35559;2;39;40;9417262;Bus 23 : Direction Châteauguay;"";EXO;23 O;Terminus Angrignon;boul. Primeau / boul. René-Lévesque
678228618;"{\"type\":\"LineString\",\"coordinates\":[[-73.7527533,45.3553438],[-73.7526559,45.3553694],[-73.7526495,45.3553711],[-73.7521338,45.3555001],[-73.7519779,45.3555374],[-73.7519029,45.3555548],[-73.751819,45.3555715]]}";2;Rue Richelieu;2;30;false;false;true;false;false;false;78.0;0;2;2;0;0;false;78060;6190672445;-73.752738;45.355355;78058;6190672447;-73.751828;45.35559;2;39;40;9417262;Bus 23 : Direction Châteauguay;"";EXO;23 O;Terminus Angrignon;boul. Primeau / boul. René-Lévesque
792595701;"{\"type\":\"LineString\",\"coordinates\":[[-73.7511754,45.3543537],[-73.7512206,45.3544336],[-73.7512234,45.354439],[-73.7513426,45.3546634],[-73.7513703,45.3547142],[-73.7516155,45.3551828],[-73.7516556,45.3552608],[-73.7517344,45.3554137],[-73.7517822,45.3555064],[-73.751819,45.3555715]]}";1;Boulevard Primeau;2;30;false;false;true;false;false;false;145.0;0;1;1;0;0;false;78058;6190672447;-73.751828;45.35559;78053;6190672450;-73.7512313;45.3543154;2;40;41;9417262;Bus 23 : Direction Châteauguay;"";EXO;23 O;Terminus Angrignon;boul. Primeau / boul. René-Lévesque
13721130;"{\"type\":\"LineString\",\"coordinates\":[[-73.75124,45.3516809],[-73.7511096,45.3519027],[-73.7510578,45.3519998],[-73.7510337,45.3520503],[-73.7510232,45.3520734],[-73.7509759,45.3521798],[-73.7509452,45.3522536],[-73.7509175,45.352328],[-73.7508828,45.352445],[-73.7508546,45.3525565],[-73.750836,45.3526531],[-73.7508157,45.352778],[-73.7508077,45.3528642],[-73.7508,45.3529477],[-73.7507968,45.3530107],[-73.7507968,45.353062],[-73.7507972,45.3531538],[-73.7508031,45.3532391],[-73.7508101,45.3532994],[-73.7508183,45.3533683],[-73.7508352,45.3534668],[-73.7508469,45.3535289],[-73.7509009,45.3537331],[-73.75092,45.353789],[-73.7509406,45.3538496],[-73.7509897,45.3539739],[-73.7510285,45.3540584],[-73.7510807,45.3541633],[-73.7511108,45.3542238],[-73.7511227,45.3542478],[-73.7511754,45.3543537]]}";2;Boulevard Primeau;2;50;false;false;true;false;false;false;306.0;0;1;2;0;0;false;78058;6190672447;-73.751828;45.35559;78053;6190672450;-73.7512313;45.3543154;2;40;41;9417262;Bus 23 : Direction Châteauguay;"";EXO;23 O;Terminus Angrignon;boul. Primeau / boul. René-Lévesque
792595701;"{\"type\":\"LineString\",\"coordinates\":[[-73.7511754,45.3543537],[-73.7512206,45.3544336],[-73.7512234,45.354439],[-73.7513426,45.3546634],[-73.7513703,45.3547142],[-73.7516155,45.3551828],[-73.7516556,45.3552608],[-73.7517344,45.3554137],[-73.7517822,45.3555064],[-73.751819,45.3555715]]}";1;Boulevard Primeau;2;30;false;false;true;false;false;false;145.0;0;1;1;0;0;false;78053;6190672450;-73.7512313;45.3543154;78270;6190671074;-73.75105;45.352034;2;41;42;9417262;Bus 23 : Direction Châteauguay;"";EXO;23 O;Terminus Angrignon;boul. Primeau / boul. René-Lévesque
13721130;"{\"type\":\"LineString\",\"coordinates\":[[-73.75124,45.3516809],[-73.7511096,45.3519027],[-73.7510578,45.3519998],[-73.7510337,45.3520503],[-73.7510232,45.3520734],[-73.7509759,45.3521798],[-73.7509452,45.3522536],[-73.7509175,45.352328],[-73.7508828,45.352445],[-73.7508546,45.3525565],[-73.750836,45.3526531],[-73.7508157,45.352778],[-73.7508077,45.3528642],[-73.7508,45.3529477],[-73.7507968,45.3530107],[-73.7507968,45.353062],[-73.7507972,45.3531538],[-73.7508031,45.3532391],[-73.7508101,45.3532994],[-73.7508183,45.3533683],[-73.7508352,45.3534668],[-73.7508469,45.3535289],[-73.7509009,45.3537331],[-73.75092,45.353789],[-73.7509406,45.3538496],[-73.7509897,45.3539739],[-73.7510285,45.3540584],[-73.7510807,45.3541633],[-73.7511108,45.3542238],[-73.7511227,45.3542478],[-73.7511754,45.3543537]]}";2;Boulevard Primeau;2;50;false;false;true;false;false;false;306.0;0;1;2;0;0;false;78053;6190672450;-73.7512313;45.3543154;78270;6190671074;-73.75105;45.352034;2;41;42;9417262;Bus 23 : Direction Châteauguay;"";EXO;23 O;Terminus Angrignon;boul. Primeau / boul. René-Lévesque
13721130;"{\"type\":\"LineString\",\"coordinates\":[[-73.75124,45.3516809],[-73.7511096,45.3519027],[-73.7510578,45.3519998],[-73.7510337,45.3520503],[-73.7510232,45.3520734],[-73.7509759,45.3521798],[-73.7509452,45.3522536],[-73.7509175,45.352328],[-73.7508828,45.352445],[-73.7508546,45.3525565],[-73.750836,45.3526531],[-73.7508157,45.352778],[-73.7508077,45.3528642],[-73.7508,45.3529477],[-73.7507968,45.3530107],[-73.7507968,45.353062],[-73.7507972,45.3531538],[-73.7508031,45.3532391],[-73.7508101,45.3532994],[-73.7508183,45.3533683],[-73.7508352,45.3534668],[-73.7508469,45.3535289],[-73.7509009,45.3537331],[-73.75092,45.353789],[-73.7509406,45.3538496],[-73.7509897,45.3539739],[-73.7510285,45.3540584],[-73.7510807,45.3541633],[-73.7511108,45.3542238],[-73.7511227,45.3542478],[-73.7511754,45.3543537]]}";1;Boulevard Primeau;2;50;false;false;true;false;false;false;153.0;0;1;2;0;0;false;78270;6190671074;-73.75105;45.352034;78051;6190672452;-73.752329;45.350148;1;42;43;9417262;Bus 23 : Direction Châteauguay;"";EXO;23 O;Terminus Angrignon;boul. Primeau / boul. René-Lévesque
14401811;"{\"type\":\"LineString\",\"coordinates\":[[-73.75124,45.3516809],[-73.7514388,45.3514464],[-73.7514845,45.3513757],[-73.7515394,45.351291],[-73.7517964,45.3509104],[-73.7518782,45.3507924],[-73.7520195,45.3505757]]}";2;Boulevard Primeau;2;50;false;true;true;false;false;false;138.0;0;1;0;0;0;false;78270;6190671074;-73.75105;45.352034;78051;6190672452;-73.752329;45.350148;0;42;43;9417262;Bus 23 : Direction Châteauguay;"";EXO;23 O;Terminus Angrignon;boul. Primeau / boul. René-Lévesque
793909666;"{\"type\":\"LineString\",\"coordinates\":[[-73.7520195,45.3505757],[-73.7520719,45.3504915],[-73.7520986,45.3504211]]}";3;Boulevard Primeau;2;50;false;true;true;false;false;false;19.0;0;0;0;0;0;false;78270;6190671074;-73.75105;45.352034;78051;6190672452;-73.752329;45.350148;0;42;43;9417262;Bus 23 : Direction Châteauguay;"";EXO;23 O;Terminus Angrignon;boul. Primeau / boul. René-Lévesque
793909667;"{\"type\":\"LineString\",\"coordinates\":[[-73.7520986,45.3504211],[-73.7521135,45.3503967],[-73.7521533,45.350335],[-73.7522234,45.3502266],[-73.7522524,45.3501817],[-73.752277,45.3501436],[-73.7523156,45.3500828]]}";4;Boulevard Primeau;3;50;false;true;true;false;false;false;21.0;0;1;1;0;0;false;78270;6190671074;-73.75105;45.352034;78051;6190672452;-73.752329;45.350148;1;42;43;9417262;Bus 23 : Direction Châteauguay;"";EXO;23 O;Terminus Angrignon;boul. Primeau / boul. René-Lévesque
529303821;"{\"type\":\"LineString\",\"coordinates\":[[-73.7523156,45.3500828],[-73.7524022,45.3499749]]}";1;Boulevard Primeau;2;50;false;true;true;false;false;false;14.0;0;0;0;0;0;false;78051;6190672452;-73.752329;45.350148;78049;6190672454;-73.753498;45.348346;2;43;44;9417262;Bus 23 : Direction Châteauguay;"";EXO;23 O;Terminus Angrignon;boul. Primeau / boul. René-Lévesque
529303819;"{\"type\":\"LineString\",\"coordinates\":[[-73.7524022,45.3499749],[-73.7531688,45.3487625]]}";2;Boulevard Primeau;2;50;false;true;true;false;false;false;148.0;0;0;0;0;0;false;78051;6190672452;-73.752329;45.350148;78049;6190672454;-73.753498;45.348346;0;43;44;9417262;Bus 23 : Direction Châteauguay;"";EXO;23 O;Terminus Angrignon;boul. Primeau / boul. René-Lévesque
784305114;"{\"type\":\"LineString\",\"coordinates\":[[-73.7531688,45.3487625],[-73.7531846,45.3487055],[-73.7532976,45.3485216],[-73.7533388,45.3484547]]}";3;Boulevard Primeau;3;50;false;true;true;false;false;false;37.0;0;1;0;0;0;false;78051;6190672452;-73.752329;45.350148;78049;6190672454;-73.753498;45.348346;0;43;44;9417262;Bus 23 : Direction Châteauguay;"";EXO;23 O;Terminus Angrignon;boul. Primeau / boul. René-Lévesque
784305116;"{\"type\":\"LineString\",\"coordinates\":[[-73.7533388,45.3484547],[-73.7534316,45.3483326],[-73.7535219,45.3482079],[-73.7539508,45.3475277],[-73.7541997,45.3471392],[-73.7542971,45.346942],[-73.7544303,45.3467265],[-73.7544432,45.3467083],[-73.7544588,45.3466852],[-73.754496,45.3466301]]}";4;Boulevard Primeau;2;50;false;true;true;false;false;false;223.0;1;2;0;0;0;false;78051;6190672452;-73.752329;45.350148;78049;6190672454;-73.753498;45.348346;2;43;44;9417262;Bus 23 : Direction Châteauguay;"";EXO;23 O;Terminus Angrignon;boul. Primeau / boul. René-Lévesque
784305114;"{\"type\":\"LineString\",\"coordinates\":[[-73.7531688,45.3487625],[-73.7531846,45.3487055],[-73.7532976,45.3485216],[-73.7533388,45.3484547]]}";1;Boulevard Primeau;3;50;false;true;true;false;false;false;37.0;0;1;0;0;0;false;78049;6190672454;-73.753498;45.348346;78254;6190671690;-73.754516;45.346672;2;44;45;9417262;Bus 23 : Direction Châteauguay;"";EXO;23 O;Terminus Angrignon;boul. Primeau / boul. René-Lévesque
784305116;"{\"type\":\"LineString\",\"coordinates\":[[-73.7533388,45.3484547],[-73.7534316,45.3483326],[-73.7535219,45.3482079],[-73.7539508,45.3475277],[-73.7541997,45.3471392],[-73.7542971,45.346942],[-73.7544303,45.3467265],[-73.7544432,45.3467083],[-73.7544588,45.3466852],[-73.754496,45.3466301]]}";2;Boulevard Primeau;2;50;false;true;true;false;false;false;223.0;1;2;0;0;0;false;78049;6190672454;-73.753498;45.348346;78254;6190671690;-73.754516;45.346672;1;44;45;9417262;Bus 23 : Direction Châteauguay;"";EXO;23 O;Terminus Angrignon;boul. Primeau / boul. René-Lévesque
