way_id;shape;index;name;nb_lanes;legal_speed;speed_zone_30;oneway;shares_bike;bike_box;bus_lane;dedicated_bus_lane;length;nb_traffic_signals;nb_crossings;nb_stops;nb_give_ways;nb_lvl_crossings;roundabout;stop_id_orig;node_id_orig;coord_x_orig;coord_y_orig;stop_id_dest;node_id_dest;coord_x_dest;coord_y_dest;nb_neighbouring_ways_bus_stop;ordre_orig;ordre_dest;id_line;line_name;colour;operator;ref;from;to
330153493;"{\"type\":\"LineString\",\"coordinates\":[[-73.5656438,45.558055],[-73.5657106,45.557954]]}";1;Avenue Laurier Est;1;50;false;false;true;false;false;false;13.0;0;0;0;0;0;false;52595;6010979290;-73.565644;45.557889;52643;6010965977;-73.564341;45.554908;1;0;1;4626929;Bus 427 : Express Saint-Joseph Ouest;"";STM;427-O;Laurier / Pie-IX;Station Guy-Concordia (Maisonneuve / St-Mathieu)
330153494;"{\"type\":\"LineString\",\"coordinates\":[[-73.5656438,45.558055],[-73.5648498,45.5578014],[-73.5646659,45.5577587]]}";2;Boulevard Pie-IX;2;50;false;true;true;false;false;false;84.0;0;0;0;0;0;false;52595;6010979290;-73.565644;45.557889;52643;6010965977;-73.564341;45.554908;0;0;1;4626929;Bus 427 : Express Saint-Joseph Ouest;"";STM;427-O;Laurier / Pie-IX;Station Guy-Concordia (Maisonneuve / St-Mathieu)
783158385;"{\"type\":\"LineString\",\"coordinates\":[[-73.5646659,45.5577587],[-73.562826,45.557155]]}";3;Boulevard Pie-IX;3;50;false;true;true;false;false;false;159.0;1;0;0;0;0;false;52595;6010979290;-73.565644;45.557889;52643;6010965977;-73.564341;45.554908;0;0;1;4626929;Bus 427 : Express Saint-Joseph Ouest;"";STM;427-O;Laurier / Pie-IX;Station Guy-Concordia (Maisonneuve / St-Mathieu)
330153491;"{\"type\":\"LineString\",\"coordinates\":[[-73.562826,45.557155],[-73.5632887,45.556438],[-73.5636049,45.5559479]]}";4;Boulevard Saint-Joseph Est;2;50;false;true;true;false;false;false;148.0;1;0;0;0;0;false;52595;6010979290;-73.565644;45.557889;52643;6010965977;-73.564341;45.554908;0;0;1;4626929;Bus 427 : Express Saint-Joseph Ouest;"";STM;427-O;Laurier / Pie-IX;Station Guy-Concordia (Maisonneuve / St-Mathieu)
460510194;"{\"type\":\"LineString\",\"coordinates\":[[-73.5636049,45.5559479],[-73.5639728,45.5553797]]}";5;Boulevard Saint-Joseph Est;2;50;false;true;true;false;false;false;70.0;0;0;0;0;0;false;52595;6010979290;-73.565644;45.557889;52643;6010965977;-73.564341;45.554908;0;0;1;4626929;Bus 427 : Express Saint-Joseph Ouest;"";STM;427-O;Laurier / Pie-IX;Station Guy-Concordia (Maisonneuve / St-Mathieu)
460510203;"{\"type\":\"LineString\",\"coordinates\":[[-73.5639728,45.5553797],[-73.5641621,45.5550829],[-73.5643519,45.5547853]]}";6;Boulevard Saint-Joseph Est;2;50;false;true;true;false;false;false;73.0;0;0;0;0;0;false;52595;6010979290;-73.565644;45.557889;52643;6010965977;-73.564341;45.554908;2;0;1;4626929;Bus 427 : Express Saint-Joseph Ouest;"";STM;427-O;Laurier / Pie-IX;Station Guy-Concordia (Maisonneuve / St-Mathieu)
460510199;"{\"type\":\"LineString\",\"coordinates\":[[-73.5643519,45.5547853],[-73.5645427,45.5544957]]}";1;Boulevard Saint-Joseph Est;2;50;false;true;true;false;false;false;36.0;0;0;0;0;0;false;52643;6010965977;-73.564341;45.554908;53749;5046380236;-73.5661448;45.5524359;2;1;2;4626929;Bus 427 : Express Saint-Joseph Ouest;"";STM;427-O;Laurier / Pie-IX;Station Guy-Concordia (Maisonneuve / St-Mathieu)
460703584;"{\"type\":\"LineString\",\"coordinates\":[[-73.5645427,45.5544957],[-73.5647685,45.5541536]]}";2;Boulevard Saint-Joseph Est;2;50;false;true;true;false;false;false;42.0;0;0;0;0;0;false;52643;6010965977;-73.564341;45.554908;53749;5046380236;-73.5661448;45.5524359;0;1;2;4626929;Bus 427 : Express Saint-Joseph Ouest;"";STM;427-O;Laurier / Pie-IX;Station Guy-Concordia (Maisonneuve / St-Mathieu)
460703583;"{\"type\":\"LineString\",\"coordinates\":[[-73.5647685,45.5541536],[-73.5647739,45.5541454],[-73.5651872,45.5535175]]}";3;Boulevard Saint-Joseph Est;2;50;false;true;true;false;false;false;78.0;0;0;0;0;0;false;52643;6010965977;-73.564341;45.554908;53749;5046380236;-73.5661448;45.5524359;0;1;2;4626929;Bus 427 : Express Saint-Joseph Ouest;"";STM;427-O;Laurier / Pie-IX;Station Guy-Concordia (Maisonneuve / St-Mathieu)
330153478;"{\"type\":\"LineString\",\"coordinates\":[[-73.5651872,45.5535175],[-73.5655129,45.5530506],[-73.56565,45.5528757],[-73.5658778,45.5526107],[-73.565958,45.5525303]]}";4;Boulevard Saint-Joseph Est;2;50;false;true;true;false;false;false;126.0;0;0;0;0;0;false;52643;6010965977;-73.564341;45.554908;53749;5046380236;-73.5661448;45.5524359;0;1;2;4626929;Bus 427 : Express Saint-Joseph Ouest;"";STM;427-O;Laurier / Pie-IX;Station Guy-Concordia (Maisonneuve / St-Mathieu)
454272336;"{\"type\":\"LineString\",\"coordinates\":[[-73.565958,45.5525303],[-73.5661882,45.5523069]]}";5;Boulevard Saint-Joseph Est;2;50;false;true;true;false;false;false;31.0;0;0;0;0;0;false;52643;6010965977;-73.564341;45.554908;53749;5046380236;-73.5661448;45.5524359;2;1;2;4626929;Bus 427 : Express Saint-Joseph Ouest;"";STM;427-O;Laurier / Pie-IX;Station Guy-Concordia (Maisonneuve / St-Mathieu)
454272332;"{\"type\":\"LineString\",\"coordinates\":[[-73.5661882,45.5523069],[-73.5665823,45.5519429]]}";1;Boulevard Saint-Joseph Est;2;50;false;true;true;false;false;false;51.0;0;0;0;0;0;false;53749;5046380236;-73.5661448;45.5524359;52521;5046380221;-73.5683686;45.5496946;2;2;3;4626929;Bus 427 : Express Saint-Joseph Ouest;"";STM;427-O;Laurier / Pie-IX;Station Guy-Concordia (Maisonneuve / St-Mathieu)
454272335;"{\"type\":\"LineString\",\"coordinates\":[[-73.5665823,45.5519429],[-73.5668567,45.5516582],[-73.5672523,45.5512139],[-73.5676372,45.5506583]]}";2;Boulevard Saint-Joseph Est;2;50;false;true;true;false;false;false;166.0;0;0;0;0;0;false;53749;5046380236;-73.5661448;45.5524359;52521;5046380221;-73.5683686;45.5496946;0;2;3;4626929;Bus 427 : Express Saint-Joseph Ouest;"";STM;427-O;Laurier / Pie-IX;Station Guy-Concordia (Maisonneuve / St-Mathieu)
463631266;"{\"type\":\"LineString\",\"coordinates\":[[-73.5676372,45.5506583],[-73.5679689,45.5501454],[-73.568335,45.5495504],[-73.5687372,45.5488803]]}";3;Boulevard Saint-Joseph Est;2;50;false;true;true;false;false;false;216.0;0;0;0;0;0;false;53749;5046380236;-73.5661448;45.5524359;52521;5046380221;-73.5683686;45.5496946;2;2;3;4626929;Bus 427 : Express Saint-Joseph Ouest;"";STM;427-O;Laurier / Pie-IX;Station Guy-Concordia (Maisonneuve / St-Mathieu)
463631266;"{\"type\":\"LineString\",\"coordinates\":[[-73.5676372,45.5506583],[-73.5679689,45.5501454],[-73.568335,45.5495504],[-73.5687372,45.5488803]]}";1;Boulevard Saint-Joseph Est;2;50;false;true;true;false;false;false;108.0;0;0;0;0;0;false;52521;5046380221;-73.5683686;45.5496946;52448;5036727322;-73.5700989;45.5466973;1;3;4;4626929;Bus 427 : Express Saint-Joseph Ouest;"";STM;427-O;Laurier / Pie-IX;Station Guy-Concordia (Maisonneuve / St-Mathieu)
463631263;"{\"type\":\"LineString\",\"coordinates\":[[-73.5687372,45.5488803],[-73.5690719,45.5483097]]}";2;Boulevard Saint-Joseph Est;2;50;false;true;true;false;false;false;69.0;0;0;0;0;0;false;52521;5046380221;-73.5683686;45.5496946;52448;5036727322;-73.5700989;45.5466973;0;3;4;4626929;Bus 427 : Express Saint-Joseph Ouest;"";STM;427-O;Laurier / Pie-IX;Station Guy-Concordia (Maisonneuve / St-Mathieu)
129641871;"{\"type\":\"LineString\",\"coordinates\":[[-73.5690719,45.5483097],[-73.5695575,45.5475166],[-73.5695782,45.547482],[-73.5697541,45.5471944]]}";3;Boulevard Saint-Joseph Est;2;50;false;true;true;false;false;false;135.0;0;0;0;0;0;false;52521;5046380221;-73.5683686;45.5496946;52448;5036727322;-73.5700989;45.5466973;0;3;4;4626929;Bus 427 : Express Saint-Joseph Ouest;"";STM;427-O;Laurier / Pie-IX;Station Guy-Concordia (Maisonneuve / St-Mathieu)
463631258;"{\"type\":\"LineString\",\"coordinates\":[[-73.5697541,45.5471944],[-73.569916,45.5469138],[-73.5700756,45.5466375]]}";4;Boulevard Saint-Joseph Est;2;50;false;true;true;false;false;false;33.5;0;0;0;0;0;false;52521;5046380221;-73.5683686;45.5496946;52448;5036727322;-73.5700989;45.5466973;1;3;4;4626929;Bus 427 : Express Saint-Joseph Ouest;"";STM;427-O;Laurier / Pie-IX;Station Guy-Concordia (Maisonneuve / St-Mathieu)
463631294;"{\"type\":\"LineString\",\"coordinates\":[[-73.5700756,45.5466375],[-73.5702601,45.5463585],[-73.5704302,45.5461012]]}";1;Boulevard Saint-Joseph Est;2;50;false;true;true;false;false;false;66.0;0;0;0;0;0;false;52448;5036727322;-73.5700989;45.5466973;52420;5036725423;-73.5711359;45.5450558;2;4;5;4626929;Bus 427 : Express Saint-Joseph Ouest;"";STM;427-O;Laurier / Pie-IX;Station Guy-Concordia (Maisonneuve / St-Mathieu)
463631292;"{\"type\":\"LineString\",\"coordinates\":[[-73.5704302,45.5461012],[-73.5706048,45.5458025],[-73.5707589,45.545539]]}";2;Boulevard Saint-Joseph Est;2;50;false;true;true;false;false;false;68.0;0;0;0;0;0;false;52448;5036727322;-73.5700989;45.5466973;52420;5036725423;-73.5711359;45.5450558;0;4;5;4626929;Bus 427 : Express Saint-Joseph Ouest;"";STM;427-O;Laurier / Pie-IX;Station Guy-Concordia (Maisonneuve / St-Mathieu)
463631240;"{\"type\":\"LineString\",\"coordinates\":[[-73.5707589,45.545539],[-73.5709447,45.5452444],[-73.5711136,45.5449767]]}";3;Boulevard Saint-Joseph Est;2;50;false;true;true;false;false;false;69.0;0;0;0;0;0;false;52448;5036727322;-73.5700989;45.5466973;52420;5036725423;-73.5711359;45.5450558;2;4;5;4626929;Bus 427 : Express Saint-Joseph Ouest;"";STM;427-O;Laurier / Pie-IX;Station Guy-Concordia (Maisonneuve / St-Mathieu)
463631236;"{\"type\":\"LineString\",\"coordinates\":[[-73.5711136,45.5449767],[-73.5712592,45.5447367]]}";1;Boulevard Saint-Joseph Est;2;50;false;true;true;false;false;false;29.0;0;0;0;0;0;false;52420;5036725423;-73.5711359;45.5450558;54266;5036795423;-73.5757882;45.5393582;2;5;6;4626929;Bus 427 : Express Saint-Joseph Ouest;"";STM;427-O;Laurier / Pie-IX;Station Guy-Concordia (Maisonneuve / St-Mathieu)
454267536;"{\"type\":\"LineString\",\"coordinates\":[[-73.5712592,45.5447367],[-73.5714076,45.5444923]]}";2;Boulevard Saint-Joseph Est;2;50;false;true;true;false;false;false;30.0;0;0;0;0;0;false;52420;5036725423;-73.5711359;45.5450558;54266;5036795423;-73.5757882;45.5393582;0;5;6;4626929;Bus 427 : Express Saint-Joseph Ouest;"";STM;427-O;Laurier / Pie-IX;Station Guy-Concordia (Maisonneuve / St-Mathieu)
164772690;"{\"type\":\"LineString\",\"coordinates\":[[-73.5714076,45.5444923],[-73.5717835,45.5438641],[-73.5718385,45.5437721],[-73.5719872,45.5435236],[-73.572501,45.542681]]}";3;Boulevard Saint-Joseph Est;2;50;false;true;false;false;false;false;219.0;0;0;0;0;0;false;52420;5036725423;-73.5711359;45.5450558;54266;5036795423;-73.5757882;45.5393582;0;5;6;4626929;Bus 427 : Express Saint-Joseph Ouest;"";STM;427-O;Laurier / Pie-IX;Station Guy-Concordia (Maisonneuve / St-Mathieu)
164772695;"{\"type\":\"LineString\",\"coordinates\":[[-73.572501,45.542681],[-73.5728002,45.5421829],[-73.5732488,45.5416966],[-73.5734667,45.5414817],[-73.573481,45.5414689]]}";4;Boulevard Saint-Joseph Est;2;50;false;true;true;false;false;false;156.0;0;0;0;0;0;false;52420;5036725423;-73.5711359;45.5450558;54266;5036795423;-73.5757882;45.5393582;0;5;6;4626929;Bus 427 : Express Saint-Joseph Ouest;"";STM;427-O;Laurier / Pie-IX;Station Guy-Concordia (Maisonneuve / St-Mathieu)
90829342;"{\"type\":\"LineString\",\"coordinates\":[[-73.573481,45.5414689],[-73.5737318,45.5412457]]}";5;Boulevard Saint-Joseph Est;2;50;false;true;true;false;false;false;32.0;0;0;0;0;0;false;52420;5036725423;-73.5711359;45.5450558;54266;5036795423;-73.5757882;45.5393582;0;5;6;4626929;Bus 427 : Express Saint-Joseph Ouest;"";STM;427-O;Laurier / Pie-IX;Station Guy-Concordia (Maisonneuve / St-Mathieu)
454241505;"{\"type\":\"LineString\",\"coordinates\":[[-73.5737318,45.5412457],[-73.573786,45.5411919]]}";6;Boulevard Saint-Joseph Est;2;50;false;true;true;false;false;false;8.0;1;0;0;0;0;false;52420;5036725423;-73.5711359;45.5450558;54266;5036795423;-73.5757882;45.5393582;0;5;6;4626929;Bus 427 : Express Saint-Joseph Ouest;"";STM;427-O;Laurier / Pie-IX;Station Guy-Concordia (Maisonneuve / St-Mathieu)
454241504;"{\"type\":\"LineString\",\"coordinates\":[[-73.573786,45.5411919],[-73.5751566,45.539814]]}";7;Boulevard Saint-Joseph Est;2;50;false;true;true;false;false;false;187.0;2;0;0;0;0;false;52420;5036725423;-73.5711359;45.5450558;54266;5036795423;-73.5757882;45.5393582;0;5;6;4626929;Bus 427 : Express Saint-Joseph Ouest;"";STM;427-O;Laurier / Pie-IX;Station Guy-Concordia (Maisonneuve / St-Mathieu)
463631227;"{\"type\":\"LineString\",\"coordinates\":[[-73.5751566,45.539814],[-73.5754599,45.5395282],[-73.5757577,45.5392418]]}";8;Boulevard Saint-Joseph Est;2;50;false;true;true;false;false;false;79.0;1;0;0;0;0;false;52420;5036725423;-73.5711359;45.5450558;54266;5036795423;-73.5757882;45.5393582;2;5;6;4626929;Bus 427 : Express Saint-Joseph Ouest;"";STM;427-O;Laurier / Pie-IX;Station Guy-Concordia (Maisonneuve / St-Mathieu)
90829311;"{\"type\":\"LineString\",\"coordinates\":[[-73.5757577,45.5392418],[-73.5760623,45.5389243],[-73.576308,45.5386682],[-73.5768602,45.5381103]]}";1;Boulevard Saint-Joseph Est;2;50;false;true;true;false;false;false;153.0;1;0;0;0;0;false;54266;5036795423;-73.5757882;45.5393582;52221;5036795424;-73.5773675;45.5376858;2;6;7;4626929;Bus 427 : Express Saint-Joseph Ouest;"";STM;427-O;Laurier / Pie-IX;Station Guy-Concordia (Maisonneuve / St-Mathieu)
463631226;"{\"type\":\"LineString\",\"coordinates\":[[-73.5768602,45.5381103],[-73.5774403,45.5375101]]}";2;Boulevard Saint-Joseph Est;2;50;false;true;true;false;false;false;81.0;2;0;0;0;0;false;54266;5036795423;-73.5757882;45.5393582;52221;5036795424;-73.5773675;45.5376858;2;6;7;4626929;Bus 427 : Express Saint-Joseph Ouest;"";STM;427-O;Laurier / Pie-IX;Station Guy-Concordia (Maisonneuve / St-Mathieu)
463631226;"{\"type\":\"LineString\",\"coordinates\":[[-73.5768602,45.5381103],[-73.5774403,45.5375101]]}";1;Boulevard Saint-Joseph Est;2;50;false;true;true;false;false;false;40.5;2;0;0;0;0;false;52221;5036795424;-73.5773675;45.5376858;52143;5036773522;-73.5795741;45.5354071;1;7;8;4626929;Bus 427 : Express Saint-Joseph Ouest;"";STM;427-O;Laurier / Pie-IX;Station Guy-Concordia (Maisonneuve / St-Mathieu)
464080252;"{\"type\":\"LineString\",\"coordinates\":[[-73.5774403,45.5375101],[-73.5777659,45.5371766],[-73.5780241,45.5369122]]}";2;Boulevard Saint-Joseph Est;2;50;false;true;true;false;false;false;81.0;2;0;0;0;0;false;52221;5036795424;-73.5773675;45.5376858;52143;5036773522;-73.5795741;45.5354071;0;7;8;4626929;Bus 427 : Express Saint-Joseph Ouest;"";STM;427-O;Laurier / Pie-IX;Station Guy-Concordia (Maisonneuve / St-Mathieu)
341093398;"{\"type\":\"LineString\",\"coordinates\":[[-73.5780241,45.5369122],[-73.5784765,45.5364079],[-73.5789426,45.5359198],[-73.5795615,45.5352742],[-73.5795813,45.5352535]]}";3;Boulevard Saint-Joseph Est;2;50;false;true;true;false;false;false;110.5;2;0;0;0;0;false;52221;5036795424;-73.5773675;45.5376858;52143;5036773522;-73.5795741;45.5354071;1;7;8;4626929;Bus 427 : Express Saint-Joseph Ouest;"";STM;427-O;Laurier / Pie-IX;Station Guy-Concordia (Maisonneuve / St-Mathieu)
453992346;"{\"type\":\"LineString\",\"coordinates\":[[-73.5795813,45.5352535],[-73.5802713,45.5345023]]}";1;Boulevard Saint-Joseph Est;2;50;false;true;true;false;false;false;100.0;0;0;0;0;0;false;52143;5036773522;-73.5795741;45.5354071;52080;5036808621;-73.5820272;45.5327633;2;8;9;4626929;Bus 427 : Express Saint-Joseph Ouest;"";STM;427-O;Laurier / Pie-IX;Station Guy-Concordia (Maisonneuve / St-Mathieu)
453992345;"{\"type\":\"LineString\",\"coordinates\":[[-73.5802713,45.5345023],[-73.5808831,45.5338764]]}";2;Boulevard Saint-Joseph Est;2;50;false;true;true;false;false;false;85.0;1;0;0;0;0;false;52143;5036773522;-73.5795741;45.5354071;52080;5036808621;-73.5820272;45.5327633;0;8;9;4626929;Bus 427 : Express Saint-Joseph Ouest;"";STM;427-O;Laurier / Pie-IX;Station Guy-Concordia (Maisonneuve / St-Mathieu)
452069031;"{\"type\":\"LineString\",\"coordinates\":[[-73.5808831,45.5338764],[-73.580909,45.5338499]]}";3;Boulevard Saint-Joseph Est;2;50;false;true;true;false;false;false;4.0;1;0;0;0;0;false;52143;5036773522;-73.5795741;45.5354071;52080;5036808621;-73.5820272;45.5327633;0;8;9;4626929;Bus 427 : Express Saint-Joseph Ouest;"";STM;427-O;Laurier / Pie-IX;Station Guy-Concordia (Maisonneuve / St-Mathieu)
452069030;"{\"type\":\"LineString\",\"coordinates\":[[-73.580909,45.5338499],[-73.5815019,45.5332113]]}";4;Boulevard Saint-Joseph Est;2;50;false;true;true;false;false;false;85.0;1;0;0;0;0;false;52143;5036773522;-73.5795741;45.5354071;52080;5036808621;-73.5820272;45.5327633;0;8;9;4626929;Bus 427 : Express Saint-Joseph Ouest;"";STM;427-O;Laurier / Pie-IX;Station Guy-Concordia (Maisonneuve / St-Mathieu)
452095256;"{\"type\":\"LineString\",\"coordinates\":[[-73.5815019,45.5332113],[-73.5815264,45.5331849]]}";5;Boulevard Saint-Joseph Est;2;50;false;true;true;false;false;false;4.0;1;0;0;0;0;false;52143;5036773522;-73.5795741;45.5354071;52080;5036808621;-73.5820272;45.5327633;0;8;9;4626929;Bus 427 : Express Saint-Joseph Ouest;"";STM;427-O;Laurier / Pie-IX;Station Guy-Concordia (Maisonneuve / St-Mathieu)
452069032;"{\"type\":\"LineString\",\"coordinates\":[[-73.5815264,45.5331849],[-73.5817953,45.5329044],[-73.5820517,45.5326351],[-73.5820753,45.5326103]]}";6;Boulevard Saint-Joseph Est;2;50;false;true;true;false;false;false;77.0;1;0;0;0;0;false;52143;5036773522;-73.5795741;45.5354071;52080;5036808621;-73.5820272;45.5327633;2;8;9;4626929;Bus 427 : Express Saint-Joseph Ouest;"";STM;427-O;Laurier / Pie-IX;Station Guy-Concordia (Maisonneuve / St-Mathieu)
452065064;"{\"type\":\"LineString\",\"coordinates\":[[-73.5820753,45.5326103],[-73.5824893,45.532168],[-73.582513,45.5321427]]}";1;Boulevard Saint-Joseph Est;2;30;false;true;true;false;false;false;63.0;1;0;0;0;0;false;52080;5036808621;-73.5820272;45.5327633;52017;5036773524;-73.584192;45.530403;2;9;10;4626929;Bus 427 : Express Saint-Joseph Ouest;"";STM;427-O;Laurier / Pie-IX;Station Guy-Concordia (Maisonneuve / St-Mathieu)
452065069;"{\"type\":\"LineString\",\"coordinates\":[[-73.582513,45.5321427],[-73.5829936,45.5316181]]}";2;Boulevard Saint-Joseph Est;2;40;false;true;true;false;false;false;70.0;1;0;0;0;0;false;52080;5036808621;-73.5820272;45.5327633;52017;5036773524;-73.584192;45.530403;0;9;10;4626929;Bus 427 : Express Saint-Joseph Ouest;"";STM;427-O;Laurier / Pie-IX;Station Guy-Concordia (Maisonneuve / St-Mathieu)
452065062;"{\"type\":\"LineString\",\"coordinates\":[[-73.5829936,45.5316181],[-73.5830142,45.5315956]]}";3;Boulevard Saint-Joseph Est;2;40;false;true;true;false;false;false;3.0;1;0;0;0;0;false;52080;5036808621;-73.5820272;45.5327633;52017;5036773524;-73.584192;45.530403;0;9;10;4626929;Bus 427 : Express Saint-Joseph Ouest;"";STM;427-O;Laurier / Pie-IX;Station Guy-Concordia (Maisonneuve / St-Mathieu)
452065074;"{\"type\":\"LineString\",\"coordinates\":[[-73.5830142,45.5315956],[-73.5830452,45.5315627],[-73.5830541,45.5315533],[-73.5835039,45.5310761],[-73.5835274,45.5310513]]}";4;Boulevard Saint-Joseph Est;2;40;false;true;true;false;false;false;73.0;1;1;0;0;0;false;52080;5036808621;-73.5820272;45.5327633;52017;5036773524;-73.584192;45.530403;0;9;10;4626929;Bus 427 : Express Saint-Joseph Ouest;"";STM;427-O;Laurier / Pie-IX;Station Guy-Concordia (Maisonneuve / St-Mathieu)
464057450;"{\"type\":\"LineString\",\"coordinates\":[[-73.5835274,45.5310513],[-73.5842341,45.5303129],[-73.5842618,45.530284],[-73.5848522,45.5296541]]}";5;Boulevard Saint-Joseph Est;2;50;false;true;true;false;false;false;187.0;1;0;0;0;0;false;52080;5036808621;-73.5820272;45.5327633;52017;5036773524;-73.584192;45.530403;2;9;10;4626929;Bus 427 : Express Saint-Joseph Ouest;"";STM;427-O;Laurier / Pie-IX;Station Guy-Concordia (Maisonneuve / St-Mathieu)
464057450;"{\"type\":\"LineString\",\"coordinates\":[[-73.5835274,45.5310513],[-73.5842341,45.5303129],[-73.5842618,45.530284],[-73.5848522,45.5296541]]}";1;Boulevard Saint-Joseph Est;2;50;false;true;true;false;false;false;93.5;1;0;0;0;0;false;52017;5036773524;-73.584192;45.530403;60993;1743299055;-73.5876605;45.5260211;1;10;11;4626929;Bus 427 : Express Saint-Joseph Ouest;"";STM;427-O;Laurier / Pie-IX;Station Guy-Concordia (Maisonneuve / St-Mathieu)
463886934;"{\"type\":\"LineString\",\"coordinates\":[[-73.5848522,45.5296541],[-73.5851697,45.5293153],[-73.5857066,45.5287424],[-73.5861381,45.528282],[-73.5861637,45.5282547]]}";2;Boulevard Saint-Joseph Est;2;50;false;true;true;false;false;false;187.0;1;0;0;0;0;false;52017;5036773524;-73.584192;45.530403;60993;1743299055;-73.5876605;45.5260211;0;10;11;4626929;Bus 427 : Express Saint-Joseph Ouest;"";STM;427-O;Laurier / Pie-IX;Station Guy-Concordia (Maisonneuve / St-Mathieu)
452385240;"{\"type\":\"LineString\",\"coordinates\":[[-73.5861637,45.5282547],[-73.586526,45.5278596],[-73.5865491,45.5278344]]}";3;Boulevard Saint-Joseph Est;2;50;false;true;true;false;false;false;56.0;1;0;0;0;0;false;52017;5036773524;-73.584192;45.530403;60993;1743299055;-73.5876605;45.5260211;0;10;11;4626929;Bus 427 : Express Saint-Joseph Ouest;"";STM;427-O;Laurier / Pie-IX;Station Guy-Concordia (Maisonneuve / St-Mathieu)
452385241;"{\"type\":\"LineString\",\"coordinates\":[[-73.5865491,45.5278344],[-73.5868483,45.5274976],[-73.5868896,45.527451],[-73.5869112,45.5274267]]}";4;Boulevard Saint-Joseph Est;2;50;false;true;true;false;false;false;54.0;1;1;0;0;0;false;52017;5036773524;-73.584192;45.530403;60993;1743299055;-73.5876605;45.5260211;0;10;11;4626929;Bus 427 : Express Saint-Joseph Ouest;"";STM;427-O;Laurier / Pie-IX;Station Guy-Concordia (Maisonneuve / St-Mathieu)
330301757;"{\"type\":\"LineString\",\"coordinates\":[[-73.5869112,45.5274267],[-73.5869681,45.5273651],[-73.5875079,45.5267809]]}";5;Boulevard Saint-Joseph Est;2;50;false;true;true;false;false;false;86.0;0;1;0;0;0;false;52017;5036773524;-73.584192;45.530403;60993;1743299055;-73.5876605;45.5260211;0;10;11;4626929;Bus 427 : Express Saint-Joseph Ouest;"";STM;427-O;Laurier / Pie-IX;Station Guy-Concordia (Maisonneuve / St-Mathieu)
173960041;"{\"type\":\"LineString\",\"coordinates\":[[-73.5875079,45.5267809],[-73.5878636,45.5263639],[-73.5878712,45.526355],[-73.5879317,45.5262935],[-73.5879488,45.5262705]]}";6;Boulevard Saint-Joseph Est;2;50;false;true;true;false;false;false;67.0;1;2;0;0;0;false;52017;5036773524;-73.584192;45.530403;60993;1743299055;-73.5876605;45.5260211;0;10;11;4626929;Bus 427 : Express Saint-Joseph Ouest;"";STM;427-O;Laurier / Pie-IX;Station Guy-Concordia (Maisonneuve / St-Mathieu)
330153476;"{\"type\":\"LineString\",\"coordinates\":[[-73.5878266,45.526216],[-73.5878867,45.5262428],[-73.5879488,45.5262705]]}";7;Rue Saint-Denis;2;50;false;false;true;false;false;false;12.0;0;0;0;0;0;false;52017;5036773524;-73.584192;45.530403;60993;1743299055;-73.5876605;45.5260211;0;10;11;4626929;Bus 427 : Express Saint-Joseph Ouest;"";STM;427-O;Laurier / Pie-IX;Station Guy-Concordia (Maisonneuve / St-Mathieu)
337509253;"{\"type\":\"LineString\",\"coordinates\":[[-73.5860436,45.5254036],[-73.5861453,45.5254503],[-73.5862516,45.525499],[-73.586771,45.5257339],[-73.5874079,45.526024],[-73.5877458,45.5261779],[-73.5877547,45.5261819],[-73.5877974,45.5262013],[-73.5878266,45.526216]]}";8;Rue Saint-Denis;2;50;false;false;true;false;false;false;83.0;1;2;0;0;0;false;52017;5036773524;-73.584192;45.530403;60993;1743299055;-73.5876605;45.5260211;1;10;11;4626929;Bus 427 : Express Saint-Joseph Ouest;"";STM;427-O;Laurier / Pie-IX;Station Guy-Concordia (Maisonneuve / St-Mathieu)
337509253;"{\"type\":\"LineString\",\"coordinates\":[[-73.5860436,45.5254036],[-73.5861453,45.5254503],[-73.5862516,45.525499],[-73.586771,45.5257339],[-73.5874079,45.526024],[-73.5877458,45.5261779],[-73.5877547,45.5261819],[-73.5877974,45.5262013],[-73.5878266,45.526216]]}";1;Rue Saint-Denis;2;50;false;false;true;false;false;false;83.0;1;2;0;0;0;false;60993;1743299055;-73.5876605;45.5260211;52056;286307022;-73.583107;45.523941;1;11;12;4626929;Bus 427 : Express Saint-Joseph Ouest;"";STM;427-O;Laurier / Pie-IX;Station Guy-Concordia (Maisonneuve / St-Mathieu)
463886944;"{\"type\":\"LineString\",\"coordinates\":[[-73.5858322,45.525304],[-73.5860436,45.5254036]]}";2;Rue Saint-Denis;2;50;false;false;true;false;false;false;20.0;0;0;0;0;0;false;60993;1743299055;-73.5876605;45.5260211;52056;286307022;-73.583107;45.523941;0;11;12;4626929;Bus 427 : Express Saint-Joseph Ouest;"";STM;427-O;Laurier / Pie-IX;Station Guy-Concordia (Maisonneuve / St-Mathieu)
463886943;"{\"type\":\"LineString\",\"coordinates\":[[-73.5856724,45.5252171],[-73.5858095,45.5252934],[-73.5858322,45.525304]]}";3;Rue Saint-Denis;2;50;false;false;true;false;false;false;16.0;0;0;0;0;0;false;60993;1743299055;-73.5876605;45.5260211;52056;286307022;-73.583107;45.523941;0;11;12;4626929;Bus 427 : Express Saint-Joseph Ouest;"";STM;427-O;Laurier / Pie-IX;Station Guy-Concordia (Maisonneuve / St-Mathieu)
463886945;"{\"type\":\"LineString\",\"coordinates\":[[-73.5847324,45.5248028],[-73.584796,45.5248308],[-73.5856724,45.5252171]]}";4;Rue Saint-Denis;2;50;false;false;true;false;false;false;87.0;1;1;0;0;0;false;60993;1743299055;-73.5876605;45.5260211;52056;286307022;-73.583107;45.523941;0;11;12;4626929;Bus 427 : Express Saint-Joseph Ouest;"";STM;427-O;Laurier / Pie-IX;Station Guy-Concordia (Maisonneuve / St-Mathieu)
337509254;"{\"type\":\"LineString\",\"coordinates\":[[-73.5829023,45.5239741],[-73.5829988,45.5240185],[-73.5846541,45.5247791],[-73.5847324,45.5248028]]}";5;Rue Saint-Denis;2;50;false;false;true;false;false;false;85.5;2;1;0;0;0;false;60993;1743299055;-73.5876605;45.5260211;52056;286307022;-73.583107;45.523941;1;11;12;4626929;Bus 427 : Express Saint-Joseph Ouest;"";STM;427-O;Laurier / Pie-IX;Station Guy-Concordia (Maisonneuve / St-Mathieu)
452049818;"{\"type\":\"LineString\",\"coordinates\":[[-73.5825141,45.5238037],[-73.582813,45.5239349],[-73.5829023,45.5239741]]}";1;Rue Saint-Denis;4;50;false;false;true;false;false;false;36.0;1;0;0;0;0;false;52056;286307022;-73.583107;45.523941;52207;286307029;-73.578387;45.521796;2;12;13;4626929;Bus 427 : Express Saint-Joseph Ouest;"";STM;427-O;Laurier / Pie-IX;Station Guy-Concordia (Maisonneuve / St-Mathieu)
452269046;"{\"type\":\"LineString\",\"coordinates\":[[-73.5805813,45.5228868],[-73.5806628,45.5229254],[-73.5825141,45.5238037]]}";2;Rue Saint-Denis;4;50;false;false;true;false;false;false;183.0;1;1;0;0;0;false;52056;286307022;-73.583107;45.523941;52207;286307029;-73.578387;45.521796;0;12;13;4626929;Bus 427 : Express Saint-Joseph Ouest;"";STM;427-O;Laurier / Pie-IX;Station Guy-Concordia (Maisonneuve / St-Mathieu)
308901623;"{\"type\":\"LineString\",\"coordinates\":[[-73.5781665,45.521794],[-73.5782486,45.5218311],[-73.5782828,45.5218466],[-73.5794201,45.5223613],[-73.5805126,45.5228557],[-73.5805813,45.5228868]]}";3;Rue Saint-Denis;4;50;false;false;true;false;false;false;225.0;2;2;0;0;0;false;52056;286307022;-73.583107;45.523941;52207;286307029;-73.578387;45.521796;2;12;13;4626929;Bus 427 : Express Saint-Joseph Ouest;"";STM;427-O;Laurier / Pie-IX;Station Guy-Concordia (Maisonneuve / St-Mathieu)
453998195;"{\"type\":\"LineString\",\"coordinates\":[[-73.5758948,45.5207519],[-73.5781665,45.521794]]}";1;Rue Saint-Denis;4;50;false;false;true;false;false;false;212.0;2;0;0;0;0;false;52207;286307029;-73.578387;45.521796;52422;286307040;-73.572101;45.518933;2;13;14;4626929;Bus 427 : Express Saint-Joseph Ouest;"";STM;427-O;Laurier / Pie-IX;Station Guy-Concordia (Maisonneuve / St-Mathieu)
329915132;"{\"type\":\"LineString\",\"coordinates\":[[-73.572592,45.5192529],[-73.5758948,45.5207519]]}";2;Rue Saint-Denis;4;50;false;false;true;false;false;false;307.0;2;0;0;0;0;false;52207;286307029;-73.578387;45.521796;52422;286307040;-73.572101;45.518933;0;13;14;4626929;Bus 427 : Express Saint-Joseph Ouest;"";STM;427-O;Laurier / Pie-IX;Station Guy-Concordia (Maisonneuve / St-Mathieu)
329692108;"{\"type\":\"LineString\",\"coordinates\":[[-73.57179,45.5188833],[-73.572592,45.5192529]]}";3;Rue Saint-Denis;4;50;false;false;true;false;false;false;75.0;2;0;0;0;0;false;52207;286307029;-73.578387;45.521796;52422;286307040;-73.572101;45.518933;2;13;14;4626929;Bus 427 : Express Saint-Joseph Ouest;"";STM;427-O;Laurier / Pie-IX;Station Guy-Concordia (Maisonneuve / St-Mathieu)
329692108;"{\"type\":\"LineString\",\"coordinates\":[[-73.57179,45.5188833],[-73.572592,45.5192529]]}";1;Rue Saint-Denis;4;50;false;false;true;false;false;false;37.5;2;0;0;0;0;false;52422;286307040;-73.572101;45.518933;52665;5036808921;-73.5644811;45.5168201;1;14;15;4626929;Bus 427 : Express Saint-Joseph Ouest;"";STM;427-O;Laurier / Pie-IX;Station Guy-Concordia (Maisonneuve / St-Mathieu)
329693415;"{\"type\":\"LineString\",\"coordinates\":[[-73.5703476,45.5182391],[-73.5703883,45.5182573],[-73.5710165,45.5185378],[-73.5713854,45.5187026],[-73.57179,45.5188833]]}";2;Rue Saint-Denis;4;50;false;false;true;false;false;false;134.0;2;0;0;0;0;false;52422;286307040;-73.572101;45.518933;52665;5036808921;-73.5644811;45.5168201;0;14;15;4626929;Bus 427 : Express Saint-Joseph Ouest;"";STM;427-O;Laurier / Pie-IX;Station Guy-Concordia (Maisonneuve / St-Mathieu)
465196292;"{\"type\":\"LineString\",\"coordinates\":[[-73.5700965,45.5181261],[-73.5703476,45.5182391]]}";3;Rue Saint-Denis;4;50;false;false;true;false;false;false;24.0;0;0;0;0;0;false;52422;286307040;-73.572101;45.518933;52665;5036808921;-73.5644811;45.5168201;0;14;15;4626929;Bus 427 : Express Saint-Joseph Ouest;"";STM;427-O;Laurier / Pie-IX;Station Guy-Concordia (Maisonneuve / St-Mathieu)
19903928;"{\"type\":\"LineString\",\"coordinates\":[[-73.5700965,45.5181261],[-73.5693419,45.5188669],[-73.5693363,45.5189712]]}";4;Rue Cherrier;1;50;false;true;true;false;false;false;113.0;0;0;0;0;0;false;52422;286307040;-73.572101;45.518933;52665;5036808921;-73.5644811;45.5168201;0;14;15;4626929;Bus 427 : Express Saint-Joseph Ouest;"";STM;427-O;Laurier / Pie-IX;Station Guy-Concordia (Maisonneuve / St-Mathieu)
26143978;"{\"type\":\"LineString\",\"coordinates\":[[-73.5693363,45.5189712],[-73.5693004,45.5190052],[-73.5692823,45.5190266]]}";5;Rue Cherrier;1;50;false;false;true;false;false;false;8.0;1;0;0;0;0;false;52422;286307040;-73.572101;45.518933;52665;5036808921;-73.5644811;45.5168201;0;14;15;4626929;Bus 427 : Express Saint-Joseph Ouest;"";STM;427-O;Laurier / Pie-IX;Station Guy-Concordia (Maisonneuve / St-Mathieu)
127790962;"{\"type\":\"LineString\",\"coordinates\":[[-73.5692823,45.5190266],[-73.5691378,45.5189524],[-73.5649082,45.5170531],[-73.5647676,45.5170554]]}";6;Rue Berri;2;50;false;true;true;false;false;false;417.0;1;0;0;0;0;false;52422;286307040;-73.572101;45.518933;52665;5036808921;-73.5644811;45.5168201;0;14;15;4626929;Bus 427 : Express Saint-Joseph Ouest;"";STM;427-O;Laurier / Pie-IX;Station Guy-Concordia (Maisonneuve / St-Mathieu)
36675287;"{\"type\":\"LineString\",\"coordinates\":[[-73.5647676,45.5170554],[-73.5644267,45.5168897]]}";7;Rue Berri;4;50;false;false;true;false;false;false;33.0;1;0;0;0;0;false;52422;286307040;-73.572101;45.518933;52665;5036808921;-73.5644811;45.5168201;0;14;15;4626929;Bus 427 : Express Saint-Joseph Ouest;"";STM;427-O;Laurier / Pie-IX;Station Guy-Concordia (Maisonneuve / St-Mathieu)
741889016;"{\"type\":\"LineString\",\"coordinates\":[[-73.5644267,45.5168897],[-73.5637954,45.5165827]]}";8;Rue Berri;4;50;false;false;true;false;false;false;30.0;0;0;0;0;0;false;52422;286307040;-73.572101;45.518933;52665;5036808921;-73.5644811;45.5168201;1;14;15;4626929;Bus 427 : Express Saint-Joseph Ouest;"";STM;427-O;Laurier / Pie-IX;Station Guy-Concordia (Maisonneuve / St-Mathieu)
36675287;"{\"type\":\"LineString\",\"coordinates\":[[-73.5647676,45.5170554],[-73.5644267,45.5168897]]}";1;Rue Berri;4;50;false;false;true;false;false;false;33.0;1;0;0;0;0;false;52665;5036808921;-73.5644811;45.5168201;52793;5036795425;-73.561276;45.5153055;2;15;16;4626929;Bus 427 : Express Saint-Joseph Ouest;"";STM;427-O;Laurier / Pie-IX;Station Guy-Concordia (Maisonneuve / St-Mathieu)
741889016;"{\"type\":\"LineString\",\"coordinates\":[[-73.5644267,45.5168897],[-73.5637954,45.5165827]]}";2;Rue Berri;4;50;false;false;true;false;false;false;60.0;0;0;0;0;0;false;52665;5036808921;-73.5644811;45.5168201;52793;5036795425;-73.561276;45.5153055;0;15;16;4626929;Bus 427 : Express Saint-Joseph Ouest;"";STM;427-O;Laurier / Pie-IX;Station Guy-Concordia (Maisonneuve / St-Mathieu)
366701672;"{\"type\":\"LineString\",\"coordinates\":[[-73.5637954,45.5165827],[-73.5634349,45.516409]]}";3;Rue Berri;4;50;false;false;true;false;false;false;35.0;0;0;0;0;0;false;52665;5036808921;-73.5644811;45.5168201;52793;5036795425;-73.561276;45.5153055;0;15;16;4626929;Bus 427 : Express Saint-Joseph Ouest;"";STM;427-O;Laurier / Pie-IX;Station Guy-Concordia (Maisonneuve / St-Mathieu)
561726591;"{\"type\":\"LineString\",\"coordinates\":[[-73.5634349,45.516409],[-73.5634197,45.5163457],[-73.5632324,45.5162602],[-73.5632057,45.516248]]}";4;Rue Berri;2;50;false;true;true;false;false;false;28.0;0;1;0;0;0;false;52665;5036808921;-73.5644811;45.5168201;52793;5036795425;-73.561276;45.5153055;0;15;16;4626929;Bus 427 : Express Saint-Joseph Ouest;"";STM;427-O;Laurier / Pie-IX;Station Guy-Concordia (Maisonneuve / St-Mathieu)
561726592;"{\"type\":\"LineString\",\"coordinates\":[[-73.5632057,45.516248],[-73.5631071,45.5162031],[-73.5629804,45.5161453],[-73.5628951,45.5161529]]}";5;Rue Berri;2;50;false;true;true;false;false;false;28.0;0;1;0;0;0;false;52665;5036808921;-73.5644811;45.5168201;52793;5036795425;-73.561276;45.5153055;0;15;16;4626929;Bus 427 : Express Saint-Joseph Ouest;"";STM;427-O;Laurier / Pie-IX;Station Guy-Concordia (Maisonneuve / St-Mathieu)
561733176;"{\"type\":\"LineString\",\"coordinates\":[[-73.5628951,45.5161529],[-73.5623666,45.5159138]]}";6;Rue Berri;4;50;false;false;true;false;false;false;50.0;0;0;0;0;0;false;52665;5036808921;-73.5644811;45.5168201;52793;5036795425;-73.561276;45.5153055;0;15;16;4626929;Bus 427 : Express Saint-Joseph Ouest;"";STM;427-O;Laurier / Pie-IX;Station Guy-Concordia (Maisonneuve / St-Mathieu)
741889015;"{\"type\":\"LineString\",\"coordinates\":[[-73.5623666,45.5159138],[-73.5613203,45.5154196]]}";7;Rue Berri;4;50;false;false;true;false;false;false;99.0;0;0;0;0;0;false;52665;5036808921;-73.5644811;45.5168201;52793;5036795425;-73.561276;45.5153055;0;15;16;4626929;Bus 427 : Express Saint-Joseph Ouest;"";STM;427-O;Laurier / Pie-IX;Station Guy-Concordia (Maisonneuve / St-Mathieu)
561733177;"{\"type\":\"LineString\",\"coordinates\":[[-73.5613203,45.5154196],[-73.5612862,45.5153706],[-73.5612174,45.5153389],[-73.5611768,45.51532],[-73.5610772,45.5153171]]}";8;Rue Berri;2;50;false;true;true;false;false;false;25.0;1;1;0;0;0;false;52665;5036808921;-73.5644811;45.5168201;52793;5036795425;-73.561276;45.5153055;2;15;16;4626929;Bus 427 : Express Saint-Joseph Ouest;"";STM;427-O;Laurier / Pie-IX;Station Guy-Concordia (Maisonneuve / St-Mathieu)
741889015;"{\"type\":\"LineString\",\"coordinates\":[[-73.5623666,45.5159138],[-73.5613203,45.5154196]]}";1;Rue Berri;4;50;false;false;true;false;false;false;99.0;0;0;0;0;0;false;52793;5036795425;-73.561276;45.5153055;52881;5036808623;-73.558316;45.512858;2;16;17;4626929;Bus 427 : Express Saint-Joseph Ouest;"";STM;427-O;Laurier / Pie-IX;Station Guy-Concordia (Maisonneuve / St-Mathieu)
561733177;"{\"type\":\"LineString\",\"coordinates\":[[-73.5613203,45.5154196],[-73.5612862,45.5153706],[-73.5612174,45.5153389],[-73.5611768,45.51532],[-73.5610772,45.5153171]]}";2;Rue Berri;2;50;false;true;true;false;false;false;25.0;1;1;0;0;0;false;52793;5036795425;-73.561276;45.5153055;52881;5036808623;-73.558316;45.512858;0;16;17;4626929;Bus 427 : Express Saint-Joseph Ouest;"";STM;427-O;Laurier / Pie-IX;Station Guy-Concordia (Maisonneuve / St-Mathieu)
329989914;"{\"type\":\"LineString\",\"coordinates\":[[-73.5610772,45.5153171],[-73.5609923,45.5152764],[-73.559774,45.5146921],[-73.5596855,45.5146493]]}";3;Rue Berri;4;50;false;false;true;false;false;false;132.0;2;1;0;0;0;false;52793;5036795425;-73.561276;45.5153055;52881;5036808623;-73.558316;45.512858;0;16;17;4626929;Bus 427 : Express Saint-Joseph Ouest;"";STM;427-O;Laurier / Pie-IX;Station Guy-Concordia (Maisonneuve / St-Mathieu)
454827462;"{\"type\":\"LineString\",\"coordinates\":[[-73.5596855,45.5146493],[-73.55959,45.5146056],[-73.5577479,45.5137691],[-73.5575129,45.5136624]]}";4;Rue Berri;4;50;false;false;true;false;false;false;202.0;2;1;0;0;0;false;52793;5036795425;-73.561276;45.5153055;52881;5036808623;-73.558316;45.512858;0;16;17;4626929;Bus 427 : Express Saint-Joseph Ouest;"";STM;427-O;Laurier / Pie-IX;Station Guy-Concordia (Maisonneuve / St-Mathieu)
464893055;"{\"type\":\"LineString\",\"coordinates\":[[-73.5575129,45.5136624],[-73.557488,45.5136508]]}";5;Rue Berri;1;50;false;false;false;false;false;false;3.0;1;0;0;0;0;false;52793;5036795425;-73.561276;45.5153055;52881;5036808623;-73.558316;45.512858;0;16;17;4626929;Bus 427 : Express Saint-Joseph Ouest;"";STM;427-O;Laurier / Pie-IX;Station Guy-Concordia (Maisonneuve / St-Mathieu)
329989226;"{\"type\":\"LineString\",\"coordinates\":[[-73.557488,45.5136508],[-73.557558,45.5135725],[-73.5582351,45.512815],[-73.5583012,45.512741]]}";6;Boulevard René-Lévesque Est;3;50;false;true;true;false;false;false;120.0;0;1;0;0;0;false;52793;5036795425;-73.561276;45.5153055;52881;5036808623;-73.558316;45.512858;2;16;17;4626929;Bus 427 : Express Saint-Joseph Ouest;"";STM;427-O;Laurier / Pie-IX;Station Guy-Concordia (Maisonneuve / St-Mathieu)
454245382;"{\"type\":\"LineString\",\"coordinates\":[[-73.5583012,45.512741],[-73.5583516,45.5126875],[-73.5591815,45.5118047]]}";1;Boulevard René-Lévesque Est;3;50;false;true;true;false;false;false;125.0;1;1;0;0;0;false;52881;5036808623;-73.558316;45.512858;52745;5036795426;-73.5625846;45.507963;2;17;18;4626929;Bus 427 : Express Saint-Joseph Ouest;"";STM;427-O;Laurier / Pie-IX;Station Guy-Concordia (Maisonneuve / St-Mathieu)
454238784;"{\"type\":\"LineString\",\"coordinates\":[[-73.5591815,45.5118047],[-73.559724,45.5112258]]}";2;Boulevard René-Lévesque Est;3;50;false;true;true;false;false;false;77.0;1;0;0;0;0;false;52881;5036808623;-73.558316;45.512858;52745;5036795426;-73.5625846;45.507963;0;17;18;4626929;Bus 427 : Express Saint-Joseph Ouest;"";STM;427-O;Laurier / Pie-IX;Station Guy-Concordia (Maisonneuve / St-Mathieu)
454238787;"{\"type\":\"LineString\",\"coordinates\":[[-73.559724,45.5112258],[-73.5600819,45.5108283],[-73.5601208,45.5107852],[-73.5601401,45.5107638]]}";3;Boulevard René-Lévesque Est;3;50;false;true;true;false;false;false;61.0;1;1;0;0;0;false;52881;5036808623;-73.558316;45.512858;52745;5036795426;-73.5625846;45.507963;0;17;18;4626929;Bus 427 : Express Saint-Joseph Ouest;"";STM;427-O;Laurier / Pie-IX;Station Guy-Concordia (Maisonneuve / St-Mathieu)
454238785;"{\"type\":\"LineString\",\"coordinates\":[[-73.5601401,45.5107638],[-73.5601641,45.5107283],[-73.5605442,45.5101674]]}";4;Boulevard René-Lévesque Est;3;50;false;true;true;false;false;false;74.0;0;1;0;0;0;false;52881;5036808623;-73.558316;45.512858;52745;5036795426;-73.5625846;45.507963;0;17;18;4626929;Bus 427 : Express Saint-Joseph Ouest;"";STM;427-O;Laurier / Pie-IX;Station Guy-Concordia (Maisonneuve / St-Mathieu)
454215275;"{\"type\":\"LineString\",\"coordinates\":[[-73.5605442,45.5101674],[-73.5606311,45.5100682],[-73.561268,45.509341]]}";5;Boulevard René-Lévesque Est;3;50;false;true;true;false;false;false;108.0;0;0;0;0;0;false;52881;5036808623;-73.558316;45.512858;52745;5036795426;-73.5625846;45.507963;0;17;18;4626929;Bus 427 : Express Saint-Joseph Ouest;"";STM;427-O;Laurier / Pie-IX;Station Guy-Concordia (Maisonneuve / St-Mathieu)
454215277;"{\"type\":\"LineString\",\"coordinates\":[[-73.561268,45.509341],[-73.5616007,45.5089531],[-73.5616145,45.5089381],[-73.5616774,45.5088693]]}";6;Boulevard René-Lévesque Est;3;50;false;true;true;false;false;false;62.0;1;1;0;0;0;false;52881;5036808623;-73.558316;45.512858;52745;5036795426;-73.5625846;45.507963;0;17;18;4626929;Bus 427 : Express Saint-Joseph Ouest;"";STM;427-O;Laurier / Pie-IX;Station Guy-Concordia (Maisonneuve / St-Mathieu)
464936533;"{\"type\":\"LineString\",\"coordinates\":[[-73.5616774,45.5088693],[-73.5617224,45.5088157],[-73.5620044,45.5084802]]}";7;Boulevard René-Lévesque Ouest;3;50;false;true;true;false;false;false;51.0;0;1;0;0;0;false;52881;5036808623;-73.558316;45.512858;52745;5036795426;-73.5625846;45.507963;0;17;18;4626929;Bus 427 : Express Saint-Joseph Ouest;"";STM;427-O;Laurier / Pie-IX;Station Guy-Concordia (Maisonneuve / St-Mathieu)
464943212;"{\"type\":\"LineString\",\"coordinates\":[[-73.5620044,45.5084802],[-73.5625851,45.5078511],[-73.5626016,45.5078241],[-73.5626628,45.5077549]]}";8;Boulevard René-Lévesque Ouest;3;50;false;true;true;false;false;false;96.0;1;1;0;0;0;false;52881;5036808623;-73.558316;45.512858;52745;5036795426;-73.5625846;45.507963;2;17;18;4626929;Bus 427 : Express Saint-Joseph Ouest;"";STM;427-O;Laurier / Pie-IX;Station Guy-Concordia (Maisonneuve / St-Mathieu)
464943212;"{\"type\":\"LineString\",\"coordinates\":[[-73.5620044,45.5084802],[-73.5625851,45.5078511],[-73.5626016,45.5078241],[-73.5626628,45.5077549]]}";1;Boulevard René-Lévesque Ouest;3;50;false;true;true;false;false;false;48.0;1;1;0;0;0;false;52745;5036795426;-73.5625846;45.507963;52697;988366391;-73.5643925;45.5058955;1;18;19;4626929;Bus 427 : Express Saint-Joseph Ouest;"";STM;427-O;Laurier / Pie-IX;Station Guy-Concordia (Maisonneuve / St-Mathieu)
4687530;"{\"type\":\"LineString\",\"coordinates\":[[-73.5626628,45.5077549],[-73.5627243,45.5076878],[-73.5633897,45.506943],[-73.564033,45.5062246],[-73.5640701,45.5061831]]}";2;Boulevard René-Lévesque Ouest;3;50;false;true;true;false;false;false;207.0;1;1;0;0;0;false;52745;5036795426;-73.5625846;45.507963;52697;988366391;-73.5643925;45.5058955;0;18;19;4626929;Bus 427 : Express Saint-Joseph Ouest;"";STM;427-O;Laurier / Pie-IX;Station Guy-Concordia (Maisonneuve / St-Mathieu)
456314146;"{\"type\":\"LineString\",\"coordinates\":[[-73.5640701,45.5061831],[-73.5643657,45.5058051]]}";3;Boulevard René-Lévesque Ouest;3;50;false;true;true;false;false;false;24.0;0;0;0;0;0;false;52745;5036795426;-73.5625846;45.507963;52697;988366391;-73.5643925;45.5058955;1;18;19;4626929;Bus 427 : Express Saint-Joseph Ouest;"";STM;427-O;Laurier / Pie-IX;Station Guy-Concordia (Maisonneuve / St-Mathieu)
456314147;"{\"type\":\"LineString\",\"coordinates\":[[-73.5643657,45.5058051],[-73.5647329,45.5053354],[-73.5647756,45.5052808]]}";1;Boulevard René-Lévesque Ouest;3;50;false;true;true;false;false;false;67.0;1;0;0;0;0;false;52697;988366391;-73.5643925;45.5058955;52625;5036795427;-73.5665083;45.5032345;2;19;20;4626929;Bus 427 : Express Saint-Joseph Ouest;"";STM;427-O;Laurier / Pie-IX;Station Guy-Concordia (Maisonneuve / St-Mathieu)
455083974;"{\"type\":\"LineString\",\"coordinates\":[[-73.5647756,45.5052808],[-73.5655065,45.504369],[-73.5655488,45.5043162]]}";2;Boulevard René-Lévesque Ouest;3;50;false;true;true;false;false;false;123.0;1;0;0;0;0;false;52697;988366391;-73.5643925;45.5058955;52625;5036795427;-73.5665083;45.5032345;0;19;20;4626929;Bus 427 : Express Saint-Joseph Ouest;"";STM;427-O;Laurier / Pie-IX;Station Guy-Concordia (Maisonneuve / St-Mathieu)
546096658;"{\"type\":\"LineString\",\"coordinates\":[[-73.5655488,45.5043162],[-73.5663601,45.5032964]]}";3;Boulevard René-Lévesque Ouest;3;50;false;true;true;false;false;false;130.0;0;0;0;0;0;false;52697;988366391;-73.5643925;45.5058955;52625;5036795427;-73.5665083;45.5032345;0;19;20;4626929;Bus 427 : Express Saint-Joseph Ouest;"";STM;427-O;Laurier / Pie-IX;Station Guy-Concordia (Maisonneuve / St-Mathieu)
455083978;"{\"type\":\"LineString\",\"coordinates\":[[-73.5663601,45.5032964],[-73.5664673,45.5031167],[-73.5664932,45.5030732]]}";4;Boulevard René-Lévesque Ouest;3;50;false;true;true;false;false;false;27.0;1;0;0;0;0;false;52697;988366391;-73.5643925;45.5058955;52625;5036795427;-73.5665083;45.5032345;2;19;20;4626929;Bus 427 : Express Saint-Joseph Ouest;"";STM;427-O;Laurier / Pie-IX;Station Guy-Concordia (Maisonneuve / St-Mathieu)
546096658;"{\"type\":\"LineString\",\"coordinates\":[[-73.5655488,45.5043162],[-73.5663601,45.5032964]]}";1;Boulevard René-Lévesque Ouest;3;50;false;true;true;false;false;false;130.0;0;0;0;0;0;false;52625;5036795427;-73.5665083;45.5032345;52587;6010965523;-73.567338;45.502129;2;20;21;4626929;Bus 427 : Express Saint-Joseph Ouest;"";STM;427-O;Laurier / Pie-IX;Station Guy-Concordia (Maisonneuve / St-Mathieu)
455083978;"{\"type\":\"LineString\",\"coordinates\":[[-73.5663601,45.5032964],[-73.5664673,45.5031167],[-73.5664932,45.5030732]]}";2;Boulevard René-Lévesque Ouest;3;50;false;true;true;false;false;false;27.0;1;0;0;0;0;false;52625;5036795427;-73.5665083;45.5032345;52587;6010965523;-73.567338;45.502129;0;20;21;4626929;Bus 427 : Express Saint-Joseph Ouest;"";STM;427-O;Laurier / Pie-IX;Station Guy-Concordia (Maisonneuve / St-Mathieu)
453981161;"{\"type\":\"LineString\",\"coordinates\":[[-73.5664932,45.5030732],[-73.5667976,45.5026393],[-73.5668362,45.5025843]]}";3;Boulevard René-Lévesque Ouest;3;50;false;true;true;false;false;false;61.0;1;0;0;0;0;false;52625;5036795427;-73.5665083;45.5032345;52587;6010965523;-73.567338;45.502129;0;20;21;4626929;Bus 427 : Express Saint-Joseph Ouest;"";STM;427-O;Laurier / Pie-IX;Station Guy-Concordia (Maisonneuve / St-Mathieu)
453963142;"{\"type\":\"LineString\",\"coordinates\":[[-73.5668362,45.5025843],[-73.5673805,45.5019964]]}";4;Boulevard René-Lévesque Ouest;3;50;false;true;true;false;false;false;78.0;1;0;0;0;0;false;52625;5036795427;-73.5665083;45.5032345;52587;6010965523;-73.567338;45.502129;2;20;21;4626929;Bus 427 : Express Saint-Joseph Ouest;"";STM;427-O;Laurier / Pie-IX;Station Guy-Concordia (Maisonneuve / St-Mathieu)
453963143;"{\"type\":\"LineString\",\"coordinates\":[[-73.5673805,45.5019964],[-73.5674744,45.5019002]]}";1;Boulevard René-Lévesque Ouest;3;50;false;true;true;false;false;false;13.0;2;0;0;0;0;false;52587;6010965523;-73.567338;45.502129;52529;5036795429;-73.5691146;45.5002866;2;21;22;4626929;Bus 427 : Express Saint-Joseph Ouest;"";STM;427-O;Laurier / Pie-IX;Station Guy-Concordia (Maisonneuve / St-Mathieu)
455083971;"{\"type\":\"LineString\",\"coordinates\":[[-73.5674744,45.5019002],[-73.5676539,45.5017095],[-73.5682225,45.5010922]]}";2;Boulevard René-Lévesque Ouest;3;50;false;true;true;false;false;false;108.0;1;0;0;0;0;false;52587;6010965523;-73.567338;45.502129;52529;5036795429;-73.5691146;45.5002866;0;21;22;4626929;Bus 427 : Express Saint-Joseph Ouest;"";STM;427-O;Laurier / Pie-IX;Station Guy-Concordia (Maisonneuve / St-Mathieu)
385879098;"{\"type\":\"LineString\",\"coordinates\":[[-73.5682225,45.5010922],[-73.5683717,45.5009348],[-73.5685715,45.5007193],[-73.5690268,45.5002344],[-73.5691112,45.5001442]]}";3;Boulevard René-Lévesque Ouest;3;50;false;true;true;false;false;false;127.0;2;0;0;0;0;false;52587;6010965523;-73.567338;45.502129;52529;5036795429;-73.5691146;45.5002866;2;21;22;4626929;Bus 427 : Express Saint-Joseph Ouest;"";STM;427-O;Laurier / Pie-IX;Station Guy-Concordia (Maisonneuve / St-Mathieu)
455083972;"{\"type\":\"LineString\",\"coordinates\":[[-73.5691112,45.5001442],[-73.5696662,45.4995386],[-73.5697469,45.4994538]]}";1;Boulevard René-Lévesque Ouest;3;50;false;true;true;false;false;false;92.0;3;0;0;0;0;false;52529;5036795429;-73.5691146;45.5002866;52483;427618239;-73.5703339;45.4990025;2;22;23;4626929;Bus 427 : Express Saint-Joseph Ouest;"";STM;427-O;Laurier / Pie-IX;Station Guy-Concordia (Maisonneuve / St-Mathieu)
455083982;"{\"type\":\"LineString\",\"coordinates\":[[-73.5697469,45.4994538],[-73.5700322,45.4991525],[-73.5702845,45.4988861],[-73.5703788,45.4987866]]}";2;Boulevard René-Lévesque Ouest;3;50;false;true;true;false;false;false;90.0;2;0;0;0;0;false;52529;5036795429;-73.5691146;45.5002866;52483;427618239;-73.5703339;45.4990025;2;22;23;4626929;Bus 427 : Express Saint-Joseph Ouest;"";STM;427-O;Laurier / Pie-IX;Station Guy-Concordia (Maisonneuve / St-Mathieu)
455083982;"{\"type\":\"LineString\",\"coordinates\":[[-73.5697469,45.4994538],[-73.5700322,45.4991525],[-73.5702845,45.4988861],[-73.5703788,45.4987866]]}";1;Boulevard René-Lévesque Ouest;3;50;false;true;true;false;false;false;45.0;2;0;0;0;0;false;52483;427618239;-73.5703339;45.4990025;52416;5036795430;-73.5724184;45.4967944;1;23;24;4626929;Bus 427 : Express Saint-Joseph Ouest;"";STM;427-O;Laurier / Pie-IX;Station Guy-Concordia (Maisonneuve / St-Mathieu)
455083975;"{\"type\":\"LineString\",\"coordinates\":[[-73.5703788,45.4987866],[-73.5709935,45.4981374],[-73.5709662,45.4981662],[-73.5710365,45.498092]]}";2;Boulevard René-Lévesque Ouest;3;50;false;true;true;false;false;false;101.0;1;1;0;0;0;false;52483;427618239;-73.5703339;45.4990025;52416;5036795430;-73.5724184;45.4967944;0;23;24;4626929;Bus 427 : Express Saint-Joseph Ouest;"";STM;427-O;Laurier / Pie-IX;Station Guy-Concordia (Maisonneuve / St-Mathieu)
465649964;"{\"type\":\"LineString\",\"coordinates\":[[-73.5710365,45.498092],[-73.5710965,45.4980286],[-73.5716173,45.4974788],[-73.5716304,45.4974649],[-73.5716907,45.4974013]]}";3;Boulevard René-Lévesque Ouest;3;50;false;true;true;false;false;false;93.0;1;2;0;0;0;false;52483;427618239;-73.5703339;45.4990025;52416;5036795430;-73.5724184;45.4967944;0;23;24;4626929;Bus 427 : Express Saint-Joseph Ouest;"";STM;427-O;Laurier / Pie-IX;Station Guy-Concordia (Maisonneuve / St-Mathieu)
465649965;"{\"type\":\"LineString\",\"coordinates\":[[-73.5716907,45.4974013],[-73.5717405,45.4973473],[-73.5723311,45.4967071],[-73.5723424,45.4966949],[-73.5723978,45.4966348]]}";4;Boulevard René-Lévesque Ouest;3;50;false;true;true;false;false;false;51.0;1;2;0;0;0;false;52483;427618239;-73.5703339;45.4990025;52416;5036795430;-73.5724184;45.4967944;1;23;24;4626929;Bus 427 : Express Saint-Joseph Ouest;"";STM;427-O;Laurier / Pie-IX;Station Guy-Concordia (Maisonneuve / St-Mathieu)
546047309;"{\"type\":\"LineString\",\"coordinates\":[[-73.5723978,45.4966348],[-73.57246,45.4965707],[-73.5727744,45.4962467],[-73.5730337,45.4959795],[-73.5730667,45.4959455],[-73.5731559,45.4958535]]}";1;Boulevard René-Lévesque Ouest;3;50;false;true;true;false;false;false;106.0;1;2;0;0;0;false;52416;5036795430;-73.5724184;45.4967944;52373;4030794085;-73.5737142;45.4954342;2;24;25;4626929;Bus 427 : Express Saint-Joseph Ouest;"";STM;427-O;Laurier / Pie-IX;Station Guy-Concordia (Maisonneuve / St-Mathieu)
455083984;"{\"type\":\"LineString\",\"coordinates\":[[-73.5731559,45.4958535],[-73.5731948,45.495813],[-73.5733586,45.4956423],[-73.5736567,45.4953316],[-73.5737026,45.4952838]]}";2;Boulevard René-Lévesque Ouest;3;50;false;true;true;false;false;false;77.0;0;2;0;0;0;false;52416;5036795430;-73.5724184;45.4967944;52373;4030794085;-73.5737142;45.4954342;2;24;25;4626929;Bus 427 : Express Saint-Joseph Ouest;"";STM;427-O;Laurier / Pie-IX;Station Guy-Concordia (Maisonneuve / St-Mathieu)
455083979;"{\"type\":\"LineString\",\"coordinates\":[[-73.5737026,45.4952838],[-73.5737403,45.4952406],[-73.5743308,45.4946389],[-73.5743471,45.4946222],[-73.5744019,45.494566]]}";1;Boulevard René-Lévesque Ouest;3;50;false;true;true;false;false;false;97.0;1;2;0;0;0;false;52373;4030794085;-73.5737142;45.4954342;52327;6010968827;-73.575009;45.494038;2;25;26;4626929;Bus 427 : Express Saint-Joseph Ouest;"";STM;427-O;Laurier / Pie-IX;Station Guy-Concordia (Maisonneuve / St-Mathieu)
455083981;"{\"type\":\"LineString\",\"coordinates\":[[-73.5744019,45.494566],[-73.5744505,45.4945153],[-73.5749736,45.4939701],[-73.5749985,45.4939442],[-73.575081,45.4938582]]}";2;Boulevard René-Lévesque Ouest;3;50;false;true;true;false;false;false;95.0;1;2;0;0;0;false;52373;4030794085;-73.5737142;45.4954342;52327;6010968827;-73.575009;45.494038;2;25;26;4626929;Bus 427 : Express Saint-Joseph Ouest;"";STM;427-O;Laurier / Pie-IX;Station Guy-Concordia (Maisonneuve / St-Mathieu)
455083981;"{\"type\":\"LineString\",\"coordinates\":[[-73.5744019,45.494566],[-73.5744505,45.4945153],[-73.5749736,45.4939701],[-73.5749985,45.4939442],[-73.575081,45.4938582]]}";1;Boulevard René-Lévesque Ouest;3;50;false;true;true;false;false;false;47.5;1;2;0;0;0;false;52327;6010968827;-73.575009;45.494038;52236;6010981282;-73.577591;45.495028;1;26;27;4626929;Bus 427 : Express Saint-Joseph Ouest;"";STM;427-O;Laurier / Pie-IX;Station Guy-Concordia (Maisonneuve / St-Mathieu)
455083994;"{\"type\":\"LineString\",\"coordinates\":[[-73.5778442,45.4950473],[-73.5777331,45.4949899],[-73.5768516,45.4945863],[-73.5766966,45.4945154],[-73.5765799,45.4944659],[-73.5760493,45.4942411],[-73.5759313,45.4941911],[-73.5757405,45.4941172],[-73.5752509,45.4939277],[-73.5751844,45.4939019],[-73.575081,45.4938582]]}";2;Rue Guy;1;50;false;false;false;false;false;false;127.0;2;2;0;0;0;false;52327;6010968827;-73.575009;45.494038;52236;6010981282;-73.577591;45.495028;1;26;27;4626929;Bus 427 : Express Saint-Joseph Ouest;"";STM;427-O;Laurier / Pie-IX;Station Guy-Concordia (Maisonneuve / St-Mathieu)
455083993;"{\"type\":\"LineString\",\"coordinates\":[[-73.5783504,45.4952751],[-73.5779412,45.4950922],[-73.5778442,45.4950473]]}";1;Rue Guy;1;50;false;false;false;false;false;false;47.0;1;1;0;0;0;false;52236;6010981282;-73.577591;45.495028;60999;6010966040;-73.580236;45.494947;2;27;28;4626929;Bus 427 : Express Saint-Joseph Ouest;"";STM;427-O;Laurier / Pie-IX;Station Guy-Concordia (Maisonneuve / St-Mathieu)
48680975;"{\"type\":\"LineString\",\"coordinates\":[[-73.5793041,45.4956924],[-73.5792515,45.4956736],[-73.5792095,45.4956573],[-73.5783504,45.4952751]]}";2;Rue Guy;1;50;false;false;false;false;false;false;88.0;1;1;0;0;0;false;52236;6010981282;-73.577591;45.495028;60999;6010966040;-73.580236;45.494947;0;27;28;4626929;Bus 427 : Express Saint-Joseph Ouest;"";STM;427-O;Laurier / Pie-IX;Station Guy-Concordia (Maisonneuve / St-Mathieu)
330153470;"{\"type\":\"LineString\",\"coordinates\":[[-73.5793041,45.4956924],[-73.5793597,45.4956152],[-73.5798527,45.4951817]]}";3;Boulevard De Maisonneuve Ouest;1;50;false;true;false;false;false;false;72.0;1;1;0;0;0;false;52236;6010981282;-73.577591;45.495028;60999;6010966040;-73.580236;45.494947;0;27;28;4626929;Bus 427 : Express Saint-Joseph Ouest;"";STM;427-O;Laurier / Pie-IX;Station Guy-Concordia (Maisonneuve / St-Mathieu)
330150736;"{\"type\":\"LineString\",\"coordinates\":[[-73.5798527,45.4951817],[-73.5804954,45.4946394],[-73.5805519,45.4945917]]}";4;Boulevard De Maisonneuve Ouest;1;50;false;true;false;false;false;false;86.0;1;1;0;0;0;false;52236;6010981282;-73.577591;45.495028;60999;6010966040;-73.580236;45.494947;1;27;28;4626929;Bus 427 : Express Saint-Joseph Ouest;"";STM;427-O;Laurier / Pie-IX;Station Guy-Concordia (Maisonneuve / St-Mathieu)
