way_id;shape;index;name;nb_lanes;legal_speed;speed_zone_30;oneway;shares_bike;bike_box;bus_lane;dedicated_bus_lane;length;nb_traffic_signals;nb_crossings;nb_stops;nb_give_ways;nb_lvl_crossings;roundabout;stop_id_orig;node_id_orig;coord_x_orig;coord_y_orig;stop_id_dest;node_id_dest;coord_x_dest;coord_y_dest;nb_neighbouring_ways_bus_stop;ordre_orig;ordre_dest;id_line;line_name;colour;operator;ref;from;to
147960596;"{\"type\":\"LineString\",\"coordinates\":[[-73.912834,45.5452548],[-73.9127644,45.5453944],[-73.9127615,45.5454813],[-73.9127859,45.5455396],[-73.9128376,45.5455986],[-73.9129387,45.5456491],[-73.9136319,45.5458025],[-73.9137258,45.5457857],[-73.9137956,45.5457503],[-73.9138317,45.5456876]]}";1;"";1;50;false;true;true;false;false;false;129.0;0;0;0;0;0;false;80232;6119526987;-73.912706;45.545457;80202;6119527014;-73.887316;45.537121;1;1;2;9406935;Bus 400 : EXPRESS DEUX-MONTAGNES;"";EXO;400 O;Station Montmorency;Gare Grand-Moulin
677656000;"{\"type\":\"LineString\",\"coordinates\":[[-73.9129814,45.5449762],[-73.9129114,45.5451084],[-73.912834,45.5452548]]}";2;"";1;50;false;false;true;false;false;false;34.0;0;0;0;0;0;false;80232;6119526987;-73.912706;45.545457;80202;6119527014;-73.887316;45.537121;0;1;2;9406935;Bus 400 : EXPRESS DEUX-MONTAGNES;"";EXO;400 O;Station Montmorency;Gare Grand-Moulin
689649559;"{\"type\":\"LineString\",\"coordinates\":[[-73.9131166,45.5447228],[-73.9130535,45.5448398],[-73.9129814,45.5449762]]}";3;"";1;50;false;false;true;false;false;false;31.0;0;0;0;0;0;false;80232;6119526987;-73.912706;45.545457;80202;6119527014;-73.887316;45.537121;0;1;2;9406935;Bus 400 : EXPRESS DEUX-MONTAGNES;"";EXO;400 O;Station Montmorency;Gare Grand-Moulin
147960625;"{\"type\":\"LineString\",\"coordinates\":[[-73.9119546,45.5447484],[-73.9123533,45.5447275],[-73.9130003,45.5446937],[-73.9131166,45.5447228]]}";4;"";1;50;false;false;true;false;false;false;92.0;0;0;0;0;0;false;80232;6119526987;-73.912706;45.545457;80202;6119527014;-73.887316;45.537121;0;1;2;9406935;Bus 400 : EXPRESS DEUX-MONTAGNES;"";EXO;400 O;Station Montmorency;Gare Grand-Moulin
147960597;"{\"type\":\"LineString\",\"coordinates\":[[-73.9117926,45.5447538],[-73.9119546,45.5447484]]}";5;"";1;50;false;false;true;false;false;false;13.0;0;0;0;0;0;false;80232;6119526987;-73.912706;45.545457;80202;6119527014;-73.887316;45.537121;0;1;2;9406935;Bus 400 : EXPRESS DEUX-MONTAGNES;"";EXO;400 O;Station Montmorency;Gare Grand-Moulin
123954902;"{\"type\":\"LineString\",\"coordinates\":[[-73.9124828,45.5423411],[-73.9124123,45.5424344],[-73.9121541,45.5428364],[-73.9119478,45.5431627],[-73.9118508,45.54337],[-73.9117712,45.5436255],[-73.9117453,45.5437815],[-73.9117386,45.5439336],[-73.9117638,45.5443984],[-73.9117671,45.5444339],[-73.9117909,45.5446768],[-73.9117926,45.5447538]]}";6;Boulevard de Deux-Montagnes;1;50;false;true;true;false;false;false;280.0;0;1;0;0;0;false;80232;6119526987;-73.912706;45.545457;80202;6119527014;-73.887316;45.537121;0;1;2;9406935;Bus 400 : EXPRESS DEUX-MONTAGNES;"";EXO;400 O;Station Montmorency;Gare Grand-Moulin
677253530;"{\"type\":\"LineString\",\"coordinates\":[[-73.9125639,45.542236],[-73.9124828,45.5423411]]}";7;Boulevard de Deux-Montagnes;1;50;false;true;true;false;false;false;14.0;0;0;0;0;0;false;80232;6119526987;-73.912706;45.545457;80202;6119527014;-73.887316;45.537121;0;1;2;9406935;Bus 400 : EXPRESS DEUX-MONTAGNES;"";EXO;400 O;Station Montmorency;Gare Grand-Moulin
676848401;"{\"type\":\"LineString\",\"coordinates\":[[-73.9125639,45.542236],[-73.9123055,45.5421254],[-73.9118962,45.5419333],[-73.9116614,45.5417803],[-73.9111106,45.5414212],[-73.9102317,45.5407852],[-73.9082154,45.5392955],[-73.9062022,45.537821],[-73.9044134,45.5365319],[-73.902113,45.5348786],[-73.9020021,45.5347892],[-73.9019641,45.5347586],[-73.9018563,45.5347366]]}";8;20e Avenue;1;50;false;true;true;false;false;false;1183.0;1;0;0;0;0;false;80232;6119526987;-73.912706;45.545457;80202;6119527014;-73.887316;45.537121;0;1;2;9406935;Bus 400 : EXPRESS DEUX-MONTAGNES;"";EXO;400 O;Station Montmorency;Gare Grand-Moulin
131450335;"{\"type\":\"LineString\",\"coordinates\":[[-73.9018563,45.5347366],[-73.9015429,45.5344542],[-73.9010177,45.5341246],[-73.9000345,45.5335582],[-73.899663,45.5333195],[-73.8990317,45.5328543],[-73.8983782,45.5323602]]}";9;20e Avenue;1;50;false;false;true;false;false;false;380.0;1;0;1;0;0;false;80232;6119526987;-73.912706;45.545457;80202;6119527014;-73.887316;45.537121;0;1;2;9406935;Bus 400 : EXPRESS DEUX-MONTAGNES;"";EXO;400 O;Station Montmorency;Gare Grand-Moulin
29213633;"{\"type\":\"LineString\",\"coordinates\":[[-73.8983782,45.5323602],[-73.8979883,45.5326129],[-73.8977676,45.5327618],[-73.8976638,45.5328295],[-73.8975196,45.532885],[-73.8973833,45.5329085],[-73.8968396,45.5329592],[-73.8961602,45.5330227],[-73.8953976,45.5331021],[-73.894956,45.533138],[-73.8937918,45.5332333],[-73.8930465,45.5333462],[-73.8924219,45.5334134],[-73.8920957,45.5334495],[-73.8920708,45.5334569],[-73.8917395,45.5335377],[-73.8914748,45.5336413],[-73.8912732,45.5337476],[-73.8910228,45.5339004],[-73.8908326,45.5340136],[-73.8901321,45.5344245],[-73.8893178,45.5349645]]}";10;Boulevard du Lac;2;50;false;false;true;false;false;false;795.0;0;0;1;0;0;false;80232;6119526987;-73.912706;45.545457;80202;6119527014;-73.887316;45.537121;0;1;2;9406935;Bus 400 : EXPRESS DEUX-MONTAGNES;"";EXO;400 O;Station Montmorency;Gare Grand-Moulin
437626026;"{\"type\":\"LineString\",\"coordinates\":[[-73.8893178,45.5349645],[-73.8884779,45.5354884],[-73.8877388,45.5359493],[-73.8868841,45.5364663],[-73.8866382,45.5365937],[-73.8865164,45.5366563]]}";11;Boulevard du Lac;2;50;false;false;true;false;false;false;289.0;0;0;0;0;0;false;80232;6119526987;-73.912706;45.545457;80202;6119527014;-73.887316;45.537121;0;1;2;9406935;Bus 400 : EXPRESS DEUX-MONTAGNES;"";EXO;400 O;Station Montmorency;Gare Grand-Moulin
677656005;"{\"type\":\"LineString\",\"coordinates\":[[-73.8865164,45.5366563],[-73.8857953,45.536998]]}";12;Boulevard du Lac;2;50;false;false;true;false;false;false;68.0;0;0;0;0;0;false;80232;6119526987;-73.912706;45.545457;80202;6119527014;-73.887316;45.537121;0;1;2;9406935;Bus 400 : EXPRESS DEUX-MONTAGNES;"";EXO;400 O;Station Montmorency;Gare Grand-Moulin
677253535;"{\"type\":\"LineString\",\"coordinates\":[[-73.8857953,45.536998],[-73.8867742,45.5379586]]}";13;8e Avenue;1;50;false;false;false;false;false;false;132.0;0;0;0;0;0;false;80232;6119526987;-73.912706;45.545457;80202;6119527014;-73.887316;45.537121;0;1;2;9406935;Bus 400 : EXPRESS DEUX-MONTAGNES;"";EXO;400 O;Station Montmorency;Gare Grand-Moulin
45588357;"{\"type\":\"LineString\",\"coordinates\":[[-73.8879043,45.5375211],[-73.8878347,45.5375794],[-73.8867742,45.5379586]]}";14;Rue Rockland;2;50;false;false;true;false;false;false;102.0;0;0;0;0;0;false;80232;6119526987;-73.912706;45.545457;80202;6119527014;-73.887316;45.537121;0;1;2;9406935;Bus 400 : EXPRESS DEUX-MONTAGNES;"";EXO;400 O;Station Montmorency;Gare Grand-Moulin
677656009;"{\"type\":\"LineString\",\"coordinates\":[[-73.887299,45.537154],[-73.8874595,45.5372335],[-73.8878125,45.5374082],[-73.8878628,45.5374537],[-73.8879043,45.5375211]]}";15;Rue de la Gare;2;50;false;false;true;false;false;false;64.0;0;0;0;0;0;false;80232;6119526987;-73.912706;45.545457;80202;6119527014;-73.887316;45.537121;1;1;2;9406935;Bus 400 : EXPRESS DEUX-MONTAGNES;"";EXO;400 O;Station Montmorency;Gare Grand-Moulin
