way_id;shape;index;name;nb_lanes;legal_speed;speed_zone_30;oneway;shares_bike;bike_box;bus_lane;dedicated_bus_lane;length;nb_traffic_signals;nb_crossings;nb_stops;nb_give_ways;nb_lvl_crossings;roundabout;stop_id_orig;node_id_orig;coord_x_orig;coord_y_orig;stop_id_dest;node_id_dest;coord_x_dest;coord_y_dest;nb_neighbouring_ways_bus_stop;order_orig;order_dest;id_line;line_name;colour;operator;ref;from;to
81177359;"{\"type\":\"LineString\",\"coordinates\":[[-6.3921949,53.3939195],[-6.3924605,53.3937795],[-6.392499,53.3937592],[-6.3926335,53.3936879],[-6.3931725,53.3933938],[-6.3932607,53.3933293],[-6.3933618,53.3932392],[-6.3934308,53.3931396],[-6.3935029,53.3930494]]}";1;"";1;50;false;true;true;false;false;false;133.0;0;1;0;0;0;false;7026;876400697;-6.3921422;53.3938817;4323;2601217510;-6.3939579;53.3963115;1;0;1;11021372;270 to Dunboyne;"";Go-Ahead Ireland;270;Blanchardstown SC;Dunboyne
2684340;"{\"type\":\"LineString\",\"coordinates\":[[-6.3935029,53.3930494],[-6.3935047,53.3930126],[-6.3935266,53.3929733],[-6.3935579,53.3929458],[-6.3936207,53.392916],[-6.3937036,53.3929006],[-6.393756,53.3929007],[-6.3937958,53.3929058],[-6.39385,53.3929208],[-6.3939031,53.3929498]]}";2;"";1;50;false;false;true;false;false;false;39.0;0;0;0;0;0;true;7026;876400697;-6.3921422;53.3938817;4323;2601217510;-6.3939579;53.3963115;0;0;1;11021372;270 to Dunboyne;"";Go-Ahead Ireland;270;Blanchardstown SC;Dunboyne
70735985;"{\"type\":\"LineString\",\"coordinates\":[[-6.3939031,53.3929498],[-6.3940124,53.3929682],[-6.3940449,53.3929771],[-6.3943326,53.3930086],[-6.3947881,53.3930213],[-6.3951107,53.3930264],[-6.3961605,53.3930539],[-6.3963704,53.3930762],[-6.3966762,53.3931085],[-6.3969273,53.393152],[-6.3971638,53.3932138],[-6.3975199,53.3933426],[-6.397822,53.3934563],[-6.3980211,53.3935012]]}";3;"";2;50;false;true;true;false;false;false;288.0;0;1;0;0;0;false;7026;876400697;-6.3921422;53.3938817;4323;2601217510;-6.3939579;53.3963115;0;0;1;11021372;270 to Dunboyne;"";Go-Ahead Ireland;270;Blanchardstown SC;Dunboyne
383342286;"{\"type\":\"LineString\",\"coordinates\":[[-6.3980211,53.3935012],[-6.3980657,53.3934986],[-6.3981141,53.3935023],[-6.3981568,53.3935117],[-6.3981952,53.3935263]]}";4;"";2;60;false;false;true;false;false;false;13.0;0;0;0;0;0;true;7026;876400697;-6.3921422;53.3938817;4323;2601217510;-6.3939579;53.3963115;0;0;1;11021372;270 to Dunboyne;"";Go-Ahead Ireland;270;Blanchardstown SC;Dunboyne
2684339;"{\"type\":\"LineString\",\"coordinates\":[[-6.3981952,53.3935263],[-6.3982399,53.3935557],[-6.3982633,53.3935846],[-6.3982729,53.3936115],[-6.3982675,53.3936552],[-6.3982414,53.3936913]]}";5;"";2;60;false;false;true;false;false;false;21.0;0;0;0;0;0;true;7026;876400697;-6.3921422;53.3938817;4323;2601217510;-6.3939579;53.3963115;0;0;1;11021372;270 to Dunboyne;"";Go-Ahead Ireland;270;Blanchardstown SC;Dunboyne
383342290;"{\"type\":\"LineString\",\"coordinates\":[[-6.3982414,53.3936913],[-6.3982049,53.3937172],[-6.398158,53.3937364],[-6.3981133,53.3937462],[-6.3980335,53.3937485],[-6.397958,53.3937329]]}";6;"";2;60;false;false;true;false;false;false;22.0;0;0;0;0;0;true;7026;876400697;-6.3921422;53.3938817;4323;2601217510;-6.3939579;53.3963115;0;0;1;11021372;270 to Dunboyne;"";Go-Ahead Ireland;270;Blanchardstown SC;Dunboyne
3753772;"{\"type\":\"LineString\",\"coordinates\":[[-6.397958,53.3937329],[-6.3974657,53.3941173],[-6.3973899,53.3941765],[-6.3971356,53.3943751],[-6.3969155,53.3945381]]}";7;Blanchardstown Road South;4;60;false;false;false;false;false;false;115.0;0;0;0;0;0;false;7026;876400697;-6.3921422;53.3938817;4323;2601217510;-6.3939579;53.3963115;0;0;1;11021372;270 to Dunboyne;"";Go-Ahead Ireland;270;Blanchardstown SC;Dunboyne
794445102;"{\"type\":\"LineString\",\"coordinates\":[[-6.3969155,53.3945381],[-6.3966687,53.394721],[-6.3961452,53.3950632],[-6.3960616,53.3951177],[-6.3953756,53.3954969],[-6.3952769,53.3955526],[-6.3941822,53.3961162],[-6.3939013,53.3962749],[-6.392844,53.3968684]]}";8;Blanchardstown Road South;4;60;false;false;false;false;false;false;189.0;0;1;0;0;0;false;7026;876400697;-6.3921422;53.3938817;4323;2601217510;-6.3939579;53.3963115;1;0;1;11021372;270 to Dunboyne;"";Go-Ahead Ireland;270;Blanchardstown SC;Dunboyne
794445102;"{\"type\":\"LineString\",\"coordinates\":[[-6.3969155,53.3945381],[-6.3966687,53.394721],[-6.3961452,53.3950632],[-6.3960616,53.3951177],[-6.3953756,53.3954969],[-6.3952769,53.3955526],[-6.3941822,53.3961162],[-6.3939013,53.3962749],[-6.392844,53.3968684]]}";1;Blanchardstown Road South;4;60;false;false;false;false;false;false;189.0;0;1;0;0;0;false;4323;2601217510;-6.3939579;53.3963115;4324;5691899101;-6.4266541;53.4040098;1;1;2;11021372;270 to Dunboyne;"";Go-Ahead Ireland;270;Blanchardstown SC;Dunboyne
235062303;"{\"type\":\"LineString\",\"coordinates\":[[-6.392844,53.3968684],[-6.3927689,53.3969261]]}";2;Blanchardstown Road South;2;60;false;true;false;false;false;false;9.0;0;0;0;0;0;false;4323;2601217510;-6.3939579;53.3963115;4324;5691899101;-6.4266541;53.4040098;0;1;2;11021372;270 to Dunboyne;"";Go-Ahead Ireland;270;Blanchardstown SC;Dunboyne
81339126;"{\"type\":\"LineString\",\"coordinates\":[[-6.3927689,53.3969261],[-6.3927649,53.397087],[-6.3927585,53.3971557],[-6.39273,53.3972149],[-6.3927051,53.3972665]]}";3;"";2;100;false;true;true;false;false;false;39.0;0;0;0;1;0;false;4323;2601217510;-6.3939579;53.3963115;4324;5691899101;-6.4266541;53.4040098;0;1;2;11021372;270 to Dunboyne;"";Go-Ahead Ireland;270;Blanchardstown SC;Dunboyne
238257309;"{\"type\":\"LineString\",\"coordinates\":[[-6.3927051,53.3972665],[-6.3929096,53.3974311],[-6.3931418,53.3976357],[-6.3934405,53.3979017],[-6.3939616,53.3983156],[-6.3944184,53.3986],[-6.3949665,53.3989226],[-6.3957942,53.3993602],[-6.3973148,53.4001943],[-6.397627,53.4003949]]}";4;"";1;100;false;true;true;false;false;false;484.0;0;0;0;0;0;false;4323;2601217510;-6.3939579;53.3963115;4324;5691899101;-6.4266541;53.4040098;0;1;2;11021372;270 to Dunboyne;"";Go-Ahead Ireland;270;Blanchardstown SC;Dunboyne
548074221;"{\"type\":\"LineString\",\"coordinates\":[[-6.397627,53.4003949],[-6.3998042,53.4015549]]}";5;Blanchardstown Bypass;2;100;false;true;true;false;false;false;196.0;0;0;0;0;0;false;4323;2601217510;-6.3939579;53.3963115;4324;5691899101;-6.4266541;53.4040098;0;1;2;11021372;270 to Dunboyne;"";Go-Ahead Ireland;270;Blanchardstown SC;Dunboyne
4406777;"{\"type\":\"LineString\",\"coordinates\":[[-6.3998042,53.4015549],[-6.4000201,53.4016756]]}";6;Blanchardstown Bypass;2;100;false;true;true;false;false;false;20.0;0;0;0;0;0;false;4323;2601217510;-6.3939579;53.3963115;4324;5691899101;-6.4266541;53.4040098;0;1;2;11021372;270 to Dunboyne;"";Go-Ahead Ireland;270;Blanchardstown SC;Dunboyne
548614727;"{\"type\":\"LineString\",\"coordinates\":[[-6.4000201,53.4016756],[-6.401691,53.4025568],[-6.4027203,53.403098],[-6.4033104,53.4033731],[-6.4035106,53.4034574]]}";7;Blanchardstown Bypass;2;100;false;true;true;false;false;false;308.0;0;0;0;0;0;false;4323;2601217510;-6.3939579;53.3963115;4324;5691899101;-6.4266541;53.4040098;0;1;2;11021372;270 to Dunboyne;"";Go-Ahead Ireland;270;Blanchardstown SC;Dunboyne
4406822;"{\"type\":\"LineString\",\"coordinates\":[[-6.4035106,53.4034574],[-6.4041151,53.4037121],[-6.4049305,53.4040255],[-6.40556,53.4042547],[-6.406229,53.4044695],[-6.4068788,53.4046616],[-6.4073075,53.4047853],[-6.4077955,53.4049096],[-6.4087448,53.4051465],[-6.4093882,53.4052722],[-6.4098558,53.4053657],[-6.4105411,53.4054837],[-6.4110521,53.405566],[-6.4124386,53.4057628]]}";8;Blanchardstown Bypass;2;100;false;true;true;false;false;false;657.0;0;0;0;0;0;false;4323;2601217510;-6.3939579;53.3963115;4324;5691899101;-6.4266541;53.4040098;0;1;2;11021372;270 to Dunboyne;"";Go-Ahead Ireland;270;Blanchardstown SC;Dunboyne
357004008;"{\"type\":\"LineString\",\"coordinates\":[[-6.4124386,53.4057628],[-6.4139229,53.4059753],[-6.4161502,53.4062934],[-6.417025,53.4064316],[-6.4178069,53.4065717],[-6.418708,53.4067306]]}";9;Navan Road;2;100;false;true;true;false;false;false;434.0;0;0;0;0;0;false;4323;2601217510;-6.3939579;53.3963115;4324;5691899101;-6.4266541;53.4040098;0;1;2;11021372;270 to Dunboyne;"";Go-Ahead Ireland;270;Blanchardstown SC;Dunboyne
2713032;"{\"type\":\"LineString\",\"coordinates\":[[-6.418708,53.4067306],[-6.4193215,53.4068301],[-6.4205995,53.4071077],[-6.4214425,53.4072868],[-6.4222388,53.4074398],[-6.423283,53.4076363],[-6.4251681,53.4079857],[-6.4267524,53.4081677],[-6.4279311,53.4082761],[-6.4281671,53.4083206]]}";10;"";2;50;false;true;true;false;false;false;660.0;0;0;0;0;0;false;4323;2601217510;-6.3939579;53.3963115;4324;5691899101;-6.4266541;53.4040098;0;1;2;11021372;270 to Dunboyne;"";Go-Ahead Ireland;270;Blanchardstown SC;Dunboyne
539634714;"{\"type\":\"LineString\",\"coordinates\":[[-6.4283971,53.4079203],[-6.4281671,53.4083206]]}";11;Littlepace Distributor Road;2;60;false;false;true;false;false;false;48.0;0;0;0;0;0;false;4323;2601217510;-6.3939579;53.3963115;4324;5691899101;-6.4266541;53.4040098;0;1;2;11021372;270 to Dunboyne;"";Go-Ahead Ireland;270;Blanchardstown SC;Dunboyne
4246216;"{\"type\":\"LineString\",\"coordinates\":[[-6.4300183,53.4066354],[-6.429723,53.4068007],[-6.4291755,53.4071512],[-6.4289143,53.4073403],[-6.4287828,53.4074641],[-6.4286985,53.4075444],[-6.4285625,53.4076869],[-6.4283971,53.4079203]]}";12;Littlepace Distributor Road;2;60;false;false;true;false;false;false;183.0;0;1;0;0;0;false;4323;2601217510;-6.3939579;53.3963115;4324;5691899101;-6.4266541;53.4040098;0;1;2;11021372;270 to Dunboyne;"";Go-Ahead Ireland;270;Blanchardstown SC;Dunboyne
794445096;"{\"type\":\"LineString\",\"coordinates\":[[-6.4302635,53.406669],[-6.4302123,53.4066823],[-6.4301567,53.4066853],[-6.4301024,53.4066779],[-6.4300546,53.4066607],[-6.4300183,53.4066354]]}";13;"";1;50;false;false;true;false;false;false;19.0;0;0;0;0;0;true;4323;2601217510;-6.3939579;53.3963115;4324;5691899101;-6.4266541;53.4040098;0;1;2;11021372;270 to Dunboyne;"";Go-Ahead Ireland;270;Blanchardstown SC;Dunboyne
3753764;"{\"type\":\"LineString\",\"coordinates\":[[-6.4300764,53.406491],[-6.4301263,53.4064785],[-6.4301803,53.4064757],[-6.4302332,53.4064828],[-6.4302799,53.4064991],[-6.4303161,53.4065231],[-6.4303384,53.4065525],[-6.4303446,53.4065856],[-6.4303331,53.4066181],[-6.4303051,53.4066469],[-6.4302635,53.406669]]}";14;"";1;50;false;false;true;false;false;false;37.0;0;0;0;0;0;true;4323;2601217510;-6.3939579;53.3963115;4324;5691899101;-6.4266541;53.4040098;0;1;2;11021372;270 to Dunboyne;"";Go-Ahead Ireland;270;Blanchardstown SC;Dunboyne
96261002;"{\"type\":\"LineString\",\"coordinates\":[[-6.4254272,53.403665],[-6.4256834,53.4037097],[-6.4260123,53.4037902],[-6.4262463,53.4038466],[-6.4266192,53.4039469],[-6.4269303,53.4040405],[-6.4272371,53.4041469],[-6.4276351,53.4043072],[-6.4278735,53.4044106],[-6.4280515,53.4045028],[-6.4283104,53.4046432],[-6.4286229,53.4048324],[-6.428836,53.4049873],[-6.4289772,53.405101],[-6.4291891,53.4052998],[-6.4294644,53.4055648],[-6.4295745,53.4056936],[-6.4296902,53.4058364],[-6.4297126,53.4058734],[-6.4298714,53.4061145],[-6.4300764,53.406491]]}";15;Littlepace Road;2;50;false;false;true;false;false;false;233.0;0;1;0;0;0;false;4323;2601217510;-6.3939579;53.3963115;4324;5691899101;-6.4266541;53.4040098;1;1;2;11021372;270 to Dunboyne;"";Go-Ahead Ireland;270;Blanchardstown SC;Dunboyne
96261002;"{\"type\":\"LineString\",\"coordinates\":[[-6.4254272,53.403665],[-6.4256834,53.4037097],[-6.4260123,53.4037902],[-6.4262463,53.4038466],[-6.4266192,53.4039469],[-6.4269303,53.4040405],[-6.4272371,53.4041469],[-6.4276351,53.4043072],[-6.4278735,53.4044106],[-6.4280515,53.4045028],[-6.4283104,53.4046432],[-6.4286229,53.4048324],[-6.428836,53.4049873],[-6.4289772,53.405101],[-6.4291891,53.4052998],[-6.4294644,53.4055648],[-6.4295745,53.4056936],[-6.4296902,53.4058364],[-6.4297126,53.4058734],[-6.4298714,53.4061145],[-6.4300764,53.406491]]}";1;Littlepace Road;2;50;false;false;true;false;false;false;233.0;0;1;0;0;0;false;4324;5691899101;-6.4266541;53.4040098;4770;5691899225;-6.4182149;53.4039523;1;2;3;11021372;270 to Dunboyne;"";Go-Ahead Ireland;270;Blanchardstown SC;Dunboyne
96261049;"{\"type\":\"LineString\",\"coordinates\":[[-6.4251295,53.4036369],[-6.4251334,53.4036056],[-6.4251516,53.4035797],[-6.425182,53.4035583],[-6.4252217,53.4035432],[-6.4252671,53.4035359],[-6.4253142,53.4035371],[-6.4253585,53.4035465],[-6.4253952,53.403563],[-6.4254223,53.4035852],[-6.4254374,53.4036111],[-6.425439,53.4036385],[-6.4254272,53.403665],[-6.4254005,53.4036899],[-6.4253621,53.4037085],[-6.4253158,53.403719],[-6.4252663,53.4037203],[-6.4252158,53.4037114],[-6.4251731,53.403693],[-6.4251432,53.4036672],[-6.4251295,53.4036369]]}";2;"";1;50;false;false;true;false;false;false;66.0;0;0;0;0;0;true;4324;5691899101;-6.4266541;53.4040098;4770;5691899225;-6.4182149;53.4039523;0;2;3;11021372;270 to Dunboyne;"";Go-Ahead Ireland;270;Blanchardstown SC;Dunboyne
30478338;"{\"type\":\"LineString\",\"coordinates\":[[-6.4251334,53.4036056],[-6.425,53.4035772],[-6.4247022,53.4035492],[-6.4240626,53.4035017],[-6.4240234,53.4035018],[-6.4234599,53.4035026],[-6.4230841,53.4035122],[-6.4227149,53.4035292],[-6.4223569,53.4035607],[-6.4220168,53.4036155],[-6.4218366,53.4036419],[-6.4216868,53.403666],[-6.4211011,53.4037513],[-6.4204493,53.4038201],[-6.4201855,53.4038505]]}";3;Littlepace Road;2;50;false;false;true;false;false;false;337.0;0;0;0;0;0;false;4324;5691899101;-6.4266541;53.4040098;4770;5691899225;-6.4182149;53.4039523;0;2;3;11021372;270 to Dunboyne;"";Go-Ahead Ireland;270;Blanchardstown SC;Dunboyne
96260930;"{\"type\":\"LineString\",\"coordinates\":[[-6.4199057,53.4038229],[-6.4199388,53.4038022],[-6.4199808,53.4037883],[-6.4200279,53.4037827],[-6.4200714,53.4037852],[-6.420112,53.4037948],[-6.4201466,53.4038107],[-6.4201703,53.4038291],[-6.4201855,53.4038505],[-6.4201914,53.4038795],[-6.420182,53.4039082],[-6.4201583,53.4039338],[-6.4201224,53.4039537],[-6.420078,53.4039661],[-6.4200293,53.4039696],[-6.4199824,53.4039644],[-6.4199403,53.4039509],[-6.419907,53.4039305],[-6.4198855,53.4039051],[-6.4198778,53.403877],[-6.4198847,53.4038487],[-6.4199057,53.4038229]]}";4;"";1;50;false;false;true;false;false;false;66.0;0;0;0;0;0;true;4324;5691899101;-6.4266541;53.4040098;4770;5691899225;-6.4182149;53.4039523;0;2;3;11021372;270 to Dunboyne;"";Go-Ahead Ireland;270;Blanchardstown SC;Dunboyne
3753771;"{\"type\":\"LineString\",\"coordinates\":[[-6.4198778,53.403877],[-6.4196132,53.403886],[-6.4191396,53.4038912],[-6.417734,53.4039304],[-6.417265,53.4039436],[-6.4168363,53.4039365],[-6.4164589,53.4039178],[-6.416034,53.4038815],[-6.4154624,53.4037935],[-6.4150188,53.4037126],[-6.4148277,53.4036723],[-6.4145013,53.4035927],[-6.41408,53.4034729],[-6.4139698,53.4034405],[-6.4137609,53.4033598]]}";5;Littlepace Road;2;50;false;false;true;false;false;false;211.0;0;0;0;0;0;false;4324;5691899101;-6.4266541;53.4040098;4770;5691899225;-6.4182149;53.4039523;1;2;3;11021372;270 to Dunboyne;"";Go-Ahead Ireland;270;Blanchardstown SC;Dunboyne
3753771;"{\"type\":\"LineString\",\"coordinates\":[[-6.4198778,53.403877],[-6.4196132,53.403886],[-6.4191396,53.4038912],[-6.417734,53.4039304],[-6.417265,53.4039436],[-6.4168363,53.4039365],[-6.4164589,53.4039178],[-6.416034,53.4038815],[-6.4154624,53.4037935],[-6.4150188,53.4037126],[-6.4148277,53.4036723],[-6.4145013,53.4035927],[-6.41408,53.4034729],[-6.4139698,53.4034405],[-6.4137609,53.4033598]]}";1;Littlepace Road;2;50;false;false;true;false;false;false;211.0;0;0;0;0;0;false;4766;5691899226;-6.4183893;53.4038579;4767;5691899224;-6.4234372;53.4034518;1;5;6;11021372;270 to Dunboyne;"";Go-Ahead Ireland;270;Blanchardstown SC;Dunboyne
96260930;"{\"type\":\"LineString\",\"coordinates\":[[-6.4199057,53.4038229],[-6.4199388,53.4038022],[-6.4199808,53.4037883],[-6.4200279,53.4037827],[-6.4200714,53.4037852],[-6.420112,53.4037948],[-6.4201466,53.4038107],[-6.4201703,53.4038291],[-6.4201855,53.4038505],[-6.4201914,53.4038795],[-6.420182,53.4039082],[-6.4201583,53.4039338],[-6.4201224,53.4039537],[-6.420078,53.4039661],[-6.4200293,53.4039696],[-6.4199824,53.4039644],[-6.4199403,53.4039509],[-6.419907,53.4039305],[-6.4198855,53.4039051],[-6.4198778,53.403877],[-6.4198847,53.4038487],[-6.4199057,53.4038229]]}";2;"";1;50;false;false;true;false;false;false;66.0;0;0;0;0;0;true;4766;5691899226;-6.4183893;53.4038579;4767;5691899224;-6.4234372;53.4034518;0;5;6;11021372;270 to Dunboyne;"";Go-Ahead Ireland;270;Blanchardstown SC;Dunboyne
30478338;"{\"type\":\"LineString\",\"coordinates\":[[-6.4251334,53.4036056],[-6.425,53.4035772],[-6.4247022,53.4035492],[-6.4240626,53.4035017],[-6.4240234,53.4035018],[-6.4234599,53.4035026],[-6.4230841,53.4035122],[-6.4227149,53.4035292],[-6.4223569,53.4035607],[-6.4220168,53.4036155],[-6.4218366,53.4036419],[-6.4216868,53.403666],[-6.4211011,53.4037513],[-6.4204493,53.4038201],[-6.4201855,53.4038505]]}";3;Littlepace Road;2;50;false;false;true;false;false;false;168.5;0;0;0;0;0;false;4766;5691899226;-6.4183893;53.4038579;4767;5691899224;-6.4234372;53.4034518;1;5;6;11021372;270 to Dunboyne;"";Go-Ahead Ireland;270;Blanchardstown SC;Dunboyne
30478338;"{\"type\":\"LineString\",\"coordinates\":[[-6.4251334,53.4036056],[-6.425,53.4035772],[-6.4247022,53.4035492],[-6.4240626,53.4035017],[-6.4240234,53.4035018],[-6.4234599,53.4035026],[-6.4230841,53.4035122],[-6.4227149,53.4035292],[-6.4223569,53.4035607],[-6.4220168,53.4036155],[-6.4218366,53.4036419],[-6.4216868,53.403666],[-6.4211011,53.4037513],[-6.4204493,53.4038201],[-6.4201855,53.4038505]]}";1;Littlepace Road;2;50;false;false;true;false;false;false;168.5;0;0;0;0;0;false;4767;5691899224;-6.4234372;53.4034518;4768;5691899222;-6.426342;53.4038244;1;6;7;11021372;270 to Dunboyne;"";Go-Ahead Ireland;270;Blanchardstown SC;Dunboyne
96261049;"{\"type\":\"LineString\",\"coordinates\":[[-6.4251295,53.4036369],[-6.4251334,53.4036056],[-6.4251516,53.4035797],[-6.425182,53.4035583],[-6.4252217,53.4035432],[-6.4252671,53.4035359],[-6.4253142,53.4035371],[-6.4253585,53.4035465],[-6.4253952,53.403563],[-6.4254223,53.4035852],[-6.4254374,53.4036111],[-6.425439,53.4036385],[-6.4254272,53.403665],[-6.4254005,53.4036899],[-6.4253621,53.4037085],[-6.4253158,53.403719],[-6.4252663,53.4037203],[-6.4252158,53.4037114],[-6.4251731,53.403693],[-6.4251432,53.4036672],[-6.4251295,53.4036369]]}";2;"";1;50;false;false;true;false;false;false;66.0;0;0;0;0;0;true;4767;5691899224;-6.4234372;53.4034518;4768;5691899222;-6.426342;53.4038244;0;6;7;11021372;270 to Dunboyne;"";Go-Ahead Ireland;270;Blanchardstown SC;Dunboyne
96261002;"{\"type\":\"LineString\",\"coordinates\":[[-6.4254272,53.403665],[-6.4256834,53.4037097],[-6.4260123,53.4037902],[-6.4262463,53.4038466],[-6.4266192,53.4039469],[-6.4269303,53.4040405],[-6.4272371,53.4041469],[-6.4276351,53.4043072],[-6.4278735,53.4044106],[-6.4280515,53.4045028],[-6.4283104,53.4046432],[-6.4286229,53.4048324],[-6.428836,53.4049873],[-6.4289772,53.405101],[-6.4291891,53.4052998],[-6.4294644,53.4055648],[-6.4295745,53.4056936],[-6.4296902,53.4058364],[-6.4297126,53.4058734],[-6.4298714,53.4061145],[-6.4300764,53.406491]]}";3;Littlepace Road;2;50;false;false;true;false;false;false;233.0;0;1;0;0;0;false;4767;5691899224;-6.4234372;53.4034518;4768;5691899222;-6.426342;53.4038244;1;6;7;11021372;270 to Dunboyne;"";Go-Ahead Ireland;270;Blanchardstown SC;Dunboyne
96261002;"{\"type\":\"LineString\",\"coordinates\":[[-6.4254272,53.403665],[-6.4256834,53.4037097],[-6.4260123,53.4037902],[-6.4262463,53.4038466],[-6.4266192,53.4039469],[-6.4269303,53.4040405],[-6.4272371,53.4041469],[-6.4276351,53.4043072],[-6.4278735,53.4044106],[-6.4280515,53.4045028],[-6.4283104,53.4046432],[-6.4286229,53.4048324],[-6.428836,53.4049873],[-6.4289772,53.405101],[-6.4291891,53.4052998],[-6.4294644,53.4055648],[-6.4295745,53.4056936],[-6.4296902,53.4058364],[-6.4297126,53.4058734],[-6.4298714,53.4061145],[-6.4300764,53.406491]]}";1;Littlepace Road;2;50;false;false;true;false;false;false;233.0;0;1;0;0;0;false;4768;5691899222;-6.426342;53.4038244;3328;1483510971;-6.4425089;53.4104768;1;7;8;11021372;270 to Dunboyne;"";Go-Ahead Ireland;270;Blanchardstown SC;Dunboyne
3753764;"{\"type\":\"LineString\",\"coordinates\":[[-6.4300764,53.406491],[-6.4301263,53.4064785],[-6.4301803,53.4064757],[-6.4302332,53.4064828],[-6.4302799,53.4064991],[-6.4303161,53.4065231],[-6.4303384,53.4065525],[-6.4303446,53.4065856],[-6.4303331,53.4066181],[-6.4303051,53.4066469],[-6.4302635,53.406669]]}";2;"";1;50;false;false;true;false;false;false;37.0;0;0;0;0;0;true;4768;5691899222;-6.426342;53.4038244;3328;1483510971;-6.4425089;53.4104768;0;7;8;11021372;270 to Dunboyne;"";Go-Ahead Ireland;270;Blanchardstown SC;Dunboyne
794445096;"{\"type\":\"LineString\",\"coordinates\":[[-6.4302635,53.406669],[-6.4302123,53.4066823],[-6.4301567,53.4066853],[-6.4301024,53.4066779],[-6.4300546,53.4066607],[-6.4300183,53.4066354]]}";3;"";1;50;false;false;true;false;false;false;19.0;0;0;0;0;0;true;4768;5691899222;-6.426342;53.4038244;3328;1483510971;-6.4425089;53.4104768;0;7;8;11021372;270 to Dunboyne;"";Go-Ahead Ireland;270;Blanchardstown SC;Dunboyne
4246216;"{\"type\":\"LineString\",\"coordinates\":[[-6.4300183,53.4066354],[-6.429723,53.4068007],[-6.4291755,53.4071512],[-6.4289143,53.4073403],[-6.4287828,53.4074641],[-6.4286985,53.4075444],[-6.4285625,53.4076869],[-6.4283971,53.4079203]]}";4;Littlepace Distributor Road;2;60;false;false;true;false;false;false;183.0;0;1;0;0;0;false;4768;5691899222;-6.426342;53.4038244;3328;1483510971;-6.4425089;53.4104768;0;7;8;11021372;270 to Dunboyne;"";Go-Ahead Ireland;270;Blanchardstown SC;Dunboyne
4396950;"{\"type\":\"LineString\",\"coordinates\":[[-6.4283971,53.4079203],[-6.4283905,53.4080428],[-6.4283905,53.4081662],[-6.4284258,53.4082505],[-6.4285546,53.4083934],[-6.4287568,53.4085245]]}";5;Old Navan Road;1;50;false;true;true;false;false;false;76.0;0;0;0;1;0;false;4768;5691899222;-6.426342;53.4038244;3328;1483510971;-6.4425089;53.4104768;0;7;8;11021372;270 to Dunboyne;"";Go-Ahead Ireland;270;Blanchardstown SC;Dunboyne
4246219;"{\"type\":\"LineString\",\"coordinates\":[[-6.4287568,53.4085245],[-6.4295811,53.4088374],[-6.4299114,53.4089484],[-6.4302822,53.4090573],[-6.4307073,53.4091632],[-6.4309834,53.409221],[-6.431191,53.4092644],[-6.4316571,53.4093441]]}";6;Old Navan Road;2;50;false;false;true;false;false;false;216.0;0;0;0;0;0;false;4768;5691899222;-6.426342;53.4038244;3328;1483510971;-6.4425089;53.4104768;0;7;8;11021372;270 to Dunboyne;"";Go-Ahead Ireland;270;Blanchardstown SC;Dunboyne
318974247;"{\"type\":\"LineString\",\"coordinates\":[[-6.4316571,53.4093441],[-6.4321703,53.4094058],[-6.433004,53.4095059],[-6.4339206,53.4096315]]}";7;Old Navan Road;2;50;false;false;true;false;false;false;155.0;0;0;0;0;0;false;4768;5691899222;-6.426342;53.4038244;3328;1483510971;-6.4425089;53.4104768;0;7;8;11021372;270 to Dunboyne;"";Go-Ahead Ireland;270;Blanchardstown SC;Dunboyne
270405327;"{\"type\":\"LineString\",\"coordinates\":[[-6.4359437,53.4100377],[-6.4351688,53.4098657],[-6.4345378,53.4097368],[-6.4339206,53.4096315]]}";8;Old Navan Road;2;50;false;false;true;false;false;false;143.0;0;0;0;0;0;false;4768;5691899222;-6.426342;53.4038244;3328;1483510971;-6.4425089;53.4104768;0;7;8;11021372;270 to Dunboyne;"";Go-Ahead Ireland;270;Blanchardstown SC;Dunboyne
270405328;"{\"type\":\"LineString\",\"coordinates\":[[-6.4359437,53.4100377],[-6.436219,53.4101026],[-6.4366555,53.4101972],[-6.437082,53.4102814],[-6.4371198,53.4102868],[-6.4374845,53.4103385],[-6.4377691,53.4103669],[-6.4378797,53.410374]]}";9;Old Navan Road;2;50;false;false;true;false;false;false;136.0;0;0;0;0;0;false;4768;5691899222;-6.426342;53.4038244;3328;1483510971;-6.4425089;53.4104768;0;7;8;11021372;270 to Dunboyne;"";Go-Ahead Ireland;270;Blanchardstown SC;Dunboyne
39919327;"{\"type\":\"LineString\",\"coordinates\":[[-6.4378797,53.410374],[-6.4381409,53.4103894],[-6.438204,53.4103908],[-6.4387764,53.4104039],[-6.4389752,53.4104058],[-6.4394681,53.410417],[-6.4400815,53.4104343],[-6.4401637,53.4104366],[-6.4402985,53.4104397],[-6.4403994,53.410442],[-6.4404641,53.4104446],[-6.4408589,53.4104607],[-6.4411206,53.410477],[-6.4412081,53.4104824],[-6.4412787,53.4104868],[-6.4414677,53.4104985],[-6.44184,53.4105178],[-6.4418723,53.4105189],[-6.4420764,53.4105262],[-6.4424258,53.4105385],[-6.4427468,53.4105534],[-6.4430193,53.410573],[-6.443274,53.4106013],[-6.4434023,53.4106261],[-6.4435304,53.4106585],[-6.4437076,53.4107382],[-6.4437984,53.4107927],[-6.4438927,53.4108393],[-6.4440274,53.410861]]}";10;Old Navan Road;2;50;false;false;false;false;false;false;211.0;0;1;0;0;0;false;4768;5691899222;-6.426342;53.4038244;3328;1483510971;-6.4425089;53.4104768;1;7;8;11021372;270 to Dunboyne;"";Go-Ahead Ireland;270;Blanchardstown SC;Dunboyne
39919327;"{\"type\":\"LineString\",\"coordinates\":[[-6.4378797,53.410374],[-6.4381409,53.4103894],[-6.438204,53.4103908],[-6.4387764,53.4104039],[-6.4389752,53.4104058],[-6.4394681,53.410417],[-6.4400815,53.4104343],[-6.4401637,53.4104366],[-6.4402985,53.4104397],[-6.4403994,53.410442],[-6.4404641,53.4104446],[-6.4408589,53.4104607],[-6.4411206,53.410477],[-6.4412081,53.4104824],[-6.4412787,53.4104868],[-6.4414677,53.4104985],[-6.44184,53.4105178],[-6.4418723,53.4105189],[-6.4420764,53.4105262],[-6.4424258,53.4105385],[-6.4427468,53.4105534],[-6.4430193,53.410573],[-6.443274,53.4106013],[-6.4434023,53.4106261],[-6.4435304,53.4106585],[-6.4437076,53.4107382],[-6.4437984,53.4107927],[-6.4438927,53.4108393],[-6.4440274,53.410861]]}";1;Old Navan Road;2;50;false;false;false;false;false;false;211.0;0;1;0;0;0;false;3328;1483510971;-6.4425089;53.4104768;3329;5653514080;-6.4490605;53.4139597;1;8;9;11021372;270 to Dunboyne;"";Go-Ahead Ireland;270;Blanchardstown SC;Dunboyne
4246220;"{\"type\":\"LineString\",\"coordinates\":[[-6.4440274,53.410861],[-6.4440474,53.4109188],[-6.4440917,53.4109686],[-6.4442678,53.4110643]]}";2;Old Navan Road;2;50;false;false;false;false;false;false;29.0;0;0;0;0;0;false;3328;1483510971;-6.4425089;53.4104768;3329;5653514080;-6.4490605;53.4139597;0;8;9;11021372;270 to Dunboyne;"";Go-Ahead Ireland;270;Blanchardstown SC;Dunboyne
27836407;"{\"type\":\"LineString\",\"coordinates\":[[-6.4442678,53.4110643],[-6.4446035,53.411259]]}";3;Old Navan Road;2;50;false;false;false;false;false;false;32.0;0;0;0;0;0;false;3328;1483510971;-6.4425089;53.4104768;3329;5653514080;-6.4490605;53.4139597;0;8;9;11021372;270 to Dunboyne;"";Go-Ahead Ireland;270;Blanchardstown SC;Dunboyne
27836408;"{\"type\":\"LineString\",\"coordinates\":[[-6.4446035,53.411259],[-6.4448774,53.4114235]]}";4;Old Navan Road;2;50;false;false;false;false;false;false;26.0;0;0;0;0;0;false;3328;1483510971;-6.4425089;53.4104768;3329;5653514080;-6.4490605;53.4139597;0;8;9;11021372;270 to Dunboyne;"";Go-Ahead Ireland;270;Blanchardstown SC;Dunboyne
39919329;"{\"type\":\"LineString\",\"coordinates\":[[-6.4448774,53.4114235],[-6.4451866,53.4116034],[-6.4454944,53.4117567],[-6.446081,53.4120556]]}";5;Old Navan Road;2;50;false;false;true;false;false;false;108.0;0;0;0;0;0;false;3328;1483510971;-6.4425089;53.4104768;3329;5653514080;-6.4490605;53.4139597;0;8;9;11021372;270 to Dunboyne;"";Go-Ahead Ireland;270;Blanchardstown SC;Dunboyne
794445095;"{\"type\":\"LineString\",\"coordinates\":[[-6.446081,53.4120556],[-6.4461408,53.412034],[-6.446209,53.4120249],[-6.4462785,53.4120294],[-6.446342,53.412047],[-6.4463926,53.4120757],[-6.446425,53.4121126],[-6.4464359,53.4121538]]}";6;"";2;50;false;false;true;false;false;false;33.0;0;0;0;0;0;true;3328;1483510971;-6.4425089;53.4104768;3329;5653514080;-6.4490605;53.4139597;0;8;9;11021372;270 to Dunboyne;"";Go-Ahead Ireland;270;Blanchardstown SC;Dunboyne
43874842;"{\"type\":\"LineString\",\"coordinates\":[[-6.4464359,53.4121538],[-6.4465619,53.4121614],[-6.4466548,53.4121772],[-6.4467623,53.4122089],[-6.4468921,53.4122611],[-6.4469899,53.4123145],[-6.4470906,53.4123754],[-6.4471897,53.4124461],[-6.4472931,53.4125345],[-6.4473742,53.4126193],[-6.4476094,53.4128617],[-6.4477987,53.4130449],[-6.4479173,53.4131478],[-6.447963,53.4131874]]}";7;Old Navan Road;2;50;false;false;true;false;false;false;161.0;0;0;0;0;0;false;3328;1483510971;-6.4425089;53.4104768;3329;5653514080;-6.4490605;53.4139597;0;8;9;11021372;270 to Dunboyne;"";Go-Ahead Ireland;270;Blanchardstown SC;Dunboyne
319256933;"{\"type\":\"LineString\",\"coordinates\":[[-6.447963,53.4131874],[-6.4481225,53.4133345],[-6.4482926,53.4134817],[-6.4485216,53.4136547],[-6.4486573,53.4137572],[-6.4488722,53.413906],[-6.4492994,53.4142019],[-6.4493599,53.4142438],[-6.449701,53.41448],[-6.449798,53.4145425],[-6.4498615,53.4145834],[-6.4499465,53.4146382]]}";8;Old Navan Road;2;50;false;false;true;false;false;false;105.5;0;0;0;0;0;false;3328;1483510971;-6.4425089;53.4104768;3329;5653514080;-6.4490605;53.4139597;1;8;9;11021372;270 to Dunboyne;"";Go-Ahead Ireland;270;Blanchardstown SC;Dunboyne
319256929;"{\"type\":\"LineString\",\"coordinates\":[[-6.450843,53.4148344],[-6.4510741,53.4148381],[-6.4511918,53.4148459],[-6.4514886,53.4148719],[-6.4518685,53.4149095],[-6.4521684,53.4149402],[-6.4523362,53.4149576],[-6.452532,53.4149797],[-6.4535337,53.415093],[-6.4544772,53.4152015]]}";1;"";1;50;false;false;true;false;false;false;123.5;0;0;0;0;0;false;3330;7430619572;-6.4524075;53.4149332;3331;7430619573;-6.4626291;53.4159537;1;10;11;11021372;270 to Dunboyne;"";Go-Ahead Ireland;270;Blanchardstown SC;Dunboyne
27836412;"{\"type\":\"LineString\",\"coordinates\":[[-6.4544772,53.4152015],[-6.4549845,53.4152761],[-6.4550684,53.4152906]]}";2;"";1;50;false;false;true;false;false;false;41.0;0;0;0;0;0;false;3330;7430619572;-6.4524075;53.4149332;3331;7430619573;-6.4626291;53.4159537;0;10;11;11021372;270 to Dunboyne;"";Go-Ahead Ireland;270;Blanchardstown SC;Dunboyne
319256926;"{\"type\":\"LineString\",\"coordinates\":[[-6.4550684,53.4152906],[-6.4552859,53.4153248],[-6.4554589,53.4153532],[-6.4558219,53.4154175],[-6.4560912,53.4154652],[-6.4564272,53.4155253],[-6.456881,53.4156046],[-6.4573577,53.4156941],[-6.457813,53.4157652]]}";3;"";1;50;false;false;true;false;false;false;192.0;0;0;0;0;0;false;3330;7430619572;-6.4524075;53.4149332;3331;7430619573;-6.4626291;53.4159537;0;10;11;11021372;270 to Dunboyne;"";Go-Ahead Ireland;270;Blanchardstown SC;Dunboyne
319266462;"{\"type\":\"LineString\",\"coordinates\":[[-6.457813,53.4157652],[-6.4583247,53.4158451],[-6.4587028,53.4159015],[-6.4590593,53.4159333],[-6.459596,53.4159583],[-6.4601836,53.4159804],[-6.4607805,53.4159967],[-6.4615281,53.4159968]]}";4;"";1;50;false;false;true;false;false;false;252.0;0;0;0;0;0;false;3330;7430619572;-6.4524075;53.4149332;3331;7430619573;-6.4626291;53.4159537;0;10;11;11021372;270 to Dunboyne;"";Go-Ahead Ireland;270;Blanchardstown SC;Dunboyne
39916910;"{\"type\":\"LineString\",\"coordinates\":[[-6.4615281,53.4159968],[-6.4620661,53.4160037]]}";5;"";2;50;false;false;true;false;false;false;37.0;0;0;0;0;0;false;3330;7430619572;-6.4524075;53.4149332;3331;7430619573;-6.4626291;53.4159537;0;10;11;11021372;270 to Dunboyne;"";Go-Ahead Ireland;270;Blanchardstown SC;Dunboyne
301629366;"{\"type\":\"LineString\",\"coordinates\":[[-6.4620661,53.4160037],[-6.4626661,53.4160142],[-6.4628018,53.4160192],[-6.4632011,53.416034],[-6.4636564,53.4160747],[-6.4640996,53.4161255],[-6.464395,53.4161563]]}";6;"";2;50;false;false;true;false;false;false;79.0;0;1;0;0;0;false;3330;7430619572;-6.4524075;53.4149332;3331;7430619573;-6.4626291;53.4159537;1;10;11;11021372;270 to Dunboyne;"";Go-Ahead Ireland;270;Blanchardstown SC;Dunboyne
301629366;"{\"type\":\"LineString\",\"coordinates\":[[-6.4620661,53.4160037],[-6.4626661,53.4160142],[-6.4628018,53.4160192],[-6.4632011,53.416034],[-6.4636564,53.4160747],[-6.4640996,53.4161255],[-6.464395,53.4161563]]}";1;"";2;50;false;false;true;false;false;false;79.0;0;1;0;0;0;false;3331;7430619573;-6.4626291;53.4159537;3351;7430619574;-6.4683355;53.4170301;1;11;12;11021372;270 to Dunboyne;"";Go-Ahead Ireland;270;Blanchardstown SC;Dunboyne
39916413;"{\"type\":\"LineString\",\"coordinates\":[[-6.464395,53.4161563],[-6.4646948,53.4161524]]}";2;Dunboyne Bridge;2;50;false;false;true;false;false;false;21.0;0;0;0;0;0;false;3331;7430619573;-6.4626291;53.4159537;3351;7430619574;-6.4683355;53.4170301;0;11;12;11021372;270 to Dunboyne;"";Go-Ahead Ireland;270;Blanchardstown SC;Dunboyne
39916414;"{\"type\":\"LineString\",\"coordinates\":[[-6.4646948,53.4161524],[-6.4649154,53.4161474],[-6.4651839,53.4161625],[-6.4654598,53.4161981],[-6.4656944,53.4162655],[-6.465954,53.4163602]]}";3;Station Road;2;50;false;false;true;false;false;false;90.0;0;0;0;0;0;false;3331;7430619573;-6.4626291;53.4159537;3351;7430619574;-6.4683355;53.4170301;0;11;12;11021372;270 to Dunboyne;"";Go-Ahead Ireland;270;Blanchardstown SC;Dunboyne
39916911;"{\"type\":\"LineString\",\"coordinates\":[[-6.465954,53.4163602],[-6.4661572,53.4164415],[-6.466398,53.416526],[-6.466501,53.4165554],[-6.4669925,53.4166955],[-6.4692562,53.4173238],[-6.4699374,53.4175225],[-6.4709288,53.417809],[-6.4710282,53.4178378],[-6.4717475,53.4180406]]}";4;Station Road;1;50;false;false;true;false;false;false;216.0;1;0;0;0;0;false;3331;7430619573;-6.4626291;53.4159537;3351;7430619574;-6.4683355;53.4170301;1;11;12;11021372;270 to Dunboyne;"";Go-Ahead Ireland;270;Blanchardstown SC;Dunboyne
39916911;"{\"type\":\"LineString\",\"coordinates\":[[-6.465954,53.4163602],[-6.4661572,53.4164415],[-6.466398,53.416526],[-6.466501,53.4165554],[-6.4669925,53.4166955],[-6.4692562,53.4173238],[-6.4699374,53.4175225],[-6.4709288,53.417809],[-6.4710282,53.4178378],[-6.4717475,53.4180406]]}";1;Station Road;1;50;false;false;true;false;false;false;216.0;1;0;0;0;0;false;3351;7430619574;-6.4683355;53.4170301;3332;5646124148;-6.4728396;53.4183641;1;12;13;11021372;270 to Dunboyne;"";Go-Ahead Ireland;270;Blanchardstown SC;Dunboyne
319267680;"{\"type\":\"LineString\",\"coordinates\":[[-6.4717475,53.4180406],[-6.4726202,53.4183551],[-6.4734102,53.4186353]]}";2;Station Road;1;50;false;false;true;false;false;false;65.0;0;0;0;0;0;false;3351;7430619574;-6.4683355;53.4170301;3332;5646124148;-6.4728396;53.4183641;1;12;13;11021372;270 to Dunboyne;"";Go-Ahead Ireland;270;Blanchardstown SC;Dunboyne
319267680;"{\"type\":\"LineString\",\"coordinates\":[[-6.4717475,53.4180406],[-6.4726202,53.4183551],[-6.4734102,53.4186353]]}";1;Station Road;1;50;false;false;true;false;false;false;65.0;0;0;0;0;0;false;3332;5646124148;-6.4728396;53.4183641;3333;1357034053;-6.4743229;53.419505;1;13;14;11021372;270 to Dunboyne;"";Go-Ahead Ireland;270;Blanchardstown SC;Dunboyne
319267679;"{\"type\":\"LineString\",\"coordinates\":[[-6.4734102,53.4186353],[-6.4737641,53.4188206],[-6.4738765,53.4188791],[-6.4739659,53.4189257]]}";2;Station Road;1;50;false;false;true;false;false;false;50.0;0;0;0;0;0;false;3332;5646124148;-6.4728396;53.4183641;3333;1357034053;-6.4743229;53.419505;0;13;14;11021372;270 to Dunboyne;"";Go-Ahead Ireland;270;Blanchardstown SC;Dunboyne
794445092;"{\"type\":\"LineString\",\"coordinates\":[[-6.4739659,53.4189257],[-6.474136,53.4189679],[-6.4744743,53.4190524],[-6.4747736,53.4191582],[-6.4751232,53.4192924],[-6.4753886,53.4193993]]}";3;Station Road;1;50;false;false;true;false;false;false;110.0;0;0;0;0;0;false;3332;5646124148;-6.4728396;53.4183641;3333;1357034053;-6.4743229;53.419505;0;13;14;11021372;270 to Dunboyne;"";Go-Ahead Ireland;270;Blanchardstown SC;Dunboyne
24294059;"{\"type\":\"LineString\",\"coordinates\":[[-6.4753886,53.4193993],[-6.4752757,53.4194674],[-6.4752082,53.419478],[-6.4751181,53.4194521],[-6.4750522,53.4194534],[-6.4742395,53.419458]]}";4;"";1;50;false;true;true;false;false;false;81.0;0;0;0;0;0;false;3332;5646124148;-6.4728396;53.4183641;3333;1357034053;-6.4743229;53.419505;1;13;14;11021372;270 to Dunboyne;"";Go-Ahead Ireland;270;Blanchardstown SC;Dunboyne
