way_id;shape;index;name;nb_lanes;legal_speed;speed_zone_30;oneway;shares_bike;bike_box;bus_lane;dedicated_bus_lane;length;nb_traffic_signals;nb_crossings;nb_stops;nb_give_ways;nb_lvl_crossings;roundabout;stop_id_orig;node_id_orig;coord_x_orig;coord_y_orig;stop_id_dest;node_id_dest;coord_x_dest;coord_y_dest;nb_neighbouring_ways_bus_stop;ordre_orig;ordre_dest;id_line;line_name;colour;operator;ref;from;to
678347082;"{\"type\":\"LineString\",\"coordinates\":[[-73.7478281,45.5683851],[-73.7477706,45.5683413]]}";1;"";1;50;false;true;true;false;false;false;7.0;0;0;0;0;0;false;"44913;44170;44050";6269509365;-73.74795;45.568315;41931;6269509373;-73.74128;45.572194;1;0;1;9312761;Bus : 50 E - Direction Saint-Vincent-De-Paul;"";STL;50E;Terminus Le Carrefour Quai:7;Montée Saint-François / Face Au Pénitencier
662152609;"{\"type\":\"LineString\",\"coordinates\":[[-73.7477706,45.5683413],[-73.7475508,45.5684635]]}";2;"";1;50;false;false;true;false;false;false;22.0;0;0;0;0;0;false;"44913;44170;44050";6269509365;-73.74795;45.568315;41931;6269509373;-73.74128;45.572194;0;0;1;9312761;Bus : 50 E - Direction Saint-Vincent-De-Paul;"";STL;50E;Terminus Le Carrefour Quai:7;Montée Saint-François / Face Au Pénitencier
662152608;"{\"type\":\"LineString\",\"coordinates\":[[-73.7475508,45.5684635],[-73.7470932,45.5687155]]}";3;"";1;50;false;false;true;false;false;false;46.0;0;0;0;0;0;false;"44913;44170;44050";6269509365;-73.74795;45.568315;41931;6269509373;-73.74128;45.572194;0;0;1;9312761;Bus : 50 E - Direction Saint-Vincent-De-Paul;"";STL;50E;Terminus Le Carrefour Quai:7;Montée Saint-François / Face Au Pénitencier
45760900;"{\"type\":\"LineString\",\"coordinates\":[[-73.7480536,45.5693169],[-73.7477738,45.569102],[-73.7477012,45.5690397],[-73.7476345,45.569001],[-73.747466,45.5689034],[-73.7473901,45.5688594],[-73.7472267,45.5687802],[-73.7470932,45.5687155]]}";4;Avenue Terry Fox;2;50;false;false;false;false;false;false;101.0;1;0;0;0;0;false;"44913;44170;44050";6269509365;-73.74795;45.568315;41931;6269509373;-73.74128;45.572194;0;0;1;9312761;Bus : 50 E - Direction Saint-Vincent-De-Paul;"";STL;50E;Terminus Le Carrefour Quai:7;Montée Saint-François / Face Au Pénitencier
652937897;"{\"type\":\"LineString\",\"coordinates\":[[-73.7480536,45.5693169],[-73.747605,45.5695129],[-73.7471654,45.5696881],[-73.7460729,45.5701116]]}";5;Boulevard Le Carrefour;2;50;false;true;false;false;false;false;178.0;1;0;0;0;0;false;"44913;44170;44050";6269509365;-73.74795;45.568315;41931;6269509373;-73.74128;45.572194;0;0;1;9312761;Bus : 50 E - Direction Saint-Vincent-De-Paul;"";STL;50E;Terminus Le Carrefour Quai:7;Montée Saint-François / Face Au Pénitencier
45755858;"{\"type\":\"LineString\",\"coordinates\":[[-73.7460729,45.5701116],[-73.7443762,45.5707482]]}";6;Boulevard Le Carrefour;2;50;false;true;false;false;false;false;151.0;0;0;0;0;0;false;"44913;44170;44050";6269509365;-73.74795;45.568315;41931;6269509373;-73.74128;45.572194;0;0;1;9312761;Bus : 50 E - Direction Saint-Vincent-De-Paul;"";STL;50E;Terminus Le Carrefour Quai:7;Montée Saint-François / Face Au Pénitencier
45755729;"{\"type\":\"LineString\",\"coordinates\":[[-73.7443762,45.5707482],[-73.7438228,45.5709423],[-73.7438005,45.5709526],[-73.7433719,45.5711499],[-73.7431441,45.5712668],[-73.7429955,45.5713431],[-73.7420247,45.571886],[-73.7418024,45.5720154],[-73.7414375,45.5722279],[-73.7413885,45.5722574]]}";7;Boulevard Le Carrefour;2;50;false;true;false;false;false;false;288.0;0;0;0;0;0;false;"44913;44170;44050";6269509365;-73.74795;45.568315;41931;6269509373;-73.74128;45.572194;0;0;1;9312761;Bus : 50 E - Direction Saint-Vincent-De-Paul;"";STL;50E;Terminus Le Carrefour Quai:7;Montée Saint-François / Face Au Pénitencier
455474957;"{\"type\":\"LineString\",\"coordinates\":[[-73.7413885,45.5722574],[-73.7412072,45.5722668],[-73.7409074,45.5722348]]}";8;"";1;50;false;true;true;false;false;false;38.0;0;0;0;0;0;false;"44913;44170;44050";6269509365;-73.74795;45.568315;41931;6269509373;-73.74128;45.572194;2;0;1;9312761;Bus : 50 E - Direction Saint-Vincent-De-Paul;"";STL;50E;Terminus Le Carrefour Quai:7;Montée Saint-François / Face Au Pénitencier
45755729;"{\"type\":\"LineString\",\"coordinates\":[[-73.7443762,45.5707482],[-73.7438228,45.5709423],[-73.7438005,45.5709526],[-73.7433719,45.5711499],[-73.7431441,45.5712668],[-73.7429955,45.5713431],[-73.7420247,45.571886],[-73.7418024,45.5720154],[-73.7414375,45.5722279],[-73.7413885,45.5722574]]}";1;Boulevard Le Carrefour;2;50;false;true;false;false;false;false;288.0;0;0;0;0;0;false;41931;6269509373;-73.74128;45.572194;41964;6269509532;-73.73876;45.570201;2;1;2;9312761;Bus : 50 E - Direction Saint-Vincent-De-Paul;"";STL;50E;Terminus Le Carrefour Quai:7;Montée Saint-François / Face Au Pénitencier
455474957;"{\"type\":\"LineString\",\"coordinates\":[[-73.7413885,45.5722574],[-73.7412072,45.5722668],[-73.7409074,45.5722348]]}";2;"";1;50;false;true;true;false;false;false;38.0;0;0;0;0;0;false;41931;6269509373;-73.74128;45.572194;41964;6269509532;-73.73876;45.570201;0;1;2;9312761;Bus : 50 E - Direction Saint-Vincent-De-Paul;"";STL;50E;Terminus Le Carrefour Quai:7;Montée Saint-François / Face Au Pénitencier
455474949;"{\"type\":\"LineString\",\"coordinates\":[[-73.7409074,45.5722348],[-73.7385431,45.5701423]]}";3;Boulevard Le Corbusier;2;60;false;true;false;false;false;false;297.0;1;0;0;0;0;false;41931;6269509373;-73.74128;45.572194;41964;6269509532;-73.73876;45.570201;2;1;2;9312761;Bus : 50 E - Direction Saint-Vincent-De-Paul;"";STL;50E;Terminus Le Carrefour Quai:7;Montée Saint-François / Face Au Pénitencier
45755901;"{\"type\":\"LineString\",\"coordinates\":[[-73.7385431,45.5701423],[-73.737953,45.5695957],[-73.7364192,45.5682736],[-73.7359495,45.5679546]]}";1;Boulevard Le Corbusier;2;60;false;true;false;false;false;false;158.5;1;0;0;0;0;false;41966;6269509986;-73.73689;45.568559;41941;6269510040;-73.73419;45.566715;1;3;4;9312761;Bus : 50 E - Direction Saint-Vincent-De-Paul;"";STL;50E;Terminus Le Carrefour Quai:7;Montée Saint-François / Face Au Pénitencier
672433262;"{\"type\":\"LineString\",\"coordinates\":[[-73.7359495,45.5679546],[-73.7354273,45.5676427],[-73.735038,45.5674116],[-73.7348281,45.5672748],[-73.7344214,45.5669228],[-73.7339125,45.5664918],[-73.7326313,45.5653828],[-73.7324832,45.5652926]]}";2;Voie réservée - boulevard Le Corbusier;1;50;false;true;true;false;true;false;201.0;0;0;0;0;0;false;41966;6269509986;-73.73689;45.568559;41941;6269510040;-73.73419;45.566715;1;3;4;9312761;Bus : 50 E - Direction Saint-Vincent-De-Paul;"";STL;50E;Terminus Le Carrefour Quai:7;Montée Saint-François / Face Au Pénitencier
672433262;"{\"type\":\"LineString\",\"coordinates\":[[-73.7359495,45.5679546],[-73.7354273,45.5676427],[-73.735038,45.5674116],[-73.7348281,45.5672748],[-73.7344214,45.5669228],[-73.7339125,45.5664918],[-73.7326313,45.5653828],[-73.7324832,45.5652926]]}";1;Voie réservée - boulevard Le Corbusier;1;50;false;true;true;false;true;false;201.0;0;0;0;0;0;false;41941;6269510040;-73.73419;45.566715;41958;6269510083;-73.73102;45.563894;1;4;5;9312761;Bus : 50 E - Direction Saint-Vincent-De-Paul;"";STL;50E;Terminus Le Carrefour Quai:7;Montée Saint-François / Face Au Pénitencier
679314213;"{\"type\":\"LineString\",\"coordinates\":[[-73.7324832,45.5652926],[-73.731199,45.5641242],[-73.7288698,45.5620685],[-73.727183,45.5605226],[-73.72707,45.5604132]]}";2;Voie réservée - boulevard Le Corbusier;1;50;false;true;true;false;true;false;344.0;0;0;0;0;0;false;41941;6269510040;-73.73419;45.566715;41958;6269510083;-73.73102;45.563894;1;4;5;9312761;Bus : 50 E - Direction Saint-Vincent-De-Paul;"";STL;50E;Terminus Le Carrefour Quai:7;Montée Saint-François / Face Au Pénitencier
679314213;"{\"type\":\"LineString\",\"coordinates\":[[-73.7324832,45.5652926],[-73.731199,45.5641242],[-73.7288698,45.5620685],[-73.727183,45.5605226],[-73.72707,45.5604132]]}";1;Voie réservée - boulevard Le Corbusier;1;50;false;true;true;false;true;false;344.0;0;0;0;0;0;false;41937;6269510251;-73.72867;45.561807;43147;6269510273;-73.72528;45.560919;1;6;7;9312761;Bus : 50 E - Direction Saint-Vincent-De-Paul;"";STL;50E;Terminus Le Carrefour Quai:7;Montée Saint-François / Face Au Pénitencier
475251790;"{\"type\":\"LineString\",\"coordinates\":[[-73.72707,45.5604132],[-73.7270131,45.5604364],[-73.7269504,45.5604619]]}";2;Boulevard du Souvenir;3;50;false;true;false;false;false;false;11.0;1;0;0;0;0;false;41937;6269510251;-73.72867;45.561807;43147;6269510273;-73.72528;45.560919;0;6;7;9312761;Bus : 50 E - Direction Saint-Vincent-De-Paul;"";STL;50E;Terminus Le Carrefour Quai:7;Montée Saint-François / Face Au Pénitencier
475251788;"{\"type\":\"LineString\",\"coordinates\":[[-73.7269504,45.5604619],[-73.7266639,45.5605658],[-73.7264044,45.5606501],[-73.7255372,45.5609316]]}";3;Boulevard du Souvenir;3;50;false;true;false;false;false;false;122.0;1;0;0;0;0;false;41937;6269510251;-73.72867;45.561807;43147;6269510273;-73.72528;45.560919;0;6;7;9312761;Bus : 50 E - Direction Saint-Vincent-De-Paul;"";STL;50E;Terminus Le Carrefour Quai:7;Montée Saint-François / Face Au Pénitencier
475237531;"{\"type\":\"LineString\",\"coordinates\":[[-73.7255372,45.5609316],[-73.7249098,45.5611404],[-73.7238338,45.5614515],[-73.722752,45.5617595]]}";4;Boulevard du Souvenir;3;50;false;true;false;false;false;false;118.0;1;0;0;0;0;false;41937;6269510251;-73.72867;45.561807;43147;6269510273;-73.72528;45.560919;1;6;7;9312761;Bus : 50 E - Direction Saint-Vincent-De-Paul;"";STL;50E;Terminus Le Carrefour Quai:7;Montée Saint-François / Face Au Pénitencier
475237531;"{\"type\":\"LineString\",\"coordinates\":[[-73.7255372,45.5609316],[-73.7249098,45.5611404],[-73.7238338,45.5614515],[-73.722752,45.5617595]]}";1;Boulevard du Souvenir;3;50;false;true;false;false;false;false;118.0;1;0;0;0;0;false;43148;6269510225;-73.72296;45.561631;"46509;43507;46443";6269510304;-73.72082;45.559592;1;8;9;9312761;Bus : 50 E - Direction Saint-Vincent-De-Paul;"";STL;50E;Terminus Le Carrefour Quai:7;Montée Saint-François / Face Au Pénitencier
29081985;"{\"type\":\"LineString\",\"coordinates\":[[-73.722752,45.5617595],[-73.7225279,45.561532],[-73.7214827,45.5604479],[-73.7211098,45.5600515],[-73.7210472,45.5599848],[-73.7205915,45.5595102]]}";2;Boulevard de l'Avenir;3;50;false;true;false;false;false;false;151.0;1;0;0;0;0;false;43148;6269510225;-73.72296;45.561631;"46509;43507;46443";6269510304;-73.72082;45.559592;1;8;9;9312761;Bus : 50 E - Direction Saint-Vincent-De-Paul;"";STL;50E;Terminus Le Carrefour Quai:7;Montée Saint-François / Face Au Pénitencier
29081985;"{\"type\":\"LineString\",\"coordinates\":[[-73.722752,45.5617595],[-73.7225279,45.561532],[-73.7214827,45.5604479],[-73.7211098,45.5600515],[-73.7210472,45.5599848],[-73.7205915,45.5595102]]}";1;Boulevard de l'Avenir;3;50;false;true;false;false;false;false;151.0;1;0;0;0;0;false;"46509;43507;46443";6269510304;-73.72082;45.559592;"48039;48050";6269510332;-73.72043;45.558562;1;9;10;9312761;Bus : 50 E - Direction Saint-Vincent-De-Paul;"";STL;50E;Terminus Le Carrefour Quai:7;Montée Saint-François / Face Au Pénitencier
695738775;"{\"type\":\"LineString\",\"coordinates\":[[-73.7205915,45.5595102],[-73.7199464,45.5588146]]}";2;Boulevard de l'Avenir;3;50;false;true;false;false;false;false;93.0;0;0;0;0;0;false;"46509;43507;46443";6269510304;-73.72082;45.559592;"48039;48050";6269510332;-73.72043;45.558562;0;9;10;9312761;Bus : 50 E - Direction Saint-Vincent-De-Paul;"";STL;50E;Terminus Le Carrefour Quai:7;Montée Saint-François / Face Au Pénitencier
475848926;"{\"type\":\"LineString\",\"coordinates\":[[-73.7199464,45.5588146],[-73.719872,45.558742],[-73.7198603,45.5587298],[-73.7197703,45.558636]]}";3;Boulevard de l'Avenir;3;50;false;true;false;false;false;false;25.0;0;1;0;0;0;false;"46509;43507;46443";6269510304;-73.72082;45.559592;"48039;48050";6269510332;-73.72043;45.558562;0;9;10;9312761;Bus : 50 E - Direction Saint-Vincent-De-Paul;"";STL;50E;Terminus Le Carrefour Quai:7;Montée Saint-François / Face Au Pénitencier
292607262;"{\"type\":\"LineString\",\"coordinates\":[[-73.7195653,45.558719],[-73.7197703,45.558636]]}";4;"";1;50;false;false;true;false;false;false;19.0;0;0;0;0;0;false;"46509;43507;46443";6269510304;-73.72082;45.559592;"48039;48050";6269510332;-73.72043;45.558562;0;9;10;9312761;Bus : 50 E - Direction Saint-Vincent-De-Paul;"";STL;50E;Terminus Le Carrefour Quai:7;Montée Saint-François / Face Au Pénitencier
673250003;"{\"type\":\"LineString\",\"coordinates\":[[-73.7200309,45.5584789],[-73.7198217,45.5586049],[-73.7197703,45.558636]]}";5;"";1;30;false;false;false;false;false;false;27.0;0;1;0;0;0;false;"46509;43507;46443";6269510304;-73.72082;45.559592;"48039;48050";6269510332;-73.72043;45.558562;0;9;10;9312761;Bus : 50 E - Direction Saint-Vincent-De-Paul;"";STL;50E;Terminus Le Carrefour Quai:7;Montée Saint-François / Face Au Pénitencier
673246437;"{\"type\":\"LineString\",\"coordinates\":[[-73.7200309,45.5584789],[-73.720124,45.5585758],[-73.7201474,45.5585648]]}";6;"";1;30;false;true;false;false;false;false;16.0;0;0;0;0;0;false;"46509;43507;46443";6269510304;-73.72082;45.559592;"48039;48050";6269510332;-73.72043;45.558562;0;9;10;9312761;Bus : 50 E - Direction Saint-Vincent-De-Paul;"";STL;50E;Terminus Le Carrefour Quai:7;Montée Saint-François / Face Au Pénitencier
624217210;"{\"type\":\"LineString\",\"coordinates\":[[-73.7201474,45.5585648],[-73.720206,45.5585372],[-73.7203325,45.5584776]]}";7;"";1;30;false;true;false;false;false;false;18.0;0;0;0;0;0;false;"46509;43507;46443";6269510304;-73.72082;45.559592;"48039;48050";6269510332;-73.72043;45.558562;0;9;10;9312761;Bus : 50 E - Direction Saint-Vincent-De-Paul;"";STL;50E;Terminus Le Carrefour Quai:7;Montée Saint-François / Face Au Pénitencier
673264013;"{\"type\":\"LineString\",\"coordinates\":[[-73.7203325,45.5584776],[-73.7205612,45.55837]]}";8;"";1;30;false;true;false;false;false;false;11.0;0;0;0;0;0;false;"46509;43507;46443";6269510304;-73.72082;45.559592;"48039;48050";6269510332;-73.72043;45.558562;1;9;10;9312761;Bus : 50 E - Direction Saint-Vincent-De-Paul;"";STL;50E;Terminus Le Carrefour Quai:7;Montée Saint-François / Face Au Pénitencier
624217210;"{\"type\":\"LineString\",\"coordinates\":[[-73.7201474,45.5585648],[-73.720206,45.5585372],[-73.7203325,45.5584776]]}";1;"";1;30;false;true;false;false;false;false;18.0;0;0;0;0;0;false;"48039;48050";6269510332;-73.72043;45.558562;41028;6269510258;-73.72204;45.561381;2;10;11;9312761;Bus : 50 E - Direction Saint-Vincent-De-Paul;"";STL;50E;Terminus Le Carrefour Quai:7;Montée Saint-François / Face Au Pénitencier
673264013;"{\"type\":\"LineString\",\"coordinates\":[[-73.7203325,45.5584776],[-73.7205612,45.55837]]}";2;"";1;30;false;true;false;false;false;false;22.0;0;0;0;0;0;false;"48039;48050";6269510332;-73.72043;45.558562;41028;6269510258;-73.72204;45.561381;0;10;11;9312761;Bus : 50 E - Direction Saint-Vincent-De-Paul;"";STL;50E;Terminus Le Carrefour Quai:7;Montée Saint-François / Face Au Pénitencier
673264014;"{\"type\":\"LineString\",\"coordinates\":[[-73.7205612,45.55837],[-73.7207712,45.5582711]]}";3;"";1;30;false;true;false;false;false;false;20.0;0;0;0;0;0;false;"48039;48050";6269510332;-73.72043;45.558562;41028;6269510258;-73.72204;45.561381;0;10;11;9312761;Bus : 50 E - Direction Saint-Vincent-De-Paul;"";STL;50E;Terminus Le Carrefour Quai:7;Montée Saint-François / Face Au Pénitencier
475848923;"{\"type\":\"LineString\",\"coordinates\":[[-73.7207712,45.5582711],[-73.7209137,45.558204]]}";4;"";1;30;false;true;true;false;false;false;14.0;0;0;0;0;0;false;"48039;48050";6269510332;-73.72043;45.558562;41028;6269510258;-73.72204;45.561381;0;10;11;9312761;Bus : 50 E - Direction Saint-Vincent-De-Paul;"";STL;50E;Terminus Le Carrefour Quai:7;Montée Saint-François / Face Au Pénitencier
673264015;"{\"type\":\"LineString\",\"coordinates\":[[-73.7209137,45.558204],[-73.7207353,45.5580182]]}";5;"";1;30;false;true;true;false;false;false;25.0;0;0;0;0;0;false;"48039;48050";6269510332;-73.72043;45.558562;41028;6269510258;-73.72204;45.561381;0;10;11;9312761;Bus : 50 E - Direction Saint-Vincent-De-Paul;"";STL;50E;Terminus Le Carrefour Quai:7;Montée Saint-François / Face Au Pénitencier
669689629;"{\"type\":\"LineString\",\"coordinates\":[[-73.7207353,45.5580182],[-73.720718,45.5580002],[-73.7204415,45.5581303]]}";6;"";1;30;false;true;true;false;false;false;29.0;0;0;0;0;0;false;"48039;48050";6269510332;-73.72043;45.558562;41028;6269510258;-73.72204;45.561381;0;10;11;9312761;Bus : 50 E - Direction Saint-Vincent-De-Paul;"";STL;50E;Terminus Le Carrefour Quai:7;Montée Saint-François / Face Au Pénitencier
669709387;"{\"type\":\"LineString\",\"coordinates\":[[-73.7204415,45.5581303],[-73.7202192,45.558235]]}";7;"";1;30;false;true;true;false;false;false;21.0;0;0;0;0;0;false;"48039;48050";6269510332;-73.72043;45.558562;41028;6269510258;-73.72204;45.561381;0;10;11;9312761;Bus : 50 E - Direction Saint-Vincent-De-Paul;"";STL;50E;Terminus Le Carrefour Quai:7;Montée Saint-François / Face Au Pénitencier
673264017;"{\"type\":\"LineString\",\"coordinates\":[[-73.7202192,45.558235],[-73.7200265,45.5583257]]}";8;"";1;30;false;true;true;false;false;false;19.0;0;0;0;0;0;false;"48039;48050";6269510332;-73.72043;45.558562;41028;6269510258;-73.72204;45.561381;0;10;11;9312761;Bus : 50 E - Direction Saint-Vincent-De-Paul;"";STL;50E;Terminus Le Carrefour Quai:7;Montée Saint-François / Face Au Pénitencier
669709385;"{\"type\":\"LineString\",\"coordinates\":[[-73.7200265,45.5583257],[-73.7199282,45.558372]]}";9;"";1;30;false;true;true;false;false;false;10.0;0;0;0;0;0;false;"48039;48050";6269510332;-73.72043;45.558562;41028;6269510258;-73.72204;45.561381;0;10;11;9312761;Bus : 50 E - Direction Saint-Vincent-De-Paul;"";STL;50E;Terminus Le Carrefour Quai:7;Montée Saint-François / Face Au Pénitencier
673250002;"{\"type\":\"LineString\",\"coordinates\":[[-73.7199282,45.558372],[-73.7200309,45.5584789]]}";10;"";1;30;false;true;false;false;false;false;15.0;0;0;0;0;0;false;"48039;48050";6269510332;-73.72043;45.558562;41028;6269510258;-73.72204;45.561381;0;10;11;9312761;Bus : 50 E - Direction Saint-Vincent-De-Paul;"";STL;50E;Terminus Le Carrefour Quai:7;Montée Saint-François / Face Au Pénitencier
673250003;"{\"type\":\"LineString\",\"coordinates\":[[-73.7200309,45.5584789],[-73.7198217,45.5586049],[-73.7197703,45.558636]]}";11;"";1;30;false;false;false;false;false;false;27.0;0;1;0;0;0;false;"48039;48050";6269510332;-73.72043;45.558562;41028;6269510258;-73.72204;45.561381;0;10;11;9312761;Bus : 50 E - Direction Saint-Vincent-De-Paul;"";STL;50E;Terminus Le Carrefour Quai:7;Montée Saint-François / Face Au Pénitencier
292607262;"{\"type\":\"LineString\",\"coordinates\":[[-73.7195653,45.558719],[-73.7197703,45.558636]]}";12;"";1;50;false;false;true;false;false;false;19.0;0;0;0;0;0;false;"48039;48050";6269510332;-73.72043;45.558562;41028;6269510258;-73.72204;45.561381;0;10;11;9312761;Bus : 50 E - Direction Saint-Vincent-De-Paul;"";STL;50E;Terminus Le Carrefour Quai:7;Montée Saint-François / Face Au Pénitencier
29081977;"{\"type\":\"LineString\",\"coordinates\":[[-73.7195653,45.558719],[-73.7196614,45.5588173],[-73.7199922,45.5591559],[-73.7204185,45.5595948]]}";13;Boulevard de l'Avenir;3;50;false;true;true;false;false;false;118.0;0;1;0;0;0;false;"48039;48050";6269510332;-73.72043;45.558562;41028;6269510258;-73.72204;45.561381;0;10;11;9312761;Bus : 50 E - Direction Saint-Vincent-De-Paul;"";STL;50E;Terminus Le Carrefour Quai:7;Montée Saint-François / Face Au Pénitencier
475848924;"{\"type\":\"LineString\",\"coordinates\":[[-73.7204185,45.5595948],[-73.7210127,45.5602042],[-73.7212014,45.5603978],[-73.7213245,45.560524],[-73.7225737,45.5618077]]}";14;Boulevard de l'Avenir;3;50;false;true;true;false;false;false;298.0;1;0;0;0;0;false;"48039;48050";6269510332;-73.72043;45.558562;41028;6269510258;-73.72204;45.561381;2;10;11;9312761;Bus : 50 E - Direction Saint-Vincent-De-Paul;"";STL;50E;Terminus Le Carrefour Quai:7;Montée Saint-François / Face Au Pénitencier
475848924;"{\"type\":\"LineString\",\"coordinates\":[[-73.7204185,45.5595948],[-73.7210127,45.5602042],[-73.7212014,45.5603978],[-73.7213245,45.560524],[-73.7225737,45.5618077]]}";1;Boulevard de l'Avenir;3;50;false;true;true;false;false;false;149.0;1;0;0;0;0;false;41028;6269510258;-73.72204;45.561381;43249;6269510238;-73.72312;45.562485;1;11;12;9312761;Bus : 50 E - Direction Saint-Vincent-De-Paul;"";STL;50E;Terminus Le Carrefour Quai:7;Montée Saint-François / Face Au Pénitencier
669709383;"{\"type\":\"LineString\",\"coordinates\":[[-73.7225737,45.5618077],[-73.7227201,45.561963]]}";2;Boulevard de l'Avenir;3;50;false;true;true;false;false;false;21.0;2;0;0;0;0;false;41028;6269510258;-73.72204;45.561381;43249;6269510238;-73.72312;45.562485;0;11;12;9312761;Bus : 50 E - Direction Saint-Vincent-De-Paul;"";STL;50E;Terminus Le Carrefour Quai:7;Montée Saint-François / Face Au Pénitencier
730302459;"{\"type\":\"LineString\",\"coordinates\":[[-73.7227201,45.561963],[-73.7232717,45.5625186],[-73.7233332,45.5625841],[-73.7235441,45.5628085],[-73.7236402,45.5629415],[-73.72369,45.5630308],[-73.723827,45.5635022],[-73.7239453,45.5637797],[-73.724068,45.563981],[-73.7241989,45.5641506]]}";3;Boulevard de l'Avenir;3;50;false;true;true;false;false;false;136.5;1;0;0;0;0;false;41028;6269510258;-73.72204;45.561381;43249;6269510238;-73.72312;45.562485;1;11;12;9312761;Bus : 50 E - Direction Saint-Vincent-De-Paul;"";STL;50E;Terminus Le Carrefour Quai:7;Montée Saint-François / Face Au Pénitencier
29155814;"{\"type\":\"LineString\",\"coordinates\":[[-73.7241989,45.5641506],[-73.7245148,45.5644525],[-73.7256654,45.565388],[-73.7258199,45.5655172],[-73.726066,45.5657049],[-73.7262413,45.5658212],[-73.7264881,45.5659452],[-73.7268743,45.5661229],[-73.72752,45.566365],[-73.7278957,45.5665882],[-73.7281382,45.5667629],[-73.7287564,45.5672794]]}";1;Boulevard de l'Avenir;3;50;false;true;false;false;false;false;251.0;1;0;0;0;0;false;45028;6269510033;-73.72813;45.566876;45030;6269509998;-73.72791;45.567614;1;15;16;9312761;Bus : 50 E - Direction Saint-Vincent-De-Paul;"";STL;50E;Terminus Le Carrefour Quai:7;Montée Saint-François / Face Au Pénitencier
452095383;"{\"type\":\"LineString\",\"coordinates\":[[-73.7287564,45.5672794],[-73.7275231,45.5679733],[-73.7274128,45.5680343],[-73.7266081,45.568473],[-73.724689,45.5695194],[-73.7228725,45.5705085]]}";2;Boulevard Saint-Martin Ouest;3;60;false;true;false;false;false;false;291.5;4;0;0;0;0;false;45028;6269510033;-73.72813;45.566876;45030;6269509998;-73.72791;45.567614;1;15;16;9312761;Bus : 50 E - Direction Saint-Vincent-De-Paul;"";STL;50E;Terminus Le Carrefour Quai:7;Montée Saint-François / Face Au Pénitencier
681114632;"{\"type\":\"LineString\",\"coordinates\":[[-73.7228725,45.5705085],[-73.7215814,45.5713]]}";1;Boulevard Saint-Martin Ouest;3;60;false;true;false;false;false;false;67.0;1;0;0;0;0;false;42842;6269509513;-73.72164;45.5711;42844;6269509358;-73.71864;45.572518;1;19;20;9312761;Bus : 50 E - Direction Saint-Vincent-De-Paul;"";STL;50E;Terminus Le Carrefour Quai:7;Montée Saint-François / Face Au Pénitencier
452095394;"{\"type\":\"LineString\",\"coordinates\":[[-73.7215814,45.5713],[-73.7211966,45.5714979]]}";2;Boulevard Saint-Martin Ouest;3;60;false;true;false;false;false;false;38.0;1;0;0;0;0;false;42842;6269509513;-73.72164;45.5711;42844;6269509358;-73.71864;45.572518;0;19;20;9312761;Bus : 50 E - Direction Saint-Vincent-De-Paul;"";STL;50E;Terminus Le Carrefour Quai:7;Montée Saint-François / Face Au Pénitencier
452095404;"{\"type\":\"LineString\",\"coordinates\":[[-73.7211966,45.5714979],[-73.7210256,45.5715839]]}";3;Boulevard Saint-Martin Ouest;3;60;false;true;false;false;false;false;17.0;2;0;0;0;0;false;42842;6269509513;-73.72164;45.5711;42844;6269509358;-73.71864;45.572518;0;19;20;9312761;Bus : 50 E - Direction Saint-Vincent-De-Paul;"";STL;50E;Terminus Le Carrefour Quai:7;Montée Saint-François / Face Au Pénitencier
452095390;"{\"type\":\"LineString\",\"coordinates\":[[-73.7210256,45.5715839],[-73.720515,45.5718318]]}";4;Boulevard Saint-Martin Ouest;3;60;false;true;false;false;false;false;49.0;1;0;0;0;0;false;42842;6269509513;-73.72164;45.5711;42844;6269509358;-73.71864;45.572518;0;19;20;9312761;Bus : 50 E - Direction Saint-Vincent-De-Paul;"";STL;50E;Terminus Le Carrefour Quai:7;Montée Saint-François / Face Au Pénitencier
37722262;"{\"type\":\"LineString\",\"coordinates\":[[-73.720515,45.5718318],[-73.7200701,45.5720217],[-73.7190082,45.572475],[-73.7188073,45.5725649],[-73.717904,45.572939],[-73.7169092,45.5735112],[-73.716005,45.5740296],[-73.7153794,45.5744063],[-73.714744,45.5748304],[-73.714152,45.5752527],[-73.7130579,45.5760867],[-73.7127425,45.5763141],[-73.7125876,45.5764258],[-73.7120893,45.5767866],[-73.711585,45.5771593],[-73.7114449,45.5772598],[-73.7104624,45.5780763],[-73.7103389,45.5781837],[-73.7087343,45.579674],[-73.7081337,45.5801718],[-73.7075918,45.5805716],[-73.7070529,45.5808714],[-73.7059229,45.5814878]]}";5;Boulevard Saint-Martin Ouest;3;60;false;true;false;false;false;false;788.0;0;0;0;0;0;false;42842;6269509513;-73.72164;45.5711;42844;6269509358;-73.71864;45.572518;1;19;20;9312761;Bus : 50 E - Direction Saint-Vincent-De-Paul;"";STL;50E;Terminus Le Carrefour Quai:7;Montée Saint-François / Face Au Pénitencier
37722262;"{\"type\":\"LineString\",\"coordinates\":[[-73.720515,45.5718318],[-73.7200701,45.5720217],[-73.7190082,45.572475],[-73.7188073,45.5725649],[-73.717904,45.572939],[-73.7169092,45.5735112],[-73.716005,45.5740296],[-73.7153794,45.5744063],[-73.714744,45.5748304],[-73.714152,45.5752527],[-73.7130579,45.5760867],[-73.7127425,45.5763141],[-73.7125876,45.5764258],[-73.7120893,45.5767866],[-73.711585,45.5771593],[-73.7114449,45.5772598],[-73.7104624,45.5780763],[-73.7103389,45.5781837],[-73.7087343,45.579674],[-73.7081337,45.5801718],[-73.7075918,45.5805716],[-73.7070529,45.5808714],[-73.7059229,45.5814878]]}";1;Boulevard Saint-Martin Ouest;3;60;false;true;false;false;false;false;788.0;0;0;0;0;0;false;42854;6269508888;-73.70641;45.581125;42856;6269508854;-73.70405;45.582344;1;24;25;9312761;Bus : 50 E - Direction Saint-Vincent-De-Paul;"";STL;50E;Terminus Le Carrefour Quai:7;Montée Saint-François / Face Au Pénitencier
452204242;"{\"type\":\"LineString\",\"coordinates\":[[-73.7059229,45.5814878],[-73.7054813,45.5817192]]}";2;Boulevard Saint-Martin Ouest;3;60;false;true;false;false;false;false;43.0;0;0;0;0;0;false;42854;6269508888;-73.70641;45.581125;42856;6269508854;-73.70405;45.582344;0;24;25;9312761;Bus : 50 E - Direction Saint-Vincent-De-Paul;"";STL;50E;Terminus Le Carrefour Quai:7;Montée Saint-François / Face Au Pénitencier
100170189;"{\"type\":\"LineString\",\"coordinates\":[[-73.7054813,45.5817192],[-73.7053967,45.5817671],[-73.7052532,45.5818483]]}";3;Boulevard Saint-Martin Est;3;60;false;true;true;false;false;false;23.0;0;0;0;0;0;false;42854;6269508888;-73.70641;45.581125;42856;6269508854;-73.70405;45.582344;0;24;25;9312761;Bus : 50 E - Direction Saint-Vincent-De-Paul;"";STL;50E;Terminus Le Carrefour Quai:7;Montée Saint-François / Face Au Pénitencier
436680804;"{\"type\":\"LineString\",\"coordinates\":[[-73.7052532,45.5818483],[-73.7051217,45.5819119],[-73.7048332,45.5820515],[-73.7045325,45.5822143]]}";4;Boulevard Saint-Martin Est;3;60;false;true;false;false;false;false;70.0;0;0;0;0;0;false;42854;6269508888;-73.70641;45.581125;42856;6269508854;-73.70405;45.582344;0;24;25;9312761;Bus : 50 E - Direction Saint-Vincent-De-Paul;"";STL;50E;Terminus Le Carrefour Quai:7;Montée Saint-François / Face Au Pénitencier
23292255;"{\"type\":\"LineString\",\"coordinates\":[[-73.7045325,45.5822143],[-73.7040381,45.5824821],[-73.7035293,45.5828005],[-73.7032884,45.5829512],[-73.7032009,45.5830199],[-73.7027294,45.5833906],[-73.7023426,45.5837827],[-73.7022172,45.5839346],[-73.7018221,45.584413],[-73.7017551,45.5844941],[-73.7010247,45.5854034],[-73.7009884,45.5854486],[-73.7001664,45.5864719],[-73.7000608,45.5866034],[-73.6995819,45.5871658],[-73.6988562,45.5880179],[-73.6988042,45.588079],[-73.6982384,45.5886665],[-73.6977564,45.589167],[-73.6970701,45.5897872],[-73.6969781,45.5898612],[-73.6964472,45.5902707],[-73.6960498,45.5905558],[-73.6956651,45.5908408],[-73.6950791,45.5912747]]}";5;Boulevard Saint-Martin Est;3;60;false;true;false;false;false;false;628.5;1;0;0;0;0;false;42854;6269508888;-73.70641;45.581125;42856;6269508854;-73.70405;45.582344;1;24;25;9312761;Bus : 50 E - Direction Saint-Vincent-De-Paul;"";STL;50E;Terminus Le Carrefour Quai:7;Montée Saint-François / Face Au Pénitencier
23292255;"{\"type\":\"LineString\",\"coordinates\":[[-73.7045325,45.5822143],[-73.7040381,45.5824821],[-73.7035293,45.5828005],[-73.7032884,45.5829512],[-73.7032009,45.5830199],[-73.7027294,45.5833906],[-73.7023426,45.5837827],[-73.7022172,45.5839346],[-73.7018221,45.584413],[-73.7017551,45.5844941],[-73.7010247,45.5854034],[-73.7009884,45.5854486],[-73.7001664,45.5864719],[-73.7000608,45.5866034],[-73.6995819,45.5871658],[-73.6988562,45.5880179],[-73.6988042,45.588079],[-73.6982384,45.5886665],[-73.6977564,45.589167],[-73.6970701,45.5897872],[-73.6969781,45.5898612],[-73.6964472,45.5902707],[-73.6960498,45.5905558],[-73.6956651,45.5908408],[-73.6950791,45.5912747]]}";1;Boulevard Saint-Martin Est;3;60;false;true;false;false;false;false;628.5;1;0;0;0;0;false;42865;6269508656;-73.69517;45.591061;45031;6269508601;-73.69179;45.593461;1;29;30;9312761;Bus : 50 E - Direction Saint-Vincent-De-Paul;"";STL;50E;Terminus Le Carrefour Quai:7;Montée Saint-François / Face Au Pénitencier
22894357;"{\"type\":\"LineString\",\"coordinates\":[[-73.6950791,45.5912747],[-73.6933662,45.5924652]]}";2;Boulevard Saint-Martin Est;3;60;false;true;false;false;false;false;188.0;1;0;0;0;0;false;42865;6269508656;-73.69517;45.591061;45031;6269508601;-73.69179;45.593461;0;29;30;9312761;Bus : 50 E - Direction Saint-Vincent-De-Paul;"";STL;50E;Terminus Le Carrefour Quai:7;Montée Saint-François / Face Au Pénitencier
574713417;"{\"type\":\"LineString\",\"coordinates\":[[-73.6933662,45.5924652],[-73.6933421,45.5924819],[-73.6929807,45.5927323]]}";3;Boulevard Saint-Martin Est;3;60;false;true;false;false;false;false;43.0;0;0;0;0;0;false;42865;6269508656;-73.69517;45.591061;45031;6269508601;-73.69179;45.593461;0;29;30;9312761;Bus : 50 E - Direction Saint-Vincent-De-Paul;"";STL;50E;Terminus Le Carrefour Quai:7;Montée Saint-François / Face Au Pénitencier
574713693;"{\"type\":\"LineString\",\"coordinates\":[[-73.6929807,45.5927323],[-73.6915981,45.5937223]]}";4;Boulevard Saint-Martin Est;3;60;false;true;false;false;false;false;77.0;1;0;0;0;0;false;42865;6269508656;-73.69517;45.591061;45031;6269508601;-73.69179;45.593461;1;29;30;9312761;Bus : 50 E - Direction Saint-Vincent-De-Paul;"";STL;50E;Terminus Le Carrefour Quai:7;Montée Saint-François / Face Au Pénitencier
574713693;"{\"type\":\"LineString\",\"coordinates\":[[-73.6929807,45.5927323],[-73.6915981,45.5937223]]}";1;Boulevard Saint-Martin Est;3;60;false;true;false;false;false;false;77.0;1;0;0;0;0;false;45031;6269508601;-73.69179;45.593461;42867;6269508362;-73.68697;45.596843;1;30;31;9312761;Bus : 50 E - Direction Saint-Vincent-De-Paul;"";STL;50E;Terminus Le Carrefour Quai:7;Montée Saint-François / Face Au Pénitencier
574713416;"{\"type\":\"LineString\",\"coordinates\":[[-73.6915981,45.5937223],[-73.6889265,45.5956283]]}";2;Boulevard Saint-Martin Est;3;60;false;true;false;false;false;false;297.0;1;0;0;0;0;false;45031;6269508601;-73.69179;45.593461;42867;6269508362;-73.68697;45.596843;0;30;31;9312761;Bus : 50 E - Direction Saint-Vincent-De-Paul;"";STL;50E;Terminus Le Carrefour Quai:7;Montée Saint-François / Face Au Pénitencier
100170205;"{\"type\":\"LineString\",\"coordinates\":[[-73.6889265,45.5956283],[-73.6885522,45.5958924],[-73.6875894,45.5965686],[-73.6870106,45.5969738]]}";3;Boulevard Saint-Martin Est;3;60;false;true;false;false;false;false;106.0;0;0;0;0;0;false;45031;6269508601;-73.69179;45.593461;42867;6269508362;-73.68697;45.596843;1;30;31;9312761;Bus : 50 E - Direction Saint-Vincent-De-Paul;"";STL;50E;Terminus Le Carrefour Quai:7;Montée Saint-François / Face Au Pénitencier
100170176;"{\"type\":\"LineString\",\"coordinates\":[[-73.6870106,45.5969738],[-73.6869272,45.5970314],[-73.6869017,45.59705],[-73.6848295,45.5984765],[-73.6839851,45.5989801],[-73.6831325,45.5994298],[-73.6813707,45.6004069],[-73.6805422,45.6008797],[-73.6801847,45.6011396],[-73.6798608,45.6014438],[-73.6795218,45.6018556],[-73.6781038,45.6037208],[-73.6773203,45.6047652],[-73.6771123,45.6050304],[-73.6766535,45.6056539],[-73.6756885,45.6069276],[-73.6754345,45.6072032],[-73.6751455,45.6074954],[-73.6747859,45.607798],[-73.6743181,45.6080961],[-73.6737458,45.6084256],[-73.6733033,45.6086453],[-73.6710604,45.6095105],[-73.6677739,45.6107861]]}";1;Boulevard Saint-Martin Est;3;60;false;true;false;false;false;false;1100.0;1;0;0;0;0;false;46119;6269507827;-73.67187;45.609095;46120;6269507783;-73.66709;45.61094;1;36;37;9312761;Bus : 50 E - Direction Saint-Vincent-De-Paul;"";STL;50E;Terminus Le Carrefour Quai:7;Montée Saint-François / Face Au Pénitencier
711810655;"{\"type\":\"LineString\",\"coordinates\":[[-73.6677739,45.6107861],[-73.6676227,45.610847],[-73.6674783,45.6109104],[-73.6663264,45.6114162],[-73.6652347,45.6118931]]}";2;Boulevard Saint-Martin Est;3;60;false;true;false;false;false;false;116.5;0;0;0;0;0;false;46119;6269507827;-73.67187;45.609095;46120;6269507783;-73.66709;45.61094;1;36;37;9312761;Bus : 50 E - Direction Saint-Vincent-De-Paul;"";STL;50E;Terminus Le Carrefour Quai:7;Montée Saint-François / Face Au Pénitencier
711810655;"{\"type\":\"LineString\",\"coordinates\":[[-73.6677739,45.6107861],[-73.6676227,45.610847],[-73.6674783,45.6109104],[-73.6663264,45.6114162],[-73.6652347,45.6118931]]}";1;Boulevard Saint-Martin Est;3;60;false;true;false;false;false;false;116.5;0;0;0;0;0;false;46120;6269507783;-73.66709;45.61094;42876;6269507766;-73.66434;45.612175;1;37;38;9312761;Bus : 50 E - Direction Saint-Vincent-De-Paul;"";STL;50E;Terminus Le Carrefour Quai:7;Montée Saint-François / Face Au Pénitencier
45801420;"{\"type\":\"LineString\",\"coordinates\":[[-73.6652347,45.6118931],[-73.6642116,45.6123131],[-73.6640815,45.6123685]]}";2;Boulevard Saint-Martin;2;60;false;true;false;false;false;false;52.5;0;0;0;0;0;false;46120;6269507783;-73.66709;45.61094;42876;6269507766;-73.66434;45.612175;1;37;38;9312761;Bus : 50 E - Direction Saint-Vincent-De-Paul;"";STL;50E;Terminus Le Carrefour Quai:7;Montée Saint-François / Face Au Pénitencier
45801420;"{\"type\":\"LineString\",\"coordinates\":[[-73.6652347,45.6118931],[-73.6642116,45.6123131],[-73.6640815,45.6123685]]}";1;Boulevard Saint-Martin;2;60;false;true;false;false;false;false;52.5;0;0;0;0;0;false;42876;6269507766;-73.66434;45.612175;42879;6269507753;-73.66239;45.612978;1;38;39;9312761;Bus : 50 E - Direction Saint-Vincent-De-Paul;"";STL;50E;Terminus Le Carrefour Quai:7;Montée Saint-François / Face Au Pénitencier
29156395;"{\"type\":\"LineString\",\"coordinates\":[[-73.6640815,45.6123685],[-73.6639438,45.6124218],[-73.6621921,45.6130996]]}";2;Boulevard Saint-Martin Est;2;60;false;true;false;false;false;false;84.5;0;0;0;0;0;false;42876;6269507766;-73.66434;45.612175;42879;6269507753;-73.66239;45.612978;1;38;39;9312761;Bus : 50 E - Direction Saint-Vincent-De-Paul;"";STL;50E;Terminus Le Carrefour Quai:7;Montée Saint-François / Face Au Pénitencier
29156395;"{\"type\":\"LineString\",\"coordinates\":[[-73.6640815,45.6123685],[-73.6639438,45.6124218],[-73.6621921,45.6130996]]}";1;Boulevard Saint-Martin Est;2;60;false;true;false;false;false;false;84.5;0;0;0;0;0;false;42879;6269507753;-73.66239;45.612978;43240;6269507492;-73.66088;45.613535;1;39;40;9312761;Bus : 50 E - Direction Saint-Vincent-De-Paul;"";STL;50E;Terminus Le Carrefour Quai:7;Montée Saint-François / Face Au Pénitencier
647401834;"{\"type\":\"LineString\",\"coordinates\":[[-73.6621921,45.6130996],[-73.6620582,45.6131552]]}";2;Boulevard Saint-Martin Est;2;60;false;true;false;false;false;false;13.0;0;0;0;0;0;false;42879;6269507753;-73.66239;45.612978;43240;6269507492;-73.66088;45.613535;0;39;40;9312761;Bus : 50 E - Direction Saint-Vincent-De-Paul;"";STL;50E;Terminus Le Carrefour Quai:7;Montée Saint-François / Face Au Pénitencier
45801434;"{\"type\":\"LineString\",\"coordinates\":[[-73.6620582,45.6131552],[-73.6619308,45.6132066],[-73.6607534,45.6136459],[-73.6603801,45.6137894],[-73.6601334,45.613841],[-73.6598277,45.613828],[-73.6596112,45.6137624],[-73.6594845,45.6136979]]}";3;Boulevard Vanier;2;50;false;true;false;false;false;false;112.0;0;0;0;0;0;false;42879;6269507753;-73.66239;45.612978;43240;6269507492;-73.66088;45.613535;1;39;40;9312761;Bus : 50 E - Direction Saint-Vincent-De-Paul;"";STL;50E;Terminus Le Carrefour Quai:7;Montée Saint-François / Face Au Pénitencier
45801434;"{\"type\":\"LineString\",\"coordinates\":[[-73.6620582,45.6131552],[-73.6619308,45.6132066],[-73.6607534,45.6136459],[-73.6603801,45.6137894],[-73.6601334,45.613841],[-73.6598277,45.613828],[-73.6596112,45.6137624],[-73.6594845,45.6136979]]}";1;Boulevard Vanier;2;50;false;true;false;false;false;false;112.0;0;0;0;0;0;false;43240;6269507492;-73.66088;45.613535;41280;6269507728;-73.6591;45.613982;1;40;41;9312761;Bus : 50 E - Direction Saint-Vincent-De-Paul;"";STL;50E;Terminus Le Carrefour Quai:7;Montée Saint-François / Face Au Pénitencier
678350779;"{\"type\":\"LineString\",\"coordinates\":[[-73.6594845,45.6136979],[-73.6593899,45.6137913]]}";2;Place Chénier;2;50;false;false;true;false;false;false;13.0;0;0;0;0;0;false;43240;6269507492;-73.66088;45.613535;41280;6269507728;-73.6591;45.613982;0;40;41;9312761;Bus : 50 E - Direction Saint-Vincent-De-Paul;"";STL;50E;Terminus Le Carrefour Quai:7;Montée Saint-François / Face Au Pénitencier
45797910;"{\"type\":\"LineString\",\"coordinates\":[[-73.6593899,45.6137913],[-73.6591691,45.6140183],[-73.659065,45.61408],[-73.6586523,45.6142421],[-73.6585912,45.6142672],[-73.657744,45.6146136],[-73.6569672,45.6149195],[-73.6568377,45.614972],[-73.656229,45.6152168],[-73.6560869,45.6152602],[-73.6559591,45.6152407]]}";3;Place Chénier;2;50;false;false;true;false;false;false;159.0;0;0;0;0;0;false;43240;6269507492;-73.66088;45.613535;41280;6269507728;-73.6591;45.613982;1;40;41;9312761;Bus : 50 E - Direction Saint-Vincent-De-Paul;"";STL;50E;Terminus Le Carrefour Quai:7;Montée Saint-François / Face Au Pénitencier
45797910;"{\"type\":\"LineString\",\"coordinates\":[[-73.6593899,45.6137913],[-73.6591691,45.6140183],[-73.659065,45.61408],[-73.6586523,45.6142421],[-73.6585912,45.6142672],[-73.657744,45.6146136],[-73.6569672,45.6149195],[-73.6568377,45.614972],[-73.656229,45.6152168],[-73.6560869,45.6152602],[-73.6559591,45.6152407]]}";1;Place Chénier;2;50;false;false;true;false;false;false;159.0;0;0;0;0;0;false;41282;6269507717;-73.65703;45.614822;41104;6269507744;-73.65401;45.613332;1;42;43;9312761;Bus : 50 E - Direction Saint-Vincent-De-Paul;"";STL;50E;Terminus Le Carrefour Quai:7;Montée Saint-François / Face Au Pénitencier
678347085;"{\"type\":\"LineString\",\"coordinates\":[[-73.6522117,45.6118148],[-73.6527586,45.6123136],[-73.6532859,45.6127879],[-73.653851,45.6132896],[-73.6559591,45.6152407]]}";2;Avenue Belleville;2;50;false;false;true;false;false;false;240.0;0;0;0;0;0;false;41282;6269507717;-73.65703;45.614822;41104;6269507744;-73.65401;45.613332;1;42;43;9312761;Bus : 50 E - Direction Saint-Vincent-De-Paul;"";STL;50E;Terminus Le Carrefour Quai:7;Montée Saint-François / Face Au Pénitencier
678347085;"{\"type\":\"LineString\",\"coordinates\":[[-73.6522117,45.6118148],[-73.6527586,45.6123136],[-73.6532859,45.6127879],[-73.653851,45.6132896],[-73.6559591,45.6152407]]}";1;Avenue Belleville;2;50;false;false;true;false;false;false;240.0;0;0;0;0;0;false;41104;6269507744;-73.65401;45.613332;41614;6269507761;-73.6512;45.612301;1;43;44;9312761;Bus : 50 E - Direction Saint-Vincent-De-Paul;"";STL;50E;Terminus Le Carrefour Quai:7;Montée Saint-François / Face Au Pénitencier
678347084;"{\"type\":\"LineString\",\"coordinates\":[[-73.6522117,45.6118148],[-73.6514889,45.6122081],[-73.6507193,45.612627],[-73.6500881,45.6129705],[-73.6491648,45.613473],[-73.6469951,45.6146538],[-73.6463894,45.6149834],[-73.6459034,45.6152479]]}";2;Rue de la Fabrique;2;50;false;false;true;false;false;false;311.5;0;0;0;0;0;false;41104;6269507744;-73.65401;45.613332;41614;6269507761;-73.6512;45.612301;1;43;44;9312761;Bus : 50 E - Direction Saint-Vincent-De-Paul;"";STL;50E;Terminus Le Carrefour Quai:7;Montée Saint-François / Face Au Pénitencier
365007260;"{\"type\":\"LineString\",\"coordinates\":[[-73.6459034,45.6152479],[-73.6457348,45.6152765],[-73.6455556,45.6153068],[-73.6453509,45.6152864],[-73.6450235,45.6152149],[-73.6448884,45.6151681]]}";1;Place J.-Eudes-Blanchard;2;50;false;false;true;false;false;false;83.0;1;1;0;0;0;false;41610;6269507706;-73.64594;45.61516;42798;6269507688;-73.64448;45.616629;2;47;48;9312761;Bus : 50 E - Direction Saint-Vincent-De-Paul;"";STL;50E;Terminus Le Carrefour Quai:7;Montée Saint-François / Face Au Pénitencier
365007259;"{\"type\":\"LineString\",\"coordinates\":[[-73.6444507,45.6157568],[-73.64482,45.6152536],[-73.6448884,45.6151681]]}";2;Boulevard Lévesque Est;3;50;false;false;false;false;false;false;74.0;1;1;0;0;0;false;41610;6269507706;-73.64594;45.61516;42798;6269507688;-73.64448;45.616629;0;47;48;9312761;Bus : 50 E - Direction Saint-Vincent-De-Paul;"";STL;50E;Terminus Le Carrefour Quai:7;Montée Saint-François / Face Au Pénitencier
365007194;"{\"type\":\"LineString\",\"coordinates\":[[-73.6441136,45.6162229],[-73.6441432,45.616182],[-73.6444507,45.6157568]]}";3;Boulevard Lévesque Est;2;50;false;false;false;false;false;false;59.0;0;0;0;0;0;false;41610;6269507706;-73.64594;45.61516;42798;6269507688;-73.64448;45.616629;0;47;48;9312761;Bus : 50 E - Direction Saint-Vincent-De-Paul;"";STL;50E;Terminus Le Carrefour Quai:7;Montée Saint-François / Face Au Pénitencier
32644971;"{\"type\":\"LineString\",\"coordinates\":[[-73.6441136,45.6162229],[-73.6442387,45.6163356],[-73.6458794,45.6178144],[-73.6463702,45.6182568],[-73.6469178,45.6187503],[-73.6478665,45.6196053],[-73.6485997,45.6202661],[-73.6489564,45.6205876],[-73.6505457,45.6220199]]}";4;Montée Saint-François;2;70;false;false;true;false;false;false;816.0;0;0;1;0;0;false;41610;6269507706;-73.64594;45.61516;42798;6269507688;-73.64448;45.616629;2;47;48;9312761;Bus : 50 E - Direction Saint-Vincent-De-Paul;"";STL;50E;Terminus Le Carrefour Quai:7;Montée Saint-François / Face Au Pénitencier
32644971;"{\"type\":\"LineString\",\"coordinates\":[[-73.6441136,45.6162229],[-73.6442387,45.6163356],[-73.6458794,45.6178144],[-73.6463702,45.6182568],[-73.6469178,45.6187503],[-73.6478665,45.6196053],[-73.6485997,45.6202661],[-73.6489564,45.6205876],[-73.6505457,45.6220199]]}";1;Montée Saint-François;2;70;false;false;true;false;false;false;408.0;0;0;1;0;0;false;42798;6269507688;-73.64448;45.616629;"49050;42796;49058";6269507666;-73.6463;45.618363;1;48;49;9312761;Bus : 50 E - Direction Saint-Vincent-De-Paul;"";STL;50E;Terminus Le Carrefour Quai:7;Montée Saint-François / Face Au Pénitencier
694211673;"{\"type\":\"LineString\",\"coordinates\":[[-73.6458794,45.6178144],[-73.6456085,45.6179607],[-73.6460978,45.6184039],[-73.6462538,45.6183196]]}";2;"";1;50;false;false;true;false;false;false;105.0;0;0;0;0;0;false;42798;6269507688;-73.64448;45.616629;"49050;42796;49058";6269507666;-73.6463;45.618363;1;48;49;9312761;Bus : 50 E - Direction Saint-Vincent-De-Paul;"";STL;50E;Terminus Le Carrefour Quai:7;Montée Saint-François / Face Au Pénitencier
