way_id;shape;index;name;nb_lanes;legal_speed;speed_zone_30;oneway;shares_bike;bike_box;bus_lane;dedicated_bus_lane;length;nb_traffic_signals;nb_crossings;nb_stops;nb_give_ways;nb_lvl_crossings;roundabout;stop_id_orig;node_id_orig;coord_x_orig;coord_y_orig;stop_id_dest;node_id_dest;coord_x_dest;coord_y_dest;nb_neighbouring_ways_bus_stop;ordre_orig;ordre_dest;id_line;line_name;colour;operator;ref;from;to
559673367;"{\"type\":\"LineString\",\"coordinates\":[[2.880319,36.6779905],[2.8806005,36.6777996],[2.8810574,36.6775249],[2.8820025,36.6769644],[2.8829988,36.6763341],[2.8837381,36.6758782],[2.8843981,36.6754703],[2.8847036,36.6752649],[2.8850129,36.6750899],[2.8852799,36.6749634],[2.8855203,36.6748849],[2.8857915,36.6748261],[2.8860623,36.6747951],[2.8864406,36.6747891],[2.8869985,36.6747818],[2.887148,36.6747589],[2.887302,36.6747074],[2.8875084,36.6746257],[2.8879858,36.6743539],[2.8884407,36.674113],[2.8885774,36.6740451],[2.888691,36.6740105],[2.8889596,36.6739745],[2.8895735,36.6739246],[2.8897914,36.6738738],[2.889888,36.673819],[2.8899611,36.673767],[2.8900887,36.6736655],[2.890329,36.6734245],[2.8905093,36.6733144],[2.8906895,36.6732869],[2.8911795,36.6733417],[2.8911812,36.6733419],[2.8914717,36.6733548]]}";1;"";2;50;false;false;true;false;false;false;1180.0;0;0;0;0;0;false;MOSQUEE OKBA IBN NAFAA;5397813388;2.8806578;36.677849;MAHELMA;5397813386;2.8779392;36.6820426;1;2;3;8408345;Bus: Sidi Abd Allah -> Station 2 Mai;blue;ETUSA;732;Sidi Abd Allah;Station 2 Mai
431763745;"{\"type\":\"LineString\",\"coordinates\":[[2.8778116,36.6795643],[2.8781619,36.6794342],[2.8783443,36.6793264],[2.8788349,36.6789756],[2.8795438,36.678481],[2.8800343,36.6781766],[2.880319,36.6779905]]}";2;"";2;60;false;false;true;false;false;false;290.0;0;0;0;0;0;false;MOSQUEE OKBA IBN NAFAA;5397813388;2.8806578;36.677849;MAHELMA;5397813386;2.8779392;36.6820426;0;2;3;8408345;Bus: Sidi Abd Allah -> Station 2 Mai;blue;ETUSA;732;Sidi Abd Allah;Station 2 Mai
431763767;"{\"type\":\"LineString\",\"coordinates\":[[2.8785214,36.6841095],[2.8785177,36.6840034],[2.8785273,36.6839403],[2.878639,36.6837233],[2.8786811,36.6836502],[2.8786994,36.6835376],[2.8786899,36.6834397],[2.8786625,36.6833396],[2.8786249,36.6832822],[2.8781742,36.6826523],[2.8780433,36.6824841],[2.8778734,36.6822389],[2.8777882,36.6821064],[2.8777264,36.6820175],[2.8771878,36.6812642],[2.8769516,36.6809192],[2.8768907,36.6807695],[2.8768819,36.680629],[2.8769282,36.6804125],[2.8769672,36.6801914],[2.8770296,36.6799713],[2.8771454,36.6798265],[2.877296,36.679723],[2.8778116,36.6795643]]}";3;Rue Regieg Hamoud;2;60;false;false;true;false;false;false;300.0;0;0;0;0;0;false;MOSQUEE OKBA IBN NAFAA;5397813388;2.8806578;36.677849;MAHELMA;5397813386;2.8779392;36.6820426;1;2;3;8408345;Bus: Sidi Abd Allah -> Station 2 Mai;blue;ETUSA;732;Sidi Abd Allah;Station 2 Mai
431763767;"{\"type\":\"LineString\",\"coordinates\":[[2.8785214,36.6841095],[2.8785177,36.6840034],[2.8785273,36.6839403],[2.878639,36.6837233],[2.8786811,36.6836502],[2.8786994,36.6835376],[2.8786899,36.6834397],[2.8786625,36.6833396],[2.8786249,36.6832822],[2.8781742,36.6826523],[2.8780433,36.6824841],[2.8778734,36.6822389],[2.8777882,36.6821064],[2.8777264,36.6820175],[2.8771878,36.6812642],[2.8769516,36.6809192],[2.8768907,36.6807695],[2.8768819,36.680629],[2.8769282,36.6804125],[2.8769672,36.6801914],[2.8770296,36.6799713],[2.8771454,36.6798265],[2.877296,36.679723],[2.8778116,36.6795643]]}";1;Rue Regieg Hamoud;2;60;false;false;true;false;false;false;300.0;0;0;0;0;0;false;PLACE 11 DECEMBRE 1960;5397813381;2.8787076;36.6837828;CITE UNIVERSITAIRE;5397813382;2.8707898;36.6903946;1;4;5;8408345;Bus: Sidi Abd Allah -> Station 2 Mai;blue;ETUSA;732;Sidi Abd Allah;Station 2 Mai
552624683;"{\"type\":\"LineString\",\"coordinates\":[[2.8746054,36.6870638],[2.8746543,36.6870058],[2.8748413,36.6867866],[2.8748709,36.686751],[2.8750597,36.6866133],[2.8751284,36.6865789],[2.8752829,36.6865445],[2.8754735,36.6865827],[2.8754889,36.6865858],[2.8757035,36.6867234],[2.8759352,36.6868886],[2.8760897,36.6869437],[2.8762356,36.6869574],[2.8764502,36.6869024],[2.8765961,36.686806],[2.8769137,36.6864068],[2.8772827,36.6859801],[2.8773857,36.6858906],[2.8775574,36.6857736],[2.8777376,36.6856635],[2.8778578,36.6855189],[2.8779007,36.6854088],[2.8779093,36.6851748],[2.8779351,36.6850371],[2.8779866,36.684927],[2.8781155,36.6848106],[2.8783136,36.6846885],[2.8784387,36.6846002],[2.878517,36.684483],[2.8785445,36.6843419],[2.8785187,36.6841767],[2.8785214,36.6841095]]}";2;"";2;60;false;false;true;false;false;false;593.0;0;0;0;0;0;false;PLACE 11 DECEMBRE 1960;5397813381;2.8787076;36.6837828;CITE UNIVERSITAIRE;5397813382;2.8707898;36.6903946;0;4;5;8408345;Bus: Sidi Abd Allah -> Station 2 Mai;blue;ETUSA;732;Sidi Abd Allah;Station 2 Mai
552624682;"{\"type\":\"LineString\",\"coordinates\":[[2.8683281,36.6926952],[2.8684335,36.6925778],[2.8685875,36.6923542],[2.8689434,36.6920177],[2.8692485,36.6917583],[2.8695359,36.6915075],[2.8697121,36.6913458],[2.8698267,36.6912326],[2.8699375,36.6911164],[2.87014,36.6908661],[2.8704214,36.6904708],[2.8706517,36.6901645],[2.8708176,36.689946],[2.8710406,36.6896363],[2.8712711,36.6893205],[2.8715852,36.6889172],[2.8717525,36.6887454],[2.8719619,36.6885802],[2.8721058,36.6884811],[2.8722573,36.6883836],[2.8732114,36.6878651],[2.8736397,36.6876327],[2.8742151,36.6873344],[2.8743406,36.6872551],[2.874479,36.6871593],[2.8746054,36.6870638]]}";3;"";2;60;false;false;true;false;false;false;432.5;0;0;0;0;0;false;PLACE 11 DECEMBRE 1960;5397813381;2.8787076;36.6837828;CITE UNIVERSITAIRE;5397813382;2.8707898;36.6903946;1;4;5;8408345;Bus: Sidi Abd Allah -> Station 2 Mai;blue;ETUSA;732;Sidi Abd Allah;Station 2 Mai
552624682;"{\"type\":\"LineString\",\"coordinates\":[[2.8683281,36.6926952],[2.8684335,36.6925778],[2.8685875,36.6923542],[2.8689434,36.6920177],[2.8692485,36.6917583],[2.8695359,36.6915075],[2.8697121,36.6913458],[2.8698267,36.6912326],[2.8699375,36.6911164],[2.87014,36.6908661],[2.8704214,36.6904708],[2.8706517,36.6901645],[2.8708176,36.689946],[2.8710406,36.6896363],[2.8712711,36.6893205],[2.8715852,36.6889172],[2.8717525,36.6887454],[2.8719619,36.6885802],[2.8721058,36.6884811],[2.8722573,36.6883836],[2.8732114,36.6878651],[2.8736397,36.6876327],[2.8742151,36.6873344],[2.8743406,36.6872551],[2.874479,36.6871593],[2.8746054,36.6870638]]}";1;"";2;60;false;false;true;false;false;false;432.5;0;0;0;0;0;false;CITE UNIVERSITAIRE;5397813382;2.8707898;36.6903946;Nouvelle cité 11 décembre 1960;5397813380;2.8672734;36.6973478;1;5;6;8408345;Bus: Sidi Abd Allah -> Station 2 Mai;blue;ETUSA;732;Sidi Abd Allah;Station 2 Mai
552624681;"{\"type\":\"LineString\",\"coordinates\":[[2.8679852,36.6940742],[2.8679377,36.6936043],[2.8679627,36.6933971],[2.8679863,36.6933055],[2.8680252,36.6931835],[2.8681738,36.6929149],[2.8683281,36.6926952]]}";2;"";2;60;false;false;true;false;false;false;163.0;0;0;0;0;0;false;CITE UNIVERSITAIRE;5397813382;2.8707898;36.6903946;Nouvelle cité 11 décembre 1960;5397813380;2.8672734;36.6973478;0;5;6;8408345;Bus: Sidi Abd Allah -> Station 2 Mai;blue;ETUSA;732;Sidi Abd Allah;Station 2 Mai
779389417;"{\"type\":\"LineString\",\"coordinates\":[[2.8581609,36.700446],[2.8586152,36.6999823],[2.8588499,36.6997479],[2.8590631,36.6995371],[2.8596102,36.6990359],[2.8602625,36.6985267],[2.8612067,36.6979899],[2.8619791,36.6975907],[2.8624083,36.6974256],[2.8631293,36.6972673],[2.8633109,36.6972673],[2.8639532,36.6972673],[2.8666483,36.6973568],[2.8670431,36.6973361],[2.867335,36.6972466],[2.8674057,36.6971984],[2.8675066,36.6971296],[2.8676783,36.696992],[2.8680216,36.6966135],[2.8681286,36.6964717],[2.868219,36.696352],[2.8682619,36.6961318],[2.868188,36.6956983],[2.8681462,36.6953279],[2.8680273,36.6944596],[2.8679905,36.6941795],[2.8679852,36.6940742]]}";3;"";2;60;false;false;true;false;false;false;678.5;0;0;0;0;0;false;CITE UNIVERSITAIRE;5397813382;2.8707898;36.6903946;Nouvelle cité 11 décembre 1960;5397813380;2.8672734;36.6973478;1;5;6;8408345;Bus: Sidi Abd Allah -> Station 2 Mai;blue;ETUSA;732;Sidi Abd Allah;Station 2 Mai
779389417;"{\"type\":\"LineString\",\"coordinates\":[[2.8581609,36.700446],[2.8586152,36.6999823],[2.8588499,36.6997479],[2.8590631,36.6995371],[2.8596102,36.6990359],[2.8602625,36.6985267],[2.8612067,36.6979899],[2.8619791,36.6975907],[2.8624083,36.6974256],[2.8631293,36.6972673],[2.8633109,36.6972673],[2.8639532,36.6972673],[2.8666483,36.6973568],[2.8670431,36.6973361],[2.867335,36.6972466],[2.8674057,36.6971984],[2.8675066,36.6971296],[2.8676783,36.696992],[2.8680216,36.6966135],[2.8681286,36.6964717],[2.868219,36.696352],[2.8682619,36.6961318],[2.868188,36.6956983],[2.8681462,36.6953279],[2.8680273,36.6944596],[2.8679905,36.6941795],[2.8679852,36.6940742]]}";1;"";2;60;false;false;true;false;false;false;678.5;0;0;0;0;0;false;Nouvelle cité 11 décembre 1960;5397813380;2.8672734;36.6973478;Centre cynégétique de Zéralda;5397813384;2.8581405;36.7009672;1;6;7;8408345;Bus: Sidi Abd Allah -> Station 2 Mai;blue;ETUSA;732;Sidi Abd Allah;Station 2 Mai
28639562;"{\"type\":\"LineString\",\"coordinates\":[[2.8522624,36.7087215],[2.852312,36.7086366],[2.8523777,36.7085409],[2.8524247,36.7084764],[2.8525789,36.7082544],[2.8527398,36.7080195],[2.8529598,36.7077001],[2.8532562,36.7072561],[2.8536478,36.7066744],[2.8539656,36.706225],[2.8547196,36.70524],[2.8550266,36.7048612],[2.8554772,36.7042349],[2.8558444,36.7036711],[2.8560995,36.7032594],[2.8563074,36.7029304],[2.8566672,36.7024749],[2.8569924,36.7020776],[2.8575182,36.7013436],[2.8576563,36.7011704],[2.85771,36.7010941],[2.8578784,36.7008321],[2.8581535,36.7004561],[2.8581609,36.700446]]}";2;"";2;60;false;false;true;false;false;false;537.0;0;0;0;0;0;false;Nouvelle cité 11 décembre 1960;5397813380;2.8672734;36.6973478;Centre cynégétique de Zéralda;5397813384;2.8581405;36.7009672;1;6;7;8408345;Bus: Sidi Abd Allah -> Station 2 Mai;blue;ETUSA;732;Sidi Abd Allah;Station 2 Mai
28639562;"{\"type\":\"LineString\",\"coordinates\":[[2.8522624,36.7087215],[2.852312,36.7086366],[2.8523777,36.7085409],[2.8524247,36.7084764],[2.8525789,36.7082544],[2.8527398,36.7080195],[2.8529598,36.7077001],[2.8532562,36.7072561],[2.8536478,36.7066744],[2.8539656,36.706225],[2.8547196,36.70524],[2.8550266,36.7048612],[2.8554772,36.7042349],[2.8558444,36.7036711],[2.8560995,36.7032594],[2.8563074,36.7029304],[2.8566672,36.7024749],[2.8569924,36.7020776],[2.8575182,36.7013436],[2.8576563,36.7011704],[2.85771,36.7010941],[2.8578784,36.7008321],[2.8581535,36.7004561],[2.8581609,36.700446]]}";1;"";2;60;false;false;true;false;false;false;537.0;0;0;0;0;0;false;Centre cynégétique de Zéralda;5397813384;2.8581405;36.7009672;ITFC;1669297522;3.013823;36.7513731;1;7;8;8408345;Bus: Sidi Abd Allah -> Station 2 Mai;blue;ETUSA;732;Sidi Abd Allah;Station 2 Mai
28639603;"{\"type\":\"LineString\",\"coordinates\":[[2.8522624,36.7087215],[2.8520923,36.7086337]]}";2;"";1;50;false;true;true;false;false;false;19.0;0;0;0;0;0;false;Centre cynégétique de Zéralda;5397813384;2.8581405;36.7009672;ITFC;1669297522;3.013823;36.7513731;0;7;8;8408345;Bus: Sidi Abd Allah -> Station 2 Mai;blue;ETUSA;732;Sidi Abd Allah;Station 2 Mai
559673365;"{\"type\":\"LineString\",\"coordinates\":[[2.8520923,36.7086337],[2.8520277,36.7085871]]}";3;"";1;50;false;true;true;false;false;false;8.0;0;0;0;0;0;false;Centre cynégétique de Zéralda;5397813384;2.8581405;36.7009672;ITFC;1669297522;3.013823;36.7513731;0;7;8;8408345;Bus: Sidi Abd Allah -> Station 2 Mai;blue;ETUSA;732;Sidi Abd Allah;Station 2 Mai
28639594;"{\"type\":\"LineString\",\"coordinates\":[[2.8520277,36.7085871],[2.8517944,36.7084226],[2.8512874,36.7080732],[2.8509924,36.7078775],[2.8508288,36.7078001],[2.8506155,36.707769],[2.8504345,36.7077862],[2.8502789,36.7078431],[2.8501421,36.7079345],[2.8500496,36.7080313],[2.8499825,36.7081807],[2.8499584,36.7083495],[2.8499886,36.7086423],[2.85,36.7090032],[2.8499816,36.7093605]]}";4;"";1;50;false;true;true;false;false;false;373.0;0;0;0;0;0;false;Centre cynégétique de Zéralda;5397813384;2.8581405;36.7009672;ITFC;1669297522;3.013823;36.7513731;0;7;8;8408345;Bus: Sidi Abd Allah -> Station 2 Mai;blue;ETUSA;732;Sidi Abd Allah;Station 2 Mai
559673364;"{\"type\":\"LineString\",\"coordinates\":[[2.8499816,36.7093605],[2.8500639,36.7097163],[2.850244,36.7107041],[2.8504357,36.7117161],[2.8506469,36.7127306],[2.8508715,36.7135214],[2.85128,36.7145784],[2.8516281,36.7152388],[2.8519388,36.7157287],[2.8524725,36.7163755],[2.8530723,36.717029],[2.8538972,36.7177974],[2.8546241,36.7184144],[2.8554352,36.7191256],[2.8562813,36.7198619],[2.8569227,36.7204225],[2.8576132,36.7209691],[2.8581326,36.7214237],[2.85836,36.7216227],[2.8592783,36.7224964],[2.8593938,36.7226294],[2.8599425,36.7232611],[2.8603974,36.7239353],[2.860849,36.7246497]]}";5;Autoroute Alger - Tipaza;3;80;false;true;true;false;false;false;2035.0;0;0;0;0;0;false;Centre cynégétique de Zéralda;5397813384;2.8581405;36.7009672;ITFC;1669297522;3.013823;36.7513731;0;7;8;8408345;Bus: Sidi Abd Allah -> Station 2 Mai;blue;ETUSA;732;Sidi Abd Allah;Station 2 Mai
312191710;"{\"type\":\"LineString\",\"coordinates\":[[2.860849,36.7246497],[2.8612869,36.7253825],[2.8616353,36.7259758]]}";6;Autoroute Alger - Tipaza;3;80;false;true;true;false;false;false;166.0;0;0;0;0;0;false;Centre cynégétique de Zéralda;5397813384;2.8581405;36.7009672;ITFC;1669297522;3.013823;36.7513731;0;7;8;8408345;Bus: Sidi Abd Allah -> Station 2 Mai;blue;ETUSA;732;Sidi Abd Allah;Station 2 Mai
312191702;"{\"type\":\"LineString\",\"coordinates\":[[2.8616353,36.7259758],[2.8622554,36.7269076],[2.8631432,36.7279005],[2.8640235,36.7286697],[2.8647416,36.7291734],[2.8650986,36.7293821],[2.8655269,36.7296259],[2.8660411,36.7298927],[2.8662836,36.7300169],[2.8668948,36.7303124],[2.8676416,36.7306426],[2.8688775,36.7311998],[2.8700534,36.7317432],[2.8709718,36.7322041],[2.8722359,36.7328149]]}";7;Autoroute Alger - Tipaza;3;80;false;true;true;false;false;false;1253.0;0;0;0;0;0;false;Centre cynégétique de Zéralda;5397813384;2.8581405;36.7009672;ITFC;1669297522;3.013823;36.7513731;0;7;8;8408345;Bus: Sidi Abd Allah -> Station 2 Mai;blue;ETUSA;732;Sidi Abd Allah;Station 2 Mai
263547389;"{\"type\":\"LineString\",\"coordinates\":[[2.8722359,36.7328149],[2.8726985,36.7330306]]}";8;Première Rocade Sud;3;80;false;true;false;false;false;false;49.0;0;0;0;0;0;false;Centre cynégétique de Zéralda;5397813384;2.8581405;36.7009672;ITFC;1669297522;3.013823;36.7513731;0;7;8;8408345;Bus: Sidi Abd Allah -> Station 2 Mai;blue;ETUSA;732;Sidi Abd Allah;Station 2 Mai
473307590;"{\"type\":\"LineString\",\"coordinates\":[[2.8726985,36.7330306],[2.8730145,36.7331674],[2.8732899,36.7332841],[2.8735864,36.7334087],[2.8738686,36.7335214]]}";9;Première Rocade Sud;3;80;false;true;false;false;false;false;120.0;0;0;0;0;0;false;Centre cynégétique de Zéralda;5397813384;2.8581405;36.7009672;ITFC;1669297522;3.013823;36.7513731;0;7;8;8408345;Bus: Sidi Abd Allah -> Station 2 Mai;blue;ETUSA;732;Sidi Abd Allah;Station 2 Mai
473307586;"{\"type\":\"LineString\",\"coordinates\":[[2.8738686,36.7335214],[2.8742284,36.7336575],[2.8749085,36.733864],[2.8755946,36.7340275],[2.8767494,36.7342243],[2.8784562,36.7343643],[2.879962,36.7345052],[2.8809802,36.7346841],[2.8819071,36.7349386],[2.8828535,36.7353158],[2.883135,36.7354508],[2.8833953,36.735571],[2.8836342,36.7356962],[2.883922,36.735868],[2.8842557,36.7360752],[2.8861782,36.7372495],[2.8866158,36.7374553],[2.8871125,36.7376602],[2.887538,36.7377991],[2.8878645,36.7378989],[2.888394,36.7380273],[2.8887122,36.738088],[2.8890218,36.7381482],[2.8894,36.7381979],[2.8898135,36.7382369],[2.8901006,36.7382632],[2.8904674,36.7382996],[2.8907709,36.7383227],[2.8911419,36.738346],[2.8937916,36.7385651],[2.8949875,36.7386894],[2.8969673,36.7388953],[2.902528,36.7397136],[2.9026937,36.7397364],[2.9043313,36.7399961],[2.9057953,36.7401828],[2.909699,36.7405826],[2.911549,36.7407853],[2.9120115,36.7408455],[2.9124778,36.7409061],[2.913409,36.7410335],[2.9140516,36.7411586],[2.9145353,36.7412528],[2.9156605,36.741484],[2.9162808,36.7416342],[2.9170448,36.741838],[2.9177284,36.7420377],[2.9185041,36.7423093],[2.9192637,36.7425982],[2.9194651,36.7426754],[2.9204744,36.7431182],[2.9214667,36.7436001],[2.9215836,36.7436556],[2.9231188,36.7445314],[2.9253284,36.7460594],[2.9265641,36.7468665],[2.9276327,36.747487],[2.928388,36.7479155],[2.929363,36.7483152],[2.929784,36.7484601],[2.9301595,36.7485977],[2.9304921,36.7487094],[2.9306668,36.7487583],[2.9309534,36.7488384],[2.9314469,36.7489673],[2.931801,36.7490533],[2.9322409,36.7491393],[2.9326109,36.7492024],[2.932831,36.749251],[2.9335478,36.7493496],[2.934052,36.7494006],[2.9345013,36.7494345],[2.9350196,36.7494229],[2.935174,36.7494229],[2.9356956,36.7494229],[2.936458,36.7493839],[2.9379345,36.749236],[2.9380373,36.7492257],[2.9385665,36.7491517],[2.9397837,36.7489796],[2.9402568,36.7489028],[2.9412761,36.7487534],[2.943457,36.7483789],[2.9456188,36.7480165],[2.9481857,36.7475979],[2.9503111,36.7472312],[2.9513869,36.7470641],[2.9521967,36.7469471],[2.9533043,36.7467633],[2.9537481,36.7466814],[2.9555725,36.7463647],[2.9566508,36.746187],[2.9579707,36.7459694],[2.9588259,36.7458296],[2.959343,36.745745],[2.9607346,36.7455691],[2.9625093,36.7453961],[2.9641457,36.7452163],[2.9659221,36.745111],[2.9678383,36.7450461],[2.9692242,36.7450375],[2.9709231,36.7450506],[2.9725909,36.7451065],[2.9736324,36.7451568],[2.9741375,36.7451462],[2.9746886,36.7451313],[2.975249,36.7450826],[2.9758223,36.7450167],[2.9768308,36.7448577],[2.977732,36.7447115],[2.9787855,36.7445866],[2.980125,36.7444632],[2.9809277,36.7444427],[2.9817076,36.7444315],[2.9824875,36.7444914],[2.9831038,36.7446154],[2.9840799,36.7448319],[2.9850076,36.7451062],[2.9858032,36.7453895],[2.9867045,36.7457637],[2.9871621,36.7460107],[2.9875895,36.746275],[2.9884924,36.7468549],[2.9895722,36.7475293],[2.9905605,36.7480863],[2.9908929,36.7482529]]}";10;Première Rocade Sud;3;80;false;true;false;false;false;false;11163.0;0;0;0;0;0;false;Centre cynégétique de Zéralda;5397813384;2.8581405;36.7009672;ITFC;1669297522;3.013823;36.7513731;0;7;8;8408345;Bus: Sidi Abd Allah -> Station 2 Mai;blue;ETUSA;732;Sidi Abd Allah;Station 2 Mai
559673363;"{\"type\":\"LineString\",\"coordinates\":[[2.9908929,36.7482529],[2.9914102,36.7484567],[2.9916959,36.7485726],[2.9921002,36.7487093],[2.9925218,36.7488453],[2.9933436,36.7490845],[2.9939825,36.7492202],[2.9946913,36.7493206],[2.9951354,36.7493737],[2.995551,36.7494021],[2.9959356,36.7494099],[2.9963818,36.7494126],[2.9967974,36.7494031],[2.9973492,36.7493732],[2.9979296,36.7493253],[2.9984287,36.7492549],[2.9991747,36.7491319],[2.9996383,36.749051],[3.0001483,36.7489542],[3.0003917,36.748927],[3.0006475,36.7489234],[3.0008767,36.7489309],[3.0010887,36.7489561],[3.0013679,36.7490218],[3.0015552,36.7490789],[3.0018685,36.7492086],[3.0021939,36.749406],[3.0024539,36.7496341],[3.0027533,36.7500107],[3.0028854,36.7502298],[3.0030464,36.7504731],[3.0032547,36.7507319],[3.0035301,36.7509657],[3.0037655,36.7511016]]}";11;Première Rocade Sud;3;80;false;true;false;false;false;false;1304.0;0;0;0;0;0;false;Centre cynégétique de Zéralda;5397813384;2.8581405;36.7009672;ITFC;1669297522;3.013823;36.7513731;0;7;8;8408345;Bus: Sidi Abd Allah -> Station 2 Mai;blue;ETUSA;732;Sidi Abd Allah;Station 2 Mai
196547667;"{\"type\":\"LineString\",\"coordinates\":[[3.0037655,36.7511016],[3.0039875,36.7512058],[3.0041885,36.7512934]]}";12;Première Rocade Sud;3;80;false;true;true;false;false;false;44.0;0;0;0;0;0;false;Centre cynégétique de Zéralda;5397813384;2.8581405;36.7009672;ITFC;1669297522;3.013823;36.7513731;0;7;8;8408345;Bus: Sidi Abd Allah -> Station 2 Mai;blue;ETUSA;732;Sidi Abd Allah;Station 2 Mai
196547666;"{\"type\":\"LineString\",\"coordinates\":[[3.0041885,36.7512934],[3.004631,36.7514014],[3.0062642,36.7517551],[3.006907,36.7519147],[3.0075399,36.7520378],[3.0081363,36.7521578],[3.0084262,36.7521877],[3.0087327,36.7521949],[3.009437,36.7521985],[3.0102251,36.7521041],[3.0105788,36.7520368],[3.0109851,36.7519596],[3.0119439,36.7517664],[3.0134715,36.7514911],[3.0137263,36.7514636]]}";13;Première Rocade Sud;3;80;false;true;true;false;false;false;885.0;0;0;0;0;0;false;Centre cynégétique de Zéralda;5397813384;2.8581405;36.7009672;ITFC;1669297522;3.013823;36.7513731;0;7;8;8408345;Bus: Sidi Abd Allah -> Station 2 Mai;blue;ETUSA;732;Sidi Abd Allah;Station 2 Mai
28523581;"{\"type\":\"LineString\",\"coordinates\":[[3.0137263,36.7514636],[3.0138401,36.7513872],[3.0139502,36.7513203],[3.0140424,36.7512575],[3.0141406,36.7511907],[3.0142436,36.7511299]]}";14;"";1;50;false;true;true;false;false;false;30.0;0;0;0;0;0;false;Centre cynégétique de Zéralda;5397813384;2.8581405;36.7009672;ITFC;1669297522;3.013823;36.7513731;1;7;8;8408345;Bus: Sidi Abd Allah -> Station 2 Mai;blue;ETUSA;732;Sidi Abd Allah;Station 2 Mai
196547666;"{\"type\":\"LineString\",\"coordinates\":[[3.0041885,36.7512934],[3.004631,36.7514014],[3.0062642,36.7517551],[3.006907,36.7519147],[3.0075399,36.7520378],[3.0081363,36.7521578],[3.0084262,36.7521877],[3.0087327,36.7521949],[3.009437,36.7521985],[3.0102251,36.7521041],[3.0105788,36.7520368],[3.0109851,36.7519596],[3.0119439,36.7517664],[3.0134715,36.7514911],[3.0137263,36.7514636]]}";1;Première Rocade Sud;3;80;false;true;true;false;false;false;885.0;0;0;0;0;0;false;ITFC;1669297522;3.013823;36.7513731;Saïd Hamdine;958556420;3.0384684;36.7336263;2;8;9;8408345;Bus: Sidi Abd Allah -> Station 2 Mai;blue;ETUSA;732;Sidi Abd Allah;Station 2 Mai
28523581;"{\"type\":\"LineString\",\"coordinates\":[[3.0137263,36.7514636],[3.0138401,36.7513872],[3.0139502,36.7513203],[3.0140424,36.7512575],[3.0141406,36.7511907],[3.0142436,36.7511299]]}";2;"";1;50;false;true;true;false;false;false;60.0;0;0;0;0;0;false;ITFC;1669297522;3.013823;36.7513731;Saïd Hamdine;958556420;3.0384684;36.7336263;0;8;9;8408345;Bus: Sidi Abd Allah -> Station 2 Mai;blue;ETUSA;732;Sidi Abd Allah;Station 2 Mai
28523584;"{\"type\":\"LineString\",\"coordinates\":[[3.0142436,36.7511299],[3.0142487,36.7512253],[3.0142886,36.7513215],[3.0144019,36.7514291]]}";3;"";1;50;false;true;true;false;false;false;38.0;0;0;0;0;0;false;ITFC;1669297522;3.013823;36.7513731;Saïd Hamdine;958556420;3.0384684;36.7336263;0;8;9;8408345;Bus: Sidi Abd Allah -> Station 2 Mai;blue;ETUSA;732;Sidi Abd Allah;Station 2 Mai
601763608;"{\"type\":\"LineString\",\"coordinates\":[[3.0144019,36.7514291],[3.0146714,36.7514603],[3.0151461,36.7515076],[3.0157454,36.7516139],[3.0163598,36.7517829],[3.0170636,36.7520123],[3.0177342,36.7522444]]}";4;Première Rocade Sud;3;80;false;true;true;false;false;false;317.0;0;0;0;0;0;false;ITFC;1669297522;3.013823;36.7513731;Saïd Hamdine;958556420;3.0384684;36.7336263;0;8;9;8408345;Bus: Sidi Abd Allah -> Station 2 Mai;blue;ETUSA;732;Sidi Abd Allah;Station 2 Mai
26251764;"{\"type\":\"LineString\",\"coordinates\":[[3.0177342,36.7522444],[3.0180995,36.752364],[3.0184696,36.7524757]]}";5;Première Rocade Sud;3;80;false;true;true;false;false;false;72.0;0;0;0;0;0;false;ITFC;1669297522;3.013823;36.7513731;Saïd Hamdine;958556420;3.0384684;36.7336263;0;8;9;8408345;Bus: Sidi Abd Allah -> Station 2 Mai;blue;ETUSA;732;Sidi Abd Allah;Station 2 Mai
26251765;"{\"type\":\"LineString\",\"coordinates\":[[3.0184696,36.7524757],[3.0186949,36.7525316],[3.0188505,36.7525579],[3.0190047,36.7525794]]}";6;Première Rocade Sud;3;80;false;true;true;false;false;false;50.0;0;0;0;0;0;false;ITFC;1669297522;3.013823;36.7513731;Saïd Hamdine;958556420;3.0384684;36.7336263;0;8;9;8408345;Bus: Sidi Abd Allah -> Station 2 Mai;blue;ETUSA;732;Sidi Abd Allah;Station 2 Mai
55503393;"{\"type\":\"LineString\",\"coordinates\":[[3.0190047,36.7525794],[3.0193567,36.752623],[3.0196256,36.7526493]]}";7;Première Rocade Sud;3;80;false;true;true;false;false;false;57.0;0;0;0;0;0;false;ITFC;1669297522;3.013823;36.7513731;Saïd Hamdine;958556420;3.0384684;36.7336263;0;8;9;8408345;Bus: Sidi Abd Allah -> Station 2 Mai;blue;ETUSA;732;Sidi Abd Allah;Station 2 Mai
55503394;"{\"type\":\"LineString\",\"coordinates\":[[3.0196256,36.7526493],[3.0198294,36.7526469],[3.0199541,36.7526361],[3.0201848,36.7526179],[3.0203537,36.7526028],[3.0205549,36.7525727],[3.0207588,36.7525318]]}";8;Première Rocade Sud;3;80;false;true;true;false;false;false;104.0;0;0;0;0;0;false;ITFC;1669297522;3.013823;36.7513731;Saïd Hamdine;958556420;3.0384684;36.7336263;0;8;9;8408345;Bus: Sidi Abd Allah -> Station 2 Mai;blue;ETUSA;732;Sidi Abd Allah;Station 2 Mai
26251700;"{\"type\":\"LineString\",\"coordinates\":[[3.0207588,36.7525318],[3.0211759,36.7524201],[3.0216667,36.7522439]]}";9;Première Rocade Sud;3;80;false;true;true;false;false;false;89.0;0;0;0;0;0;false;ITFC;1669297522;3.013823;36.7513731;Saïd Hamdine;958556420;3.0384684;36.7336263;0;8;9;8408345;Bus: Sidi Abd Allah -> Station 2 Mai;blue;ETUSA;732;Sidi Abd Allah;Station 2 Mai
26251701;"{\"type\":\"LineString\",\"coordinates\":[[3.0216667,36.7522439],[3.0218384,36.7521773],[3.0221187,36.7520344],[3.022407,36.7518764],[3.0225988,36.7517668],[3.0228227,36.7516088],[3.0229461,36.7515111],[3.0231258,36.7513681],[3.0233847,36.7511371],[3.0235349,36.7509974],[3.0236585,36.7508678],[3.0238514,36.7506697],[3.0240351,36.7504451],[3.0242349,36.7502022],[3.0244522,36.7499153],[3.0246118,36.7497015],[3.0248022,36.7494291],[3.0249524,36.7492034],[3.0250315,36.7490648],[3.0251703,36.7488144],[3.0253132,36.7485544],[3.0254044,36.7483577],[3.0254795,36.7481681],[3.0255452,36.7479886],[3.0256424,36.7476802],[3.0257463,36.7473186],[3.0258418,36.7467976],[3.025859,36.7466814],[3.0258972,36.7464933],[3.0259348,36.7462461],[3.0259569,36.7460253],[3.025971,36.7457792],[3.0259884,36.745466],[3.0259985,36.7450555],[3.0259871,36.7448207],[3.0259884,36.7445826],[3.0259807,36.7442486]]}";10;Première Rocade Sud;3;80;false;true;true;false;false;false;1032.0;0;0;0;0;0;false;ITFC;1669297522;3.013823;36.7513731;Saïd Hamdine;958556420;3.0384684;36.7336263;0;8;9;8408345;Bus: Sidi Abd Allah -> Station 2 Mai;blue;ETUSA;732;Sidi Abd Allah;Station 2 Mai
26250273;"{\"type\":\"LineString\",\"coordinates\":[[3.0259807,36.7442486],[3.0259549,36.7438634]]}";11;Première Rocade Sud;3;80;false;true;true;false;false;false;44.0;0;0;0;0;0;false;ITFC;1669297522;3.013823;36.7513731;Saïd Hamdine;958556420;3.0384684;36.7336263;0;8;9;8408345;Bus: Sidi Abd Allah -> Station 2 Mai;blue;ETUSA;732;Sidi Abd Allah;Station 2 Mai
150220830;"{\"type\":\"LineString\",\"coordinates\":[[3.0259549,36.7438634],[3.0259079,36.7434908],[3.025861,36.7431609],[3.0258134,36.7428965],[3.0257671,36.7426617],[3.0256954,36.7423361],[3.0256495,36.7421659],[3.0255572,36.7418508],[3.0253719,36.7412726],[3.0252099,36.7407461],[3.0251563,36.7405806],[3.0251113,36.7403914],[3.0250812,36.7402383],[3.0250577,36.7400249],[3.0250604,36.7398643],[3.0250653,36.7397954],[3.0250921,36.7395288],[3.025119,36.7393053],[3.025178,36.7390646],[3.0252477,36.738841],[3.0253228,36.7386476],[3.0253926,36.7384756],[3.0255267,36.7382435],[3.0256554,36.7380302],[3.0259663,36.7376491],[3.0266403,36.7370382],[3.0271195,36.7366796],[3.0273942,36.7364733]]}";12;Première Rocade Sud;3;80;false;true;true;false;false;false;910.0;0;0;0;0;0;false;ITFC;1669297522;3.013823;36.7513731;Saïd Hamdine;958556420;3.0384684;36.7336263;0;8;9;8408345;Bus: Sidi Abd Allah -> Station 2 Mai;blue;ETUSA;732;Sidi Abd Allah;Station 2 Mai
26322649;"{\"type\":\"LineString\",\"coordinates\":[[3.0273942,36.7364733],[3.0277804,36.736205]]}";13;Première Rocade Sud;3;80;false;true;true;false;false;false;47.0;0;0;0;0;0;false;ITFC;1669297522;3.013823;36.7513731;Saïd Hamdine;958556420;3.0384684;36.7336263;0;8;9;8408345;Bus: Sidi Abd Allah -> Station 2 Mai;blue;ETUSA;732;Sidi Abd Allah;Station 2 Mai
150218240;"{\"type\":\"LineString\",\"coordinates\":[[3.0277804,36.736205],[3.0283919,36.7358204],[3.0290891,36.7353751],[3.0295497,36.7351258],[3.0299574,36.7349097],[3.0303168,36.7347635],[3.0305228,36.7346865],[3.0306752,36.7346181],[3.0307464,36.7345862],[3.0310075,36.734469],[3.0315332,36.7342863],[3.0320066,36.734152],[3.0325042,36.7340413],[3.0329508,36.7339542],[3.0334295,36.7338704],[3.0338345,36.7338091],[3.0344045,36.7337575],[3.0349101,36.7337167],[3.0353352,36.7337178],[3.0359615,36.7337156],[3.0365543,36.7337414],[3.0368228,36.7337636],[3.0369356,36.7337635]]}";14;Première Rocade Sud;3;80;false;true;true;false;false;false;901.0;0;0;0;0;0;false;ITFC;1669297522;3.013823;36.7513731;Saïd Hamdine;958556420;3.0384684;36.7336263;0;8;9;8408345;Bus: Sidi Abd Allah -> Station 2 Mai;blue;ETUSA;732;Sidi Abd Allah;Station 2 Mai
240324028;"{\"type\":\"LineString\",\"coordinates\":[[3.0369356,36.7337635],[3.037142,36.7337069],[3.0372632,36.7336861],[3.0374418,36.7336738],[3.0380862,36.733687],[3.0381444,36.7336833],[3.038204,36.7336724],[3.0384605,36.733679],[3.0386682,36.7336851],[3.0387326,36.7336993],[3.038811,36.7337285],[3.0390556,36.7338251]]}";15;"";1;50;false;true;true;false;false;false;197.0;0;0;0;0;0;false;ITFC;1669297522;3.013823;36.7513731;Saïd Hamdine;958556420;3.0384684;36.7336263;2;8;9;8408345;Bus: Sidi Abd Allah -> Station 2 Mai;blue;ETUSA;732;Sidi Abd Allah;Station 2 Mai
240324028;"{\"type\":\"LineString\",\"coordinates\":[[3.0369356,36.7337635],[3.037142,36.7337069],[3.0372632,36.7336861],[3.0374418,36.7336738],[3.0380862,36.733687],[3.0381444,36.7336833],[3.038204,36.7336724],[3.0384605,36.733679],[3.0386682,36.7336851],[3.0387326,36.7336993],[3.038811,36.7337285],[3.0390556,36.7338251]]}";1;"";1;50;false;true;true;false;false;false;98.5;0;0;0;0;0;false;Saïd Hamdine;958556420;3.0384684;36.7336263;Les Ateliers;3009229269;3.0663331;36.7565028;1;9;10;8408345;Bus: Sidi Abd Allah -> Station 2 Mai;blue;ETUSA;732;Sidi Abd Allah;Station 2 Mai
601763606;"{\"type\":\"LineString\",\"coordinates\":[[3.0390556,36.7338251],[3.0392955,36.7338306],[3.0394361,36.7338325],[3.0394927,36.7338349],[3.0403282,36.733865],[3.0408903,36.7338754],[3.0413564,36.7338685],[3.0417763,36.7338439],[3.0421921,36.7337781],[3.0425762,36.7336989],[3.0430874,36.7335787],[3.0440529,36.7332908],[3.045145,36.7329499],[3.0456751,36.7328041],[3.0461541,36.7326874],[3.0465599,36.7326075],[3.0472897,36.7324975],[3.049394,36.7322391]]}";2;Première Rocade Sud;3;80;false;true;true;false;false;false;962.0;0;0;0;0;0;false;Saïd Hamdine;958556420;3.0384684;36.7336263;Les Ateliers;3009229269;3.0663331;36.7565028;0;9;10;8408345;Bus: Sidi Abd Allah -> Station 2 Mai;blue;ETUSA;732;Sidi Abd Allah;Station 2 Mai
26226712;"{\"type\":\"LineString\",\"coordinates\":[[3.049394,36.7322391],[3.0500585,36.7321805]]}";3;Première Rocade Sud;3;80;false;true;true;false;false;false;61.0;0;0;0;0;0;false;Saïd Hamdine;958556420;3.0384684;36.7336263;Les Ateliers;3009229269;3.0663331;36.7565028;0;9;10;8408345;Bus: Sidi Abd Allah -> Station 2 Mai;blue;ETUSA;732;Sidi Abd Allah;Station 2 Mai
26226711;"{\"type\":\"LineString\",\"coordinates\":[[3.0500585,36.7321805],[3.0515222,36.7320673],[3.0539022,36.7319483]]}";4;Première Rocade Sud;3;80;false;true;true;false;false;false;349.0;0;0;0;0;0;false;Saïd Hamdine;958556420;3.0384684;36.7336263;Les Ateliers;3009229269;3.0663331;36.7565028;0;9;10;8408345;Bus: Sidi Abd Allah -> Station 2 Mai;blue;ETUSA;732;Sidi Abd Allah;Station 2 Mai
217582035;"{\"type\":\"LineString\",\"coordinates\":[[3.0539022,36.7319483],[3.0552682,36.7318962],[3.056021,36.7318539],[3.0561286,36.7318443],[3.0565582,36.7318058],[3.057089,36.7317235],[3.0576027,36.7316106],[3.0580248,36.7314874],[3.05834,36.7313776],[3.0587179,36.7312207],[3.059069,36.7310633],[3.0593571,36.7308982],[3.0596221,36.7307292],[3.0598705,36.7305786],[3.0601509,36.7303974],[3.0604639,36.7301432],[3.0608054,36.7298174],[3.0610127,36.72956],[3.0613664,36.7291038],[3.0623716,36.7277999],[3.0630455,36.7269533]]}";5;Première Rocade Sud;3;80;false;true;true;false;false;false;1077.0;0;0;0;0;0;false;Saïd Hamdine;958556420;3.0384684;36.7336263;Les Ateliers;3009229269;3.0663331;36.7565028;0;9;10;8408345;Bus: Sidi Abd Allah -> Station 2 Mai;blue;ETUSA;732;Sidi Abd Allah;Station 2 Mai
25978563;"{\"type\":\"LineString\",\"coordinates\":[[3.0630455,36.7269533],[3.0632221,36.7265991],[3.0632515,36.7265004],[3.0632409,36.726397],[3.0631712,36.7262809],[3.0630827,36.7261863],[3.0629726,36.7261178],[3.0628519,36.7260726],[3.0627151,36.7260468],[3.0625858,36.7260417],[3.062409,36.7260706],[3.0622564,36.7261461],[3.0621383,36.7262385],[3.0620586,36.7263534],[3.0620416,36.7265055],[3.0620782,36.7266941],[3.0621307,36.7268881],[3.0624072,36.7274649]]}";6;Route des Annassers;1;40;false;true;true;false;false;false;336.0;0;0;0;0;0;false;Saïd Hamdine;958556420;3.0384684;36.7336263;Les Ateliers;3009229269;3.0663331;36.7565028;0;9;10;8408345;Bus: Sidi Abd Allah -> Station 2 Mai;blue;ETUSA;732;Sidi Abd Allah;Station 2 Mai
26226200;"{\"type\":\"LineString\",\"coordinates\":[[3.0624072,36.7274649],[3.062704,36.7280383]]}";7;Route des Annassers;1;50;false;true;true;false;false;false;70.0;0;0;0;0;0;false;Saïd Hamdine;958556420;3.0384684;36.7336263;Les Ateliers;3009229269;3.0663331;36.7565028;0;9;10;8408345;Bus: Sidi Abd Allah -> Station 2 Mai;blue;ETUSA;732;Sidi Abd Allah;Station 2 Mai
82142087;"{\"type\":\"LineString\",\"coordinates\":[[3.062704,36.7280383],[3.0635792,36.7296305]]}";8;Route des Annassers;1;50;false;true;true;false;false;false;196.0;0;0;0;0;0;false;Saïd Hamdine;958556420;3.0384684;36.7336263;Les Ateliers;3009229269;3.0663331;36.7565028;0;9;10;8408345;Bus: Sidi Abd Allah -> Station 2 Mai;blue;ETUSA;732;Sidi Abd Allah;Station 2 Mai
231126109;"{\"type\":\"LineString\",\"coordinates\":[[3.0635792,36.7296305],[3.0637567,36.7299756],[3.0639278,36.7302581],[3.0641768,36.7305607],[3.0644294,36.7307819],[3.0645751,36.7308939],[3.0647513,36.730993],[3.0649071,36.7310747],[3.0651252,36.7311706],[3.0653339,36.7312363],[3.0655726,36.7312983],[3.0657662,36.731337]]}";9;Pénétrante des Annassers;2;60;false;true;true;false;false;false;290.0;0;0;0;0;0;false;Saïd Hamdine;958556420;3.0384684;36.7336263;Les Ateliers;3009229269;3.0663331;36.7565028;0;9;10;8408345;Bus: Sidi Abd Allah -> Station 2 Mai;blue;ETUSA;732;Sidi Abd Allah;Station 2 Mai
431840246;"{\"type\":\"LineString\",\"coordinates\":[[3.0657662,36.731337],[3.0659111,36.7313453],[3.0660068,36.7313544],[3.0662155,36.7313589],[3.0663987,36.7313587],[3.0666329,36.7313385],[3.0670261,36.7312976]]}";10;Pénétrante des Annassers;1;60;false;true;true;false;false;false;115.0;0;0;0;0;0;false;Saïd Hamdine;958556420;3.0384684;36.7336263;Les Ateliers;3009229269;3.0663331;36.7565028;0;9;10;8408345;Bus: Sidi Abd Allah -> Station 2 Mai;blue;ETUSA;732;Sidi Abd Allah;Station 2 Mai
232527799;"{\"type\":\"LineString\",\"coordinates\":[[3.0670261,36.7312976],[3.067493,36.731251],[3.0687564,36.7310844],[3.0692196,36.731019],[3.0694932,36.7310044],[3.0699883,36.731021],[3.0702372,36.73105],[3.0704314,36.7310925],[3.0706021,36.7311398],[3.0707109,36.7311699],[3.0708595,36.7312267],[3.071011,36.7312817],[3.0712664,36.7314171],[3.0725241,36.7320388],[3.0737497,36.7326678],[3.0740563,36.7328094],[3.0743235,36.7329037],[3.0746038,36.7329463],[3.0748801,36.7329565],[3.0752175,36.732912],[3.0755394,36.7328213],[3.0763363,36.7324883],[3.0781208,36.7317342],[3.0783522,36.731676],[3.0787226,36.7316299],[3.07904,36.7316527],[3.0793581,36.7317009],[3.0801523,36.7319393],[3.0806206,36.7320861],[3.0809671,36.7322288],[3.0811466,36.7323348],[3.0811978,36.732382],[3.0813692,36.7325399],[3.0815639,36.7328073],[3.0817013,36.7330662]]}";11;Pénétrante des Annassers;2;60;false;true;true;false;false;false;1485.0;0;0;0;0;0;false;Saïd Hamdine;958556420;3.0384684;36.7336263;Les Ateliers;3009229269;3.0663331;36.7565028;0;9;10;8408345;Bus: Sidi Abd Allah -> Station 2 Mai;blue;ETUSA;732;Sidi Abd Allah;Station 2 Mai
231934786;"{\"type\":\"LineString\",\"coordinates\":[[3.0817013,36.7330662],[3.0817745,36.733211],[3.0819927,36.7335686],[3.0822173,36.7339677],[3.0826149,36.7345972],[3.0828402,36.7349562],[3.0830547,36.7352378],[3.0832666,36.7354527],[3.0834034,36.7355774],[3.0835885,36.7357171],[3.083854,36.7359063],[3.0845956,36.7364401],[3.0849668,36.73669],[3.0852731,36.736942],[3.0855344,36.737204],[3.0857571,36.7375513],[3.0858944,36.7378471],[3.0859431,36.7380142],[3.0859796,36.7381657],[3.0859968,36.7385945],[3.0860022,36.7388221],[3.0859928,36.7389885],[3.0860146,36.7394773],[3.0860656,36.7398414],[3.0861372,36.7400124],[3.0862089,36.7401833],[3.0863815,36.7404626],[3.0865769,36.7407392],[3.0871403,36.7414856]]}";12;Pénétrante des Annassers;1;60;false;true;true;false;false;false;1104.0;0;0;0;0;0;false;Saïd Hamdine;958556420;3.0384684;36.7336263;Les Ateliers;3009229269;3.0663331;36.7565028;0;9;10;8408345;Bus: Sidi Abd Allah -> Station 2 Mai;blue;ETUSA;732;Sidi Abd Allah;Station 2 Mai
28506202;"{\"type\":\"LineString\",\"coordinates\":[[3.0871403,36.7414856],[3.087352,36.7417544]]}";13;"";2;80;false;true;true;false;false;false;36.0;0;0;0;0;0;false;Saïd Hamdine;958556420;3.0384684;36.7336263;Les Ateliers;3009229269;3.0663331;36.7565028;0;9;10;8408345;Bus: Sidi Abd Allah -> Station 2 Mai;blue;ETUSA;732;Sidi Abd Allah;Station 2 Mai
29628580;"{\"type\":\"LineString\",\"coordinates\":[[3.087352,36.7417544],[3.0876614,36.7420821]]}";14;"";1;50;false;true;true;false;false;false;47.0;0;0;0;0;0;false;Saïd Hamdine;958556420;3.0384684;36.7336263;Les Ateliers;3009229269;3.0663331;36.7565028;0;9;10;8408345;Bus: Sidi Abd Allah -> Station 2 Mai;blue;ETUSA;732;Sidi Abd Allah;Station 2 Mai
193442520;"{\"type\":\"LineString\",\"coordinates\":[[3.0876614,36.7420821],[3.0877786,36.7421696],[3.0878845,36.7422085],[3.0880039,36.7422255],[3.088141,36.7422218],[3.0882823,36.7421823],[3.0885334,36.7420757],[3.0887364,36.7419385],[3.0888291,36.7418139],[3.0888688,36.7416717],[3.0888737,36.7415813],[3.0888241,36.7414394],[3.088628,36.7411132],[3.088513,36.741013],[3.0883891,36.7409784],[3.0882453,36.7409874],[3.0881439,36.7410308],[3.0878945,36.7411977]]}";15;"";1;50;false;true;true;false;false;false;292.0;0;0;0;0;0;false;Saïd Hamdine;958556420;3.0384684;36.7336263;Les Ateliers;3009229269;3.0663331;36.7565028;0;9;10;8408345;Bus: Sidi Abd Allah -> Station 2 Mai;blue;ETUSA;732;Sidi Abd Allah;Station 2 Mai
231431034;"{\"type\":\"LineString\",\"coordinates\":[[3.0878945,36.7411977],[3.0878187,36.7412865],[3.0877571,36.741375],[3.087586,36.7415725],[3.0872419,36.74192],[3.0870858,36.742086],[3.0869479,36.7422489],[3.0867835,36.7423758]]}";16;"";1;50;false;true;true;false;false;false;167.0;0;0;0;0;0;false;Saïd Hamdine;958556420;3.0384684;36.7336263;Les Ateliers;3009229269;3.0663331;36.7565028;0;9;10;8408345;Bus: Sidi Abd Allah -> Station 2 Mai;blue;ETUSA;732;Sidi Abd Allah;Station 2 Mai
231934792;"{\"type\":\"LineString\",\"coordinates\":[[3.0867835,36.7423758],[3.0867587,36.7424078],[3.0867374,36.7424232],[3.086695,36.7424397],[3.0866618,36.7424438]]}";17;Place Emiliano Zapata;1;50;false;false;true;false;false;false;15.0;0;0;0;0;0;true;Saïd Hamdine;958556420;3.0384684;36.7336263;Les Ateliers;3009229269;3.0663331;36.7565028;0;9;10;8408345;Bus: Sidi Abd Allah -> Station 2 Mai;blue;ETUSA;732;Sidi Abd Allah;Station 2 Mai
231430996;"{\"type\":\"LineString\",\"coordinates\":[[3.0866618,36.7424438],[3.0863728,36.7425879]]}";18;"";1;50;false;true;true;false;false;false;31.0;0;0;0;0;0;false;Saïd Hamdine;958556420;3.0384684;36.7336263;Les Ateliers;3009229269;3.0663331;36.7565028;0;9;10;8408345;Bus: Sidi Abd Allah -> Station 2 Mai;blue;ETUSA;732;Sidi Abd Allah;Station 2 Mai
60904342;"{\"type\":\"LineString\",\"coordinates\":[[3.0863728,36.7425879],[3.0861317,36.7427112],[3.0858579,36.7428784],[3.0855781,36.7430618],[3.0853051,36.7432099],[3.0850527,36.7433517],[3.0845112,36.7436312]]}";19;Chemin Fernane Hannafi (ex chemin vauban);1;50;false;true;true;false;false;false;206.0;0;0;0;0;0;false;Saïd Hamdine;958556420;3.0384684;36.7336263;Les Ateliers;3009229269;3.0663331;36.7565028;0;9;10;8408345;Bus: Sidi Abd Allah -> Station 2 Mai;blue;ETUSA;732;Sidi Abd Allah;Station 2 Mai
82133009;"{\"type\":\"LineString\",\"coordinates\":[[3.0845112,36.7436312],[3.0839064,36.7439698]]}";20;Chemin Fernane Hannafi (ex chemin vauban);1;50;false;true;true;false;false;false;67.0;0;0;0;0;0;false;Saïd Hamdine;958556420;3.0384684;36.7336263;Les Ateliers;3009229269;3.0663331;36.7565028;0;9;10;8408345;Bus: Sidi Abd Allah -> Station 2 Mai;blue;ETUSA;732;Sidi Abd Allah;Station 2 Mai
82133008;"{\"type\":\"LineString\",\"coordinates\":[[3.0839064,36.7439698],[3.0835546,36.744202],[3.0830855,36.7445901]]}";21;Chemin Fernane Hannafi (ex chemin vauban);1;50;false;true;true;false;false;false;103.0;0;0;0;0;0;false;Saïd Hamdine;958556420;3.0384684;36.7336263;Les Ateliers;3009229269;3.0663331;36.7565028;0;9;10;8408345;Bus: Sidi Abd Allah -> Station 2 Mai;blue;ETUSA;732;Sidi Abd Allah;Station 2 Mai
60911503;"{\"type\":\"LineString\",\"coordinates\":[[3.0830855,36.7445901],[3.0828742,36.7448233],[3.0826735,36.7450532],[3.0824941,36.745299],[3.0824337,36.7453837]]}";22;Chemin Fernane Hannafi (ex chemin vauban);1;50;false;true;true;false;false;false;108.0;0;0;0;0;0;false;Saïd Hamdine;958556420;3.0384684;36.7336263;Les Ateliers;3009229269;3.0663331;36.7565028;0;9;10;8408345;Bus: Sidi Abd Allah -> Station 2 Mai;blue;ETUSA;732;Sidi Abd Allah;Station 2 Mai
171510778;"{\"type\":\"LineString\",\"coordinates\":[[3.0823875,36.7454547],[3.0823628,36.7454622],[3.082334,36.7454635],[3.082306,36.7454575],[3.0822819,36.7454448],[3.0822631,36.7454255],[3.0822533,36.7454022],[3.0822538,36.7453777],[3.0822644,36.7453546],[3.0822839,36.7453357],[3.0823111,36.7453228],[3.0823421,36.7453181],[3.0823687,36.7453211],[3.0823931,36.7453301],[3.0824131,36.7453444],[3.0824271,36.7453628],[3.0824337,36.7453837],[3.0824325,36.7454048],[3.0824238,36.7454247],[3.0824084,36.7454418],[3.0823875,36.7454547]]}";23;"";1;30;false;false;true;false;false;false;52.0;0;0;0;0;0;true;Saïd Hamdine;958556420;3.0384684;36.7336263;Les Ateliers;3009229269;3.0663331;36.7565028;0;9;10;8408345;Bus: Sidi Abd Allah -> Station 2 Mai;blue;ETUSA;732;Sidi Abd Allah;Station 2 Mai
197953963;"{\"type\":\"LineString\",\"coordinates\":[[3.0823628,36.7454622],[3.0822291,36.7457062],[3.082013,36.7461435],[3.0816901,36.7466859],[3.0814904,36.7469928],[3.0810482,36.7477233],[3.080969,36.7478541],[3.0809503,36.7479177],[3.0809596,36.7479719],[3.0809925,36.7480233],[3.0810792,36.7481589],[3.0814033,36.7487035],[3.0814126,36.7487353],[3.0813963,36.7487746],[3.0813729,36.748812],[3.0812994,36.7488816]]}";24;Chemin Fernane Hannafi;1;50;false;true;true;false;false;false;426.0;0;1;0;0;0;false;Saïd Hamdine;958556420;3.0384684;36.7336263;Les Ateliers;3009229269;3.0663331;36.7565028;0;9;10;8408345;Bus: Sidi Abd Allah -> Station 2 Mai;blue;ETUSA;732;Sidi Abd Allah;Station 2 Mai
567909710;"{\"type\":\"LineString\",\"coordinates\":[[3.0812994,36.7488816],[3.0803013,36.7492675],[3.0801391,36.7493302]]}";25;Rue Hassiba Benbouali;2;40;false;true;true;false;false;false;117.0;0;1;0;0;0;false;Saïd Hamdine;958556420;3.0384684;36.7336263;Les Ateliers;3009229269;3.0663331;36.7565028;0;9;10;8408345;Bus: Sidi Abd Allah -> Station 2 Mai;blue;ETUSA;732;Sidi Abd Allah;Station 2 Mai
28511607;"{\"type\":\"LineString\",\"coordinates\":[[3.0801391,36.7493302],[3.0797852,36.7494578],[3.0796594,36.7495031],[3.0796212,36.7495187],[3.0794978,36.7495875],[3.079412,36.7496606],[3.0792886,36.7497723],[3.0791974,36.7499442],[3.079125,36.7501607]]}";26;"";1;30;false;true;true;false;false;false;140.0;0;1;0;0;0;false;Saïd Hamdine;958556420;3.0384684;36.7336263;Les Ateliers;3009229269;3.0663331;36.7565028;0;9;10;8408345;Bus: Sidi Abd Allah -> Station 2 Mai;blue;ETUSA;732;Sidi Abd Allah;Station 2 Mai
150259702;"{\"type\":\"LineString\",\"coordinates\":[[3.079125,36.7501607],[3.0787193,36.7510767],[3.0786221,36.7512271],[3.0785108,36.7513498],[3.0783498,36.7514572],[3.0782576,36.7514926],[3.0781162,36.7515298],[3.0779285,36.7515652],[3.0775043,36.7516112],[3.0770228,36.7516802],[3.0765555,36.751751]]}";27;"";1;40;false;true;true;false;false;false;331.0;0;0;0;0;0;false;Saïd Hamdine;958556420;3.0384684;36.7336263;Les Ateliers;3009229269;3.0663331;36.7565028;0;9;10;8408345;Bus: Sidi Abd Allah -> Station 2 Mai;blue;ETUSA;732;Sidi Abd Allah;Station 2 Mai
374417228;"{\"type\":\"LineString\",\"coordinates\":[[3.0765555,36.751751],[3.0757998,36.752004],[3.0757249,36.7520358],[3.0741613,36.752674],[3.0706242,36.7542951],[3.0689992,36.7550347],[3.0673927,36.7557241],[3.0669826,36.7559401],[3.0666406,36.7561754],[3.0662768,36.7564333],[3.0661018,36.7565631]]}";28;Avenue de l'ALN;3;80;false;true;true;false;false;false;546.5;0;0;0;0;0;false;Saïd Hamdine;958556420;3.0384684;36.7336263;Les Ateliers;3009229269;3.0663331;36.7565028;1;9;10;8408345;Bus: Sidi Abd Allah -> Station 2 Mai;blue;ETUSA;732;Sidi Abd Allah;Station 2 Mai
