way_id;shape;index;name;nb_lanes;legal_speed;speed_zone_30;oneway;shares_bike;bike_box;bus_lane;dedicated_bus_lane;length;nb_traffic_signals;nb_crossings;nb_stops;nb_give_ways;nb_lvl_crossings;roundabout;stop_id_orig;node_id_orig;coord_x_orig;coord_y_orig;stop_id_dest;node_id_dest;coord_x_dest;coord_y_dest;nb_neighbouring_ways_bus_stop;ordre_orig;ordre_dest;id_line;line_name;colour;operator;ref;from;to
453523021;"{\"type\":\"LineString\",\"coordinates\":[[-70.5476602,-33.3892331],[-70.5480094,-33.3893823],[-70.548209,-33.3894694],[-70.5482702,-33.3894965]]}";1;Avenida Presidente Kennedy;2;60;false;true;true;false;false;false;160.0;1;1;0;0;0;false;Padre Hurtado / Presidente Kennedy;1175604599;-70.5476591;-33.3891747;Puerto Rico / Padre Hurtado Norte;1175333793;-70.5489981;-33.387696;1;0;1;6712355;Hacia (M) Escuela Militar;#ED1C24;Redbus Urbano S.A.;C11;Tabancura;(M) Escuela Militar
453523022;"{\"type\":\"LineString\",\"coordinates\":[[-70.5482702,-33.3894965],[-70.5482921,-33.3894492],[-70.548866,-33.3882383]]}";2;Avenida Padre Hurtado Norte;3;50;false;true;true;false;false;false;376.0;1;1;0;0;0;false;Padre Hurtado / Presidente Kennedy;1175604599;-70.5476591;-33.3891747;Puerto Rico / Padre Hurtado Norte;1175333793;-70.5489981;-33.387696;0;0;1;6712355;Hacia (M) Escuela Militar;#ED1C24;Redbus Urbano S.A.;C11;Tabancura;(M) Escuela Militar
276585518;"{\"type\":\"LineString\",\"coordinates\":[[-70.548866,-33.3882383],[-70.5491765,-33.3876099],[-70.5491994,-33.3875503],[-70.5493036,-33.3873374],[-70.5497705,-33.3864031],[-70.5498237,-33.3862929],[-70.5498493,-33.3862392]]}";3;Avenida Padre Hurtado Norte;3;50;false;true;true;false;false;false;300.0;2;2;0;0;0;false;Padre Hurtado / Presidente Kennedy;1175604599;-70.5476591;-33.3891747;Puerto Rico / Padre Hurtado Norte;1175333793;-70.5489981;-33.387696;1;0;1;6712355;Hacia (M) Escuela Militar;#ED1C24;Redbus Urbano S.A.;C11;Tabancura;(M) Escuela Militar
276585518;"{\"type\":\"LineString\",\"coordinates\":[[-70.548866,-33.3882383],[-70.5491765,-33.3876099],[-70.5491994,-33.3875503],[-70.5493036,-33.3873374],[-70.5497705,-33.3864031],[-70.5498237,-33.3862929],[-70.5498493,-33.3862392]]}";1;Avenida Padre Hurtado Norte;3;50;false;true;true;false;false;false;300.0;2;2;0;0;0;false;Puerto Rico / Padre Hurtado Norte;1175333793;-70.5489981;-33.387696;Las Tranqueras / Las Hualtatas;1175334486;-70.5526512;-33.3873665;1;1;2;6712355;Hacia (M) Escuela Militar;#ED1C24;Redbus Urbano S.A.;C11;Tabancura;(M) Escuela Militar
449230465;"{\"type\":\"LineString\",\"coordinates\":[[-70.5499509,-33.3862825],[-70.5498493,-33.3862392]]}";2;Las Hualtatas;3;40;false;false;true;false;false;false;27.0;2;0;0;0;0;false;Puerto Rico / Padre Hurtado Norte;1175333793;-70.5489981;-33.387696;Las Tranqueras / Las Hualtatas;1175334486;-70.5526512;-33.3873665;0;1;2;6712355;Hacia (M) Escuela Militar;#ED1C24;Redbus Urbano S.A.;C11;Tabancura;(M) Escuela Militar
551373391;"{\"type\":\"LineString\",\"coordinates\":[[-70.5505511,-33.3865367],[-70.5500483,-33.3863224],[-70.5499509,-33.3862825]]}";3;Las Hualtatas;3;40;false;false;true;false;false;false;157.0;1;1;0;0;0;false;Puerto Rico / Padre Hurtado Norte;1175333793;-70.5489981;-33.387696;Las Tranqueras / Las Hualtatas;1175334486;-70.5526512;-33.3873665;0;1;2;6712355;Hacia (M) Escuela Militar;#ED1C24;Redbus Urbano S.A.;C11;Tabancura;(M) Escuela Militar
239369889;"{\"type\":\"LineString\",\"coordinates\":[[-70.5528844,-33.3875],[-70.5518887,-33.3870976],[-70.5515801,-33.3869691],[-70.5515073,-33.3869385],[-70.5505511,-33.3865367]]}";4;Las Hualtatas;2;40;false;false;true;false;false;false;302.5;1;0;0;0;0;false;Puerto Rico / Padre Hurtado Norte;1175333793;-70.5489981;-33.387696;Las Tranqueras / Las Hualtatas;1175334486;-70.5526512;-33.3873665;1;1;2;6712355;Hacia (M) Escuela Militar;#ED1C24;Redbus Urbano S.A.;C11;Tabancura;(M) Escuela Militar
239369889;"{\"type\":\"LineString\",\"coordinates\":[[-70.5528844,-33.3875],[-70.5518887,-33.3870976],[-70.5515801,-33.3869691],[-70.5515073,-33.3869385],[-70.5505511,-33.3865367]]}";1;Las Hualtatas;2;40;false;false;true;false;false;false;302.5;1;0;0;0;0;false;Las Tranqueras / Las Hualtatas;1175334486;-70.5526512;-33.3873665;Indiana / Las Hualtatas;1175334463;-70.5555664;-33.3885388;1;2;3;6712355;Hacia (M) Escuela Militar;#ED1C24;Redbus Urbano S.A.;C11;Tabancura;(M) Escuela Militar
239369890;"{\"type\":\"LineString\",\"coordinates\":[[-70.5592528,-33.3900862],[-70.5591355,-33.390037],[-70.5589585,-33.3899629],[-70.5589467,-33.3899584],[-70.558641,-33.389833],[-70.5577761,-33.389484],[-70.5572003,-33.3892502],[-70.5564569,-33.3889497],[-70.5557875,-33.388689],[-70.5541528,-33.3880347],[-70.5534762,-33.3877578],[-70.5528844,-33.3875]]}";2;Las Hualtatas;2;40;false;false;true;false;false;false;823.0;2;1;0;0;0;false;Las Tranqueras / Las Hualtatas;1175334486;-70.5526512;-33.3873665;Indiana / Las Hualtatas;1175334463;-70.5555664;-33.3885388;1;2;3;6712355;Hacia (M) Escuela Militar;#ED1C24;Redbus Urbano S.A.;C11;Tabancura;(M) Escuela Militar
239369890;"{\"type\":\"LineString\",\"coordinates\":[[-70.5592528,-33.3900862],[-70.5591355,-33.390037],[-70.5589585,-33.3899629],[-70.5589467,-33.3899584],[-70.558641,-33.389833],[-70.5577761,-33.389484],[-70.5572003,-33.3892502],[-70.5564569,-33.3889497],[-70.5557875,-33.388689],[-70.5541528,-33.3880347],[-70.5534762,-33.3877578],[-70.5528844,-33.3875]]}";1;Las Hualtatas;2;40;false;false;true;false;false;false;823.0;2;1;0;0;0;false;Tobago / Las Hualtatas;1175334458;-70.558439;-33.3897;G. de Alderete / Las Hualtatas;1175334436;-70.5627742;-33.3914561;1;4;5;6712355;Hacia (M) Escuela Militar;#ED1C24;Redbus Urbano S.A.;C11;Tabancura;(M) Escuela Militar
453529029;"{\"type\":\"LineString\",\"coordinates\":[[-70.5629959,-33.3915776],[-70.5629141,-33.3915578],[-70.5623891,-33.3913997],[-70.5622585,-33.3913619],[-70.5617094,-33.3911868],[-70.5614591,-33.3911026],[-70.5612773,-33.3910363],[-70.5608305,-33.3908709],[-70.5605879,-33.3907804],[-70.5603683,-33.3906697],[-70.5601085,-33.3904895],[-70.5599435,-33.3903847],[-70.5597491,-33.3902899],[-70.5593192,-33.3901122],[-70.5592528,-33.3900862]]}";2;Las Hualtatas;2;40;false;false;true;false;false;false;485.0;2;1;0;0;0;false;Tobago / Las Hualtatas;1175334458;-70.558439;-33.3897;G. de Alderete / Las Hualtatas;1175334436;-70.5627742;-33.3914561;1;4;5;6712355;Hacia (M) Escuela Militar;#ED1C24;Redbus Urbano S.A.;C11;Tabancura;(M) Escuela Militar
453529029;"{\"type\":\"LineString\",\"coordinates\":[[-70.5629959,-33.3915776],[-70.5629141,-33.3915578],[-70.5623891,-33.3913997],[-70.5622585,-33.3913619],[-70.5617094,-33.3911868],[-70.5614591,-33.3911026],[-70.5612773,-33.3910363],[-70.5608305,-33.3908709],[-70.5605879,-33.3907804],[-70.5603683,-33.3906697],[-70.5601085,-33.3904895],[-70.5599435,-33.3903847],[-70.5597491,-33.3902899],[-70.5593192,-33.3901122],[-70.5592528,-33.3900862]]}";1;Las Hualtatas;2;40;false;false;true;false;false;false;485.0;2;1;0;0;0;false;G. de Alderete / Las Hualtatas;1175334436;-70.5627742;-33.3914561;Rafael Maluenda / Las Hualtatas;1175334411;-70.5698819;-33.3935632;1;5;6;6712355;Hacia (M) Escuela Militar;#ED1C24;Redbus Urbano S.A.;C11;Tabancura;(M) Escuela Militar
22372328;"{\"type\":\"LineString\",\"coordinates\":[[-70.5701216,-33.3937593],[-70.5691738,-33.3933128],[-70.5690755,-33.393268],[-70.5689154,-33.3931948],[-70.5687437,-33.3931168],[-70.5686349,-33.3930804],[-70.5684961,-33.393043],[-70.5682251,-33.392981],[-70.568014,-33.3929338],[-70.5675036,-33.3928239],[-70.5668893,-33.3926895],[-70.5654446,-33.3923209],[-70.5653769,-33.3922994],[-70.5642361,-33.3919523],[-70.5630857,-33.3916055],[-70.5629959,-33.3915776]]}";2;Las Hualtatas;2;40;false;false;true;false;false;false;886.0;2;3;0;0;0;false;G. de Alderete / Las Hualtatas;1175334436;-70.5627742;-33.3914561;Rafael Maluenda / Las Hualtatas;1175334411;-70.5698819;-33.3935632;1;5;6;6712355;Hacia (M) Escuela Militar;#ED1C24;Redbus Urbano S.A.;C11;Tabancura;(M) Escuela Militar
22372328;"{\"type\":\"LineString\",\"coordinates\":[[-70.5701216,-33.3937593],[-70.5691738,-33.3933128],[-70.5690755,-33.393268],[-70.5689154,-33.3931948],[-70.5687437,-33.3931168],[-70.5686349,-33.3930804],[-70.5684961,-33.393043],[-70.5682251,-33.392981],[-70.568014,-33.3929338],[-70.5675036,-33.3928239],[-70.5668893,-33.3926895],[-70.5654446,-33.3923209],[-70.5653769,-33.3922994],[-70.5642361,-33.3919523],[-70.5630857,-33.3916055],[-70.5629959,-33.3915776]]}";1;Las Hualtatas;2;40;false;false;true;false;false;false;886.0;2;3;0;0;0;false;Walter Scott / Las Hualtatas;1175334419;-70.5652215;-33.3921791;Cerro Arenales / Cerro Colorado;1175353405;-70.5708644;-33.4005976;1;7;8;6712355;Hacia (M) Escuela Militar;#ED1C24;Redbus Urbano S.A.;C11;Tabancura;(M) Escuela Militar
235716836;"{\"type\":\"LineString\",\"coordinates\":[[-70.5701216,-33.3937593],[-70.5708792,-33.3941069],[-70.5719938,-33.3946275]]}";2;Las Hualtatas;2;40;false;false;true;false;false;false;498.0;1;0;0;0;0;false;Walter Scott / Las Hualtatas;1175334419;-70.5652215;-33.3921791;Cerro Arenales / Cerro Colorado;1175353405;-70.5708644;-33.4005976;0;7;8;6712355;Hacia (M) Escuela Militar;#ED1C24;Redbus Urbano S.A.;C11;Tabancura;(M) Escuela Militar
453518292;"{\"type\":\"LineString\",\"coordinates\":[[-70.5719938,-33.3946275],[-70.5721561,-33.3947129]]}";3;Las Hualtatas;2;40;false;false;true;false;false;false;45.0;2;0;0;0;0;false;Walter Scott / Las Hualtatas;1175334419;-70.5652215;-33.3921791;Cerro Arenales / Cerro Colorado;1175353405;-70.5708644;-33.4005976;0;7;8;6712355;Hacia (M) Escuela Militar;#ED1C24;Redbus Urbano S.A.;C11;Tabancura;(M) Escuela Militar
453529031;"{\"type\":\"LineString\",\"coordinates\":[[-70.5721561,-33.3947129],[-70.5719126,-33.3956774],[-70.5718473,-33.3959634],[-70.5717031,-33.3964963],[-70.5716219,-33.3968248],[-70.5714476,-33.3975023]]}";4;Avenida Manquehue Norte;3;50;false;true;true;false;false;false;792.0;1;0;0;0;0;false;Walter Scott / Las Hualtatas;1175334419;-70.5652215;-33.3921791;Cerro Arenales / Cerro Colorado;1175353405;-70.5708644;-33.4005976;0;7;8;6712355;Hacia (M) Escuela Militar;#ED1C24;Redbus Urbano S.A.;C11;Tabancura;(M) Escuela Militar
238386666;"{\"type\":\"LineString\",\"coordinates\":[[-70.5714476,-33.3975023],[-70.5713982,-33.3976656]]}";5;Avenida Manquehue Norte;4;50;false;true;true;false;false;false;47.0;0;0;0;0;0;false;Walter Scott / Las Hualtatas;1175334419;-70.5652215;-33.3921791;Cerro Arenales / Cerro Colorado;1175353405;-70.5708644;-33.4005976;0;7;8;6712355;Hacia (M) Escuela Militar;#ED1C24;Redbus Urbano S.A.;C11;Tabancura;(M) Escuela Militar
23365235;"{\"type\":\"LineString\",\"coordinates\":[[-70.5713982,-33.3976656],[-70.5712702,-33.398082],[-70.5711025,-33.3984917]]}";6;Avenida Manquehue;4;50;false;true;true;false;false;false;240.0;0;0;0;0;0;false;Walter Scott / Las Hualtatas;1175334419;-70.5652215;-33.3921791;Cerro Arenales / Cerro Colorado;1175353405;-70.5708644;-33.4005976;0;7;8;6712355;Hacia (M) Escuela Militar;#ED1C24;Redbus Urbano S.A.;C11;Tabancura;(M) Escuela Militar
238386669;"{\"type\":\"LineString\",\"coordinates\":[[-70.5711025,-33.3984917],[-70.5709258,-33.3989269],[-70.5707824,-33.3993126],[-70.5706511,-33.3996848]]}";7;Avenida Manquehue;3;50;false;true;true;false;false;false;348.0;0;0;0;0;0;false;Walter Scott / Las Hualtatas;1175334419;-70.5652215;-33.3921791;Cerro Arenales / Cerro Colorado;1175353405;-70.5708644;-33.4005976;0;7;8;6712355;Hacia (M) Escuela Militar;#ED1C24;Redbus Urbano S.A.;C11;Tabancura;(M) Escuela Militar
273065300;"{\"type\":\"LineString\",\"coordinates\":[[-70.5706511,-33.3996848],[-70.5703742,-33.4005257]]}";8;Avenida Manquehue;4;50;false;true;true;false;false;false;242.0;0;0;0;0;0;false;Walter Scott / Las Hualtatas;1175334419;-70.5652215;-33.3921791;Cerro Arenales / Cerro Colorado;1175353405;-70.5708644;-33.4005976;0;7;8;6712355;Hacia (M) Escuela Militar;#ED1C24;Redbus Urbano S.A.;C11;Tabancura;(M) Escuela Militar
22348062;"{\"type\":\"LineString\",\"coordinates\":[[-70.5703742,-33.4005257],[-70.5704621,-33.4005482],[-70.5705287,-33.4005629]]}";9;Cerro Colorado;2;50;false;true;true;false;false;false;38.0;0;1;0;0;0;false;Walter Scott / Las Hualtatas;1175334419;-70.5652215;-33.3921791;Cerro Arenales / Cerro Colorado;1175353405;-70.5708644;-33.4005976;0;7;8;6712355;Hacia (M) Escuela Militar;#ED1C24;Redbus Urbano S.A.;C11;Tabancura;(M) Escuela Militar
272623041;"{\"type\":\"LineString\",\"coordinates\":[[-70.5705287,-33.4005629],[-70.5707785,-33.4006076],[-70.5711403,-33.4006778],[-70.5723551,-33.4009713],[-70.5726431,-33.4010807],[-70.5730637,-33.4012522],[-70.5732103,-33.4013169],[-70.5735634,-33.4014684],[-70.5740708,-33.4016674],[-70.5746021,-33.4019002],[-70.574885,-33.4020196]]}";10;Cerro Colorado;3;50;false;true;true;false;false;false;548.5;0;0;0;0;0;false;Walter Scott / Las Hualtatas;1175334419;-70.5652215;-33.3921791;Cerro Arenales / Cerro Colorado;1175353405;-70.5708644;-33.4005976;1;7;8;6712355;Hacia (M) Escuela Militar;#ED1C24;Redbus Urbano S.A.;C11;Tabancura;(M) Escuela Militar
272623041;"{\"type\":\"LineString\",\"coordinates\":[[-70.5705287,-33.4005629],[-70.5707785,-33.4006076],[-70.5711403,-33.4006778],[-70.5723551,-33.4009713],[-70.5726431,-33.4010807],[-70.5730637,-33.4012522],[-70.5732103,-33.4013169],[-70.5735634,-33.4014684],[-70.5740708,-33.4016674],[-70.5746021,-33.4019002],[-70.574885,-33.4020196]]}";1;Cerro Colorado;3;50;false;true;true;false;false;false;548.5;0;0;0;0;0;false;Rosario Norte / Cerro Colorado;1175353347;-70.5744805;-33.4017818;Alonso de Cordova / Cerro Colorado;1175353311;-70.5778288;-33.4031749;1;9;10;6712355;Hacia (M) Escuela Militar;#ED1C24;Redbus Urbano S.A.;C11;Tabancura;(M) Escuela Militar
272623059;"{\"type\":\"LineString\",\"coordinates\":[[-70.574885,-33.4020196],[-70.5754899,-33.4022617]]}";2;Cerro Colorado;3;50;false;true;true;false;false;false;156.0;1;0;0;0;0;false;Rosario Norte / Cerro Colorado;1175353347;-70.5744805;-33.4017818;Alonso de Cordova / Cerro Colorado;1175353311;-70.5778288;-33.4031749;0;9;10;6712355;Hacia (M) Escuela Militar;#ED1C24;Redbus Urbano S.A.;C11;Tabancura;(M) Escuela Militar
272623029;"{\"type\":\"LineString\",\"coordinates\":[[-70.5754899,-33.4022617],[-70.5755478,-33.4022842],[-70.5755966,-33.4023054]]}";3;Cerro Colorado;2;50;false;true;true;false;false;false;28.0;2;1;0;0;0;false;Rosario Norte / Cerro Colorado;1175353347;-70.5744805;-33.4017818;Alonso de Cordova / Cerro Colorado;1175353311;-70.5778288;-33.4031749;0;9;10;6712355;Hacia (M) Escuela Militar;#ED1C24;Redbus Urbano S.A.;C11;Tabancura;(M) Escuela Militar
272623070;"{\"type\":\"LineString\",\"coordinates\":[[-70.5755966,-33.4023054],[-70.5789224,-33.4036912],[-70.5790224,-33.4037346],[-70.5791049,-33.4037689],[-70.5795811,-33.4039775],[-70.5796529,-33.4040066],[-70.580028,-33.4041581],[-70.5811425,-33.4046115],[-70.5812021,-33.4046352],[-70.5813704,-33.4047031],[-70.5816395,-33.4048655]]}";4;Cerro Colorado;3;50;false;true;true;false;false;false;788.5;2;0;0;0;0;false;Rosario Norte / Cerro Colorado;1175353347;-70.5744805;-33.4017818;Alonso de Cordova / Cerro Colorado;1175353311;-70.5778288;-33.4031749;1;9;10;6712355;Hacia (M) Escuela Militar;#ED1C24;Redbus Urbano S.A.;C11;Tabancura;(M) Escuela Militar
272623070;"{\"type\":\"LineString\",\"coordinates\":[[-70.5755966,-33.4023054],[-70.5789224,-33.4036912],[-70.5790224,-33.4037346],[-70.5791049,-33.4037689],[-70.5795811,-33.4039775],[-70.5796529,-33.4040066],[-70.580028,-33.4041581],[-70.5811425,-33.4046115],[-70.5812021,-33.4046352],[-70.5813704,-33.4047031],[-70.5816395,-33.4048655]]}";1;Cerro Colorado;3;50;false;true;true;false;false;false;788.5;2;0;0;0;0;false;Alonso de Cordova / Cerro Colorado;1175353301;-70.5814078;-33.4046778;Vespucio / Cerro Colorado;1175353422;-70.5858986;-33.4067146;1;11;12;6712355;Hacia (M) Escuela Militar;#ED1C24;Redbus Urbano S.A.;C11;Tabancura;(M) Escuela Militar
272623031;"{\"type\":\"LineString\",\"coordinates\":[[-70.5816395,-33.4048655],[-70.5816843,-33.4049174],[-70.5817634,-33.4050093],[-70.5818957,-33.4051265]]}";2;Cerro Colorado;3;50;false;true;true;false;false;false;94.0;2;0;0;0;0;false;Alonso de Cordova / Cerro Colorado;1175353301;-70.5814078;-33.4046778;Vespucio / Cerro Colorado;1175353422;-70.5858986;-33.4067146;0;11;12;6712355;Hacia (M) Escuela Militar;#ED1C24;Redbus Urbano S.A.;C11;Tabancura;(M) Escuela Militar
272623054;"{\"type\":\"LineString\",\"coordinates\":[[-70.5818957,-33.4051265],[-70.5819735,-33.4051776],[-70.582081,-33.405245],[-70.5821141,-33.4052635],[-70.5821515,-33.4052814],[-70.5836454,-33.405898],[-70.5838929,-33.4060087],[-70.5846863,-33.4063227],[-70.5858091,-33.4067972]]}";3;Cerro Colorado;2;50;false;true;true;false;false;false;1023.0;1;1;0;0;0;false;Alonso de Cordova / Cerro Colorado;1175353301;-70.5814078;-33.4046778;Vespucio / Cerro Colorado;1175353422;-70.5858986;-33.4067146;0;11;12;6712355;Hacia (M) Escuela Militar;#ED1C24;Redbus Urbano S.A.;C11;Tabancura;(M) Escuela Militar
272623046;"{\"type\":\"LineString\",\"coordinates\":[[-70.5858091,-33.4067972],[-70.5859298,-33.4068409],[-70.5860397,-33.4068779],[-70.586151,-33.4069014],[-70.5862583,-33.4069126],[-70.5863509,-33.4069103],[-70.5864608,-33.406889],[-70.5866363,-33.4068433],[-70.5866955,-33.4068219],[-70.5870755,-33.4066891],[-70.5870938,-33.4066831]]}";4;Cerro Colorado;2;50;false;true;true;false;false;false;158.0;2;2;0;0;0;false;Alonso de Cordova / Cerro Colorado;1175353301;-70.5814078;-33.4046778;Vespucio / Cerro Colorado;1175353422;-70.5858986;-33.4067146;1;11;12;6712355;Hacia (M) Escuela Militar;#ED1C24;Redbus Urbano S.A.;C11;Tabancura;(M) Escuela Militar
272623046;"{\"type\":\"LineString\",\"coordinates\":[[-70.5858091,-33.4067972],[-70.5859298,-33.4068409],[-70.5860397,-33.4068779],[-70.586151,-33.4069014],[-70.5862583,-33.4069126],[-70.5863509,-33.4069103],[-70.5864608,-33.406889],[-70.5866363,-33.4068433],[-70.5866955,-33.4068219],[-70.5870755,-33.4066891],[-70.5870938,-33.4066831]]}";1;Cerro Colorado;2;50;false;true;true;false;false;false;158.0;2;2;0;0;0;false;Vespucio / Cerro Colorado;1175353422;-70.5858986;-33.4067146;Presidente Riesco / Vespucio;1175605667;-70.5868586;-33.4103398;1;12;13;6712355;Hacia (M) Escuela Militar;#ED1C24;Redbus Urbano S.A.;C11;Tabancura;(M) Escuela Militar
453529032;"{\"type\":\"LineString\",\"coordinates\":[[-70.5870938,-33.4066831],[-70.5872816,-33.4070144]]}";2;Avenida Américo Vespucio Norte;3;50;false;true;true;false;false;false;102.0;1;0;0;0;0;false;Vespucio / Cerro Colorado;1175353422;-70.5858986;-33.4067146;Presidente Riesco / Vespucio;1175605667;-70.5868586;-33.4103398;0;12;13;6712355;Hacia (M) Escuela Militar;#ED1C24;Redbus Urbano S.A.;C11;Tabancura;(M) Escuela Militar
542292403;"{\"type\":\"LineString\",\"coordinates\":[[-70.5872816,-33.4070144],[-70.5874592,-33.4074726],[-70.5875444,-33.4078886],[-70.5875616,-33.4083023],[-70.5875624,-33.4083222],[-70.5875466,-33.4084682],[-70.5874589,-33.4087987],[-70.5873651,-33.4090394],[-70.5871883,-33.4094427],[-70.5867128,-33.4104589],[-70.5866727,-33.4105259]]}";3;Avenida Américo Vespucio Norte;3;50;false;true;true;false;false;false;509.5;1;1;0;0;0;false;Vespucio / Cerro Colorado;1175353422;-70.5858986;-33.4067146;Presidente Riesco / Vespucio;1175605667;-70.5868586;-33.4103398;1;12;13;6712355;Hacia (M) Escuela Militar;#ED1C24;Redbus Urbano S.A.;C11;Tabancura;(M) Escuela Militar
542292403;"{\"type\":\"LineString\",\"coordinates\":[[-70.5872816,-33.4070144],[-70.5874592,-33.4074726],[-70.5875444,-33.4078886],[-70.5875616,-33.4083023],[-70.5875624,-33.4083222],[-70.5875466,-33.4084682],[-70.5874589,-33.4087987],[-70.5873651,-33.4090394],[-70.5871883,-33.4094427],[-70.5867128,-33.4104589],[-70.5866727,-33.4105259]]}";1;Avenida Américo Vespucio Norte;3;50;false;true;true;false;false;false;509.5;1;1;0;0;0;false;Presidente Riesco / Vespucio;1175605667;-70.5868586;-33.4103398;Hamlet / Vespucio;1175605690;-70.5862458;-33.4116179;1;13;14;6712355;Hacia (M) Escuela Militar;#ED1C24;Redbus Urbano S.A.;C11;Tabancura;(M) Escuela Militar
445808892;"{\"type\":\"LineString\",\"coordinates\":[[-70.5866727,-33.4105259],[-70.5866343,-33.4105967],[-70.5863577,-33.4112129],[-70.5863265,-33.4112817],[-70.5860785,-33.4117766],[-70.5860322,-33.4118779],[-70.5857103,-33.4125393],[-70.5856773,-33.4126049]]}";2;Avenida Américo Vespucio Norte;3;50;false;true;true;false;false;false;311.0;1;1;0;0;0;false;Presidente Riesco / Vespucio;1175605667;-70.5868586;-33.4103398;Hamlet / Vespucio;1175605690;-70.5862458;-33.4116179;1;13;14;6712355;Hacia (M) Escuela Militar;#ED1C24;Redbus Urbano S.A.;C11;Tabancura;(M) Escuela Militar
445808892;"{\"type\":\"LineString\",\"coordinates\":[[-70.5866727,-33.4105259],[-70.5866343,-33.4105967],[-70.5863577,-33.4112129],[-70.5863265,-33.4112817],[-70.5860785,-33.4117766],[-70.5860322,-33.4118779],[-70.5857103,-33.4125393],[-70.5856773,-33.4126049]]}";1;Avenida Américo Vespucio Norte;3;50;false;true;true;false;false;false;311.0;1;1;0;0;0;false;Hamlet / Vespucio;1175605690;-70.5862458;-33.4116179;Parada 7 / (M) Escuela Militar;1175278613;-70.5850856;-33.4140512;1;14;15;6712355;Hacia (M) Escuela Militar;#ED1C24;Redbus Urbano S.A.;C11;Tabancura;(M) Escuela Militar
22341601;"{\"type\":\"LineString\",\"coordinates\":[[-70.5856773,-33.4126049],[-70.5854586,-33.4131342],[-70.5853241,-33.4133948]]}";2;Avenida Américo Vespucio Norte;1;50;false;true;true;false;false;false;235.0;0;0;0;0;0;false;Hamlet / Vespucio;1175605690;-70.5862458;-33.4116179;Parada 7 / (M) Escuela Militar;1175278613;-70.5850856;-33.4140512;0;14;15;6712355;Hacia (M) Escuela Militar;#ED1C24;Redbus Urbano S.A.;C11;Tabancura;(M) Escuela Militar
170692569;"{\"type\":\"LineString\",\"coordinates\":[[-70.5853241,-33.4133948],[-70.5852376,-33.4136141],[-70.5851845,-33.4137418]]}";3;Avenida Américo Vespucio Norte;1;50;false;true;true;false;false;false;102.0;0;0;0;0;0;false;Hamlet / Vespucio;1175605690;-70.5862458;-33.4116179;Parada 7 / (M) Escuela Militar;1175278613;-70.5850856;-33.4140512;0;14;15;6712355;Hacia (M) Escuela Militar;#ED1C24;Redbus Urbano S.A.;C11;Tabancura;(M) Escuela Militar
445808891;"{\"type\":\"LineString\",\"coordinates\":[[-70.5851845,-33.4137418],[-70.585142,-33.4138474]]}";4;Avenida Américo Vespucio;1;50;false;true;true;false;false;false;31.0;0;0;0;0;0;false;Hamlet / Vespucio;1175605690;-70.5862458;-33.4116179;Parada 7 / (M) Escuela Militar;1175278613;-70.5850856;-33.4140512;0;14;15;6712355;Hacia (M) Escuela Militar;#ED1C24;Redbus Urbano S.A.;C11;Tabancura;(M) Escuela Militar
272626375;"{\"type\":\"LineString\",\"coordinates\":[[-70.585142,-33.4138474],[-70.5850861,-33.41396]]}";5;Avenida Américo Vespucio;2;50;false;true;true;false;false;false;34.0;0;0;0;0;0;false;Hamlet / Vespucio;1175605690;-70.5862458;-33.4116179;Parada 7 / (M) Escuela Militar;1175278613;-70.5850856;-33.4140512;0;14;15;6712355;Hacia (M) Escuela Militar;#ED1C24;Redbus Urbano S.A.;C11;Tabancura;(M) Escuela Militar
239949266;"{\"type\":\"LineString\",\"coordinates\":[[-70.5850861,-33.41396],[-70.5850469,-33.4140405]]}";6;Avenida Américo Vespucio;2;50;false;true;true;false;false;false;25.0;0;0;0;0;0;false;Hamlet / Vespucio;1175605690;-70.5862458;-33.4116179;Parada 7 / (M) Escuela Militar;1175278613;-70.5850856;-33.4140512;1;14;15;6712355;Hacia (M) Escuela Militar;#ED1C24;Redbus Urbano S.A.;C11;Tabancura;(M) Escuela Militar
