way_id;shape;index;name;nb_lanes;legal_speed;speed_zone_30;oneway;shares_bike;bike_box;bus_lane;dedicated_bus_lane;length;nb_traffic_signals;nb_crossings;nb_stops;nb_give_ways;nb_lvl_crossings;roundabout;stop_id_orig;node_id_orig;coord_x_orig;coord_y_orig;stop_id_dest;node_id_dest;coord_x_dest;coord_y_dest;nb_neighbouring_ways_bus_stop;ordre_orig;ordre_dest;id_line;line_name;colour;operator;ref;from;to
478281166;"{\"type\":\"LineString\",\"coordinates\":[[-73.3496141,45.5783122],[-73.3499585,45.5782676],[-73.3508311,45.5781481],[-73.3519836,45.5779902],[-73.353116,45.5778364],[-73.3542631,45.577659],[-73.3546572,45.5776052],[-73.3548847,45.5775746],[-73.3549651,45.5775655],[-73.3550249,45.5775633],[-73.3550862,45.5775681]]}";1;Boulevard Armand-Frappier;1;50;false;true;true;false;false;false;435.0;0;0;0;0;0;false;71426;6184471255;-73.351945;45.578027;71427;6184471254;-73.356585;45.578481;1;6;7;9530769;Bus 3 : Direction Principale;"";EXO;3;Terminus Sainte-Julie;Terminus Sainte-Julie
478281167;"{\"type\":\"LineString\",\"coordinates\":[[-73.3550862,45.5775681],[-73.3551355,45.5775759],[-73.3551924,45.5775916],[-73.3552499,45.5776159],[-73.355307,45.5776456],[-73.3554315,45.5777185],[-73.3559448,45.578027],[-73.3565721,45.5783947],[-73.3566961,45.5784719],[-73.3574008,45.5788897],[-73.3575656,45.5790013],[-73.358251,45.5794196],[-73.3583279,45.5794637]]}";2;Boulevard Armand-Frappier;1;50;false;true;true;false;false;false;165.0;0;1;0;0;0;false;71426;6184471255;-73.351945;45.578027;71427;6184471254;-73.356585;45.578481;1;6;7;9530769;Bus 3 : Direction Principale;"";EXO;3;Terminus Sainte-Julie;Terminus Sainte-Julie
