way_id;shape;index;name;nb_lanes;legal_speed;speed_zone_30;oneway;shares_bike;bike_box;bus_lane;dedicated_bus_lane;length;nb_traffic_signals;nb_crossings;nb_stops;nb_give_ways;nb_lvl_crossings;roundabout;stop_id_orig;node_id_orig;coord_x_orig;coord_y_orig;stop_id_dest;node_id_dest;coord_x_dest;coord_y_dest;nb_neighbouring_ways_bus_stop;ordre_orig;ordre_dest;id_line;line_name;colour;operator;ref;from;to
329445487;"{\"type\":\"LineString\",\"coordinates\":[[-73.7540088,45.6008782],[-73.7540669,45.6009297],[-73.7541423,45.6010291],[-73.7541945,45.6011393],[-73.7542301,45.6012353]]}";1;Boulevard Industriel;1;50;false;false;true;false;false;false;44.0;0;0;0;0;0;false;46421;6269508288;-73.7544;45.601201;46069;6269508316;-73.75299;45.599861;1;0;1;9312780;Bus : 37 S - Direction Métro Cartier;"";STL;37S;Industriel / Face Au 4184;Métro Cartier Quai:2
679942265;"{\"type\":\"LineString\",\"coordinates\":[[-73.7520701,45.599162],[-73.7540088,45.6008782]]}";2;Boulevard Industriel;1;50;false;false;true;false;false;false;122.0;0;0;0;0;0;false;46421;6269508288;-73.7544;45.601201;46069;6269508316;-73.75299;45.599861;1;0;1;9312780;Bus : 37 S - Direction Métro Cartier;"";STL;37S;Industriel / Face Au 4184;Métro Cartier Quai:2
679942265;"{\"type\":\"LineString\",\"coordinates\":[[-73.7520701,45.599162],[-73.7540088,45.6008782]]}";1;Boulevard Industriel;1;50;false;false;true;false;false;false;122.0;0;0;0;0;0;false;46069;6269508316;-73.75299;45.599861;46070;6269508343;-73.75123;45.598213;1;1;2;9312780;Bus : 37 S - Direction Métro Cartier;"";STL;37S;Industriel / Face Au 4184;Métro Cartier Quai:2
45742996;"{\"type\":\"LineString\",\"coordinates\":[[-73.7520701,45.599162],[-73.7517981,45.598802],[-73.7510813,45.5981568]]}";2;Boulevard Industriel;1;60;false;true;true;false;false;false;68.5;0;0;0;0;0;false;46069;6269508316;-73.75299;45.599861;46070;6269508343;-73.75123;45.598213;1;1;2;9312780;Bus : 37 S - Direction Métro Cartier;"";STL;37S;Industriel / Face Au 4184;Métro Cartier Quai:2
32505529;"{\"type\":\"LineString\",\"coordinates\":[[-73.7510813,45.5981568],[-73.7523155,45.5973833],[-73.7526345,45.5971752],[-73.752912,45.5969942],[-73.753262,45.596766],[-73.753819,45.596291],[-73.7540119,45.5960935],[-73.7547935,45.5952492],[-73.755199,45.594897],[-73.757034,45.593742],[-73.7577539,45.593317],[-73.7596253,45.5922108]]}";1;Boulevard Dagenais Ouest;1;60;false;true;false;false;false;false;471.5;1;0;0;0;0;false;46073;6269508620;-73.75763;45.593484;46074;6269508648;-73.7592;45.591607;1;5;6;9312780;Bus : 37 S - Direction Métro Cartier;"";STL;37S;Industriel / Face Au 4184;Métro Cartier Quai:2
679942262;"{\"type\":\"LineString\",\"coordinates\":[[-73.7596253,45.5922108],[-73.7597611,45.5921322]]}";2;Boulevard Dagenais Ouest;1;60;false;true;false;false;false;false;14.0;2;0;0;0;0;false;46073;6269508620;-73.75763;45.593484;46074;6269508648;-73.7592;45.591607;0;5;6;9312780;Bus : 37 S - Direction Métro Cartier;"";STL;37S;Industriel / Face Au 4184;Métro Cartier Quai:2
679942261;"{\"type\":\"LineString\",\"coordinates\":[[-73.7597611,45.5921322],[-73.7596446,45.5920257]]}";3;Boulevard Le Corbusier;1;50;false;true;false;false;false;false;15.0;2;0;0;0;0;false;46073;6269508620;-73.75763;45.593484;46074;6269508648;-73.7592;45.591607;0;5;6;9312780;Bus : 37 S - Direction Métro Cartier;"";STL;37S;Industriel / Face Au 4184;Métro Cartier Quai:2
391653157;"{\"type\":\"LineString\",\"coordinates\":[[-73.7596446,45.5920257],[-73.7586119,45.5911182],[-73.7574706,45.5901151],[-73.7560329,45.5888516],[-73.7535043,45.5866293]]}";4;Boulevard Le Corbusier;1;60;false;true;false;false;false;false;384.0;1;0;0;0;0;false;46073;6269508620;-73.75763;45.593484;46074;6269508648;-73.7592;45.591607;1;5;6;9312780;Bus : 37 S - Direction Métro Cartier;"";STL;37S;Industriel / Face Au 4184;Métro Cartier Quai:2
391653157;"{\"type\":\"LineString\",\"coordinates\":[[-73.7596446,45.5920257],[-73.7586119,45.5911182],[-73.7574706,45.5901151],[-73.7560329,45.5888516],[-73.7535043,45.5866293]]}";1;Boulevard Le Corbusier;1;60;false;true;false;false;false;false;384.0;1;0;0;0;0;false;41959;6269508698;-73.75585;45.588604;41961;6269508801;-73.75305;45.586126;1;7;8;9312780;Bus : 37 S - Direction Métro Cartier;"";STL;37S;Industriel / Face Au 4184;Métro Cartier Quai:2
679314255;"{\"type\":\"LineString\",\"coordinates\":[[-73.7535043,45.5866293],[-73.7518793,45.5851641],[-73.7501127,45.5836784]]}";2;Boulevard Le Corbusier;1;60;false;true;false;false;false;false;211.0;0;0;0;0;0;false;41959;6269508698;-73.75585;45.588604;41961;6269508801;-73.75305;45.586126;1;7;8;9312780;Bus : 37 S - Direction Métro Cartier;"";STL;37S;Industriel / Face Au 4184;Métro Cartier Quai:2
679314255;"{\"type\":\"LineString\",\"coordinates\":[[-73.7535043,45.5866293],[-73.7518793,45.5851641],[-73.7501127,45.5836784]]}";1;Boulevard Le Corbusier;1;60;false;true;false;false;false;false;211.0;0;0;0;0;0;false;41954;6269508825;-73.75163;45.584848;41955;6269508850;-73.74961;45.583068;1;9;10;9312780;Bus : 37 S - Direction Métro Cartier;"";STL;37S;Industriel / Face Au 4184;Métro Cartier Quai:2
679314250;"{\"type\":\"LineString\",\"coordinates\":[[-73.7501127,45.5836784],[-73.7480829,45.5816808]]}";2;Boulevard Le Corbusier;1;60;false;true;false;false;false;false;136.5;0;0;0;0;0;false;41954;6269508825;-73.75163;45.584848;41955;6269508850;-73.74961;45.583068;1;9;10;9312780;Bus : 37 S - Direction Métro Cartier;"";STL;37S;Industriel / Face Au 4184;Métro Cartier Quai:2
679314250;"{\"type\":\"LineString\",\"coordinates\":[[-73.7501127,45.5836784],[-73.7480829,45.5816808]]}";1;Boulevard Le Corbusier;1;60;false;true;false;false;false;false;136.5;0;0;0;0;0;false;41955;6269508850;-73.74961;45.583068;46075;6269508889;-73.74708;45.58211;1;10;11;9312780;Bus : 37 S - Direction Métro Cartier;"";STL;37S;Industriel / Face Au 4184;Métro Cartier Quai:2
679942259;"{\"type\":\"LineString\",\"coordinates\":[[-73.7480829,45.5816808],[-73.7479487,45.581755]]}";2;Rue Berlier;2;50;false;false;true;false;false;false;14.0;0;0;0;0;0;false;41955;6269508850;-73.74961;45.583068;46075;6269508889;-73.74708;45.58211;0;10;11;9312780;Bus : 37 S - Direction Métro Cartier;"";STL;37S;Industriel / Face Au 4184;Métro Cartier Quai:2
45755862;"{\"type\":\"LineString\",\"coordinates\":[[-73.7479487,45.581755],[-73.7472998,45.5820841],[-73.7463909,45.5826052],[-73.7454264,45.5833237]]}";3;Rue Berlier;2;50;false;false;true;false;false;false;132.0;0;0;0;0;0;false;41955;6269508850;-73.74961;45.583068;46075;6269508889;-73.74708;45.58211;1;10;11;9312780;Bus : 37 S - Direction Métro Cartier;"";STL;37S;Industriel / Face Au 4184;Métro Cartier Quai:2
45755862;"{\"type\":\"LineString\",\"coordinates\":[[-73.7479487,45.581755],[-73.7472998,45.5820841],[-73.7463909,45.5826052],[-73.7454264,45.5833237]]}";1;Rue Berlier;2;50;false;false;true;false;false;false;132.0;0;0;0;0;0;false;46076;6269508847;-73.74554;45.583109;46077;6269508757;-73.7433;45.584949;1;12;13;9312780;Bus : 37 S - Direction Métro Cartier;"";STL;37S;Industriel / Face Au 4184;Métro Cartier Quai:2
45755728;"{\"type\":\"LineString\",\"coordinates\":[[-73.7454264,45.5833237],[-73.7404509,45.5874184],[-73.7400213,45.5877107],[-73.7399426,45.5877908],[-73.7397186,45.587921],[-73.7395584,45.5880162]]}";2;Rue Berlier;2;50;false;false;true;false;false;false;347.5;0;0;0;0;0;false;46076;6269508847;-73.74554;45.583109;46077;6269508757;-73.7433;45.584949;1;12;13;9312780;Bus : 37 S - Direction Métro Cartier;"";STL;37S;Industriel / Face Au 4184;Métro Cartier Quai:2
45755728;"{\"type\":\"LineString\",\"coordinates\":[[-73.7454264,45.5833237],[-73.7404509,45.5874184],[-73.7400213,45.5877107],[-73.7399426,45.5877908],[-73.7397186,45.587921],[-73.7395584,45.5880162]]}";1;Rue Berlier;2;50;false;false;true;false;false;false;347.5;0;0;0;0;0;false;46079;6269508679;-73.7397;45.587782;41127;6269508738;-73.73892;45.588288;1;15;16;9312780;Bus : 37 S - Direction Métro Cartier;"";STL;37S;Industriel / Face Au 4184;Métro Cartier Quai:2
45760364;"{\"type\":\"LineString\",\"coordinates\":[[-73.7395584,45.5880162],[-73.7386566,45.5885417],[-73.7380858,45.5888414],[-73.7346638,45.5905138]]}";2;Rue Berlier;2;50;false;false;true;false;false;false;236.5;0;0;0;0;0;false;46079;6269508679;-73.7397;45.587782;41127;6269508738;-73.73892;45.588288;1;15;16;9312780;Bus : 37 S - Direction Métro Cartier;"";STL;37S;Industriel / Face Au 4184;Métro Cartier Quai:2
45760364;"{\"type\":\"LineString\",\"coordinates\":[[-73.7395584,45.5880162],[-73.7386566,45.5885417],[-73.7380858,45.5888414],[-73.7346638,45.5905138]]}";1;Rue Berlier;2;50;false;false;true;false;false;false;236.5;0;0;0;0;0;false;41123;6269508682;-73.73482;45.590339;41642;6269508721;-73.73311;45.58884;1;18;19;9312780;Bus : 37 S - Direction Métro Cartier;"";STL;37S;Industriel / Face Au 4184;Métro Cartier Quai:2
45760363;"{\"type\":\"LineString\",\"coordinates\":[[-73.727678,45.5847835],[-73.7301151,45.5869889],[-73.7301507,45.5871153],[-73.7301225,45.587232],[-73.7300045,45.5873477],[-73.7298232,45.5874267],[-73.7277333,45.5880065],[-73.727655,45.5880687],[-73.7276306,45.5881407],[-73.7276644,45.5882218],[-73.7280647,45.5886583],[-73.728303,45.588895],[-73.728955,45.5895413],[-73.729121,45.5895701],[-73.732304,45.5882734],[-73.7323939,45.5882654],[-73.7324828,45.5883023],[-73.7334722,45.5893394],[-73.7346638,45.5905138]]}";2;Avenue Francis-Hughes;2;50;false;false;true;false;false;false;682.0;0;0;0;0;0;false;41123;6269508682;-73.73482;45.590339;41642;6269508721;-73.73311;45.58884;1;18;19;9312780;Bus : 37 S - Direction Métro Cartier;"";STL;37S;Industriel / Face Au 4184;Métro Cartier Quai:2
45287013;"{\"type\":\"LineString\",\"coordinates\":[[-73.7222502,45.576541],[-73.7220796,45.5767191],[-73.7202092,45.5778053]]}";1;Rue Salaberry;2;50;false;false;true;false;false;false;107.0;0;0;0;0;0;false;43014;6269508971;-73.72222;45.576732;43012;6269509307;-73.72368;45.5751;1;28;29;9312780;Bus : 37 S - Direction Métro Cartier;"";STL;37S;Industriel / Face Au 4184;Métro Cartier Quai:2
45610697;"{\"type\":\"LineString\",\"coordinates\":[[-73.7239832,45.5747064],[-73.7238405,45.5748036],[-73.72367,45.5749727],[-73.7230645,45.575677],[-73.7222502,45.576541]]}";2;Rue Salaberry;2;50;false;false;true;false;false;false;122.5;0;0;0;0;0;false;43014;6269508971;-73.72222;45.576732;43012;6269509307;-73.72368;45.5751;1;28;29;9312780;Bus : 37 S - Direction Métro Cartier;"";STL;37S;Industriel / Face Au 4184;Métro Cartier Quai:2
45610697;"{\"type\":\"LineString\",\"coordinates\":[[-73.7239832,45.5747064],[-73.7238405,45.5748036],[-73.72367,45.5749727],[-73.7230645,45.575677],[-73.7222502,45.576541]]}";1;Rue Salaberry;2;50;false;false;true;false;false;false;122.5;0;0;0;0;0;false;43012;6269509307;-73.72368;45.5751;41922;6269509515;-73.72084;45.571038;1;29;30;9312780;Bus : 37 S - Direction Métro Cartier;"";STL;37S;Industriel / Face Au 4184;Métro Cartier Quai:2
45610562;"{\"type\":\"LineString\",\"coordinates\":[[-73.7239832,45.5747064],[-73.7242523,45.5745658]]}";2;Rue Salaberry;2;50;false;false;false;false;false;false;27.0;0;0;0;0;0;false;43012;6269509307;-73.72368;45.5751;41922;6269509515;-73.72084;45.571038;0;29;30;9312780;Bus : 37 S - Direction Métro Cartier;"";STL;37S;Industriel / Face Au 4184;Métro Cartier Quai:2
679942258;"{\"type\":\"LineString\",\"coordinates\":[[-73.7242523,45.5745658],[-73.7237683,45.5738746],[-73.7233049,45.5734781],[-73.7227563,45.572926],[-73.7216088,45.5718972]]}";3;Boulevard Industriel;3;60;false;true;true;false;false;false;363.0;0;0;0;0;0;false;43012;6269509307;-73.72368;45.5751;41922;6269509515;-73.72084;45.571038;0;29;30;9312780;Bus : 37 S - Direction Métro Cartier;"";STL;37S;Industriel / Face Au 4184;Métro Cartier Quai:2
694207282;"{\"type\":\"LineString\",\"coordinates\":[[-73.7216088,45.5718972],[-73.7214083,45.571703]]}";4;Boulevard Industriel;3;60;false;true;true;false;false;false;27.0;0;0;0;0;0;false;43012;6269509307;-73.72368;45.5751;41922;6269509515;-73.72084;45.571038;0;29;30;9312780;Bus : 37 S - Direction Métro Cartier;"";STL;37S;Industriel / Face Au 4184;Métro Cartier Quai:2
37691525;"{\"type\":\"LineString\",\"coordinates\":[[-73.7214083,45.571703],[-73.7213415,45.5716383]]}";5;Boulevard Industriel;1;50;false;true;true;false;false;false;9.0;1;0;0;0;0;false;43012;6269509307;-73.72368;45.5751;41922;6269509515;-73.72084;45.571038;0;29;30;9312780;Bus : 37 S - Direction Métro Cartier;"";STL;37S;Industriel / Face Au 4184;Métro Cartier Quai:2
452095366;"{\"type\":\"LineString\",\"coordinates\":[[-73.7213415,45.5716383],[-73.7211966,45.5714979]]}";6;Boulevard Industriel;1;50;false;true;true;false;false;false;20.0;2;0;0;0;0;false;43012;6269509307;-73.72368;45.5751;41922;6269509515;-73.72084;45.571038;0;29;30;9312780;Bus : 37 S - Direction Métro Cartier;"";STL;37S;Industriel / Face Au 4184;Métro Cartier Quai:2
452095376;"{\"type\":\"LineString\",\"coordinates\":[[-73.7211966,45.5714979],[-73.7209012,45.571202]]}";7;Boulevard Laval;3;50;false;true;false;false;false;false;41.0;1;0;0;0;0;false;43012;6269509307;-73.72368;45.5751;41922;6269509515;-73.72084;45.571038;0;29;30;9312780;Bus : 37 S - Direction Métro Cartier;"";STL;37S;Industriel / Face Au 4184;Métro Cartier Quai:2
37691522;"{\"type\":\"LineString\",\"coordinates\":[[-73.7209012,45.571202],[-73.7207547,45.5710175],[-73.7206138,45.570788],[-73.7205052,45.5705621],[-73.720425,45.5703095],[-73.7203946,45.5701616],[-73.7203287,45.5693743],[-73.7203035,45.5686366],[-73.7202589,45.5681809],[-73.7201796,45.5675736],[-73.7200851,45.567171],[-73.7198706,45.5667144],[-73.7195101,45.5662457],[-73.7190836,45.5657612],[-73.7185115,45.5651955],[-73.7180853,45.5647675],[-73.7173856,45.5641293]]}";8;Boulevard Laval;3;50;false;true;false;false;false;false;428.5;1;0;0;0;0;false;43012;6269509307;-73.72368;45.5751;41922;6269509515;-73.72084;45.571038;1;29;30;9312780;Bus : 37 S - Direction Métro Cartier;"";STL;37S;Industriel / Face Au 4184;Métro Cartier Quai:2
452095376;"{\"type\":\"LineString\",\"coordinates\":[[-73.7211966,45.5714979],[-73.7209012,45.571202]]}";1;Boulevard Laval;3;50;false;true;false;false;false;false;41.0;1;0;0;0;0;false;41922;6269509515;-73.72084;45.571038;41920;6269509551;-73.72042;45.56977;2;30;31;9312780;Bus : 37 S - Direction Métro Cartier;"";STL;37S;Industriel / Face Au 4184;Métro Cartier Quai:2
37691522;"{\"type\":\"LineString\",\"coordinates\":[[-73.7209012,45.571202],[-73.7207547,45.5710175],[-73.7206138,45.570788],[-73.7205052,45.5705621],[-73.720425,45.5703095],[-73.7203946,45.5701616],[-73.7203287,45.5693743],[-73.7203035,45.5686366],[-73.7202589,45.5681809],[-73.7201796,45.5675736],[-73.7200851,45.567171],[-73.7198706,45.5667144],[-73.7195101,45.5662457],[-73.7190836,45.5657612],[-73.7185115,45.5651955],[-73.7180853,45.5647675],[-73.7173856,45.5641293]]}";2;Boulevard Laval;3;50;false;true;false;false;false;false;857.0;1;0;0;0;0;false;41922;6269509515;-73.72084;45.571038;41920;6269509551;-73.72042;45.56977;2;30;31;9312780;Bus : 37 S - Direction Métro Cartier;"";STL;37S;Industriel / Face Au 4184;Métro Cartier Quai:2
46094582;"{\"type\":\"LineString\",\"coordinates\":[[-73.7173856,45.5641293],[-73.7172839,45.5640372],[-73.7170247,45.5637966],[-73.7157831,45.5624888],[-73.7146928,45.5613723],[-73.7135587,45.5602065],[-73.7135186,45.5601653],[-73.7132384,45.5598591],[-73.7130705,45.5596756],[-73.7130312,45.5596326],[-73.7129896,45.5595835]]}";1;Boulevard Laval;1;50;false;true;false;false;false;false;305.5;3;2;0;0;0;false;41929;6269510257;-73.71483;45.561377;41380;6269510286;-73.71225;45.55969;1;36;37;9312780;Bus : 37 S - Direction Métro Cartier;"";STL;37S;Industriel / Face Au 4184;Métro Cartier Quai:2
476096575;"{\"type\":\"LineString\",\"coordinates\":[[-73.7129896,45.5595835],[-73.7128947,45.5594878]]}";2;Boulevard Laval;1;50;false;true;false;false;false;false;13.0;2;0;0;0;0;false;41929;6269510257;-73.71483;45.561377;41380;6269510286;-73.71225;45.55969;0;36;37;9312780;Bus : 37 S - Direction Métro Cartier;"";STL;37S;Industriel / Face Au 4184;Métro Cartier Quai:2
476096574;"{\"type\":\"LineString\",\"coordinates\":[[-73.7128947,45.5594878],[-73.7127512,45.559559]]}";3;Boulevard de la Concorde Ouest;2;60;false;true;false;false;false;false;14.0;2;0;0;0;0;false;41929;6269510257;-73.71483;45.561377;41380;6269510286;-73.71225;45.55969;0;36;37;9312780;Bus : 37 S - Direction Métro Cartier;"";STL;37S;Industriel / Face Au 4184;Métro Cartier Quai:2
391650473;"{\"type\":\"LineString\",\"coordinates\":[[-73.7127512,45.559559],[-73.7126893,45.5595894],[-73.7126807,45.5595936],[-73.7124171,45.559721],[-73.7121388,45.5598559],[-73.7104936,45.5606535],[-73.7102984,45.5607549]]}";4;Boulevard de la Concorde Ouest;2;50;false;true;false;false;false;false;116.5;1;2;0;0;0;false;41929;6269510257;-73.71483;45.561377;41380;6269510286;-73.71225;45.55969;1;36;37;9312780;Bus : 37 S - Direction Métro Cartier;"";STL;37S;Industriel / Face Au 4184;Métro Cartier Quai:2
391650473;"{\"type\":\"LineString\",\"coordinates\":[[-73.7127512,45.559559],[-73.7126893,45.5595894],[-73.7126807,45.5595936],[-73.7124171,45.559721],[-73.7121388,45.5598559],[-73.7104936,45.5606535],[-73.7102984,45.5607549]]}";1;Boulevard de la Concorde Ouest;2;50;false;true;false;false;false;false;116.5;1;2;0;0;0;false;41380;6269510286;-73.71225;45.55969;41395;6269510263;-73.70876;45.561451;1;37;38;9312780;Bus : 37 S - Direction Métro Cartier;"";STL;37S;Industriel / Face Au 4184;Métro Cartier Quai:2
766599378;"{\"type\":\"LineString\",\"coordinates\":[[-73.7102984,45.5607549],[-73.710038,45.5608901]]}";2;Boulevard de la Concorde Ouest;2;50;false;true;false;false;false;false;26.0;0;0;0;0;0;false;41380;6269510286;-73.71225;45.55969;41395;6269510263;-73.70876;45.561451;0;37;38;9312780;Bus : 37 S - Direction Métro Cartier;"";STL;37S;Industriel / Face Au 4184;Métro Cartier Quai:2
766599380;"{\"type\":\"LineString\",\"coordinates\":[[-73.710038,45.5608901],[-73.7098616,45.5609817],[-73.7092799,45.5612854],[-73.7086016,45.56164]]}";3;Boulevard de la Concorde Ouest;2;50;false;true;false;false;false;false;70.0;0;0;0;0;0;false;41380;6269510286;-73.71225;45.55969;41395;6269510263;-73.70876;45.561451;1;37;38;9312780;Bus : 37 S - Direction Métro Cartier;"";STL;37S;Industriel / Face Au 4184;Métro Cartier Quai:2
766599380;"{\"type\":\"LineString\",\"coordinates\":[[-73.710038,45.5608901],[-73.7098616,45.5609817],[-73.7092799,45.5612854],[-73.7086016,45.56164]]}";1;Boulevard de la Concorde Ouest;2;50;false;true;false;false;false;false;70.0;0;0;0;0;0;false;41395;6269510263;-73.70876;45.561451;41005;6269510288;-73.70666;45.559538;1;38;39;9312780;Bus : 37 S - Direction Métro Cartier;"";STL;37S;Industriel / Face Au 4184;Métro Cartier Quai:2
289092141;"{\"type\":\"LineString\",\"coordinates\":[[-73.7086016,45.56164],[-73.7083689,45.561403],[-73.708335,45.5613684],[-73.7080214,45.5610489],[-73.7072061,45.5602182]]}";2;Avenue Ampère;1;50;false;false;true;false;false;false;192.0;0;0;0;0;0;false;41395;6269510263;-73.70876;45.561451;41005;6269510288;-73.70666;45.559538;0;38;39;9312780;Bus : 37 S - Direction Métro Cartier;"";STL;37S;Industriel / Face Au 4184;Métro Cartier Quai:2
679942268;"{\"type\":\"LineString\",\"coordinates\":[[-73.7072061,45.5602182],[-73.706502,45.5595008],[-73.7045655,45.5575278],[-73.7039696,45.5569206]]}";3;Avenue Ampère;2;50;false;false;false;false;false;false;222.5;0;0;0;0;0;false;41395;6269510263;-73.70876;45.561451;41005;6269510288;-73.70666;45.559538;1;38;39;9312780;Bus : 37 S - Direction Métro Cartier;"";STL;37S;Industriel / Face Au 4184;Métro Cartier Quai:2
679942268;"{\"type\":\"LineString\",\"coordinates\":[[-73.7072061,45.5602182],[-73.706502,45.5595008],[-73.7045655,45.5575278],[-73.7039696,45.5569206]]}";1;Avenue Ampère;2;50;false;false;false;false;false;false;222.5;0;0;0;0;0;false;41005;6269510288;-73.70666;45.559538;46080;6269510368;-73.70344;45.557;1;39;40;9312780;Bus : 37 S - Direction Métro Cartier;"";STL;37S;Industriel / Face Au 4184;Métro Cartier Quai:2
29082059;"{\"type\":\"LineString\",\"coordinates\":[[-73.7039696,45.5569206],[-73.7037935,45.5569114],[-73.7014928,45.5579782],[-73.7007421,45.5583273],[-73.6985882,45.5594588]]}";2;Boulevard Robin;1;50;false;true;false;false;false;false;254.5;0;0;0;0;0;false;41005;6269510288;-73.70666;45.559538;46080;6269510368;-73.70344;45.557;1;39;40;9312780;Bus : 37 S - Direction Métro Cartier;"";STL;37S;Industriel / Face Au 4184;Métro Cartier Quai:2
679942256;"{\"type\":\"LineString\",\"coordinates\":[[-73.6985882,45.5594588],[-73.6978664,45.5588221],[-73.6975691,45.5585665],[-73.6974414,45.5584567],[-73.6972474,45.5582706],[-73.6971031,45.5581118],[-73.6970699,45.5580752],[-73.6967166,45.5576261],[-73.6966263,45.5575155]]}";1;15e Rue;1;50;false;true;false;false;false;false;133.0;2;0;0;0;0;false;42752;6269510335;-73.69737;45.558286;41226;6269510350;-73.69597;45.557694;1;43;44;9312780;Bus : 37 S - Direction Métro Cartier;"";STL;37S;Industriel / Face Au 4184;Métro Cartier Quai:2
679942213;"{\"type\":\"LineString\",\"coordinates\":[[-73.6966263,45.5575155],[-73.6964443,45.557584],[-73.6954926,45.5579407],[-73.6953802,45.5579828],[-73.695225,45.558041],[-73.6950377,45.5581112],[-73.69428,45.5583952],[-73.693884,45.5585179],[-73.6935513,45.5585982],[-73.6934266,45.5586282],[-73.6930629,45.5586904],[-73.6927468,45.5587266]]}";2;Boulevard Cartier Ouest;2;50;false;true;true;false;false;false;167.0;2;0;0;0;0;false;42752;6269510335;-73.69737;45.558286;41226;6269510350;-73.69597;45.557694;1;43;44;9312780;Bus : 37 S - Direction Métro Cartier;"";STL;37S;Industriel / Face Au 4184;Métro Cartier Quai:2
679942213;"{\"type\":\"LineString\",\"coordinates\":[[-73.6966263,45.5575155],[-73.6964443,45.557584],[-73.6954926,45.5579407],[-73.6953802,45.5579828],[-73.695225,45.558041],[-73.6950377,45.5581112],[-73.69428,45.5583952],[-73.693884,45.5585179],[-73.6935513,45.5585982],[-73.6934266,45.5586282],[-73.6930629,45.5586904],[-73.6927468,45.5587266]]}";1;Boulevard Cartier Ouest;2;50;false;true;true;false;false;false;167.0;2;0;0;0;0;false;41224;6269510315;-73.693;45.558617;41222;6269510321;-73.68973;45.558728;1;45;46;9312780;Bus : 37 S - Direction Métro Cartier;"";STL;37S;Industriel / Face Au 4184;Métro Cartier Quai:2
53292665;"{\"type\":\"LineString\",\"coordinates\":[[-73.6927468,45.5587266],[-73.6917629,45.5587665],[-73.6912476,45.558765],[-73.6903089,45.5587485],[-73.6899359,45.5587759],[-73.6891191,45.5588359],[-73.688969,45.5588469],[-73.688346,45.5589842],[-73.6879843,45.5590947],[-73.6873379,45.5592854],[-73.6868265,45.5593539],[-73.6866391,45.5593608],[-73.686426,45.5593528],[-73.6858182,45.5592844],[-73.6856388,45.5592749],[-73.6854345,45.5592651],[-73.6853204,45.5592709],[-73.6852418,45.5592749],[-73.6850436,45.5593068],[-73.6847541,45.5594139],[-73.6840984,45.5597503]]}";2;Boulevard Cartier Ouest;2;50;false;true;true;false;false;false;351.0;1;0;0;0;0;false;41224;6269510315;-73.693;45.558617;41222;6269510321;-73.68973;45.558728;1;45;46;9312780;Bus : 37 S - Direction Métro Cartier;"";STL;37S;Industriel / Face Au 4184;Métro Cartier Quai:2
53292665;"{\"type\":\"LineString\",\"coordinates\":[[-73.6927468,45.5587266],[-73.6917629,45.5587665],[-73.6912476,45.558765],[-73.6903089,45.5587485],[-73.6899359,45.5587759],[-73.6891191,45.5588359],[-73.688969,45.5588469],[-73.688346,45.5589842],[-73.6879843,45.5590947],[-73.6873379,45.5592854],[-73.6868265,45.5593539],[-73.6866391,45.5593608],[-73.686426,45.5593528],[-73.6858182,45.5592844],[-73.6856388,45.5592749],[-73.6854345,45.5592651],[-73.6853204,45.5592709],[-73.6852418,45.5592749],[-73.6850436,45.5593068],[-73.6847541,45.5594139],[-73.6840984,45.5597503]]}";1;Boulevard Cartier Ouest;2;50;false;true;true;false;false;false;351.0;1;0;0;0;0;false;41220;6269510312;-73.68751;45.559164;"47128;47170;47120;47012;47002;47173;47058;47158;47141;47102;47122;47911;47133;47160;47163;47127;47137;47117;47031;47143;47174;47124;47112;47070;47148;47017";6269510222;-73.6825;45.559923;1;47;48;9312780;Bus : 37 S - Direction Métro Cartier;"";STL;37S;Industriel / Face Au 4184;Métro Cartier Quai:2
669902218;"{\"type\":\"LineString\",\"coordinates\":[[-73.6840984,45.5597503],[-73.6835265,45.5600532],[-73.6830194,45.5603075]]}";2;Boulevard Cartier Ouest;2;50;false;true;true;false;false;false;105.0;2;0;0;0;0;false;41220;6269510312;-73.68751;45.559164;"47128;47170;47120;47012;47002;47173;47058;47158;47141;47102;47122;47911;47133;47160;47163;47127;47137;47117;47031;47143;47174;47124;47112;47070;47148;47017";6269510222;-73.6825;45.559923;0;47;48;9312780;Bus : 37 S - Direction Métro Cartier;"";STL;37S;Industriel / Face Au 4184;Métro Cartier Quai:2
242652088;"{\"type\":\"LineString\",\"coordinates\":[[-73.6830194,45.5603075],[-73.6828755,45.560162]]}";3;"";1;50;false;false;true;false;false;false;20.0;1;0;0;0;0;false;41220;6269510312;-73.68751;45.559164;"47128;47170;47120;47012;47002;47173;47058;47158;47141;47102;47122;47911;47133;47160;47163;47127;47137;47117;47031;47143;47174;47124;47112;47070;47148;47017";6269510222;-73.6825;45.559923;0;47;48;9312780;Bus : 37 S - Direction Métro Cartier;"";STL;37S;Industriel / Face Au 4184;Métro Cartier Quai:2
259643630;"{\"type\":\"LineString\",\"coordinates\":[[-73.683108,45.5597546],[-73.6832991,45.5596564],[-73.6834151,45.5595825],[-73.6834772,45.5596133],[-73.6835498,45.5596565],[-73.6835923,45.5597297],[-73.6835737,45.5597964],[-73.6834678,45.5598527],[-73.6828755,45.560162]]}";4;"";1;50;false;false;true;false;false;false;129.0;0;0;0;0;0;false;41220;6269510312;-73.68751;45.559164;"47128;47170;47120;47012;47002;47173;47058;47158;47141;47102;47122;47911;47133;47160;47163;47127;47137;47117;47031;47143;47174;47124;47112;47070;47148;47017";6269510222;-73.6825;45.559923;0;47;48;9312780;Bus : 37 S - Direction Métro Cartier;"";STL;37S;Industriel / Face Au 4184;Métro Cartier Quai:2
694196043;"{\"type\":\"LineString\",\"coordinates\":[[-73.6829383,45.5598439],[-73.683108,45.5597546]]}";5;"";1;50;false;false;true;false;false;false;17.0;0;0;0;0;0;false;41220;6269510312;-73.68751;45.559164;"47128;47170;47120;47012;47002;47173;47058;47158;47141;47102;47122;47911;47133;47160;47163;47127;47137;47117;47031;47143;47174;47124;47112;47070;47148;47017";6269510222;-73.6825;45.559923;0;47;48;9312780;Bus : 37 S - Direction Métro Cartier;"";STL;37S;Industriel / Face Au 4184;Métro Cartier Quai:2
694409795;"{\"type\":\"LineString\",\"coordinates\":[[-73.6827819,45.5599253],[-73.6829383,45.5598439]]}";6;"";1;50;false;false;true;false;false;false;16.0;0;0;0;0;0;false;41220;6269510312;-73.68751;45.559164;"47128;47170;47120;47012;47002;47173;47058;47158;47141;47102;47122;47911;47133;47160;47163;47127;47137;47117;47031;47143;47174;47124;47112;47070;47148;47017";6269510222;-73.6825;45.559923;0;47;48;9312780;Bus : 37 S - Direction Métro Cartier;"";STL;37S;Industriel / Face Au 4184;Métro Cartier Quai:2
669902223;"{\"type\":\"LineString\",\"coordinates\":[[-73.6826117,45.5600129],[-73.6827819,45.5599253]]}";7;"";1;50;false;false;true;false;false;false;17.0;0;0;0;0;0;false;41220;6269510312;-73.68751;45.559164;"47128;47170;47120;47012;47002;47173;47058;47158;47141;47102;47122;47911;47133;47160;47163;47127;47137;47117;47031;47143;47174;47124;47112;47070;47148;47017";6269510222;-73.6825;45.559923;1;47;48;9312780;Bus : 37 S - Direction Métro Cartier;"";STL;37S;Industriel / Face Au 4184;Métro Cartier Quai:2
