way_id;shape;index;name;nb_lanes;legal_speed;speed_zone_30;oneway;shares_bike;bike_box;bus_lane;dedicated_bus_lane;length;nb_traffic_signals;nb_crossings;nb_stops;nb_give_ways;nb_lvl_crossings;roundabout;stop_id_orig;node_id_orig;coord_x_orig;coord_y_orig;stop_id_dest;node_id_dest;coord_x_dest;coord_y_dest;nb_neighbouring_ways_bus_stop;ordre_orig;ordre_dest;id_line;line_name;colour;operator;ref;from;to
20447044;"{\"type\":\"LineString\",\"coordinates\":[[-73.5452182,45.5303362],[-73.5449435,45.5306986]]}";1;Rue Sainte-Catherine Est;1;50;false;false;true;false;false;false;46.0;1;0;0;0;0;false;53136;1707416790;-73.5452386;45.5307051;54071;6010969105;-73.546484;45.530449;1;0;1;5910101;Bus 94 : D'Iberville Nord;"";STM;94-N;du Havre / Sainte-Catherine;Cirque du Soleil
20447043;"{\"type\":\"LineString\",\"coordinates\":[[-73.5452182,45.5303362],[-73.5455364,45.5300845],[-73.5456869,45.530048]]}";2;Rue Sainte-Catherine Est;1;50;false;true;true;false;false;false;50.0;0;0;0;0;0;false;53136;1707416790;-73.5452386;45.5307051;54071;6010969105;-73.546484;45.530449;0;0;1;5910101;Bus 94 : D'Iberville Nord;"";STM;94-N;du Havre / Sainte-Catherine;Cirque du Soleil
393674969;"{\"type\":\"LineString\",\"coordinates\":[[-73.5456869,45.530048],[-73.5460325,45.530193],[-73.5466424,45.5304489],[-73.5470367,45.5306143]]}";3;Rue Frontenac;2;50;false;true;true;false;false;false;61.5;1;0;0;0;0;false;53136;1707416790;-73.5452386;45.5307051;54071;6010969105;-73.546484;45.530449;1;0;1;5910101;Bus 94 : D'Iberville Nord;"";STM;94-N;du Havre / Sainte-Catherine;Cirque du Soleil
393674969;"{\"type\":\"LineString\",\"coordinates\":[[-73.5456869,45.530048],[-73.5460325,45.530193],[-73.5466424,45.5304489],[-73.5470367,45.5306143]]}";1;Rue Frontenac;2;50;false;true;true;false;false;false;61.5;1;0;0;0;0;false;54071;6010969105;-73.546484;45.530449;53092;6010965185;-73.548302;45.53122;1;1;2;5910101;Bus 94 : D'Iberville Nord;"";STM;94-N;du Havre / Sainte-Catherine;Cirque du Soleil
393674982;"{\"type\":\"LineString\",\"coordinates\":[[-73.5470367,45.5306143],[-73.5474302,45.5307822],[-73.5480652,45.5310531],[-73.54807,45.5310551],[-73.5484673,45.5312246],[-73.548871,45.5313969],[-73.5495353,45.5316802],[-73.5499437,45.5318545],[-73.5503438,45.5320252],[-73.551722,45.5326131]]}";2;Rue Frontenac;2;50;false;true;true;false;false;false;214.0;1;0;0;0;0;false;54071;6010969105;-73.546484;45.530449;53092;6010965185;-73.548302;45.53122;1;1;2;5910101;Bus 94 : D'Iberville Nord;"";STM;94-N;du Havre / Sainte-Catherine;Cirque du Soleil
393674982;"{\"type\":\"LineString\",\"coordinates\":[[-73.5470367,45.5306143],[-73.5474302,45.5307822],[-73.5480652,45.5310531],[-73.54807,45.5310551],[-73.5484673,45.5312246],[-73.548871,45.5313969],[-73.5495353,45.5316802],[-73.5499437,45.5318545],[-73.5503438,45.5320252],[-73.551722,45.5326131]]}";1;Rue Frontenac;2;50;false;true;true;false;false;false;214.0;1;0;0;0;0;false;53067;6010980091;-73.549723;45.531822;54038;1714817037;-73.5524354;45.5330067;1;3;4;5910101;Bus 94 : D'Iberville Nord;"";STM;94-N;du Havre / Sainte-Catherine;Cirque du Soleil
395306912;"{\"type\":\"LineString\",\"coordinates\":[[-73.551722,45.5326131],[-73.5522538,45.5328187]]}";2;Rue Frontenac;2;50;false;true;true;false;false;false;48.0;0;0;0;0;0;false;53067;6010980091;-73.549723;45.531822;54038;1714817037;-73.5524354;45.5330067;0;3;4;5910101;Bus 94 : D'Iberville Nord;"";STM;94-N;du Havre / Sainte-Catherine;Cirque du Soleil
393682873;"{\"type\":\"LineString\",\"coordinates\":[[-73.5522538,45.5328187],[-73.552575,45.5329512],[-73.5526755,45.5329927],[-73.5527624,45.5330297],[-73.5530686,45.5331599],[-73.553906,45.5335202],[-73.5542758,45.5336793],[-73.5546913,45.5338581],[-73.5555074,45.5342092],[-73.5558874,45.5343727],[-73.5562968,45.534547],[-73.5586023,45.5355288]]}";3;Rue Frontenac;2;50;false;true;true;false;false;false;290.0;3;2;0;0;0;false;53067;6010980091;-73.549723;45.531822;54038;1714817037;-73.5524354;45.5330067;1;3;4;5910101;Bus 94 : D'Iberville Nord;"";STM;94-N;du Havre / Sainte-Catherine;Cirque du Soleil
393665225;"{\"type\":\"LineString\",\"coordinates\":[[-73.5586023,45.5355288],[-73.5604279,45.5363047],[-73.5605709,45.5363657],[-73.5610455,45.5365652]]}";1;Rue Frontenac;2;50;false;true;true;false;false;false;111.5;2;0;0;0;0;false;52770;6010970302;-73.560766;45.536505;52712;6010965569;-73.562772;45.537366;1;7;8;5910101;Bus 94 : D'Iberville Nord;"";STM;94-N;du Havre / Sainte-Catherine;Cirque du Soleil
395307079;"{\"type\":\"LineString\",\"coordinates\":[[-73.5610455,45.5365652],[-73.5615257,45.5367682],[-73.5617,45.5368409],[-73.5625933,45.5372132],[-73.5630193,45.5373908]]}";2;Rue Frontenac;2;50;false;true;true;false;false;false;90.0;2;0;0;0;0;false;52770;6010970302;-73.560766;45.536505;52712;6010965569;-73.562772;45.537366;1;7;8;5910101;Bus 94 : D'Iberville Nord;"";STM;94-N;du Havre / Sainte-Catherine;Cirque du Soleil
393665231;"{\"type\":\"LineString\",\"coordinates\":[[-73.5630193,45.5373908],[-73.5630927,45.5374222],[-73.5634533,45.5375767],[-73.5658367,45.5385978],[-73.5664232,45.53882],[-73.5668598,45.5389221],[-73.5673331,45.5389971],[-73.5677251,45.5390996],[-73.5684807,45.5393863]]}";1;Rue Frontenac;2;50;false;true;true;false;false;false;241.5;2;0;0;0;0;false;52502;291483458;-73.568215;45.539358;52387;291483459;-73.571604;45.540336;1;10;11;5910101;Bus 94 : D'Iberville Nord;"";STM;94-N;du Havre / Sainte-Catherine;Cirque du Soleil
313863010;"{\"type\":\"LineString\",\"coordinates\":[[-73.5684807,45.5393863],[-73.5687787,45.5394614],[-73.569332,45.5394824],[-73.5700604,45.5395875]]}";2;Rue Frontenac;2;50;false;true;true;false;false;false;126.0;1;0;0;0;0;false;52502;291483458;-73.568215;45.539358;52387;291483459;-73.571604;45.540336;0;10;11;5910101;Bus 94 : D'Iberville Nord;"";STM;94-N;du Havre / Sainte-Catherine;Cirque du Soleil
313862884;"{\"type\":\"LineString\",\"coordinates\":[[-73.5723863,45.5405951],[-73.5707277,45.5398762],[-73.5706506,45.5398425],[-73.5706287,45.539833],[-73.5700604,45.5395875]]}";3;Rue D'Iberville;4;50;false;false;true;false;false;false;107.0;0;0;0;0;0;false;52502;291483458;-73.568215;45.539358;52387;291483459;-73.571604;45.540336;1;10;11;5910101;Bus 94 : D'Iberville Nord;"";STM;94-N;du Havre / Sainte-Catherine;Cirque du Soleil
313862884;"{\"type\":\"LineString\",\"coordinates\":[[-73.5723863,45.5405951],[-73.5707277,45.5398762],[-73.5706506,45.5398425],[-73.5706287,45.539833],[-73.5700604,45.5395875]]}";1;Rue D'Iberville;4;50;false;false;true;false;false;false;107.0;0;0;0;0;0;false;52387;291483459;-73.571604;45.540336;52343;291483461;-73.573444;45.5411;1;11;12;5910101;Bus 94 : D'Iberville Nord;"";STM;94-N;du Havre / Sainte-Catherine;Cirque du Soleil
437151135;"{\"type\":\"LineString\",\"coordinates\":[[-73.5736213,45.5411244],[-73.5723863,45.5405951]]}";2;Rue D'Iberville;2;50;false;false;true;false;false;false;56.5;1;0;0;0;0;false;52387;291483459;-73.571604;45.540336;52343;291483461;-73.573444;45.5411;1;11;12;5910101;Bus 94 : D'Iberville Nord;"";STM;94-N;du Havre / Sainte-Catherine;Cirque du Soleil
437151136;"{\"type\":\"LineString\",\"coordinates\":[[-73.573786,45.5411919],[-73.5736213,45.5411244]]}";1;Rue D'Iberville;2;50;false;false;true;false;false;false;15.0;2;0;0;0;0;false;52343;291483461;-73.573444;45.5411;52187;291483464;-73.577261;45.542737;2;12;13;5910101;Bus 94 : D'Iberville Nord;"";STM;94-N;du Havre / Sainte-Catherine;Cirque du Soleil
561013449;"{\"type\":\"LineString\",\"coordinates\":[[-73.5739435,45.5412594],[-73.573786,45.5411919]]}";2;Rue D'Iberville;2;50;false;false;true;false;false;false;15.0;1;0;0;0;0;false;52343;291483461;-73.573444;45.5411;52187;291483464;-73.577261;45.542737;0;12;13;5910101;Bus 94 : D'Iberville Nord;"";STM;94-N;du Havre / Sainte-Catherine;Cirque du Soleil
561013448;"{\"type\":\"LineString\",\"coordinates\":[[-73.5739435,45.5412594],[-73.5739981,45.5413113]]}";3;Rue D'Iberville;2;50;false;true;true;false;false;false;8.0;0;0;0;0;0;false;52343;291483461;-73.573444;45.5411;52187;291483464;-73.577261;45.542737;0;12;13;5910101;Bus 94 : D'Iberville Nord;"";STM;94-N;du Havre / Sainte-Catherine;Cirque du Soleil
561013447;"{\"type\":\"LineString\",\"coordinates\":[[-73.5739981,45.5413113],[-73.5745791,45.5415544]]}";4;Rue D'Iberville;2;50;false;true;true;false;false;false;53.0;0;0;0;0;0;false;52343;291483461;-73.573444;45.5411;52187;291483464;-73.577261;45.542737;0;12;13;5910101;Bus 94 : D'Iberville Nord;"";STM;94-N;du Havre / Sainte-Catherine;Cirque du Soleil
561013446;"{\"type\":\"LineString\",\"coordinates\":[[-73.5745791,45.5415544],[-73.5746751,45.5415691]]}";5;Rue D'Iberville;2;50;false;true;true;false;false;false;8.0;0;0;0;0;0;false;52343;291483461;-73.573444;45.5411;52187;291483464;-73.577261;45.542737;0;12;13;5910101;Bus 94 : D'Iberville Nord;"";STM;94-N;du Havre / Sainte-Catherine;Cirque du Soleil
393721771;"{\"type\":\"LineString\",\"coordinates\":[[-73.578123,45.5430222],[-73.5780289,45.5429797],[-73.5779982,45.5429658],[-73.5777888,45.5428847],[-73.5774493,45.5427533],[-73.5769408,45.5425239],[-73.5768296,45.5424744],[-73.5766014,45.5423826],[-73.576506,45.5423429],[-73.5762445,45.5422341],[-73.576099,45.5421735],[-73.5746751,45.5415691]]}";6;Rue D'Iberville;2;50;false;false;true;false;false;false;314.0;1;1;0;0;0;false;52343;291483461;-73.573444;45.5411;52187;291483464;-73.577261;45.542737;2;12;13;5910101;Bus 94 : D'Iberville Nord;"";STM;94-N;du Havre / Sainte-Catherine;Cirque du Soleil
393721771;"{\"type\":\"LineString\",\"coordinates\":[[-73.578123,45.5430222],[-73.5780289,45.5429797],[-73.5779982,45.5429658],[-73.5777888,45.5428847],[-73.5774493,45.5427533],[-73.5769408,45.5425239],[-73.5768296,45.5424744],[-73.5766014,45.5423826],[-73.576506,45.5423429],[-73.5762445,45.5422341],[-73.576099,45.5421735],[-73.5746751,45.5415691]]}";1;Rue D'Iberville;2;50;false;false;true;false;false;false;157.0;1;1;0;0;0;false;52187;291483464;-73.577261;45.542737;54130;291483467;-73.578868;45.543413;1;13;14;5910101;Bus 94 : D'Iberville Nord;"";STM;94-N;du Havre / Sainte-Catherine;Cirque du Soleil
454213134;"{\"type\":\"LineString\",\"coordinates\":[[-73.5782687,45.5430818],[-73.578123,45.5430222]]}";2;Rue D'Iberville;2;50;false;false;true;false;false;false;14.0;2;0;0;0;0;false;52187;291483464;-73.577261;45.542737;54130;291483467;-73.578868;45.543413;0;13;14;5910101;Bus 94 : D'Iberville Nord;"";STM;94-N;du Havre / Sainte-Catherine;Cirque du Soleil
393721770;"{\"type\":\"LineString\",\"coordinates\":[[-73.5809819,45.5442474],[-73.5808713,45.5442016],[-73.5799209,45.5438079],[-73.578712,45.5432758],[-73.5783802,45.5431303],[-73.5782687,45.5430818]]}";3;Rue D'Iberville;2;50;false;false;true;false;false;false;124.5;2;0;0;0;0;false;52187;291483464;-73.577261;45.542737;54130;291483467;-73.578868;45.543413;1;13;14;5910101;Bus 94 : D'Iberville Nord;"";STM;94-N;du Havre / Sainte-Catherine;Cirque du Soleil
454209735;"{\"type\":\"LineString\",\"coordinates\":[[-73.581984,45.5446517],[-73.5809819,45.5442474]]}";1;Rue D'Iberville;2;50;false;false;true;false;false;false;91.0;1;0;0;0;0;false;52098;291483472;-73.580806;45.544233;52037;291483481;-73.583031;45.545177;2;15;16;5910101;Bus 94 : D'Iberville Nord;"";STM;94-N;du Havre / Sainte-Catherine;Cirque du Soleil
463835934;"{\"type\":\"LineString\",\"coordinates\":[[-73.5824146,45.5448307],[-73.581984,45.5446517]]}";2;Rue D'Iberville;2;50;false;false;true;false;false;false;40.0;0;0;0;0;0;false;52098;291483472;-73.580806;45.544233;52037;291483481;-73.583031;45.545177;0;15;16;5910101;Bus 94 : D'Iberville Nord;"";STM;94-N;du Havre / Sainte-Catherine;Cirque du Soleil
437150504;"{\"type\":\"LineString\",\"coordinates\":[[-73.583211,45.5451702],[-73.5827101,45.544958],[-73.5824146,45.5448307]]}";3;Rue D'Iberville;2;50;false;false;true;false;false;false;73.0;1;0;0;0;0;false;52098;291483472;-73.580806;45.544233;52037;291483481;-73.583031;45.545177;2;15;16;5910101;Bus 94 : D'Iberville Nord;"";STM;94-N;du Havre / Sainte-Catherine;Cirque du Soleil
437150348;"{\"type\":\"LineString\",\"coordinates\":[[-73.584795,45.5458521],[-73.5841468,45.5455728],[-73.583211,45.5451702]]}";1;Rue D'Iberville;2;50;false;false;true;false;false;false;145.0;2;0;0;0;0;false;52037;291483481;-73.583031;45.545177;51955;1317859062;-73.5859947;45.546497;2;16;17;5910101;Bus 94 : D'Iberville Nord;"";STM;94-N;du Havre / Sainte-Catherine;Cirque du Soleil
437150349;"{\"type\":\"LineString\",\"coordinates\":[[-73.5862497,45.5465017],[-73.5861326,45.5464488],[-73.5857675,45.5462864],[-73.5853653,45.5461068],[-73.5852355,45.5460488],[-73.584795,45.5458521]]}";2;Rue D'Iberville;2;50;false;false;true;false;false;false;135.0;2;1;0;0;0;false;52037;291483481;-73.583031;45.545177;51955;1317859062;-73.5859947;45.546497;2;16;17;5910101;Bus 94 : D'Iberville Nord;"";STM;94-N;du Havre / Sainte-Catherine;Cirque du Soleil
464121429;"{\"type\":\"LineString\",\"coordinates\":[[-73.5932892,45.549749],[-73.5924283,45.5493554],[-73.5915469,45.5489602]]}";1;Rue D'Iberville;1;50;false;false;true;false;false;false;162.0;1;0;0;0;0;false;51802;281865776;-73.5914686;45.5489547;51717;6010968512;-73.594793;45.550542;2;19;20;5910101;Bus 94 : D'Iberville Nord;"";STM;94-N;du Havre / Sainte-Catherine;Cirque du Soleil
464121410;"{\"type\":\"LineString\",\"coordinates\":[[-73.59499,45.5505891],[-73.5932892,45.549749]]}";2;Rue D'Iberville;1;50;false;false;true;false;false;false;163.0;0;0;0;0;0;false;51802;281865776;-73.5914686;45.5489547;51717;6010968512;-73.594793;45.550542;2;19;20;5910101;Bus 94 : D'Iberville Nord;"";STM;94-N;du Havre / Sainte-Catherine;Cirque du Soleil
404755524;"{\"type\":\"LineString\",\"coordinates\":[[-73.6108508,45.5575367],[-73.6093907,45.5568904],[-73.6089933,45.5567145],[-73.6085517,45.556519],[-73.6070894,45.5558717],[-73.6066629,45.5556829],[-73.6062421,45.5554966],[-73.6047772,45.5548482],[-73.6043896,45.5546766],[-73.6039538,45.5544837],[-73.6024896,45.5538355],[-73.6020376,45.5536354],[-73.6016233,45.553452],[-73.6003747,45.5528993],[-73.6001864,45.552824],[-73.5997775,45.5527009],[-73.5994536,45.5526186],[-73.5992931,45.5525762],[-73.5984706,45.5521914]]}";1;Rue D'Iberville;1;50;false;false;true;false;false;false;568.0;1;0;0;0;0;false;51414;6010970330;-73.608777;45.556678;51364;6010972910;-73.611093;45.557702;1;25;26;5910101;Bus 94 : D'Iberville Nord;"";STM;94-N;du Havre / Sainte-Catherine;Cirque du Soleil
461331361;"{\"type\":\"LineString\",\"coordinates\":[[-73.6112731,45.5577226],[-73.6108508,45.5575367]]}";2;Rue D'Iberville;1;50;false;false;true;false;false;false;19.5;0;0;0;0;0;false;51414;6010970330;-73.608777;45.556678;51364;6010972910;-73.611093;45.557702;1;25;26;5910101;Bus 94 : D'Iberville Nord;"";STM;94-N;du Havre / Sainte-Catherine;Cirque du Soleil
461331365;"{\"type\":\"LineString\",\"coordinates\":[[-73.6117218,45.5579112],[-73.6112731,45.5577226]]}";1;Rue D'Iberville;1;50;false;false;true;false;false;false;41.0;0;0;0;0;0;false;51364;6010972910;-73.611093;45.557702;53772;6010977627;-73.612013;45.55812;2;26;27;5910101;Bus 94 : D'Iberville Nord;"";STM;94-N;du Havre / Sainte-Catherine;Cirque du Soleil
60514673;"{\"type\":\"LineString\",\"coordinates\":[[-73.6117218,45.5579112],[-73.6119596,45.5580527],[-73.6121683,45.5581747],[-73.6122444,45.558247],[-73.6125888,45.5585652]]}";2;Rue D'Iberville;1;50;false;true;true;false;false;false;100.0;0;0;0;0;0;false;51364;6010972910;-73.611093;45.557702;53772;6010977627;-73.612013;45.55812;2;26;27;5910101;Bus 94 : D'Iberville Nord;"";STM;94-N;du Havre / Sainte-Catherine;Cirque du Soleil
60514673;"{\"type\":\"LineString\",\"coordinates\":[[-73.6117218,45.5579112],[-73.6119596,45.5580527],[-73.6121683,45.5581747],[-73.6122444,45.558247],[-73.6125888,45.5585652]]}";1;Rue D'Iberville;1;50;false;true;true;false;false;false;50.0;0;0;0;0;0;false;53772;6010977627;-73.612013;45.55812;51315;6010967417;-73.61322;45.558944;1;27;28;5910101;Bus 94 : D'Iberville Nord;"";STM;94-N;du Havre / Sainte-Catherine;Cirque du Soleil
461338707;"{\"type\":\"LineString\",\"coordinates\":[[-73.6125888,45.5585652],[-73.6130956,45.5588318]]}";2;Rue D'Iberville;1;50;false;true;true;false;false;false;50.0;0;0;0;0;0;false;53772;6010977627;-73.612013;45.55812;51315;6010967417;-73.61322;45.558944;0;27;28;5910101;Bus 94 : D'Iberville Nord;"";STM;94-N;du Havre / Sainte-Catherine;Cirque du Soleil
461338704;"{\"type\":\"LineString\",\"coordinates\":[[-73.6130956,45.5588318],[-73.6136017,45.5590455],[-73.6137838,45.559079]]}";3;Rue D'Iberville;1;50;false;true;true;false;false;false;30.5;1;0;0;0;0;false;53772;6010977627;-73.612013;45.55812;51315;6010967417;-73.61322;45.558944;1;27;28;5910101;Bus 94 : D'Iberville Nord;"";STM;94-N;du Havre / Sainte-Catherine;Cirque du Soleil
461338707;"{\"type\":\"LineString\",\"coordinates\":[[-73.6125888,45.5585652],[-73.6130956,45.5588318]]}";1;Rue D'Iberville;1;50;false;true;true;false;false;false;50.0;0;0;0;0;0;false;51315;6010967417;-73.61322;45.558944;51340;6010969136;-73.612702;45.560893;2;28;29;5910101;Bus 94 : D'Iberville Nord;"";STM;94-N;du Havre / Sainte-Catherine;Cirque du Soleil
461338704;"{\"type\":\"LineString\",\"coordinates\":[[-73.6130956,45.5588318],[-73.6136017,45.5590455],[-73.6137838,45.559079]]}";2;Rue D'Iberville;1;50;false;true;true;false;false;false;61.0;1;0;0;0;0;false;51315;6010967417;-73.61322;45.558944;51340;6010969136;-73.612702;45.560893;0;28;29;5910101;Bus 94 : D'Iberville Nord;"";STM;94-N;du Havre / Sainte-Catherine;Cirque du Soleil
546099325;"{\"type\":\"LineString\",\"coordinates\":[[-73.6137838,45.559079],[-73.613678,45.5591981]]}";3;Rue Jarry Est;2;50;false;true;true;false;false;false;16.0;1;0;0;0;0;false;51315;6010967417;-73.61322;45.558944;51340;6010969136;-73.612702;45.560893;0;28;29;5910101;Bus 94 : D'Iberville Nord;"";STM;94-N;du Havre / Sainte-Catherine;Cirque du Soleil
461326738;"{\"type\":\"LineString\",\"coordinates\":[[-73.613678,45.5591981],[-73.6134048,45.5595056],[-73.6128896,45.5600855],[-73.612779,45.5602101],[-73.6123728,45.5606672]]}";4;Rue Jarry Est;2;50;false;false;true;false;false;false;193.0;1;0;0;0;0;false;51315;6010967417;-73.61322;45.558944;51340;6010969136;-73.612702;45.560893;0;28;29;5910101;Bus 94 : D'Iberville Nord;"";STM;94-N;du Havre / Sainte-Catherine;Cirque du Soleil
461325859;"{\"type\":\"LineString\",\"coordinates\":[[-73.6123728,45.5606672],[-73.61396,45.5613525]]}";5;2e Avenue;1;50;false;false;true;false;false;false;146.0;1;0;0;0;0;false;51315;6010967417;-73.61322;45.558944;51340;6010969136;-73.612702;45.560893;2;28;29;5910101;Bus 94 : D'Iberville Nord;"";STM;94-N;du Havre / Sainte-Catherine;Cirque du Soleil
461325859;"{\"type\":\"LineString\",\"coordinates\":[[-73.6123728,45.5606672],[-73.61396,45.5613525]]}";1;2e Avenue;1;50;false;false;true;false;false;false;73.0;1;0;0;0;0;false;51340;6010969136;-73.612702;45.560893;54303;6010973681;-73.614852;45.561695;1;29;30;5910101;Bus 94 : D'Iberville Nord;"";STM;94-N;du Havre / Sainte-Catherine;Cirque du Soleil
728827081;"{\"type\":\"LineString\",\"coordinates\":[[-73.61396,45.5613525],[-73.6152839,45.5619311]]}";2;2e Avenue;1;50;false;false;true;false;false;false;122.0;0;0;0;0;0;false;51340;6010969136;-73.612702;45.560893;54303;6010973681;-73.614852;45.561695;1;29;30;5910101;Bus 94 : D'Iberville Nord;"";STM;94-N;du Havre / Sainte-Catherine;Cirque du Soleil
