way_id;shape;index;name;nb_lanes;legal_speed;speed_zone_30;oneway;shares_bike;bike_box;bus_lane;dedicated_bus_lane;length;nb_traffic_signals;nb_crossings;nb_stops;nb_give_ways;nb_lvl_crossings;roundabout;stop_id_orig;node_id_orig;coord_x_orig;coord_y_orig;stop_id_dest;node_id_dest;coord_x_dest;coord_y_dest;nb_neighbouring_ways_bus_stop;ordre_orig;ordre_dest;id_line;line_name;colour;operator;ref;from;to
679623762;"{\"type\":\"LineString\",\"coordinates\":[[-73.7500568,45.6578566],[-73.7500352,45.6578097]]}";1;Rue Bienville;1;"";false;true;true;false;false;false;6.0;0;0;0;0;0;false;41068;6269507272;-73.75014;45.657847;41893;6269507283;-73.74873;45.653171;1;0;1;9312804;Bus : 17 S - Direction Métro Cartier;"";STL;17S;Terminus Bienville;Métro Cartier Quai:2
88052035;"{\"type\":\"LineString\",\"coordinates\":[[-73.7500352,45.6578097],[-73.7499809,45.6577221],[-73.7498514,45.6575867],[-73.749618,45.6573037]]}";2;Rue Bienville;1;50;false;false;true;false;false;false;66.0;0;0;0;0;0;false;41068;6269507272;-73.75014;45.657847;41893;6269507283;-73.74873;45.653171;0;0;1;9312804;Bus : 17 S - Direction Métro Cartier;"";STL;17S;Terminus Bienville;Métro Cartier Quai:2
45289919;"{\"type\":\"LineString\",\"coordinates\":[[-73.7493423,45.656395],[-73.749618,45.6573037]]}";3;Rue Bienville;1;50;false;false;true;false;false;false;104.0;0;0;0;0;0;false;41068;6269507272;-73.75014;45.657847;41893;6269507283;-73.74873;45.653171;0;0;1;9312804;Bus : 17 S - Direction Métro Cartier;"";STL;17S;Terminus Bienville;Métro Cartier Quai:2
32641588;"{\"type\":\"LineString\",\"coordinates\":[[-73.7485738,45.6529562],[-73.748626,45.65305],[-73.7486353,45.6531613],[-73.7485656,45.6534419],[-73.7485452,45.6535846],[-73.748556,45.6537107],[-73.7489719,45.6551502],[-73.7493423,45.656395]]}";4;Rue Bienville;2;50;false;false;false;false;false;false;390.0;0;0;0;0;0;false;41068;6269507272;-73.75014;45.657847;41893;6269507283;-73.74873;45.653171;2;0;1;9312804;Bus : 17 S - Direction Métro Cartier;"";STL;17S;Terminus Bienville;Métro Cartier Quai:2
32641588;"{\"type\":\"LineString\",\"coordinates\":[[-73.7485738,45.6529562],[-73.748626,45.65305],[-73.7486353,45.6531613],[-73.7485656,45.6534419],[-73.7485452,45.6535846],[-73.748556,45.6537107],[-73.7489719,45.6551502],[-73.7493423,45.656395]]}";1;Rue Bienville;2;50;false;false;false;false;false;false;195.0;0;0;0;0;0;false;41893;6269507283;-73.74873;45.653171;41891;6269507388;-73.74843;45.651525;1;1;2;9312804;Bus : 17 S - Direction Métro Cartier;"";STL;17S;Terminus Bienville;Métro Cartier Quai:2
53332410;"{\"type\":\"LineString\",\"coordinates\":[[-73.7482828,45.6529997],[-73.7484522,45.6529765],[-73.7485738,45.6529562]]}";2;Rue Bergeron;2;50;false;false;false;false;false;false;24.0;0;0;0;0;0;false;41893;6269507283;-73.74873;45.653171;41891;6269507388;-73.74843;45.651525;0;1;2;9312804;Bus : 17 S - Direction Métro Cartier;"";STL;17S;Terminus Bienville;Métro Cartier Quai:2
53332411;"{\"type\":\"LineString\",\"coordinates\":[[-73.7524223,45.6458862],[-73.7514961,45.646332],[-73.7507324,45.6467415],[-73.7504224,45.6470045],[-73.750209,45.6472856],[-73.7500265,45.6475667],[-73.7497447,45.6479892],[-73.7494497,45.6484612],[-73.748926,45.649281],[-73.7487461,45.6495782],[-73.7486383,45.6497966],[-73.7484693,45.6502605],[-73.7484361,45.6504215],[-73.7483893,45.6507053],[-73.7483547,45.6510296],[-73.7483364,45.6512972],[-73.7483217,45.6521419],[-73.7483292,45.6524562],[-73.7483093,45.6527542],[-73.7482828,45.6529997]]}";3;Boulevard des Laurentides;2;50;false;false;false;false;false;false;449.5;1;0;0;0;0;false;41893;6269507283;-73.74873;45.653171;41891;6269507388;-73.74843;45.651525;1;1;2;9312804;Bus : 17 S - Direction Métro Cartier;"";STL;17S;Terminus Bienville;Métro Cartier Quai:2
694196055;"{\"type\":\"LineString\",\"coordinates\":[[-73.7543477,45.6447451],[-73.7537012,45.6451721],[-73.7524223,45.6458862]]}";1;Boulevard des Laurentides;4;50;false;false;true;false;false;false;197.0;1;0;0;0;0;false;41885;6269507420;-73.75241;45.645982;41883;6269507430;-73.75497;45.644334;2;6;7;9312804;Bus : 17 S - Direction Métro Cartier;"";STL;17S;Terminus Bienville;Métro Cartier Quai:2
41337564;"{\"type\":\"LineString\",\"coordinates\":[[-73.7555723,45.6408757],[-73.7558383,45.6417638],[-73.7559156,45.6421778],[-73.7559328,45.6425139],[-73.7559214,45.642638],[-73.7558342,45.6429669],[-73.7557306,45.643278],[-73.7555812,45.6435164],[-73.7553717,45.6437971],[-73.7551985,45.6439861],[-73.7545766,45.6445601],[-73.7543477,45.6447451]]}";2;Boulevard des Laurentides;4;50;false;false;true;false;false;false;468.0;1;0;0;0;0;false;41885;6269507420;-73.75241;45.645982;41883;6269507430;-73.75497;45.644334;2;6;7;9312804;Bus : 17 S - Direction Métro Cartier;"";STL;17S;Terminus Bienville;Métro Cartier Quai:2
45289922;"{\"type\":\"LineString\",\"coordinates\":[[-73.7555723,45.6408757],[-73.7549784,45.6388653],[-73.7547047,45.6379031],[-73.7545546,45.6373773],[-73.7543724,45.6367691],[-73.7543289,45.6366239],[-73.754212,45.6362341],[-73.754131,45.6359638],[-73.7540991,45.6358574],[-73.7540854,45.6358118],[-73.7540712,45.6357645],[-73.7536418,45.6343323],[-73.7532601,45.633032],[-73.7531562,45.6326621],[-73.7530374,45.632239],[-73.7529152,45.6318041],[-73.7527698,45.6312639]]}";1;Boulevard des Laurentides;4;50;false;false;true;false;false;false;545.0;2;0;0;0;0;false;41870;6269507525;-73.75309;45.631935;41868;6269507532;-73.75281;45.630991;1;13;14;9312804;Bus : 17 S - Direction Métro Cartier;"";STL;17S;Terminus Bienville;Métro Cartier Quai:2
686078336;"{\"type\":\"LineString\",\"coordinates\":[[-73.7527698,45.6312639],[-73.7527805,45.6311138],[-73.7525921,45.6303789]]}";2;Boulevard des Laurentides;2;50;false;true;true;false;false;false;50.0;1;0;0;0;0;false;41870;6269507525;-73.75309;45.631935;41868;6269507532;-73.75281;45.630991;1;13;14;9312804;Bus : 17 S - Direction Métro Cartier;"";STL;17S;Terminus Bienville;Métro Cartier Quai:2
686078336;"{\"type\":\"LineString\",\"coordinates\":[[-73.7527698,45.6312639],[-73.7527805,45.6311138],[-73.7525921,45.6303789]]}";1;Boulevard des Laurentides;2;50;false;true;true;false;false;false;50.0;1;0;0;0;0;false;41868;6269507532;-73.75281;45.630991;41866;6269507555;-73.7522;45.628586;1;14;15;9312804;Bus : 17 S - Direction Métro Cartier;"";STL;17S;Terminus Bienville;Métro Cartier Quai:2
473352709;"{\"type\":\"LineString\",\"coordinates\":[[-73.7525921,45.6303789],[-73.7522153,45.6291069],[-73.7520696,45.628567],[-73.7519892,45.6284861]]}";2;Boulevard des Laurentides;2;50;false;true;true;false;false;false;108.5;2;0;0;0;0;false;41868;6269507532;-73.75281;45.630991;41866;6269507555;-73.7522;45.628586;1;14;15;9312804;Bus : 17 S - Direction Métro Cartier;"";STL;17S;Terminus Bienville;Métro Cartier Quai:2
686611413;"{\"type\":\"LineString\",\"coordinates\":[[-73.7467167,45.6217277],[-73.7455032,45.620589]]}";1;Boulevard des Laurentides;4;50;false;false;true;false;false;false;158.0;1;0;0;0;0;false;41859;6269507635;-73.74685;45.621753;41857;6269507650;-73.74493;45.619868;2;18;19;9312804;Bus : 17 S - Direction Métro Cartier;"";STL;17S;Terminus Bienville;Métro Cartier Quai:2
455269000;"{\"type\":\"LineString\",\"coordinates\":[[-73.7455032,45.620589],[-73.7446231,45.6197693]]}";2;Boulevard des Laurentides;4;50;false;false;true;false;false;false;114.0;1;0;0;0;0;false;41859;6269507635;-73.74685;45.621753;41857;6269507650;-73.74493;45.619868;2;18;19;9312804;Bus : 17 S - Direction Métro Cartier;"";STL;17S;Terminus Bienville;Métro Cartier Quai:2
455269000;"{\"type\":\"LineString\",\"coordinates\":[[-73.7455032,45.620589],[-73.7446231,45.6197693]]}";1;Boulevard des Laurentides;4;50;false;false;true;false;false;false;57.0;1;0;0;0;0;false;41857;6269507650;-73.74493;45.619868;41855;6269507690;-73.74269;45.617722;1;19;20;9312804;Bus : 17 S - Direction Métro Cartier;"";STL;17S;Terminus Bienville;Métro Cartier Quai:2
455260229;"{\"type\":\"LineString\",\"coordinates\":[[-73.7446231,45.6197693],[-73.7425008,45.6177734],[-73.7417467,45.6170641],[-73.7406573,45.6160395],[-73.7405914,45.6159776],[-73.7400403,45.6154592]]}";2;Boulevard des Laurentides;4;50;false;false;true;false;false;false;299.0;1;0;0;0;0;false;41857;6269507650;-73.74493;45.619868;41855;6269507690;-73.74269;45.617722;1;19;20;9312804;Bus : 17 S - Direction Métro Cartier;"";STL;17S;Terminus Bienville;Métro Cartier Quai:2
455260229;"{\"type\":\"LineString\",\"coordinates\":[[-73.7446231,45.6197693],[-73.7425008,45.6177734],[-73.7417467,45.6170641],[-73.7406573,45.6160395],[-73.7405914,45.6159776],[-73.7400403,45.6154592]]}";1;Boulevard des Laurentides;4;50;false;false;true;false;false;false;299.0;1;0;0;0;0;false;41853;6269507712;-73.74037;45.615585;41851;6269507758;-73.73775;45.613107;1;21;22;9312804;Bus : 17 S - Direction Métro Cartier;"";STL;17S;Terminus Bienville;Métro Cartier Quai:2
455260226;"{\"type\":\"LineString\",\"coordinates\":[[-73.7400403,45.6154592],[-73.7396278,45.6150647],[-73.7387648,45.6142395],[-73.7378909,45.6134045],[-73.7374315,45.6129487],[-73.7371568,45.6126485],[-73.7370187,45.612488],[-73.7368022,45.612143],[-73.7367228,45.612007],[-73.736659,45.6118593]]}";2;Boulevard des Laurentides;4;50;false;false;true;false;false;false;240.5;0;0;0;0;0;false;41853;6269507712;-73.74037;45.615585;41851;6269507758;-73.73775;45.613107;1;21;22;9312804;Bus : 17 S - Direction Métro Cartier;"";STL;17S;Terminus Bienville;Métro Cartier Quai:2
455260226;"{\"type\":\"LineString\",\"coordinates\":[[-73.7400403,45.6154592],[-73.7396278,45.6150647],[-73.7387648,45.6142395],[-73.7378909,45.6134045],[-73.7374315,45.6129487],[-73.7371568,45.6126485],[-73.7370187,45.612488],[-73.7368022,45.612143],[-73.7367228,45.612007],[-73.736659,45.6118593]]}";1;Boulevard des Laurentides;4;50;false;false;true;false;false;false;240.5;0;0;0;0;0;false;41851;6269507758;-73.73775;45.613107;41850;6269507804;-73.73656;45.610998;1;22;23;9312804;Bus : 17 S - Direction Métro Cartier;"";STL;17S;Terminus Bienville;Métro Cartier Quai:2
45760616;"{\"type\":\"LineString\",\"coordinates\":[[-73.736659,45.6118593],[-73.7366643,45.6116253],[-73.736594,45.6113275],[-73.736517,45.6109063]]}";2;Boulevard des Laurentides;2;50;false;true;true;false;false;false;53.5;1;0;0;0;0;false;41851;6269507758;-73.73775;45.613107;41850;6269507804;-73.73656;45.610998;1;22;23;9312804;Bus : 17 S - Direction Métro Cartier;"";STL;17S;Terminus Bienville;Métro Cartier Quai:2
45760618;"{\"type\":\"LineString\",\"coordinates\":[[-73.736517,45.6109063],[-73.7364642,45.6107878]]}";1;Boulevard des Laurentides;2;50;false;true;true;false;false;false;14.0;2;0;0;0;0;false;41850;6269507804;-73.73656;45.610998;41847;6269507859;-73.73373;45.607795;2;23;24;9312804;Bus : 17 S - Direction Métro Cartier;"";STL;17S;Terminus Bienville;Métro Cartier Quai:2
453313648;"{\"type\":\"LineString\",\"coordinates\":[[-73.7364642,45.6107878],[-73.7361989,45.6103338]]}";2;Boulevard des Laurentides;2;50;false;true;true;false;false;false;55.0;1;0;0;0;0;false;41850;6269507804;-73.73656;45.610998;41847;6269507859;-73.73373;45.607795;0;23;24;9312804;Bus : 17 S - Direction Métro Cartier;"";STL;17S;Terminus Bienville;Métro Cartier Quai:2
45760620;"{\"type\":\"LineString\",\"coordinates\":[[-73.7361989,45.6103338],[-73.7360936,45.6101968],[-73.7358874,45.6099783]]}";3;Boulevard des Laurentides;2;50;false;true;true;false;false;false;47.0;0;0;0;0;0;false;41850;6269507804;-73.73656;45.610998;41847;6269507859;-73.73373;45.607795;0;23;24;9312804;Bus : 17 S - Direction Métro Cartier;"";STL;17S;Terminus Bienville;Métro Cartier Quai:2
45760604;"{\"type\":\"LineString\",\"coordinates\":[[-73.7358874,45.6099783],[-73.7346601,45.6088131],[-73.7338961,45.6080877],[-73.7330666,45.6073002],[-73.7325341,45.6067946]]}";4;Boulevard des Laurentides;4;50;false;false;true;false;false;false;440.0;0;0;0;0;0;false;41850;6269507804;-73.73656;45.610998;41847;6269507859;-73.73373;45.607795;2;23;24;9312804;Bus : 17 S - Direction Métro Cartier;"";STL;17S;Terminus Bienville;Métro Cartier Quai:2
45760604;"{\"type\":\"LineString\",\"coordinates\":[[-73.7358874,45.6099783],[-73.7346601,45.6088131],[-73.7338961,45.6080877],[-73.7330666,45.6073002],[-73.7325341,45.6067946]]}";1;Boulevard des Laurentides;4;50;false;false;true;false;false;false;220.0;0;0;0;0;0;false;41847;6269507859;-73.73373;45.607795;41845;6269507875;-73.73251;45.60663;1;24;25;9312804;Bus : 17 S - Direction Métro Cartier;"";STL;17S;Terminus Bienville;Métro Cartier Quai:2
453312139;"{\"type\":\"LineString\",\"coordinates\":[[-73.7325341,45.6067946],[-73.7323191,45.6065782]]}";2;Boulevard des Laurentides;4;50;false;false;true;false;false;false;15.0;0;0;0;0;0;false;41847;6269507859;-73.73373;45.607795;41845;6269507875;-73.73251;45.60663;1;24;25;9312804;Bus : 17 S - Direction Métro Cartier;"";STL;17S;Terminus Bienville;Métro Cartier Quai:2
453312138;"{\"type\":\"LineString\",\"coordinates\":[[-73.7323191,45.6065782],[-73.7322061,45.6064632]]}";1;Boulevard des Laurentides;4;50;false;false;true;false;false;false;16.0;0;0;0;0;0;false;41845;6269507875;-73.73251;45.60663;41843;6269507918;-73.73038;45.604601;2;25;26;9312804;Bus : 17 S - Direction Métro Cartier;"";STL;17S;Terminus Bienville;Métro Cartier Quai:2
453312144;"{\"type\":\"LineString\",\"coordinates\":[[-73.7322061,45.6064632],[-73.7319837,45.6062501]]}";2;Boulevard des Laurentides;4;50;false;false;true;false;false;false;30.0;0;0;0;0;0;false;41845;6269507875;-73.73251;45.60663;41843;6269507918;-73.73038;45.604601;0;25;26;9312804;Bus : 17 S - Direction Métro Cartier;"";STL;17S;Terminus Bienville;Métro Cartier Quai:2
23292176;"{\"type\":\"LineString\",\"coordinates\":[[-73.7319837,45.6062501],[-73.7318931,45.6061672],[-73.7301515,45.6045749],[-73.7289712,45.6035194],[-73.7284733,45.603094],[-73.7264864,45.6011645],[-73.7259903,45.6006827],[-73.7243769,45.5991727],[-73.7231922,45.5980638],[-73.7217949,45.596756]]}";3;Boulevard des Laurentides;4;50;false;false;true;false;false;false;1321.0;0;0;0;0;0;false;41845;6269507875;-73.73251;45.60663;41843;6269507918;-73.73038;45.604601;2;25;26;9312804;Bus : 17 S - Direction Métro Cartier;"";STL;17S;Terminus Bienville;Métro Cartier Quai:2
23292176;"{\"type\":\"LineString\",\"coordinates\":[[-73.7319837,45.6062501],[-73.7318931,45.6061672],[-73.7301515,45.6045749],[-73.7289712,45.6035194],[-73.7284733,45.603094],[-73.7264864,45.6011645],[-73.7259903,45.6006827],[-73.7243769,45.5991727],[-73.7231922,45.5980638],[-73.7217949,45.596756]]}";1;Boulevard des Laurentides;4;50;false;false;true;false;false;false;660.5;0;0;0;0;0;false;41840;6119522924;-73.7234;45.5981;41832;6269508372;-73.72114;45.595972;1;30;31;9312804;Bus : 17 S - Direction Métro Cartier;"";STL;17S;Terminus Bienville;Métro Cartier Quai:2
694161758;"{\"type\":\"LineString\",\"coordinates\":[[-73.7217949,45.596756],[-73.7209128,45.5959303],[-73.7202442,45.5953045],[-73.7200206,45.5950952]]}";2;Boulevard des Laurentides;4;50;false;false;true;false;false;false;115.5;0;0;0;0;0;false;41840;6119522924;-73.7234;45.5981;41832;6269508372;-73.72114;45.595972;1;30;31;9312804;Bus : 17 S - Direction Métro Cartier;"";STL;17S;Terminus Bienville;Métro Cartier Quai:2
23292111;"{\"type\":\"LineString\",\"coordinates\":[[-73.7200206,45.5950952],[-73.7199739,45.5950101],[-73.7199188,45.5949358],[-73.7193506,45.5944197],[-73.7187237,45.5939086],[-73.7187146,45.5939012],[-73.7176455,45.5931754]]}";1;Boulevard des Laurentides;2;50;false;true;true;false;false;false;284.0;0;0;0;0;0;false;41830;6269508381;-73.72024;45.595137;41827;6269508664;-73.71507;45.590684;2;32;33;9312804;Bus : 17 S - Direction Métro Cartier;"";STL;17S;Terminus Bienville;Métro Cartier Quai:2
672674565;"{\"type\":\"LineString\",\"coordinates\":[[-73.7176455,45.5931754],[-73.7173484,45.5929725]]}";2;Boulevard des Laurentides;2;50;false;true;true;false;false;false;33.0;0;0;0;0;0;false;41830;6269508381;-73.72024;45.595137;41827;6269508664;-73.71507;45.590684;0;32;33;9312804;Bus : 17 S - Direction Métro Cartier;"";STL;17S;Terminus Bienville;Métro Cartier Quai:2
37722246;"{\"type\":\"LineString\",\"coordinates\":[[-73.7173484,45.5929725],[-73.7170879,45.5927901],[-73.7168118,45.5925764],[-73.716514,45.5923341],[-73.7163802,45.5922191]]}";3;Boulevard des Laurentides;2;50;false;true;true;false;false;false;113.0;0;0;0;0;0;false;41830;6269508381;-73.72024;45.595137;41827;6269508664;-73.71507;45.590684;0;32;33;9312804;Bus : 17 S - Direction Métro Cartier;"";STL;17S;Terminus Bienville;Métro Cartier Quai:2
511504658;"{\"type\":\"LineString\",\"coordinates\":[[-73.7163802,45.5922191],[-73.716336,45.5921809]]}";4;Boulevard des Laurentides;2;50;false;true;true;false;false;false;6.0;0;0;0;0;0;false;41830;6269508381;-73.72024;45.595137;41827;6269508664;-73.71507;45.590684;0;32;33;9312804;Bus : 17 S - Direction Métro Cartier;"";STL;17S;Terminus Bienville;Métro Cartier Quai:2
483683383;"{\"type\":\"LineString\",\"coordinates\":[[-73.716336,45.5921809],[-73.7161486,45.5920136]]}";5;Boulevard des Laurentides;2;50;false;true;true;false;false;false;24.0;0;0;0;0;0;false;41830;6269508381;-73.72024;45.595137;41827;6269508664;-73.71507;45.590684;0;32;33;9312804;Bus : 17 S - Direction Métro Cartier;"";STL;17S;Terminus Bienville;Métro Cartier Quai:2
511504662;"{\"type\":\"LineString\",\"coordinates\":[[-73.7161486,45.5920136],[-73.7158622,45.5917283],[-73.7157899,45.5916594]]}";6;Boulevard des Laurentides;2;50;false;true;true;false;false;false;49.0;0;0;0;0;0;false;41830;6269508381;-73.72024;45.595137;41827;6269508664;-73.71507;45.590684;0;32;33;9312804;Bus : 17 S - Direction Métro Cartier;"";STL;17S;Terminus Bienville;Métro Cartier Quai:2
37722247;"{\"type\":\"LineString\",\"coordinates\":[[-73.7157899,45.5916594],[-73.7156545,45.5915211],[-73.7150055,45.590814],[-73.7145267,45.5902424],[-73.7143693,45.5900475],[-73.7137609,45.5894643]]}";7;Boulevard des Laurentides;2;50;false;true;true;false;false;false;291.0;0;0;0;0;0;false;41830;6269508381;-73.72024;45.595137;41827;6269508664;-73.71507;45.590684;2;32;33;9312804;Bus : 17 S - Direction Métro Cartier;"";STL;17S;Terminus Bienville;Métro Cartier Quai:2
37722247;"{\"type\":\"LineString\",\"coordinates\":[[-73.7157899,45.5916594],[-73.7156545,45.5915211],[-73.7150055,45.590814],[-73.7145267,45.5902424],[-73.7143693,45.5900475],[-73.7137609,45.5894643]]}";1;Boulevard des Laurentides;2;50;false;true;true;false;false;false;145.5;0;0;0;0;0;false;41827;6269508664;-73.71507;45.590684;41825;6269508711;-73.71332;45.588869;1;33;34;9312804;Bus : 17 S - Direction Métro Cartier;"";STL;17S;Terminus Bienville;Métro Cartier Quai:2
23292070;"{\"type\":\"LineString\",\"coordinates\":[[-73.7092377,45.5853605],[-73.7110568,45.587011],[-73.7127438,45.5885415],[-73.7128208,45.5886113],[-73.7131232,45.5888858],[-73.7137609,45.5894643]]}";2;Boulevard des Laurentides;4;50;false;false;true;false;false;false;288.5;0;0;0;0;0;false;41827;6269508664;-73.71507;45.590684;41825;6269508711;-73.71332;45.588869;1;33;34;9312804;Bus : 17 S - Direction Métro Cartier;"";STL;17S;Terminus Bienville;Métro Cartier Quai:2
23292070;"{\"type\":\"LineString\",\"coordinates\":[[-73.7092377,45.5853605],[-73.7110568,45.587011],[-73.7127438,45.5885415],[-73.7128208,45.5886113],[-73.7131232,45.5888858],[-73.7137609,45.5894643]]}";1;Boulevard des Laurentides;4;50;false;false;true;false;false;false;288.5;0;0;0;0;0;false;41821;6269508797;-73.70955;45.585529;41819;6269508827;-73.70803;45.583822;1;36;37;9312804;Bus : 17 S - Direction Métro Cartier;"";STL;17S;Terminus Bienville;Métro Cartier Quai:2
452204249;"{\"type\":\"LineString\",\"coordinates\":[[-73.7092377,45.5853605],[-73.7086369,45.5846772],[-73.70778,45.5837267],[-73.7073522,45.5833487],[-73.7059597,45.5821183]]}";2;Boulevard des Laurentides;1;50;false;true;true;false;false;false;221.5;0;0;0;0;0;false;41821;6269508797;-73.70955;45.585529;41819;6269508827;-73.70803;45.583822;1;36;37;9312804;Bus : 17 S - Direction Métro Cartier;"";STL;17S;Terminus Bienville;Métro Cartier Quai:2
452204248;"{\"type\":\"LineString\",\"coordinates\":[[-73.7059597,45.5821183],[-73.7056531,45.5818527]]}";1;Boulevard des Laurentides;1;50;false;true;true;false;false;false;38.0;0;0;0;0;0;false;41815;6119522930;-73.70617;45.582161;41816;6269508903;-73.70416;45.58041;2;38;39;9312804;Bus : 17 S - Direction Métro Cartier;"";STL;17S;Terminus Bienville;Métro Cartier Quai:2
452204245;"{\"type\":\"LineString\",\"coordinates\":[[-73.7056531,45.5818527],[-73.7054813,45.5817192]]}";2;Boulevard des Laurentides;1;50;false;true;true;false;false;false;20.0;0;0;0;0;0;false;41815;6119522930;-73.70617;45.582161;41816;6269508903;-73.70416;45.58041;0;38;39;9312804;Bus : 17 S - Direction Métro Cartier;"";STL;17S;Terminus Bienville;Métro Cartier Quai:2
452204246;"{\"type\":\"LineString\",\"coordinates\":[[-73.7054813,45.5817192],[-73.7051555,45.5814161]]}";3;Boulevard des Laurentides;1;50;false;true;true;false;false;false;43.0;0;0;0;0;0;false;41815;6119522930;-73.70617;45.582161;41816;6269508903;-73.70416;45.58041;0;38;39;9312804;Bus : 17 S - Direction Métro Cartier;"";STL;17S;Terminus Bienville;Métro Cartier Quai:2
23292068;"{\"type\":\"LineString\",\"coordinates\":[[-73.7051555,45.5814161],[-73.7037511,45.580188],[-73.7031883,45.5796982],[-73.702581,45.5792442],[-73.7020488,45.5788173],[-73.7018843,45.5786846],[-73.7012367,45.5782416],[-73.7010736,45.5781875]]}";4;Boulevard des Laurentides;1;50;false;true;true;false;false;false;482.0;0;1;0;0;0;false;41815;6119522930;-73.70617;45.582161;41816;6269508903;-73.70416;45.58041;2;38;39;9312804;Bus : 17 S - Direction Métro Cartier;"";STL;17S;Terminus Bienville;Métro Cartier Quai:2
23292068;"{\"type\":\"LineString\",\"coordinates\":[[-73.7051555,45.5814161],[-73.7037511,45.580188],[-73.7031883,45.5796982],[-73.702581,45.5792442],[-73.7020488,45.5788173],[-73.7018843,45.5786846],[-73.7012367,45.5782416],[-73.7010736,45.5781875]]}";1;Boulevard des Laurentides;1;50;false;true;true;false;false;false;241.0;0;1;0;0;0;false;41812;6269508921;-73.70208;45.578839;41810;6269508953;-73.70021;45.57733;1;40;41;9312804;Bus : 17 S - Direction Métro Cartier;"";STL;17S;Terminus Bienville;Métro Cartier Quai:2
259643627;"{\"type\":\"LineString\",\"coordinates\":[[-73.6923511,45.5706606],[-73.6935441,45.5717052],[-73.6938656,45.5719868],[-73.6941278,45.5722163],[-73.694173,45.572256],[-73.6948715,45.5728676],[-73.6960798,45.5739255],[-73.6961954,45.5740268],[-73.6975572,45.5752191],[-73.6982178,45.5757768],[-73.6987252,45.5762051],[-73.6991329,45.5765493],[-73.6998396,45.5771459],[-73.699969,45.5772551],[-73.700393,45.577613],[-73.7010736,45.5781875]]}";2;Boulevard des Laurentides;4;50;false;false;true;false;false;false;539.0;2;0;0;0;0;false;41812;6269508921;-73.70208;45.578839;41810;6269508953;-73.70021;45.57733;1;40;41;9312804;Bus : 17 S - Direction Métro Cartier;"";STL;17S;Terminus Bienville;Métro Cartier Quai:2
452227545;"{\"type\":\"LineString\",\"coordinates\":[[-73.6921816,45.5704852],[-73.6923511,45.5706606]]}";1;Boulevard des Laurentides;4;50;false;false;true;false;false;false;24.0;1;0;0;0;0;false;41801;6269509504;-73.69252;45.570631;41799;6269509559;-73.69062;45.568906;2;45;46;9312804;Bus : 17 S - Direction Métro Cartier;"";STL;17S;Terminus Bienville;Métro Cartier Quai:2
258700555;"{\"type\":\"LineString\",\"coordinates\":[[-73.6920842,45.5703911],[-73.6921816,45.5704852]]}";2;Boulevard des Laurentides;4;50;false;false;true;false;false;false;13.0;2;0;0;0;0;false;41801;6269509504;-73.69252;45.570631;41799;6269509559;-73.69062;45.568906;0;45;46;9312804;Bus : 17 S - Direction Métro Cartier;"";STL;17S;Terminus Bienville;Métro Cartier Quai:2
452227548;"{\"type\":\"LineString\",\"coordinates\":[[-73.6901977,45.568689],[-73.6920842,45.5703911]]}";3;Boulevard des Laurentides;4;50;false;false;true;false;false;false;240.0;1;0;0;0;0;false;41801;6269509504;-73.69252;45.570631;41799;6269509559;-73.69062;45.568906;2;45;46;9312804;Bus : 17 S - Direction Métro Cartier;"";STL;17S;Terminus Bienville;Métro Cartier Quai:2
452227548;"{\"type\":\"LineString\",\"coordinates\":[[-73.6901977,45.568689],[-73.6920842,45.5703911]]}";1;Boulevard des Laurentides;4;50;false;false;true;false;false;false;120.0;1;0;0;0;0;false;41799;6269509559;-73.69062;45.568906;41797;6269510018;-73.68847;45.566975;1;46;47;9312804;Bus : 17 S - Direction Métro Cartier;"";STL;17S;Terminus Bienville;Métro Cartier Quai:2
452227547;"{\"type\":\"LineString\",\"coordinates\":[[-73.6883244,45.5669908],[-73.6901977,45.568689]]}";2;Boulevard des Laurentides;4;50;false;false;true;false;false;false;119.5;0;0;0;0;0;false;41799;6269509559;-73.69062;45.568906;41797;6269510018;-73.68847;45.566975;1;46;47;9312804;Bus : 17 S - Direction Métro Cartier;"";STL;17S;Terminus Bienville;Métro Cartier Quai:2
452227546;"{\"type\":\"LineString\",\"coordinates\":[[-73.68769,45.5664197],[-73.6883244,45.5669908]]}";1;Boulevard des Laurentides;4;50;false;false;true;false;false;false;81.0;0;0;0;0;0;false;41797;6269510018;-73.68847;45.566975;41795;6269510062;-73.68661;45.565286;2;47;48;9312804;Bus : 17 S - Direction Métro Cartier;"";STL;17S;Terminus Bienville;Métro Cartier Quai:2
46086120;"{\"type\":\"LineString\",\"coordinates\":[[-73.6864142,45.565271],[-73.68769,45.5664197]]}";2;Boulevard des Laurentides;4;50;false;false;true;false;false;false;162.0;0;0;0;0;0;false;41797;6269510018;-73.68847;45.566975;41795;6269510062;-73.68661;45.565286;2;47;48;9312804;Bus : 17 S - Direction Métro Cartier;"";STL;17S;Terminus Bienville;Métro Cartier Quai:2
452227544;"{\"type\":\"LineString\",\"coordinates\":[[-73.684522,45.5635813],[-73.6864142,45.565271]]}";1;Boulevard des Laurentides;4;50;false;false;true;false;false;false;239.0;0;0;0;0;0;false;41795;6269510062;-73.68661;45.565286;41876;6269510187;-73.68437;45.563286;2;48;49;9312804;Bus : 17 S - Direction Métro Cartier;"";STL;17S;Terminus Bienville;Métro Cartier Quai:2
452227549;"{\"type\":\"LineString\",\"coordinates\":[[-73.6826844,45.5619598],[-73.684522,45.5635813]]}";2;Boulevard des Laurentides;4;50;false;false;true;false;false;false;231.0;0;0;0;0;0;false;41795;6269510062;-73.68661;45.565286;41876;6269510187;-73.68437;45.563286;2;48;49;9312804;Bus : 17 S - Direction Métro Cartier;"";STL;17S;Terminus Bienville;Métro Cartier Quai:2
452227549;"{\"type\":\"LineString\",\"coordinates\":[[-73.6826844,45.5619598],[-73.684522,45.5635813]]}";1;Boulevard des Laurentides;4;50;false;false;true;false;false;false;115.5;0;0;0;0;0;false;41876;6269510187;-73.68437;45.563286;46423;6269510246;-73.68257;45.561685;1;49;50;9312804;Bus : 17 S - Direction Métro Cartier;"";STL;17S;Terminus Bienville;Métro Cartier Quai:2
22894254;"{\"type\":\"LineString\",\"coordinates\":[[-73.6826844,45.5619598],[-73.6824704,45.5616761],[-73.6824561,45.5616678],[-73.6818442,45.561099]]}";2;Boulevard des Laurentides;2;50;false;true;true;false;false;false;58.5;1;0;0;0;0;false;41876;6269510187;-73.68437;45.563286;46423;6269510246;-73.68257;45.561685;1;49;50;9312804;Bus : 17 S - Direction Métro Cartier;"";STL;17S;Terminus Bienville;Métro Cartier Quai:2
22894254;"{\"type\":\"LineString\",\"coordinates\":[[-73.6826844,45.5619598],[-73.6824704,45.5616761],[-73.6824561,45.5616678],[-73.6818442,45.561099]]}";1;Boulevard des Laurentides;2;50;false;true;true;false;false;false;58.5;1;0;0;0;0;false;46423;6269510246;-73.68257;45.561685;"47128;47170;47120;47012;47002;47173;47058;47158;47141;47102;47122;47911;47133;47160;47163;47127;47137;47117;47031;47143;47174;47124;47112;47070;47148;47017";6269510222;-73.6825;45.559923;1;50;51;9312804;Bus : 17 S - Direction Métro Cartier;"";STL;17S;Terminus Bienville;Métro Cartier Quai:2
259643625;"{\"type\":\"LineString\",\"coordinates\":[[-73.6818442,45.561099],[-73.6826796,45.5606463],[-73.6831194,45.5604083]]}";2;Boulevard Cartier Ouest;2;50;false;true;true;false;false;false;126.0;2;0;0;0;0;false;46423;6269510246;-73.68257;45.561685;"47128;47170;47120;47012;47002;47173;47058;47158;47141;47102;47122;47911;47133;47160;47163;47127;47137;47117;47031;47143;47174;47124;47112;47070;47148;47017";6269510222;-73.6825;45.559923;0;50;51;9312804;Bus : 17 S - Direction Métro Cartier;"";STL;17S;Terminus Bienville;Métro Cartier Quai:2
259643631;"{\"type\":\"LineString\",\"coordinates\":[[-73.6831194,45.5604083],[-73.6830194,45.5603075]]}";3;"";1;50;false;false;true;false;false;false;14.0;2;0;0;0;0;false;46423;6269510246;-73.68257;45.561685;"47128;47170;47120;47012;47002;47173;47058;47158;47141;47102;47122;47911;47133;47160;47163;47127;47137;47117;47031;47143;47174;47124;47112;47070;47148;47017";6269510222;-73.6825;45.559923;0;50;51;9312804;Bus : 17 S - Direction Métro Cartier;"";STL;17S;Terminus Bienville;Métro Cartier Quai:2
242652088;"{\"type\":\"LineString\",\"coordinates\":[[-73.6830194,45.5603075],[-73.6828755,45.560162]]}";4;"";1;50;false;false;true;false;false;false;20.0;1;0;0;0;0;false;46423;6269510246;-73.68257;45.561685;"47128;47170;47120;47012;47002;47173;47058;47158;47141;47102;47122;47911;47133;47160;47163;47127;47137;47117;47031;47143;47174;47124;47112;47070;47148;47017";6269510222;-73.6825;45.559923;0;50;51;9312804;Bus : 17 S - Direction Métro Cartier;"";STL;17S;Terminus Bienville;Métro Cartier Quai:2
259643630;"{\"type\":\"LineString\",\"coordinates\":[[-73.683108,45.5597546],[-73.6832991,45.5596564],[-73.6834151,45.5595825],[-73.6834772,45.5596133],[-73.6835498,45.5596565],[-73.6835923,45.5597297],[-73.6835737,45.5597964],[-73.6834678,45.5598527],[-73.6828755,45.560162]]}";5;"";1;50;false;false;true;false;false;false;129.0;0;0;0;0;0;false;46423;6269510246;-73.68257;45.561685;"47128;47170;47120;47012;47002;47173;47058;47158;47141;47102;47122;47911;47133;47160;47163;47127;47137;47117;47031;47143;47174;47124;47112;47070;47148;47017";6269510222;-73.6825;45.559923;0;50;51;9312804;Bus : 17 S - Direction Métro Cartier;"";STL;17S;Terminus Bienville;Métro Cartier Quai:2
694196043;"{\"type\":\"LineString\",\"coordinates\":[[-73.6829383,45.5598439],[-73.683108,45.5597546]]}";6;"";1;50;false;false;true;false;false;false;17.0;0;0;0;0;0;false;46423;6269510246;-73.68257;45.561685;"47128;47170;47120;47012;47002;47173;47058;47158;47141;47102;47122;47911;47133;47160;47163;47127;47137;47117;47031;47143;47174;47124;47112;47070;47148;47017";6269510222;-73.6825;45.559923;0;50;51;9312804;Bus : 17 S - Direction Métro Cartier;"";STL;17S;Terminus Bienville;Métro Cartier Quai:2
694409795;"{\"type\":\"LineString\",\"coordinates\":[[-73.6827819,45.5599253],[-73.6829383,45.5598439]]}";7;"";1;50;false;false;true;false;false;false;16.0;0;0;0;0;0;false;46423;6269510246;-73.68257;45.561685;"47128;47170;47120;47012;47002;47173;47058;47158;47141;47102;47122;47911;47133;47160;47163;47127;47137;47117;47031;47143;47174;47124;47112;47070;47148;47017";6269510222;-73.6825;45.559923;0;50;51;9312804;Bus : 17 S - Direction Métro Cartier;"";STL;17S;Terminus Bienville;Métro Cartier Quai:2
669902223;"{\"type\":\"LineString\",\"coordinates\":[[-73.6826117,45.5600129],[-73.6827819,45.5599253]]}";8;"";1;50;false;false;true;false;false;false;17.0;0;0;0;0;0;false;46423;6269510246;-73.68257;45.561685;"47128;47170;47120;47012;47002;47173;47058;47158;47141;47102;47122;47911;47133;47160;47163;47127;47137;47117;47031;47143;47174;47124;47112;47070;47148;47017";6269510222;-73.6825;45.559923;1;50;51;9312804;Bus : 17 S - Direction Métro Cartier;"";STL;17S;Terminus Bienville;Métro Cartier Quai:2
