way_id;shape;index;name;nb_lanes;legal_speed;speed_zone_30;oneway;shares_bike;bike_box;bus_lane;dedicated_bus_lane;length;nb_traffic_signals;nb_crossings;nb_stops;nb_give_ways;nb_lvl_crossings;roundabout;stop_id_orig;node_id_orig;coord_x_orig;coord_y_orig;stop_id_dest;node_id_dest;coord_x_dest;coord_y_dest;nb_neighbouring_ways_bus_stop;ordre_orig;ordre_dest;id_line;line_name;colour;operator;ref;from;to
231921532;"{\"type\":\"LineString\",\"coordinates\":[[3.1092167,36.7430851],[3.1092487,36.7430776],[3.1097612,36.7429572],[3.1101233,36.7428712],[3.1102384,36.7428723]]}";1;"";1;50;false;true;true;false;false;false;96.0;0;1;0;0;0;false;Gare Routière;1185935485;3.1092389;36.7430507;05 juillet;3370017395;3.2016214;36.7202581;1;0;1;7937889;Bus: Gare Routiere -> Aéroport D'Alger H.B;green;ETUSA;178;Gare Routiere;Aéroport D'Alger H.B
430028610;"{\"type\":\"LineString\",\"coordinates\":[[3.1104826,36.7428949],[3.1104859,36.7429243],[3.1104789,36.7429533],[3.1104608,36.7429811],[3.1104331,36.7430033],[3.1103985,36.743018],[3.11036,36.7430238],[3.1103211,36.7430202],[3.1102853,36.7430076],[3.1102557,36.742987],[3.1102356,36.7429611],[3.1102255,36.7429317],[3.1102265,36.7429012],[3.1102384,36.7428723],[3.1102627,36.7428452],[3.1102963,36.7428256],[3.1103359,36.7428155],[3.1103775,36.7428159],[3.1104169,36.7428267],[3.1104466,36.7428441],[3.1104691,36.7428675],[3.1104826,36.7428949]]}";2;"";1;50;false;false;true;false;false;false;74.0;0;0;0;0;0;true;Gare Routière;1185935485;3.1092389;36.7430507;05 juillet;3370017395;3.2016214;36.7202581;0;0;1;7937889;Bus: Gare Routiere -> Aéroport D'Alger H.B;green;ETUSA;178;Gare Routiere;Aéroport D'Alger H.B
55492311;"{\"type\":\"LineString\",\"coordinates\":[[3.1104789,36.7429533],[3.1105468,36.742948],[3.1106677,36.7429394],[3.1107929,36.7429224],[3.1109306,36.7428998],[3.1113263,36.7428099],[3.1116186,36.7427541],[3.1119571,36.7427222],[3.1121806,36.742704],[3.1124515,36.74266],[3.1132629,36.7425435]]}";3;"";1;50;false;true;true;false;false;false;257.0;0;0;0;0;0;false;Gare Routière;1185935485;3.1092389;36.7430507;05 juillet;3370017395;3.2016214;36.7202581;0;0;1;7937889;Bus: Gare Routiere -> Aéroport D'Alger H.B;green;ETUSA;178;Gare Routiere;Aéroport D'Alger H.B
556069924;"{\"type\":\"LineString\",\"coordinates\":[[3.1132629,36.7425435],[3.1141489,36.742343],[3.1151521,36.742089],[3.1175409,36.7415343]]}";4;Rocade Nord;3;80;false;true;true;false;false;false;404.0;0;0;0;0;0;false;Gare Routière;1185935485;3.1092389;36.7430507;05 juillet;3370017395;3.2016214;36.7202581;0;0;1;7937889;Bus: Gare Routiere -> Aéroport D'Alger H.B;green;ETUSA;178;Gare Routiere;Aéroport D'Alger H.B
408832490;"{\"type\":\"LineString\",\"coordinates\":[[3.1175409,36.7415343],[3.1199144,36.7409871],[3.1203978,36.7408753]]}";5;Rocade Nord;3;80;false;true;true;false;false;false;269.0;0;0;0;0;0;false;Gare Routière;1185935485;3.1092389;36.7430507;05 juillet;3370017395;3.2016214;36.7202581;0;0;1;7937889;Bus: Gare Routiere -> Aéroport D'Alger H.B;green;ETUSA;178;Gare Routiere;Aéroport D'Alger H.B
404275951;"{\"type\":\"LineString\",\"coordinates\":[[3.1203978,36.7408753],[3.1226735,36.7403451]]}";6;Rocade Nord;3;80;false;true;true;false;false;false;215.0;0;0;0;0;0;false;Gare Routière;1185935485;3.1092389;36.7430507;05 juillet;3370017395;3.2016214;36.7202581;0;0;1;7937889;Bus: Gare Routiere -> Aéroport D'Alger H.B;green;ETUSA;178;Gare Routiere;Aéroport D'Alger H.B
375856116;"{\"type\":\"LineString\",\"coordinates\":[[3.1226735,36.7403451],[3.1246429,36.7398664],[3.1279108,36.7390827]]}";7;Rocade Nord;3;80;false;true;true;false;false;false;495.0;0;0;0;0;0;false;Gare Routière;1185935485;3.1092389;36.7430507;05 juillet;3370017395;3.2016214;36.7202581;0;0;1;7937889;Bus: Gare Routiere -> Aéroport D'Alger H.B;green;ETUSA;178;Gare Routiere;Aéroport D'Alger H.B
404275950;"{\"type\":\"LineString\",\"coordinates\":[[3.1279108,36.7390827],[3.1290918,36.7388146]]}";8;Rocade Nord;3;80;false;true;true;false;false;false;112.0;0;0;0;0;0;false;Gare Routière;1185935485;3.1092389;36.7430507;05 juillet;3370017395;3.2016214;36.7202581;0;0;1;7937889;Bus: Gare Routiere -> Aéroport D'Alger H.B;green;ETUSA;178;Gare Routiere;Aéroport D'Alger H.B
165952787;"{\"type\":\"LineString\",\"coordinates\":[[3.1290918,36.7388146],[3.1312845,36.7382887]]}";9;Rocade Nord;3;80;false;true;true;false;false;false;207.0;0;0;0;0;0;false;Gare Routière;1185935485;3.1092389;36.7430507;05 juillet;3370017395;3.2016214;36.7202581;0;0;1;7937889;Bus: Gare Routiere -> Aéroport D'Alger H.B;green;ETUSA;178;Gare Routiere;Aéroport D'Alger H.B
149726968;"{\"type\":\"LineString\",\"coordinates\":[[3.1312845,36.7382887],[3.1317352,36.7381845],[3.1326284,36.7379685],[3.1329435,36.73789],[3.1335376,36.7377428],[3.1339735,36.7376385],[3.1342725,36.7375676],[3.1349257,36.7374214],[3.1355479,36.7372731],[3.1359194,36.737185],[3.136822,36.7369571],[3.137113,36.7368873],[3.1376012,36.7367626],[3.1381316,36.7366358],[3.1389584,36.7364316],[3.1395806,36.7362864],[3.1400245,36.7361726],[3.1404604,36.7360758],[3.1409942,36.7359447],[3.1413925,36.7358534],[3.1419061,36.7357265],[3.1426598,36.735546]]}";10;Rocade Nord;3;80;false;true;true;false;false;false;1075.0;0;0;0;0;0;false;Gare Routière;1185935485;3.1092389;36.7430507;05 juillet;3370017395;3.2016214;36.7202581;0;0;1;7937889;Bus: Gare Routiere -> Aéroport D'Alger H.B;green;ETUSA;178;Gare Routiere;Aéroport D'Alger H.B
404275987;"{\"type\":\"LineString\",\"coordinates\":[[3.1426598,36.735546],[3.1430648,36.7354449],[3.1437059,36.7352859],[3.1443064,36.7351354],[3.1449215,36.7349703],[3.1452439,36.7348894],[3.1455518,36.7347829],[3.1458664,36.7346808],[3.1462961,36.7345342],[3.1467019,36.7343874],[3.147108,36.7342441]]}";11;Rocade Nord;3;80;false;true;true;false;false;false;429.0;0;0;0;0;0;false;Gare Routière;1185935485;3.1092389;36.7430507;05 juillet;3370017395;3.2016214;36.7202581;0;0;1;7937889;Bus: Gare Routiere -> Aéroport D'Alger H.B;green;ETUSA;178;Gare Routiere;Aéroport D'Alger H.B
404275959;"{\"type\":\"LineString\",\"coordinates\":[[3.147108,36.7342441],[3.1474489,36.734109],[3.1477775,36.7339865],[3.1480411,36.7338816]]}";12;Rocade Nord;3;80;false;true;true;false;false;false;94.0;0;0;0;0;0;false;Gare Routière;1185935485;3.1092389;36.7430507;05 juillet;3370017395;3.2016214;36.7202581;0;0;1;7937889;Bus: Gare Routiere -> Aéroport D'Alger H.B;green;ETUSA;178;Gare Routiere;Aéroport D'Alger H.B
404275964;"{\"type\":\"LineString\",\"coordinates\":[[3.1480411,36.7338816],[3.1484306,36.7337092],[3.1488869,36.7334925],[3.1491481,36.7333534],[3.1494552,36.7331933],[3.149674,36.7330785]]}";13;Rocade Nord;3;80;false;true;true;false;false;false;174.0;0;0;0;0;0;false;Gare Routière;1185935485;3.1092389;36.7430507;05 juillet;3370017395;3.2016214;36.7202581;0;0;1;7937889;Bus: Gare Routiere -> Aéroport D'Alger H.B;green;ETUSA;178;Gare Routiere;Aéroport D'Alger H.B
297207659;"{\"type\":\"LineString\",\"coordinates\":[[3.149674,36.7330785],[3.1501836,36.7328206]]}";14;Rocade Nord;3;80;false;true;true;false;false;false;55.0;0;0;0;0;0;false;Gare Routière;1185935485;3.1092389;36.7430507;05 juillet;3370017395;3.2016214;36.7202581;0;0;1;7937889;Bus: Gare Routiere -> Aéroport D'Alger H.B;green;ETUSA;178;Gare Routiere;Aéroport D'Alger H.B
404275953;"{\"type\":\"LineString\",\"coordinates\":[[3.1501836,36.7328206],[3.1507303,36.7325321]]}";15;Rocade Nord;3;80;false;true;true;false;false;false;60.0;0;0;0;0;0;false;Gare Routière;1185935485;3.1092389;36.7430507;05 juillet;3370017395;3.2016214;36.7202581;0;0;1;7937889;Bus: Gare Routiere -> Aéroport D'Alger H.B;green;ETUSA;178;Gare Routiere;Aéroport D'Alger H.B
224436597;"{\"type\":\"LineString\",\"coordinates\":[[3.1507303,36.7325321],[3.1514387,36.732141],[3.1522394,36.731705],[3.1531816,36.7311712],[3.1538808,36.7307905],[3.1549797,36.7302419],[3.1564085,36.729607],[3.1571932,36.7292928],[3.1572221,36.7292836],[3.1582538,36.7289539],[3.1586482,36.7288403],[3.1590417,36.728727],[3.1596157,36.7285603],[3.1598391,36.7285068],[3.160652,36.7283122],[3.1611419,36.7282147],[3.1614242,36.7281585],[3.1616459,36.7281207],[3.1618767,36.7280814],[3.1624298,36.7279952],[3.1628723,36.727936],[3.1632256,36.7278911],[3.1636011,36.7278524],[3.1641225,36.7278017],[3.1645517,36.7277716],[3.1649808,36.7277415],[3.1654304,36.7277191],[3.1658791,36.7276994]]}";16;Rocade Nord;3;80;false;true;true;false;false;false;1501.0;0;0;0;0;0;false;Gare Routière;1185935485;3.1092389;36.7430507;05 juillet;3370017395;3.2016214;36.7202581;0;0;1;7937889;Bus: Gare Routiere -> Aéroport D'Alger H.B;green;ETUSA;178;Gare Routiere;Aéroport D'Alger H.B
404275969;"{\"type\":\"LineString\",\"coordinates\":[[3.1658791,36.7276994],[3.1678389,36.7276577],[3.1680726,36.7276551],[3.1682547,36.727653],[3.1703651,36.7276209]]}";17;Rocade Nord;3;80;false;true;true;false;false;false;407.0;0;0;0;0;0;false;Gare Routière;1185935485;3.1092389;36.7430507;05 juillet;3370017395;3.2016214;36.7202581;0;0;1;7937889;Bus: Gare Routiere -> Aéroport D'Alger H.B;green;ETUSA;178;Gare Routiere;Aéroport D'Alger H.B
404275973;"{\"type\":\"LineString\",\"coordinates\":[[3.1703651,36.7276209],[3.1713733,36.7275981],[3.1722108,36.7275818],[3.1748737,36.7275459]]}";18;Rocade Nord;3;80;false;true;true;false;false;false;409.0;0;0;0;0;0;false;Gare Routière;1185935485;3.1092389;36.7430507;05 juillet;3370017395;3.2016214;36.7202581;0;0;1;7937889;Bus: Gare Routiere -> Aéroport D'Alger H.B;green;ETUSA;178;Gare Routiere;Aéroport D'Alger H.B
404275949;"{\"type\":\"LineString\",\"coordinates\":[[3.1748737,36.7275459],[3.1759296,36.7275145],[3.1768353,36.7274968],[3.1781869,36.7274738],[3.180513,36.7274464],[3.1821241,36.7274614],[3.1832169,36.727495],[3.1842536,36.7275512],[3.1843427,36.7275598],[3.1850709,36.7276298],[3.1859302,36.7277458],[3.1872812,36.7279378],[3.1881297,36.7281164],[3.1890077,36.7283147]]}";19;Rocade Nord;3;80;false;true;true;false;false;false;1289.0;0;0;0;0;0;false;Gare Routière;1185935485;3.1092389;36.7430507;05 juillet;3370017395;3.2016214;36.7202581;0;0;1;7937889;Bus: Gare Routiere -> Aéroport D'Alger H.B;green;ETUSA;178;Gare Routiere;Aéroport D'Alger H.B
404275965;"{\"type\":\"LineString\",\"coordinates\":[[3.1890077,36.7283147],[3.1897782,36.7285169],[3.1904966,36.7287258],[3.1919545,36.7291831]]}";20;Rocade Nord;3;80;false;true;true;false;false;false;285.0;0;0;0;0;0;false;Gare Routière;1185935485;3.1092389;36.7430507;05 juillet;3370017395;3.2016214;36.7202581;0;0;1;7937889;Bus: Gare Routiere -> Aéroport D'Alger H.B;green;ETUSA;178;Gare Routiere;Aéroport D'Alger H.B
354607852;"{\"type\":\"LineString\",\"coordinates\":[[3.1919545,36.7291831],[3.1929819,36.7295387]]}";21;التجنب الشمالي;3;80;false;true;true;false;false;false;102.0;0;0;0;0;0;false;Gare Routière;1185935485;3.1092389;36.7430507;05 juillet;3370017395;3.2016214;36.7202581;0;0;1;7937889;Bus: Gare Routiere -> Aéroport D'Alger H.B;green;ETUSA;178;Gare Routiere;Aéroport D'Alger H.B
25985084;"{\"type\":\"LineString\",\"coordinates\":[[3.1929819,36.7295387],[3.1933181,36.729606],[3.1935423,36.7296322],[3.1937477,36.7296285],[3.1940093,36.7295836],[3.1942661,36.729505],[3.1946911,36.7293178],[3.1948405,36.7292542],[3.195074,36.7292056],[3.1956324,36.7291689],[3.1959414,36.7291139],[3.1961044,36.7290382],[3.1962555,36.7289286],[3.1963909,36.728734],[3.1964642,36.7285019],[3.1965496,36.7281367]]}";22;"";2;40;false;true;true;false;false;false;409.0;0;0;0;0;0;false;Gare Routière;1185935485;3.1092389;36.7430507;05 juillet;3370017395;3.2016214;36.7202581;0;0;1;7937889;Bus: Gare Routiere -> Aéroport D'Alger H.B;green;ETUSA;178;Gare Routiere;Aéroport D'Alger H.B
25984168;"{\"type\":\"LineString\",\"coordinates\":[[3.1965496,36.7281367],[3.1965893,36.7276613],[3.1966709,36.7262315],[3.1966846,36.7254577],[3.1967533,36.7250039],[3.1968044,36.7247158],[3.1968378,36.7245965],[3.196874,36.7244762],[3.1969492,36.7242838],[3.1970699,36.7240429],[3.1971879,36.7238516],[3.1973351,36.7236385],[3.1974732,36.7234758],[3.1976272,36.7233029],[3.1979673,36.7229622]]}";23;Route de l'aéroport طريق المطار;2;80;false;true;true;false;false;false;612.0;0;0;0;0;0;false;Gare Routière;1185935485;3.1092389;36.7430507;05 juillet;3370017395;3.2016214;36.7202581;0;0;1;7937889;Bus: Gare Routiere -> Aéroport D'Alger H.B;green;ETUSA;178;Gare Routiere;Aéroport D'Alger H.B
567134595;"{\"type\":\"LineString\",\"coordinates\":[[3.1979673,36.7229622],[3.1984362,36.7226199]]}";24;Route de l'aéroport طريق المطار;2;80;false;true;true;false;false;false;58.0;0;0;0;0;0;false;Gare Routière;1185935485;3.1092389;36.7430507;05 juillet;3370017395;3.2016214;36.7202581;0;0;1;7937889;Bus: Gare Routiere -> Aéroport D'Alger H.B;green;ETUSA;178;Gare Routiere;Aéroport D'Alger H.B
404276002;"{\"type\":\"LineString\",\"coordinates\":[[3.1984362,36.7226199],[3.1985297,36.7225552],[3.1995105,36.7218763],[3.2014221,36.7204912],[3.2015618,36.7203901],[3.2016765,36.720307]]}";25;Route de l'aéroport طريق المطار;2;80;false;true;true;false;false;false;392.0;0;0;0;0;0;false;Gare Routière;1185935485;3.1092389;36.7430507;05 juillet;3370017395;3.2016214;36.7202581;2;0;1;7937889;Bus: Gare Routiere -> Aéroport D'Alger H.B;green;ETUSA;178;Gare Routiere;Aéroport D'Alger H.B
567134594;"{\"type\":\"LineString\",\"coordinates\":[[3.2016765,36.720307],[3.2018138,36.7202077],[3.2020156,36.7200616],[3.2021975,36.7199278],[3.2023209,36.7198398]]}";1;Route de l'aéroport طريق المطار;2;80;false;true;true;false;false;false;79.0;0;0;0;0;0;false;05 juillet;3370017395;3.2016214;36.7202581;AEROPORT D'ALGER H.B;5364197628;3.208677;36.7025758;2;1;2;7937889;Bus: Gare Routiere -> Aéroport D'Alger H.B;green;ETUSA;178;Gare Routiere;Aéroport D'Alger H.B
404275997;"{\"type\":\"LineString\",\"coordinates\":[[3.2023209,36.7198398],[3.2032476,36.719174]]}";2;Route de l'aéroport طريق المطار;2;80;false;true;true;false;false;false;113.0;0;0;0;0;0;false;05 juillet;3370017395;3.2016214;36.7202581;AEROPORT D'ALGER H.B;5364197628;3.208677;36.7025758;0;1;2;7937889;Bus: Gare Routiere -> Aéroport D'Alger H.B;green;ETUSA;178;Gare Routiere;Aéroport D'Alger H.B
404276001;"{\"type\":\"LineString\",\"coordinates\":[[3.2032476,36.719174],[3.203566,36.7189326],[3.2037269,36.718795],[3.2038824,36.7186316],[3.2040352,36.7184489],[3.2041693,36.7182704],[3.2043138,36.7180406]]}";3;Route de l'aéroport طريق المطار;2;80;false;true;true;false;false;false;162.0;0;0;0;0;0;false;05 juillet;3370017395;3.2016214;36.7202581;AEROPORT D'ALGER H.B;5364197628;3.208677;36.7025758;0;1;2;7937889;Bus: Gare Routiere -> Aéroport D'Alger H.B;green;ETUSA;178;Gare Routiere;Aéroport D'Alger H.B
404276005;"{\"type\":\"LineString\",\"coordinates\":[[3.2043138,36.7180406],[3.2043938,36.71789],[3.2047733,36.7170074],[3.2051853,36.7160287],[3.2052937,36.7157502],[3.2053562,36.7155896],[3.2057798,36.714501],[3.2058605,36.7142945],[3.2059101,36.7141065],[3.2059658,36.7139396],[3.2060935,36.713511]]}";4;Route de l'aéroport طريق المطار;2;80;false;true;true;false;false;false;535.0;0;0;0;0;0;false;05 juillet;3370017395;3.2016214;36.7202581;AEROPORT D'ALGER H.B;5364197628;3.208677;36.7025758;0;1;2;7937889;Bus: Gare Routiere -> Aéroport D'Alger H.B;green;ETUSA;178;Gare Routiere;Aéroport D'Alger H.B
316789353;"{\"type\":\"LineString\",\"coordinates\":[[3.2060935,36.713511],[3.2062345,36.712986]]}";5;"";2;80;false;true;true;false;false;false;61.0;0;0;0;0;0;false;05 juillet;3370017395;3.2016214;36.7202581;AEROPORT D'ALGER H.B;5364197628;3.208677;36.7025758;0;1;2;7937889;Bus: Gare Routiere -> Aéroport D'Alger H.B;green;ETUSA;178;Gare Routiere;Aéroport D'Alger H.B
316789354;"{\"type\":\"LineString\",\"coordinates\":[[3.2062345,36.712986],[3.2064684,36.7117863],[3.2065661,36.7109821],[3.206559,36.7102988],[3.206521,36.7097163],[3.2064905,36.7091946],[3.2064855,36.7089501]]}";6;Route de l'aéroport طريق المطار;2;80;false;true;true;false;false;false;456.0;0;0;0;0;0;false;05 juillet;3370017395;3.2016214;36.7202581;AEROPORT D'ALGER H.B;5364197628;3.208677;36.7025758;0;1;2;7937889;Bus: Gare Routiere -> Aéroport D'Alger H.B;green;ETUSA;178;Gare Routiere;Aéroport D'Alger H.B
316790801;"{\"type\":\"LineString\",\"coordinates\":[[3.2064855,36.7089501],[3.2064737,36.7084702]]}";7;"";2;60;false;true;true;false;false;false;54.0;0;0;0;0;0;false;05 juillet;3370017395;3.2016214;36.7202581;AEROPORT D'ALGER H.B;5364197628;3.208677;36.7025758;0;1;2;7937889;Bus: Gare Routiere -> Aéroport D'Alger H.B;green;ETUSA;178;Gare Routiere;Aéroport D'Alger H.B
316790802;"{\"type\":\"LineString\",\"coordinates\":[[3.2064737,36.7084702],[3.2064739,36.7084096],[3.2065581,36.7075841]]}";8;Route de l'aéroport طريق المطار;2;60;false;true;true;false;false;false;100.0;0;0;0;0;0;false;05 juillet;3370017395;3.2016214;36.7202581;AEROPORT D'ALGER H.B;5364197628;3.208677;36.7025758;0;1;2;7937889;Bus: Gare Routiere -> Aéroport D'Alger H.B;green;ETUSA;178;Gare Routiere;Aéroport D'Alger H.B
316790804;"{\"type\":\"LineString\",\"coordinates\":[[3.2065581,36.7075841],[3.2066117,36.7071454]]}";9;"";2;60;false;true;true;false;false;false;50.0;0;0;0;0;0;false;05 juillet;3370017395;3.2016214;36.7202581;AEROPORT D'ALGER H.B;5364197628;3.208677;36.7025758;0;1;2;7937889;Bus: Gare Routiere -> Aéroport D'Alger H.B;green;ETUSA;178;Gare Routiere;Aéroport D'Alger H.B
316790803;"{\"type\":\"LineString\",\"coordinates\":[[3.2066117,36.7071454],[3.206656,36.7068499],[3.2067251,36.7065468]]}";10;Route de l'aéroport طريق المطار;2;80;false;true;true;false;false;false;69.0;0;0;0;0;0;false;05 juillet;3370017395;3.2016214;36.7202581;AEROPORT D'ALGER H.B;5364197628;3.208677;36.7025758;0;1;2;7937889;Bus: Gare Routiere -> Aéroport D'Alger H.B;green;ETUSA;178;Gare Routiere;Aéroport D'Alger H.B
25984040;"{\"type\":\"LineString\",\"coordinates\":[[3.2067251,36.7065468],[3.2069253,36.705899]]}";11;"";2;50;false;true;true;false;false;false;76.0;0;0;0;0;0;false;05 juillet;3370017395;3.2016214;36.7202581;AEROPORT D'ALGER H.B;5364197628;3.208677;36.7025758;0;1;2;7937889;Bus: Gare Routiere -> Aéroport D'Alger H.B;green;ETUSA;178;Gare Routiere;Aéroport D'Alger H.B
52135629;"{\"type\":\"LineString\",\"coordinates\":[[3.2069253,36.705899],[3.2070362,36.7056471]]}";12;Route de l'aéroport طريق المطار;2;50;false;true;true;false;false;false;31.0;0;0;0;0;0;false;05 juillet;3370017395;3.2016214;36.7202581;AEROPORT D'ALGER H.B;5364197628;3.208677;36.7025758;0;1;2;7937889;Bus: Gare Routiere -> Aéroport D'Alger H.B;green;ETUSA;178;Gare Routiere;Aéroport D'Alger H.B
316770920;"{\"type\":\"LineString\",\"coordinates\":[[3.2070362,36.7056471],[3.2071438,36.7051322],[3.2072495,36.7047476],[3.2072902,36.7045553],[3.2073024,36.704363],[3.2073105,36.7040631],[3.2073227,36.7038578],[3.2073654,36.7035469]]}";13;Terminal National;2;40;false;true;true;false;false;false;239.0;0;0;0;0;0;false;05 juillet;3370017395;3.2016214;36.7202581;AEROPORT D'ALGER H.B;5364197628;3.208677;36.7025758;0;1;2;7937889;Bus: Gare Routiere -> Aéroport D'Alger H.B;green;ETUSA;178;Gare Routiere;Aéroport D'Alger H.B
807846055;"{\"type\":\"LineString\",\"coordinates\":[[3.2073654,36.7035469],[3.2074037,36.7033956]]}";14;Terminal National;2;40;false;true;true;false;false;false;18.0;0;0;0;0;0;false;05 juillet;3370017395;3.2016214;36.7202581;AEROPORT D'ALGER H.B;5364197628;3.208677;36.7025758;0;1;2;7937889;Bus: Gare Routiere -> Aéroport D'Alger H.B;green;ETUSA;178;Gare Routiere;Aéroport D'Alger H.B
52135901;"{\"type\":\"LineString\",\"coordinates\":[[3.2074037,36.7033956],[3.2074788,36.7030429]]}";15;"";1;40;false;true;true;false;false;false;41.0;0;0;0;0;0;false;05 juillet;3370017395;3.2016214;36.7202581;AEROPORT D'ALGER H.B;5364197628;3.208677;36.7025758;0;1;2;7937889;Bus: Gare Routiere -> Aéroport D'Alger H.B;green;ETUSA;178;Gare Routiere;Aéroport D'Alger H.B
52135908;"{\"type\":\"LineString\",\"coordinates\":[[3.2074788,36.7030429],[3.2075539,36.7028451],[3.2076397,36.7026472],[3.2077577,36.7024322],[3.2079438,36.702117]]}";16;Terminal National;1;40;false;true;true;false;false;false;113.0;0;0;0;0;0;false;05 juillet;3370017395;3.2016214;36.7202581;AEROPORT D'ALGER H.B;5364197628;3.208677;36.7025758;0;1;2;7937889;Bus: Gare Routiere -> Aéroport D'Alger H.B;green;ETUSA;178;Gare Routiere;Aéroport D'Alger H.B
52135905;"{\"type\":\"LineString\",\"coordinates\":[[3.2082153,36.7020426],[3.2081871,36.7020851],[3.208143,36.7021178],[3.2080953,36.7021355],[3.2080432,36.7021414],[3.2079913,36.7021351],[3.2079438,36.702117],[3.2079028,36.7020867],[3.2078752,36.7020479],[3.2078638,36.7020041],[3.2078696,36.7019596],[3.207892,36.7019187],[3.2079239,36.7018887],[3.2079648,36.7018667],[3.2080115,36.7018543],[3.2080607,36.7018526],[3.2081056,36.7018606],[3.2081465,36.7018651],[3.2081884,36.7019097],[3.2082153,36.7019508],[3.2082246,36.7019967],[3.2082153,36.7020426]]}";17;"";1;30;false;false;true;false;false;false;103.0;0;0;0;0;0;true;05 juillet;3370017395;3.2016214;36.7202581;AEROPORT D'ALGER H.B;5364197628;3.208677;36.7025758;0;1;2;7937889;Bus: Gare Routiere -> Aéroport D'Alger H.B;green;ETUSA;178;Gare Routiere;Aéroport D'Alger H.B
52135892;"{\"type\":\"LineString\",\"coordinates\":[[3.2082153,36.7020426],[3.2093815,36.7029097]]}";18;"";2;40;false;true;true;false;false;false;144.0;0;0;0;0;0;false;05 juillet;3370017395;3.2016214;36.7202581;AEROPORT D'ALGER H.B;5364197628;3.208677;36.7025758;0;1;2;7937889;Bus: Gare Routiere -> Aéroport D'Alger H.B;green;ETUSA;178;Gare Routiere;Aéroport D'Alger H.B
52135897;"{\"type\":\"LineString\",\"coordinates\":[[3.209605,36.7030901],[3.2095709,36.7031188],[3.2095274,36.703138],[3.2094788,36.7031456],[3.2094296,36.703141],[3.2093844,36.7031247],[3.2093494,36.7030999],[3.2093247,36.703068],[3.2093124,36.7030318],[3.2093137,36.7029944],[3.2093282,36.7029587],[3.209351,36.7029315],[3.2093815,36.7029097],[3.2094262,36.7028926],[3.2094753,36.7028872],[3.2095241,36.702894],[3.2095681,36.7029123],[3.2095884,36.7029287],[3.209603,36.7029405],[3.2096256,36.7029758],[3.2096337,36.703015],[3.2096266,36.7030543],[3.209605,36.7030901]]}";19;"";1;30;false;false;true;false;false;false;92.0;0;0;0;0;0;true;05 juillet;3370017395;3.2016214;36.7202581;AEROPORT D'ALGER H.B;5364197628;3.208677;36.7025758;0;1;2;7937889;Bus: Gare Routiere -> Aéroport D'Alger H.B;green;ETUSA;178;Gare Routiere;Aéroport D'Alger H.B
52135893;"{\"type\":\"LineString\",\"coordinates\":[[3.2093282,36.7029587],[3.2091415,36.7028262],[3.2087025,36.7025199]]}";20;"";2;40;false;true;true;false;false;false;76.0;0;0;0;0;0;false;05 juillet;3370017395;3.2016214;36.7202581;AEROPORT D'ALGER H.B;5364197628;3.208677;36.7025758;1;1;2;7937889;Bus: Gare Routiere -> Aéroport D'Alger H.B;green;ETUSA;178;Gare Routiere;Aéroport D'Alger H.B
