way_id;shape;index;name;nb_lanes;legal_speed;speed_zone_30;oneway;shares_bike;bike_box;bus_lane;dedicated_bus_lane;length;nb_traffic_signals;nb_crossings;nb_stops;nb_give_ways;nb_lvl_crossings;roundabout;stop_id_orig;node_id_orig;coord_x_orig;coord_y_orig;stop_id_dest;node_id_dest;coord_x_dest;coord_y_dest;nb_neighbouring_ways_bus_stop;order_orig;order_dest;id_line;line_name;colour;operator;ref;from;to
794445091;"{\"type\":\"LineString\",\"coordinates\":[[-6.4742395,53.419458],[-6.4741373,53.4194536],[-6.4740743,53.4194053],[-6.4740336,53.419319],[-6.4740024,53.4192338],[-6.4739304,53.419097],[-6.4739124,53.4190568],[-6.4739394,53.4190059],[-6.4739659,53.4189257]]}";1;"";1;50;false;true;true;false;false;false;70.0;0;0;0;0;0;false;3333;1357034053;-6.4743229;53.419505;3352;7430619568;-6.4678802;53.4169825;1;0;1;11021371;270 to Blanchardstown;"";Go-Ahead Ireland;270;Dunboyne;Blanchardstown SC
319267679;"{\"type\":\"LineString\",\"coordinates\":[[-6.4734102,53.4186353],[-6.4737641,53.4188206],[-6.4738765,53.4188791],[-6.4739659,53.4189257]]}";2;Station Road;1;50;false;false;true;false;false;false;50.0;0;0;0;0;0;false;3333;1357034053;-6.4743229;53.419505;3352;7430619568;-6.4678802;53.4169825;0;0;1;11021371;270 to Blanchardstown;"";Go-Ahead Ireland;270;Dunboyne;Blanchardstown SC
319267680;"{\"type\":\"LineString\",\"coordinates\":[[-6.4717475,53.4180406],[-6.4726202,53.4183551],[-6.4734102,53.4186353]]}";3;Station Road;1;50;false;false;true;false;false;false;130.0;0;0;0;0;0;false;3333;1357034053;-6.4743229;53.419505;3352;7430619568;-6.4678802;53.4169825;0;0;1;11021371;270 to Blanchardstown;"";Go-Ahead Ireland;270;Dunboyne;Blanchardstown SC
39916911;"{\"type\":\"LineString\",\"coordinates\":[[-6.465954,53.4163602],[-6.4661572,53.4164415],[-6.466398,53.416526],[-6.466501,53.4165554],[-6.4669925,53.4166955],[-6.4692562,53.4173238],[-6.4699374,53.4175225],[-6.4709288,53.417809],[-6.4710282,53.4178378],[-6.4717475,53.4180406]]}";4;Station Road;1;50;false;false;true;false;false;false;216.0;1;0;0;0;0;false;3333;1357034053;-6.4743229;53.419505;3352;7430619568;-6.4678802;53.4169825;1;0;1;11021371;270 to Blanchardstown;"";Go-Ahead Ireland;270;Dunboyne;Blanchardstown SC
39916911;"{\"type\":\"LineString\",\"coordinates\":[[-6.465954,53.4163602],[-6.4661572,53.4164415],[-6.466398,53.416526],[-6.466501,53.4165554],[-6.4669925,53.4166955],[-6.4692562,53.4173238],[-6.4699374,53.4175225],[-6.4709288,53.417809],[-6.4710282,53.4178378],[-6.4717475,53.4180406]]}";1;Station Road;1;50;false;false;true;false;false;false;216.0;1;0;0;0;0;false;3352;7430619568;-6.4678802;53.4169825;3331;7430619569;-6.4600237;53.4160344;1;1;2;11021371;270 to Blanchardstown;"";Go-Ahead Ireland;270;Dunboyne;Blanchardstown SC
39916414;"{\"type\":\"LineString\",\"coordinates\":[[-6.4646948,53.4161524],[-6.4649154,53.4161474],[-6.4651839,53.4161625],[-6.4654598,53.4161981],[-6.4656944,53.4162655],[-6.465954,53.4163602]]}";2;Station Road;2;50;false;false;true;false;false;false;90.0;0;0;0;0;0;false;3352;7430619568;-6.4678802;53.4169825;3331;7430619569;-6.4600237;53.4160344;0;1;2;11021371;270 to Blanchardstown;"";Go-Ahead Ireland;270;Dunboyne;Blanchardstown SC
39916413;"{\"type\":\"LineString\",\"coordinates\":[[-6.464395,53.4161563],[-6.4646948,53.4161524]]}";3;Dunboyne Bridge;2;50;false;false;true;false;false;false;21.0;0;0;0;0;0;false;3352;7430619568;-6.4678802;53.4169825;3331;7430619569;-6.4600237;53.4160344;0;1;2;11021371;270 to Blanchardstown;"";Go-Ahead Ireland;270;Dunboyne;Blanchardstown SC
301629366;"{\"type\":\"LineString\",\"coordinates\":[[-6.4620661,53.4160037],[-6.4626661,53.4160142],[-6.4628018,53.4160192],[-6.4632011,53.416034],[-6.4636564,53.4160747],[-6.4640996,53.4161255],[-6.464395,53.4161563]]}";4;"";2;50;false;false;true;false;false;false;158.0;0;1;0;0;0;false;3352;7430619568;-6.4678802;53.4169825;3331;7430619569;-6.4600237;53.4160344;0;1;2;11021371;270 to Blanchardstown;"";Go-Ahead Ireland;270;Dunboyne;Blanchardstown SC
39916910;"{\"type\":\"LineString\",\"coordinates\":[[-6.4615281,53.4159968],[-6.4620661,53.4160037]]}";5;"";2;50;false;false;true;false;false;false;37.0;0;0;0;0;0;false;3352;7430619568;-6.4678802;53.4169825;3331;7430619569;-6.4600237;53.4160344;0;1;2;11021371;270 to Blanchardstown;"";Go-Ahead Ireland;270;Dunboyne;Blanchardstown SC
319266462;"{\"type\":\"LineString\",\"coordinates\":[[-6.457813,53.4157652],[-6.4583247,53.4158451],[-6.4587028,53.4159015],[-6.4590593,53.4159333],[-6.459596,53.4159583],[-6.4601836,53.4159804],[-6.4607805,53.4159967],[-6.4615281,53.4159968]]}";6;"";1;50;false;false;true;false;false;false;126.0;0;0;0;0;0;false;3352;7430619568;-6.4678802;53.4169825;3331;7430619569;-6.4600237;53.4160344;1;1;2;11021371;270 to Blanchardstown;"";Go-Ahead Ireland;270;Dunboyne;Blanchardstown SC
319266462;"{\"type\":\"LineString\",\"coordinates\":[[-6.457813,53.4157652],[-6.4583247,53.4158451],[-6.4587028,53.4159015],[-6.4590593,53.4159333],[-6.459596,53.4159583],[-6.4601836,53.4159804],[-6.4607805,53.4159967],[-6.4615281,53.4159968]]}";1;"";1;50;false;false;true;false;false;false;126.0;0;0;0;0;0;false;3331;7430619569;-6.4600237;53.4160344;3336;7430619570;-6.4518059;53.4149501;1;2;3;11021371;270 to Blanchardstown;"";Go-Ahead Ireland;270;Dunboyne;Blanchardstown SC
319256926;"{\"type\":\"LineString\",\"coordinates\":[[-6.4550684,53.4152906],[-6.4552859,53.4153248],[-6.4554589,53.4153532],[-6.4558219,53.4154175],[-6.4560912,53.4154652],[-6.4564272,53.4155253],[-6.456881,53.4156046],[-6.4573577,53.4156941],[-6.457813,53.4157652]]}";2;"";1;50;false;false;true;false;false;false;192.0;0;0;0;0;0;false;3331;7430619569;-6.4600237;53.4160344;3336;7430619570;-6.4518059;53.4149501;0;2;3;11021371;270 to Blanchardstown;"";Go-Ahead Ireland;270;Dunboyne;Blanchardstown SC
27836412;"{\"type\":\"LineString\",\"coordinates\":[[-6.4544772,53.4152015],[-6.4549845,53.4152761],[-6.4550684,53.4152906]]}";3;"";1;50;false;false;true;false;false;false;41.0;0;0;0;0;0;false;3331;7430619569;-6.4600237;53.4160344;3336;7430619570;-6.4518059;53.4149501;0;2;3;11021371;270 to Blanchardstown;"";Go-Ahead Ireland;270;Dunboyne;Blanchardstown SC
319256929;"{\"type\":\"LineString\",\"coordinates\":[[-6.450843,53.4148344],[-6.4510741,53.4148381],[-6.4511918,53.4148459],[-6.4514886,53.4148719],[-6.4518685,53.4149095],[-6.4521684,53.4149402],[-6.4523362,53.4149576],[-6.452532,53.4149797],[-6.4535337,53.415093],[-6.4544772,53.4152015]]}";4;"";1;50;false;false;true;false;false;false;123.5;0;0;0;0;0;false;3331;7430619569;-6.4600237;53.4160344;3336;7430619570;-6.4518059;53.4149501;1;2;3;11021371;270 to Blanchardstown;"";Go-Ahead Ireland;270;Dunboyne;Blanchardstown SC
319256929;"{\"type\":\"LineString\",\"coordinates\":[[-6.450843,53.4148344],[-6.4510741,53.4148381],[-6.4511918,53.4148459],[-6.4514886,53.4148719],[-6.4518685,53.4149095],[-6.4521684,53.4149402],[-6.4523362,53.4149576],[-6.452532,53.4149797],[-6.4535337,53.415093],[-6.4544772,53.4152015]]}";1;"";1;50;false;false;true;false;false;false;123.5;0;0;0;0;0;false;3336;7430619570;-6.4518059;53.4149501;3338;1483510965;-6.4420854;53.4105715;1;3;4;11021371;270 to Blanchardstown;"";Go-Ahead Ireland;270;Dunboyne;Blanchardstown SC
4246222;"{\"type\":\"LineString\",\"coordinates\":[[-6.4503587,53.4149002],[-6.4505275,53.4148567],[-6.4506851,53.4148389],[-6.450843,53.4148344]]}";2;"";2;50;false;false;true;false;false;false;34.0;0;0;0;0;0;false;3336;7430619570;-6.4518059;53.4149501;3338;1483510965;-6.4420854;53.4105715;0;3;4;11021371;270 to Blanchardstown;"";Go-Ahead Ireland;270;Dunboyne;Blanchardstown SC
319256931;"{\"type\":\"LineString\",\"coordinates\":[[-6.4499465,53.4146382],[-6.4502304,53.4148246],[-6.4503587,53.4149002]]}";3;Old Navan Road;2;50;false;false;true;false;false;false;41.0;0;0;0;0;0;false;3336;7430619570;-6.4518059;53.4149501;3338;1483510965;-6.4420854;53.4105715;0;3;4;11021371;270 to Blanchardstown;"";Go-Ahead Ireland;270;Dunboyne;Blanchardstown SC
319256933;"{\"type\":\"LineString\",\"coordinates\":[[-6.447963,53.4131874],[-6.4481225,53.4133345],[-6.4482926,53.4134817],[-6.4485216,53.4136547],[-6.4486573,53.4137572],[-6.4488722,53.413906],[-6.4492994,53.4142019],[-6.4493599,53.4142438],[-6.449701,53.41448],[-6.449798,53.4145425],[-6.4498615,53.4145834],[-6.4499465,53.4146382]]}";4;Old Navan Road;2;50;false;false;true;false;false;false;211.0;0;0;0;0;0;false;3336;7430619570;-6.4518059;53.4149501;3338;1483510965;-6.4420854;53.4105715;0;3;4;11021371;270 to Blanchardstown;"";Go-Ahead Ireland;270;Dunboyne;Blanchardstown SC
43874842;"{\"type\":\"LineString\",\"coordinates\":[[-6.4464359,53.4121538],[-6.4465619,53.4121614],[-6.4466548,53.4121772],[-6.4467623,53.4122089],[-6.4468921,53.4122611],[-6.4469899,53.4123145],[-6.4470906,53.4123754],[-6.4471897,53.4124461],[-6.4472931,53.4125345],[-6.4473742,53.4126193],[-6.4476094,53.4128617],[-6.4477987,53.4130449],[-6.4479173,53.4131478],[-6.447963,53.4131874]]}";5;Old Navan Road;2;50;false;false;true;false;false;false;161.0;0;0;0;0;0;false;3336;7430619570;-6.4518059;53.4149501;3338;1483510965;-6.4420854;53.4105715;0;3;4;11021371;270 to Blanchardstown;"";Go-Ahead Ireland;270;Dunboyne;Blanchardstown SC
2767552;"{\"type\":\"LineString\",\"coordinates\":[[-6.4464359,53.4121538],[-6.4464233,53.4121961],[-6.446388,53.4122335],[-6.446334,53.4122619],[-6.4462752,53.4122769],[-6.4462116,53.4122809],[-6.4461489,53.4122736],[-6.4460867,53.4122529],[-6.4460392,53.4122213],[-6.4460116,53.4121822],[-6.4460061,53.4121474]]}";6;"";2;50;false;false;true;false;false;false;46.0;0;0;0;0;0;true;3336;7430619570;-6.4518059;53.4149501;3338;1483510965;-6.4420854;53.4105715;0;3;4;11021371;270 to Blanchardstown;"";Go-Ahead Ireland;270;Dunboyne;Blanchardstown SC
794445094;"{\"type\":\"LineString\",\"coordinates\":[[-6.4460061,53.4121474],[-6.4460166,53.4121131],[-6.4460422,53.4120817],[-6.446081,53.4120556]]}";7;"";2;50;false;false;true;false;false;false;12.0;0;0;0;0;0;true;3336;7430619570;-6.4518059;53.4149501;3338;1483510965;-6.4420854;53.4105715;0;3;4;11021371;270 to Blanchardstown;"";Go-Ahead Ireland;270;Dunboyne;Blanchardstown SC
39919329;"{\"type\":\"LineString\",\"coordinates\":[[-6.4448774,53.4114235],[-6.4451866,53.4116034],[-6.4454944,53.4117567],[-6.446081,53.4120556]]}";8;Old Navan Road;2;50;false;false;true;false;false;false;108.0;0;0;0;0;0;false;3336;7430619570;-6.4518059;53.4149501;3338;1483510965;-6.4420854;53.4105715;0;3;4;11021371;270 to Blanchardstown;"";Go-Ahead Ireland;270;Dunboyne;Blanchardstown SC
27836408;"{\"type\":\"LineString\",\"coordinates\":[[-6.4446035,53.411259],[-6.4448774,53.4114235]]}";9;Old Navan Road;2;50;false;false;false;false;false;false;26.0;0;0;0;0;0;false;3336;7430619570;-6.4518059;53.4149501;3338;1483510965;-6.4420854;53.4105715;0;3;4;11021371;270 to Blanchardstown;"";Go-Ahead Ireland;270;Dunboyne;Blanchardstown SC
27836407;"{\"type\":\"LineString\",\"coordinates\":[[-6.4442678,53.4110643],[-6.4446035,53.411259]]}";10;Old Navan Road;2;50;false;false;false;false;false;false;32.0;0;0;0;0;0;false;3336;7430619570;-6.4518059;53.4149501;3338;1483510965;-6.4420854;53.4105715;0;3;4;11021371;270 to Blanchardstown;"";Go-Ahead Ireland;270;Dunboyne;Blanchardstown SC
4246220;"{\"type\":\"LineString\",\"coordinates\":[[-6.4440274,53.410861],[-6.4440474,53.4109188],[-6.4440917,53.4109686],[-6.4442678,53.4110643]]}";11;Old Navan Road;2;50;false;false;false;false;false;false;29.0;0;0;0;0;0;false;3336;7430619570;-6.4518059;53.4149501;3338;1483510965;-6.4420854;53.4105715;0;3;4;11021371;270 to Blanchardstown;"";Go-Ahead Ireland;270;Dunboyne;Blanchardstown SC
39919327;"{\"type\":\"LineString\",\"coordinates\":[[-6.4378797,53.410374],[-6.4381409,53.4103894],[-6.438204,53.4103908],[-6.4387764,53.4104039],[-6.4389752,53.4104058],[-6.4394681,53.410417],[-6.4400815,53.4104343],[-6.4401637,53.4104366],[-6.4402985,53.4104397],[-6.4403994,53.410442],[-6.4404641,53.4104446],[-6.4408589,53.4104607],[-6.4411206,53.410477],[-6.4412081,53.4104824],[-6.4412787,53.4104868],[-6.4414677,53.4104985],[-6.44184,53.4105178],[-6.4418723,53.4105189],[-6.4420764,53.4105262],[-6.4424258,53.4105385],[-6.4427468,53.4105534],[-6.4430193,53.410573],[-6.443274,53.4106013],[-6.4434023,53.4106261],[-6.4435304,53.4106585],[-6.4437076,53.4107382],[-6.4437984,53.4107927],[-6.4438927,53.4108393],[-6.4440274,53.410861]]}";12;Old Navan Road;2;50;false;false;false;false;false;false;211.0;0;1;0;0;0;false;3336;7430619570;-6.4518059;53.4149501;3338;1483510965;-6.4420854;53.4105715;1;3;4;11021371;270 to Blanchardstown;"";Go-Ahead Ireland;270;Dunboyne;Blanchardstown SC
39919327;"{\"type\":\"LineString\",\"coordinates\":[[-6.4378797,53.410374],[-6.4381409,53.4103894],[-6.438204,53.4103908],[-6.4387764,53.4104039],[-6.4389752,53.4104058],[-6.4394681,53.410417],[-6.4400815,53.4104343],[-6.4401637,53.4104366],[-6.4402985,53.4104397],[-6.4403994,53.410442],[-6.4404641,53.4104446],[-6.4408589,53.4104607],[-6.4411206,53.410477],[-6.4412081,53.4104824],[-6.4412787,53.4104868],[-6.4414677,53.4104985],[-6.44184,53.4105178],[-6.4418723,53.4105189],[-6.4420764,53.4105262],[-6.4424258,53.4105385],[-6.4427468,53.4105534],[-6.4430193,53.410573],[-6.443274,53.4106013],[-6.4434023,53.4106261],[-6.4435304,53.4106585],[-6.4437076,53.4107382],[-6.4437984,53.4107927],[-6.4438927,53.4108393],[-6.4440274,53.410861]]}";1;Old Navan Road;2;50;false;false;false;false;false;false;211.0;0;1;0;0;0;false;3338;1483510965;-6.4420854;53.4105715;3340;5664008317;-6.4289981;53.4086668;1;4;5;11021371;270 to Blanchardstown;"";Go-Ahead Ireland;270;Dunboyne;Blanchardstown SC
270405328;"{\"type\":\"LineString\",\"coordinates\":[[-6.4359437,53.4100377],[-6.436219,53.4101026],[-6.4366555,53.4101972],[-6.437082,53.4102814],[-6.4371198,53.4102868],[-6.4374845,53.4103385],[-6.4377691,53.4103669],[-6.4378797,53.410374]]}";2;Old Navan Road;2;50;false;false;true;false;false;false;136.0;0;0;0;0;0;false;3338;1483510965;-6.4420854;53.4105715;3340;5664008317;-6.4289981;53.4086668;0;4;5;11021371;270 to Blanchardstown;"";Go-Ahead Ireland;270;Dunboyne;Blanchardstown SC
270405327;"{\"type\":\"LineString\",\"coordinates\":[[-6.4359437,53.4100377],[-6.4351688,53.4098657],[-6.4345378,53.4097368],[-6.4339206,53.4096315]]}";3;Old Navan Road;2;50;false;false;true;false;false;false;143.0;0;0;0;0;0;false;3338;1483510965;-6.4420854;53.4105715;3340;5664008317;-6.4289981;53.4086668;0;4;5;11021371;270 to Blanchardstown;"";Go-Ahead Ireland;270;Dunboyne;Blanchardstown SC
318974247;"{\"type\":\"LineString\",\"coordinates\":[[-6.4316571,53.4093441],[-6.4321703,53.4094058],[-6.433004,53.4095059],[-6.4339206,53.4096315]]}";4;Old Navan Road;2;50;false;false;true;false;false;false;155.0;0;0;0;0;0;false;3338;1483510965;-6.4420854;53.4105715;3340;5664008317;-6.4289981;53.4086668;0;4;5;11021371;270 to Blanchardstown;"";Go-Ahead Ireland;270;Dunboyne;Blanchardstown SC
4246219;"{\"type\":\"LineString\",\"coordinates\":[[-6.4287568,53.4085245],[-6.4295811,53.4088374],[-6.4299114,53.4089484],[-6.4302822,53.4090573],[-6.4307073,53.4091632],[-6.4309834,53.409221],[-6.431191,53.4092644],[-6.4316571,53.4093441]]}";5;Old Navan Road;2;50;false;false;true;false;false;false;108.0;0;0;0;0;0;false;3338;1483510965;-6.4420854;53.4105715;3340;5664008317;-6.4289981;53.4086668;1;4;5;11021371;270 to Blanchardstown;"";Go-Ahead Ireland;270;Dunboyne;Blanchardstown SC
4246219;"{\"type\":\"LineString\",\"coordinates\":[[-6.4287568,53.4085245],[-6.4295811,53.4088374],[-6.4299114,53.4089484],[-6.4302822,53.4090573],[-6.4307073,53.4091632],[-6.4309834,53.409221],[-6.431191,53.4092644],[-6.4316571,53.4093441]]}";1;Old Navan Road;2;50;false;false;true;false;false;false;108.0;0;0;0;0;0;false;3340;5664008317;-6.4289981;53.4086668;4324;5691899101;-6.4266541;53.4040098;1;5;6;11021371;270 to Blanchardstown;"";Go-Ahead Ireland;270;Dunboyne;Blanchardstown SC
4396948;"{\"type\":\"LineString\",\"coordinates\":[[-6.4281671,53.4083206],[-6.4283329,53.4083632],[-6.4287568,53.4085245]]}";2;Old Navan Road;2;50;false;false;true;false;false;false;46.0;0;0;0;0;0;false;3340;5664008317;-6.4289981;53.4086668;4324;5691899101;-6.4266541;53.4040098;0;5;6;11021371;270 to Blanchardstown;"";Go-Ahead Ireland;270;Dunboyne;Blanchardstown SC
4406829;"{\"type\":\"LineString\",\"coordinates\":[[-6.4281671,53.4083206],[-6.4279924,53.408604],[-6.427944,53.4086723]]}";3;"";3;60;false;true;true;false;false;false;43.0;0;0;0;0;0;false;3340;5664008317;-6.4289981;53.4086668;4324;5691899101;-6.4266541;53.4040098;0;5;6;11021371;270 to Blanchardstown;"";Go-Ahead Ireland;270;Dunboyne;Blanchardstown SC
539634714;"{\"type\":\"LineString\",\"coordinates\":[[-6.4283971,53.4079203],[-6.4281671,53.4083206]]}";4;Littlepace Distributor Road;2;60;false;false;true;false;false;false;48.0;0;0;0;0;0;false;3340;5664008317;-6.4289981;53.4086668;4324;5691899101;-6.4266541;53.4040098;0;5;6;11021371;270 to Blanchardstown;"";Go-Ahead Ireland;270;Dunboyne;Blanchardstown SC
4246216;"{\"type\":\"LineString\",\"coordinates\":[[-6.4300183,53.4066354],[-6.429723,53.4068007],[-6.4291755,53.4071512],[-6.4289143,53.4073403],[-6.4287828,53.4074641],[-6.4286985,53.4075444],[-6.4285625,53.4076869],[-6.4283971,53.4079203]]}";5;Littlepace Distributor Road;2;60;false;false;true;false;false;false;183.0;0;1;0;0;0;false;3340;5664008317;-6.4289981;53.4086668;4324;5691899101;-6.4266541;53.4040098;0;5;6;11021371;270 to Blanchardstown;"";Go-Ahead Ireland;270;Dunboyne;Blanchardstown SC
794445096;"{\"type\":\"LineString\",\"coordinates\":[[-6.4302635,53.406669],[-6.4302123,53.4066823],[-6.4301567,53.4066853],[-6.4301024,53.4066779],[-6.4300546,53.4066607],[-6.4300183,53.4066354]]}";6;"";1;50;false;false;true;false;false;false;19.0;0;0;0;0;0;true;3340;5664008317;-6.4289981;53.4086668;4324;5691899101;-6.4266541;53.4040098;0;5;6;11021371;270 to Blanchardstown;"";Go-Ahead Ireland;270;Dunboyne;Blanchardstown SC
794445097;"{\"type\":\"LineString\",\"coordinates\":[[-6.4300183,53.4066354],[-6.4299972,53.4066051],[-6.4299929,53.4065723],[-6.4300057,53.4065404],[-6.4300345,53.4065123],[-6.4300764,53.406491]]}";7;"";1;50;false;false;true;false;false;false;19.0;0;0;0;0;0;true;3340;5664008317;-6.4289981;53.4086668;4324;5691899101;-6.4266541;53.4040098;0;5;6;11021371;270 to Blanchardstown;"";Go-Ahead Ireland;270;Dunboyne;Blanchardstown SC
96261002;"{\"type\":\"LineString\",\"coordinates\":[[-6.4254272,53.403665],[-6.4256834,53.4037097],[-6.4260123,53.4037902],[-6.4262463,53.4038466],[-6.4266192,53.4039469],[-6.4269303,53.4040405],[-6.4272371,53.4041469],[-6.4276351,53.4043072],[-6.4278735,53.4044106],[-6.4280515,53.4045028],[-6.4283104,53.4046432],[-6.4286229,53.4048324],[-6.428836,53.4049873],[-6.4289772,53.405101],[-6.4291891,53.4052998],[-6.4294644,53.4055648],[-6.4295745,53.4056936],[-6.4296902,53.4058364],[-6.4297126,53.4058734],[-6.4298714,53.4061145],[-6.4300764,53.406491]]}";8;Littlepace Road;2;50;false;false;true;false;false;false;233.0;0;1;0;0;0;false;3340;5664008317;-6.4289981;53.4086668;4324;5691899101;-6.4266541;53.4040098;1;5;6;11021371;270 to Blanchardstown;"";Go-Ahead Ireland;270;Dunboyne;Blanchardstown SC
96261002;"{\"type\":\"LineString\",\"coordinates\":[[-6.4254272,53.403665],[-6.4256834,53.4037097],[-6.4260123,53.4037902],[-6.4262463,53.4038466],[-6.4266192,53.4039469],[-6.4269303,53.4040405],[-6.4272371,53.4041469],[-6.4276351,53.4043072],[-6.4278735,53.4044106],[-6.4280515,53.4045028],[-6.4283104,53.4046432],[-6.4286229,53.4048324],[-6.428836,53.4049873],[-6.4289772,53.405101],[-6.4291891,53.4052998],[-6.4294644,53.4055648],[-6.4295745,53.4056936],[-6.4296902,53.4058364],[-6.4297126,53.4058734],[-6.4298714,53.4061145],[-6.4300764,53.406491]]}";1;Littlepace Road;2;50;false;false;true;false;false;false;233.0;0;1;0;0;0;false;4324;5691899101;-6.4266541;53.4040098;4769;5691899223;-6.4234694;53.4035349;1;6;7;11021371;270 to Blanchardstown;"";Go-Ahead Ireland;270;Dunboyne;Blanchardstown SC
96261049;"{\"type\":\"LineString\",\"coordinates\":[[-6.4251295,53.4036369],[-6.4251334,53.4036056],[-6.4251516,53.4035797],[-6.425182,53.4035583],[-6.4252217,53.4035432],[-6.4252671,53.4035359],[-6.4253142,53.4035371],[-6.4253585,53.4035465],[-6.4253952,53.403563],[-6.4254223,53.4035852],[-6.4254374,53.4036111],[-6.425439,53.4036385],[-6.4254272,53.403665],[-6.4254005,53.4036899],[-6.4253621,53.4037085],[-6.4253158,53.403719],[-6.4252663,53.4037203],[-6.4252158,53.4037114],[-6.4251731,53.403693],[-6.4251432,53.4036672],[-6.4251295,53.4036369]]}";2;"";1;50;false;false;true;false;false;false;66.0;0;0;0;0;0;true;4324;5691899101;-6.4266541;53.4040098;4769;5691899223;-6.4234694;53.4035349;0;6;7;11021371;270 to Blanchardstown;"";Go-Ahead Ireland;270;Dunboyne;Blanchardstown SC
30478338;"{\"type\":\"LineString\",\"coordinates\":[[-6.4251334,53.4036056],[-6.425,53.4035772],[-6.4247022,53.4035492],[-6.4240626,53.4035017],[-6.4240234,53.4035018],[-6.4234599,53.4035026],[-6.4230841,53.4035122],[-6.4227149,53.4035292],[-6.4223569,53.4035607],[-6.4220168,53.4036155],[-6.4218366,53.4036419],[-6.4216868,53.403666],[-6.4211011,53.4037513],[-6.4204493,53.4038201],[-6.4201855,53.4038505]]}";3;Littlepace Road;2;50;false;false;true;false;false;false;168.5;0;0;0;0;0;false;4324;5691899101;-6.4266541;53.4040098;4769;5691899223;-6.4234694;53.4035349;1;6;7;11021371;270 to Blanchardstown;"";Go-Ahead Ireland;270;Dunboyne;Blanchardstown SC
30478338;"{\"type\":\"LineString\",\"coordinates\":[[-6.4251334,53.4036056],[-6.425,53.4035772],[-6.4247022,53.4035492],[-6.4240626,53.4035017],[-6.4240234,53.4035018],[-6.4234599,53.4035026],[-6.4230841,53.4035122],[-6.4227149,53.4035292],[-6.4223569,53.4035607],[-6.4220168,53.4036155],[-6.4218366,53.4036419],[-6.4216868,53.403666],[-6.4211011,53.4037513],[-6.4204493,53.4038201],[-6.4201855,53.4038505]]}";1;Littlepace Road;2;50;false;false;true;false;false;false;168.5;0;0;0;0;0;false;4769;5691899223;-6.4234694;53.4035349;4770;5691899225;-6.4182149;53.4039523;1;7;8;11021371;270 to Blanchardstown;"";Go-Ahead Ireland;270;Dunboyne;Blanchardstown SC
96260930;"{\"type\":\"LineString\",\"coordinates\":[[-6.4199057,53.4038229],[-6.4199388,53.4038022],[-6.4199808,53.4037883],[-6.4200279,53.4037827],[-6.4200714,53.4037852],[-6.420112,53.4037948],[-6.4201466,53.4038107],[-6.4201703,53.4038291],[-6.4201855,53.4038505],[-6.4201914,53.4038795],[-6.420182,53.4039082],[-6.4201583,53.4039338],[-6.4201224,53.4039537],[-6.420078,53.4039661],[-6.4200293,53.4039696],[-6.4199824,53.4039644],[-6.4199403,53.4039509],[-6.419907,53.4039305],[-6.4198855,53.4039051],[-6.4198778,53.403877],[-6.4198847,53.4038487],[-6.4199057,53.4038229]]}";2;"";1;50;false;false;true;false;false;false;66.0;0;0;0;0;0;true;4769;5691899223;-6.4234694;53.4035349;4770;5691899225;-6.4182149;53.4039523;0;7;8;11021371;270 to Blanchardstown;"";Go-Ahead Ireland;270;Dunboyne;Blanchardstown SC
3753771;"{\"type\":\"LineString\",\"coordinates\":[[-6.4198778,53.403877],[-6.4196132,53.403886],[-6.4191396,53.4038912],[-6.417734,53.4039304],[-6.417265,53.4039436],[-6.4168363,53.4039365],[-6.4164589,53.4039178],[-6.416034,53.4038815],[-6.4154624,53.4037935],[-6.4150188,53.4037126],[-6.4148277,53.4036723],[-6.4145013,53.4035927],[-6.41408,53.4034729],[-6.4139698,53.4034405],[-6.4137609,53.4033598]]}";3;Littlepace Road;2;50;false;false;true;false;false;false;211.0;0;0;0;0;0;false;4769;5691899223;-6.4234694;53.4035349;4770;5691899225;-6.4182149;53.4039523;1;7;8;11021371;270 to Blanchardstown;"";Go-Ahead Ireland;270;Dunboyne;Blanchardstown SC
3753771;"{\"type\":\"LineString\",\"coordinates\":[[-6.4198778,53.403877],[-6.4196132,53.403886],[-6.4191396,53.4038912],[-6.417734,53.4039304],[-6.417265,53.4039436],[-6.4168363,53.4039365],[-6.4164589,53.4039178],[-6.416034,53.4038815],[-6.4154624,53.4037935],[-6.4150188,53.4037126],[-6.4148277,53.4036723],[-6.4145013,53.4035927],[-6.41408,53.4034729],[-6.4139698,53.4034405],[-6.4137609,53.4033598]]}";1;Littlepace Road;2;50;false;false;true;false;false;false;211.0;0;0;0;0;0;false;4766;5691899226;-6.4183893;53.4038579;4767;5691899224;-6.4234372;53.4034518;1;10;11;11021371;270 to Blanchardstown;"";Go-Ahead Ireland;270;Dunboyne;Blanchardstown SC
96260930;"{\"type\":\"LineString\",\"coordinates\":[[-6.4199057,53.4038229],[-6.4199388,53.4038022],[-6.4199808,53.4037883],[-6.4200279,53.4037827],[-6.4200714,53.4037852],[-6.420112,53.4037948],[-6.4201466,53.4038107],[-6.4201703,53.4038291],[-6.4201855,53.4038505],[-6.4201914,53.4038795],[-6.420182,53.4039082],[-6.4201583,53.4039338],[-6.4201224,53.4039537],[-6.420078,53.4039661],[-6.4200293,53.4039696],[-6.4199824,53.4039644],[-6.4199403,53.4039509],[-6.419907,53.4039305],[-6.4198855,53.4039051],[-6.4198778,53.403877],[-6.4198847,53.4038487],[-6.4199057,53.4038229]]}";2;"";1;50;false;false;true;false;false;false;66.0;0;0;0;0;0;true;4766;5691899226;-6.4183893;53.4038579;4767;5691899224;-6.4234372;53.4034518;0;10;11;11021371;270 to Blanchardstown;"";Go-Ahead Ireland;270;Dunboyne;Blanchardstown SC
30478338;"{\"type\":\"LineString\",\"coordinates\":[[-6.4251334,53.4036056],[-6.425,53.4035772],[-6.4247022,53.4035492],[-6.4240626,53.4035017],[-6.4240234,53.4035018],[-6.4234599,53.4035026],[-6.4230841,53.4035122],[-6.4227149,53.4035292],[-6.4223569,53.4035607],[-6.4220168,53.4036155],[-6.4218366,53.4036419],[-6.4216868,53.403666],[-6.4211011,53.4037513],[-6.4204493,53.4038201],[-6.4201855,53.4038505]]}";3;Littlepace Road;2;50;false;false;true;false;false;false;168.5;0;0;0;0;0;false;4766;5691899226;-6.4183893;53.4038579;4767;5691899224;-6.4234372;53.4034518;1;10;11;11021371;270 to Blanchardstown;"";Go-Ahead Ireland;270;Dunboyne;Blanchardstown SC
30478338;"{\"type\":\"LineString\",\"coordinates\":[[-6.4251334,53.4036056],[-6.425,53.4035772],[-6.4247022,53.4035492],[-6.4240626,53.4035017],[-6.4240234,53.4035018],[-6.4234599,53.4035026],[-6.4230841,53.4035122],[-6.4227149,53.4035292],[-6.4223569,53.4035607],[-6.4220168,53.4036155],[-6.4218366,53.4036419],[-6.4216868,53.403666],[-6.4211011,53.4037513],[-6.4204493,53.4038201],[-6.4201855,53.4038505]]}";1;Littlepace Road;2;50;false;false;true;false;false;false;168.5;0;0;0;0;0;false;4767;5691899224;-6.4234372;53.4034518;4768;5691899222;-6.426342;53.4038244;1;11;12;11021371;270 to Blanchardstown;"";Go-Ahead Ireland;270;Dunboyne;Blanchardstown SC
96261049;"{\"type\":\"LineString\",\"coordinates\":[[-6.4251295,53.4036369],[-6.4251334,53.4036056],[-6.4251516,53.4035797],[-6.425182,53.4035583],[-6.4252217,53.4035432],[-6.4252671,53.4035359],[-6.4253142,53.4035371],[-6.4253585,53.4035465],[-6.4253952,53.403563],[-6.4254223,53.4035852],[-6.4254374,53.4036111],[-6.425439,53.4036385],[-6.4254272,53.403665],[-6.4254005,53.4036899],[-6.4253621,53.4037085],[-6.4253158,53.403719],[-6.4252663,53.4037203],[-6.4252158,53.4037114],[-6.4251731,53.403693],[-6.4251432,53.4036672],[-6.4251295,53.4036369]]}";2;"";1;50;false;false;true;false;false;false;66.0;0;0;0;0;0;true;4767;5691899224;-6.4234372;53.4034518;4768;5691899222;-6.426342;53.4038244;0;11;12;11021371;270 to Blanchardstown;"";Go-Ahead Ireland;270;Dunboyne;Blanchardstown SC
96261002;"{\"type\":\"LineString\",\"coordinates\":[[-6.4254272,53.403665],[-6.4256834,53.4037097],[-6.4260123,53.4037902],[-6.4262463,53.4038466],[-6.4266192,53.4039469],[-6.4269303,53.4040405],[-6.4272371,53.4041469],[-6.4276351,53.4043072],[-6.4278735,53.4044106],[-6.4280515,53.4045028],[-6.4283104,53.4046432],[-6.4286229,53.4048324],[-6.428836,53.4049873],[-6.4289772,53.405101],[-6.4291891,53.4052998],[-6.4294644,53.4055648],[-6.4295745,53.4056936],[-6.4296902,53.4058364],[-6.4297126,53.4058734],[-6.4298714,53.4061145],[-6.4300764,53.406491]]}";3;Littlepace Road;2;50;false;false;true;false;false;false;233.0;0;1;0;0;0;false;4767;5691899224;-6.4234372;53.4034518;4768;5691899222;-6.426342;53.4038244;1;11;12;11021371;270 to Blanchardstown;"";Go-Ahead Ireland;270;Dunboyne;Blanchardstown SC
96261002;"{\"type\":\"LineString\",\"coordinates\":[[-6.4254272,53.403665],[-6.4256834,53.4037097],[-6.4260123,53.4037902],[-6.4262463,53.4038466],[-6.4266192,53.4039469],[-6.4269303,53.4040405],[-6.4272371,53.4041469],[-6.4276351,53.4043072],[-6.4278735,53.4044106],[-6.4280515,53.4045028],[-6.4283104,53.4046432],[-6.4286229,53.4048324],[-6.428836,53.4049873],[-6.4289772,53.405101],[-6.4291891,53.4052998],[-6.4294644,53.4055648],[-6.4295745,53.4056936],[-6.4296902,53.4058364],[-6.4297126,53.4058734],[-6.4298714,53.4061145],[-6.4300764,53.406491]]}";1;Littlepace Road;2;50;false;false;true;false;false;false;233.0;0;1;0;0;0;false;4768;5691899222;-6.426342;53.4038244;7025;876400712;-6.3919195;53.3940019;1;12;13;11021371;270 to Blanchardstown;"";Go-Ahead Ireland;270;Dunboyne;Blanchardstown SC
3753764;"{\"type\":\"LineString\",\"coordinates\":[[-6.4300764,53.406491],[-6.4301263,53.4064785],[-6.4301803,53.4064757],[-6.4302332,53.4064828],[-6.4302799,53.4064991],[-6.4303161,53.4065231],[-6.4303384,53.4065525],[-6.4303446,53.4065856],[-6.4303331,53.4066181],[-6.4303051,53.4066469],[-6.4302635,53.406669]]}";2;"";1;50;false;false;true;false;false;false;37.0;0;0;0;0;0;true;4768;5691899222;-6.426342;53.4038244;7025;876400712;-6.3919195;53.3940019;0;12;13;11021371;270 to Blanchardstown;"";Go-Ahead Ireland;270;Dunboyne;Blanchardstown SC
794445096;"{\"type\":\"LineString\",\"coordinates\":[[-6.4302635,53.406669],[-6.4302123,53.4066823],[-6.4301567,53.4066853],[-6.4301024,53.4066779],[-6.4300546,53.4066607],[-6.4300183,53.4066354]]}";3;"";1;50;false;false;true;false;false;false;19.0;0;0;0;0;0;true;4768;5691899222;-6.426342;53.4038244;7025;876400712;-6.3919195;53.3940019;0;12;13;11021371;270 to Blanchardstown;"";Go-Ahead Ireland;270;Dunboyne;Blanchardstown SC
4246216;"{\"type\":\"LineString\",\"coordinates\":[[-6.4300183,53.4066354],[-6.429723,53.4068007],[-6.4291755,53.4071512],[-6.4289143,53.4073403],[-6.4287828,53.4074641],[-6.4286985,53.4075444],[-6.4285625,53.4076869],[-6.4283971,53.4079203]]}";4;Littlepace Distributor Road;2;60;false;false;true;false;false;false;183.0;0;1;0;0;0;false;4768;5691899222;-6.426342;53.4038244;7025;876400712;-6.3919195;53.3940019;0;12;13;11021371;270 to Blanchardstown;"";Go-Ahead Ireland;270;Dunboyne;Blanchardstown SC
539634714;"{\"type\":\"LineString\",\"coordinates\":[[-6.4283971,53.4079203],[-6.4281671,53.4083206]]}";5;Littlepace Distributor Road;2;60;false;false;true;false;false;false;48.0;0;0;0;0;0;false;4768;5691899222;-6.426342;53.4038244;7025;876400712;-6.3919195;53.3940019;0;12;13;11021371;270 to Blanchardstown;"";Go-Ahead Ireland;270;Dunboyne;Blanchardstown SC
4406829;"{\"type\":\"LineString\",\"coordinates\":[[-6.4281671,53.4083206],[-6.4279924,53.408604],[-6.427944,53.4086723]]}";6;"";3;60;false;true;true;false;false;false;43.0;0;0;0;0;0;false;4768;5691899222;-6.426342;53.4038244;7025;876400712;-6.3919195;53.3940019;0;12;13;11021371;270 to Blanchardstown;"";Go-Ahead Ireland;270;Dunboyne;Blanchardstown SC
4406830;"{\"type\":\"LineString\",\"coordinates\":[[-6.427944,53.4086723],[-6.4276352,53.4091451]]}";7;"";3;60;false;true;true;false;false;false;57.0;0;0;0;0;0;false;4768;5691899222;-6.426342;53.4038244;7025;876400712;-6.3919195;53.3940019;0;12;13;11021371;270 to Blanchardstown;"";Go-Ahead Ireland;270;Dunboyne;Blanchardstown SC
4406831;"{\"type\":\"LineString\",\"coordinates\":[[-6.4276352,53.4091451],[-6.4275729,53.4092383],[-6.4275595,53.4092582]]}";8;"";3;60;false;true;false;false;false;false;14.0;0;0;0;0;0;false;4768;5691899222;-6.426342;53.4038244;7025;876400712;-6.3919195;53.3940019;0;12;13;11021371;270 to Blanchardstown;"";Go-Ahead Ireland;270;Dunboyne;Blanchardstown SC
482009683;"{\"type\":\"LineString\",\"coordinates\":[[-6.4275595,53.4092582],[-6.4274664,53.4093295],[-6.427414,53.4093598],[-6.4273231,53.4093947],[-6.4271806,53.4094123]]}";9;"";2;50;false;true;true;false;false;false;32.0;0;0;0;0;0;false;4768;5691899222;-6.426342;53.4038244;7025;876400712;-6.3919195;53.3940019;0;12;13;11021371;270 to Blanchardstown;"";Go-Ahead Ireland;270;Dunboyne;Blanchardstown SC
794445099;"{\"type\":\"LineString\",\"coordinates\":[[-6.4271806,53.4094123],[-6.4270384,53.4093508],[-6.426578,53.4091518],[-6.4254093,53.4086741],[-6.4246137,53.4084104],[-6.424012,53.4082295],[-6.4234689,53.4080931],[-6.4222273,53.4077922],[-6.4210936,53.4075023],[-6.4200789,53.4072528],[-6.4182094,53.4068368]]}";10;"";1;80;false;true;true;false;false;false;670.0;0;0;0;0;0;false;4768;5691899222;-6.426342;53.4038244;7025;876400712;-6.3919195;53.3940019;0;12;13;11021371;270 to Blanchardstown;"";Go-Ahead Ireland;270;Dunboyne;Blanchardstown SC
4406820;"{\"type\":\"LineString\",\"coordinates\":[[-6.4182094,53.4068368],[-6.4173338,53.4066751],[-6.4165125,53.4065404],[-6.4159516,53.4064513],[-6.4152022,53.4063412],[-6.4150764,53.4063224],[-6.4135221,53.4061092],[-6.4134298,53.4060962],[-6.4117932,53.4058553],[-6.4106769,53.4056871],[-6.409993,53.4055782],[-6.4089153,53.4053652],[-6.4080121,53.4051595],[-6.4072311,53.404965],[-6.4069258,53.4048822],[-6.4062822,53.4046892],[-6.4053061,53.4043719],[-6.4047709,53.4041847],[-6.4041483,53.403949],[-6.4033183,53.4035889],[-6.4029524,53.4034245],[-6.4024528,53.4031901],[-6.401691,53.4027977],[-6.4011148,53.4024998],[-6.4005633,53.4022003],[-6.3998253,53.4018114]]}";11;Navan Road;2;100;false;true;true;false;false;false;1378.0;0;0;0;0;0;false;4768;5691899222;-6.426342;53.4038244;7025;876400712;-6.3919195;53.3940019;0;12;13;11021371;270 to Blanchardstown;"";Go-Ahead Ireland;270;Dunboyne;Blanchardstown SC
4406778;"{\"type\":\"LineString\",\"coordinates\":[[-6.3998253,53.4018114],[-6.3995978,53.4016878]]}";12;Blanchardstown Bypass;1;100;false;true;true;false;false;false;21.0;0;0;0;0;0;false;4768;5691899222;-6.426342;53.4038244;7025;876400712;-6.3919195;53.3940019;0;12;13;11021371;270 to Blanchardstown;"";Go-Ahead Ireland;270;Dunboyne;Blanchardstown SC
4406765;"{\"type\":\"LineString\",\"coordinates\":[[-6.3995978,53.4016878],[-6.3989679,53.4013528],[-6.3987332,53.4012252]]}";13;Blanchardstown Bypass;2;100;false;true;true;false;false;false;78.0;0;0;0;0;0;false;4768;5691899222;-6.426342;53.4038244;7025;876400712;-6.3919195;53.3940019;0;12;13;11021371;270 to Blanchardstown;"";Go-Ahead Ireland;270;Dunboyne;Blanchardstown SC
2700158;"{\"type\":\"LineString\",\"coordinates\":[[-6.3987332,53.4012252],[-6.3974125,53.4005707],[-6.3960522,53.3998776],[-6.3950092,53.3993602],[-6.3941613,53.3989524],[-6.393999,53.3988815],[-6.3937768,53.3988013],[-6.3935758,53.3987468],[-6.3933435,53.3987038],[-6.3930784,53.3986704],[-6.3928605,53.398664],[-6.3927035,53.3986689],[-6.3925204,53.3986855],[-6.3922955,53.3987167],[-6.3920687,53.3987614],[-6.391605,53.398849],[-6.3914173,53.3988935]]}";14;"";2;80;false;true;true;false;false;false;594.0;2;0;0;0;0;false;4768;5691899222;-6.426342;53.4038244;7025;876400712;-6.3919195;53.3940019;0;12;13;11021371;270 to Blanchardstown;"";Go-Ahead Ireland;270;Dunboyne;Blanchardstown SC
794445101;"{\"type\":\"LineString\",\"coordinates\":[[-6.3914173,53.3988935],[-6.3911468,53.3985661],[-6.3910007,53.3983826],[-6.390887,53.398257],[-6.3906739,53.3980815]]}";15;Old Navan Road;2;60;false;true;true;false;false;false;104.0;2;0;0;0;0;false;4768;5691899222;-6.426342;53.4038244;7025;876400712;-6.3919195;53.3940019;0;12;13;11021371;270 to Blanchardstown;"";Go-Ahead Ireland;270;Dunboyne;Blanchardstown SC
383342255;"{\"type\":\"LineString\",\"coordinates\":[[-6.3906739,53.3980815],[-6.3905345,53.3979599]]}";16;Old Navan Road;1;60;false;true;true;false;false;false;17.0;2;0;0;0;0;false;4768;5691899222;-6.426342;53.4038244;7025;876400712;-6.3919195;53.3940019;0;12;13;11021371;270 to Blanchardstown;"";Go-Ahead Ireland;270;Dunboyne;Blanchardstown SC
4406430;"{\"type\":\"LineString\",\"coordinates\":[[-6.3905345,53.3979599],[-6.3906904,53.3978892]]}";17;Blanchardstown Road South;2;60;false;true;true;false;false;false;14.0;2;0;0;0;0;false;4768;5691899222;-6.426342;53.4038244;7025;876400712;-6.3919195;53.3940019;0;12;13;11021371;270 to Blanchardstown;"";Go-Ahead Ireland;270;Dunboyne;Blanchardstown SC
345650223;"{\"type\":\"LineString\",\"coordinates\":[[-6.3906904,53.3978892],[-6.3908378,53.397825],[-6.3911173,53.3976903],[-6.3913314,53.397587]]}";18;Blanchardstown Road South;2;60;false;true;false;false;false;false;55.0;1;0;0;0;0;false;4768;5691899222;-6.426342;53.4038244;7025;876400712;-6.3919195;53.3940019;0;12;13;11021371;270 to Blanchardstown;"";Go-Ahead Ireland;270;Dunboyne;Blanchardstown SC
4406428;"{\"type\":\"LineString\",\"coordinates\":[[-6.3913314,53.397587],[-6.3920585,53.3972104]]}";19;Blanchardstown Road South;2;60;false;true;false;false;false;false;65.0;0;0;0;0;0;false;4768;5691899222;-6.426342;53.4038244;7025;876400712;-6.3919195;53.3940019;0;12;13;11021371;270 to Blanchardstown;"";Go-Ahead Ireland;270;Dunboyne;Blanchardstown SC
4406429;"{\"type\":\"LineString\",\"coordinates\":[[-6.3920585,53.3972104],[-6.3923766,53.3970727],[-6.3924763,53.3970285],[-6.3927482,53.3969172],[-6.392844,53.3968684]]}";20;Blanchardstown Road South;2;60;false;true;false;false;false;false;66.0;1;0;0;0;0;false;4768;5691899222;-6.426342;53.4038244;7025;876400712;-6.3919195;53.3940019;0;12;13;11021371;270 to Blanchardstown;"";Go-Ahead Ireland;270;Dunboyne;Blanchardstown SC
794445102;"{\"type\":\"LineString\",\"coordinates\":[[-6.3969155,53.3945381],[-6.3966687,53.394721],[-6.3961452,53.3950632],[-6.3960616,53.3951177],[-6.3953756,53.3954969],[-6.3952769,53.3955526],[-6.3941822,53.3961162],[-6.3939013,53.3962749],[-6.392844,53.3968684]]}";21;Blanchardstown Road South;4;60;false;false;false;false;false;false;378.0;0;1;0;0;0;false;4768;5691899222;-6.426342;53.4038244;7025;876400712;-6.3919195;53.3940019;0;12;13;11021371;270 to Blanchardstown;"";Go-Ahead Ireland;270;Dunboyne;Blanchardstown SC
603765655;"{\"type\":\"LineString\",\"coordinates\":[[-6.3969155,53.3945381],[-6.3970049,53.3943466],[-6.3972919,53.3941115],[-6.3975387,53.393902],[-6.3976406,53.3937884],[-6.3976715,53.3937213],[-6.3976862,53.3936445],[-6.3976487,53.3935357],[-6.3975539,53.3934344]]}";22;"";1;50;false;true;true;false;false;false;140.0;0;0;0;0;0;false;4768;5691899222;-6.426342;53.4038244;7025;876400712;-6.3919195;53.3940019;0;12;13;11021371;270 to Blanchardstown;"";Go-Ahead Ireland;270;Dunboyne;Blanchardstown SC
794445103;"{\"type\":\"LineString\",\"coordinates\":[[-6.3975539,53.3934344],[-6.3973575,53.3933656],[-6.3972105,53.3933111],[-6.3969552,53.3932393],[-6.3966591,53.3931868],[-6.3964152,53.3931486],[-6.3961542,53.3931354],[-6.3951252,53.3931215],[-6.3943554,53.3931007],[-6.3940954,53.3931156],[-6.3940039,53.3931253],[-6.3938604,53.3931452]]}";23;"";2;50;false;true;true;false;false;false;255.0;0;1;0;0;0;false;4768;5691899222;-6.426342;53.4038244;7025;876400712;-6.3919195;53.3940019;0;12;13;11021371;270 to Blanchardstown;"";Go-Ahead Ireland;270;Dunboyne;Blanchardstown SC
383342266;"{\"type\":\"LineString\",\"coordinates\":[[-6.3938604,53.3931452],[-6.3938025,53.393163]]}";24;"";1;50;false;false;true;false;false;false;5.0;0;0;0;0;0;true;4768;5691899222;-6.426342;53.4038244;7025;876400712;-6.3919195;53.3940019;0;12;13;11021371;270 to Blanchardstown;"";Go-Ahead Ireland;270;Dunboyne;Blanchardstown SC
74071368;"{\"type\":\"LineString\",\"coordinates\":[[-6.3938025,53.393163],[-6.3936936,53.393207],[-6.3935851,53.393257],[-6.3931538,53.3935252],[-6.3927627,53.3937371],[-6.3926288,53.3938109],[-6.392594,53.3938301],[-6.3920048,53.3941535],[-6.3919263,53.3941945],[-6.3917826,53.3942771]]}";25;"";1;50;false;true;true;false;false;false;185.0;0;1;0;0;0;false;4768;5691899222;-6.426342;53.4038244;7025;876400712;-6.3919195;53.3940019;0;12;13;11021371;270 to Blanchardstown;"";Go-Ahead Ireland;270;Dunboyne;Blanchardstown SC
694758016;"{\"type\":\"LineString\",\"coordinates\":[[-6.3917826,53.3942771],[-6.3916059,53.3943673],[-6.3914288,53.3944076]]}";26;"";1;50;false;true;true;false;false;false;29.0;0;0;0;0;0;false;4768;5691899222;-6.426342;53.4038244;7025;876400712;-6.3919195;53.3940019;0;12;13;11021371;270 to Blanchardstown;"";Go-Ahead Ireland;270;Dunboyne;Blanchardstown SC
74071362;"{\"type\":\"LineString\",\"coordinates\":[[-6.3914288,53.3944076],[-6.391485,53.3943054],[-6.3919506,53.3940539],[-6.3921703,53.3939329],[-6.3921949,53.3939195]]}";27;"";1;50;false;true;true;false;false;false;77.0;0;0;0;0;0;false;4768;5691899222;-6.426342;53.4038244;7025;876400712;-6.3919195;53.3940019;1;12;13;11021371;270 to Blanchardstown;"";Go-Ahead Ireland;270;Dunboyne;Blanchardstown SC
