way_id;shape;index;name;nb_lanes;legal_speed;speed_zone_30;oneway;shares_bike;bike_box;bus_lane;dedicated_bus_lane;length;nb_traffic_signals;nb_crossings;nb_stops;nb_give_ways;nb_lvl_crossings;roundabout;stop_id_orig;node_id_orig;coord_x_orig;coord_y_orig;stop_id_dest;node_id_dest;coord_x_dest;coord_y_dest;nb_neighbouring_ways_bus_stop;ordre_orig;ordre_dest;id_line;line_name;colour;operator;ref;from;to
695763675;"{\"type\":\"LineString\",\"coordinates\":[[-73.5393,45.5895081],[-73.5396653,45.588906]]}";1;Rue Sherbrooke Est;2;50;false;true;true;false;false;false;73.0;0;0;0;0;0;false;85078;692318999;-73.539382;45.589483;84022;6129485056;-73.587452;45.613614;1;0;1;9450080;Bus 30 : TERMINUS TERREBONNE;"";EXO;30 N;Terminus Radisson;Terminus Terrebonne
455314969;"{\"type\":\"LineString\",\"coordinates\":[[-73.5396653,45.588906],[-73.5397609,45.5887506]]}";2;Rue Sherbrooke Est;2;50;false;true;true;false;false;false;19.0;0;0;0;0;0;false;85078;692318999;-73.539382;45.589483;84022;6129485056;-73.587452;45.613614;0;0;1;9450080;Bus 30 : TERMINUS TERREBONNE;"";EXO;30 N;Terminus Radisson;Terminus Terrebonne
455314962;"{\"type\":\"LineString\",\"coordinates\":[[-73.5397609,45.5887506],[-73.5396222,45.5887057]]}";3;Rue Radisson;1;50;false;true;true;false;false;false;12.0;0;0;0;0;0;false;85078;692318999;-73.539382;45.589483;84022;6129485056;-73.587452;45.613614;0;0;1;9450080;Bus 30 : TERMINUS TERREBONNE;"";EXO;30 N;Terminus Radisson;Terminus Terrebonne
455314971;"{\"type\":\"LineString\",\"coordinates\":[[-73.5396222,45.5887057],[-73.5395268,45.5888592]]}";4;Rue Sherbrooke Est;1;50;false;true;true;false;false;false;19.0;0;0;0;0;0;false;85078;692318999;-73.539382;45.589483;84022;6129485056;-73.587452;45.613614;0;0;1;9450080;Bus 30 : TERMINUS TERREBONNE;"";EXO;30 N;Terminus Radisson;Terminus Terrebonne
455314965;"{\"type\":\"LineString\",\"coordinates\":[[-73.5395268,45.5888592],[-73.5389055,45.589868]]}";5;Rue Sherbrooke Est;1;50;false;true;true;false;false;false;123.0;0;0;0;0;0;false;85078;692318999;-73.539382;45.589483;84022;6129485056;-73.587452;45.613614;0;0;1;9450080;Bus 30 : TERMINUS TERREBONNE;"";EXO;30 N;Terminus Radisson;Terminus Terrebonne
452610966;"{\"type\":\"LineString\",\"coordinates\":[[-73.5389055,45.589868],[-73.5382975,45.5908454]]}";6;Rue Sherbrooke Est;1;50;false;true;true;false;false;false;119.0;0;0;0;0;0;false;85078;692318999;-73.539382;45.589483;84022;6129485056;-73.587452;45.613614;0;0;1;9450080;Bus 30 : TERMINUS TERREBONNE;"";EXO;30 N;Terminus Radisson;Terminus Terrebonne
452610969;"{\"type\":\"LineString\",\"coordinates\":[[-73.5382975,45.5908454],[-73.537952,45.5914181],[-73.5379507,45.5914208],[-73.5377656,45.5917624],[-73.5374419,45.5923213]]}";7;Rue Sherbrooke Est;1;50;false;true;true;false;false;false;177.0;1;0;0;0;0;false;85078;692318999;-73.539382;45.589483;84022;6129485056;-73.587452;45.613614;0;0;1;9450080;Bus 30 : TERMINUS TERREBONNE;"";EXO;30 N;Terminus Radisson;Terminus Terrebonne
617518800;"{\"type\":\"LineString\",\"coordinates\":[[-73.5374419,45.5923213],[-73.5372174,45.5926873]]}";8;Rue Sherbrooke Est;1;50;false;true;true;false;false;false;45.0;1;0;0;0;0;false;85078;692318999;-73.539382;45.589483;84022;6129485056;-73.587452;45.613614;0;0;1;9450080;Bus 30 : TERMINUS TERREBONNE;"";EXO;30 N;Terminus Radisson;Terminus Terrebonne
607207179;"{\"type\":\"LineString\",\"coordinates\":[[-73.5372174,45.5926873],[-73.5370705,45.5929285]]}";9;Rue Sherbrooke Est;1;50;false;true;true;false;false;false;30.0;0;0;0;0;0;false;85078;692318999;-73.539382;45.589483;84022;6129485056;-73.587452;45.613614;0;0;1;9450080;Bus 30 : TERMINUS TERREBONNE;"";EXO;30 N;Terminus Radisson;Terminus Terrebonne
27439807;"{\"type\":\"LineString\",\"coordinates\":[[-73.5370705,45.5929285],[-73.5367114,45.5935498]]}";10;Rue Sherbrooke Est;1;50;false;true;true;false;false;false;75.0;0;0;0;0;0;false;85078;692318999;-73.539382;45.589483;84022;6129485056;-73.587452;45.613614;0;0;1;9450080;Bus 30 : TERMINUS TERREBONNE;"";EXO;30 N;Terminus Radisson;Terminus Terrebonne
27439806;"{\"type\":\"LineString\",\"coordinates\":[[-73.5367114,45.5935498],[-73.5366221,45.5937033]]}";11;Rue Sherbrooke Est;1;50;false;true;true;false;false;false;19.0;0;0;0;0;0;false;85078;692318999;-73.539382;45.589483;84022;6129485056;-73.587452;45.613614;0;0;1;9450080;Bus 30 : TERMINUS TERREBONNE;"";EXO;30 N;Terminus Radisson;Terminus Terrebonne
27439878;"{\"type\":\"LineString\",\"coordinates\":[[-73.5366221,45.5937033],[-73.5364508,45.593864],[-73.5362635,45.5939633],[-73.5361088,45.5939811],[-73.535955,45.5939837]]}";12;"";1;50;false;true;true;false;false;false;65.0;0;0;0;0;0;false;85078;692318999;-73.539382;45.589483;84022;6129485056;-73.587452;45.613614;0;0;1;9450080;Bus 30 : TERMINUS TERREBONNE;"";EXO;30 N;Terminus Radisson;Terminus Terrebonne
366056242;"{\"type\":\"LineString\",\"coordinates\":[[-73.535955,45.5939837],[-73.5342934,45.5934782],[-73.5340824,45.5934018],[-73.5339845,45.593294],[-73.5339944,45.5931999],[-73.5340557,45.5931307],[-73.5341684,45.5930844],[-73.5343414,45.593085],[-73.5350823,45.5931586]]}";13;"";1;50;false;true;true;false;false;false;276.0;0;0;0;0;0;false;85078;692318999;-73.539382;45.589483;84022;6129485056;-73.587452;45.613614;0;0;1;9450080;Bus 30 : TERMINUS TERREBONNE;"";EXO;30 N;Terminus Radisson;Terminus Terrebonne
607207177;"{\"type\":\"LineString\",\"coordinates\":[[-73.5350823,45.5931586],[-73.5360938,45.5932965]]}";14;Rue De Boucherville;1;50;false;true;true;false;false;false;81.0;0;0;0;0;0;false;85078;692318999;-73.539382;45.589483;84022;6129485056;-73.587452;45.613614;0;0;1;9450080;Bus 30 : TERMINUS TERREBONNE;"";EXO;30 N;Terminus Radisson;Terminus Terrebonne
528139661;"{\"type\":\"LineString\",\"coordinates\":[[-73.5360938,45.5932965],[-73.5372743,45.5935282],[-73.5378439,45.5936624],[-73.5389398,45.5939496],[-73.5397035,45.5941205],[-73.5400861,45.5942175]]}";15;Rue De Boucherville;3;50;false;true;true;false;false;false;328.0;0;0;0;0;0;false;85078;692318999;-73.539382;45.589483;84022;6129485056;-73.587452;45.613614;0;0;1;9450080;Bus 30 : TERMINUS TERREBONNE;"";EXO;30 N;Terminus Radisson;Terminus Terrebonne
683259147;"{\"type\":\"LineString\",\"coordinates\":[[-73.5400861,45.5942175],[-73.5401961,45.5942452]]}";16;Rue De Boucherville;3;50;false;true;true;false;false;false;10.0;0;0;0;0;0;false;85078;692318999;-73.539382;45.589483;84022;6129485056;-73.587452;45.613614;0;0;1;9450080;Bus 30 : TERMINUS TERREBONNE;"";EXO;30 N;Terminus Radisson;Terminus Terrebonne
366056227;"{\"type\":\"LineString\",\"coordinates\":[[-73.5401961,45.5942452],[-73.5402763,45.594275],[-73.5404699,45.5943215],[-73.5410508,45.5944504],[-73.5418234,45.5946531],[-73.5427962,45.5949055],[-73.5433687,45.5951317],[-73.5442338,45.5954735],[-73.5452697,45.5959455]]}";17;Rue De Boucherville;3;50;false;true;true;false;false;false;441.0;0;0;0;0;0;false;85078;692318999;-73.539382;45.589483;84022;6129485056;-73.587452;45.613614;0;0;1;9450080;Bus 30 : TERMINUS TERREBONNE;"";EXO;30 N;Terminus Radisson;Terminus Terrebonne
607207176;"{\"type\":\"LineString\",\"coordinates\":[[-73.5452697,45.5959455],[-73.546818,45.5965593],[-73.5476046,45.5968843],[-73.5483909,45.5972183],[-73.5491841,45.5975594],[-73.5493201,45.5976092]]}";18;Boulevard Louis-H.-La Fontaine;3;50;false;true;true;false;false;false;366.0;2;0;0;0;0;false;85078;692318999;-73.539382;45.589483;84022;6129485056;-73.587452;45.613614;0;0;1;9450080;Bus 30 : TERMINUS TERREBONNE;"";EXO;30 N;Terminus Radisson;Terminus Terrebonne
680923340;"{\"type\":\"LineString\",\"coordinates\":[[-73.5493201,45.5976092],[-73.5499854,45.5979109],[-73.550756,45.59826],[-73.5521811,45.5988805],[-73.5530125,45.5992505],[-73.5540077,45.5996839]]}";19;Boulevard Louis-H.-La Fontaine;3;50;false;true;true;false;false;false;433.0;1;0;0;0;0;false;85078;692318999;-73.539382;45.589483;84022;6129485056;-73.587452;45.613614;0;0;1;9450080;Bus 30 : TERMINUS TERREBONNE;"";EXO;30 N;Terminus Radisson;Terminus Terrebonne
46688903;"{\"type\":\"LineString\",\"coordinates\":[[-73.5540077,45.5996839],[-73.5548465,45.5999735],[-73.5558241,45.6003549],[-73.5561045,45.6004215]]}";20;"";1;50;false;true;true;false;false;false;184.0;0;0;0;0;0;false;85078;692318999;-73.539382;45.589483;84022;6129485056;-73.587452;45.613614;0;0;1;9450080;Bus 30 : TERMINUS TERREBONNE;"";EXO;30 N;Terminus Radisson;Terminus Terrebonne
680923336;"{\"type\":\"LineString\",\"coordinates\":[[-73.5561045,45.6004215],[-73.5606219,45.6023925]]}";21;Autoroute Transcanadienne;3;70;false;true;true;false;false;false;415.0;0;0;0;0;0;false;85078;692318999;-73.539382;45.589483;84022;6129485056;-73.587452;45.613614;0;0;1;9450080;Bus 30 : TERMINUS TERREBONNE;"";EXO;30 N;Terminus Radisson;Terminus Terrebonne
21030859;"{\"type\":\"LineString\",\"coordinates\":[[-73.5606219,45.6023925],[-73.5612861,45.6027143]]}";22;Autoroute 25;4;70;false;true;true;false;false;false;63.0;0;0;0;0;0;false;85078;692318999;-73.539382;45.589483;84022;6129485056;-73.587452;45.613614;0;0;1;9450080;Bus 30 : TERMINUS TERREBONNE;"";EXO;30 N;Terminus Radisson;Terminus Terrebonne
231273797;"{\"type\":\"LineString\",\"coordinates\":[[-73.5612861,45.6027143],[-73.5625056,45.6034269]]}";23;Autoroute 25;3;70;false;true;true;false;false;false;124.0;0;0;0;0;0;false;85078;692318999;-73.539382;45.589483;84022;6129485056;-73.587452;45.613614;0;0;1;9450080;Bus 30 : TERMINUS TERREBONNE;"";EXO;30 N;Terminus Radisson;Terminus Terrebonne
12191066;"{\"type\":\"LineString\",\"coordinates\":[[-73.5625056,45.6034269],[-73.563351,45.6038739]]}";24;Autoroute 25;2;70;false;true;true;false;false;false;83.0;0;0;0;0;0;false;85078;692318999;-73.539382;45.589483;84022;6129485056;-73.587452;45.613614;0;0;1;9450080;Bus 30 : TERMINUS TERREBONNE;"";EXO;30 N;Terminus Radisson;Terminus Terrebonne
40616839;"{\"type\":\"LineString\",\"coordinates\":[[-73.563351,45.6038739],[-73.5641972,45.6043814]]}";25;Autoroute 25;2;70;false;true;true;false;false;false;87.0;0;0;0;0;0;false;85078;692318999;-73.539382;45.589483;84022;6129485056;-73.587452;45.613614;0;0;1;9450080;Bus 30 : TERMINUS TERREBONNE;"";EXO;30 N;Terminus Radisson;Terminus Terrebonne
50326564;"{\"type\":\"LineString\",\"coordinates\":[[-73.5641972,45.6043814],[-73.5649488,45.6048459]]}";26;Autoroute 25;2;70;false;true;true;false;false;false;79.0;0;0;0;0;0;false;85078;692318999;-73.539382;45.589483;84022;6129485056;-73.587452;45.613614;0;0;1;9450080;Bus 30 : TERMINUS TERREBONNE;"";EXO;30 N;Terminus Radisson;Terminus Terrebonne
50326559;"{\"type\":\"LineString\",\"coordinates\":[[-73.5649488,45.6048459],[-73.5656248,45.6052539],[-73.5659098,45.6054208],[-73.5661351,45.6055413],[-73.5663317,45.6056449],[-73.5665173,45.6057314],[-73.5667205,45.6058257],[-73.5668906,45.6058999],[-73.567127,45.6059941],[-73.56737,45.60609]]}";27;Autoroute 25;2;70;false;true;true;false;false;false;235.0;0;0;0;0;0;false;85078;692318999;-73.539382;45.589483;84022;6129485056;-73.587452;45.613614;0;0;1;9450080;Bus 30 : TERMINUS TERREBONNE;"";EXO;30 N;Terminus Radisson;Terminus Terrebonne
50326560;"{\"type\":\"LineString\",\"coordinates\":[[-73.56737,45.60609],[-73.5680847,45.6063387]]}";28;Autoroute 25;2;70;false;true;true;false;false;false;63.0;0;0;0;0;0;false;85078;692318999;-73.539382;45.589483;84022;6129485056;-73.587452;45.613614;0;0;1;9450080;Bus 30 : TERMINUS TERREBONNE;"";EXO;30 N;Terminus Radisson;Terminus Terrebonne
50326561;"{\"type\":\"LineString\",\"coordinates\":[[-73.5680847,45.6063387],[-73.5689591,45.6066033]]}";29;Autoroute 25;1;70;false;true;true;false;false;false;75.0;0;0;0;0;0;false;85078;692318999;-73.539382;45.589483;84022;6129485056;-73.587452;45.613614;0;0;1;9450080;Bus 30 : TERMINUS TERREBONNE;"";EXO;30 N;Terminus Radisson;Terminus Terrebonne
38360606;"{\"type\":\"LineString\",\"coordinates\":[[-73.5689591,45.6066033],[-73.5702304,45.6070724],[-73.5708152,45.6072976],[-73.5713543,45.6075415],[-73.5727557,45.6081409],[-73.5735443,45.6084624],[-73.5743276,45.6087613],[-73.5750384,45.609039],[-73.5758618,45.6093392],[-73.5762427,45.6094724],[-73.577388,45.6098571],[-73.5791314,45.6104331]]}";30;Autoroute 25;3;70;false;true;true;false;false;false;901.0;0;0;0;0;0;false;85078;692318999;-73.539382;45.589483;84022;6129485056;-73.587452;45.613614;0;0;1;9450080;Bus 30 : TERMINUS TERREBONNE;"";EXO;30 N;Terminus Radisson;Terminus Terrebonne
196806121;"{\"type\":\"LineString\",\"coordinates\":[[-73.5791314,45.6104331],[-73.5802016,45.610829],[-73.5808883,45.6110691],[-73.5817573,45.6113825],[-73.5831226,45.6118347]]}";31;"";1;50;false;true;true;false;false;false;348.0;0;0;0;0;0;false;85078;692318999;-73.539382;45.589483;84022;6129485056;-73.587452;45.613614;0;0;1;9450080;Bus 30 : TERMINUS TERREBONNE;"";EXO;30 N;Terminus Radisson;Terminus Terrebonne
436544290;"{\"type\":\"LineString\",\"coordinates\":[[-73.5831226,45.6118347],[-73.5833479,45.6119191],[-73.5844368,45.6123337],[-73.585212,45.6126414]]}";32;"";1;50;false;true;true;false;false;false;186.0;0;0;0;0;0;false;85078;692318999;-73.539382;45.589483;84022;6129485056;-73.587452;45.613614;0;0;1;9450080;Bus 30 : TERMINUS TERREBONNE;"";EXO;30 N;Terminus Radisson;Terminus Terrebonne
680923332;"{\"type\":\"LineString\",\"coordinates\":[[-73.585212,45.6126414],[-73.5880779,45.6135731],[-73.5896957,45.6140924],[-73.5934109,45.6152715],[-73.5940824,45.6154862],[-73.5946524,45.6156701],[-73.595039,45.6158076],[-73.5954543,45.6159621],[-73.5957436,45.6160827],[-73.5959579,45.6161754],[-73.5962672,45.6163268],[-73.5965522,45.616472],[-73.59691,45.6166621],[-73.5970934,45.6167625],[-73.5973717,45.6169217],[-73.5975136,45.617067],[-73.5977811,45.6172061],[-73.5979205,45.6173024],[-73.5981188,45.6174332],[-73.5984127,45.6176368],[-73.5987142,45.6178753],[-73.5994395,45.6185207]]}";33;Boulevard Louis-H.-La Fontaine;2;50;false;true;true;false;false;false;1304.0;2;0;0;0;0;false;85078;692318999;-73.539382;45.589483;84022;6129485056;-73.587452;45.613614;2;0;1;9450080;Bus 30 : TERMINUS TERREBONNE;"";EXO;30 N;Terminus Radisson;Terminus Terrebonne
680923332;"{\"type\":\"LineString\",\"coordinates\":[[-73.585212,45.6126414],[-73.5880779,45.6135731],[-73.5896957,45.6140924],[-73.5934109,45.6152715],[-73.5940824,45.6154862],[-73.5946524,45.6156701],[-73.595039,45.6158076],[-73.5954543,45.6159621],[-73.5957436,45.6160827],[-73.5959579,45.6161754],[-73.5962672,45.6163268],[-73.5965522,45.616472],[-73.59691,45.6166621],[-73.5970934,45.6167625],[-73.5973717,45.6169217],[-73.5975136,45.617067],[-73.5977811,45.6172061],[-73.5979205,45.6173024],[-73.5981188,45.6174332],[-73.5984127,45.6176368],[-73.5987142,45.6178753],[-73.5994395,45.6185207]]}";1;Boulevard Louis-H.-La Fontaine;2;50;false;true;true;false;false;false;652.0;2;0;0;0;0;false;84022;6129485056;-73.587452;45.613614;84026;6129485052;-73.603937;45.623116;1;1;2;9450080;Bus 30 : TERMINUS TERREBONNE;"";EXO;30 N;Terminus Radisson;Terminus Terrebonne
237298395;"{\"type\":\"LineString\",\"coordinates\":[[-73.5994395,45.6185207],[-73.600034,45.6191083],[-73.6005021,45.6195816],[-73.6012885,45.6203394],[-73.6013813,45.6204247],[-73.6031812,45.6222408]]}";2;Boulevard Louis-H.-La Fontaine;2;50;false;true;true;false;false;false;506.0;0;0;0;0;0;false;84022;6129485056;-73.587452;45.613614;84026;6129485052;-73.603937;45.623116;0;1;2;9450080;Bus 30 : TERMINUS TERREBONNE;"";EXO;30 N;Terminus Radisson;Terminus Terrebonne
453511898;"{\"type\":\"LineString\",\"coordinates\":[[-73.6031812,45.6222408],[-73.6037381,45.6227597]]}";3;Boulevard Louis-H.-La Fontaine;2;50;false;true;true;false;false;false;73.0;1;0;0;0;0;false;84022;6129485056;-73.587452;45.613614;84026;6129485052;-73.603937;45.623116;0;1;2;9450080;Bus 30 : TERMINUS TERREBONNE;"";EXO;30 N;Terminus Radisson;Terminus Terrebonne
453511899;"{\"type\":\"LineString\",\"coordinates\":[[-73.6037381,45.6227597],[-73.6039151,45.6229362]]}";4;Boulevard Louis-H.-Lafontaine;2;50;false;true;false;false;false;false;24.0;2;0;0;0;0;false;84022;6129485056;-73.587452;45.613614;84026;6129485052;-73.603937;45.623116;0;1;2;9450080;Bus 30 : TERMINUS TERREBONNE;"";EXO;30 N;Terminus Radisson;Terminus Terrebonne
237298397;"{\"type\":\"LineString\",\"coordinates\":[[-73.6039151,45.6229362],[-73.6039712,45.6229868],[-73.6055006,45.6244025],[-73.6064465,45.6253118],[-73.6105541,45.6291707],[-73.6112422,45.6298635]]}";5;Boulevard Louis-H.-La Fontaine;2;50;false;true;true;false;false;false;479.5;2;0;0;0;0;false;84022;6129485056;-73.587452;45.613614;84026;6129485052;-73.603937;45.623116;1;1;2;9450080;Bus 30 : TERMINUS TERREBONNE;"";EXO;30 N;Terminus Radisson;Terminus Terrebonne
237298397;"{\"type\":\"LineString\",\"coordinates\":[[-73.6039151,45.6229362],[-73.6039712,45.6229868],[-73.6055006,45.6244025],[-73.6064465,45.6253118],[-73.6105541,45.6291707],[-73.6112422,45.6298635]]}";1;Boulevard Louis-H.-La Fontaine;2;50;false;true;true;false;false;false;479.5;2;0;0;0;0;false;84026;6129485052;-73.603937;45.623116;84024;6129485054;-73.61126;45.629903;1;2;3;9450080;Bus 30 : TERMINUS TERREBONNE;"";EXO;30 N;Terminus Radisson;Terminus Terrebonne
459833710;"{\"type\":\"LineString\",\"coordinates\":[[-73.6112422,45.6298635],[-73.6113646,45.6299751]]}";2;Boulevard Louis-H.-Lafontaine;2;50;false;true;true;false;false;false;8.0;2;0;0;0;0;false;84026;6129485052;-73.603937;45.623116;84024;6129485054;-73.61126;45.629903;1;2;3;9450080;Bus 30 : TERMINUS TERREBONNE;"";EXO;30 N;Terminus Radisson;Terminus Terrebonne
237298397;"{\"type\":\"LineString\",\"coordinates\":[[-73.6039151,45.6229362],[-73.6039712,45.6229868],[-73.6055006,45.6244025],[-73.6064465,45.6253118],[-73.6105541,45.6291707],[-73.6112422,45.6298635]]}";1;Boulevard Louis-H.-La Fontaine;2;50;false;true;true;false;false;false;959.0;2;0;0;0;0;false;84024;6129485054;-73.61126;45.629903;84936;6129482276;-73.650114;45.692142;2;3;4;9450080;Bus 30 : TERMINUS TERREBONNE;"";EXO;30 N;Terminus Radisson;Terminus Terrebonne
459833710;"{\"type\":\"LineString\",\"coordinates\":[[-73.6112422,45.6298635],[-73.6113646,45.6299751]]}";2;Boulevard Louis-H.-Lafontaine;2;50;false;true;true;false;false;false;16.0;2;0;0;0;0;false;84024;6129485054;-73.61126;45.629903;84936;6129482276;-73.650114;45.692142;0;3;4;9450080;Bus 30 : TERMINUS TERREBONNE;"";EXO;30 N;Terminus Radisson;Terminus Terrebonne
114908744;"{\"type\":\"LineString\",\"coordinates\":[[-73.6113646,45.6299751],[-73.6117426,45.6303557],[-73.6119098,45.6304881],[-73.6120915,45.6306296],[-73.6121614,45.6306748],[-73.6129009,45.6311529],[-73.6130837,45.6312659],[-73.6132952,45.6314011],[-73.6142866,45.6321115]]}";3;"";1;50;false;true;true;false;false;false;330.0;1;0;0;0;0;false;84024;6129485054;-73.61126;45.629903;84936;6129482276;-73.650114;45.692142;0;3;4;9450080;Bus 30 : TERMINUS TERREBONNE;"";EXO;30 N;Terminus Radisson;Terminus Terrebonne
39695625;"{\"type\":\"LineString\",\"coordinates\":[[-73.6142866,45.6321115],[-73.623397,45.6407081]]}";4;Pont Olivier-Charbonneau;3;100;false;true;true;false;false;false;1190.0;0;0;0;0;0;false;84024;6129485054;-73.61126;45.629903;84936;6129482276;-73.650114;45.692142;0;3;4;9450080;Bus 30 : TERMINUS TERREBONNE;"";EXO;30 N;Terminus Radisson;Terminus Terrebonne
39695626;"{\"type\":\"LineString\",\"coordinates\":[[-73.623397,45.6407081],[-73.6240871,45.6413602],[-73.6248393,45.6420661],[-73.6265297,45.6435625],[-73.6272286,45.6441554],[-73.6291769,45.6458569]]}";5;Autoroute 25;2;100;false;true;true;false;false;false;728.0;0;0;0;0;0;false;84024;6129485054;-73.61126;45.629903;84936;6129482276;-73.650114;45.692142;0;3;4;9450080;Bus 30 : TERMINUS TERREBONNE;"";EXO;30 N;Terminus Radisson;Terminus Terrebonne
230335456;"{\"type\":\"LineString\",\"coordinates\":[[-73.6291769,45.6458569],[-73.632538,45.648766]]}";6;Autoroute 25;1;100;false;true;true;false;false;false;416.0;0;0;0;0;0;false;84024;6129485054;-73.61126;45.629903;84936;6129482276;-73.650114;45.692142;0;3;4;9450080;Bus 30 : TERMINUS TERREBONNE;"";EXO;30 N;Terminus Radisson;Terminus Terrebonne
119082392;"{\"type\":\"LineString\",\"coordinates\":[[-73.632538,45.648766],[-73.634636,45.65044],[-73.635063,45.650749],[-73.636665,45.65176],[-73.638573,45.652763],[-73.6395411,45.6532251]]}";7;Autoroute 25;1;100;false;true;true;false;false;false;741.0;0;0;0;0;0;false;84024;6129485054;-73.61126;45.629903;84936;6129482276;-73.650114;45.692142;0;3;4;9450080;Bus 30 : TERMINUS TERREBONNE;"";EXO;30 N;Terminus Radisson;Terminus Terrebonne
125249330;"{\"type\":\"LineString\",\"coordinates\":[[-73.6395411,45.6532251],[-73.640228,45.653553]]}";8;Autoroute 25;1;100;false;true;true;false;false;false;65.0;0;0;0;0;0;false;84024;6129485054;-73.61126;45.629903;84936;6129482276;-73.650114;45.692142;0;3;4;9450080;Bus 30 : TERMINUS TERREBONNE;"";EXO;30 N;Terminus Radisson;Terminus Terrebonne
125249331;"{\"type\":\"LineString\",\"coordinates\":[[-73.640228,45.653553],[-73.640465,45.653667],[-73.6417376,45.6542923],[-73.6426036,45.654783]]}";9;Autoroute 25;1;100;false;true;true;false;false;false;231.0;0;0;0;0;0;false;84024;6129485054;-73.61126;45.629903;84936;6129482276;-73.650114;45.692142;0;3;4;9450080;Bus 30 : TERMINUS TERREBONNE;"";EXO;30 N;Terminus Radisson;Terminus Terrebonne
352390277;"{\"type\":\"LineString\",\"coordinates\":[[-73.6426036,45.654783],[-73.6430746,45.6551131]]}";10;Autoroute 25;1;100;false;true;true;false;false;false;52.0;0;0;0;0;0;false;84024;6129485054;-73.61126;45.629903;84936;6129482276;-73.650114;45.692142;0;3;4;9450080;Bus 30 : TERMINUS TERREBONNE;"";EXO;30 N;Terminus Radisson;Terminus Terrebonne
352390279;"{\"type\":\"LineString\",\"coordinates\":[[-73.6430746,45.6551131],[-73.6438177,45.655631],[-73.6448063,45.6564693],[-73.6457173,45.6573698]]}";11;Autoroute 25;1;100;false;true;true;false;false;false;326.0;0;0;0;0;0;false;84024;6129485054;-73.61126;45.629903;84936;6129482276;-73.650114;45.692142;0;3;4;9450080;Bus 30 : TERMINUS TERREBONNE;"";EXO;30 N;Terminus Radisson;Terminus Terrebonne
409570022;"{\"type\":\"LineString\",\"coordinates\":[[-73.6457173,45.6573698],[-73.6463334,45.6580665]]}";12;Autoroute 25;1;100;false;true;true;false;false;false;92.0;0;0;0;0;0;false;84024;6129485054;-73.61126;45.629903;84936;6129482276;-73.650114;45.692142;0;3;4;9450080;Bus 30 : TERMINUS TERREBONNE;"";EXO;30 N;Terminus Radisson;Terminus Terrebonne
409570023;"{\"type\":\"LineString\",\"coordinates\":[[-73.6463334,45.6580665],[-73.6467713,45.658597],[-73.647369,45.659626],[-73.647812,45.660492],[-73.648323,45.661854],[-73.6493298,45.6650705],[-73.6497911,45.666838],[-73.6499507,45.6676529]]}";13;Autoroute 25;1;100;false;true;true;false;false;false;1107.0;0;0;0;0;0;false;84024;6129485054;-73.61126;45.629903;84936;6129482276;-73.650114;45.692142;0;3;4;9450080;Bus 30 : TERMINUS TERREBONNE;"";EXO;30 N;Terminus Radisson;Terminus Terrebonne
128169284;"{\"type\":\"LineString\",\"coordinates\":[[-73.6499507,45.6676529],[-73.6500628,45.6684715],[-73.6500786,45.6694105],[-73.650005,45.6715739],[-73.649794,45.67777],[-73.6497305,45.6804681],[-73.6496756,45.682791],[-73.6496776,45.6833557],[-73.6497442,45.6848436],[-73.6498149,45.6857043],[-73.649898,45.686337],[-73.6500132,45.687547]]}";14;Autoroute 25;3;100;false;true;true;false;false;false;2211.0;0;0;0;0;0;false;84024;6129485054;-73.61126;45.629903;84936;6129482276;-73.650114;45.692142;0;3;4;9450080;Bus 30 : TERMINUS TERREBONNE;"";EXO;30 N;Terminus Radisson;Terminus Terrebonne
32823759;"{\"type\":\"LineString\",\"coordinates\":[[-73.6500132,45.687547],[-73.6501823,45.6888167],[-73.650222,45.6891151]]}";15;Pont Lepage;3;100;false;true;true;false;false;false;175.0;0;0;0;0;0;false;84024;6129485054;-73.61126;45.629903;84936;6129482276;-73.650114;45.692142;0;3;4;9450080;Bus 30 : TERMINUS TERREBONNE;"";EXO;30 N;Terminus Radisson;Terminus Terrebonne
98502617;"{\"type\":\"LineString\",\"coordinates\":[[-73.650222,45.6891151],[-73.650323,45.6898174],[-73.6503375,45.6899864],[-73.6503494,45.6901618],[-73.650362,45.6903265],[-73.6503718,45.6904945],[-73.6503809,45.6906518],[-73.6503905,45.6908154],[-73.6503976,45.6909868],[-73.6503999,45.6911357],[-73.6503988,45.6912772],[-73.6503886,45.6914212],[-73.650371,45.691544],[-73.6503421,45.6916597],[-73.6503158,45.6917239],[-73.6502889,45.6917784],[-73.6502297,45.6918532]]}";16;"";1;50;false;true;true;false;false;false;307.0;0;0;0;0;0;false;84024;6129485054;-73.61126;45.629903;84936;6129482276;-73.650114;45.692142;0;3;4;9450080;Bus 30 : TERMINUS TERREBONNE;"";EXO;30 N;Terminus Radisson;Terminus Terrebonne
98502640;"{\"type\":\"LineString\",\"coordinates\":[[-73.6502297,45.6918532],[-73.6502121,45.691887],[-73.6501985,45.6919346],[-73.6501942,45.6919627],[-73.6501981,45.6919969],[-73.6502114,45.69208],[-73.6502212,45.6921569],[-73.6502304,45.6922263],[-73.6502387,45.6922806],[-73.6502401,45.6922908],[-73.6502448,45.6923255],[-73.6502501,45.6923585],[-73.6502599,45.6923903]]}";17;"";1;50;false;true;true;false;false;false;61.0;0;0;0;0;0;false;84024;6129485054;-73.61126;45.629903;84936;6129482276;-73.650114;45.692142;2;3;4;9450080;Bus 30 : TERMINUS TERREBONNE;"";EXO;30 N;Terminus Radisson;Terminus Terrebonne
98502640;"{\"type\":\"LineString\",\"coordinates\":[[-73.6502297,45.6918532],[-73.6502121,45.691887],[-73.6501985,45.6919346],[-73.6501942,45.6919627],[-73.6501981,45.6919969],[-73.6502114,45.69208],[-73.6502212,45.6921569],[-73.6502304,45.6922263],[-73.6502387,45.6922806],[-73.6502401,45.6922908],[-73.6502448,45.6923255],[-73.6502501,45.6923585],[-73.6502599,45.6923903]]}";1;"";1;50;false;true;true;false;false;false;30.5;0;0;0;0;0;false;84936;6129482276;-73.650114;45.692142;84875;6129482927;-73.652978;45.698038;1;4;5;9450080;Bus 30 : TERMINUS TERREBONNE;"";EXO;30 N;Terminus Radisson;Terminus Terrebonne
98502613;"{\"type\":\"LineString\",\"coordinates\":[[-73.6502599,45.6923903],[-73.6502853,45.692426],[-73.6503431,45.692468],[-73.6504151,45.6925139],[-73.6504913,45.6925778],[-73.6505606,45.6926527],[-73.6506152,45.6927367],[-73.6506613,45.6928284],[-73.6507003,45.69293],[-73.6507239,45.6930419],[-73.6507482,45.6931874],[-73.650907,45.6943664],[-73.6509557,45.6945167],[-73.6510826,45.6948813]]}";2;"";1;50;false;true;true;false;false;false;290.0;0;0;0;0;0;false;84936;6129482276;-73.650114;45.692142;84875;6129482927;-73.652978;45.698038;0;4;5;9450080;Bus 30 : TERMINUS TERREBONNE;"";EXO;30 N;Terminus Radisson;Terminus Terrebonne
680430217;"{\"type\":\"LineString\",\"coordinates\":[[-73.6510826,45.6948813],[-73.6511773,45.6954263]]}";3;Autoroute 25;1;100;false;true;true;false;false;false;61.0;0;0;0;0;0;false;84936;6129482276;-73.650114;45.692142;84875;6129482927;-73.652978;45.698038;0;4;5;9450080;Bus 30 : TERMINUS TERREBONNE;"";EXO;30 N;Terminus Radisson;Terminus Terrebonne
138383580;"{\"type\":\"LineString\",\"coordinates\":[[-73.6511773,45.6954263],[-73.6514065,45.69715]]}";4;Autoroute 25;3;100;false;true;true;false;false;false;193.0;0;0;0;0;0;false;84936;6129482276;-73.650114;45.692142;84875;6129482927;-73.652978;45.698038;0;4;5;9450080;Bus 30 : TERMINUS TERREBONNE;"";EXO;30 N;Terminus Radisson;Terminus Terrebonne
680430216;"{\"type\":\"LineString\",\"coordinates\":[[-73.6514065,45.69715],[-73.6514683,45.6976101],[-73.6518955,45.7007928]]}";5;Autoroute 25;1;100;false;true;true;false;false;false;407.0;0;0;0;0;0;false;84936;6129482276;-73.650114;45.692142;84875;6129482927;-73.652978;45.698038;0;4;5;9450080;Bus 30 : TERMINUS TERREBONNE;"";EXO;30 N;Terminus Radisson;Terminus Terrebonne
26142171;"{\"type\":\"LineString\",\"coordinates\":[[-73.6518955,45.7007928],[-73.651843,45.7011363],[-73.6517118,45.7014415],[-73.6514715,45.7017472],[-73.6510939,45.701981],[-73.6506561,45.7020769],[-73.6502356,45.7020769],[-73.6499437,45.7020169],[-73.6496605,45.7018671],[-73.6494727,45.7016997],[-73.6493472,45.7014865],[-73.6492914,45.7013276],[-73.6493086,45.7010039],[-73.6494132,45.6999961]]}";6;"";1;50;false;true;true;false;false;false;488.0;1;0;0;0;0;false;84936;6129482276;-73.650114;45.692142;84875;6129482927;-73.652978;45.698038;0;4;5;9450080;Bus 30 : TERMINUS TERREBONNE;"";EXO;30 N;Terminus Radisson;Terminus Terrebonne
460511882;"{\"type\":\"LineString\",\"coordinates\":[[-73.6494132,45.6999961],[-73.6515641,45.6998436]]}";7;Boulevard des Seigneurs;1;50;false;true;false;false;false;false;169.0;1;0;0;0;0;false;84936;6129482276;-73.650114;45.692142;84875;6129482927;-73.652978;45.698038;0;4;5;9450080;Bus 30 : TERMINUS TERREBONNE;"";EXO;30 N;Terminus Radisson;Terminus Terrebonne
177354202;"{\"type\":\"LineString\",\"coordinates\":[[-73.6515641,45.6998436],[-73.6522207,45.6997971]]}";8;Boulevard des Seigneurs;1;50;false;true;false;false;false;false;52.0;0;0;0;0;0;false;84936;6129482276;-73.650114;45.692142;84875;6129482927;-73.652978;45.698038;0;4;5;9450080;Bus 30 : TERMINUS TERREBONNE;"";EXO;30 N;Terminus Radisson;Terminus Terrebonne
177354201;"{\"type\":\"LineString\",\"coordinates\":[[-73.6522207,45.6997971],[-73.6541584,45.6996598],[-73.6541994,45.6996569],[-73.6543243,45.699648]]}";9;Boulevard des Seigneurs;3;50;false;true;false;false;false;false;165.0;1;1;0;0;0;false;84936;6129482276;-73.650114;45.692142;84875;6129482927;-73.652978;45.698038;0;4;5;9450080;Bus 30 : TERMINUS TERREBONNE;"";EXO;30 N;Terminus Radisson;Terminus Terrebonne
678903376;"{\"type\":\"LineString\",\"coordinates\":[[-73.6543243,45.699648],[-73.6543935,45.6995058]]}";10;Côte de Terrebonne;1;50;false;true;true;false;false;false;17.0;0;0;0;0;0;false;84936;6129482276;-73.650114;45.692142;84875;6129482927;-73.652978;45.698038;0;4;5;9450080;Bus 30 : TERMINUS TERREBONNE;"";EXO;30 N;Terminus Radisson;Terminus Terrebonne
678900124;"{\"type\":\"LineString\",\"coordinates\":[[-73.6543935,45.6995058],[-73.6543959,45.6994455],[-73.6544061,45.6991935]]}";11;Côte de Terrebonne;2;50;false;true;true;false;false;false;35.0;0;1;0;0;0;false;84936;6129482276;-73.650114;45.692142;84875;6129482927;-73.652978;45.698038;0;4;5;9450080;Bus 30 : TERMINUS TERREBONNE;"";EXO;30 N;Terminus Radisson;Terminus Terrebonne
810018731;"{\"type\":\"LineString\",\"coordinates\":[[-73.6544061,45.6991935],[-73.6544516,45.6980667]]}";12;Côte de Terrebonne;2;50;false;true;false;false;false;false;126.0;0;0;0;0;0;false;84936;6129482276;-73.650114;45.692142;84875;6129482927;-73.652978;45.698038;0;4;5;9450080;Bus 30 : TERMINUS TERREBONNE;"";EXO;30 N;Terminus Radisson;Terminus Terrebonne
679579107;"{\"type\":\"LineString\",\"coordinates\":[[-73.6544516,45.6980667],[-73.6544536,45.6980164]]}";13;Côte de Terrebonne;1;50;false;true;false;false;false;false;6.0;0;0;0;0;0;false;84936;6129482276;-73.650114;45.692142;84875;6129482927;-73.652978;45.698038;0;4;5;9450080;Bus 30 : TERMINUS TERREBONNE;"";EXO;30 N;Terminus Radisson;Terminus Terrebonne
810021669;"{\"type\":\"LineString\",\"coordinates\":[[-73.6544536,45.6980164],[-73.6544566,45.6979421]]}";14;Côte de Terrebonne;1;50;false;true;false;false;false;false;9.0;0;0;0;0;0;false;84936;6129482276;-73.650114;45.692142;84875;6129482927;-73.652978;45.698038;0;4;5;9450080;Bus 30 : TERMINUS TERREBONNE;"";EXO;30 N;Terminus Radisson;Terminus Terrebonne
679579096;"{\"type\":\"LineString\",\"coordinates\":[[-73.6544566,45.6979421],[-73.6543098,45.6979415]]}";15;BUS;1;50;false;true;true;false;true;false;12.0;0;0;0;0;0;false;84936;6129482276;-73.650114;45.692142;84875;6129482927;-73.652978;45.698038;0;4;5;9450080;Bus 30 : TERMINUS TERREBONNE;"";EXO;30 N;Terminus Radisson;Terminus Terrebonne
678900150;"{\"type\":\"LineString\",\"coordinates\":[[-73.6543098,45.6979415],[-73.654154,45.6979414],[-73.6533204,45.6979395],[-73.6532321,45.6979644],[-73.6531831,45.6979995],[-73.6531647,45.6980517],[-73.6531659,45.6981074]]}";16;BUS;1;50;false;true;true;false;true;false;103.0;0;1;0;0;0;false;84936;6129482276;-73.650114;45.692142;84875;6129482927;-73.652978;45.698038;1;4;5;9450080;Bus 30 : TERMINUS TERREBONNE;"";EXO;30 N;Terminus Radisson;Terminus Terrebonne
