way_id;shape;index;name;nb_lanes;legal_speed;speed_zone_30;oneway;shares_bike;bike_box;bus_lane;dedicated_bus_lane;length;nb_traffic_signals;nb_crossings;nb_stops;nb_give_ways;nb_lvl_crossings;roundabout;stop_id_orig;node_id_orig;coord_x_orig;coord_y_orig;stop_id_dest;node_id_dest;coord_x_dest;coord_y_dest;nb_neighbouring_ways_bus_stop;ordre_orig;ordre_dest;id_line;line_name;colour;operator;ref;from;to
624217211;"{\"type\":\"LineString\",\"coordinates\":[[-73.8724273,45.5545517],[-73.8720045,45.5543616],[-73.8716714,45.5541899]]}";1;Boulevard Arthur-Sauvé;1;50;false;true;true;false;false;false;72.0;0;0;0;0;0;false;43086;5894580450;-73.87247;45.554493;43084;5894580475;-73.86973;45.552468;1;0;1;9312756;Bus : 55 S - Direction Terminus Henri-Bourassa;"";STL;55S;Arthur-Sauvé / Prévert;Terminus Henri-Bourassa Quai:9
476016854;"{\"type\":\"LineString\",\"coordinates\":[[-73.8716714,45.5541899],[-73.8714183,45.5540465],[-73.8711752,45.5538884],[-73.8709734,45.5537462]]}";2;Boulevard Arthur-Sauvé;1;50;false;true;true;false;false;false;74.0;0;0;0;0;0;false;43086;5894580450;-73.87247;45.554493;43084;5894580475;-73.86973;45.552468;0;0;1;9312756;Bus : 55 S - Direction Terminus Henri-Bourassa;"";STL;55S;Arthur-Sauvé / Prévert;Terminus Henri-Bourassa Quai:9
476017448;"{\"type\":\"LineString\",\"coordinates\":[[-73.8709734,45.5537462],[-73.8704228,45.5532236]]}";3;Boulevard Arthur-Sauvé;1;50;false;true;true;false;false;false;73.0;0;0;0;0;0;false;43086;5894580450;-73.87247;45.554493;43084;5894580475;-73.86973;45.552468;0;0;1;9312756;Bus : 55 S - Direction Terminus Henri-Bourassa;"";STL;55S;Arthur-Sauvé / Prévert;Terminus Henri-Bourassa Quai:9
476017447;"{\"type\":\"LineString\",\"coordinates\":[[-73.8704228,45.5532236],[-73.8701516,45.5529631]]}";4;Boulevard Arthur-Sauvé;1;50;false;true;true;false;false;false;36.0;0;0;0;0;0;false;43086;5894580450;-73.87247;45.554493;43084;5894580475;-73.86973;45.552468;0;0;1;9312756;Bus : 55 S - Direction Terminus Henri-Bourassa;"";STL;55S;Arthur-Sauvé / Prévert;Terminus Henri-Bourassa Quai:9
455469448;"{\"type\":\"LineString\",\"coordinates\":[[-73.8701516,45.5529631],[-73.8699656,45.5527746]]}";5;Boulevard Arthur-Sauvé;1;50;false;true;true;false;false;false;26.0;0;0;0;0;0;false;43086;5894580450;-73.87247;45.554493;43084;5894580475;-73.86973;45.552468;0;0;1;9312756;Bus : 55 S - Direction Terminus Henri-Bourassa;"";STL;55S;Arthur-Sauvé / Prévert;Terminus Henri-Bourassa Quai:9
455469447;"{\"type\":\"LineString\",\"coordinates\":[[-73.8699656,45.5527746],[-73.8686958,45.5515852],[-73.868478,45.5513931],[-73.867746,45.5507022],[-73.8674878,45.5504501],[-73.867386,45.5503493],[-73.8663406,45.5493756],[-73.8660092,45.5490695],[-73.8656535,45.5487228],[-73.8656207,45.5486905]]}";6;Boulevard Arthur-Sauvé;2;50;false;true;true;false;false;false;283.5;1;0;0;0;0;false;43086;5894580450;-73.87247;45.554493;43084;5894580475;-73.86973;45.552468;1;0;1;9312756;Bus : 55 S - Direction Terminus Henri-Bourassa;"";STL;55S;Arthur-Sauvé / Prévert;Terminus Henri-Bourassa Quai:9
455469447;"{\"type\":\"LineString\",\"coordinates\":[[-73.8699656,45.5527746],[-73.8686958,45.5515852],[-73.868478,45.5513931],[-73.867746,45.5507022],[-73.8674878,45.5504501],[-73.867386,45.5503493],[-73.8663406,45.5493756],[-73.8660092,45.5490695],[-73.8656535,45.5487228],[-73.8656207,45.5486905]]}";1;Boulevard Arthur-Sauvé;2;50;false;true;true;false;false;false;283.5;1;0;0;0;0;false;43082;5894581091;-73.86789;45.550683;46121;6269510662;-73.86439;45.54903;1;2;3;9312756;Bus : 55 S - Direction Terminus Henri-Bourassa;"";STL;55S;Arthur-Sauvé / Prévert;Terminus Henri-Bourassa Quai:9
680568198;"{\"type\":\"LineString\",\"coordinates\":[[-73.8656207,45.5486905],[-73.8655732,45.5486417]]}";2;Boulevard Arthur-Sauvé;2;50;false;true;true;false;false;false;7.0;1;0;0;0;0;false;43082;5894581091;-73.86789;45.550683;46121;6269510662;-73.86439;45.54903;0;2;3;9312756;Bus : 55 S - Direction Terminus Henri-Bourassa;"";STL;55S;Arthur-Sauvé / Prévert;Terminus Henri-Bourassa Quai:9
462048456;"{\"type\":\"LineString\",\"coordinates\":[[-73.8655732,45.5486417],[-73.865436,45.5487025]]}";3;Boulevard Dagenais Ouest;1;60;false;true;true;false;false;false;13.0;2;0;0;0;0;false;43082;5894581091;-73.86789;45.550683;46121;6269510662;-73.86439;45.54903;0;2;3;9312756;Bus : 55 S - Direction Terminus Henri-Bourassa;"";STL;55S;Arthur-Sauvé / Prévert;Terminus Henri-Bourassa Quai:9
462048455;"{\"type\":\"LineString\",\"coordinates\":[[-73.865436,45.5487025],[-73.8649236,45.5488935]]}";4;Boulevard Dagenais Ouest;1;60;false;true;true;false;false;false;46.0;1;0;0;0;0;false;43082;5894581091;-73.86789;45.550683;46121;6269510662;-73.86439;45.54903;0;2;3;9312756;Bus : 55 S - Direction Terminus Henri-Bourassa;"";STL;55S;Arthur-Sauvé / Prévert;Terminus Henri-Bourassa Quai:9
466643630;"{\"type\":\"LineString\",\"coordinates\":[[-73.8649236,45.5488935],[-73.8642535,45.5491566]]}";5;Boulevard Dagenais Ouest;1;60;false;true;true;false;false;false;30.0;0;0;0;0;0;false;43082;5894581091;-73.86789;45.550683;46121;6269510662;-73.86439;45.54903;1;2;3;9312756;Bus : 55 S - Direction Terminus Henri-Bourassa;"";STL;55S;Arthur-Sauvé / Prévert;Terminus Henri-Bourassa Quai:9
23606054;"{\"type\":\"LineString\",\"coordinates\":[[-73.8642535,45.5491566],[-73.8633882,45.5494925],[-73.8625413,45.5499442]]}";1;Boulevard Dagenais Ouest;1;60;false;true;true;false;false;false;161.0;0;0;0;0;0;false;46121;6269510662;-73.86439;45.54903;46122;6269510515;-73.86029;45.550761;2;3;4;9312756;Bus : 55 S - Direction Terminus Henri-Bourassa;"";STL;55S;Arthur-Sauvé / Prévert;Terminus Henri-Bourassa Quai:9
747142546;"{\"type\":\"LineString\",\"coordinates\":[[-73.8602185,45.5508453],[-73.8610473,45.5505291],[-73.8618545,45.5502182],[-73.8625413,45.5499442]]}";2;Boulevard Dagenais Ouest;1;60;false;false;true;false;false;false;208.0;1;0;0;0;0;false;46121;6269510662;-73.86439;45.54903;46122;6269510515;-73.86029;45.550761;2;3;4;9312756;Bus : 55 S - Direction Terminus Henri-Bourassa;"";STL;55S;Arthur-Sauvé / Prévert;Terminus Henri-Bourassa Quai:9
23606028;"{\"type\":\"LineString\",\"coordinates\":[[-73.8289722,45.5636117],[-73.8293842,45.563209],[-73.8299678,45.5626802],[-73.8306545,45.5621815],[-73.8312811,45.5618089],[-73.8318546,45.561496],[-73.8319419,45.5614483],[-73.8334065,45.5608493],[-73.8336757,45.5607392],[-73.83414,45.5605687],[-73.8349158,45.5602837],[-73.8359932,45.5598859],[-73.8364272,45.5597336],[-73.8385953,45.558944],[-73.8388718,45.5588406],[-73.83898,45.5588002],[-73.8425335,45.5574718],[-73.8433858,45.5571474],[-73.844678,45.5566391],[-73.8448423,45.5565745],[-73.8464742,45.5559751],[-73.8477435,45.5555088],[-73.8489377,45.5550702],[-73.8492993,45.5549299],[-73.8496867,45.5547808],[-73.8505259,45.5544652],[-73.851575,45.55408],[-73.8526273,45.5536933],[-73.8537172,45.553293],[-73.8541839,45.5531166],[-73.8552295,45.5527214],[-73.8556322,45.5525691],[-73.8568915,45.5520931],[-73.8578072,45.5517389],[-73.8586721,45.5514145],[-73.8595109,45.5511168],[-73.8602185,45.5508453]]}";1;Boulevard Dagenais Ouest;1;60;false;false;true;false;false;false;1418.5;2;0;0;0;0;false;46129;6269510240;-73.829;45.563417;41483;6269510075;-73.82664;45.565647;1;12;13;9312756;Bus : 55 S - Direction Terminus Henri-Bourassa;"";STL;55S;Arthur-Sauvé / Prévert;Terminus Henri-Bourassa Quai:9
695760826;"{\"type\":\"LineString\",\"coordinates\":[[-73.8276332,45.5649337],[-73.8282029,45.5643712],[-73.8286469,45.5639328],[-73.8289722,45.5636117]]}";2;Boulevard Dagenais Ouest;1;60;false;false;true;false;false;false;181.0;1;0;0;0;0;false;46129;6269510240;-73.829;45.563417;41483;6269510075;-73.82664;45.565647;0;12;13;9312756;Bus : 55 S - Direction Terminus Henri-Bourassa;"";STL;55S;Arthur-Sauvé / Prévert;Terminus Henri-Bourassa Quai:9
23606017;"{\"type\":\"LineString\",\"coordinates\":[[-73.8276332,45.5649337],[-73.8266651,45.5657709]]}";3;Boulevard Dagenais Ouest;2;60;false;true;true;false;false;false;60.0;1;0;0;0;0;false;46129;6269510240;-73.829;45.563417;41483;6269510075;-73.82664;45.565647;1;12;13;9312756;Bus : 55 S - Direction Terminus Henri-Bourassa;"";STL;55S;Arthur-Sauvé / Prévert;Terminus Henri-Bourassa Quai:9
695760824;"{\"type\":\"LineString\",\"coordinates\":[[-73.8266651,45.5657709],[-73.8264818,45.56595]]}";1;Boulevard Dagenais Ouest;2;60;false;true;false;false;false;false;25.0;1;0;0;0;0;false;41483;6269510075;-73.82664;45.565647;41480;6269509544;-73.82076;45.571359;2;13;14;9312756;Bus : 55 S - Direction Terminus Henri-Bourassa;"";STL;55S;Arthur-Sauvé / Prévert;Terminus Henri-Bourassa Quai:9
362090280;"{\"type\":\"LineString\",\"coordinates\":[[-73.8264818,45.56595],[-73.8252383,45.5672167],[-73.8251074,45.5673483],[-73.8244741,45.5679603]]}";2;Boulevard Dagenais Ouest;2;60;false;true;false;false;false;false;273.0;1;0;0;0;0;false;41483;6269510075;-73.82664;45.565647;41480;6269509544;-73.82076;45.571359;0;13;14;9312756;Bus : 55 S - Direction Terminus Henri-Bourassa;"";STL;55S;Arthur-Sauvé / Prévert;Terminus Henri-Bourassa Quai:9
46277725;"{\"type\":\"LineString\",\"coordinates\":[[-73.8244741,45.5679603],[-73.8238448,45.5685892],[-73.8236906,45.5687432]]}";3;Boulevard Dagenais Ouest;2;60;false;true;false;false;false;false;107.0;0;0;0;0;0;false;41483;6269510075;-73.82664;45.565647;41480;6269509544;-73.82076;45.571359;0;13;14;9312756;Bus : 55 S - Direction Terminus Henri-Bourassa;"";STL;55S;Arthur-Sauvé / Prévert;Terminus Henri-Bourassa Quai:9
455470996;"{\"type\":\"LineString\",\"coordinates\":[[-73.8236906,45.5687432],[-73.8231014,45.569272],[-73.8228938,45.5694794]]}";4;Boulevard Dagenais Ouest;2;60;false;true;false;false;false;false;103.0;1;0;0;0;0;false;41483;6269510075;-73.82664;45.565647;41480;6269509544;-73.82076;45.571359;0;13;14;9312756;Bus : 55 S - Direction Terminus Henri-Bourassa;"";STL;55S;Arthur-Sauvé / Prévert;Terminus Henri-Bourassa Quai:9
455470995;"{\"type\":\"LineString\",\"coordinates\":[[-73.8228938,45.5694794],[-73.8222378,45.5701466]]}";5;Boulevard Dagenais Ouest;2;60;false;true;false;false;false;false;91.0;1;0;0;0;0;false;41483;6269510075;-73.82664;45.565647;41480;6269509544;-73.82076;45.571359;0;13;14;9312756;Bus : 55 S - Direction Terminus Henri-Bourassa;"";STL;55S;Arthur-Sauvé / Prévert;Terminus Henri-Bourassa Quai:9
46277726;"{\"type\":\"LineString\",\"coordinates\":[[-73.8222378,45.5701466],[-73.8217269,45.5706187],[-73.8213374,45.5709937],[-73.8211101,45.5712127]]}";6;Boulevard Dagenais Ouest;2;60;false;true;false;false;false;false;148.0;0;0;0;0;0;false;41483;6269510075;-73.82664;45.565647;41480;6269509544;-73.82076;45.571359;0;13;14;9312756;Bus : 55 S - Direction Terminus Henri-Bourassa;"";STL;55S;Arthur-Sauvé / Prévert;Terminus Henri-Bourassa Quai:9
451900881;"{\"type\":\"LineString\",\"coordinates\":[[-73.8211101,45.5712127],[-73.8208612,45.571417],[-73.8206938,45.5715362]]}";7;Boulevard Dagenais Ouest;2;60;false;true;false;false;false;false;49.0;0;0;0;0;0;false;41483;6269510075;-73.82664;45.565647;41480;6269509544;-73.82076;45.571359;2;13;14;9312756;Bus : 55 S - Direction Terminus Henri-Bourassa;"";STL;55S;Arthur-Sauvé / Prévert;Terminus Henri-Bourassa Quai:9
451900881;"{\"type\":\"LineString\",\"coordinates\":[[-73.8211101,45.5712127],[-73.8208612,45.571417],[-73.8206938,45.5715362]]}";1;Boulevard Dagenais Ouest;2;60;false;true;false;false;false;false;24.5;0;0;0;0;0;false;41480;6269509544;-73.82076;45.571359;41478;6269509375;-73.81773;45.573006;1;14;15;9312756;Bus : 55 S - Direction Terminus Henri-Bourassa;"";STL;55S;Arthur-Sauvé / Prévert;Terminus Henri-Bourassa Quai:9
451900877;"{\"type\":\"LineString\",\"coordinates\":[[-73.8206938,45.5715362],[-73.8202925,45.5717765],[-73.820133,45.5718721],[-73.8200201,45.5719397]]}";2;Boulevard Dagenais Ouest;2;60;false;true;false;false;false;false;70.0;0;0;0;0;0;false;41480;6269509544;-73.82076;45.571359;41478;6269509375;-73.81773;45.573006;0;14;15;9312756;Bus : 55 S - Direction Terminus Henri-Bourassa;"";STL;55S;Arthur-Sauvé / Prévert;Terminus Henri-Bourassa Quai:9
679942171;"{\"type\":\"LineString\",\"coordinates\":[[-73.8200201,45.5719397],[-73.8194493,45.5722498],[-73.8179739,45.5729783],[-73.8176302,45.5731575],[-73.8175258,45.5732106]]}";3;Boulevard Dagenais Ouest;2;60;false;true;false;false;false;false;120.5;0;0;0;0;0;false;41480;6269509544;-73.82076;45.571359;41478;6269509375;-73.81773;45.573006;1;14;15;9312756;Bus : 55 S - Direction Terminus Henri-Bourassa;"";STL;55S;Arthur-Sauvé / Prévert;Terminus Henri-Bourassa Quai:9
679942171;"{\"type\":\"LineString\",\"coordinates\":[[-73.8200201,45.5719397],[-73.8194493,45.5722498],[-73.8179739,45.5729783],[-73.8176302,45.5731575],[-73.8175258,45.5732106]]}";1;Boulevard Dagenais Ouest;2;60;false;true;false;false;false;false;120.5;0;0;0;0;0;false;41478;6269509375;-73.81773;45.573006;41475;6269509341;-73.81559;45.574069;1;15;16;9312756;Bus : 55 S - Direction Terminus Henri-Bourassa;"";STL;55S;Arthur-Sauvé / Prévert;Terminus Henri-Bourassa Quai:9
673268275;"{\"type\":\"LineString\",\"coordinates\":[[-73.8175258,45.5732106],[-73.8170467,45.5734493],[-73.8167424,45.573601],[-73.815862,45.5740397],[-73.8156513,45.5741447],[-73.8155684,45.5741862],[-73.8136257,45.5751601],[-73.813617,45.5751644]]}";2;Boulevard Dagenais Ouest;2;60;false;true;false;false;false;false;187.5;0;0;0;0;0;false;41478;6269509375;-73.81773;45.573006;41475;6269509341;-73.81559;45.574069;1;15;16;9312756;Bus : 55 S - Direction Terminus Henri-Bourassa;"";STL;55S;Arthur-Sauvé / Prévert;Terminus Henri-Bourassa Quai:9
673268275;"{\"type\":\"LineString\",\"coordinates\":[[-73.8175258,45.5732106],[-73.8170467,45.5734493],[-73.8167424,45.573601],[-73.815862,45.5740397],[-73.8156513,45.5741447],[-73.8155684,45.5741862],[-73.8136257,45.5751601],[-73.813617,45.5751644]]}";1;Boulevard Dagenais Ouest;2;60;false;true;false;false;false;false;187.5;0;0;0;0;0;false;41475;6269509341;-73.81559;45.574069;41752;6269509331;-73.81344;45.57479;1;16;17;9312756;Bus : 55 S - Direction Terminus Henri-Bourassa;"";STL;55S;Arthur-Sauvé / Prévert;Terminus Henri-Bourassa Quai:9
477141009;"{\"type\":\"LineString\",\"coordinates\":[[-73.8129753,45.5744595],[-73.813617,45.5751644]]}";2;Rue Ingrid;2;50;false;false;false;false;false;false;46.5;0;0;0;0;0;false;41475;6269509341;-73.81559;45.574069;41752;6269509331;-73.81344;45.57479;1;16;17;9312756;Bus : 55 S - Direction Terminus Henri-Bourassa;"";STL;55S;Arthur-Sauvé / Prévert;Terminus Henri-Bourassa Quai:9
477141009;"{\"type\":\"LineString\",\"coordinates\":[[-73.8129753,45.5744595],[-73.813617,45.5751644]]}";1;Rue Ingrid;2;50;false;false;false;false;false;false;46.5;0;0;0;0;0;false;41752;6269509331;-73.81344;45.57479;41750;6269508876;-73.81057;45.573232;1;17;18;9312756;Bus : 55 S - Direction Terminus Henri-Bourassa;"";STL;55S;Arthur-Sauvé / Prévert;Terminus Henri-Bourassa Quai:9
45799435;"{\"type\":\"LineString\",\"coordinates\":[[-73.8097394,45.5717165],[-73.809968,45.572421],[-73.8101138,45.5728005],[-73.8103877,45.5731814],[-73.8106903,45.5734186],[-73.8110581,45.5736025],[-73.8115403,45.5737653],[-73.8120383,45.5739187],[-73.8125209,45.5741308],[-73.8129753,45.5744595]]}";2;Rue Ingrid;2;50;false;false;true;false;false;false;211.0;0;0;0;0;0;false;41752;6269509331;-73.81344;45.57479;41750;6269508876;-73.81057;45.573232;1;17;18;9312756;Bus : 55 S - Direction Terminus Henri-Bourassa;"";STL;55S;Arthur-Sauvé / Prévert;Terminus Henri-Bourassa Quai:9
680563981;"{\"type\":\"LineString\",\"coordinates\":[[-73.7931325,45.5709932],[-73.7923015,45.5714975],[-73.7904845,45.5725584],[-73.7892504,45.5733284],[-73.7887049,45.5736646],[-73.787694,45.5742395],[-73.7875241,45.5743362]]}";1;Rue Édith;2;50;false;false;false;false;false;false;287.0;0;0;0;0;0;false;41575;6269509355;-73.78922;45.573216;41447;6269509343;-73.78708;45.573977;1;28;29;9312756;Bus : 55 S - Direction Terminus Henri-Bourassa;"";STL;55S;Arthur-Sauvé / Prévert;Terminus Henri-Bourassa Quai:9
45799768;"{\"type\":\"LineString\",\"coordinates\":[[-73.7875241,45.5743362],[-73.7873824,45.5743707],[-73.7872799,45.5743696],[-73.7871655,45.5743234],[-73.7869915,45.5742164]]}";2;Rue Édith;1;50;false;true;true;false;false;false;49.0;0;0;0;0;0;false;41575;6269509355;-73.78922;45.573216;41447;6269509343;-73.78708;45.573977;0;28;29;9312756;Bus : 55 S - Direction Terminus Henri-Bourassa;"";STL;55S;Arthur-Sauvé / Prévert;Terminus Henri-Bourassa Quai:9
451911256;"{\"type\":\"LineString\",\"coordinates\":[[-73.7869915,45.5742164],[-73.786936,45.5740539],[-73.7866956,45.5735312],[-73.7866262,45.5734372],[-73.7864296,45.5731707],[-73.786112,45.5728403],[-73.7851749,45.5719451],[-73.7835703,45.5704122],[-73.7826298,45.5695136]]}";3;Boulevard Curé-Labelle;2;60;false;true;false;false;false;false;314.0;0;0;0;0;0;false;41575;6269509355;-73.78922;45.573216;41447;6269509343;-73.78708;45.573977;1;28;29;9312756;Bus : 55 S - Direction Terminus Henri-Bourassa;"";STL;55S;Arthur-Sauvé / Prévert;Terminus Henri-Bourassa Quai:9
451911256;"{\"type\":\"LineString\",\"coordinates\":[[-73.7869915,45.5742164],[-73.786936,45.5740539],[-73.7866956,45.5735312],[-73.7866262,45.5734372],[-73.7864296,45.5731707],[-73.786112,45.5728403],[-73.7851749,45.5719451],[-73.7835703,45.5704122],[-73.7826298,45.5695136]]}";1;Boulevard Curé-Labelle;2;60;false;true;false;false;false;false;314.0;0;0;0;0;0;false;46505;6269509553;-73.78376;45.570417;41445;6269509582;-73.78209;45.568828;1;30;31;9312756;Bus : 55 S - Direction Terminus Henri-Bourassa;"";STL;55S;Arthur-Sauvé / Prévert;Terminus Henri-Bourassa Quai:9
452046901;"{\"type\":\"LineString\",\"coordinates\":[[-73.7826298,45.5695136],[-73.7818832,45.5688246]]}";2;Boulevard Curé-Labelle;2;60;false;true;false;false;false;false;48.5;1;0;0;0;0;false;46505;6269509553;-73.78376;45.570417;41445;6269509582;-73.78209;45.568828;1;30;31;9312756;Bus : 55 S - Direction Terminus Henri-Bourassa;"";STL;55S;Arthur-Sauvé / Prévert;Terminus Henri-Bourassa Quai:9
679942165;"{\"type\":\"LineString\",\"coordinates\":[[-73.7818832,45.5688246],[-73.7817939,45.5687423]]}";1;Boulevard Curé-Labelle;2;60;false;true;true;false;false;false;12.0;2;0;0;0;0;false;41445;6269509582;-73.78209;45.568828;46592;6269510016;-73.78116;45.568005;2;31;32;9312756;Bus : 55 S - Direction Terminus Henri-Bourassa;"";STL;55S;Arthur-Sauvé / Prévert;Terminus Henri-Bourassa Quai:9
45798872;"{\"type\":\"LineString\",\"coordinates\":[[-73.7817939,45.5687423],[-73.7805164,45.5675634],[-73.7795014,45.5666267],[-73.7778543,45.5651068],[-73.7772022,45.564505]]}";2;Boulevard Curé-Labelle;2;60;false;true;true;false;false;false;592.0;1;0;0;0;0;false;41445;6269509582;-73.78209;45.568828;46592;6269510016;-73.78116;45.568005;2;31;32;9312756;Bus : 55 S - Direction Terminus Henri-Bourassa;"";STL;55S;Arthur-Sauvé / Prévert;Terminus Henri-Bourassa Quai:9
45798872;"{\"type\":\"LineString\",\"coordinates\":[[-73.7817939,45.5687423],[-73.7805164,45.5675634],[-73.7795014,45.5666267],[-73.7778543,45.5651068],[-73.7772022,45.564505]]}";1;Boulevard Curé-Labelle;2;60;false;true;true;false;false;false;296.0;1;0;0;0;0;false;41443;6269510047;-73.77967;45.566644;41440;6269510278;-73.77314;45.561252;1;33;34;9312756;Bus : 55 S - Direction Terminus Henri-Bourassa;"";STL;55S;Arthur-Sauvé / Prévert;Terminus Henri-Bourassa Quai:9
45798897;"{\"type\":\"LineString\",\"coordinates\":[[-73.7772022,45.564505],[-73.7762457,45.5635916]]}";2;Boulevard Curé-Labelle;2;60;false;true;true;false;false;false;126.0;0;0;0;0;0;false;41443;6269510047;-73.77967;45.566644;41440;6269510278;-73.77314;45.561252;0;33;34;9312756;Bus : 55 S - Direction Terminus Henri-Bourassa;"";STL;55S;Arthur-Sauvé / Prévert;Terminus Henri-Bourassa Quai:9
452046897;"{\"type\":\"LineString\",\"coordinates\":[[-73.7762457,45.5635916],[-73.7755476,45.5629249]]}";3;Boulevard Curé-Labelle;2;60;false;true;true;false;false;false;92.0;0;0;0;0;0;false;41443;6269510047;-73.77967;45.566644;41440;6269510278;-73.77314;45.561252;0;33;34;9312756;Bus : 55 S - Direction Terminus Henri-Bourassa;"";STL;55S;Arthur-Sauvé / Prévert;Terminus Henri-Bourassa Quai:9
452046900;"{\"type\":\"LineString\",\"coordinates\":[[-73.7755476,45.5629249],[-73.7744925,45.5620153]]}";4;Boulevard Curé-Labelle;2;60;false;true;true;false;false;false;131.0;0;0;0;0;0;false;41443;6269510047;-73.77967;45.566644;41440;6269510278;-73.77314;45.561252;0;33;34;9312756;Bus : 55 S - Direction Terminus Henri-Bourassa;"";STL;55S;Arthur-Sauvé / Prévert;Terminus Henri-Bourassa Quai:9
452046905;"{\"type\":\"LineString\",\"coordinates\":[[-73.7744925,45.5620153],[-73.7742735,45.5618813],[-73.7738811,45.5616611],[-73.7734792,45.5614833],[-73.7732973,45.5614028],[-73.7732881,45.5613997],[-73.7726358,45.5611796]]}";5;Boulevard Curé-Labelle;2;60;false;true;true;false;false;false;86.5;0;0;0;0;0;false;41443;6269510047;-73.77967;45.566644;41440;6269510278;-73.77314;45.561252;1;33;34;9312756;Bus : 55 S - Direction Terminus Henri-Bourassa;"";STL;55S;Arthur-Sauvé / Prévert;Terminus Henri-Bourassa Quai:9
452046905;"{\"type\":\"LineString\",\"coordinates\":[[-73.7744925,45.5620153],[-73.7742735,45.5618813],[-73.7738811,45.5616611],[-73.7734792,45.5614833],[-73.7732973,45.5614028],[-73.7732881,45.5613997],[-73.7726358,45.5611796]]}";1;Boulevard Curé-Labelle;2;60;false;true;true;false;false;false;86.5;0;0;0;0;0;false;41440;6269510278;-73.77314;45.561252;41315;6269510285;-73.77454;45.560385;1;34;35;9312756;Bus : 55 S - Direction Terminus Henri-Bourassa;"";STL;55S;Arthur-Sauvé / Prévert;Terminus Henri-Bourassa Quai:9
45798924;"{\"type\":\"LineString\",\"coordinates\":[[-73.7726358,45.5611796],[-73.7725729,45.561125],[-73.7725491,45.5610437],[-73.7725899,45.5609361],[-73.7726945,45.5608382]]}";2;"";1;50;false;true;true;false;false;false;43.0;0;0;0;0;0;false;41440;6269510278;-73.77314;45.561252;41315;6269510285;-73.77454;45.560385;0;34;35;9312756;Bus : 55 S - Direction Terminus Henri-Bourassa;"";STL;55S;Arthur-Sauvé / Prévert;Terminus Henri-Bourassa Quai:9
465480930;"{\"type\":\"LineString\",\"coordinates\":[[-73.7832445,45.5576657],[-73.7823026,45.5579707],[-73.7791786,45.5589545],[-73.7769371,45.5595966],[-73.7746674,45.5602653],[-73.773662,45.5605426],[-73.7731306,45.5606834],[-73.7726945,45.5608382]]}";3;Boulevard Cléroux;2;50;false;false;true;false;false;false;448.0;0;0;0;0;0;false;41440;6269510278;-73.77314;45.561252;41315;6269510285;-73.77454;45.560385;1;34;35;9312756;Bus : 55 S - Direction Terminus Henri-Bourassa;"";STL;55S;Arthur-Sauvé / Prévert;Terminus Henri-Bourassa Quai:9
465480930;"{\"type\":\"LineString\",\"coordinates\":[[-73.7832445,45.5576657],[-73.7823026,45.5579707],[-73.7791786,45.5589545],[-73.7769371,45.5595966],[-73.7746674,45.5602653],[-73.773662,45.5605426],[-73.7731306,45.5606834],[-73.7726945,45.5608382]]}";1;Boulevard Cléroux;2;50;false;false;true;false;false;false;448.0;0;0;0;0;0;false;41319;6269510337;-73.77907;45.559049;41968;6269510378;-73.78269;45.557;1;37;38;9312756;Bus : 55 S - Direction Terminus Henri-Bourassa;"";STL;55S;Arthur-Sauvé / Prévert;Terminus Henri-Bourassa Quai:9
45798732;"{\"type\":\"LineString\",\"coordinates\":[[-73.7773125,45.5530814],[-73.7778396,45.5531906],[-73.7780093,45.5532584],[-73.7784097,45.5535686],[-73.7787598,45.5538499],[-73.7788031,45.5538847],[-73.778851,45.5539232],[-73.7792432,45.5542383],[-73.7800373,45.5548764],[-73.7806703,45.5553851],[-73.7814945,45.5560473],[-73.781993,45.5564714],[-73.7825417,45.5569831],[-73.7832445,45.5576657]]}";2;Rue Légaré;2;50;false;false;true;false;false;false;348.5;0;0;0;0;0;false;41319;6269510337;-73.77907;45.559049;41968;6269510378;-73.78269;45.557;1;37;38;9312756;Bus : 55 S - Direction Terminus Henri-Bourassa;"";STL;55S;Arthur-Sauvé / Prévert;Terminus Henri-Bourassa Quai:9
679942251;"{\"type\":\"LineString\",\"coordinates\":[[-73.7751022,45.5508729],[-73.7772547,45.5526331],[-73.7773331,45.5527238],[-73.7773737,45.5528515],[-73.7773125,45.5530814]]}";1;Rue Fafard;2;50;false;false;true;false;false;false;155.5;0;0;0;0;0;false;41618;6269510584;-73.77552;45.551105;42145;6269510603;-73.77371;45.551586;1;42;43;9312756;Bus : 55 S - Direction Terminus Henri-Bourassa;"";STL;55S;Arthur-Sauvé / Prévert;Terminus Henri-Bourassa Quai:9
681114636;"{\"type\":\"LineString\",\"coordinates\":[[-73.7751022,45.5508729],[-73.7743493,45.5513239],[-73.7736871,45.5517308],[-73.7712064,45.5532437],[-73.7708566,45.5534556],[-73.7705185,45.5537038]]}";2;Avenue Louis Payette;2;50;false;false;false;false;false;false;238.5;0;0;0;0;0;false;41618;6269510584;-73.77552;45.551105;42145;6269510603;-73.77371;45.551586;1;42;43;9312756;Bus : 55 S - Direction Terminus Henri-Bourassa;"";STL;55S;Arthur-Sauvé / Prévert;Terminus Henri-Bourassa Quai:9
45798673;"{\"type\":\"LineString\",\"coordinates\":[[-73.7705185,45.5537038],[-73.7701297,45.5540461],[-73.7699555,45.554238],[-73.7689687,45.5554245],[-73.7688638,45.5555314],[-73.7688167,45.5555795],[-73.768628,45.5557719],[-73.768241,45.556015],[-73.7676025,45.5563819],[-73.7673008,45.5565562],[-73.766746,45.5568767]]}";1;Avenue Louis Payette;2;50;false;false;false;false;false;false;232.5;0;0;0;0;0;false;42149;6269510354;-73.76719;45.556506;41434;6269510490;-73.7657;45.555782;1;47;48;9312756;Bus : 55 S - Direction Terminus Henri-Bourassa;"";STL;55S;Arthur-Sauvé / Prévert;Terminus Henri-Bourassa Quai:9
45798658;"{\"type\":\"LineString\",\"coordinates\":[[-73.766746,45.5568767],[-73.7655669,45.5557666],[-73.7648878,45.5551848],[-73.7647157,45.5550374],[-73.7645976,45.5549362],[-73.7640547,45.5545703],[-73.7633371,45.5542352],[-73.7622918,45.5537501],[-73.761799,45.5534388],[-73.7615571,45.5532551],[-73.7612697,45.553037],[-73.760252,45.5521258]]}";2;Boulevard Curé-Labelle;2;60;false;true;true;false;false;false;369.0;0;0;0;0;0;false;42149;6269510354;-73.76719;45.556506;41434;6269510490;-73.7657;45.555782;1;47;48;9312756;Bus : 55 S - Direction Terminus Henri-Bourassa;"";STL;55S;Arthur-Sauvé / Prévert;Terminus Henri-Bourassa Quai:9
45798658;"{\"type\":\"LineString\",\"coordinates\":[[-73.766746,45.5568767],[-73.7655669,45.5557666],[-73.7648878,45.5551848],[-73.7647157,45.5550374],[-73.7645976,45.5549362],[-73.7640547,45.5545703],[-73.7633371,45.5542352],[-73.7622918,45.5537501],[-73.761799,45.5534388],[-73.7615571,45.5532551],[-73.7612697,45.553037],[-73.760252,45.5521258]]}";1;Boulevard Curé-Labelle;2;60;false;true;true;false;false;false;369.0;0;0;0;0;0;false;41429;6269510556;-73.76167;45.553225;42815;6269510579;-73.7574;45.552676;1;50;51;9312756;Bus : 55 S - Direction Terminus Henri-Bourassa;"";STL;55S;Arthur-Sauvé / Prévert;Terminus Henri-Bourassa Quai:9
455094089;"{\"type\":\"LineString\",\"coordinates\":[[-73.760252,45.5521258],[-73.7598626,45.5517706],[-73.7598339,45.5517453]]}";2;Boulevard Curé-Labelle;2;60;false;true;true;false;false;false;54.0;0;0;0;0;0;false;41429;6269510556;-73.76167;45.553225;42815;6269510579;-73.7574;45.552676;0;50;51;9312756;Bus : 55 S - Direction Terminus Henri-Bourassa;"";STL;55S;Arthur-Sauvé / Prévert;Terminus Henri-Bourassa Quai:9
669689627;"{\"type\":\"LineString\",\"coordinates\":[[-73.7598339,45.5517453],[-73.7596927,45.5518084]]}";3;Boulevard Saint-Martin Ouest;6;60;false;false;false;false;false;false;14.0;0;0;0;0;0;false;41429;6269510556;-73.76167;45.553225;42815;6269510579;-73.7574;45.552676;0;50;51;9312756;Bus : 55 S - Direction Terminus Henri-Bourassa;"";STL;55S;Arthur-Sauvé / Prévert;Terminus Henri-Bourassa Quai:9
45799042;"{\"type\":\"LineString\",\"coordinates\":[[-73.7596927,45.5518084],[-73.7590255,45.5521066],[-73.7577994,45.5526546],[-73.7570883,45.5529724],[-73.7563335,45.5533097],[-73.7560129,45.5534531],[-73.7558758,45.5535143],[-73.7554532,45.5537032],[-73.7547657,45.5540105],[-73.7540012,45.5543521],[-73.7532629,45.5546821],[-73.7530264,45.5547878],[-73.7528725,45.5548566],[-73.7527105,45.554929],[-73.7517263,45.5553688]]}";4;Boulevard Saint-Martin Ouest;6;60;false;false;false;false;false;false;368.5;0;0;0;0;0;false;41429;6269510556;-73.76167;45.553225;42815;6269510579;-73.7574;45.552676;1;50;51;9312756;Bus : 55 S - Direction Terminus Henri-Bourassa;"";STL;55S;Arthur-Sauvé / Prévert;Terminus Henri-Bourassa Quai:9
45799042;"{\"type\":\"LineString\",\"coordinates\":[[-73.7596927,45.5518084],[-73.7590255,45.5521066],[-73.7577994,45.5526546],[-73.7570883,45.5529724],[-73.7563335,45.5533097],[-73.7560129,45.5534531],[-73.7558758,45.5535143],[-73.7554532,45.5537032],[-73.7547657,45.5540105],[-73.7540012,45.5543521],[-73.7532629,45.5546821],[-73.7530264,45.5547878],[-73.7528725,45.5548566],[-73.7527105,45.554929],[-73.7517263,45.5553688]]}";1;Boulevard Saint-Martin Ouest;6;60;false;false;false;false;false;false;368.5;0;0;0;0;0;false;42818;6269510533;-73.7528;45.554748;46633;6269510535;-73.75027;45.554858;1;53;54;9312756;Bus : 55 S - Direction Terminus Henri-Bourassa;"";STL;55S;Arthur-Sauvé / Prévert;Terminus Henri-Bourassa Quai:9
452029939;"{\"type\":\"LineString\",\"coordinates\":[[-73.7517263,45.5553688],[-73.7514876,45.5554515]]}";2;Boulevard Saint-Martin Ouest;3;60;false;true;false;false;false;false;21.0;0;0;0;0;0;false;42818;6269510533;-73.7528;45.554748;46633;6269510535;-73.75027;45.554858;0;53;54;9312756;Bus : 55 S - Direction Terminus Henri-Bourassa;"";STL;55S;Arthur-Sauvé / Prévert;Terminus Henri-Bourassa Quai:9
449543346;"{\"type\":\"LineString\",\"coordinates\":[[-73.7514876,45.5554515],[-73.7512339,45.5554674],[-73.7510481,45.5554653],[-73.7508633,45.5554153],[-73.7505877,45.5552613]]}";3;"";1;50;false;true;true;false;false;false;78.0;0;0;0;0;0;false;42818;6269510533;-73.7528;45.554748;46633;6269510535;-73.75027;45.554858;0;53;54;9312756;Bus : 55 S - Direction Terminus Henri-Bourassa;"";STL;55S;Arthur-Sauvé / Prévert;Terminus Henri-Bourassa Quai:9
680568194;"{\"type\":\"LineString\",\"coordinates\":[[-73.7505877,45.5552613],[-73.7505364,45.5552153]]}";4;Boulevard Chomedey;2;60;false;true;false;false;false;false;7.0;0;0;0;0;0;false;42818;6269510533;-73.7528;45.554748;46633;6269510535;-73.75027;45.554858;0;53;54;9312756;Bus : 55 S - Direction Terminus Henri-Bourassa;"";STL;55S;Arthur-Sauvé / Prévert;Terminus Henri-Bourassa Quai:9
45755786;"{\"type\":\"LineString\",\"coordinates\":[[-73.7505364,45.5552153],[-73.7504827,45.5551664],[-73.7498611,45.5546004],[-73.7490402,45.5538529],[-73.7487154,45.5535572]]}";5;Boulevard Chomedey;2;60;false;true;false;false;false;false;116.5;2;0;0;0;0;false;42818;6269510533;-73.7528;45.554748;46633;6269510535;-73.75027;45.554858;1;53;54;9312756;Bus : 55 S - Direction Terminus Henri-Bourassa;"";STL;55S;Arthur-Sauvé / Prévert;Terminus Henri-Bourassa Quai:9
45755786;"{\"type\":\"LineString\",\"coordinates\":[[-73.7505364,45.5552153],[-73.7504827,45.5551664],[-73.7498611,45.5546004],[-73.7490402,45.5538529],[-73.7487154,45.5535572]]}";1;Boulevard Chomedey;2;60;false;true;false;false;false;false;116.5;2;0;0;0;0;false;41290;6269510524;-73.74894;45.55365;41288;6269510611;-73.74556;45.550886;1;55;56;9312756;Bus : 55 S - Direction Terminus Henri-Bourassa;"";STL;55S;Arthur-Sauvé / Prévert;Terminus Henri-Bourassa Quai:9
45755794;"{\"type\":\"LineString\",\"coordinates\":[[-73.7487154,45.5535572],[-73.7479035,45.5528899],[-73.7467887,45.5520509]]}";2;Boulevard Chomedey;2;60;false;true;false;false;false;false;225.0;1;0;0;0;0;false;41290;6269510524;-73.74894;45.55365;41288;6269510611;-73.74556;45.550886;0;55;56;9312756;Bus : 55 S - Direction Terminus Henri-Bourassa;"";STL;55S;Arthur-Sauvé / Prévert;Terminus Henri-Bourassa Quai:9
45755818;"{\"type\":\"LineString\",\"coordinates\":[[-73.7467887,45.5520509],[-73.7461342,45.5515217]]}";3;Boulevard Chomedey;2;60;false;true;false;false;false;false;78.0;1;0;0;0;0;false;41290;6269510524;-73.74894;45.55365;41288;6269510611;-73.74556;45.550886;0;55;56;9312756;Bus : 55 S - Direction Terminus Henri-Bourassa;"";STL;55S;Arthur-Sauvé / Prévert;Terminus Henri-Bourassa Quai:9
45755817;"{\"type\":\"LineString\",\"coordinates\":[[-73.7461342,45.5515217],[-73.7460213,45.5514124]]}";4;Boulevard Chomedey;2;50;false;true;false;false;false;false;15.0;2;0;0;0;0;false;41290;6269510524;-73.74894;45.55365;41288;6269510611;-73.74556;45.550886;0;55;56;9312756;Bus : 55 S - Direction Terminus Henri-Bourassa;"";STL;55S;Arthur-Sauvé / Prévert;Terminus Henri-Bourassa Quai:9
45755813;"{\"type\":\"LineString\",\"coordinates\":[[-73.7460213,45.5514124],[-73.7457326,45.5511482]]}";5;Boulevard Chomedey;2;60;false;true;false;false;false;false;37.0;1;0;0;0;0;false;41290;6269510524;-73.74894;45.55365;41288;6269510611;-73.74556;45.550886;0;55;56;9312756;Bus : 55 S - Direction Terminus Henri-Bourassa;"";STL;55S;Arthur-Sauvé / Prévert;Terminus Henri-Bourassa Quai:9
45755743;"{\"type\":\"LineString\",\"coordinates\":[[-73.7457326,45.5511482],[-73.7453592,45.5508141],[-73.744915,45.5504166],[-73.7443885,45.5499453],[-73.7436401,45.5492307],[-73.7434978,45.5490984]]}";6;Boulevard Chomedey;2;60;false;true;false;false;false;false;143.5;0;0;0;0;0;false;41290;6269510524;-73.74894;45.55365;41288;6269510611;-73.74556;45.550886;1;55;56;9312756;Bus : 55 S - Direction Terminus Henri-Bourassa;"";STL;55S;Arthur-Sauvé / Prévert;Terminus Henri-Bourassa Quai:9
45755751;"{\"type\":\"LineString\",\"coordinates\":[[-73.7434978,45.5490984],[-73.7430962,45.5487249]]}";1;Boulevard Chomedey;2;60;false;true;false;false;false;false;52.0;0;0;0;0;0;false;41286;6269510637;-73.74365;45.549162;41284;6269510667;-73.74167;45.547169;2;57;58;9312756;Bus : 55 S - Direction Terminus Henri-Bourassa;"";STL;55S;Arthur-Sauvé / Prévert;Terminus Henri-Bourassa Quai:9
45601010;"{\"type\":\"LineString\",\"coordinates\":[[-73.7430962,45.5487249],[-73.7426062,45.5482317],[-73.7415176,45.5471324]]}";2;Boulevard Chomedey;2;60;false;true;false;false;false;false;216.0;1;0;0;0;0;false;41286;6269510637;-73.74365;45.549162;41284;6269510667;-73.74167;45.547169;2;57;58;9312756;Bus : 55 S - Direction Terminus Henri-Bourassa;"";STL;55S;Arthur-Sauvé / Prévert;Terminus Henri-Bourassa Quai:9
45600941;"{\"type\":\"LineString\",\"coordinates\":[[-73.7396894,45.5446729],[-73.7392136,45.5441816]]}";1;Boulevard Chomedey;2;60;false;true;false;false;false;false;66.0;1;0;0;0;0;false;41302;6269510696;-73.7398;45.544653;41300;6269510705;-73.73815;45.542976;2;59;60;9312756;Bus : 55 S - Direction Terminus Henri-Bourassa;"";STL;55S;Arthur-Sauvé / Prévert;Terminus Henri-Bourassa Quai:9
45600946;"{\"type\":\"LineString\",\"coordinates\":[[-73.7392136,45.5441816],[-73.7391262,45.5440816]]}";2;Boulevard Chomedey;2;60;false;true;true;false;false;false;14.0;2;0;0;0;0;false;41302;6269510696;-73.7398;45.544653;41300;6269510705;-73.73815;45.542976;0;59;60;9312756;Bus : 55 S - Direction Terminus Henri-Bourassa;"";STL;55S;Arthur-Sauvé / Prévert;Terminus Henri-Bourassa Quai:9
45600945;"{\"type\":\"LineString\",\"coordinates\":[[-73.7391262,45.5440816],[-73.7388381,45.5437904]]}";3;Boulevard Chomedey;2;60;false;true;false;false;false;false;40.0;1;0;0;0;0;false;41302;6269510696;-73.7398;45.544653;41300;6269510705;-73.73815;45.542976;0;59;60;9312756;Bus : 55 S - Direction Terminus Henri-Bourassa;"";STL;55S;Arthur-Sauvé / Prévert;Terminus Henri-Bourassa Quai:9
45600951;"{\"type\":\"LineString\",\"coordinates\":[[-73.7388381,45.5437904],[-73.7381164,45.5430748]]}";4;Boulevard Chomedey;2;60;false;true;false;false;false;false;98.0;0;0;0;0;0;false;41302;6269510696;-73.7398;45.544653;41300;6269510705;-73.73815;45.542976;0;59;60;9312756;Bus : 55 S - Direction Terminus Henri-Bourassa;"";STL;55S;Arthur-Sauvé / Prévert;Terminus Henri-Bourassa Quai:9
45601115;"{\"type\":\"LineString\",\"coordinates\":[[-73.7381164,45.5430748],[-73.7378014,45.5427526]]}";5;Boulevard Chomedey;2;60;false;true;false;false;false;false;44.0;1;0;0;0;0;false;41302;6269510696;-73.7398;45.544653;41300;6269510705;-73.73815;45.542976;2;59;60;9312756;Bus : 55 S - Direction Terminus Henri-Bourassa;"";STL;55S;Arthur-Sauvé / Prévert;Terminus Henri-Bourassa Quai:9
45600951;"{\"type\":\"LineString\",\"coordinates\":[[-73.7388381,45.5437904],[-73.7381164,45.5430748]]}";1;Boulevard Chomedey;2;60;false;true;false;false;false;false;98.0;0;0;0;0;0;false;41300;6269510705;-73.73815;45.542976;41298;6269510744;-73.73704;45.541884;2;60;61;9312756;Bus : 55 S - Direction Terminus Henri-Bourassa;"";STL;55S;Arthur-Sauvé / Prévert;Terminus Henri-Bourassa Quai:9
45601115;"{\"type\":\"LineString\",\"coordinates\":[[-73.7381164,45.5430748],[-73.7378014,45.5427526]]}";2;Boulevard Chomedey;2;60;false;true;false;false;false;false;44.0;1;0;0;0;0;false;41300;6269510705;-73.73815;45.542976;41298;6269510744;-73.73704;45.541884;0;60;61;9312756;Bus : 55 S - Direction Terminus Henri-Bourassa;"";STL;55S;Arthur-Sauvé / Prévert;Terminus Henri-Bourassa Quai:9
45600835;"{\"type\":\"LineString\",\"coordinates\":[[-73.7378014,45.5427526],[-73.7373223,45.5422615]]}";3;Boulevard Chomedey;2;60;false;true;false;false;false;false;67.0;1;0;0;0;0;false;41300;6269510705;-73.73815;45.542976;41298;6269510744;-73.73704;45.541884;0;60;61;9312756;Bus : 55 S - Direction Terminus Henri-Bourassa;"";STL;55S;Arthur-Sauvé / Prévert;Terminus Henri-Bourassa Quai:9
45601029;"{\"type\":\"LineString\",\"coordinates\":[[-73.7373223,45.5422615],[-73.7367907,45.5417267],[-73.7354611,45.5403891]]}";4;Boulevard Chomedey;2;60;false;true;false;false;false;false;254.0;0;0;0;0;0;false;41300;6269510705;-73.73815;45.542976;41298;6269510744;-73.73704;45.541884;2;60;61;9312756;Bus : 55 S - Direction Terminus Henri-Bourassa;"";STL;55S;Arthur-Sauvé / Prévert;Terminus Henri-Bourassa Quai:9
45601029;"{\"type\":\"LineString\",\"coordinates\":[[-73.7373223,45.5422615],[-73.7367907,45.5417267],[-73.7354611,45.5403891]]}";1;Boulevard Chomedey;2;60;false;true;false;false;false;false;127.0;0;0;0;0;0;false;41298;6269510744;-73.73704;45.541884;41293;6269510773;-73.73433;45.539139;1;61;62;9312756;Bus : 55 S - Direction Terminus Henri-Bourassa;"";STL;55S;Arthur-Sauvé / Prévert;Terminus Henri-Bourassa Quai:9
45600920;"{\"type\":\"LineString\",\"coordinates\":[[-73.7354611,45.5403891],[-73.7341411,45.5390611]]}";2;Boulevard Chomedey;2;60;false;true;false;false;false;false;90.0;1;0;0;0;0;false;41298;6269510744;-73.73704;45.541884;41293;6269510773;-73.73433;45.539139;1;61;62;9312756;Bus : 55 S - Direction Terminus Henri-Bourassa;"";STL;55S;Arthur-Sauvé / Prévert;Terminus Henri-Bourassa Quai:9
45762958;"{\"type\":\"LineString\",\"coordinates\":[[-73.7341411,45.5390611],[-73.7340547,45.5389667]]}";1;Boulevard Curé-Labelle;2;60;false;true;true;false;false;false;13.0;2;0;0;0;0;false;41293;6269510773;-73.73433;45.539139;41442;6269510803;-73.7325042;45.5371655;2;62;63;9312756;Bus : 55 S - Direction Terminus Henri-Bourassa;"";STL;55S;Arthur-Sauvé / Prévert;Terminus Henri-Bourassa Quai:9
462118188;"{\"type\":\"LineString\",\"coordinates\":[[-73.7340547,45.5389667],[-73.7328963,45.5376998]]}";2;Boulevard Curé-Labelle;2;60;false;true;false;false;false;false;168.0;1;0;0;0;0;false;41293;6269510773;-73.73433;45.539139;41442;6269510803;-73.7325042;45.5371655;0;62;63;9312756;Bus : 55 S - Direction Terminus Henri-Bourassa;"";STL;55S;Arthur-Sauvé / Prévert;Terminus Henri-Bourassa Quai:9
128245114;"{\"type\":\"LineString\",\"coordinates\":[[-73.7328963,45.5376998],[-73.7321013,45.536832],[-73.7319809,45.5367005]]}";3;Boulevard Curé-Labelle;2;60;false;true;false;false;false;false;132.0;2;0;0;0;0;false;41293;6269510773;-73.73433;45.539139;41442;6269510803;-73.7325042;45.5371655;2;62;63;9312756;Bus : 55 S - Direction Terminus Henri-Bourassa;"";STL;55S;Arthur-Sauvé / Prévert;Terminus Henri-Bourassa Quai:9
128245114;"{\"type\":\"LineString\",\"coordinates\":[[-73.7328963,45.5376998],[-73.7321013,45.536832],[-73.7319809,45.5367005]]}";1;Boulevard Curé-Labelle;2;60;false;true;false;false;false;false;66.0;2;0;0;0;0;false;41442;6269510803;-73.7325042;45.5371655;41419;6269510798;-73.73001;45.534334;1;63;64;9312756;Bus : 55 S - Direction Terminus Henri-Bourassa;"";STL;55S;Arthur-Sauvé / Prévert;Terminus Henri-Bourassa Quai:9
46257321;"{\"type\":\"LineString\",\"coordinates\":[[-73.7319809,45.5367005],[-73.7313096,45.535922]]}";2;Boulevard Curé-Labelle;3;60;false;true;false;false;false;false;102.0;1;0;0;0;0;false;41442;6269510803;-73.7325042;45.5371655;41419;6269510798;-73.73001;45.534334;0;63;64;9312756;Bus : 55 S - Direction Terminus Henri-Bourassa;"";STL;55S;Arthur-Sauvé / Prévert;Terminus Henri-Bourassa Quai:9
542855865;"{\"type\":\"LineString\",\"coordinates\":[[-73.7313096,45.535922],[-73.7298128,45.5343145],[-73.7293464,45.5338709]]}";3;Boulevard Curé-Labelle;3;60;false;true;true;false;false;false;137.5;0;0;0;0;0;false;41442;6269510803;-73.7325042;45.5371655;41419;6269510798;-73.73001;45.534334;1;63;64;9312756;Bus : 55 S - Direction Terminus Henri-Bourassa;"";STL;55S;Arthur-Sauvé / Prévert;Terminus Henri-Bourassa Quai:9
542855865;"{\"type\":\"LineString\",\"coordinates\":[[-73.7313096,45.535922],[-73.7298128,45.5343145],[-73.7293464,45.5338709]]}";1;Boulevard Curé-Labelle;3;60;false;true;true;false;false;false;137.5;0;0;0;0;0;false;41419;6269510798;-73.73001;45.534334;41894;6269511046;-73.72309;45.529446;1;64;65;9312756;Bus : 55 S - Direction Terminus Henri-Bourassa;"";STL;55S;Arthur-Sauvé / Prévert;Terminus Henri-Bourassa Quai:9
94780933;"{\"type\":\"LineString\",\"coordinates\":[[-73.7293464,45.5338709],[-73.7269468,45.531795]]}";2;Pont Lachapelle;3;50;false;true;false;false;false;false;298.0;0;0;0;0;0;false;41419;6269510798;-73.73001;45.534334;41894;6269511046;-73.72309;45.529446;0;64;65;9312756;Bus : 55 S - Direction Terminus Henri-Bourassa;"";STL;55S;Arthur-Sauvé / Prévert;Terminus Henri-Bourassa Quai:9
5028809;"{\"type\":\"LineString\",\"coordinates\":[[-73.7269468,45.531795],[-73.7268536,45.5317252],[-73.7267279,45.5316537],[-73.7265106,45.5315477],[-73.7259956,45.5313209]]}";3;Boulevard Laurentien;3;50;false;true;false;false;false;false;92.0;1;0;0;0;0;false;41419;6269510798;-73.73001;45.534334;41894;6269511046;-73.72309;45.529446;0;64;65;9312756;Bus : 55 S - Direction Terminus Henri-Bourassa;"";STL;55S;Arthur-Sauvé / Prévert;Terminus Henri-Bourassa Quai:9
462135853;"{\"type\":\"LineString\",\"coordinates\":[[-73.7259956,45.5313209],[-73.7257243,45.5312006],[-73.7255083,45.5310831],[-73.7249686,45.5307255],[-73.7236577,45.5298526],[-73.7232889,45.5296926]]}";4;Boulevard Laurentien;3;50;false;true;true;false;false;false;280.0;2;0;0;0;0;false;41419;6269510798;-73.73001;45.534334;41894;6269511046;-73.72309;45.529446;0;64;65;9312756;Bus : 55 S - Direction Terminus Henri-Bourassa;"";STL;55S;Arthur-Sauvé / Prévert;Terminus Henri-Bourassa Quai:9
455461136;"{\"type\":\"LineString\",\"coordinates\":[[-73.7232889,45.5296926],[-73.7230436,45.5295175]]}";5;Boulevard Laurentien;2;50;false;true;true;false;false;false;28.0;1;0;0;0;0;false;41419;6269510798;-73.73001;45.534334;41894;6269511046;-73.72309;45.529446;0;64;65;9312756;Bus : 55 S - Direction Terminus Henri-Bourassa;"";STL;55S;Arthur-Sauvé / Prévert;Terminus Henri-Bourassa Quai:9
113530731;"{\"type\":\"LineString\",\"coordinates\":[[-73.7230436,45.5295175],[-73.72272,45.5293116],[-73.7220588,45.5289137],[-73.7211095,45.5283793],[-73.7207342,45.5281696],[-73.7201435,45.5279313],[-73.7195792,45.5276916],[-73.7187936,45.5273851],[-73.7183638,45.527233],[-73.7179566,45.5270888],[-73.717534,45.52694],[-73.7168137,45.5266842],[-73.7153909,45.526135],[-73.7148603,45.5259303],[-73.7147599,45.5258915]]}";6;Boulevard Laurentien;2;50;false;true;true;false;false;false;383.0;1;0;0;0;0;false;41419;6269510798;-73.73001;45.534334;41894;6269511046;-73.72309;45.529446;1;64;65;9312756;Bus : 55 S - Direction Terminus Henri-Bourassa;"";STL;55S;Arthur-Sauvé / Prévert;Terminus Henri-Bourassa Quai:9
455461136;"{\"type\":\"LineString\",\"coordinates\":[[-73.7232889,45.5296926],[-73.7230436,45.5295175]]}";1;Boulevard Laurentien;2;50;false;true;true;false;false;false;28.0;1;0;0;0;0;false;41894;6269511046;-73.72309;45.529446;41534;6269511018;-73.71347;45.527023;2;65;66;9312756;Bus : 55 S - Direction Terminus Henri-Bourassa;"";STL;55S;Arthur-Sauvé / Prévert;Terminus Henri-Bourassa Quai:9
113530731;"{\"type\":\"LineString\",\"coordinates\":[[-73.7230436,45.5295175],[-73.72272,45.5293116],[-73.7220588,45.5289137],[-73.7211095,45.5283793],[-73.7207342,45.5281696],[-73.7201435,45.5279313],[-73.7195792,45.5276916],[-73.7187936,45.5273851],[-73.7183638,45.527233],[-73.7179566,45.5270888],[-73.717534,45.52694],[-73.7168137,45.5266842],[-73.7153909,45.526135],[-73.7148603,45.5259303],[-73.7147599,45.5258915]]}";2;Boulevard Laurentien;2;50;false;true;true;false;false;false;766.0;1;0;0;0;0;false;41894;6269511046;-73.72309;45.529446;41534;6269511018;-73.71347;45.527023;0;65;66;9312756;Bus : 55 S - Direction Terminus Henri-Bourassa;"";STL;55S;Arthur-Sauvé / Prévert;Terminus Henri-Bourassa Quai:9
652865583;"{\"type\":\"LineString\",\"coordinates\":[[-73.7147599,45.5258915],[-73.714351,45.5263173],[-73.7142881,45.5264541]]}";3;Rue De Salaberry;3;50;false;true;true;false;false;false;74.0;1;0;0;0;0;false;41894;6269511046;-73.72309;45.529446;41534;6269511018;-73.71347;45.527023;0;65;66;9312756;Bus : 55 S - Direction Terminus Henri-Bourassa;"";STL;55S;Arthur-Sauvé / Prévert;Terminus Henri-Bourassa Quai:9
462277755;"{\"type\":\"LineString\",\"coordinates\":[[-73.7135985,45.5270414],[-73.7142881,45.5264541]]}";4;Rue De Salaberry;4;50;false;false;true;false;false;false;85.0;1;0;0;0;0;false;41894;6269511046;-73.72309;45.529446;41534;6269511018;-73.71347;45.527023;0;65;66;9312756;Bus : 55 S - Direction Terminus Henri-Bourassa;"";STL;55S;Arthur-Sauvé / Prévert;Terminus Henri-Bourassa Quai:9
680568192;"{\"type\":\"LineString\",\"coordinates\":[[-73.712902,45.527615],[-73.7135985,45.5270414]]}";5;Rue De Salaberry;4;50;false;false;true;false;false;false;84.0;0;0;0;0;0;false;41894;6269511046;-73.72309;45.529446;41534;6269511018;-73.71347;45.527023;2;65;66;9312756;Bus : 55 S - Direction Terminus Henri-Bourassa;"";STL;55S;Arthur-Sauvé / Prévert;Terminus Henri-Bourassa Quai:9
462277755;"{\"type\":\"LineString\",\"coordinates\":[[-73.7135985,45.5270414],[-73.7142881,45.5264541]]}";1;Rue De Salaberry;4;50;false;false;true;false;false;false;85.0;1;0;0;0;0;false;41534;6269511018;-73.71347;45.527023;41668;6269511916;-73.70875;45.52489;2;66;67;9312756;Bus : 55 S - Direction Terminus Henri-Bourassa;"";STL;55S;Arthur-Sauvé / Prévert;Terminus Henri-Bourassa Quai:9
680568192;"{\"type\":\"LineString\",\"coordinates\":[[-73.712902,45.527615],[-73.7135985,45.5270414]]}";2;Rue De Salaberry;4;50;false;false;true;false;false;false;84.0;0;0;0;0;0;false;41534;6269511018;-73.71347;45.527023;41668;6269511916;-73.70875;45.52489;0;66;67;9312756;Bus : 55 S - Direction Terminus Henri-Bourassa;"";STL;55S;Arthur-Sauvé / Prévert;Terminus Henri-Bourassa Quai:9
680568191;"{\"type\":\"LineString\",\"coordinates\":[[-73.712902,45.527615],[-73.7119288,45.5269932],[-73.7105185,45.5260921],[-73.7104584,45.5260537],[-73.7101228,45.5258392],[-73.7098383,45.5256575],[-73.7082291,45.5246332],[-73.7076892,45.5242843]]}";3;Rue Grenet;2;50;false;false;true;false;false;false;550.0;0;0;0;0;0;false;41534;6269511018;-73.71347;45.527023;41668;6269511916;-73.70875;45.52489;2;66;67;9312756;Bus : 55 S - Direction Terminus Henri-Bourassa;"";STL;55S;Arthur-Sauvé / Prévert;Terminus Henri-Bourassa Quai:9
680568191;"{\"type\":\"LineString\",\"coordinates\":[[-73.712902,45.527615],[-73.7119288,45.5269932],[-73.7105185,45.5260921],[-73.7104584,45.5260537],[-73.7101228,45.5258392],[-73.7098383,45.5256575],[-73.7082291,45.5246332],[-73.7076892,45.5242843]]}";1;Rue Grenet;2;50;false;false;true;false;false;false;275.0;0;0;0;0;0;false;41668;6269511916;-73.70875;45.52489;43410;6269511063;-73.69296;45.52805;1;67;68;9312756;Bus : 55 S - Direction Terminus Henri-Bourassa;"";STL;55S;Arthur-Sauvé / Prévert;Terminus Henri-Bourassa Quai:9
562485170;"{\"type\":\"LineString\",\"coordinates\":[[-73.7076892,45.5242843],[-73.7075586,45.5241455],[-73.7071089,45.5238524],[-73.7070747,45.5238301]]}";2;Rue Grenet;2;50;false;true;true;false;false;false;70.0;0;0;0;0;0;false;41668;6269511916;-73.70875;45.52489;43410;6269511063;-73.69296;45.52805;0;67;68;9312756;Bus : 55 S - Direction Terminus Henri-Bourassa;"";STL;55S;Arthur-Sauvé / Prévert;Terminus Henri-Bourassa Quai:9
562485172;"{\"type\":\"LineString\",\"coordinates\":[[-73.7070747,45.5238301],[-73.7069585,45.5237612],[-73.7068225,45.5236831],[-73.706602,45.5235977]]}";3;Rue Grenet;2;50;false;true;true;false;false;false;46.0;0;0;0;0;0;false;41668;6269511916;-73.70875;45.52489;43410;6269511063;-73.69296;45.52805;0;67;68;9312756;Bus : 55 S - Direction Terminus Henri-Bourassa;"";STL;55S;Arthur-Sauvé / Prévert;Terminus Henri-Bourassa Quai:9
562485169;"{\"type\":\"LineString\",\"coordinates\":[[-73.706602,45.5235977],[-73.7058544,45.5230934]]}";4;Rue Grenet;2;50;false;false;true;false;false;false;81.0;1;0;0;0;0;false;41668;6269511916;-73.70875;45.52489;43410;6269511063;-73.69296;45.52805;0;67;68;9312756;Bus : 55 S - Direction Terminus Henri-Bourassa;"";STL;55S;Arthur-Sauvé / Prévert;Terminus Henri-Bourassa Quai:9
436529003;"{\"type\":\"LineString\",\"coordinates\":[[-73.7058544,45.5230934],[-73.7057335,45.5230179]]}";5;Rue Grenet;2;50;false;false;true;false;false;false;13.0;2;0;0;0;0;false;41668;6269511916;-73.70875;45.52489;43410;6269511063;-73.69296;45.52805;0;67;68;9312756;Bus : 55 S - Direction Terminus Henri-Bourassa;"";STL;55S;Arthur-Sauvé / Prévert;Terminus Henri-Bourassa Quai:9
462285601;"{\"type\":\"LineString\",\"coordinates\":[[-73.7057335,45.5230179],[-73.7049523,45.5233563],[-73.7048252,45.5234711]]}";6;Boulevard Henri-Bourassa Ouest;6;50;false;true;true;false;false;false;88.0;1;0;0;0;0;false;41668;6269511916;-73.70875;45.52489;43410;6269511063;-73.69296;45.52805;0;67;68;9312756;Bus : 55 S - Direction Terminus Henri-Bourassa;"";STL;55S;Arthur-Sauvé / Prévert;Terminus Henri-Bourassa Quai:9
460503458;"{\"type\":\"LineString\",\"coordinates\":[[-73.7028009,45.5243544],[-73.7031158,45.5242188],[-73.7033006,45.5241387],[-73.7048252,45.5234711]]}";7;Boulevard Henri-Bourassa Ouest;6;50;false;false;true;false;false;false;186.0;1;0;0;0;0;false;41668;6269511916;-73.70875;45.52489;43410;6269511063;-73.69296;45.52805;0;67;68;9312756;Bus : 55 S - Direction Terminus Henri-Bourassa;"";STL;55S;Arthur-Sauvé / Prévert;Terminus Henri-Bourassa Quai:9
460514534;"{\"type\":\"LineString\",\"coordinates\":[[-73.7004288,45.5254157],[-73.7028009,45.5243544]]}";8;Boulevard Henri-Bourassa Ouest;6;50;false;false;true;false;false;false;220.0;1;0;0;0;0;false;41668;6269511916;-73.70875;45.52489;43410;6269511063;-73.69296;45.52805;0;67;68;9312756;Bus : 55 S - Direction Terminus Henri-Bourassa;"";STL;55S;Arthur-Sauvé / Prévert;Terminus Henri-Bourassa Quai:9
460514535;"{\"type\":\"LineString\",\"coordinates\":[[-73.6984481,45.526239],[-73.6990232,45.5260193],[-73.6994964,45.5258206],[-73.7004288,45.5254157]]}";9;Boulevard Henri-Bourassa Ouest;6;50;false;false;true;false;false;false;180.0;0;0;0;0;0;false;41668;6269511916;-73.70875;45.52489;43410;6269511063;-73.69296;45.52805;0;67;68;9312756;Bus : 55 S - Direction Terminus Henri-Bourassa;"";STL;55S;Arthur-Sauvé / Prévert;Terminus Henri-Bourassa Quai:9
436528994;"{\"type\":\"LineString\",\"coordinates\":[[-73.6984481,45.526239],[-73.6982625,45.5262791],[-73.6977213,45.5265529]]}";10;Boulevard Henri-Bourassa Ouest;3;50;false;true;true;false;false;false;68.0;1;0;0;0;0;false;41668;6269511916;-73.70875;45.52489;43410;6269511063;-73.69296;45.52805;0;67;68;9312756;Bus : 55 S - Direction Terminus Henri-Bourassa;"";STL;55S;Arthur-Sauvé / Prévert;Terminus Henri-Bourassa Quai:9
602971548;"{\"type\":\"LineString\",\"coordinates\":[[-73.6977213,45.5265529],[-73.6971432,45.5269102],[-73.6969453,45.5270456]]}";11;Boulevard Henri-Bourassa Ouest;3;50;false;true;true;false;false;false;82.0;1;0;0;0;0;false;41668;6269511916;-73.70875;45.52489;43410;6269511063;-73.69296;45.52805;0;67;68;9312756;Bus : 55 S - Direction Terminus Henri-Bourassa;"";STL;55S;Arthur-Sauvé / Prévert;Terminus Henri-Bourassa Quai:9
436528997;"{\"type\":\"LineString\",\"coordinates\":[[-73.6927649,45.5282827],[-73.6932906,45.5281561],[-73.6937881,45.5280327],[-73.6947094,45.5277983],[-73.6956273,45.5275122],[-73.6963203,45.5272837],[-73.6969453,45.5270456]]}";12;Boulevard Henri-Bourassa Ouest;6;50;false;false;true;false;false;false;177.5;2;0;0;0;0;false;41668;6269511916;-73.70875;45.52489;43410;6269511063;-73.69296;45.52805;1;67;68;9312756;Bus : 55 S - Direction Terminus Henri-Bourassa;"";STL;55S;Arthur-Sauvé / Prévert;Terminus Henri-Bourassa Quai:9
436528997;"{\"type\":\"LineString\",\"coordinates\":[[-73.6927649,45.5282827],[-73.6932906,45.5281561],[-73.6937881,45.5280327],[-73.6947094,45.5277983],[-73.6956273,45.5275122],[-73.6963203,45.5272837],[-73.6969453,45.5270456]]}";1;Boulevard Henri-Bourassa Ouest;6;50;false;false;true;false;false;false;177.5;2;0;0;0;0;false;43410;6269511063;-73.69296;45.52805;46617;6269510874;-73.68126;45.533345;1;68;69;9312756;Bus : 55 S - Direction Terminus Henri-Bourassa;"";STL;55S;Arthur-Sauvé / Prévert;Terminus Henri-Bourassa Quai:9
453488504;"{\"type\":\"LineString\",\"coordinates\":[[-73.6927649,45.5282827],[-73.6925226,45.5282607],[-73.6918055,45.5285105],[-73.691585,45.5285537],[-73.6914122,45.5285876],[-73.6907078,45.5286366],[-73.6898177,45.5286578],[-73.6894369,45.5286466],[-73.6891549,45.5286049],[-73.6886915,45.5285007],[-73.6882421,45.5284265],[-73.6877982,45.5284097],[-73.6874306,45.5284497],[-73.687042,45.5285371],[-73.6860221,45.5288892],[-73.6845844,45.5294293]]}";2;Boulevard Henri-Bourassa Ouest;3;50;false;true;true;false;false;false;676.0;2;0;0;0;0;false;43410;6269511063;-73.69296;45.52805;46617;6269510874;-73.68126;45.533345;0;68;69;9312756;Bus : 55 S - Direction Terminus Henri-Bourassa;"";STL;55S;Arthur-Sauvé / Prévert;Terminus Henri-Bourassa Quai:9
453491544;"{\"type\":\"LineString\",\"coordinates\":[[-73.6845844,45.5294293],[-73.6843945,45.5295012]]}";3;Boulevard Henri-Bourassa Ouest;3;50;false;true;true;false;false;false;17.0;2;0;0;0;0;false;43410;6269511063;-73.69296;45.52805;46617;6269510874;-73.68126;45.533345;0;68;69;9312756;Bus : 55 S - Direction Terminus Henri-Bourassa;"";STL;55S;Arthur-Sauvé / Prévert;Terminus Henri-Bourassa Quai:9
453491543;"{\"type\":\"LineString\",\"coordinates\":[[-73.6843945,45.5295012],[-73.6840572,45.5296396],[-73.6837059,45.5298485],[-73.6834497,45.5300844],[-73.6832565,45.5303362]]}";4;Boulevard Henri-Bourassa Ouest;3;50;false;true;true;false;false;false;132.0;1;0;0;0;0;false;43410;6269511063;-73.69296;45.52805;46617;6269510874;-73.68126;45.533345;0;68;69;9312756;Bus : 55 S - Direction Terminus Henri-Bourassa;"";STL;55S;Arthur-Sauvé / Prévert;Terminus Henri-Bourassa Quai:9
35745413;"{\"type\":\"LineString\",\"coordinates\":[[-73.6832565,45.5303362],[-73.6824827,45.5315138]]}";5;Boulevard Henri-Bourassa Ouest;3;50;false;true;true;false;false;false;145.0;0;0;0;0;0;false;43410;6269511063;-73.69296;45.52805;46617;6269510874;-73.68126;45.533345;0;68;69;9312756;Bus : 55 S - Direction Terminus Henri-Bourassa;"";STL;55S;Arthur-Sauvé / Prévert;Terminus Henri-Bourassa Quai:9
35745412;"{\"type\":\"LineString\",\"coordinates\":[[-73.6824827,45.5315138],[-73.6819332,45.5323773],[-73.6817348,45.5326812],[-73.6812939,45.5334091],[-73.6811913,45.53358]]}";6;Boulevard Henri-Bourassa Ouest;3;50;false;true;true;false;false;false;125.5;0;0;0;0;0;false;43410;6269511063;-73.69296;45.52805;46617;6269510874;-73.68126;45.533345;1;68;69;9312756;Bus : 55 S - Direction Terminus Henri-Bourassa;"";STL;55S;Arthur-Sauvé / Prévert;Terminus Henri-Bourassa Quai:9
35745412;"{\"type\":\"LineString\",\"coordinates\":[[-73.6824827,45.5315138],[-73.6819332,45.5323773],[-73.6817348,45.5326812],[-73.6812939,45.5334091],[-73.6811913,45.53358]]}";1;Boulevard Henri-Bourassa Ouest;3;50;false;true;true;false;false;false;125.5;0;0;0;0;0;false;46617;6269510874;-73.68126;45.533345;41709;6269510790;-73.67848;45.537791;1;69;70;9312756;Bus : 55 S - Direction Terminus Henri-Bourassa;"";STL;55S;Arthur-Sauvé / Prévert;Terminus Henri-Bourassa Quai:9
462119182;"{\"type\":\"LineString\",\"coordinates\":[[-73.6811913,45.53358],[-73.6808343,45.5341751]]}";2;Boulevard Henri-Bourassa Ouest;3;50;false;true;true;false;false;false;72.0;1;0;0;0;0;false;46617;6269510874;-73.68126;45.533345;41709;6269510790;-73.67848;45.537791;0;69;70;9312756;Bus : 55 S - Direction Terminus Henri-Bourassa;"";STL;55S;Arthur-Sauvé / Prévert;Terminus Henri-Bourassa Quai:9
453300012;"{\"type\":\"LineString\",\"coordinates\":[[-73.6808343,45.5341751],[-73.6807308,45.5343269]]}";3;Boulevard Henri-Bourassa Ouest;3;50;false;true;true;false;false;false;19.0;2;0;0;0;0;false;46617;6269510874;-73.68126;45.533345;41709;6269510790;-73.67848;45.537791;0;69;70;9312756;Bus : 55 S - Direction Terminus Henri-Bourassa;"";STL;55S;Arthur-Sauvé / Prévert;Terminus Henri-Bourassa Quai:9
462119181;"{\"type\":\"LineString\",\"coordinates\":[[-73.6807308,45.5343269],[-73.6803573,45.5349481]]}";4;Boulevard Henri-Bourassa Ouest;3;50;false;true;true;false;false;false;75.0;1;0;0;0;0;false;46617;6269510874;-73.68126;45.533345;41709;6269510790;-73.67848;45.537791;0;69;70;9312756;Bus : 55 S - Direction Terminus Henri-Bourassa;"";STL;55S;Arthur-Sauvé / Prévert;Terminus Henri-Bourassa Quai:9
453300011;"{\"type\":\"LineString\",\"coordinates\":[[-73.6803573,45.5349481],[-73.6794771,45.5363001]]}";5;Boulevard Henri-Bourassa Ouest;3;50;false;true;true;false;false;false;166.0;1;0;0;0;0;false;46617;6269510874;-73.68126;45.533345;41709;6269510790;-73.67848;45.537791;0;69;70;9312756;Bus : 55 S - Direction Terminus Henri-Bourassa;"";STL;55S;Arthur-Sauvé / Prévert;Terminus Henri-Bourassa Quai:9
738663246;"{\"type\":\"LineString\",\"coordinates\":[[-73.6794771,45.5363001],[-73.678541,45.537796],[-73.6784863,45.5378833],[-73.6771493,45.5400196]]}";6;Boulevard Henri-Bourassa Ouest;3;50;false;true;false;false;false;false;226.0;2;0;0;0;0;false;46617;6269510874;-73.68126;45.533345;41709;6269510790;-73.67848;45.537791;1;69;70;9312756;Bus : 55 S - Direction Terminus Henri-Bourassa;"";STL;55S;Arthur-Sauvé / Prévert;Terminus Henri-Bourassa Quai:9
738663246;"{\"type\":\"LineString\",\"coordinates\":[[-73.6794771,45.5363001],[-73.678541,45.537796],[-73.6784863,45.5378833],[-73.6771493,45.5400196]]}";1;Boulevard Henri-Bourassa Ouest;3;50;false;true;false;false;false;false;226.0;2;0;0;0;0;false;41709;6269510790;-73.67848;45.537791;"40031;40152;40052;40155;40055;40131;40252;40253";6272908095;-73.66993;45.555747;1;70;71;9312756;Bus : 55 S - Direction Terminus Henri-Bourassa;"";STL;55S;Arthur-Sauvé / Prévert;Terminus Henri-Bourassa Quai:9
37924611;"{\"type\":\"LineString\",\"coordinates\":[[-73.6771493,45.5400196],[-73.6768846,45.5404644]]}";2;Boulevard Henri-Bourassa Ouest;3;50;false;true;false;false;false;false;54.0;0;0;0;0;0;false;41709;6269510790;-73.67848;45.537791;"40031;40152;40052;40155;40055;40131;40252;40253";6272908095;-73.66993;45.555747;0;70;71;9312756;Bus : 55 S - Direction Terminus Henri-Bourassa;"";STL;55S;Arthur-Sauvé / Prévert;Terminus Henri-Bourassa Quai:9
412835296;"{\"type\":\"LineString\",\"coordinates\":[[-73.6768846,45.5404644],[-73.6763756,45.5412879],[-73.6762156,45.5415467],[-73.6760242,45.5418565],[-73.6759469,45.5419814]]}";3;Boulevard Henri-Bourassa Ouest;3;50;false;true;false;false;false;false;184.0;1;0;0;0;0;false;41709;6269510790;-73.67848;45.537791;"40031;40152;40052;40155;40055;40131;40252;40253";6272908095;-73.66993;45.555747;0;70;71;9312756;Bus : 55 S - Direction Terminus Henri-Bourassa;"";STL;55S;Arthur-Sauvé / Prévert;Terminus Henri-Bourassa Quai:9
681071379;"{\"type\":\"LineString\",\"coordinates\":[[-73.6759469,45.5419814],[-73.675386,45.5428889],[-73.6753376,45.5429672],[-73.6751194,45.5433197]]}";4;Boulevard Henri-Bourassa Ouest;3;50;false;true;false;false;false;false;163.0;1;0;0;0;0;false;41709;6269510790;-73.67848;45.537791;"40031;40152;40052;40155;40055;40131;40252;40253";6272908095;-73.66993;45.555747;0;70;71;9312756;Bus : 55 S - Direction Terminus Henri-Bourassa;"";STL;55S;Arthur-Sauvé / Prévert;Terminus Henri-Bourassa Quai:9
453475206;"{\"type\":\"LineString\",\"coordinates\":[[-73.6751194,45.5433197],[-73.6747623,45.5439006]]}";5;Boulevard Henri-Bourassa Ouest;3;50;false;true;true;false;false;false;71.0;1;0;0;0;0;false;41709;6269510790;-73.67848;45.537791;"40031;40152;40052;40155;40055;40131;40252;40253";6272908095;-73.66993;45.555747;0;70;71;9312756;Bus : 55 S - Direction Terminus Henri-Bourassa;"";STL;55S;Arthur-Sauvé / Prévert;Terminus Henri-Bourassa Quai:9
453470797;"{\"type\":\"LineString\",\"coordinates\":[[-73.6747623,45.5439006],[-73.6746693,45.5440517],[-73.6744524,45.5444043],[-73.6744114,45.5444708]]}";6;Boulevard Henri-Bourassa Ouest;3;50;false;true;true;false;false;false;69.0;1;0;0;0;0;false;41709;6269510790;-73.67848;45.537791;"40031;40152;40052;40155;40055;40131;40252;40253";6272908095;-73.66993;45.555747;0;70;71;9312756;Bus : 55 S - Direction Terminus Henri-Bourassa;"";STL;55S;Arthur-Sauvé / Prévert;Terminus Henri-Bourassa Quai:9
453469196;"{\"type\":\"LineString\",\"coordinates\":[[-73.6744114,45.5444708],[-73.6740484,45.5450604]]}";7;Boulevard Henri-Bourassa Ouest;3;50;false;true;true;false;false;false;72.0;0;0;0;0;0;false;41709;6269510790;-73.67848;45.537791;"40031;40152;40052;40155;40055;40131;40252;40253";6272908095;-73.66993;45.555747;0;70;71;9312756;Bus : 55 S - Direction Terminus Henri-Bourassa;"";STL;55S;Arthur-Sauvé / Prévert;Terminus Henri-Bourassa Quai:9
607074467;"{\"type\":\"LineString\",\"coordinates\":[[-73.6740484,45.5450604],[-73.6737067,45.5456177]]}";8;Boulevard Henri-Bourassa Ouest;3;50;false;true;true;false;false;false;68.0;0;0;0;0;0;false;41709;6269510790;-73.67848;45.537791;"40031;40152;40052;40155;40055;40131;40252;40253";6272908095;-73.66993;45.555747;0;70;71;9312756;Bus : 55 S - Direction Terminus Henri-Bourassa;"";STL;55S;Arthur-Sauvé / Prévert;Terminus Henri-Bourassa Quai:9
607074466;"{\"type\":\"LineString\",\"coordinates\":[[-73.6737067,45.5456177],[-73.6733919,45.5461281],[-73.6733599,45.5461801]]}";9;Boulevard Henri-Bourassa Ouest;3;50;false;true;true;false;false;false;69.0;1;0;0;0;0;false;41709;6269510790;-73.67848;45.537791;"40031;40152;40052;40155;40055;40131;40252;40253";6272908095;-73.66993;45.555747;0;70;71;9312756;Bus : 55 S - Direction Terminus Henri-Bourassa;"";STL;55S;Arthur-Sauvé / Prévert;Terminus Henri-Bourassa Quai:9
453466964;"{\"type\":\"LineString\",\"coordinates\":[[-73.6733599,45.5461801],[-73.6731677,45.5464923],[-73.6731044,45.5465952],[-73.6730167,45.5467378],[-73.6729595,45.5468308]]}";10;Boulevard Henri-Bourassa Ouest;3;50;false;true;true;false;false;false;79.0;0;0;0;0;0;false;41709;6269510790;-73.67848;45.537791;"40031;40152;40052;40155;40055;40131;40252;40253";6272908095;-73.66993;45.555747;0;70;71;9312756;Bus : 55 S - Direction Terminus Henri-Bourassa;"";STL;55S;Arthur-Sauvé / Prévert;Terminus Henri-Bourassa Quai:9
607074464;"{\"type\":\"LineString\",\"coordinates\":[[-73.6729595,45.5468308],[-73.6729051,45.5469191],[-73.6725889,45.547433],[-73.6725512,45.5474943]]}";11;Boulevard Henri-Bourassa Ouest;3;50;false;true;true;false;false;false;81.0;1;0;0;0;0;false;41709;6269510790;-73.67848;45.537791;"40031;40152;40052;40155;40055;40131;40252;40253";6272908095;-73.66993;45.555747;0;70;71;9312756;Bus : 55 S - Direction Terminus Henri-Bourassa;"";STL;55S;Arthur-Sauvé / Prévert;Terminus Henri-Bourassa Quai:9
607074463;"{\"type\":\"LineString\",\"coordinates\":[[-73.6725512,45.5474943],[-73.6721569,45.5481351]]}";12;Boulevard Henri-Bourassa Ouest;3;50;false;true;true;false;false;false;78.0;0;0;0;0;0;false;41709;6269510790;-73.67848;45.537791;"40031;40152;40052;40155;40055;40131;40252;40253";6272908095;-73.66993;45.555747;0;70;71;9312756;Bus : 55 S - Direction Terminus Henri-Bourassa;"";STL;55S;Arthur-Sauvé / Prévert;Terminus Henri-Bourassa Quai:9
453461508;"{\"type\":\"LineString\",\"coordinates\":[[-73.6721569,45.5481351],[-73.6717413,45.5488104]]}";13;Boulevard Henri-Bourassa Ouest;3;50;false;true;true;false;false;false;82.0;0;0;0;0;0;false;41709;6269510790;-73.67848;45.537791;"40031;40152;40052;40155;40055;40131;40252;40253";6272908095;-73.66993;45.555747;0;70;71;9312756;Bus : 55 S - Direction Terminus Henri-Bourassa;"";STL;55S;Arthur-Sauvé / Prévert;Terminus Henri-Bourassa Quai:9
607074460;"{\"type\":\"LineString\",\"coordinates\":[[-73.6717413,45.5488104],[-73.6713627,45.5494257]]}";14;Boulevard Henri-Bourassa Ouest;3;50;false;true;true;false;false;false;75.0;0;0;0;0;0;false;41709;6269510790;-73.67848;45.537791;"40031;40152;40052;40155;40055;40131;40252;40253";6272908095;-73.66993;45.555747;0;70;71;9312756;Bus : 55 S - Direction Terminus Henri-Bourassa;"";STL;55S;Arthur-Sauvé / Prévert;Terminus Henri-Bourassa Quai:9
453460066;"{\"type\":\"LineString\",\"coordinates\":[[-73.6713627,45.5494257],[-73.6708789,45.5502474],[-73.670837,45.5503116]]}";15;Boulevard Henri-Bourassa Ouest;3;50;false;true;true;false;false;false;107.0;1;0;0;0;0;false;41709;6269510790;-73.67848;45.537791;"40031;40152;40052;40155;40055;40131;40252;40253";6272908095;-73.66993;45.555747;0;70;71;9312756;Bus : 55 S - Direction Terminus Henri-Bourassa;"";STL;55S;Arthur-Sauvé / Prévert;Terminus Henri-Bourassa Quai:9
34135897;"{\"type\":\"LineString\",\"coordinates\":[[-73.670837,45.5503116],[-73.6703677,45.5511452],[-73.6702919,45.5512799],[-73.6699115,45.5519557],[-73.6698667,45.5520352]]}";16;Boulevard Henri-Bourassa Est;3;50;false;true;true;false;false;false;206.0;1;0;0;0;0;false;41709;6269510790;-73.67848;45.537791;"40031;40152;40052;40155;40055;40131;40252;40253";6272908095;-73.66993;45.555747;0;70;71;9312756;Bus : 55 S - Direction Terminus Henri-Bourassa;"";STL;55S;Arthur-Sauvé / Prévert;Terminus Henri-Bourassa Quai:9
462564736;"{\"type\":\"LineString\",\"coordinates\":[[-73.6698667,45.5520352],[-73.669409,45.5528708],[-73.6693452,45.5529873],[-73.6689705,45.5536713]]}";17;Boulevard Henri-Bourassa Est;3;50;false;true;true;false;false;false;195.0;1;0;0;0;0;false;41709;6269510790;-73.67848;45.537791;"40031;40152;40052;40155;40055;40131;40252;40253";6272908095;-73.66993;45.555747;0;70;71;9312756;Bus : 55 S - Direction Terminus Henri-Bourassa;"";STL;55S;Arthur-Sauvé / Prévert;Terminus Henri-Bourassa Quai:9
460561580;"{\"type\":\"LineString\",\"coordinates\":[[-73.6689705,45.5536713],[-73.6686609,45.5542233],[-73.6685353,45.5544473]]}";18;Boulevard Henri-Bourassa Est;3;50;false;true;true;false;false;false;93.0;2;0;0;0;0;false;41709;6269510790;-73.67848;45.537791;"40031;40152;40052;40155;40055;40131;40252;40253";6272908095;-73.66993;45.555747;0;70;71;9312756;Bus : 55 S - Direction Terminus Henri-Bourassa;"";STL;55S;Arthur-Sauvé / Prévert;Terminus Henri-Bourassa Quai:9
607076616;"{\"type\":\"LineString\",\"coordinates\":[[-73.6685353,45.5544473],[-73.6683093,45.5548502],[-73.6681526,45.5551297],[-73.668112,45.5552021]]}";19;Boulevard Henri-Bourassa Est;3;50;false;true;true;false;false;false;91.0;2;1;0;0;0;false;41709;6269510790;-73.67848;45.537791;"40031;40152;40052;40155;40055;40131;40252;40253";6272908095;-73.66993;45.555747;0;70;71;9312756;Bus : 55 S - Direction Terminus Henri-Bourassa;"";STL;55S;Arthur-Sauvé / Prévert;Terminus Henri-Bourassa Quai:9
460561574;"{\"type\":\"LineString\",\"coordinates\":[[-73.668112,45.5552021],[-73.6682973,45.555253]]}";20;Rue Lajeunesse;2;50;false;true;false;false;false;false;16.0;2;0;0;0;0;false;41709;6269510790;-73.67848;45.537791;"40031;40152;40052;40155;40055;40131;40252;40253";6272908095;-73.66993;45.555747;0;70;71;9312756;Bus : 55 S - Direction Terminus Henri-Bourassa;"";STL;55S;Arthur-Sauvé / Prévert;Terminus Henri-Bourassa Quai:9
460561573;"{\"type\":\"LineString\",\"coordinates\":[[-73.6682973,45.555253],[-73.6684106,45.555284],[-73.6689503,45.5554316],[-73.6690569,45.5554608],[-73.6699556,45.555716]]}";21;Rue Lajeunesse;2;50;false;true;false;false;false;false;140.0;1;1;0;0;0;false;41709;6269510790;-73.67848;45.537791;"40031;40152;40052;40155;40055;40131;40252;40253";6272908095;-73.66993;45.555747;1;70;71;9312756;Bus : 55 S - Direction Terminus Henri-Bourassa;"";STL;55S;Arthur-Sauvé / Prévert;Terminus Henri-Bourassa Quai:9
