way_id;shape;index;name;nb_lanes;legal_speed;speed_zone_30;oneway;shares_bike;bike_box;bus_lane;dedicated_bus_lane;length;nb_traffic_signals;nb_crossings;nb_stops;nb_give_ways;nb_lvl_crossings;roundabout;stop_id_orig;node_id_orig;coord_x_orig;coord_y_orig;stop_id_dest;node_id_dest;coord_x_dest;coord_y_dest;nb_neighbouring_ways_bus_stop;ordre_orig;ordre_dest;id_line;line_name;colour;operator;ref;from;to
682480346;"{\"type\":\"LineString\",\"coordinates\":[[-73.9916502,45.3881771],[-73.9915401,45.3880164],[-73.9914876,45.3879399]]}";1;"";1;50;false;true;true;false;true;false;30.0;0;0;0;0;0;false;72343;762420309;-73.991601;45.387962;72351;2186107594;-73.99324;45.384687;2;0;1;9469267;Bus 31 : Service PM;"";EXO;31 PM;Gare Pincourt / Terrasse-Vaudreuil;Gare Pincourt / Terrasse-Vaudreuil
110304436;"{\"type\":\"LineString\",\"coordinates\":[[-73.9914876,45.3879399],[-73.9914213,45.3878465],[-73.9913996,45.3877985],[-73.9913895,45.3877646],[-73.9913857,45.3877337]]}";2;"";1;50;false;true;true;false;true;false;25.0;0;0;0;0;0;false;72343;762420309;-73.991601;45.387962;72351;2186107594;-73.99324;45.384687;0;0;1;9469267;Bus 31 : Service PM;"";EXO;31 PM;Gare Pincourt / Terrasse-Vaudreuil;Gare Pincourt / Terrasse-Vaudreuil
770904517;"{\"type\":\"LineString\",\"coordinates\":[[-73.9913857,45.3877337],[-73.9913272,45.3877239]]}";3;"";1;50;false;false;true;false;true;false;5.0;0;0;0;0;0;false;72343;762420309;-73.991601;45.387962;72351;2186107594;-73.99324;45.384687;0;0;1;9469267;Bus 31 : Service PM;"";EXO;31 PM;Gare Pincourt / Terrasse-Vaudreuil;Gare Pincourt / Terrasse-Vaudreuil
770904518;"{\"type\":\"LineString\",\"coordinates\":[[-73.9913272,45.3877239],[-73.9912802,45.3877203],[-73.9912332,45.3877217],[-73.9911904,45.3877274],[-73.9911541,45.3877322],[-73.9911043,45.3877382],[-73.9910088,45.3877542]]}";4;"";1;50;false;true;true;false;true;false;26.0;0;1;1;0;0;false;72343;762420309;-73.991601;45.387962;72351;2186107594;-73.99324;45.384687;0;0;1;9469267;Bus 31 : Service PM;"";EXO;31 PM;Gare Pincourt / Terrasse-Vaudreuil;Gare Pincourt / Terrasse-Vaudreuil
682480330;"{\"type\":\"LineString\",\"coordinates\":[[-73.9910088,45.3877542],[-73.9910322,45.3877989],[-73.9910561,45.3878377],[-73.9911004,45.3878955],[-73.9911759,45.3879816],[-73.9912304,45.3880352],[-73.9912962,45.3880976],[-73.991466,45.3882409]]}";5;3e Avenue;2;40;false;false;true;false;false;false;66.0;0;0;0;0;0;false;72343;762420309;-73.991601;45.387962;72351;2186107594;-73.99324;45.384687;0;0;1;9469267;Bus 31 : Service PM;"";EXO;31 PM;Gare Pincourt / Terrasse-Vaudreuil;Gare Pincourt / Terrasse-Vaudreuil
509079301;"{\"type\":\"LineString\",\"coordinates\":[[-73.9909855,45.3875641],[-73.9909784,45.3875833],[-73.9909714,45.3876114],[-73.9909745,45.3876525],[-73.9909919,45.3877114],[-73.9910088,45.3877542]]}";6;3e Avenue;2;40;false;false;true;false;false;false;22.0;0;1;0;0;0;false;72343;762420309;-73.991601;45.387962;72351;2186107594;-73.99324;45.384687;0;0;1;9469267;Bus 31 : Service PM;"";EXO;31 PM;Gare Pincourt / Terrasse-Vaudreuil;Gare Pincourt / Terrasse-Vaudreuil
196778897;"{\"type\":\"LineString\",\"coordinates\":[[-73.9913541,45.3870087],[-73.9913393,45.3870266],[-73.9913123,45.3870664],[-73.9912469,45.3871513],[-73.9911904,45.387229],[-73.9911641,45.3872691],[-73.9910918,45.3873722],[-73.9910477,45.3874443],[-73.9910218,45.3874881],[-73.9910003,45.3875293],[-73.9909855,45.3875641]]}";7;3e Avenue;2;40;false;false;true;false;false;false;69.0;0;0;0;0;0;false;72343;762420309;-73.991601;45.387962;72351;2186107594;-73.99324;45.384687;0;0;1;9469267;Bus 31 : Service PM;"";EXO;31 PM;Gare Pincourt / Terrasse-Vaudreuil;Gare Pincourt / Terrasse-Vaudreuil
533369994;"{\"type\":\"LineString\",\"coordinates\":[[-73.9913848,45.3868362],[-73.9913645,45.3868696],[-73.991356,45.3869016],[-73.9913547,45.3869336],[-73.9913553,45.386968],[-73.9913541,45.3870087]]}";8;3e Avenue;1;50;false;true;true;false;false;false;20.0;0;0;0;0;0;false;72343;762420309;-73.991601;45.387962;72351;2186107594;-73.99324;45.384687;0;0;1;9469267;Bus 31 : Service PM;"";EXO;31 PM;Gare Pincourt / Terrasse-Vaudreuil;Gare Pincourt / Terrasse-Vaudreuil
47459936;"{\"type\":\"LineString\",\"coordinates\":[[-73.9926939,45.3867474],[-73.9922407,45.3867508],[-73.9919818,45.3867457],[-73.991752,45.3867355],[-73.9916697,45.3867362],[-73.9915939,45.3867436],[-73.9915129,45.3867651],[-73.991459,45.386788],[-73.9914195,45.3868116],[-73.9913848,45.3868362]]}";9;3e Avenue;1;50;false;true;true;false;false;false;106.0;1;0;0;0;0;false;72343;762420309;-73.991601;45.387962;72351;2186107594;-73.99324;45.384687;0;0;1;9469267;Bus 31 : Service PM;"";EXO;31 PM;Gare Pincourt / Terrasse-Vaudreuil;Gare Pincourt / Terrasse-Vaudreuil
533369993;"{\"type\":\"LineString\",\"coordinates\":[[-73.9917352,45.3868278],[-73.9919139,45.3868205],[-73.9920231,45.3868167],[-73.9922753,45.3868052],[-73.992436,45.3867911],[-73.9926939,45.3867474]]}";10;3e Avenue;2;50;false;true;true;false;false;false;76.0;0;0;0;0;0;false;72343;762420309;-73.991601;45.387962;72351;2186107594;-73.99324;45.384687;0;0;1;9469267;Bus 31 : Service PM;"";EXO;31 PM;Gare Pincourt / Terrasse-Vaudreuil;Gare Pincourt / Terrasse-Vaudreuil
197189777;"{\"type\":\"LineString\",\"coordinates\":[[-73.9926939,45.3867474],[-73.9932091,45.386713],[-73.9933267,45.3867051],[-73.9934515,45.3866975]]}";11;3e Avenue;3;50;false;false;true;false;false;false;60.0;1;0;0;0;0;false;72343;762420309;-73.991601;45.387962;72351;2186107594;-73.99324;45.384687;0;0;1;9469267;Bus 31 : Service PM;"";EXO;31 PM;Gare Pincourt / Terrasse-Vaudreuil;Gare Pincourt / Terrasse-Vaudreuil
197189768;"{\"type\":\"LineString\",\"coordinates\":[[-73.9934289,45.3861925],[-73.9934263,45.386256],[-73.9934269,45.3862718],[-73.9934483,45.3866308],[-73.9934515,45.3866975]]}";12;Boulevard Cardinal-Léger;4;50;false;false;true;false;false;false;57.0;2;0;0;0;0;false;72343;762420309;-73.991601;45.387962;72351;2186107594;-73.99324;45.384687;0;0;1;9469267;Bus 31 : Service PM;"";EXO;31 PM;Gare Pincourt / Terrasse-Vaudreuil;Gare Pincourt / Terrasse-Vaudreuil
455057389;"{\"type\":\"LineString\",\"coordinates\":[[-73.993233,45.3853707],[-73.9932486,45.3854562],[-73.9932952,45.3856808],[-73.9933204,45.3858734],[-73.9933425,45.3861117],[-73.9933524,45.386121],[-73.9934289,45.3861925]]}";13;Boulevard Cardinal-Léger;2;50;false;true;true;false;false;false;95.0;1;0;0;0;0;false;72343;762420309;-73.991601;45.387962;72351;2186107594;-73.99324;45.384687;0;0;1;9469267;Bus 31 : Service PM;"";EXO;31 PM;Gare Pincourt / Terrasse-Vaudreuil;Gare Pincourt / Terrasse-Vaudreuil
455057386;"{\"type\":\"LineString\",\"coordinates\":[[-73.9934289,45.3861925],[-73.9934972,45.3861132],[-73.9935014,45.3859889],[-73.9935006,45.3859294]]}";14;Boulevard Cardinal-Léger;2;50;false;true;true;false;false;false;31.0;0;0;0;0;0;false;72343;762420309;-73.991601;45.387962;72351;2186107594;-73.99324;45.384687;0;0;1;9469267;Bus 31 : Service PM;"";EXO;31 PM;Gare Pincourt / Terrasse-Vaudreuil;Gare Pincourt / Terrasse-Vaudreuil
769937208;"{\"type\":\"LineString\",\"coordinates\":[[-73.9935006,45.3859294],[-73.9934884,45.3858253],[-73.9934781,45.3857637]]}";15;Boulevard Cardinal-Léger;3;50;false;true;true;false;false;false;19.0;0;0;0;0;0;false;72343;762420309;-73.991601;45.387962;72351;2186107594;-73.99324;45.384687;0;0;1;9469267;Bus 31 : Service PM;"";EXO;31 PM;Gare Pincourt / Terrasse-Vaudreuil;Gare Pincourt / Terrasse-Vaudreuil
769937209;"{\"type\":\"LineString\",\"coordinates\":[[-73.9934781,45.3857637],[-73.9934504,45.3855986],[-73.9934255,45.3854818],[-73.9934163,45.3854463],[-73.9933994,45.3853596]]}";16;Boulevard Cardinal-Léger;4;50;false;true;true;false;false;false;46.0;1;0;0;0;0;false;72343;762420309;-73.991601;45.387962;72351;2186107594;-73.99324;45.384687;0;0;1;9469267;Bus 31 : Service PM;"";EXO;31 PM;Gare Pincourt / Terrasse-Vaudreuil;Gare Pincourt / Terrasse-Vaudreuil
683393905;"{\"type\":\"LineString\",\"coordinates\":[[-73.9933994,45.3853596],[-73.9933728,45.3852729]]}";17;Boulevard Cardinal-Léger;3;50;false;true;true;false;false;false;10.0;0;0;0;0;0;false;72343;762420309;-73.991601;45.387962;72351;2186107594;-73.99324;45.384687;0;0;1;9469267;Bus 31 : Service PM;"";EXO;31 PM;Gare Pincourt / Terrasse-Vaudreuil;Gare Pincourt / Terrasse-Vaudreuil
683402659;"{\"type\":\"LineString\",\"coordinates\":[[-73.9933728,45.3852729],[-73.9933521,45.3852162]]}";18;Boulevard Cardinal-Léger;2;50;false;true;true;false;false;false;7.0;0;1;0;0;0;false;72343;762420309;-73.991601;45.387962;72351;2186107594;-73.99324;45.384687;0;0;1;9469267;Bus 31 : Service PM;"";EXO;31 PM;Gare Pincourt / Terrasse-Vaudreuil;Gare Pincourt / Terrasse-Vaudreuil
778719200;"{\"type\":\"LineString\",\"coordinates\":[[-73.9933521,45.3852162],[-73.9930975,45.3846534],[-73.9930357,45.3845169],[-73.9928256,45.3840523],[-73.9928086,45.3840148],[-73.9927617,45.3839111]]}";19;Boulevard Cardinal-Léger;2;50;false;true;true;false;false;false;153.0;1;1;0;0;0;false;72343;762420309;-73.991601;45.387962;72351;2186107594;-73.99324;45.384687;2;0;1;9469267;Bus 31 : Service PM;"";EXO;31 PM;Gare Pincourt / Terrasse-Vaudreuil;Gare Pincourt / Terrasse-Vaudreuil
778719200;"{\"type\":\"LineString\",\"coordinates\":[[-73.9933521,45.3852162],[-73.9930975,45.3846534],[-73.9930357,45.3845169],[-73.9928256,45.3840523],[-73.9928086,45.3840148],[-73.9927617,45.3839111]]}";1;Boulevard Cardinal-Léger;2;50;false;true;true;false;false;false;76.5;1;1;0;0;0;false;72351;2186107594;-73.99324;45.384687;72309;2186107575;-73.992336;45.382942;1;1;2;9469267;Bus 31 : Service PM;"";EXO;31 PM;Gare Pincourt / Terrasse-Vaudreuil;Gare Pincourt / Terrasse-Vaudreuil
47459933;"{\"type\":\"LineString\",\"coordinates\":[[-73.9927617,45.3839111],[-73.9927218,45.3838244],[-73.9926671,45.3837052],[-73.9925992,45.3835576],[-73.9924618,45.3832588],[-73.992397,45.3831178],[-73.9923667,45.3830519],[-73.9922401,45.3827764],[-73.9921707,45.3826254],[-73.9920653,45.3823961]]}";2;Boulevard Cardinal-Léger;2;50;false;true;true;false;false;false;88.5;0;0;0;0;0;false;72351;2186107594;-73.99324;45.384687;72309;2186107575;-73.992336;45.382942;1;1;2;9469267;Bus 31 : Service PM;"";EXO;31 PM;Gare Pincourt / Terrasse-Vaudreuil;Gare Pincourt / Terrasse-Vaudreuil
47459931;"{\"type\":\"LineString\",\"coordinates\":[[-73.9906475,45.3794777],[-73.9906572,45.3795428],[-73.990668,45.3796147],[-73.9909278,45.3801865],[-73.991065,45.3804929],[-73.9912386,45.3808807],[-73.9913611,45.3811486],[-73.9914363,45.381313],[-73.991571,45.3816075],[-73.9915975,45.3816655],[-73.9916391,45.3817565],[-73.9916769,45.3818392],[-73.9916941,45.3818768],[-73.9917278,45.3819507],[-73.9917492,45.3819974],[-73.9917654,45.3820327],[-73.9918859,45.382295],[-73.9919439,45.3824213],[-73.99205,45.3826524],[-73.99212,45.3828047],[-73.9921356,45.3828386],[-73.9922461,45.3830792],[-73.9922765,45.3831456],[-73.992283,45.3831598],[-73.9923413,45.3832867],[-73.9923788,45.3833682],[-73.9924425,45.3835134],[-73.9925759,45.3838373],[-73.992584,45.3838566],[-73.9926208,45.3839413]]}";1;Boulevard Cardinal-Léger;2;50;false;true;true;false;false;false;520.0;2;2;0;0;0;false;72309;2186107575;-73.992336;45.382942;72342;6133274686;-73.991869;45.381805;2;2;3;9469267;Bus 31 : Service PM;"";EXO;31 PM;Gare Pincourt / Terrasse-Vaudreuil;Gare Pincourt / Terrasse-Vaudreuil
201487488;"{\"type\":\"LineString\",\"coordinates\":[[-73.9906475,45.3794777],[-73.9906172,45.3794119],[-73.9905941,45.3793617],[-73.9896913,45.3773961],[-73.9887479,45.3753675],[-73.9887244,45.3753169],[-73.9886973,45.375258],[-73.9884057,45.3746229],[-73.9879879,45.3737229],[-73.987956,45.3736573],[-73.9879231,45.3735837]]}";2;Boulevard Cardinal-Léger;2;30;false;false;false;false;false;false;689.0;1;1;2;0;0;false;72309;2186107575;-73.992336;45.382942;72342;6133274686;-73.991869;45.381805;0;2;3;9469267;Bus 31 : Service PM;"";EXO;31 PM;Gare Pincourt / Terrasse-Vaudreuil;Gare Pincourt / Terrasse-Vaudreuil
770081683;"{\"type\":\"LineString\",\"coordinates\":[[-73.9918286,45.3819289],[-73.9917934,45.3818515],[-73.9917393,45.3817328],[-73.9916727,45.3815863],[-73.9915369,45.381288],[-73.9914873,45.3811789],[-73.9914617,45.3811268],[-73.9913334,45.3808594],[-73.9911578,45.3804729],[-73.9910175,45.3801641],[-73.99076,45.3796011],[-73.9907026,45.3795347],[-73.9906475,45.3794777]]}";3;Boulevard Cardinal-Léger;2;50;false;true;true;false;false;false;289.0;0;1;1;0;0;false;72309;2186107575;-73.992336;45.382942;72342;6133274686;-73.991869;45.381805;2;2;3;9469267;Bus 31 : Service PM;"";EXO;31 PM;Gare Pincourt / Terrasse-Vaudreuil;Gare Pincourt / Terrasse-Vaudreuil
771079094;"{\"type\":\"LineString\",\"coordinates\":[[-73.9918492,45.3819732],[-73.9918286,45.3819289]]}";1;Boulevard Cardinal-Léger;3;50;false;true;true;false;false;false;6.0;0;0;0;0;0;false;72342;6133274686;-73.991869;45.381805;72317;6133274710;-73.991195;45.380265;2;3;4;9469267;Bus 31 : Service PM;"";EXO;31 PM;Gare Pincourt / Terrasse-Vaudreuil;Gare Pincourt / Terrasse-Vaudreuil
770081682;"{\"type\":\"LineString\",\"coordinates\":[[-73.9920653,45.3823961],[-73.9919808,45.3822356],[-73.9918856,45.3820548],[-73.9918675,45.3820114],[-73.9918492,45.3819732]]}";2;Boulevard Cardinal-Léger;3;50;false;true;true;false;false;false;50.0;1;1;0;0;0;false;72342;6133274686;-73.991869;45.381805;72317;6133274710;-73.991195;45.380265;0;3;4;9469267;Bus 31 : Service PM;"";EXO;31 PM;Gare Pincourt / Terrasse-Vaudreuil;Gare Pincourt / Terrasse-Vaudreuil
47459933;"{\"type\":\"LineString\",\"coordinates\":[[-73.9927617,45.3839111],[-73.9927218,45.3838244],[-73.9926671,45.3837052],[-73.9925992,45.3835576],[-73.9924618,45.3832588],[-73.992397,45.3831178],[-73.9923667,45.3830519],[-73.9922401,45.3827764],[-73.9921707,45.3826254],[-73.9920653,45.3823961]]}";3;Boulevard Cardinal-Léger;2;50;false;true;true;false;false;false;177.0;0;0;0;0;0;false;72342;6133274686;-73.991869;45.381805;72317;6133274710;-73.991195;45.380265;0;3;4;9469267;Bus 31 : Service PM;"";EXO;31 PM;Gare Pincourt / Terrasse-Vaudreuil;Gare Pincourt / Terrasse-Vaudreuil
778719200;"{\"type\":\"LineString\",\"coordinates\":[[-73.9933521,45.3852162],[-73.9930975,45.3846534],[-73.9930357,45.3845169],[-73.9928256,45.3840523],[-73.9928086,45.3840148],[-73.9927617,45.3839111]]}";4;Boulevard Cardinal-Léger;2;50;false;true;true;false;false;false;153.0;1;1;0;0;0;false;72342;6133274686;-73.991869;45.381805;72317;6133274710;-73.991195;45.380265;0;3;4;9469267;Bus 31 : Service PM;"";EXO;31 PM;Gare Pincourt / Terrasse-Vaudreuil;Gare Pincourt / Terrasse-Vaudreuil
683402659;"{\"type\":\"LineString\",\"coordinates\":[[-73.9933728,45.3852729],[-73.9933521,45.3852162]]}";5;Boulevard Cardinal-Léger;2;50;false;true;true;false;false;false;7.0;0;1;0;0;0;false;72342;6133274686;-73.991869;45.381805;72317;6133274710;-73.991195;45.380265;0;3;4;9469267;Bus 31 : Service PM;"";EXO;31 PM;Gare Pincourt / Terrasse-Vaudreuil;Gare Pincourt / Terrasse-Vaudreuil
683393905;"{\"type\":\"LineString\",\"coordinates\":[[-73.9933994,45.3853596],[-73.9933728,45.3852729]]}";6;Boulevard Cardinal-Léger;3;50;false;true;true;false;false;false;10.0;0;0;0;0;0;false;72342;6133274686;-73.991869;45.381805;72317;6133274710;-73.991195;45.380265;0;3;4;9469267;Bus 31 : Service PM;"";EXO;31 PM;Gare Pincourt / Terrasse-Vaudreuil;Gare Pincourt / Terrasse-Vaudreuil
769937209;"{\"type\":\"LineString\",\"coordinates\":[[-73.9934781,45.3857637],[-73.9934504,45.3855986],[-73.9934255,45.3854818],[-73.9934163,45.3854463],[-73.9933994,45.3853596]]}";7;Boulevard Cardinal-Léger;4;50;false;true;true;false;false;false;46.0;1;0;0;0;0;false;72342;6133274686;-73.991869;45.381805;72317;6133274710;-73.991195;45.380265;0;3;4;9469267;Bus 31 : Service PM;"";EXO;31 PM;Gare Pincourt / Terrasse-Vaudreuil;Gare Pincourt / Terrasse-Vaudreuil
769937208;"{\"type\":\"LineString\",\"coordinates\":[[-73.9935006,45.3859294],[-73.9934884,45.3858253],[-73.9934781,45.3857637]]}";8;Boulevard Cardinal-Léger;3;50;false;true;true;false;false;false;19.0;0;0;0;0;0;false;72342;6133274686;-73.991869;45.381805;72317;6133274710;-73.991195;45.380265;0;3;4;9469267;Bus 31 : Service PM;"";EXO;31 PM;Gare Pincourt / Terrasse-Vaudreuil;Gare Pincourt / Terrasse-Vaudreuil
455057386;"{\"type\":\"LineString\",\"coordinates\":[[-73.9934289,45.3861925],[-73.9934972,45.3861132],[-73.9935014,45.3859889],[-73.9935006,45.3859294]]}";9;Boulevard Cardinal-Léger;2;50;false;true;true;false;false;false;31.0;0;0;0;0;0;false;72342;6133274686;-73.991869;45.381805;72317;6133274710;-73.991195;45.380265;0;3;4;9469267;Bus 31 : Service PM;"";EXO;31 PM;Gare Pincourt / Terrasse-Vaudreuil;Gare Pincourt / Terrasse-Vaudreuil
455057389;"{\"type\":\"LineString\",\"coordinates\":[[-73.993233,45.3853707],[-73.9932486,45.3854562],[-73.9932952,45.3856808],[-73.9933204,45.3858734],[-73.9933425,45.3861117],[-73.9933524,45.386121],[-73.9934289,45.3861925]]}";10;Boulevard Cardinal-Léger;2;50;false;true;true;false;false;false;95.0;1;0;0;0;0;false;72342;6133274686;-73.991869;45.381805;72317;6133274710;-73.991195;45.380265;0;3;4;9469267;Bus 31 : Service PM;"";EXO;31 PM;Gare Pincourt / Terrasse-Vaudreuil;Gare Pincourt / Terrasse-Vaudreuil
474314585;"{\"type\":\"LineString\",\"coordinates\":[[-73.9932203,45.3852847],[-73.993233,45.3853707]]}";11;Boulevard Cardinal-Léger;3;50;false;true;true;false;false;false;10.0;0;0;0;0;0;false;72342;6133274686;-73.991869;45.381805;72317;6133274710;-73.991195;45.380265;0;3;4;9469267;Bus 31 : Service PM;"";EXO;31 PM;Gare Pincourt / Terrasse-Vaudreuil;Gare Pincourt / Terrasse-Vaudreuil
778719202;"{\"type\":\"LineString\",\"coordinates\":[[-73.993211,45.3852313],[-73.9932203,45.3852847]]}";12;Boulevard Cardinal-Léger;3;50;false;true;true;false;false;false;6.0;0;1;0;0;0;false;72342;6133274686;-73.991869;45.381805;72317;6133274710;-73.991195;45.380265;0;3;4;9469267;Bus 31 : Service PM;"";EXO;31 PM;Gare Pincourt / Terrasse-Vaudreuil;Gare Pincourt / Terrasse-Vaudreuil
474314586;"{\"type\":\"LineString\",\"coordinates\":[[-73.9930469,45.3848774],[-73.9931994,45.3851971],[-73.993211,45.3852313]]}";13;Boulevard Cardinal-Léger;3;50;false;true;true;false;false;false;42.0;1;1;0;0;0;false;72342;6133274686;-73.991869;45.381805;72317;6133274710;-73.991195;45.380265;0;3;4;9469267;Bus 31 : Service PM;"";EXO;31 PM;Gare Pincourt / Terrasse-Vaudreuil;Gare Pincourt / Terrasse-Vaudreuil
683402666;"{\"type\":\"LineString\",\"coordinates\":[[-73.9926208,45.3839413],[-73.9926675,45.3840422],[-73.9926866,45.3840863],[-73.9929385,45.3846444],[-73.9930037,45.3847855],[-73.9930469,45.3848774]]}";14;Boulevard Cardinal-Léger;2;50;false;true;true;false;false;false;110.0;0;0;0;0;0;false;72342;6133274686;-73.991869;45.381805;72317;6133274710;-73.991195;45.380265;0;3;4;9469267;Bus 31 : Service PM;"";EXO;31 PM;Gare Pincourt / Terrasse-Vaudreuil;Gare Pincourt / Terrasse-Vaudreuil
47459931;"{\"type\":\"LineString\",\"coordinates\":[[-73.9906475,45.3794777],[-73.9906572,45.3795428],[-73.990668,45.3796147],[-73.9909278,45.3801865],[-73.991065,45.3804929],[-73.9912386,45.3808807],[-73.9913611,45.3811486],[-73.9914363,45.381313],[-73.991571,45.3816075],[-73.9915975,45.3816655],[-73.9916391,45.3817565],[-73.9916769,45.3818392],[-73.9916941,45.3818768],[-73.9917278,45.3819507],[-73.9917492,45.3819974],[-73.9917654,45.3820327],[-73.9918859,45.382295],[-73.9919439,45.3824213],[-73.99205,45.3826524],[-73.99212,45.3828047],[-73.9921356,45.3828386],[-73.9922461,45.3830792],[-73.9922765,45.3831456],[-73.992283,45.3831598],[-73.9923413,45.3832867],[-73.9923788,45.3833682],[-73.9924425,45.3835134],[-73.9925759,45.3838373],[-73.992584,45.3838566],[-73.9926208,45.3839413]]}";15;Boulevard Cardinal-Léger;2;50;false;true;true;false;false;false;520.0;2;2;0;0;0;false;72342;6133274686;-73.991869;45.381805;72317;6133274710;-73.991195;45.380265;0;3;4;9469267;Bus 31 : Service PM;"";EXO;31 PM;Gare Pincourt / Terrasse-Vaudreuil;Gare Pincourt / Terrasse-Vaudreuil
770081683;"{\"type\":\"LineString\",\"coordinates\":[[-73.9918286,45.3819289],[-73.9917934,45.3818515],[-73.9917393,45.3817328],[-73.9916727,45.3815863],[-73.9915369,45.381288],[-73.9914873,45.3811789],[-73.9914617,45.3811268],[-73.9913334,45.3808594],[-73.9911578,45.3804729],[-73.9910175,45.3801641],[-73.99076,45.3796011],[-73.9907026,45.3795347],[-73.9906475,45.3794777]]}";16;Boulevard Cardinal-Léger;2;50;false;true;true;false;false;false;289.0;0;1;1;0;0;false;72342;6133274686;-73.991869;45.381805;72317;6133274710;-73.991195;45.380265;2;3;4;9469267;Bus 31 : Service PM;"";EXO;31 PM;Gare Pincourt / Terrasse-Vaudreuil;Gare Pincourt / Terrasse-Vaudreuil
47459931;"{\"type\":\"LineString\",\"coordinates\":[[-73.9906475,45.3794777],[-73.9906572,45.3795428],[-73.990668,45.3796147],[-73.9909278,45.3801865],[-73.991065,45.3804929],[-73.9912386,45.3808807],[-73.9913611,45.3811486],[-73.9914363,45.381313],[-73.991571,45.3816075],[-73.9915975,45.3816655],[-73.9916391,45.3817565],[-73.9916769,45.3818392],[-73.9916941,45.3818768],[-73.9917278,45.3819507],[-73.9917492,45.3819974],[-73.9917654,45.3820327],[-73.9918859,45.382295],[-73.9919439,45.3824213],[-73.99205,45.3826524],[-73.99212,45.3828047],[-73.9921356,45.3828386],[-73.9922461,45.3830792],[-73.9922765,45.3831456],[-73.992283,45.3831598],[-73.9923413,45.3832867],[-73.9923788,45.3833682],[-73.9924425,45.3835134],[-73.9925759,45.3838373],[-73.992584,45.3838566],[-73.9926208,45.3839413]]}";1;Boulevard Cardinal-Léger;2;50;false;true;true;false;false;false;520.0;2;2;0;0;0;false;72317;6133274710;-73.991195;45.380265;72349;6133274381;-73.989814;45.377472;2;4;5;9469267;Bus 31 : Service PM;"";EXO;31 PM;Gare Pincourt / Terrasse-Vaudreuil;Gare Pincourt / Terrasse-Vaudreuil
201487488;"{\"type\":\"LineString\",\"coordinates\":[[-73.9906475,45.3794777],[-73.9906172,45.3794119],[-73.9905941,45.3793617],[-73.9896913,45.3773961],[-73.9887479,45.3753675],[-73.9887244,45.3753169],[-73.9886973,45.375258],[-73.9884057,45.3746229],[-73.9879879,45.3737229],[-73.987956,45.3736573],[-73.9879231,45.3735837]]}";2;Boulevard Cardinal-Léger;2;30;false;false;false;false;false;false;689.0;1;1;2;0;0;false;72317;6133274710;-73.991195;45.380265;72349;6133274381;-73.989814;45.377472;2;4;5;9469267;Bus 31 : Service PM;"";EXO;31 PM;Gare Pincourt / Terrasse-Vaudreuil;Gare Pincourt / Terrasse-Vaudreuil
769506199;"{\"type\":\"LineString\",\"coordinates\":[[-73.9879231,45.3735837],[-73.9878893,45.373512]]}";1;Boulevard Cardinal-Léger;2;30;false;false;false;false;false;false;9.0;0;0;0;0;0;false;72334;6133274694;-73.988059;45.373654;72324;6133274703;-73.987637;45.37275;2;7;8;9469267;Bus 31 : Service PM;"";EXO;31 PM;Gare Pincourt / Terrasse-Vaudreuil;Gare Pincourt / Terrasse-Vaudreuil
769506183;"{\"type\":\"LineString\",\"coordinates\":[[-73.9878893,45.373512],[-73.9878585,45.3734442],[-73.9875001,45.3726763]]}";2;Boulevard Cardinal-Léger;2;30;false;false;false;false;false;false;98.0;0;0;1;0;0;false;72334;6133274694;-73.988059;45.373654;72324;6133274703;-73.987637;45.37275;2;7;8;9469267;Bus 31 : Service PM;"";EXO;31 PM;Gare Pincourt / Terrasse-Vaudreuil;Gare Pincourt / Terrasse-Vaudreuil
42353814;"{\"type\":\"LineString\",\"coordinates\":[[-73.9881435,45.3632977],[-73.9885624,45.3637617],[-73.9886206,45.3638231],[-73.98889,45.3641246],[-73.989144,45.3644136],[-73.989579,45.3648977],[-73.9896581,45.3649857],[-73.9897105,45.3650435],[-73.9899533,45.3653112],[-73.9901678,45.3655675],[-73.9902996,45.3657512],[-73.990456,45.3659801],[-73.9905755,45.3661735],[-73.9906985,45.3663841],[-73.9908032,45.3665818],[-73.9908516,45.3666842],[-73.9911296,45.3673062],[-73.9911637,45.3673824],[-73.9911969,45.3674573],[-73.991416,45.3679441],[-73.9914704,45.368065],[-73.9915089,45.3681509],[-73.991778,45.3687506],[-73.9917933,45.3687863],[-73.9920006,45.3692462],[-73.9922694,45.369809],[-73.9922937,45.3698565],[-73.9923597,45.3699987],[-73.9923688,45.3700184],[-73.9924436,45.3701794],[-73.9925519,45.3704267],[-73.9929313,45.3712937],[-73.9929467,45.3713288],[-73.9929652,45.3713711],[-73.9929976,45.3714447]]}";1;Boulevard Olympique;2;30;false;false;true;false;false;false;988.0;0;0;11;0;0;false;72283;6133274741;-73.988217;45.36334;72410;6133274339;-73.984258;45.36493;1;14;15;9469267;Bus 31 : Service PM;"";EXO;31 PM;Gare Pincourt / Terrasse-Vaudreuil;Gare Pincourt / Terrasse-Vaudreuil
42353784;"{\"type\":\"LineString\",\"coordinates\":[[-73.9841346,45.3649823],[-73.984185,45.3649816],[-73.9842351,45.3649737],[-73.9842987,45.3649528],[-73.9881435,45.3632977]]}";2;23e Avenue;2;30;false;false;true;false;false;false;367.0;0;0;2;0;0;false;72283;6133274741;-73.988217;45.36334;72410;6133274339;-73.984258;45.36493;2;14;15;9469267;Bus 31 : Service PM;"";EXO;31 PM;Gare Pincourt / Terrasse-Vaudreuil;Gare Pincourt / Terrasse-Vaudreuil
42353784;"{\"type\":\"LineString\",\"coordinates\":[[-73.9841346,45.3649823],[-73.984185,45.3649816],[-73.9842351,45.3649737],[-73.9842987,45.3649528],[-73.9881435,45.3632977]]}";1;23e Avenue;2;30;false;false;true;false;false;false;367.0;0;0;2;0;0;false;72410;6133274339;-73.984258;45.36493;72318;6133274709;-73.984535;45.366295;2;15;16;9469267;Bus 31 : Service PM;"";EXO;31 PM;Gare Pincourt / Terrasse-Vaudreuil;Gare Pincourt / Terrasse-Vaudreuil
682480340;"{\"type\":\"LineString\",\"coordinates\":[[-73.9845772,45.3663348],[-73.9845452,45.3662636],[-73.9845061,45.3661726],[-73.9842937,45.3656962],[-73.9842124,45.3654466],[-73.9841692,45.3652755],[-73.9841491,45.3651578],[-73.9841346,45.3649823]]}";2;Boulevard Cardinal-Léger;2;50;false;false;false;false;false;false;155.0;0;0;0;0;0;false;72410;6133274339;-73.984258;45.36493;72318;6133274709;-73.984535;45.366295;2;15;16;9469267;Bus 31 : Service PM;"";EXO;31 PM;Gare Pincourt / Terrasse-Vaudreuil;Gare Pincourt / Terrasse-Vaudreuil
42353751;"{\"type\":\"LineString\",\"coordinates\":[[-73.9845772,45.3663348],[-73.9844781,45.3663611],[-73.9844448,45.3663743],[-73.9843842,45.3663983],[-73.9840902,45.3665264],[-73.9839698,45.3665832],[-73.9838579,45.366644],[-73.9835984,45.3668063]]}";1;Boulevard de l'Île;1;50;false;true;false;false;false;false;94.0;0;0;0;0;0;false;72318;6133274709;-73.984535;45.366295;72285;2186107498;-73.98186;45.367466;2;16;17;9469267;Bus 31 : Service PM;"";EXO;31 PM;Gare Pincourt / Terrasse-Vaudreuil;Gare Pincourt / Terrasse-Vaudreuil
682480340;"{\"type\":\"LineString\",\"coordinates\":[[-73.9845772,45.3663348],[-73.9845452,45.3662636],[-73.9845061,45.3661726],[-73.9842937,45.3656962],[-73.9842124,45.3654466],[-73.9841692,45.3652755],[-73.9841491,45.3651578],[-73.9841346,45.3649823]]}";2;Boulevard Cardinal-Léger;2;50;false;false;false;false;false;false;155.0;0;0;0;0;0;false;72318;6133274709;-73.984535;45.366295;72285;2186107498;-73.98186;45.367466;0;16;17;9469267;Bus 31 : Service PM;"";EXO;31 PM;Gare Pincourt / Terrasse-Vaudreuil;Gare Pincourt / Terrasse-Vaudreuil
42353784;"{\"type\":\"LineString\",\"coordinates\":[[-73.9841346,45.3649823],[-73.984185,45.3649816],[-73.9842351,45.3649737],[-73.9842987,45.3649528],[-73.9881435,45.3632977]]}";3;23e Avenue;2;30;false;false;true;false;false;false;367.0;0;0;2;0;0;false;72318;6133274709;-73.984535;45.366295;72285;2186107498;-73.98186;45.367466;0;16;17;9469267;Bus 31 : Service PM;"";EXO;31 PM;Gare Pincourt / Terrasse-Vaudreuil;Gare Pincourt / Terrasse-Vaudreuil
682480334;"{\"type\":\"LineString\",\"coordinates\":[[-73.9841346,45.3649823],[-73.9841335,45.364918],[-73.9841328,45.3648784],[-73.9841302,45.3647642],[-73.9841329,45.36465],[-73.9841395,45.3644525],[-73.9841519,45.3641711],[-73.9841867,45.3636184],[-73.9842219,45.3630795]]}";4;Boulevard Cardinal-Léger;2;50;false;false;false;false;false;false;212.0;0;0;0;0;0;false;72318;6133274709;-73.984535;45.366295;72285;2186107498;-73.98186;45.367466;0;16;17;9469267;Bus 31 : Service PM;"";EXO;31 PM;Gare Pincourt / Terrasse-Vaudreuil;Gare Pincourt / Terrasse-Vaudreuil
125574434;"{\"type\":\"LineString\",\"coordinates\":[[-73.983301,45.363006],[-73.9837103,45.3630588],[-73.9840973,45.3630727],[-73.9842219,45.3630795]]}";5;Rue des Frênes;1;50;false;true;true;false;false;false;73.0;0;0;1;0;0;false;72318;6133274709;-73.984535;45.366295;72285;2186107498;-73.98186;45.367466;0;16;17;9469267;Bus 31 : Service PM;"";EXO;31 PM;Gare Pincourt / Terrasse-Vaudreuil;Gare Pincourt / Terrasse-Vaudreuil
125574433;"{\"type\":\"LineString\",\"coordinates\":[[-73.983301,45.363006],[-73.9830269,45.3629985]]}";6;Rue des Frênes;2;50;false;false;true;false;false;false;22.0;0;0;1;0;0;false;72318;6133274709;-73.984535;45.366295;72285;2186107498;-73.98186;45.367466;0;16;17;9469267;Bus 31 : Service PM;"";EXO;31 PM;Gare Pincourt / Terrasse-Vaudreuil;Gare Pincourt / Terrasse-Vaudreuil
42353748;"{\"type\":\"LineString\",\"coordinates\":[[-73.9830269,45.3629985],[-73.983008,45.3632443],[-73.9829656,45.3639256],[-73.9829379,45.3644288],[-73.9829412,45.3648351],[-73.9829357,45.3650046],[-73.9829013,45.3655577],[-73.9828903,45.3657649],[-73.9828931,45.3658419],[-73.9828988,45.3658995],[-73.9829157,45.3659605],[-73.9831218,45.3663924],[-73.9831702,45.3664744],[-73.9832223,45.366547],[-73.9834072,45.3667539],[-73.9834625,45.3668147],[-73.9834973,45.3668532]]}";7;Rue des Frênes;2;50;false;false;true;false;false;false;440.0;0;0;2;0;0;false;72318;6133274709;-73.984535;45.366295;72285;2186107498;-73.98186;45.367466;0;16;17;9469267;Bus 31 : Service PM;"";EXO;31 PM;Gare Pincourt / Terrasse-Vaudreuil;Gare Pincourt / Terrasse-Vaudreuil
682480338;"{\"type\":\"LineString\",\"coordinates\":[[-73.9834973,45.3668532],[-73.9833677,45.36691],[-73.9826524,45.3672236],[-73.9825242,45.3672798],[-73.9819407,45.3675374],[-73.9817833,45.3676094]]}";8;Boulevard de l'Île;2;50;false;false;false;false;false;false;159.0;0;0;1;0;0;false;72318;6133274709;-73.984535;45.366295;72285;2186107498;-73.98186;45.367466;2;16;17;9469267;Bus 31 : Service PM;"";EXO;31 PM;Gare Pincourt / Terrasse-Vaudreuil;Gare Pincourt / Terrasse-Vaudreuil
99410990;"{\"type\":\"LineString\",\"coordinates\":[[-73.9817833,45.3676094],[-73.9817493,45.3675721],[-73.9817218,45.3675438],[-73.9817034,45.3675164],[-73.9815803,45.3672078],[-73.9812814,45.3665644],[-73.9809336,45.3658126],[-73.9808978,45.365755],[-73.9808467,45.3656855],[-73.9807855,45.3656268],[-73.9807024,45.3655545],[-73.9805796,45.3654689],[-73.9803834,45.3653403],[-73.9799578,45.365059],[-73.9792954,45.3646208],[-73.9790407,45.3644589],[-73.9788015,45.3643136],[-73.9786355,45.3642577],[-73.9785448,45.3642389],[-73.9784431,45.3642278],[-73.9783362,45.3642261],[-73.9782438,45.3642376],[-73.9780983,45.3642667],[-73.978009,45.3642928],[-73.9779341,45.3643301],[-73.9772762,45.3647326],[-73.9770895,45.3648543],[-73.9769658,45.3649306],[-73.9768767,45.364984],[-73.9768012,45.3650199],[-73.9762798,45.3652364],[-73.9758451,45.3654177],[-73.9752468,45.3656593],[-73.9751688,45.3656989],[-73.9750484,45.3657703],[-73.9749391,45.365849],[-73.9748341,45.3659378],[-73.9747506,45.3660293],[-73.9746984,45.3661051],[-73.9746592,45.3661768],[-73.974624,45.3662628],[-73.9746012,45.3663292],[-73.9745807,45.3664048],[-73.9745743,45.3664827],[-73.9745802,45.3665549],[-73.974595,45.3666464],[-73.9746407,45.366809],[-73.9748157,45.3673844],[-73.9748609,45.3675265],[-73.9748996,45.3676247],[-73.9749421,45.3677182],[-73.9749966,45.3678117],[-73.97506,45.3679053],[-73.9751223,45.3679923],[-73.9751994,45.3680808],[-73.9752979,45.368177],[-73.9754036,45.3682689],[-73.975509,45.3683525],[-73.9756017,45.3684206],[-73.9756776,45.3684695],[-73.9758324,45.3685537],[-73.9759852,45.3686342],[-73.9761232,45.3686968],[-73.9762699,45.3687512],[-73.9763849,45.3687877],[-73.9765119,45.3688249],[-73.9766766,45.3688644],[-73.9767671,45.3688832],[-73.9768692,45.3689003],[-73.9769827,45.3689189],[-73.9770994,45.3689325],[-73.9773328,45.3689512],[-73.9782411,45.369025],[-73.9786546,45.3690597],[-73.9788231,45.3690822],[-73.9789776,45.36911],[-73.9791487,45.3691442],[-73.9791676,45.369148],[-73.9792735,45.3691698]]}";1;Rue du Suroît;2;50;false;false;true;false;false;false;1428.0;0;0;2;0;0;false;72285;2186107498;-73.98186;45.367466;72373;6133274370;-73.979284;45.369049;2;17;18;9469267;Bus 31 : Service PM;"";EXO;31 PM;Gare Pincourt / Terrasse-Vaudreuil;Gare Pincourt / Terrasse-Vaudreuil
208286762;"{\"type\":\"LineString\",\"coordinates\":[[-73.9797579,45.3685593],[-73.979657,45.3686348],[-73.9795799,45.3687054],[-73.9794956,45.3687948],[-73.9794235,45.3688917],[-73.9793675,45.368975],[-73.9793302,45.3690461],[-73.9792735,45.3691698]]}";2;Boulevard de l'Île;2;50;false;false;true;false;false;false;79.0;0;0;1;0;0;false;72285;2186107498;-73.98186;45.367466;72373;6133274370;-73.979284;45.369049;2;17;18;9469267;Bus 31 : Service PM;"";EXO;31 PM;Gare Pincourt / Terrasse-Vaudreuil;Gare Pincourt / Terrasse-Vaudreuil
99410990;"{\"type\":\"LineString\",\"coordinates\":[[-73.9817833,45.3676094],[-73.9817493,45.3675721],[-73.9817218,45.3675438],[-73.9817034,45.3675164],[-73.9815803,45.3672078],[-73.9812814,45.3665644],[-73.9809336,45.3658126],[-73.9808978,45.365755],[-73.9808467,45.3656855],[-73.9807855,45.3656268],[-73.9807024,45.3655545],[-73.9805796,45.3654689],[-73.9803834,45.3653403],[-73.9799578,45.365059],[-73.9792954,45.3646208],[-73.9790407,45.3644589],[-73.9788015,45.3643136],[-73.9786355,45.3642577],[-73.9785448,45.3642389],[-73.9784431,45.3642278],[-73.9783362,45.3642261],[-73.9782438,45.3642376],[-73.9780983,45.3642667],[-73.978009,45.3642928],[-73.9779341,45.3643301],[-73.9772762,45.3647326],[-73.9770895,45.3648543],[-73.9769658,45.3649306],[-73.9768767,45.364984],[-73.9768012,45.3650199],[-73.9762798,45.3652364],[-73.9758451,45.3654177],[-73.9752468,45.3656593],[-73.9751688,45.3656989],[-73.9750484,45.3657703],[-73.9749391,45.365849],[-73.9748341,45.3659378],[-73.9747506,45.3660293],[-73.9746984,45.3661051],[-73.9746592,45.3661768],[-73.974624,45.3662628],[-73.9746012,45.3663292],[-73.9745807,45.3664048],[-73.9745743,45.3664827],[-73.9745802,45.3665549],[-73.974595,45.3666464],[-73.9746407,45.366809],[-73.9748157,45.3673844],[-73.9748609,45.3675265],[-73.9748996,45.3676247],[-73.9749421,45.3677182],[-73.9749966,45.3678117],[-73.97506,45.3679053],[-73.9751223,45.3679923],[-73.9751994,45.3680808],[-73.9752979,45.368177],[-73.9754036,45.3682689],[-73.975509,45.3683525],[-73.9756017,45.3684206],[-73.9756776,45.3684695],[-73.9758324,45.3685537],[-73.9759852,45.3686342],[-73.9761232,45.3686968],[-73.9762699,45.3687512],[-73.9763849,45.3687877],[-73.9765119,45.3688249],[-73.9766766,45.3688644],[-73.9767671,45.3688832],[-73.9768692,45.3689003],[-73.9769827,45.3689189],[-73.9770994,45.3689325],[-73.9773328,45.3689512],[-73.9782411,45.369025],[-73.9786546,45.3690597],[-73.9788231,45.3690822],[-73.9789776,45.36911],[-73.9791487,45.3691442],[-73.9791676,45.369148],[-73.9792735,45.3691698]]}";1;Rue du Suroît;2;50;false;false;true;false;false;false;714.0;0;0;2;0;0;false;72407;2186107585;-73.979783;45.365011;72361;6133274371;-73.983056;45.363332;1;21;22;9469267;Bus 31 : Service PM;"";EXO;31 PM;Gare Pincourt / Terrasse-Vaudreuil;Gare Pincourt / Terrasse-Vaudreuil
208286762;"{\"type\":\"LineString\",\"coordinates\":[[-73.9797579,45.3685593],[-73.979657,45.3686348],[-73.9795799,45.3687054],[-73.9794956,45.3687948],[-73.9794235,45.3688917],[-73.9793675,45.368975],[-73.9793302,45.3690461],[-73.9792735,45.3691698]]}";2;Boulevard de l'Île;2;50;false;false;true;false;false;false;79.0;0;0;1;0;0;false;72407;2186107585;-73.979783;45.365011;72361;6133274371;-73.983056;45.363332;0;21;22;9469267;Bus 31 : Service PM;"";EXO;31 PM;Gare Pincourt / Terrasse-Vaudreuil;Gare Pincourt / Terrasse-Vaudreuil
772208693;"{\"type\":\"LineString\",\"coordinates\":[[-73.9798335,45.3685051],[-73.9797579,45.3685593]]}";3;Boulevard de l'Île;2;50;false;false;true;false;false;false;9.0;0;0;0;0;0;false;72407;2186107585;-73.979783;45.365011;72361;6133274371;-73.983056;45.363332;0;21;22;9469267;Bus 31 : Service PM;"";EXO;31 PM;Gare Pincourt / Terrasse-Vaudreuil;Gare Pincourt / Terrasse-Vaudreuil
179378718;"{\"type\":\"LineString\",\"coordinates\":[[-73.9817833,45.3676094],[-73.9817005,45.3676457],[-73.9808406,45.3680218],[-73.9804368,45.3682021],[-73.9801801,45.3683155],[-73.9800687,45.3683678],[-73.9799862,45.3684099],[-73.9799064,45.3684568],[-73.979852,45.3684918],[-73.9798335,45.3685051]]}";4;Boulevard de l'Île;2;50;false;false;false;false;false;false;183.0;0;0;1;0;0;false;72407;2186107585;-73.979783;45.365011;72361;6133274371;-73.983056;45.363332;0;21;22;9469267;Bus 31 : Service PM;"";EXO;31 PM;Gare Pincourt / Terrasse-Vaudreuil;Gare Pincourt / Terrasse-Vaudreuil
682480338;"{\"type\":\"LineString\",\"coordinates\":[[-73.9834973,45.3668532],[-73.9833677,45.36691],[-73.9826524,45.3672236],[-73.9825242,45.3672798],[-73.9819407,45.3675374],[-73.9817833,45.3676094]]}";5;Boulevard de l'Île;2;50;false;false;false;false;false;false;159.0;0;0;1;0;0;false;72407;2186107585;-73.979783;45.365011;72361;6133274371;-73.983056;45.363332;0;21;22;9469267;Bus 31 : Service PM;"";EXO;31 PM;Gare Pincourt / Terrasse-Vaudreuil;Gare Pincourt / Terrasse-Vaudreuil
769435629;"{\"type\":\"LineString\",\"coordinates\":[[-73.9835984,45.3668063],[-73.9834973,45.3668532]]}";6;Boulevard de l'Île;2;50;false;false;false;false;false;false;10.0;0;0;0;0;0;false;72407;2186107585;-73.979783;45.365011;72361;6133274371;-73.983056;45.363332;0;21;22;9469267;Bus 31 : Service PM;"";EXO;31 PM;Gare Pincourt / Terrasse-Vaudreuil;Gare Pincourt / Terrasse-Vaudreuil
42353748;"{\"type\":\"LineString\",\"coordinates\":[[-73.9830269,45.3629985],[-73.983008,45.3632443],[-73.9829656,45.3639256],[-73.9829379,45.3644288],[-73.9829412,45.3648351],[-73.9829357,45.3650046],[-73.9829013,45.3655577],[-73.9828903,45.3657649],[-73.9828931,45.3658419],[-73.9828988,45.3658995],[-73.9829157,45.3659605],[-73.9831218,45.3663924],[-73.9831702,45.3664744],[-73.9832223,45.366547],[-73.9834072,45.3667539],[-73.9834625,45.3668147],[-73.9834973,45.3668532]]}";7;Rue des Frênes;2;50;false;false;true;false;false;false;220.0;0;0;2;0;0;false;72407;2186107585;-73.979783;45.365011;72361;6133274371;-73.983056;45.363332;1;21;22;9469267;Bus 31 : Service PM;"";EXO;31 PM;Gare Pincourt / Terrasse-Vaudreuil;Gare Pincourt / Terrasse-Vaudreuil
42353748;"{\"type\":\"LineString\",\"coordinates\":[[-73.9830269,45.3629985],[-73.983008,45.3632443],[-73.9829656,45.3639256],[-73.9829379,45.3644288],[-73.9829412,45.3648351],[-73.9829357,45.3650046],[-73.9829013,45.3655577],[-73.9828903,45.3657649],[-73.9828931,45.3658419],[-73.9828988,45.3658995],[-73.9829157,45.3659605],[-73.9831218,45.3663924],[-73.9831702,45.3664744],[-73.9832223,45.366547],[-73.9834072,45.3667539],[-73.9834625,45.3668147],[-73.9834973,45.3668532]]}";1;Rue des Frênes;2;50;false;false;true;false;false;false;220.0;0;0;2;0;0;false;72361;6133274371;-73.983056;45.363332;72353;6133274379;-73.984081;45.363086;1;22;23;9469267;Bus 31 : Service PM;"";EXO;31 PM;Gare Pincourt / Terrasse-Vaudreuil;Gare Pincourt / Terrasse-Vaudreuil
682480338;"{\"type\":\"LineString\",\"coordinates\":[[-73.9834973,45.3668532],[-73.9833677,45.36691],[-73.9826524,45.3672236],[-73.9825242,45.3672798],[-73.9819407,45.3675374],[-73.9817833,45.3676094]]}";2;Boulevard de l'Île;2;50;false;false;false;false;false;false;159.0;0;0;1;0;0;false;72361;6133274371;-73.983056;45.363332;72353;6133274379;-73.984081;45.363086;0;22;23;9469267;Bus 31 : Service PM;"";EXO;31 PM;Gare Pincourt / Terrasse-Vaudreuil;Gare Pincourt / Terrasse-Vaudreuil
769435629;"{\"type\":\"LineString\",\"coordinates\":[[-73.9835984,45.3668063],[-73.9834973,45.3668532]]}";3;Boulevard de l'Île;2;50;false;false;false;false;false;false;10.0;0;0;0;0;0;false;72361;6133274371;-73.983056;45.363332;72353;6133274379;-73.984081;45.363086;0;22;23;9469267;Bus 31 : Service PM;"";EXO;31 PM;Gare Pincourt / Terrasse-Vaudreuil;Gare Pincourt / Terrasse-Vaudreuil
42353751;"{\"type\":\"LineString\",\"coordinates\":[[-73.9845772,45.3663348],[-73.9844781,45.3663611],[-73.9844448,45.3663743],[-73.9843842,45.3663983],[-73.9840902,45.3665264],[-73.9839698,45.3665832],[-73.9838579,45.366644],[-73.9835984,45.3668063]]}";4;Boulevard de l'Île;1;50;false;true;false;false;false;false;94.0;0;0;0;0;0;false;72361;6133274371;-73.983056;45.363332;72353;6133274379;-73.984081;45.363086;0;22;23;9469267;Bus 31 : Service PM;"";EXO;31 PM;Gare Pincourt / Terrasse-Vaudreuil;Gare Pincourt / Terrasse-Vaudreuil
682480340;"{\"type\":\"LineString\",\"coordinates\":[[-73.9845772,45.3663348],[-73.9845452,45.3662636],[-73.9845061,45.3661726],[-73.9842937,45.3656962],[-73.9842124,45.3654466],[-73.9841692,45.3652755],[-73.9841491,45.3651578],[-73.9841346,45.3649823]]}";5;Boulevard Cardinal-Léger;2;50;false;false;false;false;false;false;155.0;0;0;0;0;0;false;72361;6133274371;-73.983056;45.363332;72353;6133274379;-73.984081;45.363086;0;22;23;9469267;Bus 31 : Service PM;"";EXO;31 PM;Gare Pincourt / Terrasse-Vaudreuil;Gare Pincourt / Terrasse-Vaudreuil
42353784;"{\"type\":\"LineString\",\"coordinates\":[[-73.9841346,45.3649823],[-73.984185,45.3649816],[-73.9842351,45.3649737],[-73.9842987,45.3649528],[-73.9881435,45.3632977]]}";6;23e Avenue;2;30;false;false;true;false;false;false;367.0;0;0;2;0;0;false;72361;6133274371;-73.983056;45.363332;72353;6133274379;-73.984081;45.363086;0;22;23;9469267;Bus 31 : Service PM;"";EXO;31 PM;Gare Pincourt / Terrasse-Vaudreuil;Gare Pincourt / Terrasse-Vaudreuil
682480334;"{\"type\":\"LineString\",\"coordinates\":[[-73.9841346,45.3649823],[-73.9841335,45.364918],[-73.9841328,45.3648784],[-73.9841302,45.3647642],[-73.9841329,45.36465],[-73.9841395,45.3644525],[-73.9841519,45.3641711],[-73.9841867,45.3636184],[-73.9842219,45.3630795]]}";7;Boulevard Cardinal-Léger;2;50;false;false;false;false;false;false;212.0;0;0;0;0;0;false;72361;6133274371;-73.983056;45.363332;72353;6133274379;-73.984081;45.363086;0;22;23;9469267;Bus 31 : Service PM;"";EXO;31 PM;Gare Pincourt / Terrasse-Vaudreuil;Gare Pincourt / Terrasse-Vaudreuil
125574434;"{\"type\":\"LineString\",\"coordinates\":[[-73.983301,45.363006],[-73.9837103,45.3630588],[-73.9840973,45.3630727],[-73.9842219,45.3630795]]}";8;Rue des Frênes;1;50;false;true;true;false;false;false;36.5;0;0;1;0;0;false;72361;6133274371;-73.983056;45.363332;72353;6133274379;-73.984081;45.363086;1;22;23;9469267;Bus 31 : Service PM;"";EXO;31 PM;Gare Pincourt / Terrasse-Vaudreuil;Gare Pincourt / Terrasse-Vaudreuil
682480334;"{\"type\":\"LineString\",\"coordinates\":[[-73.9841346,45.3649823],[-73.9841335,45.364918],[-73.9841328,45.3648784],[-73.9841302,45.3647642],[-73.9841329,45.36465],[-73.9841395,45.3644525],[-73.9841519,45.3641711],[-73.9841867,45.3636184],[-73.9842219,45.3630795]]}";1;Boulevard Cardinal-Léger;2;50;false;false;false;false;false;false;212.0;0;0;0;0;0;false;72353;6133274379;-73.984081;45.363086;72359;6133274373;-73.981694;45.358252;2;23;24;9469267;Bus 31 : Service PM;"";EXO;31 PM;Gare Pincourt / Terrasse-Vaudreuil;Gare Pincourt / Terrasse-Vaudreuil
42353784;"{\"type\":\"LineString\",\"coordinates\":[[-73.9841346,45.3649823],[-73.984185,45.3649816],[-73.9842351,45.3649737],[-73.9842987,45.3649528],[-73.9881435,45.3632977]]}";2;23e Avenue;2;30;false;false;true;false;false;false;367.0;0;0;2;0;0;false;72353;6133274379;-73.984081;45.363086;72359;6133274373;-73.981694;45.358252;0;23;24;9469267;Bus 31 : Service PM;"";EXO;31 PM;Gare Pincourt / Terrasse-Vaudreuil;Gare Pincourt / Terrasse-Vaudreuil
682480340;"{\"type\":\"LineString\",\"coordinates\":[[-73.9845772,45.3663348],[-73.9845452,45.3662636],[-73.9845061,45.3661726],[-73.9842937,45.3656962],[-73.9842124,45.3654466],[-73.9841692,45.3652755],[-73.9841491,45.3651578],[-73.9841346,45.3649823]]}";3;Boulevard Cardinal-Léger;2;50;false;false;false;false;false;false;155.0;0;0;0;0;0;false;72353;6133274379;-73.984081;45.363086;72359;6133274373;-73.981694;45.358252;0;23;24;9469267;Bus 31 : Service PM;"";EXO;31 PM;Gare Pincourt / Terrasse-Vaudreuil;Gare Pincourt / Terrasse-Vaudreuil
42353751;"{\"type\":\"LineString\",\"coordinates\":[[-73.9845772,45.3663348],[-73.9844781,45.3663611],[-73.9844448,45.3663743],[-73.9843842,45.3663983],[-73.9840902,45.3665264],[-73.9839698,45.3665832],[-73.9838579,45.366644],[-73.9835984,45.3668063]]}";4;Boulevard de l'Île;1;50;false;true;false;false;false;false;94.0;0;0;0;0;0;false;72353;6133274379;-73.984081;45.363086;72359;6133274373;-73.981694;45.358252;0;23;24;9469267;Bus 31 : Service PM;"";EXO;31 PM;Gare Pincourt / Terrasse-Vaudreuil;Gare Pincourt / Terrasse-Vaudreuil
769435629;"{\"type\":\"LineString\",\"coordinates\":[[-73.9835984,45.3668063],[-73.9834973,45.3668532]]}";5;Boulevard de l'Île;2;50;false;false;false;false;false;false;10.0;0;0;0;0;0;false;72353;6133274379;-73.984081;45.363086;72359;6133274373;-73.981694;45.358252;0;23;24;9469267;Bus 31 : Service PM;"";EXO;31 PM;Gare Pincourt / Terrasse-Vaudreuil;Gare Pincourt / Terrasse-Vaudreuil
682480338;"{\"type\":\"LineString\",\"coordinates\":[[-73.9834973,45.3668532],[-73.9833677,45.36691],[-73.9826524,45.3672236],[-73.9825242,45.3672798],[-73.9819407,45.3675374],[-73.9817833,45.3676094]]}";6;Boulevard de l'Île;2;50;false;false;false;false;false;false;159.0;0;0;1;0;0;false;72353;6133274379;-73.984081;45.363086;72359;6133274373;-73.981694;45.358252;0;23;24;9469267;Bus 31 : Service PM;"";EXO;31 PM;Gare Pincourt / Terrasse-Vaudreuil;Gare Pincourt / Terrasse-Vaudreuil
42353748;"{\"type\":\"LineString\",\"coordinates\":[[-73.9830269,45.3629985],[-73.983008,45.3632443],[-73.9829656,45.3639256],[-73.9829379,45.3644288],[-73.9829412,45.3648351],[-73.9829357,45.3650046],[-73.9829013,45.3655577],[-73.9828903,45.3657649],[-73.9828931,45.3658419],[-73.9828988,45.3658995],[-73.9829157,45.3659605],[-73.9831218,45.3663924],[-73.9831702,45.3664744],[-73.9832223,45.366547],[-73.9834072,45.3667539],[-73.9834625,45.3668147],[-73.9834973,45.3668532]]}";7;Rue des Frênes;2;50;false;false;true;false;false;false;440.0;0;0;2;0;0;false;72353;6133274379;-73.984081;45.363086;72359;6133274373;-73.981694;45.358252;0;23;24;9469267;Bus 31 : Service PM;"";EXO;31 PM;Gare Pincourt / Terrasse-Vaudreuil;Gare Pincourt / Terrasse-Vaudreuil
125574433;"{\"type\":\"LineString\",\"coordinates\":[[-73.983301,45.363006],[-73.9830269,45.3629985]]}";8;Rue des Frênes;2;50;false;false;true;false;false;false;22.0;0;0;1;0;0;false;72353;6133274379;-73.984081;45.363086;72359;6133274373;-73.981694;45.358252;0;23;24;9469267;Bus 31 : Service PM;"";EXO;31 PM;Gare Pincourt / Terrasse-Vaudreuil;Gare Pincourt / Terrasse-Vaudreuil
125574434;"{\"type\":\"LineString\",\"coordinates\":[[-73.983301,45.363006],[-73.9837103,45.3630588],[-73.9840973,45.3630727],[-73.9842219,45.3630795]]}";9;Rue des Frênes;1;50;false;true;true;false;false;false;73.0;0;0;1;0;0;false;72353;6133274379;-73.984081;45.363086;72359;6133274373;-73.981694;45.358252;0;23;24;9469267;Bus 31 : Service PM;"";EXO;31 PM;Gare Pincourt / Terrasse-Vaudreuil;Gare Pincourt / Terrasse-Vaudreuil
682480339;"{\"type\":\"LineString\",\"coordinates\":[[-73.9842219,45.3630795],[-73.9842308,45.3629893]]}";10;Boulevard Cardinal-Léger;2;50;false;false;false;false;false;false;11.0;0;0;0;0;0;false;72353;6133274379;-73.984081;45.363086;72359;6133274373;-73.981694;45.358252;0;23;24;9469267;Bus 31 : Service PM;"";EXO;31 PM;Gare Pincourt / Terrasse-Vaudreuil;Gare Pincourt / Terrasse-Vaudreuil
179378711;"{\"type\":\"LineString\",\"coordinates\":[[-73.9842308,45.3629893],[-73.9842521,45.3627192],[-73.9842581,45.3625393],[-73.9842594,45.3623677],[-73.9842612,45.3622833],[-73.9842584,45.3621325],[-73.9842501,45.3620493],[-73.9842342,45.3619387],[-73.9842244,45.361896],[-73.9841949,45.3617855],[-73.9841588,45.3616815],[-73.9841288,45.3616078],[-73.9840987,45.3615449],[-73.9840454,45.3614581],[-73.9839886,45.3613686],[-73.9839113,45.3612576],[-73.9837862,45.3610828],[-73.9837271,45.3610032],[-73.9835334,45.3607541],[-73.9834321,45.3606164],[-73.9831647,45.3602586],[-73.9831168,45.3601943],[-73.9827669,45.3597377],[-73.9826929,45.3596412],[-73.9821581,45.3589393],[-73.9819259,45.3586357],[-73.9817434,45.3584068],[-73.981637,45.3582822],[-73.9815527,45.3581979]]}";11;Boulevard Cardinal-Léger;2;50;false;false;false;false;false;false;584.0;0;0;1;0;0;false;72353;6133274379;-73.984081;45.363086;72359;6133274373;-73.981694;45.358252;2;23;24;9469267;Bus 31 : Service PM;"";EXO;31 PM;Gare Pincourt / Terrasse-Vaudreuil;Gare Pincourt / Terrasse-Vaudreuil
42353754;"{\"type\":\"LineString\",\"coordinates\":[[-73.9815527,45.3581979],[-73.9814254,45.3582529],[-73.981152,45.3583755],[-73.9803206,45.3587543],[-73.979501,45.3591286],[-73.9786875,45.3595008]]}";1;3e Boulevard;2;30;false;false;true;false;false;false;267.0;0;0;2;0;0;false;72359;6133274373;-73.981694;45.358252;72357;6133274375;-73.977547;45.359943;3;24;25;9469267;Bus 31 : Service PM;"";EXO;31 PM;Gare Pincourt / Terrasse-Vaudreuil;Gare Pincourt / Terrasse-Vaudreuil
769390798;"{\"type\":\"LineString\",\"coordinates\":[[-73.9786875,45.3595008],[-73.9780813,45.3597785],[-73.977498,45.3600284]]}";2;3e Boulevard;2;30;false;false;true;false;false;false;111.0;0;0;1;0;0;false;72359;6133274373;-73.981694;45.358252;72357;6133274375;-73.977547;45.359943;3;24;25;9469267;Bus 31 : Service PM;"";EXO;31 PM;Gare Pincourt / Terrasse-Vaudreuil;Gare Pincourt / Terrasse-Vaudreuil
769390798;"{\"type\":\"LineString\",\"coordinates\":[[-73.9786875,45.3595008],[-73.9780813,45.3597785],[-73.977498,45.3600284]]}";1;3e Boulevard;2;30;false;false;true;false;false;false;111.0;0;0;1;0;0;false;72357;6133274375;-73.977547;45.359943;72355;6133274377;-73.976168;45.356668;2;25;26;9469267;Bus 31 : Service PM;"";EXO;31 PM;Gare Pincourt / Terrasse-Vaudreuil;Gare Pincourt / Terrasse-Vaudreuil
42353764;"{\"type\":\"LineString\",\"coordinates\":[[-73.9761247,45.3565276],[-73.9761171,45.3565503],[-73.9761131,45.3565758],[-73.9761135,45.356603],[-73.9761153,45.3566366],[-73.9761211,45.356666],[-73.9762781,45.3572072],[-73.976297,45.3572625],[-73.9763137,45.3573259],[-73.976338,45.3574058],[-73.9763842,45.3575175],[-73.9765204,45.3578104],[-73.9767275,45.3582356],[-73.9769467,45.3587333],[-73.9772179,45.3593609],[-73.977498,45.3600284]]}";2;44e Avenue;2;30;false;false;true;false;false;false;405.0;0;0;2;0;0;false;72357;6133274375;-73.977547;45.359943;72355;6133274377;-73.976168;45.356668;2;25;26;9469267;Bus 31 : Service PM;"";EXO;31 PM;Gare Pincourt / Terrasse-Vaudreuil;Gare Pincourt / Terrasse-Vaudreuil
42353764;"{\"type\":\"LineString\",\"coordinates\":[[-73.9761247,45.3565276],[-73.9761171,45.3565503],[-73.9761131,45.3565758],[-73.9761135,45.356603],[-73.9761153,45.3566366],[-73.9761211,45.356666],[-73.9762781,45.3572072],[-73.976297,45.3572625],[-73.9763137,45.3573259],[-73.976338,45.3574058],[-73.9763842,45.3575175],[-73.9765204,45.3578104],[-73.9767275,45.3582356],[-73.9769467,45.3587333],[-73.9772179,45.3593609],[-73.977498,45.3600284]]}";1;44e Avenue;2;30;false;false;true;false;false;false;405.0;0;0;2;0;0;false;72355;6133274377;-73.976168;45.356668;72350;2186107462;-73.992195;45.382983;2;26;27;9469267;Bus 31 : Service PM;"";EXO;31 PM;Gare Pincourt / Terrasse-Vaudreuil;Gare Pincourt / Terrasse-Vaudreuil
682480343;"{\"type\":\"LineString\",\"coordinates\":[[-73.9761247,45.3565276],[-73.9762619,45.3565498],[-73.976399,45.3565709],[-73.9766102,45.3566036],[-73.97672,45.3566184],[-73.9767855,45.3566273],[-73.9768734,45.3566391],[-73.9769618,45.3566509],[-73.977113,45.3566682],[-73.9772663,45.356683],[-73.9773887,45.356694],[-73.9774944,45.3567008],[-73.9776136,45.3567045],[-73.9778069,45.3567006],[-73.9788333,45.3566704],[-73.9788832,45.3566689],[-73.9789626,45.3566661],[-73.97906,45.3566626]]}";2;Chemin Duhamel;2;30;false;false;true;false;false;false;232.0;0;0;1;0;0;false;72355;6133274377;-73.976168;45.356668;72350;2186107462;-73.992195;45.382983;0;26;27;9469267;Bus 31 : Service PM;"";EXO;31 PM;Gare Pincourt / Terrasse-Vaudreuil;Gare Pincourt / Terrasse-Vaudreuil
474309300;"{\"type\":\"LineString\",\"coordinates\":[[-73.9793128,45.3569127],[-73.9792369,45.3568674],[-73.9791933,45.3568335],[-73.9791615,45.3568054],[-73.9791318,45.3567731],[-73.9790893,45.3567134],[-73.97906,45.3566626]]}";3;Boulevard Cardinal-Léger;2;50;false;false;true;false;false;false;35.0;0;0;1;0;0;false;72355;6133274377;-73.976168;45.356668;72350;2186107462;-73.992195;45.382983;0;26;27;9469267;Bus 31 : Service PM;"";EXO;31 PM;Gare Pincourt / Terrasse-Vaudreuil;Gare Pincourt / Terrasse-Vaudreuil
768687226;"{\"type\":\"LineString\",\"coordinates\":[[-73.9799857,45.3572495],[-73.9798153,45.3571642],[-73.9793128,45.3569127]]}";4;Boulevard Cardinal-Léger;2;50;false;false;true;false;false;false;65.0;0;0;0;0;0;false;72355;6133274377;-73.976168;45.356668;72350;2186107462;-73.992195;45.382983;0;26;27;9469267;Bus 31 : Service PM;"";EXO;31 PM;Gare Pincourt / Terrasse-Vaudreuil;Gare Pincourt / Terrasse-Vaudreuil
682480341;"{\"type\":\"LineString\",\"coordinates\":[[-73.9815527,45.3581979],[-73.9814769,45.3581254],[-73.9814075,45.3580698],[-73.9812679,45.3579706],[-73.9811516,45.3578908],[-73.9809934,45.3577896],[-73.980819,45.3576875],[-73.9807417,45.3576424],[-73.9806415,45.357585],[-73.9804221,45.3574689],[-73.9799857,45.3572495]]}";5;Boulevard Cardinal-Léger;2;50;false;false;false;false;false;false;163.0;0;0;1;0;0;false;72355;6133274377;-73.976168;45.356668;72350;2186107462;-73.992195;45.382983;0;26;27;9469267;Bus 31 : Service PM;"";EXO;31 PM;Gare Pincourt / Terrasse-Vaudreuil;Gare Pincourt / Terrasse-Vaudreuil
42353754;"{\"type\":\"LineString\",\"coordinates\":[[-73.9815527,45.3581979],[-73.9814254,45.3582529],[-73.981152,45.3583755],[-73.9803206,45.3587543],[-73.979501,45.3591286],[-73.9786875,45.3595008]]}";6;3e Boulevard;2;30;false;false;true;false;false;false;267.0;0;0;2;0;0;false;72355;6133274377;-73.976168;45.356668;72350;2186107462;-73.992195;45.382983;0;26;27;9469267;Bus 31 : Service PM;"";EXO;31 PM;Gare Pincourt / Terrasse-Vaudreuil;Gare Pincourt / Terrasse-Vaudreuil
179378711;"{\"type\":\"LineString\",\"coordinates\":[[-73.9842308,45.3629893],[-73.9842521,45.3627192],[-73.9842581,45.3625393],[-73.9842594,45.3623677],[-73.9842612,45.3622833],[-73.9842584,45.3621325],[-73.9842501,45.3620493],[-73.9842342,45.3619387],[-73.9842244,45.361896],[-73.9841949,45.3617855],[-73.9841588,45.3616815],[-73.9841288,45.3616078],[-73.9840987,45.3615449],[-73.9840454,45.3614581],[-73.9839886,45.3613686],[-73.9839113,45.3612576],[-73.9837862,45.3610828],[-73.9837271,45.3610032],[-73.9835334,45.3607541],[-73.9834321,45.3606164],[-73.9831647,45.3602586],[-73.9831168,45.3601943],[-73.9827669,45.3597377],[-73.9826929,45.3596412],[-73.9821581,45.3589393],[-73.9819259,45.3586357],[-73.9817434,45.3584068],[-73.981637,45.3582822],[-73.9815527,45.3581979]]}";7;Boulevard Cardinal-Léger;2;50;false;false;false;false;false;false;584.0;0;0;1;0;0;false;72355;6133274377;-73.976168;45.356668;72350;2186107462;-73.992195;45.382983;0;26;27;9469267;Bus 31 : Service PM;"";EXO;31 PM;Gare Pincourt / Terrasse-Vaudreuil;Gare Pincourt / Terrasse-Vaudreuil
682480339;"{\"type\":\"LineString\",\"coordinates\":[[-73.9842219,45.3630795],[-73.9842308,45.3629893]]}";8;Boulevard Cardinal-Léger;2;50;false;false;false;false;false;false;11.0;0;0;0;0;0;false;72355;6133274377;-73.976168;45.356668;72350;2186107462;-73.992195;45.382983;0;26;27;9469267;Bus 31 : Service PM;"";EXO;31 PM;Gare Pincourt / Terrasse-Vaudreuil;Gare Pincourt / Terrasse-Vaudreuil
682480334;"{\"type\":\"LineString\",\"coordinates\":[[-73.9841346,45.3649823],[-73.9841335,45.364918],[-73.9841328,45.3648784],[-73.9841302,45.3647642],[-73.9841329,45.36465],[-73.9841395,45.3644525],[-73.9841519,45.3641711],[-73.9841867,45.3636184],[-73.9842219,45.3630795]]}";9;Boulevard Cardinal-Léger;2;50;false;false;false;false;false;false;212.0;0;0;0;0;0;false;72355;6133274377;-73.976168;45.356668;72350;2186107462;-73.992195;45.382983;0;26;27;9469267;Bus 31 : Service PM;"";EXO;31 PM;Gare Pincourt / Terrasse-Vaudreuil;Gare Pincourt / Terrasse-Vaudreuil
42353784;"{\"type\":\"LineString\",\"coordinates\":[[-73.9841346,45.3649823],[-73.984185,45.3649816],[-73.9842351,45.3649737],[-73.9842987,45.3649528],[-73.9881435,45.3632977]]}";10;23e Avenue;2;30;false;false;true;false;false;false;367.0;0;0;2;0;0;false;72355;6133274377;-73.976168;45.356668;72350;2186107462;-73.992195;45.382983;0;26;27;9469267;Bus 31 : Service PM;"";EXO;31 PM;Gare Pincourt / Terrasse-Vaudreuil;Gare Pincourt / Terrasse-Vaudreuil
682480340;"{\"type\":\"LineString\",\"coordinates\":[[-73.9845772,45.3663348],[-73.9845452,45.3662636],[-73.9845061,45.3661726],[-73.9842937,45.3656962],[-73.9842124,45.3654466],[-73.9841692,45.3652755],[-73.9841491,45.3651578],[-73.9841346,45.3649823]]}";11;Boulevard Cardinal-Léger;2;50;false;false;false;false;false;false;155.0;0;0;0;0;0;false;72355;6133274377;-73.976168;45.356668;72350;2186107462;-73.992195;45.382983;0;26;27;9469267;Bus 31 : Service PM;"";EXO;31 PM;Gare Pincourt / Terrasse-Vaudreuil;Gare Pincourt / Terrasse-Vaudreuil
682480335;"{\"type\":\"LineString\",\"coordinates\":[[-73.9846147,45.3664159],[-73.9845772,45.3663348]]}";12;Boulevard Cardinal-Léger;2;50;false;false;false;false;false;false;10.0;0;0;0;0;0;false;72355;6133274377;-73.976168;45.356668;72350;2186107462;-73.992195;45.382983;0;26;27;9469267;Bus 31 : Service PM;"";EXO;31 PM;Gare Pincourt / Terrasse-Vaudreuil;Gare Pincourt / Terrasse-Vaudreuil
682480344;"{\"type\":\"LineString\",\"coordinates\":[[-73.9866288,45.3708633],[-73.9860798,45.3696214],[-73.9860409,45.3695295],[-73.9855867,45.3685327],[-73.9853036,45.3679177],[-73.9846549,45.3665035],[-73.9846472,45.3664867],[-73.9846147,45.3664159]]}";13;Boulevard Cardinal-Léger;2;50;false;false;false;false;false;false;519.0;0;0;0;0;0;false;72355;6133274377;-73.976168;45.356668;72350;2186107462;-73.992195;45.382983;0;26;27;9469267;Bus 31 : Service PM;"";EXO;31 PM;Gare Pincourt / Terrasse-Vaudreuil;Gare Pincourt / Terrasse-Vaudreuil
179377834;"{\"type\":\"LineString\",\"coordinates\":[[-73.9875001,45.3726763],[-73.9866288,45.3708633]]}";14;Boulevard Cardinal-Léger;2;30;false;false;true;false;false;false;213.0;0;0;0;0;0;false;72355;6133274377;-73.976168;45.356668;72350;2186107462;-73.992195;45.382983;0;26;27;9469267;Bus 31 : Service PM;"";EXO;31 PM;Gare Pincourt / Terrasse-Vaudreuil;Gare Pincourt / Terrasse-Vaudreuil
42353805;"{\"type\":\"LineString\",\"coordinates\":[[-73.9929976,45.3714447],[-73.992354,45.3715832],[-73.9913842,45.3717967],[-73.9905691,45.3719799],[-73.9903023,45.3720374],[-73.9896555,45.3721835],[-73.9895565,45.3722059],[-73.9895209,45.372214],[-73.9893803,45.372246],[-73.9893511,45.3722526],[-73.988747,45.3723895],[-73.9884605,45.3724544],[-73.9876197,45.3726449],[-73.9875564,45.3726615],[-73.9875001,45.3726763]]}";15;Avenue Lussier;2;30;false;false;true;false;false;false;452.0;0;0;3;0;0;false;72355;6133274377;-73.976168;45.356668;72350;2186107462;-73.992195;45.382983;0;26;27;9469267;Bus 31 : Service PM;"";EXO;31 PM;Gare Pincourt / Terrasse-Vaudreuil;Gare Pincourt / Terrasse-Vaudreuil
769506183;"{\"type\":\"LineString\",\"coordinates\":[[-73.9878893,45.373512],[-73.9878585,45.3734442],[-73.9875001,45.3726763]]}";16;Boulevard Cardinal-Léger;2;30;false;false;false;false;false;false;98.0;0;0;1;0;0;false;72355;6133274377;-73.976168;45.356668;72350;2186107462;-73.992195;45.382983;0;26;27;9469267;Bus 31 : Service PM;"";EXO;31 PM;Gare Pincourt / Terrasse-Vaudreuil;Gare Pincourt / Terrasse-Vaudreuil
769506199;"{\"type\":\"LineString\",\"coordinates\":[[-73.9879231,45.3735837],[-73.9878893,45.373512]]}";17;Boulevard Cardinal-Léger;2;30;false;false;false;false;false;false;9.0;0;0;0;0;0;false;72355;6133274377;-73.976168;45.356668;72350;2186107462;-73.992195;45.382983;0;26;27;9469267;Bus 31 : Service PM;"";EXO;31 PM;Gare Pincourt / Terrasse-Vaudreuil;Gare Pincourt / Terrasse-Vaudreuil
201487488;"{\"type\":\"LineString\",\"coordinates\":[[-73.9906475,45.3794777],[-73.9906172,45.3794119],[-73.9905941,45.3793617],[-73.9896913,45.3773961],[-73.9887479,45.3753675],[-73.9887244,45.3753169],[-73.9886973,45.375258],[-73.9884057,45.3746229],[-73.9879879,45.3737229],[-73.987956,45.3736573],[-73.9879231,45.3735837]]}";18;Boulevard Cardinal-Léger;2;30;false;false;false;false;false;false;689.0;1;1;2;0;0;false;72355;6133274377;-73.976168;45.356668;72350;2186107462;-73.992195;45.382983;0;26;27;9469267;Bus 31 : Service PM;"";EXO;31 PM;Gare Pincourt / Terrasse-Vaudreuil;Gare Pincourt / Terrasse-Vaudreuil
47459931;"{\"type\":\"LineString\",\"coordinates\":[[-73.9906475,45.3794777],[-73.9906572,45.3795428],[-73.990668,45.3796147],[-73.9909278,45.3801865],[-73.991065,45.3804929],[-73.9912386,45.3808807],[-73.9913611,45.3811486],[-73.9914363,45.381313],[-73.991571,45.3816075],[-73.9915975,45.3816655],[-73.9916391,45.3817565],[-73.9916769,45.3818392],[-73.9916941,45.3818768],[-73.9917278,45.3819507],[-73.9917492,45.3819974],[-73.9917654,45.3820327],[-73.9918859,45.382295],[-73.9919439,45.3824213],[-73.99205,45.3826524],[-73.99212,45.3828047],[-73.9921356,45.3828386],[-73.9922461,45.3830792],[-73.9922765,45.3831456],[-73.992283,45.3831598],[-73.9923413,45.3832867],[-73.9923788,45.3833682],[-73.9924425,45.3835134],[-73.9925759,45.3838373],[-73.992584,45.3838566],[-73.9926208,45.3839413]]}";19;Boulevard Cardinal-Léger;2;50;false;true;true;false;false;false;520.0;2;2;0;0;0;false;72355;6133274377;-73.976168;45.356668;72350;2186107462;-73.992195;45.382983;2;26;27;9469267;Bus 31 : Service PM;"";EXO;31 PM;Gare Pincourt / Terrasse-Vaudreuil;Gare Pincourt / Terrasse-Vaudreuil
47459931;"{\"type\":\"LineString\",\"coordinates\":[[-73.9906475,45.3794777],[-73.9906572,45.3795428],[-73.990668,45.3796147],[-73.9909278,45.3801865],[-73.991065,45.3804929],[-73.9912386,45.3808807],[-73.9913611,45.3811486],[-73.9914363,45.381313],[-73.991571,45.3816075],[-73.9915975,45.3816655],[-73.9916391,45.3817565],[-73.9916769,45.3818392],[-73.9916941,45.3818768],[-73.9917278,45.3819507],[-73.9917492,45.3819974],[-73.9917654,45.3820327],[-73.9918859,45.382295],[-73.9919439,45.3824213],[-73.99205,45.3826524],[-73.99212,45.3828047],[-73.9921356,45.3828386],[-73.9922461,45.3830792],[-73.9922765,45.3831456],[-73.992283,45.3831598],[-73.9923413,45.3832867],[-73.9923788,45.3833682],[-73.9924425,45.3835134],[-73.9925759,45.3838373],[-73.992584,45.3838566],[-73.9926208,45.3839413]]}";1;Boulevard Cardinal-Léger;2;50;false;true;true;false;false;false;520.0;2;2;0;0;0;false;72350;2186107462;-73.992195;45.382983;72310;2186107424;-73.992894;45.384737;2;27;28;9469267;Bus 31 : Service PM;"";EXO;31 PM;Gare Pincourt / Terrasse-Vaudreuil;Gare Pincourt / Terrasse-Vaudreuil
683402666;"{\"type\":\"LineString\",\"coordinates\":[[-73.9926208,45.3839413],[-73.9926675,45.3840422],[-73.9926866,45.3840863],[-73.9929385,45.3846444],[-73.9930037,45.3847855],[-73.9930469,45.3848774]]}";2;Boulevard Cardinal-Léger;2;50;false;true;true;false;false;false;110.0;0;0;0;0;0;false;72350;2186107462;-73.992195;45.382983;72310;2186107424;-73.992894;45.384737;2;27;28;9469267;Bus 31 : Service PM;"";EXO;31 PM;Gare Pincourt / Terrasse-Vaudreuil;Gare Pincourt / Terrasse-Vaudreuil
778719200;"{\"type\":\"LineString\",\"coordinates\":[[-73.9933521,45.3852162],[-73.9930975,45.3846534],[-73.9930357,45.3845169],[-73.9928256,45.3840523],[-73.9928086,45.3840148],[-73.9927617,45.3839111]]}";1;Boulevard Cardinal-Léger;2;50;false;true;true;false;false;false;153.0;1;1;0;0;0;false;72310;2186107424;-73.992894;45.384737;72343;762420309;-73.991601;45.387962;2;28;29;9469267;Bus 31 : Service PM;"";EXO;31 PM;Gare Pincourt / Terrasse-Vaudreuil;Gare Pincourt / Terrasse-Vaudreuil
47459933;"{\"type\":\"LineString\",\"coordinates\":[[-73.9927617,45.3839111],[-73.9927218,45.3838244],[-73.9926671,45.3837052],[-73.9925992,45.3835576],[-73.9924618,45.3832588],[-73.992397,45.3831178],[-73.9923667,45.3830519],[-73.9922401,45.3827764],[-73.9921707,45.3826254],[-73.9920653,45.3823961]]}";2;Boulevard Cardinal-Léger;2;50;false;true;true;false;false;false;177.0;0;0;0;0;0;false;72310;2186107424;-73.992894;45.384737;72343;762420309;-73.991601;45.387962;0;28;29;9469267;Bus 31 : Service PM;"";EXO;31 PM;Gare Pincourt / Terrasse-Vaudreuil;Gare Pincourt / Terrasse-Vaudreuil
770081682;"{\"type\":\"LineString\",\"coordinates\":[[-73.9920653,45.3823961],[-73.9919808,45.3822356],[-73.9918856,45.3820548],[-73.9918675,45.3820114],[-73.9918492,45.3819732]]}";3;Boulevard Cardinal-Léger;3;50;false;true;true;false;false;false;50.0;1;1;0;0;0;false;72310;2186107424;-73.992894;45.384737;72343;762420309;-73.991601;45.387962;0;28;29;9469267;Bus 31 : Service PM;"";EXO;31 PM;Gare Pincourt / Terrasse-Vaudreuil;Gare Pincourt / Terrasse-Vaudreuil
771079094;"{\"type\":\"LineString\",\"coordinates\":[[-73.9918492,45.3819732],[-73.9918286,45.3819289]]}";4;Boulevard Cardinal-Léger;3;50;false;true;true;false;false;false;6.0;0;0;0;0;0;false;72310;2186107424;-73.992894;45.384737;72343;762420309;-73.991601;45.387962;0;28;29;9469267;Bus 31 : Service PM;"";EXO;31 PM;Gare Pincourt / Terrasse-Vaudreuil;Gare Pincourt / Terrasse-Vaudreuil
770081683;"{\"type\":\"LineString\",\"coordinates\":[[-73.9918286,45.3819289],[-73.9917934,45.3818515],[-73.9917393,45.3817328],[-73.9916727,45.3815863],[-73.9915369,45.381288],[-73.9914873,45.3811789],[-73.9914617,45.3811268],[-73.9913334,45.3808594],[-73.9911578,45.3804729],[-73.9910175,45.3801641],[-73.99076,45.3796011],[-73.9907026,45.3795347],[-73.9906475,45.3794777]]}";5;Boulevard Cardinal-Léger;2;50;false;true;true;false;false;false;289.0;0;1;1;0;0;false;72310;2186107424;-73.992894;45.384737;72343;762420309;-73.991601;45.387962;0;28;29;9469267;Bus 31 : Service PM;"";EXO;31 PM;Gare Pincourt / Terrasse-Vaudreuil;Gare Pincourt / Terrasse-Vaudreuil
47459931;"{\"type\":\"LineString\",\"coordinates\":[[-73.9906475,45.3794777],[-73.9906572,45.3795428],[-73.990668,45.3796147],[-73.9909278,45.3801865],[-73.991065,45.3804929],[-73.9912386,45.3808807],[-73.9913611,45.3811486],[-73.9914363,45.381313],[-73.991571,45.3816075],[-73.9915975,45.3816655],[-73.9916391,45.3817565],[-73.9916769,45.3818392],[-73.9916941,45.3818768],[-73.9917278,45.3819507],[-73.9917492,45.3819974],[-73.9917654,45.3820327],[-73.9918859,45.382295],[-73.9919439,45.3824213],[-73.99205,45.3826524],[-73.99212,45.3828047],[-73.9921356,45.3828386],[-73.9922461,45.3830792],[-73.9922765,45.3831456],[-73.992283,45.3831598],[-73.9923413,45.3832867],[-73.9923788,45.3833682],[-73.9924425,45.3835134],[-73.9925759,45.3838373],[-73.992584,45.3838566],[-73.9926208,45.3839413]]}";6;Boulevard Cardinal-Léger;2;50;false;true;true;false;false;false;520.0;2;2;0;0;0;false;72310;2186107424;-73.992894;45.384737;72343;762420309;-73.991601;45.387962;0;28;29;9469267;Bus 31 : Service PM;"";EXO;31 PM;Gare Pincourt / Terrasse-Vaudreuil;Gare Pincourt / Terrasse-Vaudreuil
683402666;"{\"type\":\"LineString\",\"coordinates\":[[-73.9926208,45.3839413],[-73.9926675,45.3840422],[-73.9926866,45.3840863],[-73.9929385,45.3846444],[-73.9930037,45.3847855],[-73.9930469,45.3848774]]}";7;Boulevard Cardinal-Léger;2;50;false;true;true;false;false;false;110.0;0;0;0;0;0;false;72310;2186107424;-73.992894;45.384737;72343;762420309;-73.991601;45.387962;0;28;29;9469267;Bus 31 : Service PM;"";EXO;31 PM;Gare Pincourt / Terrasse-Vaudreuil;Gare Pincourt / Terrasse-Vaudreuil
474314586;"{\"type\":\"LineString\",\"coordinates\":[[-73.9930469,45.3848774],[-73.9931994,45.3851971],[-73.993211,45.3852313]]}";8;Boulevard Cardinal-Léger;3;50;false;true;true;false;false;false;42.0;1;1;0;0;0;false;72310;2186107424;-73.992894;45.384737;72343;762420309;-73.991601;45.387962;0;28;29;9469267;Bus 31 : Service PM;"";EXO;31 PM;Gare Pincourt / Terrasse-Vaudreuil;Gare Pincourt / Terrasse-Vaudreuil
778719202;"{\"type\":\"LineString\",\"coordinates\":[[-73.993211,45.3852313],[-73.9932203,45.3852847]]}";9;Boulevard Cardinal-Léger;3;50;false;true;true;false;false;false;6.0;0;1;0;0;0;false;72310;2186107424;-73.992894;45.384737;72343;762420309;-73.991601;45.387962;0;28;29;9469267;Bus 31 : Service PM;"";EXO;31 PM;Gare Pincourt / Terrasse-Vaudreuil;Gare Pincourt / Terrasse-Vaudreuil
474314585;"{\"type\":\"LineString\",\"coordinates\":[[-73.9932203,45.3852847],[-73.993233,45.3853707]]}";10;Boulevard Cardinal-Léger;3;50;false;true;true;false;false;false;10.0;0;0;0;0;0;false;72310;2186107424;-73.992894;45.384737;72343;762420309;-73.991601;45.387962;0;28;29;9469267;Bus 31 : Service PM;"";EXO;31 PM;Gare Pincourt / Terrasse-Vaudreuil;Gare Pincourt / Terrasse-Vaudreuil
455057389;"{\"type\":\"LineString\",\"coordinates\":[[-73.993233,45.3853707],[-73.9932486,45.3854562],[-73.9932952,45.3856808],[-73.9933204,45.3858734],[-73.9933425,45.3861117],[-73.9933524,45.386121],[-73.9934289,45.3861925]]}";11;Boulevard Cardinal-Léger;2;50;false;true;true;false;false;false;95.0;1;0;0;0;0;false;72310;2186107424;-73.992894;45.384737;72343;762420309;-73.991601;45.387962;0;28;29;9469267;Bus 31 : Service PM;"";EXO;31 PM;Gare Pincourt / Terrasse-Vaudreuil;Gare Pincourt / Terrasse-Vaudreuil
197189768;"{\"type\":\"LineString\",\"coordinates\":[[-73.9934289,45.3861925],[-73.9934263,45.386256],[-73.9934269,45.3862718],[-73.9934483,45.3866308],[-73.9934515,45.3866975]]}";12;Boulevard Cardinal-Léger;4;50;false;false;true;false;false;false;57.0;2;0;0;0;0;false;72310;2186107424;-73.992894;45.384737;72343;762420309;-73.991601;45.387962;0;28;29;9469267;Bus 31 : Service PM;"";EXO;31 PM;Gare Pincourt / Terrasse-Vaudreuil;Gare Pincourt / Terrasse-Vaudreuil
197189777;"{\"type\":\"LineString\",\"coordinates\":[[-73.9926939,45.3867474],[-73.9932091,45.386713],[-73.9933267,45.3867051],[-73.9934515,45.3866975]]}";13;3e Avenue;3;50;false;false;true;false;false;false;60.0;1;0;0;0;0;false;72310;2186107424;-73.992894;45.384737;72343;762420309;-73.991601;45.387962;0;28;29;9469267;Bus 31 : Service PM;"";EXO;31 PM;Gare Pincourt / Terrasse-Vaudreuil;Gare Pincourt / Terrasse-Vaudreuil
47459936;"{\"type\":\"LineString\",\"coordinates\":[[-73.9926939,45.3867474],[-73.9922407,45.3867508],[-73.9919818,45.3867457],[-73.991752,45.3867355],[-73.9916697,45.3867362],[-73.9915939,45.3867436],[-73.9915129,45.3867651],[-73.991459,45.386788],[-73.9914195,45.3868116],[-73.9913848,45.3868362]]}";14;3e Avenue;1;50;false;true;true;false;false;false;106.0;1;0;0;0;0;false;72310;2186107424;-73.992894;45.384737;72343;762420309;-73.991601;45.387962;0;28;29;9469267;Bus 31 : Service PM;"";EXO;31 PM;Gare Pincourt / Terrasse-Vaudreuil;Gare Pincourt / Terrasse-Vaudreuil
533369993;"{\"type\":\"LineString\",\"coordinates\":[[-73.9917352,45.3868278],[-73.9919139,45.3868205],[-73.9920231,45.3868167],[-73.9922753,45.3868052],[-73.992436,45.3867911],[-73.9926939,45.3867474]]}";15;3e Avenue;2;50;false;true;true;false;false;false;76.0;0;0;0;0;0;false;72310;2186107424;-73.992894;45.384737;72343;762420309;-73.991601;45.387962;0;28;29;9469267;Bus 31 : Service PM;"";EXO;31 PM;Gare Pincourt / Terrasse-Vaudreuil;Gare Pincourt / Terrasse-Vaudreuil
42321743;"{\"type\":\"LineString\",\"coordinates\":[[-73.9913541,45.3870087],[-73.9914443,45.3869304],[-73.991482,45.3869057],[-73.9915345,45.3868805],[-73.9915688,45.386869],[-73.9917352,45.3868278]]}";16;3e Avenue;1;50;false;true;true;false;false;false;37.0;0;0;0;0;0;false;72310;2186107424;-73.992894;45.384737;72343;762420309;-73.991601;45.387962;0;28;29;9469267;Bus 31 : Service PM;"";EXO;31 PM;Gare Pincourt / Terrasse-Vaudreuil;Gare Pincourt / Terrasse-Vaudreuil
533369994;"{\"type\":\"LineString\",\"coordinates\":[[-73.9913848,45.3868362],[-73.9913645,45.3868696],[-73.991356,45.3869016],[-73.9913547,45.3869336],[-73.9913553,45.386968],[-73.9913541,45.3870087]]}";17;3e Avenue;1;50;false;true;true;false;false;false;20.0;0;0;0;0;0;false;72310;2186107424;-73.992894;45.384737;72343;762420309;-73.991601;45.387962;0;28;29;9469267;Bus 31 : Service PM;"";EXO;31 PM;Gare Pincourt / Terrasse-Vaudreuil;Gare Pincourt / Terrasse-Vaudreuil
196778897;"{\"type\":\"LineString\",\"coordinates\":[[-73.9913541,45.3870087],[-73.9913393,45.3870266],[-73.9913123,45.3870664],[-73.9912469,45.3871513],[-73.9911904,45.387229],[-73.9911641,45.3872691],[-73.9910918,45.3873722],[-73.9910477,45.3874443],[-73.9910218,45.3874881],[-73.9910003,45.3875293],[-73.9909855,45.3875641]]}";18;3e Avenue;2;40;false;false;true;false;false;false;69.0;0;0;0;0;0;false;72310;2186107424;-73.992894;45.384737;72343;762420309;-73.991601;45.387962;0;28;29;9469267;Bus 31 : Service PM;"";EXO;31 PM;Gare Pincourt / Terrasse-Vaudreuil;Gare Pincourt / Terrasse-Vaudreuil
509079301;"{\"type\":\"LineString\",\"coordinates\":[[-73.9909855,45.3875641],[-73.9909784,45.3875833],[-73.9909714,45.3876114],[-73.9909745,45.3876525],[-73.9909919,45.3877114],[-73.9910088,45.3877542]]}";19;3e Avenue;2;40;false;false;true;false;false;false;22.0;0;1;0;0;0;false;72310;2186107424;-73.992894;45.384737;72343;762420309;-73.991601;45.387962;0;28;29;9469267;Bus 31 : Service PM;"";EXO;31 PM;Gare Pincourt / Terrasse-Vaudreuil;Gare Pincourt / Terrasse-Vaudreuil
682480330;"{\"type\":\"LineString\",\"coordinates\":[[-73.9910088,45.3877542],[-73.9910322,45.3877989],[-73.9910561,45.3878377],[-73.9911004,45.3878955],[-73.9911759,45.3879816],[-73.9912304,45.3880352],[-73.9912962,45.3880976],[-73.991466,45.3882409]]}";20;3e Avenue;2;40;false;false;true;false;false;false;66.0;0;0;0;0;0;false;72310;2186107424;-73.992894;45.384737;72343;762420309;-73.991601;45.387962;0;28;29;9469267;Bus 31 : Service PM;"";EXO;31 PM;Gare Pincourt / Terrasse-Vaudreuil;Gare Pincourt / Terrasse-Vaudreuil
682480328;"{\"type\":\"LineString\",\"coordinates\":[[-73.9916502,45.3881771],[-73.991562,45.3882076],[-73.9915413,45.3882148],[-73.9915011,45.3882287],[-73.991466,45.3882409]]}";21;4e Boulevard;2;40;false;false;true;false;false;false;17.0;0;1;1;0;0;false;72310;2186107424;-73.992894;45.384737;72343;762420309;-73.991601;45.387962;0;28;29;9469267;Bus 31 : Service PM;"";EXO;31 PM;Gare Pincourt / Terrasse-Vaudreuil;Gare Pincourt / Terrasse-Vaudreuil
682480346;"{\"type\":\"LineString\",\"coordinates\":[[-73.9916502,45.3881771],[-73.9915401,45.3880164],[-73.9914876,45.3879399]]}";22;"";1;50;false;true;true;false;true;false;30.0;0;0;0;0;0;false;72310;2186107424;-73.992894;45.384737;72343;762420309;-73.991601;45.387962;1;28;29;9469267;Bus 31 : Service PM;"";EXO;31 PM;Gare Pincourt / Terrasse-Vaudreuil;Gare Pincourt / Terrasse-Vaudreuil
