way_id;shape;index;name;nb_lanes;legal_speed;speed_zone_30;oneway;shares_bike;bike_box;bus_lane;dedicated_bus_lane;length;nb_traffic_signals;nb_crossings;nb_stops;nb_give_ways;nb_lvl_crossings;roundabout;stop_id_orig;node_id_orig;coord_x_orig;coord_y_orig;stop_id_dest;node_id_dest;coord_x_dest;coord_y_dest;nb_neighbouring_ways_bus_stop;ordre_orig;ordre_dest;id_line;line_name;colour;operator;ref;from;to
678143317;"{\"type\":\"LineString\",\"coordinates\":[[-73.6827245,45.5596752],[-73.682528,45.5597726]]}";1;"";1;50;false;false;true;false;false;false;19.0;0;0;0;0;0;false;"47073;47022;47222;47048;47074";6269510223;-73.68259;45.559843;41842;6269510244;-73.68204;45.56156;1;0;1;9312800;Bus : 22 E - Direction Saint-François;"";STL;22E;Métro Cartier Quai:9;Terminus Contant
679314283;"{\"type\":\"LineString\",\"coordinates\":[[-73.6829266,45.5595727],[-73.6827245,45.5596752]]}";2;"";1;50;false;false;true;false;false;false;20.0;0;0;0;0;0;false;"47073;47022;47222;47048;47074";6269510223;-73.68259;45.559843;41842;6269510244;-73.68204;45.56156;0;0;1;9312800;Bus : 22 E - Direction Saint-François;"";STL;22E;Métro Cartier Quai:9;Terminus Contant
679314278;"{\"type\":\"LineString\",\"coordinates\":[[-73.6831224,45.5594735],[-73.6829266,45.5595727]]}";3;"";1;50;false;false;true;false;false;false;19.0;0;0;0;0;0;false;"47073;47022;47222;47048;47074";6269510223;-73.68259;45.559843;41842;6269510244;-73.68204;45.56156;0;0;1;9312800;Bus : 22 E - Direction Saint-François;"";STL;22E;Métro Cartier Quai:9;Terminus Contant
676619309;"{\"type\":\"LineString\",\"coordinates\":[[-73.6832245,45.5594238],[-73.6831224,45.5594735]]}";4;"";1;50;false;false;true;false;false;false;10.0;0;0;0;0;0;false;"47073;47022;47222;47048;47074";6269510223;-73.68259;45.559843;41842;6269510244;-73.68204;45.56156;0;0;1;9312800;Bus : 22 E - Direction Saint-François;"";STL;22E;Métro Cartier Quai:9;Terminus Contant
242652093;"{\"type\":\"LineString\",\"coordinates\":[[-73.6835499,45.5592626],[-73.6832245,45.5594238]]}";5;"";1;50;false;false;true;false;false;false;32.0;0;0;0;0;0;false;"47073;47022;47222;47048;47074";6269510223;-73.68259;45.559843;41842;6269510244;-73.68204;45.56156;0;0;1;9312800;Bus : 22 E - Direction Saint-François;"";STL;22E;Métro Cartier Quai:9;Terminus Contant
258700561;"{\"type\":\"LineString\",\"coordinates\":[[-73.6835499,45.5592626],[-73.6836785,45.5593759],[-73.683829,45.5595086],[-73.6840984,45.5597503]]}";6;Montée Major;1;50;false;false;true;false;false;false;70.0;1;0;0;0;0;false;"47073;47022;47222;47048;47074";6269510223;-73.68259;45.559843;41842;6269510244;-73.68204;45.56156;0;0;1;9312800;Bus : 22 E - Direction Saint-François;"";STL;22E;Métro Cartier Quai:9;Terminus Contant
669902218;"{\"type\":\"LineString\",\"coordinates\":[[-73.6840984,45.5597503],[-73.6835265,45.5600532],[-73.6830194,45.5603075]]}";7;Boulevard Cartier Ouest;2;50;false;true;true;false;false;false;105.0;2;0;0;0;0;false;"47073;47022;47222;47048;47074";6269510223;-73.68259;45.559843;41842;6269510244;-73.68204;45.56156;0;0;1;9312800;Bus : 22 E - Direction Saint-François;"";STL;22E;Métro Cartier Quai:9;Terminus Contant
258700554;"{\"type\":\"LineString\",\"coordinates\":[[-73.6830194,45.5603075],[-73.6827075,45.5604638],[-73.6824175,45.5606264],[-73.6822665,45.5607085]]}";8;Boulevard Cartier Ouest;2;50;false;true;true;false;false;false;74.0;1;0;0;0;0;false;"47073;47022;47222;47048;47074";6269510223;-73.68259;45.559843;41842;6269510244;-73.68204;45.56156;0;0;1;9312800;Bus : 22 E - Direction Saint-François;"";STL;22E;Métro Cartier Quai:9;Terminus Contant
455492089;"{\"type\":\"LineString\",\"coordinates\":[[-73.6822665,45.5607085],[-73.6819634,45.5608959],[-73.6817505,45.5610049]]}";9;Boulevard Cartier Ouest;2;50;false;true;true;false;false;false;53.0;1;0;0;0;0;false;"47073;47022;47222;47048;47074";6269510223;-73.68259;45.559843;41842;6269510244;-73.68204;45.56156;0;0;1;9312800;Bus : 22 E - Direction Saint-François;"";STL;22E;Métro Cartier Quai:9;Terminus Contant
292641472;"{\"type\":\"LineString\",\"coordinates\":[[-73.6817505,45.5610049],[-73.6816926,45.5610324],[-73.6815922,45.5610802]]}";10;Boulevard Cartier Ouest;2;50;false;true;true;false;false;false;15.0;2;0;0;0;0;false;"47073;47022;47222;47048;47074";6269510223;-73.68259;45.559843;41842;6269510244;-73.68204;45.56156;0;0;1;9312800;Bus : 22 E - Direction Saint-François;"";STL;22E;Métro Cartier Quai:9;Terminus Contant
258700557;"{\"type\":\"LineString\",\"coordinates\":[[-73.6815922,45.5610802],[-73.68169,45.5611749],[-73.6819137,45.5613673],[-73.6823486,45.5617409],[-73.6823502,45.5617422],[-73.6826844,45.5619598]]}";11;Boulevard des Laurentides;2;50;false;true;true;false;false;false;65.0;2;0;0;0;0;false;"47073;47022;47222;47048;47074";6269510223;-73.68259;45.559843;41842;6269510244;-73.68204;45.56156;1;0;1;9312800;Bus : 22 E - Direction Saint-François;"";STL;22E;Métro Cartier Quai:9;Terminus Contant
258700557;"{\"type\":\"LineString\",\"coordinates\":[[-73.6815922,45.5610802],[-73.68169,45.5611749],[-73.6819137,45.5613673],[-73.6823486,45.5617409],[-73.6823502,45.5617422],[-73.6826844,45.5619598]]}";1;Boulevard des Laurentides;2;50;false;true;true;false;false;false;65.0;2;0;0;0;0;false;41842;6269510244;-73.68204;45.56156;41865;6269510199;-73.68424;45.563491;1;1;2;9312800;Bus : 22 E - Direction Saint-François;"";STL;22E;Métro Cartier Quai:9;Terminus Contant
452227549;"{\"type\":\"LineString\",\"coordinates\":[[-73.6826844,45.5619598],[-73.684522,45.5635813]]}";2;Boulevard des Laurentides;4;50;false;false;true;false;false;false;115.5;0;0;0;0;0;false;41842;6269510244;-73.68204;45.56156;41865;6269510199;-73.68424;45.563491;1;1;2;9312800;Bus : 22 E - Direction Saint-François;"";STL;22E;Métro Cartier Quai:9;Terminus Contant
452227549;"{\"type\":\"LineString\",\"coordinates\":[[-73.6826844,45.5619598],[-73.684522,45.5635813]]}";1;Boulevard des Laurentides;4;50;false;false;true;false;false;false;115.5;0;0;0;0;0;false;41865;6269510199;-73.68424;45.563491;41887;6269510068;-73.68568;45.564778;1;2;3;9312800;Bus : 22 E - Direction Saint-François;"";STL;22E;Métro Cartier Quai:9;Terminus Contant
452227544;"{\"type\":\"LineString\",\"coordinates\":[[-73.684522,45.5635813],[-73.6864142,45.565271]]}";2;Boulevard des Laurentides;4;50;false;false;true;false;false;false;119.5;0;0;0;0;0;false;41865;6269510199;-73.68424;45.563491;41887;6269510068;-73.68568;45.564778;1;2;3;9312800;Bus : 22 E - Direction Saint-François;"";STL;22E;Métro Cartier Quai:9;Terminus Contant
452227544;"{\"type\":\"LineString\",\"coordinates\":[[-73.684522,45.5635813],[-73.6864142,45.565271]]}";1;Boulevard des Laurentides;4;50;false;false;true;false;false;false;119.5;0;0;0;0;0;false;41887;6269510068;-73.68568;45.564778;43196;6269510049;-73.6853;45.565792;1;3;4;9312800;Bus : 22 E - Direction Saint-François;"";STL;22E;Métro Cartier Quai:9;Terminus Contant
29016758;"{\"type\":\"LineString\",\"coordinates\":[[-73.6864142,45.565271],[-73.6858438,45.5655833],[-73.6852913,45.5658857],[-73.6846442,45.56624],[-73.6841266,45.5665234],[-73.6832711,45.5669917],[-73.6823386,45.5675022],[-73.6818445,45.5677727],[-73.6814193,45.5680055],[-73.6804973,45.5685102],[-73.6773158,45.5702519],[-73.6757771,45.5710942],[-73.6756154,45.5711827]]}";2;Rue Tourangeau Est;2;50;false;false;true;false;false;false;534.0;0;0;1;0;0;false;41887;6269510068;-73.68568;45.564778;43196;6269510049;-73.6853;45.565792;1;3;4;9312800;Bus : 22 E - Direction Saint-François;"";STL;22E;Métro Cartier Quai:9;Terminus Contant
29016758;"{\"type\":\"LineString\",\"coordinates\":[[-73.6864142,45.565271],[-73.6858438,45.5655833],[-73.6852913,45.5658857],[-73.6846442,45.56624],[-73.6841266,45.5665234],[-73.6832711,45.5669917],[-73.6823386,45.5675022],[-73.6818445,45.5677727],[-73.6814193,45.5680055],[-73.6804973,45.5685102],[-73.6773158,45.5702519],[-73.6757771,45.5710942],[-73.6756154,45.5711827]]}";1;Rue Tourangeau Est;2;50;false;false;true;false;false;false;534.0;0;0;1;0;0;false;43192;6269509523;-73.67739;45.570142;43194;6269509495;-73.67563;45.571018;1;8;9;9312800;Bus : 22 E - Direction Saint-François;"";STL;22E;Métro Cartier Quai:9;Terminus Contant
687115782;"{\"type\":\"LineString\",\"coordinates\":[[-73.6752201,45.5708247],[-73.6756154,45.5711827]]}";2;Rue des Alpes;2;50;false;false;true;false;false;false;25.5;0;0;0;0;0;false;43192;6269509523;-73.67739;45.570142;43194;6269509495;-73.67563;45.571018;1;8;9;9312800;Bus : 22 E - Direction Saint-François;"";STL;22E;Métro Cartier Quai:9;Terminus Contant
29016758;"{\"type\":\"LineString\",\"coordinates\":[[-73.6864142,45.565271],[-73.6858438,45.5655833],[-73.6852913,45.5658857],[-73.6846442,45.56624],[-73.6841266,45.5665234],[-73.6832711,45.5669917],[-73.6823386,45.5675022],[-73.6818445,45.5677727],[-73.6814193,45.5680055],[-73.6804973,45.5685102],[-73.6773158,45.5702519],[-73.6757771,45.5710942],[-73.6756154,45.5711827]]}";1;Rue Tourangeau Est;2;50;false;false;true;false;false;false;1068.0;0;0;1;0;0;false;43194;6269509495;-73.67563;45.571018;41556;6269508873;-73.674;45.571785;2;9;10;9312800;Bus : 22 E - Direction Saint-François;"";STL;22E;Métro Cartier Quai:9;Terminus Contant
687115782;"{\"type\":\"LineString\",\"coordinates\":[[-73.6752201,45.5708247],[-73.6756154,45.5711827]]}";2;Rue des Alpes;2;50;false;false;true;false;false;false;51.0;0;0;0;0;0;false;43194;6269509495;-73.67563;45.571018;41556;6269508873;-73.674;45.571785;0;9;10;9312800;Bus : 22 E - Direction Saint-François;"";STL;22E;Métro Cartier Quai:9;Terminus Contant
45609837;"{\"type\":\"LineString\",\"coordinates\":[[-73.6752201,45.5708247],[-73.6750273,45.5709108],[-73.6748671,45.5710145],[-73.6745131,45.5713524],[-73.6737825,45.5721589]]}";3;Rue des Écores;2;50;false;false;true;false;false;false;188.0;0;0;0;0;0;false;43194;6269509495;-73.67563;45.571018;41556;6269508873;-73.674;45.571785;2;9;10;9312800;Bus : 22 E - Direction Saint-François;"";STL;22E;Métro Cartier Quai:9;Terminus Contant
45609837;"{\"type\":\"LineString\",\"coordinates\":[[-73.6752201,45.5708247],[-73.6750273,45.5709108],[-73.6748671,45.5710145],[-73.6745131,45.5713524],[-73.6737825,45.5721589]]}";1;Rue des Écores;2;50;false;false;true;false;false;false;94.0;0;0;0;0;0;false;41556;6269508873;-73.674;45.571785;42066;6269509516;-73.67184;45.570556;1;10;11;9312800;Bus : 22 E - Direction Saint-François;"";STL;22E;Métro Cartier Quai:9;Terminus Contant
462112324;"{\"type\":\"LineString\",\"coordinates\":[[-73.6723433,45.5708604],[-73.6725251,45.5710244],[-73.6728869,45.5713508],[-73.6730532,45.5715009],[-73.6737825,45.5721589]]}";2;Boulevard Lévesque Est;2;50;false;false;true;false;false;false;183.0;0;0;0;0;0;false;41556;6269508873;-73.674;45.571785;42066;6269509516;-73.67184;45.570556;0;10;11;9312800;Bus : 22 E - Direction Saint-François;"";STL;22E;Métro Cartier Quai:9;Terminus Contant
462112325;"{\"type\":\"LineString\",\"coordinates\":[[-73.671664,45.5705704],[-73.671991,45.5706601],[-73.6721274,45.570721],[-73.6723433,45.5708604]]}";3;Boulevard Lévesque Est;2;50;false;false;true;false;false;false;31.5;0;0;0;0;0;false;41556;6269508873;-73.674;45.571785;42066;6269509516;-73.67184;45.570556;1;10;11;9312800;Bus : 22 E - Direction Saint-François;"";STL;22E;Métro Cartier Quai:9;Terminus Contant
58701597;"{\"type\":\"LineString\",\"coordinates\":[[-73.671664,45.5705704],[-73.6712341,45.571578],[-73.670944,45.5722861],[-73.6706528,45.5733614],[-73.6706656,45.5734443],[-73.6707407,45.5735082]]}";1;Boulevard Cartier Est;1;50;false;false;true;false;false;false;169.5;0;0;0;0;0;false;41230;6269509348;-73.67071;45.572771;42068;6269509315;-73.67204;45.574452;1;12;13;9312800;Bus : 22 E - Direction Saint-François;"";STL;22E;Métro Cartier Quai:9;Terminus Contant
45609844;"{\"type\":\"LineString\",\"coordinates\":[[-73.6707407,45.5735082],[-73.6713447,45.5736469],[-73.671645,45.5737495],[-73.6718927,45.5738342],[-73.6724109,45.5740113]]}";2;Avenue J.-J.-Joubert;2;50;false;false;true;false;false;false;143.0;0;0;0;0;0;false;41230;6269509348;-73.67071;45.572771;42068;6269509315;-73.67204;45.574452;0;12;13;9312800;Bus : 22 E - Direction Saint-François;"";STL;22E;Métro Cartier Quai:9;Terminus Contant
542751016;"{\"type\":\"LineString\",\"coordinates\":[[-73.6724109,45.5740113],[-73.6720997,45.5744905],[-73.6720162,45.5746052],[-73.6718159,45.5749162],[-73.6714925,45.5753947],[-73.6708671,45.576243],[-73.6704255,45.5769373],[-73.6697576,45.5779835]]}";3;Boulevard Lévesque Est;2;50;false;false;true;false;false;false;244.0;0;0;0;0;0;false;41230;6269509348;-73.67071;45.572771;42068;6269509315;-73.67204;45.574452;1;12;13;9312800;Bus : 22 E - Direction Saint-François;"";STL;22E;Métro Cartier Quai:9;Terminus Contant
542751016;"{\"type\":\"LineString\",\"coordinates\":[[-73.6724109,45.5740113],[-73.6720997,45.5744905],[-73.6720162,45.5746052],[-73.6718159,45.5749162],[-73.6714925,45.5753947],[-73.6708671,45.576243],[-73.6704255,45.5769373],[-73.6697576,45.5779835]]}";1;Boulevard Lévesque Est;2;50;false;false;true;false;false;false;244.0;0;0;0;0;0;false;42071;6269508952;-73.6699;45.577595;42073;6269508914;-73.6686549;45.5795563;1;15;16;9312800;Bus : 22 E - Direction Saint-François;"";STL;22E;Métro Cartier Quai:9;Terminus Contant
455479832;"{\"type\":\"LineString\",\"coordinates\":[[-73.6697576,45.5779835],[-73.6696137,45.5782043]]}";2;Boulevard Lévesque Est;2;50;false;false;true;false;false;false;27.0;0;0;0;0;0;false;42071;6269508952;-73.6699;45.577595;42073;6269508914;-73.6686549;45.5795563;0;15;16;9312800;Bus : 22 E - Direction Saint-François;"";STL;22E;Métro Cartier Quai:9;Terminus Contant
38311582;"{\"type\":\"LineString\",\"coordinates\":[[-73.6696137,45.5782043],[-73.6692034,45.5788339]]}";3;Boulevard Lévesque Est;2;50;false;false;true;false;false;false;77.0;0;0;0;0;0;false;42071;6269508952;-73.6699;45.577595;42073;6269508914;-73.6686549;45.5795563;0;15;16;9312800;Bus : 22 E - Direction Saint-François;"";STL;22E;Métro Cartier Quai:9;Terminus Contant
455479833;"{\"type\":\"LineString\",\"coordinates\":[[-73.6692034,45.5788339],[-73.6691333,45.5789415]]}";4;Boulevard Lévesque Est;2;50;false;false;true;false;false;false;14.0;0;0;0;0;0;false;42071;6269508952;-73.6699;45.577595;42073;6269508914;-73.6686549;45.5795563;0;15;16;9312800;Bus : 22 E - Direction Saint-François;"";STL;22E;Métro Cartier Quai:9;Terminus Contant
455479831;"{\"type\":\"LineString\",\"coordinates\":[[-73.6691333,45.5789415],[-73.6686556,45.5796745]]}";5;Boulevard Lévesque Est;2;50;false;false;true;false;false;false;45.0;0;0;0;0;0;false;42071;6269508952;-73.6699;45.577595;42073;6269508914;-73.6686549;45.5795563;1;15;16;9312800;Bus : 22 E - Direction Saint-François;"";STL;22E;Métro Cartier Quai:9;Terminus Contant
37924634;"{\"type\":\"LineString\",\"coordinates\":[[-73.6686556,45.5796745],[-73.6684235,45.5799961],[-73.6676093,45.5811382],[-73.6668804,45.5820831],[-73.6662588,45.5828578],[-73.6649971,45.5841822],[-73.6638313,45.5854483],[-73.6632412,45.5860543],[-73.6622157,45.5871071],[-73.6617804,45.5876555],[-73.660987,45.5886575],[-73.6604778,45.5894499],[-73.6596666,45.5903192],[-73.6593004,45.5908548],[-73.6588732,45.5912809],[-73.658571,45.5915834],[-73.6585383,45.5916162],[-73.6581026,45.5920522],[-73.6580785,45.5920772],[-73.6576348,45.5925367],[-73.6576131,45.5925585],[-73.6571663,45.5930072],[-73.6569979,45.5931763],[-73.6568899,45.5932848],[-73.6566277,45.5936821],[-73.656232,45.5945203],[-73.6554871,45.5957184],[-73.6550808,45.5961618],[-73.6546261,45.5965612],[-73.6539344,45.5971332],[-73.6534098,45.5976687],[-73.65222,45.5988678],[-73.6519888,45.5991014],[-73.6517507,45.5993418],[-73.6513803,45.5996141],[-73.6512852,45.5996737],[-73.6511682,45.5997469],[-73.6507843,45.5999769],[-73.6502001,45.6003025],[-73.6499191,45.6004674],[-73.6496728,45.6006118]]}";1;Boulevard Lévesque Est;2;50;false;false;true;false;false;false;1388.0;0;0;0;0;0;false;42096;6269508294;-73.65079;45.599902;42099;6269507966;-73.64814;45.60166;1;28;29;9312800;Bus : 22 E - Direction Saint-François;"";STL;22E;Métro Cartier Quai:9;Terminus Contant
37924633;"{\"type\":\"LineString\",\"coordinates\":[[-73.6491233,45.6009663],[-73.6491491,45.6009497],[-73.6494951,45.6007265],[-73.6496051,45.6006556],[-73.6496728,45.6006118]]}";2;Boulevard Lévesque Est;2;50;false;false;true;false;false;false;59.0;0;0;0;0;0;false;42096;6269508294;-73.65079;45.599902;42099;6269507966;-73.64814;45.60166;0;28;29;9312800;Bus : 22 E - Direction Saint-François;"";STL;22E;Métro Cartier Quai:9;Terminus Contant
38311584;"{\"type\":\"LineString\",\"coordinates\":[[-73.6477976,45.6020749],[-73.6482283,45.6016327],[-73.6485433,45.6013739],[-73.6488903,45.601107],[-73.6490651,45.6009994],[-73.6491233,45.6009663]]}";3;Boulevard Lévesque Est;2;50;false;false;true;false;false;false;81.0;0;0;0;0;0;false;42096;6269508294;-73.65079;45.599902;42099;6269507966;-73.64814;45.60166;1;28;29;9312800;Bus : 22 E - Direction Saint-François;"";STL;22E;Métro Cartier Quai:9;Terminus Contant
38311584;"{\"type\":\"LineString\",\"coordinates\":[[-73.6477976,45.6020749],[-73.6482283,45.6016327],[-73.6485433,45.6013739],[-73.6488903,45.601107],[-73.6490651,45.6009994],[-73.6491233,45.6009663]]}";1;Boulevard Lévesque Est;2;50;false;false;true;false;false;false;81.0;0;0;0;0;0;false;42099;6269507966;-73.64814;45.60166;42101;6269507924;-73.64644;45.603714;1;29;30;9312800;Bus : 22 E - Direction Saint-François;"";STL;22E;Métro Cartier Quai:9;Terminus Contant
473001100;"{\"type\":\"LineString\",\"coordinates\":[[-73.6474627,45.6024084],[-73.6477976,45.6020749]]}";2;Boulevard Lévesque Est;2;50;false;false;true;false;false;false;46.0;1;0;0;0;0;false;42099;6269507966;-73.64814;45.60166;42101;6269507924;-73.64644;45.603714;0;29;30;9312800;Bus : 22 E - Direction Saint-François;"";STL;22E;Métro Cartier Quai:9;Terminus Contant
473001098;"{\"type\":\"LineString\",\"coordinates\":[[-73.6473336,45.6025211],[-73.6473787,45.6024818],[-73.6474627,45.6024084]]}";3;Boulevard Lévesque Est;2;50;false;false;true;false;false;false;17.0;2;0;0;0;0;false;42099;6269507966;-73.64814;45.60166;42101;6269507924;-73.64644;45.603714;0;29;30;9312800;Bus : 22 E - Direction Saint-François;"";STL;22E;Métro Cartier Quai:9;Terminus Contant
473001099;"{\"type\":\"LineString\",\"coordinates\":[[-73.6471267,45.602778],[-73.6473336,45.6025211]]}";4;Boulevard Lévesque Est;2;50;false;false;true;false;false;false;33.0;1;0;0;0;0;false;42099;6269507966;-73.64814;45.60166;42101;6269507924;-73.64644;45.603714;0;29;30;9312800;Bus : 22 E - Direction Saint-François;"";STL;22E;Métro Cartier Quai:9;Terminus Contant
682428312;"{\"type\":\"LineString\",\"coordinates\":[[-73.6454955,45.6057126],[-73.6460182,45.6048502],[-73.6462814,45.6041409],[-73.6464674,45.603761],[-73.6467098,45.603295],[-73.6469599,45.6029297],[-73.6471267,45.602778]]}";5;Boulevard Lévesque Est;2;50;false;false;true;false;false;false;176.0;0;0;0;0;0;false;42099;6269507966;-73.64814;45.60166;42101;6269507924;-73.64644;45.603714;1;29;30;9312800;Bus : 22 E - Direction Saint-François;"";STL;22E;Métro Cartier Quai:9;Terminus Contant
682428312;"{\"type\":\"LineString\",\"coordinates\":[[-73.6454955,45.6057126],[-73.6460182,45.6048502],[-73.6462814,45.6041409],[-73.6464674,45.603761],[-73.6467098,45.603295],[-73.6469599,45.6029297],[-73.6471267,45.602778]]}";1;Boulevard Lévesque Est;2;50;false;false;true;false;false;false;176.0;0;0;0;0;0;false;42101;6269507924;-73.64644;45.603714;45065;6269507867;-73.64582;45.606153;1;30;31;9312800;Bus : 22 E - Direction Saint-François;"";STL;22E;Métro Cartier Quai:9;Terminus Contant
682428311;"{\"type\":\"LineString\",\"coordinates\":[[-73.6454191,45.6058496],[-73.6454955,45.6057126]]}";2;Boulevard Lévesque Est;2;50;false;false;true;false;false;false;17.0;0;0;0;0;0;false;42101;6269507924;-73.64644;45.603714;45065;6269507867;-73.64582;45.606153;0;30;31;9312800;Bus : 22 E - Direction Saint-François;"";STL;22E;Métro Cartier Quai:9;Terminus Contant
45798066;"{\"type\":\"LineString\",\"coordinates\":[[-73.6454191,45.6058496],[-73.6456777,45.6059742],[-73.6457918,45.6060296]]}";3;Avenue Belleville;1;50;false;true;true;false;false;false;36.0;0;0;0;0;0;false;42101;6269507924;-73.64644;45.603714;45065;6269507867;-73.64582;45.606153;0;30;31;9312800;Bus : 22 E - Direction Saint-François;"";STL;22E;Métro Cartier Quai:9;Terminus Contant
45798070;"{\"type\":\"LineString\",\"coordinates\":[[-73.6457918,45.6060296],[-73.6459347,45.6061565],[-73.6460882,45.6062928],[-73.6461308,45.6063306],[-73.646658,45.6068049],[-73.6471722,45.6072881],[-73.647712,45.6077715],[-73.6482518,45.6082549],[-73.648804,45.6087565],[-73.6493062,45.6092126],[-73.6498893,45.6097263],[-73.6504738,45.6102524],[-73.6511391,45.6108544],[-73.6516763,45.6113375],[-73.6522117,45.6118148]]}";4;Avenue Belleville;2;50;false;false;true;false;false;false;407.5;0;0;0;0;0;false;42101;6269507924;-73.64644;45.603714;45065;6269507867;-73.64582;45.606153;1;30;31;9312800;Bus : 22 E - Direction Saint-François;"";STL;22E;Métro Cartier Quai:9;Terminus Contant
45798066;"{\"type\":\"LineString\",\"coordinates\":[[-73.6454191,45.6058496],[-73.6456777,45.6059742],[-73.6457918,45.6060296]]}";1;Avenue Belleville;1;50;false;true;true;false;false;false;36.0;0;0;0;0;0;false;45065;6269507867;-73.64582;45.606153;41105;6269507851;-73.64711;45.607326;2;31;32;9312800;Bus : 22 E - Direction Saint-François;"";STL;22E;Métro Cartier Quai:9;Terminus Contant
45798070;"{\"type\":\"LineString\",\"coordinates\":[[-73.6457918,45.6060296],[-73.6459347,45.6061565],[-73.6460882,45.6062928],[-73.6461308,45.6063306],[-73.646658,45.6068049],[-73.6471722,45.6072881],[-73.647712,45.6077715],[-73.6482518,45.6082549],[-73.648804,45.6087565],[-73.6493062,45.6092126],[-73.6498893,45.6097263],[-73.6504738,45.6102524],[-73.6511391,45.6108544],[-73.6516763,45.6113375],[-73.6522117,45.6118148]]}";2;Avenue Belleville;2;50;false;false;true;false;false;false;815.0;0;0;0;0;0;false;45065;6269507867;-73.64582;45.606153;41105;6269507851;-73.64711;45.607326;2;31;32;9312800;Bus : 22 E - Direction Saint-François;"";STL;22E;Métro Cartier Quai:9;Terminus Contant
45798070;"{\"type\":\"LineString\",\"coordinates\":[[-73.6457918,45.6060296],[-73.6459347,45.6061565],[-73.6460882,45.6062928],[-73.6461308,45.6063306],[-73.646658,45.6068049],[-73.6471722,45.6072881],[-73.647712,45.6077715],[-73.6482518,45.6082549],[-73.648804,45.6087565],[-73.6493062,45.6092126],[-73.6498893,45.6097263],[-73.6504738,45.6102524],[-73.6511391,45.6108544],[-73.6516763,45.6113375],[-73.6522117,45.6118148]]}";1;Avenue Belleville;2;50;false;false;true;false;false;false;407.5;0;0;0;0;0;false;41109;6269507801;-73.65032;45.610223;41614;6269507761;-73.6512;45.612301;1;34;35;9312800;Bus : 22 E - Direction Saint-François;"";STL;22E;Métro Cartier Quai:9;Terminus Contant
678347084;"{\"type\":\"LineString\",\"coordinates\":[[-73.6522117,45.6118148],[-73.6514889,45.6122081],[-73.6507193,45.612627],[-73.6500881,45.6129705],[-73.6491648,45.613473],[-73.6469951,45.6146538],[-73.6463894,45.6149834],[-73.6459034,45.6152479]]}";2;Rue de la Fabrique;2;50;false;false;true;false;false;false;311.5;0;0;0;0;0;false;41109;6269507801;-73.65032;45.610223;41614;6269507761;-73.6512;45.612301;1;34;35;9312800;Bus : 22 E - Direction Saint-François;"";STL;22E;Métro Cartier Quai:9;Terminus Contant
365007260;"{\"type\":\"LineString\",\"coordinates\":[[-73.6459034,45.6152479],[-73.6457348,45.6152765],[-73.6455556,45.6153068],[-73.6453509,45.6152864],[-73.6450235,45.6152149],[-73.6448884,45.6151681]]}";1;Place J.-Eudes-Blanchard;2;50;false;false;true;false;false;false;83.0;1;1;0;0;0;false;41610;6269507706;-73.64594;45.61516;42798;6269507688;-73.64448;45.616629;2;38;39;9312800;Bus : 22 E - Direction Saint-François;"";STL;22E;Métro Cartier Quai:9;Terminus Contant
365007259;"{\"type\":\"LineString\",\"coordinates\":[[-73.6444507,45.6157568],[-73.64482,45.6152536],[-73.6448884,45.6151681]]}";2;Boulevard Lévesque Est;3;50;false;false;false;false;false;false;74.0;1;1;0;0;0;false;41610;6269507706;-73.64594;45.61516;42798;6269507688;-73.64448;45.616629;0;38;39;9312800;Bus : 22 E - Direction Saint-François;"";STL;22E;Métro Cartier Quai:9;Terminus Contant
365007194;"{\"type\":\"LineString\",\"coordinates\":[[-73.6441136,45.6162229],[-73.6441432,45.616182],[-73.6444507,45.6157568]]}";3;Boulevard Lévesque Est;2;50;false;false;false;false;false;false;59.0;0;0;0;0;0;false;41610;6269507706;-73.64594;45.61516;42798;6269507688;-73.64448;45.616629;0;38;39;9312800;Bus : 22 E - Direction Saint-François;"";STL;22E;Métro Cartier Quai:9;Terminus Contant
32644971;"{\"type\":\"LineString\",\"coordinates\":[[-73.6441136,45.6162229],[-73.6442387,45.6163356],[-73.6458794,45.6178144],[-73.6463702,45.6182568],[-73.6469178,45.6187503],[-73.6478665,45.6196053],[-73.6485997,45.6202661],[-73.6489564,45.6205876],[-73.6505457,45.6220199]]}";4;Montée Saint-François;2;70;false;false;true;false;false;false;816.0;0;0;1;0;0;false;41610;6269507706;-73.64594;45.61516;42798;6269507688;-73.64448;45.616629;2;38;39;9312800;Bus : 22 E - Direction Saint-François;"";STL;22E;Métro Cartier Quai:9;Terminus Contant
32644971;"{\"type\":\"LineString\",\"coordinates\":[[-73.6441136,45.6162229],[-73.6442387,45.6163356],[-73.6458794,45.6178144],[-73.6463702,45.6182568],[-73.6469178,45.6187503],[-73.6478665,45.6196053],[-73.6485997,45.6202661],[-73.6489564,45.6205876],[-73.6505457,45.6220199]]}";1;Montée Saint-François;2;70;false;false;true;false;false;false;408.0;0;0;1;0;0;false;45071;6269507642;-73.64903;45.620726;45074;6269507593;-73.65229;45.623711;1;42;43;9312800;Bus : 22 E - Direction Saint-François;"";STL;22E;Métro Cartier Quai:9;Terminus Contant
745488945;"{\"type\":\"LineString\",\"coordinates\":[[-73.6505457,45.6220199],[-73.6507788,45.6222301]]}";2;Montée Saint-François;2;70;false;false;true;false;false;false;30.0;0;0;0;0;0;false;45071;6269507642;-73.64903;45.620726;45074;6269507593;-73.65229;45.623711;0;42;43;9312800;Bus : 22 E - Direction Saint-François;"";STL;22E;Métro Cartier Quai:9;Terminus Contant
745488944;"{\"type\":\"LineString\",\"coordinates\":[[-73.6507788,45.6222301],[-73.6509422,45.6223775],[-73.6509643,45.6223975],[-73.6509726,45.6224049],[-73.6509847,45.6224159],[-73.6512334,45.6226401],[-73.6512498,45.6226549],[-73.6512558,45.6226603],[-73.6513343,45.6227311],[-73.6513385,45.6227349],[-73.651351,45.6227461],[-73.6516336,45.623001],[-73.6525462,45.623824],[-73.653006,45.6242386],[-73.6546359,45.6257084],[-73.6548715,45.6259209],[-73.6557279,45.6266932],[-73.6557813,45.6267413]]}";3;Montée Saint-François;2;70;false;false;true;false;false;false;317.5;0;0;0;0;0;false;45071;6269507642;-73.64903;45.620726;45074;6269507593;-73.65229;45.623711;1;42;43;9312800;Bus : 22 E - Direction Saint-François;"";STL;22E;Métro Cartier Quai:9;Terminus Contant
745488944;"{\"type\":\"LineString\",\"coordinates\":[[-73.6507788,45.6222301],[-73.6509422,45.6223775],[-73.6509643,45.6223975],[-73.6509726,45.6224049],[-73.6509847,45.6224159],[-73.6512334,45.6226401],[-73.6512498,45.6226549],[-73.6512558,45.6226603],[-73.6513343,45.6227311],[-73.6513385,45.6227349],[-73.651351,45.6227461],[-73.6516336,45.623001],[-73.6525462,45.623824],[-73.653006,45.6242386],[-73.6546359,45.6257084],[-73.6548715,45.6259209],[-73.6557279,45.6266932],[-73.6557813,45.6267413]]}";1;Montée Saint-François;2;70;false;false;true;false;false;false;317.5;0;0;0;0;0;false;46329;6269507503;-73.65549;45.626611;45076;6269507545;-73.65332;45.628144;1;44;45;9312800;Bus : 22 E - Direction Saint-François;"";STL;22E;Métro Cartier Quai:9;Terminus Contant
46865974;"{\"type\":\"LineString\",\"coordinates\":[[-73.6487724,45.6315122],[-73.6498506,45.6309236],[-73.6505373,45.6305185],[-73.6511273,45.6300758],[-73.6515136,45.6297457],[-73.6519878,45.6293328],[-73.6520534,45.6292757],[-73.6526508,45.6287554],[-73.6531122,45.6283877],[-73.6532609,45.6282866],[-73.6538846,45.6278625],[-73.6540819,45.6277459],[-73.6552964,45.6270279],[-73.6557813,45.6267413]]}";2;Rue Ernest-Cormier;2;50;false;false;true;false;false;false;382.0;0;0;0;0;0;false;46329;6269507503;-73.65549;45.626611;45076;6269507545;-73.65332;45.628144;1;44;45;9312800;Bus : 22 E - Direction Saint-François;"";STL;22E;Métro Cartier Quai:9;Terminus Contant
46865974;"{\"type\":\"LineString\",\"coordinates\":[[-73.6487724,45.6315122],[-73.6498506,45.6309236],[-73.6505373,45.6305185],[-73.6511273,45.6300758],[-73.6515136,45.6297457],[-73.6519878,45.6293328],[-73.6520534,45.6292757],[-73.6526508,45.6287554],[-73.6531122,45.6283877],[-73.6532609,45.6282866],[-73.6538846,45.6278625],[-73.6540819,45.6277459],[-73.6552964,45.6270279],[-73.6557813,45.6267413]]}";1;Rue Ernest-Cormier;2;50;false;false;true;false;false;false;382.0;0;0;0;0;0;false;46033;6269507522;-73.64893;45.631335;"46490;46483";6269507508;-73.64579;45.633054;1;47;48;9312800;Bus : 22 E - Direction Saint-François;"";STL;22E;Métro Cartier Quai:9;Terminus Contant
687115800;"{\"type\":\"LineString\",\"coordinates\":[[-73.6446118,45.6338051],[-73.6448489,45.6336744],[-73.6487724,45.6315122]]}";2;Rue Ernest-Cormier;2;50;false;false;true;false;false;false;206.5;0;0;1;0;0;false;46033;6269507522;-73.64893;45.631335;"46490;46483";6269507508;-73.64579;45.633054;1;47;48;9312800;Bus : 22 E - Direction Saint-François;"";STL;22E;Métro Cartier Quai:9;Terminus Contant
687115800;"{\"type\":\"LineString\",\"coordinates\":[[-73.6446118,45.6338051],[-73.6448489,45.6336744],[-73.6487724,45.6315122]]}";1;Rue Ernest-Cormier;2;50;false;false;true;false;false;false;206.5;0;0;1;0;0;false;"46490;46483";6269507508;-73.64579;45.633054;"46484;46491";6269507481;-73.64498;45.634237;1;48;49;9312800;Bus : 22 E - Direction Saint-François;"";STL;22E;Métro Cartier Quai:9;Terminus Contant
111222270;"{\"type\":\"LineString\",\"coordinates\":[[-73.6446118,45.6338051],[-73.6470802,45.635966],[-73.6471131,45.6360061],[-73.6471378,45.6360577],[-73.647146,45.6361151],[-73.6471381,45.6361725],[-73.6471055,45.6362185],[-73.6470319,45.6362759],[-73.6463459,45.6366555],[-73.6462315,45.636713],[-73.6461172,45.636759],[-73.6460191,45.6367936],[-73.6458966,45.6368282],[-73.6457576,45.6368628],[-73.6456105,45.6368974],[-73.6454387,45.6369206],[-73.6452262,45.6369208],[-73.644756,45.6369188],[-73.6431732,45.6368947],[-73.6427805,45.6369009],[-73.6423308,45.6369302],[-73.6420037,45.6369421],[-73.6417477,45.6369545]]}";2;Rue Bernard-Lefebvre;2;50;false;false;true;false;false;false;389.5;0;0;1;0;0;false;"46490;46483";6269507508;-73.64579;45.633054;"46484;46491";6269507481;-73.64498;45.634237;1;48;49;9312800;Bus : 22 E - Direction Saint-François;"";STL;22E;Métro Cartier Quai:9;Terminus Contant
111222270;"{\"type\":\"LineString\",\"coordinates\":[[-73.6446118,45.6338051],[-73.6470802,45.635966],[-73.6471131,45.6360061],[-73.6471378,45.6360577],[-73.647146,45.6361151],[-73.6471381,45.6361725],[-73.6471055,45.6362185],[-73.6470319,45.6362759],[-73.6463459,45.6366555],[-73.6462315,45.636713],[-73.6461172,45.636759],[-73.6460191,45.6367936],[-73.6458966,45.6368282],[-73.6457576,45.6368628],[-73.6456105,45.6368974],[-73.6454387,45.6369206],[-73.6452262,45.6369208],[-73.644756,45.6369188],[-73.6431732,45.6368947],[-73.6427805,45.6369009],[-73.6423308,45.6369302],[-73.6420037,45.6369421],[-73.6417477,45.6369545]]}";1;Rue Bernard-Lefebvre;2;50;false;false;true;false;false;false;389.5;0;0;1;0;0;false;"46485;46492";6269507465;-73.64659;45.636419;42188;6269507425;-73.64171;45.63785;1;50;51;9312800;Bus : 22 E - Direction Saint-François;"";STL;22E;Métro Cartier Quai:9;Terminus Contant
687115796;"{\"type\":\"LineString\",\"coordinates\":[[-73.6431665,45.6461309],[-73.6431012,45.6458436],[-73.6429931,45.6453684],[-73.6423484,45.6422221],[-73.6420854,45.6402939],[-73.6419019,45.6385358],[-73.6417477,45.6369545]]}";2;Montée Masson;2;60;false;false;true;false;false;false;513.0;0;0;2;0;0;false;"46485;46492";6269507465;-73.64659;45.636419;42188;6269507425;-73.64171;45.63785;1;50;51;9312800;Bus : 22 E - Direction Saint-François;"";STL;22E;Métro Cartier Quai:9;Terminus Contant
687115796;"{\"type\":\"LineString\",\"coordinates\":[[-73.6431665,45.6461309],[-73.6431012,45.6458436],[-73.6429931,45.6453684],[-73.6423484,45.6422221],[-73.6420854,45.6402939],[-73.6419019,45.6385358],[-73.6417477,45.6369545]]}";1;Montée Masson;2;60;false;false;true;false;false;false;513.0;0;0;2;0;0;false;42194;6269507413;-73.64288;45.645263;42197;6269507402;-73.64325;45.646828;1;55;56;9312800;Bus : 22 E - Direction Saint-François;"";STL;22E;Métro Cartier Quai:9;Terminus Contant
119082388;"{\"type\":\"LineString\",\"coordinates\":[[-73.6431665,45.6461309],[-73.643176,45.6462485],[-73.6432039,45.6463677],[-73.6433563,45.6469561]]}";2;Montée Masson;1;60;false;true;true;false;false;false;46.5;1;0;0;0;0;false;42194;6269507413;-73.64288;45.645263;42197;6269507402;-73.64325;45.646828;1;55;56;9312800;Bus : 22 E - Direction Saint-François;"";STL;22E;Métro Cartier Quai:9;Terminus Contant
326316601;"{\"type\":\"LineString\",\"coordinates\":[[-73.6433563,45.6469561],[-73.6433776,45.6470431],[-73.6435414,45.6476783],[-73.6437291,45.6484439],[-73.6438052,45.6488027],[-73.6438633,45.6491652],[-73.6439029,45.6495252],[-73.6439325,45.6501675],[-73.6439278,45.6504367],[-73.6439034,45.650846],[-73.643856,45.6512559],[-73.6438117,45.6515276],[-73.6435883,45.6526589]]}";1;Montée Masson;1;50;false;true;true;false;false;false;639.0;2;0;0;0;0;false;42197;6269507402;-73.64325;45.646828;46401;6269507280;-73.6435;45.652671;2;56;57;9312800;Bus : 22 E - Direction Saint-François;"";STL;22E;Métro Cartier Quai:9;Terminus Contant
125249333;"{\"type\":\"LineString\",\"coordinates\":[[-73.6435883,45.6526589],[-73.6435436,45.6528632],[-73.6435094,45.6530582],[-73.6433947,45.6536394],[-73.6433411,45.6538642],[-73.6432608,45.6541006],[-73.6431519,45.6543464],[-73.6430144,45.6545965],[-73.6428447,45.6548444],[-73.6427488,45.6549655],[-73.6425338,45.6551988],[-73.6424146,45.6553121],[-73.6422688,45.6554346],[-73.6421541,45.6555309],[-73.6420144,45.6556353],[-73.6417189,45.6558337],[-73.6413995,45.6560159],[-73.6412294,45.6560997],[-73.6406882,45.6563256],[-73.6404066,45.6564331]]}";2;Montée Masson;2;50;false;true;true;false;false;false;515.0;2;0;0;0;0;false;42197;6269507402;-73.64325;45.646828;46401;6269507280;-73.6435;45.652671;2;56;57;9312800;Bus : 22 E - Direction Saint-François;"";STL;22E;Métro Cartier Quai:9;Terminus Contant
326316601;"{\"type\":\"LineString\",\"coordinates\":[[-73.6433563,45.6469561],[-73.6433776,45.6470431],[-73.6435414,45.6476783],[-73.6437291,45.6484439],[-73.6438052,45.6488027],[-73.6438633,45.6491652],[-73.6439029,45.6495252],[-73.6439325,45.6501675],[-73.6439278,45.6504367],[-73.6439034,45.650846],[-73.643856,45.6512559],[-73.6438117,45.6515276],[-73.6435883,45.6526589]]}";1;Montée Masson;1;50;false;true;true;false;false;false;639.0;2;0;0;0;0;false;46401;6269507280;-73.6435;45.652671;42201;6269507266;-73.64004;45.659368;2;57;58;9312800;Bus : 22 E - Direction Saint-François;"";STL;22E;Métro Cartier Quai:9;Terminus Contant
125249333;"{\"type\":\"LineString\",\"coordinates\":[[-73.6435883,45.6526589],[-73.6435436,45.6528632],[-73.6435094,45.6530582],[-73.6433947,45.6536394],[-73.6433411,45.6538642],[-73.6432608,45.6541006],[-73.6431519,45.6543464],[-73.6430144,45.6545965],[-73.6428447,45.6548444],[-73.6427488,45.6549655],[-73.6425338,45.6551988],[-73.6424146,45.6553121],[-73.6422688,45.6554346],[-73.6421541,45.6555309],[-73.6420144,45.6556353],[-73.6417189,45.6558337],[-73.6413995,45.6560159],[-73.6412294,45.6560997],[-73.6406882,45.6563256],[-73.6404066,45.6564331]]}";2;Montée Masson;2;50;false;true;true;false;false;false;515.0;2;0;0;0;0;false;46401;6269507280;-73.6435;45.652671;42201;6269507266;-73.64004;45.659368;0;57;58;9312800;Bus : 22 E - Direction Saint-François;"";STL;22E;Métro Cartier Quai:9;Terminus Contant
771964816;"{\"type\":\"LineString\",\"coordinates\":[[-73.6404066,45.6564331],[-73.6393599,45.6568326],[-73.6392627,45.6568698],[-73.6391571,45.6569101]]}";3;Montée Masson;3;50;false;true;true;false;false;false;111.0;1;0;0;0;0;false;46401;6269507280;-73.6435;45.652671;42201;6269507266;-73.64004;45.659368;0;57;58;9312800;Bus : 22 E - Direction Saint-François;"";STL;22E;Métro Cartier Quai:9;Terminus Contant
771964805;"{\"type\":\"LineString\",\"coordinates\":[[-73.6391571,45.6569101],[-73.6390188,45.6569591]]}";4;Montée Masson;3;50;false;true;true;false;false;false;13.0;0;0;0;0;0;false;46401;6269507280;-73.6435;45.652671;42201;6269507266;-73.64004;45.659368;0;57;58;9312800;Bus : 22 E - Direction Saint-François;"";STL;22E;Métro Cartier Quai:9;Terminus Contant
771964810;"{\"type\":\"LineString\",\"coordinates\":[[-73.6390188,45.6569591],[-73.6391254,45.6570435]]}";5;"";3;60;false;true;true;false;false;false;13.0;0;0;0;0;0;false;46401;6269507280;-73.6435;45.652671;42201;6269507266;-73.64004;45.659368;0;57;58;9312800;Bus : 22 E - Direction Saint-François;"";STL;22E;Métro Cartier Quai:9;Terminus Contant
771964807;"{\"type\":\"LineString\",\"coordinates\":[[-73.6391254,45.6570435],[-73.6392278,45.6571171],[-73.640403,45.6579626],[-73.640549,45.6580968],[-73.6406292,45.6582032],[-73.6406855,45.6583194],[-73.640712,45.6584471],[-73.6407043,45.6585677],[-73.640673,45.6587037],[-73.6405836,45.6589691]]}";6;Montée Masson;1;60;false;true;true;false;false;false;262.0;0;0;0;0;0;false;46401;6269507280;-73.6435;45.652671;42201;6269507266;-73.64004;45.659368;0;57;58;9312800;Bus : 22 E - Direction Saint-François;"";STL;22E;Métro Cartier Quai:9;Terminus Contant
415105727;"{\"type\":\"LineString\",\"coordinates\":[[-73.6271459,45.6782163],[-73.6272692,45.6755352],[-73.627331,45.6751526],[-73.6279496,45.6733979],[-73.6287144,45.6716049],[-73.6292944,45.6703839],[-73.6295576,45.6699506],[-73.6299347,45.6694293],[-73.6325947,45.6667588],[-73.6348087,45.6645791],[-73.6361821,45.663236],[-73.6368068,45.662625],[-73.6379156,45.6615769],[-73.6393637,45.6601645],[-73.64022,45.659339],[-73.6404773,45.659091],[-73.6405836,45.6589691]]}";7;Montée Masson;1;60;false;false;true;false;false;false;2437.0;0;0;0;0;0;false;46401;6269507280;-73.6435;45.652671;42201;6269507266;-73.64004;45.659368;2;57;58;9312800;Bus : 22 E - Direction Saint-François;"";STL;22E;Métro Cartier Quai:9;Terminus Contant
415105727;"{\"type\":\"LineString\",\"coordinates\":[[-73.6271459,45.6782163],[-73.6272692,45.6755352],[-73.627331,45.6751526],[-73.6279496,45.6733979],[-73.6287144,45.6716049],[-73.6292944,45.6703839],[-73.6295576,45.6699506],[-73.6299347,45.6694293],[-73.6325947,45.6667588],[-73.6348087,45.6645791],[-73.6361821,45.663236],[-73.6368068,45.662625],[-73.6379156,45.6615769],[-73.6393637,45.6601645],[-73.64022,45.659339],[-73.6404773,45.659091],[-73.6405836,45.6589691]]}";1;Montée Masson;1;60;false;false;true;false;false;false;1218.5;0;0;0;0;0;false;42211;6269506970;-73.62712;45.675642;42214;6269506950;-73.62704;45.67835;1;64;65;9312800;Bus : 22 E - Direction Saint-François;"";STL;22E;Métro Cartier Quai:9;Terminus Contant
32823318;"{\"type\":\"LineString\",\"coordinates\":[[-73.6287626,45.6882014],[-73.6285486,45.6879274],[-73.6274817,45.6870213],[-73.6271851,45.686716],[-73.6270126,45.6864758],[-73.6269246,45.6861869],[-73.6268895,45.6857727],[-73.6268939,45.6851474],[-73.6269191,45.6838214],[-73.62696,45.68297],[-73.6269741,45.68243],[-73.6270031,45.6813213],[-73.6270632,45.6798029],[-73.6271342,45.6784716],[-73.6271459,45.6782163]]}";2;Montée Masson;1;50;false;false;false;false;false;false;577.5;0;0;1;0;0;false;42211;6269506970;-73.62712;45.675642;42214;6269506950;-73.62704;45.67835;1;64;65;9312800;Bus : 22 E - Direction Saint-François;"";STL;22E;Métro Cartier Quai:9;Terminus Contant
415105727;"{\"type\":\"LineString\",\"coordinates\":[[-73.6271459,45.6782163],[-73.6272692,45.6755352],[-73.627331,45.6751526],[-73.6279496,45.6733979],[-73.6287144,45.6716049],[-73.6292944,45.6703839],[-73.6295576,45.6699506],[-73.6299347,45.6694293],[-73.6325947,45.6667588],[-73.6348087,45.6645791],[-73.6361821,45.663236],[-73.6368068,45.662625],[-73.6379156,45.6615769],[-73.6393637,45.6601645],[-73.64022,45.659339],[-73.6404773,45.659091],[-73.6405836,45.6589691]]}";1;Montée Masson;1;60;false;false;true;false;false;false;2437.0;0;0;0;0;0;false;42214;6269506950;-73.62704;45.67835;46615;6269506940;-73.62696;45.679722;2;65;66;9312800;Bus : 22 E - Direction Saint-François;"";STL;22E;Métro Cartier Quai:9;Terminus Contant
32823318;"{\"type\":\"LineString\",\"coordinates\":[[-73.6287626,45.6882014],[-73.6285486,45.6879274],[-73.6274817,45.6870213],[-73.6271851,45.686716],[-73.6270126,45.6864758],[-73.6269246,45.6861869],[-73.6268895,45.6857727],[-73.6268939,45.6851474],[-73.6269191,45.6838214],[-73.62696,45.68297],[-73.6269741,45.68243],[-73.6270031,45.6813213],[-73.6270632,45.6798029],[-73.6271342,45.6784716],[-73.6271459,45.6782163]]}";2;Montée Masson;1;50;false;false;false;false;false;false;1155.0;0;0;1;0;0;false;42214;6269506950;-73.62704;45.67835;46615;6269506940;-73.62696;45.679722;2;65;66;9312800;Bus : 22 E - Direction Saint-François;"";STL;22E;Métro Cartier Quai:9;Terminus Contant
32823318;"{\"type\":\"LineString\",\"coordinates\":[[-73.6287626,45.6882014],[-73.6285486,45.6879274],[-73.6274817,45.6870213],[-73.6271851,45.686716],[-73.6270126,45.6864758],[-73.6269246,45.6861869],[-73.6268895,45.6857727],[-73.6268939,45.6851474],[-73.6269191,45.6838214],[-73.62696,45.68297],[-73.6269741,45.68243],[-73.6270031,45.6813213],[-73.6270632,45.6798029],[-73.6271342,45.6784716],[-73.6271459,45.6782163]]}";1;Montée Masson;1;50;false;false;false;false;false;false;577.5;0;0;1;0;0;false;42223;6269506888;-73.62832;45.687788;42376;6269506886;-73.6328;45.687801;1;70;71;9312800;Bus : 22 E - Direction Saint-François;"";STL;22E;Métro Cartier Quai:9;Terminus Contant
678635366;"{\"type\":\"LineString\",\"coordinates\":[[-73.6287626,45.6882014],[-73.6297303,45.688241],[-73.6304644,45.6881948],[-73.6310643,45.6881313],[-73.6315143,45.6880679],[-73.6341706,45.6873624],[-73.634341,45.6873432],[-73.6347999,45.6873365],[-73.6349389,45.6873356]]}";2;Boulevard des Mille-Îles;1;50;false;false;true;false;false;false;248.5;0;0;1;0;0;false;42223;6269506888;-73.62832;45.687788;42376;6269506886;-73.6328;45.687801;1;70;71;9312800;Bus : 22 E - Direction Saint-François;"";STL;22E;Métro Cartier Quai:9;Terminus Contant
678635366;"{\"type\":\"LineString\",\"coordinates\":[[-73.6287626,45.6882014],[-73.6297303,45.688241],[-73.6304644,45.6881948],[-73.6310643,45.6881313],[-73.6315143,45.6880679],[-73.6341706,45.6873624],[-73.634341,45.6873432],[-73.6347999,45.6873365],[-73.6349389,45.6873356]]}";1;Boulevard des Mille-Îles;1;50;false;false;true;false;false;false;248.5;0;0;1;0;0;false;42376;6269506886;-73.6328;45.687801;"49052;49022;42379;49074";6269506458;-73.63605;45.6875;1;71;72;9312800;Bus : 22 E - Direction Saint-François;"";STL;22E;Métro Cartier Quai:9;Terminus Contant
686611410;"{\"type\":\"LineString\",\"coordinates\":[[-73.6349389,45.6873356],[-73.6349577,45.6874902],[-73.6349764,45.6875436],[-73.6350261,45.6875905],[-73.6351159,45.6876308],[-73.6352849,45.6876317],[-73.6356872,45.687627],[-73.6359129,45.6876111],[-73.6360024,45.6875633],[-73.6360043,45.6875023]]}";2;"";1;50;false;false;true;false;false;false;116.0;0;0;0;0;0;false;42376;6269506886;-73.6328;45.687801;"49052;49022;42379;49074";6269506458;-73.63605;45.6875;1;71;72;9312800;Bus : 22 E - Direction Saint-François;"";STL;22E;Métro Cartier Quai:9;Terminus Contant
