way_id;shape;index;name;nb_lanes;legal_speed;speed_zone_30;oneway;shares_bike;bike_box;bus_lane;dedicated_bus_lane;length;nb_traffic_signals;nb_crossings;nb_stops;nb_give_ways;nb_lvl_crossings;roundabout;stop_id_orig;node_id_orig;coord_x_orig;coord_y_orig;stop_id_dest;node_id_dest;coord_x_dest;coord_y_dest;nb_neighbouring_ways_bus_stop;ordre_orig;ordre_dest;id_line;line_name;colour;operator;ref;from;to
393785532;"{\"type\":\"LineString\",\"coordinates\":[[-73.574601,45.5259435],[-73.5745151,45.5258746],[-73.5744056,45.5257745],[-73.5743733,45.525723],[-73.5743281,45.5256509]]}";1;Avenue Christophe-Colomb;1;50;false;true;true;false;false;false;40.0;1;0;0;0;0;false;52322;291483327;-73.574679;45.525908;52271;5754183962;-73.576028;45.527654;1;0;1;5908832;Bus 11 : Parc-du-Mont-Royal / Ridgewood Ouest;"";STM;11-O;Christophe-Colomb / Rachel;Ridgewood / No 3635
393785994;"{\"type\":\"LineString\",\"coordinates\":[[-73.5734534,45.5263926],[-73.5739867,45.5258147],[-73.574149,45.5257199],[-73.5743281,45.5256509]]}";2;Rue Rachel Est;1;50;false;false;true;false;false;false;109.0;2;0;0;0;0;false;52322;291483327;-73.574679;45.525908;52271;5754183962;-73.576028;45.527654;0;0;1;5908832;Bus 11 : Parc-du-Mont-Royal / Ridgewood Ouest;"";STM;11-O;Christophe-Colomb / Rachel;Ridgewood / No 3635
19937708;"{\"type\":\"LineString\",\"coordinates\":[[-73.5734534,45.5263926],[-73.5735489,45.5264391]]}";3;Rue De La Roche;1;50;false;true;false;false;false;false;10.0;1;0;0;0;0;false;52322;291483327;-73.574679;45.525908;52271;5754183962;-73.576028;45.527654;0;0;1;5908832;Bus 11 : Parc-du-Mont-Royal / Ridgewood Ouest;"";STM;11-O;Christophe-Colomb / Rachel;Ridgewood / No 3635
734285083;"{\"type\":\"LineString\",\"coordinates\":[[-73.5735489,45.5264391],[-73.5739494,45.5266338],[-73.575744,45.5274565],[-73.5761942,45.5276637],[-73.5781252,45.528555],[-73.5785265,45.5287402]]}";4;Rue De La Roche;1;50;false;true;false;false;false;false;233.0;2;0;0;0;0;false;52322;291483327;-73.574679;45.525908;52271;5754183962;-73.576028;45.527654;1;0;1;5908832;Bus 11 : Parc-du-Mont-Royal / Ridgewood Ouest;"";STM;11-O;Christophe-Colomb / Rachel;Ridgewood / No 3635
734285083;"{\"type\":\"LineString\",\"coordinates\":[[-73.5735489,45.5264391],[-73.5739494,45.5266338],[-73.575744,45.5274565],[-73.5761942,45.5276637],[-73.5781252,45.528555],[-73.5785265,45.5287402]]}";1;Rue De La Roche;1;50;false;true;false;false;false;false;233.0;2;0;0;0;0;false;52271;5754183962;-73.576028;45.527654;52160;6010977641;-73.579175;45.528139;1;1;2;5908832;Bus 11 : Parc-du-Mont-Royal / Ridgewood Ouest;"";STM;11-O;Christophe-Colomb / Rachel;Ridgewood / No 3635
393873277;"{\"type\":\"LineString\",\"coordinates\":[[-73.5792084,45.5280067],[-73.5785265,45.5287402]]}";2;Avenue du Mont-Royal Est;2;50;false;false;true;false;false;false;49.0;2;0;0;0;0;false;52271;5754183962;-73.576028;45.527654;52160;6010977641;-73.579175;45.528139;1;1;2;5908832;Bus 11 : Parc-du-Mont-Royal / Ridgewood Ouest;"";STM;11-O;Christophe-Colomb / Rachel;Ridgewood / No 3635
452101823;"{\"type\":\"LineString\",\"coordinates\":[[-73.5798146,45.5273624],[-73.579303,45.5279018],[-73.5792084,45.5280067]]}";1;Avenue du Mont-Royal Est;2;50;false;false;true;false;false;false;86.0;1;0;0;0;0;false;52160;6010977641;-73.579175;45.528139;52137;1467420786;-73.5801255;45.5271544;2;2;3;5908832;Bus 11 : Parc-du-Mont-Royal / Ridgewood Ouest;"";STM;11-O;Christophe-Colomb / Rachel;Ridgewood / No 3635
463886941;"{\"type\":\"LineString\",\"coordinates\":[[-73.5801263,45.5270326],[-73.5798146,45.5273624]]}";2;Avenue du Mont-Royal Est;2;50;false;false;true;false;false;false;44.0;1;0;0;0;0;false;52160;6010977641;-73.579175;45.528139;52137;1467420786;-73.5801255;45.5271544;2;2;3;5908832;Bus 11 : Parc-du-Mont-Royal / Ridgewood Ouest;"";STM;11-O;Christophe-Colomb / Rachel;Ridgewood / No 3635
463886942;"{\"type\":\"LineString\",\"coordinates\":[[-73.5806744,45.5264537],[-73.5801263,45.5270326]]}";1;Avenue du Mont-Royal Est;2;50;false;false;true;false;false;false;78.0;1;0;0;0;0;false;52137;1467420786;-73.5801255;45.5271544;52100;1467420796;-73.5811439;45.5260711;2;3;4;5908832;Bus 11 : Parc-du-Mont-Royal / Ridgewood Ouest;"";STM;11-O;Christophe-Colomb / Rachel;Ridgewood / No 3635
452101821;"{\"type\":\"LineString\",\"coordinates\":[[-73.5811223,45.5259777],[-73.5806744,45.5264537]]}";2;Avenue du Mont-Royal Est;2;50;false;false;true;false;false;false;64.0;0;0;0;0;0;false;52137;1467420786;-73.5801255;45.5271544;52100;1467420796;-73.5811439;45.5260711;2;3;4;5908832;Bus 11 : Parc-du-Mont-Royal / Ridgewood Ouest;"";STM;11-O;Christophe-Colomb / Rachel;Ridgewood / No 3635
8140255;"{\"type\":\"LineString\",\"coordinates\":[[-73.581502,45.5255624],[-73.581346,45.5257358],[-73.5813245,45.5257591],[-73.5811223,45.5259777]]}";1;Avenue du Mont-Royal Est;2;50;false;false;true;false;false;false;55.0;1;0;0;0;0;false;52100;1467420796;-73.5811439;45.5260711;61802;1456307161;-73.5817929;45.5253427;2;4;5;5908832;Bus 11 : Parc-du-Mont-Royal / Ridgewood Ouest;"";STM;11-O;Christophe-Colomb / Rachel;Ridgewood / No 3635
452098813;"{\"type\":\"LineString\",\"coordinates\":[[-73.5817733,45.5252518],[-73.5815207,45.525541],[-73.581502,45.5255624]]}";2;Avenue du Mont-Royal Est;2;50;false;false;true;false;false;false;41.0;1;0;0;0;0;false;52100;1467420796;-73.5811439;45.5260711;61802;1456307161;-73.5817929;45.5253427;2;4;5;5908832;Bus 11 : Parc-du-Mont-Royal / Ridgewood Ouest;"";STM;11-O;Christophe-Colomb / Rachel;Ridgewood / No 3635
452098812;"{\"type\":\"LineString\",\"coordinates\":[[-73.5820089,45.5249843],[-73.5817733,45.5252518]]}";1;Avenue du Mont-Royal Est;2;50;false;false;true;false;false;false;35.0;1;0;0;0;0;false;61802;1456307161;-73.5817929;45.5253427;52055;1456307332;-73.5828449;45.5241267;2;5;6;5908832;Bus 11 : Parc-du-Mont-Royal / Ridgewood Ouest;"";STM;11-O;Christophe-Colomb / Rachel;Ridgewood / No 3635
4320351;"{\"type\":\"LineString\",\"coordinates\":[[-73.5820089,45.5249843],[-73.5820543,45.524931],[-73.5823683,45.5245717],[-73.5824039,45.5245308]]}";2;Avenue du Mont-Royal Est;2;50;false;false;true;false;false;false;60.0;2;0;0;0;0;false;61802;1456307161;-73.5817929;45.5253427;52055;1456307332;-73.5828449;45.5241267;0;5;6;5908832;Bus 11 : Parc-du-Mont-Royal / Ridgewood Ouest;"";STM;11-O;Christophe-Colomb / Rachel;Ridgewood / No 3635
393792173;"{\"type\":\"LineString\",\"coordinates\":[[-73.5824039,45.5245308],[-73.5824473,45.5244824],[-73.5825993,45.5243126]]}";3;Avenue du Mont-Royal Est;2;50;false;false;true;false;false;false;29.0;1;0;0;0;0;false;61802;1456307161;-73.5817929;45.5253427;52055;1456307332;-73.5828449;45.5241267;0;5;6;5908832;Bus 11 : Parc-du-Mont-Royal / Ridgewood Ouest;"";STM;11-O;Christophe-Colomb / Rachel;Ridgewood / No 3635
452049816;"{\"type\":\"LineString\",\"coordinates\":[[-73.5825993,45.5243126],[-73.5828396,45.5240442],[-73.5829023,45.5239741]]}";4;Avenue du Mont-Royal Est;2;50;false;false;true;false;false;false;45.0;1;0;0;0;0;false;61802;1456307161;-73.5817929;45.5253427;52055;1456307332;-73.5828449;45.5241267;2;5;6;5908832;Bus 11 : Parc-du-Mont-Royal / Ridgewood Ouest;"";STM;11-O;Christophe-Colomb / Rachel;Ridgewood / No 3635
452049817;"{\"type\":\"LineString\",\"coordinates\":[[-73.5829023,45.5239741],[-73.5829846,45.5238807],[-73.5832173,45.5236168]]}";1;Avenue du Mont-Royal Est;2;50;false;false;true;false;false;false;47.0;1;0;0;0;0;false;52055;1456307332;-73.5828449;45.5241267;52035;6010968792;-73.583829;45.522999;2;6;7;5908832;Bus 11 : Parc-du-Mont-Royal / Ridgewood Ouest;"";STM;11-O;Christophe-Colomb / Rachel;Ridgewood / No 3635
452096884;"{\"type\":\"LineString\",\"coordinates\":[[-73.5832173,45.5236168],[-73.5833858,45.5234138],[-73.5834206,45.5233719],[-73.5838297,45.5229174],[-73.584267,45.5224436]]}";2;Avenue du Mont-Royal Est;2;50;false;false;true;false;false;false;154.0;0;0;0;0;0;false;52055;1456307332;-73.5828449;45.5241267;52035;6010968792;-73.583829;45.522999;2;6;7;5908832;Bus 11 : Parc-du-Mont-Royal / Ridgewood Ouest;"";STM;11-O;Christophe-Colomb / Rachel;Ridgewood / No 3635
452096884;"{\"type\":\"LineString\",\"coordinates\":[[-73.5832173,45.5236168],[-73.5833858,45.5234138],[-73.5834206,45.5233719],[-73.5838297,45.5229174],[-73.584267,45.5224436]]}";1;Avenue du Mont-Royal Est;2;50;false;false;true;false;false;false;77.0;0;0;0;0;0;false;52035;6010968792;-73.583829;45.522999;52005;1574991729;-73.5849707;45.5217826;1;7;8;5908832;Bus 11 : Parc-du-Mont-Royal / Ridgewood Ouest;"";STM;11-O;Christophe-Colomb / Rachel;Ridgewood / No 3635
725190286;"{\"type\":\"LineString\",\"coordinates\":[[-73.584267,45.5224436],[-73.5844829,45.522207],[-73.5845024,45.5221856]]}";2;Avenue du Mont-Royal Est;2;50;false;false;true;false;false;false;35.0;1;0;0;0;0;false;52035;6010968792;-73.583829;45.522999;52005;1574991729;-73.5849707;45.5217826;0;7;8;5908832;Bus 11 : Parc-du-Mont-Royal / Ridgewood Ouest;"";STM;11-O;Christophe-Colomb / Rachel;Ridgewood / No 3635
452096883;"{\"type\":\"LineString\",\"coordinates\":[[-73.5845024,45.5221856],[-73.5846879,45.5219751]]}";3;Avenue du Mont-Royal Est;2;50;false;false;true;false;false;false;28.0;0;0;0;0;0;false;52035;6010968792;-73.583829;45.522999;52005;1574991729;-73.5849707;45.5217826;0;7;8;5908832;Bus 11 : Parc-du-Mont-Royal / Ridgewood Ouest;"";STM;11-O;Christophe-Colomb / Rachel;Ridgewood / No 3635
463886948;"{\"type\":\"LineString\",\"coordinates\":[[-73.5846879,45.5219751],[-73.5847074,45.521954],[-73.5849775,45.5216621]]}";4;Avenue du Mont-Royal Est;2;50;false;false;true;false;false;false;21.0;1;0;0;0;0;false;52035;6010968792;-73.583829;45.522999;52005;1574991729;-73.5849707;45.5217826;1;7;8;5908832;Bus 11 : Parc-du-Mont-Royal / Ridgewood Ouest;"";STM;11-O;Christophe-Colomb / Rachel;Ridgewood / No 3635
337509255;"{\"type\":\"LineString\",\"coordinates\":[[-73.5849775,45.5216621],[-73.5851083,45.5215218],[-73.5854621,45.5211408],[-73.5855319,45.5210597],[-73.5857255,45.5208475],[-73.5859249,45.5206289]]}";1;Avenue du Mont-Royal Est;2;50;false;false;true;false;false;false;137.0;0;0;0;0;0;false;52005;1574991729;-73.5849707;45.5217826;51972;1574991715;-73.5863628;45.5202491;2;8;9;5908832;Bus 11 : Parc-du-Mont-Royal / Ridgewood Ouest;"";STM;11-O;Christophe-Colomb / Rachel;Ridgewood / No 3635
465183712;"{\"type\":\"LineString\",\"coordinates\":[[-73.5859249,45.5206289],[-73.5863671,45.5201178]]}";2;Avenue du Mont-Royal Est;2;50;false;false;true;false;false;false;67.0;1;0;0;0;0;false;52005;1574991729;-73.5849707;45.5217826;51972;1574991715;-73.5863628;45.5202491;2;8;9;5908832;Bus 11 : Parc-du-Mont-Royal / Ridgewood Ouest;"";STM;11-O;Christophe-Colomb / Rachel;Ridgewood / No 3635
4687363;"{\"type\":\"LineString\",\"coordinates\":[[-73.5863671,45.5201178],[-73.5866119,45.5198435],[-73.586834,45.5195946]]}";1;Avenue du Mont-Royal Ouest;2;50;false;false;true;false;false;false;69.0;1;0;0;0;0;false;51972;1574991715;-73.5863628;45.5202491;51937;1330275915;-73.587424;45.519044;2;9;10;5908832;Bus 11 : Parc-du-Mont-Royal / Ridgewood Ouest;"";STM;11-O;Christophe-Colomb / Rachel;Ridgewood / No 3635
465195709;"{\"type\":\"LineString\",\"coordinates\":[[-73.586834,45.5195946],[-73.5873909,45.5189858],[-73.5874398,45.5189324]]}";2;Avenue du Mont-Royal Ouest;2;50;false;false;true;false;false;false;88.0;1;1;0;0;0;false;51972;1574991715;-73.5863628;45.5202491;51937;1330275915;-73.587424;45.519044;2;9;10;5908832;Bus 11 : Parc-du-Mont-Royal / Ridgewood Ouest;"";STM;11-O;Christophe-Colomb / Rachel;Ridgewood / No 3635
465195711;"{\"type\":\"LineString\",\"coordinates\":[[-73.5874398,45.5189324],[-73.5875119,45.5188512],[-73.5879419,45.5183671]]}";1;Avenue du Mont-Royal Ouest;2;50;false;false;true;false;false;false;75.0;1;1;0;0;0;false;51937;1330275915;-73.587424;45.519044;51881;6010966196;-73.589178;45.517101;2;10;11;5908832;Bus 11 : Parc-du-Mont-Royal / Ridgewood Ouest;"";STM;11-O;Christophe-Colomb / Rachel;Ridgewood / No 3635
465195710;"{\"type\":\"LineString\",\"coordinates\":[[-73.5879419,45.5183671],[-73.5879929,45.5183074],[-73.5881032,45.5181782]]}";2;Avenue du Mont-Royal Ouest;2;50;false;false;true;false;false;false;25.0;0;0;0;0;0;false;51937;1330275915;-73.587424;45.519044;51881;6010966196;-73.589178;45.517101;0;10;11;5908832;Bus 11 : Parc-du-Mont-Royal / Ridgewood Ouest;"";STM;11-O;Christophe-Colomb / Rachel;Ridgewood / No 3635
480212640;"{\"type\":\"LineString\",\"coordinates\":[[-73.5881032,45.5181782],[-73.5883525,45.5178862]]}";3;Avenue du Mont-Royal Ouest;2;50;false;false;true;false;false;false;38.0;0;0;0;0;0;false;51937;1330275915;-73.587424;45.519044;51881;6010966196;-73.589178;45.517101;0;10;11;5908832;Bus 11 : Parc-du-Mont-Royal / Ridgewood Ouest;"";STM;11-O;Christophe-Colomb / Rachel;Ridgewood / No 3635
465195712;"{\"type\":\"LineString\",\"coordinates\":[[-73.5883525,45.5178862],[-73.5886464,45.517542]]}";4;Avenue du Mont-Royal Ouest;2;50;false;false;true;false;false;false;45.0;1;0;0;0;0;false;51937;1330275915;-73.587424;45.519044;51881;6010966196;-73.589178;45.517101;0;10;11;5908832;Bus 11 : Parc-du-Mont-Royal / Ridgewood Ouest;"";STM;11-O;Christophe-Colomb / Rachel;Ridgewood / No 3635
453713155;"{\"type\":\"LineString\",\"coordinates\":[[-73.5886464,45.517542],[-73.5893161,45.5167861]]}";5;Avenue du Mont-Royal Ouest;2;50;false;false;true;false;false;false;99.0;2;0;0;0;0;false;51937;1330275915;-73.587424;45.519044;51881;6010966196;-73.589178;45.517101;2;10;11;5908832;Bus 11 : Parc-du-Mont-Royal / Ridgewood Ouest;"";STM;11-O;Christophe-Colomb / Rachel;Ridgewood / No 3635
453713155;"{\"type\":\"LineString\",\"coordinates\":[[-73.5886464,45.517542],[-73.5893161,45.5167861]]}";1;Avenue du Mont-Royal Ouest;2;50;false;false;true;false;false;false;49.5;2;0;0;0;0;false;51881;6010966196;-73.589178;45.517101;54159;1465524177;-73.5901941;45.5160029;1;11;12;5908832;Bus 11 : Parc-du-Mont-Royal / Ridgewood Ouest;"";STM;11-O;Christophe-Colomb / Rachel;Ridgewood / No 3635
111771063;"{\"type\":\"LineString\",\"coordinates\":[[-73.5893161,45.5167861],[-73.5898051,45.5162721]]}";2;Avenue du Mont-Royal Ouest;5;50;false;false;true;false;false;false;69.0;1;0;0;0;0;false;51881;6010966196;-73.589178;45.517101;54159;1465524177;-73.5901941;45.5160029;0;11;12;5908832;Bus 11 : Parc-du-Mont-Royal / Ridgewood Ouest;"";STM;11-O;Christophe-Colomb / Rachel;Ridgewood / No 3635
453713154;"{\"type\":\"LineString\",\"coordinates\":[[-73.5898051,45.5162721],[-73.5899108,45.5161609]]}";3;Avenue du Mont-Royal Ouest;5;50;false;false;true;false;false;false;15.0;0;0;0;0;0;false;51881;6010966196;-73.589178;45.517101;54159;1465524177;-73.5901941;45.5160029;0;11;12;5908832;Bus 11 : Parc-du-Mont-Royal / Ridgewood Ouest;"";STM;11-O;Christophe-Colomb / Rachel;Ridgewood / No 3635
393885897;"{\"type\":\"LineString\",\"coordinates\":[[-73.5899108,45.5161609],[-73.5901993,45.5158577],[-73.5902655,45.5157881]]}";4;Avenue du Mont-Royal Ouest;1;50;false;false;true;false;false;false;25.0;1;0;0;0;0;false;51881;6010966196;-73.589178;45.517101;54159;1465524177;-73.5901941;45.5160029;1;11;12;5908832;Bus 11 : Parc-du-Mont-Royal / Ridgewood Ouest;"";STM;11-O;Christophe-Colomb / Rachel;Ridgewood / No 3635
393885897;"{\"type\":\"LineString\",\"coordinates\":[[-73.5899108,45.5161609],[-73.5901993,45.5158577],[-73.5902655,45.5157881]]}";1;Avenue du Mont-Royal Ouest;1;50;false;false;true;false;false;false;25.0;1;0;0;0;0;false;54159;1465524177;-73.5901941;45.5160029;53748;1573458108;-73.5933271;45.5105436;1;12;13;5908832;Bus 11 : Parc-du-Mont-Royal / Ridgewood Ouest;"";STM;11-O;Christophe-Colomb / Rachel;Ridgewood / No 3635
46699971;"{\"type\":\"LineString\",\"coordinates\":[[-73.5902655,45.5157881],[-73.5904421,45.5157361],[-73.5907566,45.5154069]]}";2;Boulevard du Mont-Royal;2;50;false;true;true;false;false;false;59.0;1;0;0;0;0;false;54159;1465524177;-73.5901941;45.5160029;53748;1573458108;-73.5933271;45.5105436;0;12;13;5908832;Bus 11 : Parc-du-Mont-Royal / Ridgewood Ouest;"";STM;11-O;Christophe-Colomb / Rachel;Ridgewood / No 3635
46699969;"{\"type\":\"LineString\",\"coordinates\":[[-73.5907566,45.5154069],[-73.5908303,45.5152548],[-73.5908391,45.5152178],[-73.5908392,45.5151783],[-73.5908311,45.515103]]}";3;Boulevard du Mont-Royal;1;50;false;true;true;false;false;false;35.0;1;0;0;0;0;false;54159;1465524177;-73.5901941;45.5160029;53748;1573458108;-73.5933271;45.5105436;0;12;13;5908832;Bus 11 : Parc-du-Mont-Royal / Ridgewood Ouest;"";STM;11-O;Christophe-Colomb / Rachel;Ridgewood / No 3635
46699970;"{\"type\":\"LineString\",\"coordinates\":[[-73.5908311,45.515103],[-73.5908079,45.5150003],[-73.5907853,45.5149308],[-73.5907,45.514743],[-73.5906361,45.5146664],[-73.5905534,45.5145862],[-73.5904432,45.5145036],[-73.5902159,45.5143974]]}";4;Voie Camillien-Houde;1;40;false;true;true;false;false;false;97.0;1;0;0;0;0;false;54159;1465524177;-73.5901941;45.5160029;53748;1573458108;-73.5933271;45.5105436;0;12;13;5908832;Bus 11 : Parc-du-Mont-Royal / Ridgewood Ouest;"";STM;11-O;Christophe-Colomb / Rachel;Ridgewood / No 3635
600826245;"{\"type\":\"LineString\",\"coordinates\":[[-73.5902159,45.5143974],[-73.5896909,45.5140382],[-73.5895539,45.513948],[-73.5894874,45.5139045],[-73.5894061,45.5138512],[-73.5892341,45.5137331],[-73.5891271,45.5136355],[-73.5890783,45.5135184],[-73.5890686,45.5134106],[-73.5890889,45.5133005],[-73.5891488,45.5131954],[-73.5892162,45.5131224],[-73.5893254,45.5130576],[-73.5894932,45.5129928],[-73.589645,45.5129662],[-73.5898154,45.5129706],[-73.5901353,45.5130133]]}";5;Voie Camillien-Houde;2;40;false;false;false;false;false;false;258.0;0;0;0;0;0;false;54159;1465524177;-73.5901941;45.5160029;53748;1573458108;-73.5933271;45.5105436;0;12;13;5908832;Bus 11 : Parc-du-Mont-Royal / Ridgewood Ouest;"";STM;11-O;Christophe-Colomb / Rachel;Ridgewood / No 3635
182756781;"{\"type\":\"LineString\",\"coordinates\":[[-73.5901353,45.5130133],[-73.5910983,45.5132081],[-73.5920827,45.5133789],[-73.592628,45.513459]]}";6;Voie Camillien-Houde;2;40;false;false;false;false;false;false;201.0;0;0;0;0;0;false;54159;1465524177;-73.5901941;45.5160029;53748;1573458108;-73.5933271;45.5105436;0;12;13;5908832;Bus 11 : Parc-du-Mont-Royal / Ridgewood Ouest;"";STM;11-O;Christophe-Colomb / Rachel;Ridgewood / No 3635
609573123;"{\"type\":\"LineString\",\"coordinates\":[[-73.592628,45.513459],[-73.5929493,45.5134849],[-73.5932013,45.513487],[-73.5934716,45.5134791],[-73.593786,45.5134448],[-73.594056,45.5134015],[-73.5944407,45.513294],[-73.594718,45.5131898],[-73.5954679,45.5128706],[-73.5957331,45.5127577],[-73.5958188,45.5127212]]}";7;Voie Camillien-Houde;2;40;false;false;false;false;false;false;270.0;0;0;0;0;0;false;54159;1465524177;-73.5901941;45.5160029;53748;1573458108;-73.5933271;45.5105436;0;12;13;5908832;Bus 11 : Parc-du-Mont-Royal / Ridgewood Ouest;"";STM;11-O;Christophe-Colomb / Rachel;Ridgewood / No 3635
182756782;"{\"type\":\"LineString\",\"coordinates\":[[-73.5958188,45.5127212],[-73.5961537,45.5126026],[-73.5965108,45.5124407],[-73.5965936,45.5123883],[-73.5966612,45.5123304],[-73.5967023,45.512271],[-73.5967411,45.5122022],[-73.5967737,45.5121156],[-73.5967814,45.5120462],[-73.5967737,45.511937],[-73.5967335,45.5118355],[-73.5966633,45.5117379],[-73.5965913,45.5116626],[-73.5964658,45.5115773],[-73.5962931,45.5114908],[-73.5961081,45.5114222],[-73.5957652,45.5113037],[-73.5954435,45.5112322]]}";8;Voie Camillien-Houde;1;40;false;true;false;false;false;false;262.0;0;0;0;0;0;false;54159;1465524177;-73.5901941;45.5160029;53748;1573458108;-73.5933271;45.5105436;0;12;13;5908832;Bus 11 : Parc-du-Mont-Royal / Ridgewood Ouest;"";STM;11-O;Christophe-Colomb / Rachel;Ridgewood / No 3635
410948562;"{\"type\":\"LineString\",\"coordinates\":[[-73.5954435,45.5112322],[-73.5952546,45.5111827],[-73.5949712,45.5111241],[-73.5947029,45.5110881],[-73.5943627,45.5110503],[-73.5940622,45.5109923],[-73.5938405,45.5109188],[-73.5936517,45.5108379],[-73.5933968,45.5107073]]}";9;Voie Camillien-Houde;2;40;false;false;false;false;false;false;173.0;0;0;0;0;0;false;54159;1465524177;-73.5901941;45.5160029;53748;1573458108;-73.5933271;45.5105436;0;12;13;5908832;Bus 11 : Parc-du-Mont-Royal / Ridgewood Ouest;"";STM;11-O;Christophe-Colomb / Rachel;Ridgewood / No 3635
410948561;"{\"type\":\"LineString\",\"coordinates\":[[-73.5933968,45.5107073],[-73.5932604,45.5106339],[-73.592164,45.5100441]]}";10;Voie Camillien-Houde;2;40;false;false;false;false;false;false;61.0;0;1;0;0;0;false;54159;1465524177;-73.5901941;45.5160029;53748;1573458108;-73.5933271;45.5105436;1;12;13;5908832;Bus 11 : Parc-du-Mont-Royal / Ridgewood Ouest;"";STM;11-O;Christophe-Colomb / Rachel;Ridgewood / No 3635
410948562;"{\"type\":\"LineString\",\"coordinates\":[[-73.5954435,45.5112322],[-73.5952546,45.5111827],[-73.5949712,45.5111241],[-73.5947029,45.5110881],[-73.5943627,45.5110503],[-73.5940622,45.5109923],[-73.5938405,45.5109188],[-73.5936517,45.5108379],[-73.5933968,45.5107073]]}";1;Voie Camillien-Houde;2;40;false;false;false;false;false;false;173.0;0;0;0;0;0;false;53748;1573458108;-73.5933271;45.5105436;53745;4325318889;-73.5941163;45.5034639;2;13;14;5908832;Bus 11 : Parc-du-Mont-Royal / Ridgewood Ouest;"";STM;11-O;Christophe-Colomb / Rachel;Ridgewood / No 3635
410948561;"{\"type\":\"LineString\",\"coordinates\":[[-73.5933968,45.5107073],[-73.5932604,45.5106339],[-73.592164,45.5100441]]}";2;Voie Camillien-Houde;2;40;false;false;false;false;false;false;122.0;0;1;0;0;0;false;53748;1573458108;-73.5933271;45.5105436;53745;4325318889;-73.5941163;45.5034639;0;13;14;5908832;Bus 11 : Parc-du-Mont-Royal / Ridgewood Ouest;"";STM;11-O;Christophe-Colomb / Rachel;Ridgewood / No 3635
561497222;"{\"type\":\"LineString\",\"coordinates\":[[-73.592164,45.5100441],[-73.5920523,45.5099499],[-73.5915018,45.5096714],[-73.5912716,45.5095317]]}";3;Voie Camillien-Houde;1;40;false;true;false;false;false;false;91.0;0;0;0;0;0;false;53748;1573458108;-73.5933271;45.5105436;53745;4325318889;-73.5941163;45.5034639;0;13;14;5908832;Bus 11 : Parc-du-Mont-Royal / Ridgewood Ouest;"";STM;11-O;Christophe-Colomb / Rachel;Ridgewood / No 3635
602901214;"{\"type\":\"LineString\",\"coordinates\":[[-73.5912716,45.5095317],[-73.5911836,45.5093994],[-73.5911239,45.5092276],[-73.5910958,45.5090781],[-73.5910782,45.5088709],[-73.5910876,45.5086723],[-73.5911124,45.5085429],[-73.591166,45.5083493]]}";4;Voie Camillien-Houde;2;40;false;false;false;false;false;false;135.0;0;0;0;0;0;false;53748;1573458108;-73.5933271;45.5105436;53745;4325318889;-73.5941163;45.5034639;0;13;14;5908832;Bus 11 : Parc-du-Mont-Royal / Ridgewood Ouest;"";STM;11-O;Christophe-Colomb / Rachel;Ridgewood / No 3635
606294779;"{\"type\":\"LineString\",\"coordinates\":[[-73.591166,45.5083493],[-73.5911767,45.5083195],[-73.5912087,45.5082332],[-73.5912642,45.5081177],[-73.5913558,45.507949]]}";5;Voie Camillien-Houde;1;40;false;false;false;false;false;false;47.0;0;0;0;0;0;false;53748;1573458108;-73.5933271;45.5105436;53745;4325318889;-73.5941163;45.5034639;0;13;14;5908832;Bus 11 : Parc-du-Mont-Royal / Ridgewood Ouest;"";STM;11-O;Christophe-Colomb / Rachel;Ridgewood / No 3635
697467547;"{\"type\":\"LineString\",\"coordinates\":[[-73.5913558,45.507949],[-73.5914959,45.5077649],[-73.5917141,45.5075132]]}";6;Voie Camillien-Houde;2;40;false;false;false;false;false;false;56.0;0;0;0;0;0;false;53748;1573458108;-73.5933271;45.5105436;53745;4325318889;-73.5941163;45.5034639;0;13;14;5908832;Bus 11 : Parc-du-Mont-Royal / Ridgewood Ouest;"";STM;11-O;Christophe-Colomb / Rachel;Ridgewood / No 3635
4886357;"{\"type\":\"LineString\",\"coordinates\":[[-73.5917141,45.5075132],[-73.592742,45.5064108],[-73.5930416,45.5060694],[-73.593208,45.5058224],[-73.5933286,45.5055846],[-73.5934222,45.5053497],[-73.5934864,45.5050209],[-73.5935089,45.5048175],[-73.5935403,45.5044034],[-73.5935593,45.5042833],[-73.5936075,45.5041311],[-73.593669,45.5039713],[-73.5937397,45.5038195],[-73.5938313,45.5036736],[-73.5939764,45.5034863],[-73.594099,45.5033563],[-73.5942099,45.5032546]]}";7;Voie Camillien-Houde;2;40;false;false;false;false;false;false;522.0;0;0;1;0;0;false;53748;1573458108;-73.5933271;45.5105436;53745;4325318889;-73.5941163;45.5034639;2;13;14;5908832;Bus 11 : Parc-du-Mont-Royal / Ridgewood Ouest;"";STM;11-O;Christophe-Colomb / Rachel;Ridgewood / No 3635
4886357;"{\"type\":\"LineString\",\"coordinates\":[[-73.5917141,45.5075132],[-73.592742,45.5064108],[-73.5930416,45.5060694],[-73.593208,45.5058224],[-73.5933286,45.5055846],[-73.5934222,45.5053497],[-73.5934864,45.5050209],[-73.5935089,45.5048175],[-73.5935403,45.5044034],[-73.5935593,45.5042833],[-73.5936075,45.5041311],[-73.593669,45.5039713],[-73.5937397,45.5038195],[-73.5938313,45.5036736],[-73.5939764,45.5034863],[-73.594099,45.5033563],[-73.5942099,45.5032546]]}";1;Voie Camillien-Houde;2;40;false;false;false;false;false;false;261.0;0;0;1;0;0;false;53745;4325318889;-73.5941163;45.5034639;53838;4325314486;-73.5961191;45.5023953;1;14;15;5908832;Bus 11 : Parc-du-Mont-Royal / Ridgewood Ouest;"";STM;11-O;Christophe-Colomb / Rachel;Ridgewood / No 3635
636899611;"{\"type\":\"LineString\",\"coordinates\":[[-73.5942099,45.5032546],[-73.5943403,45.5031268],[-73.5945418,45.5029609],[-73.5947878,45.5028065],[-73.5950281,45.5026867],[-73.5952813,45.5025937],[-73.5955612,45.5025075],[-73.5961537,45.502318],[-73.5961693,45.5023128],[-73.5963172,45.5022636],[-73.5964738,45.5022096],[-73.5969456,45.5020258],[-73.5973018,45.5018681],[-73.5977512,45.5016363],[-73.5979102,45.5015478],[-73.5980783,45.5014492],[-73.5981467,45.5014052],[-73.5983672,45.5012633],[-73.5987225,45.5010135],[-73.599367,45.5004839],[-73.5995368,45.500341],[-73.5997099,45.5001981],[-73.6004351,45.4995603],[-73.6005305,45.499478],[-73.6007766,45.4992656],[-73.6012786,45.4988045],[-73.6016391,45.4984719]]}";2;Chemin Remembrance;2;50;false;false;true;false;false;false;400.0;0;0;4;0;0;false;53745;4325318889;-73.5941163;45.5034639;53838;4325314486;-73.5961191;45.5023953;1;14;15;5908832;Bus 11 : Parc-du-Mont-Royal / Ridgewood Ouest;"";STM;11-O;Christophe-Colomb / Rachel;Ridgewood / No 3635
636899611;"{\"type\":\"LineString\",\"coordinates\":[[-73.5942099,45.5032546],[-73.5943403,45.5031268],[-73.5945418,45.5029609],[-73.5947878,45.5028065],[-73.5950281,45.5026867],[-73.5952813,45.5025937],[-73.5955612,45.5025075],[-73.5961537,45.502318],[-73.5961693,45.5023128],[-73.5963172,45.5022636],[-73.5964738,45.5022096],[-73.5969456,45.5020258],[-73.5973018,45.5018681],[-73.5977512,45.5016363],[-73.5979102,45.5015478],[-73.5980783,45.5014492],[-73.5981467,45.5014052],[-73.5983672,45.5012633],[-73.5987225,45.5010135],[-73.599367,45.5004839],[-73.5995368,45.500341],[-73.5997099,45.5001981],[-73.6004351,45.4995603],[-73.6005305,45.499478],[-73.6007766,45.4992656],[-73.6012786,45.4988045],[-73.6016391,45.4984719]]}";1;Chemin Remembrance;2;50;false;false;true;false;false;false;400.0;0;0;4;0;0;false;54133;1330276776;-73.600377;45.499667;51486;6010981202;-73.607078;45.495608;1;16;17;5908832;Bus 11 : Parc-du-Mont-Royal / Ridgewood Ouest;"";STM;11-O;Christophe-Colomb / Rachel;Ridgewood / No 3635
79875414;"{\"type\":\"LineString\",\"coordinates\":[[-73.6016391,45.4984719],[-73.6019954,45.4981526],[-73.6028966,45.4973103],[-73.6034631,45.4967689],[-73.6042871,45.4959446],[-73.6043989,45.4958334],[-73.6045141,45.4957433],[-73.6045575,45.4957223],[-73.6046547,45.4956753],[-73.6047657,45.4956383],[-73.6048453,45.4956114]]}";2;Chemin Remembrance;1;50;false;true;true;false;false;false;408.0;0;0;1;0;0;false;54133;1330276776;-73.600377;45.499667;51486;6010981202;-73.607078;45.495608;0;16;17;5908832;Bus 11 : Parc-du-Mont-Royal / Ridgewood Ouest;"";STM;11-O;Christophe-Colomb / Rachel;Ridgewood / No 3635
459190756;"{\"type\":\"LineString\",\"coordinates\":[[-73.6048453,45.4956114],[-73.6055059,45.4955295],[-73.6057155,45.4954977]]}";3;"";1;50;false;true;true;false;false;false;70.0;0;0;0;0;0;false;54133;1330276776;-73.600377;45.499667;51486;6010981202;-73.607078;45.495608;0;16;17;5908832;Bus 11 : Parc-du-Mont-Royal / Ridgewood Ouest;"";STM;11-O;Christophe-Colomb / Rachel;Ridgewood / No 3635
725192433;"{\"type\":\"LineString\",\"coordinates\":[[-73.6057155,45.4954977],[-73.6061099,45.4954367],[-73.606239,45.4954186],[-73.6065233,45.4953979]]}";4;"";1;50;false;true;true;false;false;false;65.0;0;0;0;0;0;false;54133;1330276776;-73.600377;45.499667;51486;6010981202;-73.607078;45.495608;0;16;17;5908832;Bus 11 : Parc-du-Mont-Royal / Ridgewood Ouest;"";STM;11-O;Christophe-Colomb / Rachel;Ridgewood / No 3635
433808920;"{\"type\":\"LineString\",\"coordinates\":[[-73.6065233,45.4953979],[-73.6066168,45.4954189],[-73.6072955,45.495623]]}";5;Chemin de la Côte-des-Neiges;3;50;false;true;true;false;false;false;33.0;1;0;0;0;0;false;54133;1330276776;-73.600377;45.499667;51486;6010981202;-73.607078;45.495608;1;16;17;5908832;Bus 11 : Parc-du-Mont-Royal / Ridgewood Ouest;"";STM;11-O;Christophe-Colomb / Rachel;Ridgewood / No 3635
393798979;"{\"type\":\"LineString\",\"coordinates\":[[-73.6072955,45.495623],[-73.6081358,45.4958638],[-73.6085174,45.4959576],[-73.6087287,45.4959988]]}";1;Chemin de la Côte-des-Neiges;3;50;false;true;true;false;false;false;120.0;2;0;0;0;0;false;51486;6010981202;-73.607078;45.495608;51429;4738339839;-73.610261;45.4953984;2;17;18;5908832;Bus 11 : Parc-du-Mont-Royal / Ridgewood Ouest;"";STM;11-O;Christophe-Colomb / Rachel;Ridgewood / No 3635
433241183;"{\"type\":\"LineString\",\"coordinates\":[[-73.6087287,45.4959988],[-73.6090572,45.4960146],[-73.6094457,45.4960038],[-73.6097799,45.4959643],[-73.6103429,45.4958801]]}";2;Chemin de la Côte-des-Neiges;3;50;false;true;true;false;false;false;128.0;2;0;0;0;0;false;51486;6010981202;-73.607078;45.495608;51429;4738339839;-73.610261;45.4953984;0;17;18;5908832;Bus 11 : Parc-du-Mont-Royal / Ridgewood Ouest;"";STM;11-O;Christophe-Colomb / Rachel;Ridgewood / No 3635
165217778;"{\"type\":\"LineString\",\"coordinates\":[[-73.6103429,45.4958801],[-73.6102919,45.4957305]]}";3;Avenue Ridgewood;2;50;false;false;true;false;false;false;18.0;2;0;0;0;0;false;51486;6010981202;-73.607078;45.495608;51429;4738339839;-73.610261;45.4953984;0;17;18;5908832;Bus 11 : Parc-du-Mont-Royal / Ridgewood Ouest;"";STM;11-O;Christophe-Colomb / Rachel;Ridgewood / No 3635
393872217;"{\"type\":\"LineString\",\"coordinates\":[[-73.6102919,45.4957305],[-73.6102065,45.4954785],[-73.61012,45.4953054],[-73.6099535,45.4951589],[-73.6097471,45.4950058],[-73.6096473,45.494866],[-73.6096206,45.4946928],[-73.6096541,45.4945674],[-73.6097347,45.4944561],[-73.6098782,45.4943466],[-73.6100491,45.4942888],[-73.6103343,45.4942588],[-73.6118896,45.4942343],[-73.6121375,45.4941943],[-73.612325,45.4940871],[-73.6124558,45.493959],[-73.6124953,45.4938622],[-73.6124534,45.4937203],[-73.6123917,45.4936199],[-73.6122979,45.49353],[-73.6121301,45.4934625],[-73.611903,45.49344],[-73.611658,45.4934345],[-73.6114982,45.4933946],[-73.6113317,45.4933014],[-73.6112385,45.4931882],[-73.6111946,45.4930783],[-73.6111854,45.4929613],[-73.6112319,45.492842],[-73.6113916,45.4926289],[-73.6115376,45.4925193],[-73.6116511,45.4924568],[-73.6118311,45.4923959],[-73.612018,45.4923536],[-73.6121508,45.4923581],[-73.612357,45.4924092],[-73.6131459,45.4927605]]}";4;Avenue Ridgewood;2;50;false;false;true;false;false;false;764.0;1;0;0;0;0;false;51486;6010981202;-73.607078;45.495608;51429;4738339839;-73.610261;45.4953984;2;17;18;5908832;Bus 11 : Parc-du-Mont-Royal / Ridgewood Ouest;"";STM;11-O;Christophe-Colomb / Rachel;Ridgewood / No 3635
393872217;"{\"type\":\"LineString\",\"coordinates\":[[-73.6102919,45.4957305],[-73.6102065,45.4954785],[-73.61012,45.4953054],[-73.6099535,45.4951589],[-73.6097471,45.4950058],[-73.6096473,45.494866],[-73.6096206,45.4946928],[-73.6096541,45.4945674],[-73.6097347,45.4944561],[-73.6098782,45.4943466],[-73.6100491,45.4942888],[-73.6103343,45.4942588],[-73.6118896,45.4942343],[-73.6121375,45.4941943],[-73.612325,45.4940871],[-73.6124558,45.493959],[-73.6124953,45.4938622],[-73.6124534,45.4937203],[-73.6123917,45.4936199],[-73.6122979,45.49353],[-73.6121301,45.4934625],[-73.611903,45.49344],[-73.611658,45.4934345],[-73.6114982,45.4933946],[-73.6113317,45.4933014],[-73.6112385,45.4931882],[-73.6111946,45.4930783],[-73.6111854,45.4929613],[-73.6112319,45.492842],[-73.6113916,45.4926289],[-73.6115376,45.4925193],[-73.6116511,45.4924568],[-73.6118311,45.4923959],[-73.612018,45.4923536],[-73.6121508,45.4923581],[-73.612357,45.4924092],[-73.6131459,45.4927605]]}";1;Avenue Ridgewood;2;50;false;false;true;false;false;false;382.0;1;0;0;0;0;false;53834;4738339833;-73.6124252;45.4925141;53833;4738339832;-73.613385;45.492699;1;22;23;5908832;Bus 11 : Parc-du-Mont-Royal / Ridgewood Ouest;"";STM;11-O;Christophe-Colomb / Rachel;Ridgewood / No 3635
411198616;"{\"type\":\"LineString\",\"coordinates\":[[-73.6131459,45.4927605],[-73.6134356,45.4929019],[-73.6136472,45.4929666],[-73.6137321,45.4929628],[-73.6137754,45.4929525],[-73.6138179,45.4929283],[-73.6138401,45.4928939],[-73.6138249,45.4928345],[-73.6137219,45.4927687],[-73.6135855,45.4927477],[-73.6134215,45.4927535],[-73.6131459,45.4927605]]}";2;Avenue Ridgewood;2;50;false;true;true;false;false;false;128.0;0;0;0;0;0;false;53834;4738339833;-73.6124252;45.4925141;53833;4738339832;-73.613385;45.492699;1;22;23;5908832;Bus 11 : Parc-du-Mont-Royal / Ridgewood Ouest;"";STM;11-O;Christophe-Colomb / Rachel;Ridgewood / No 3635
