way_id;shape;index;name;nb_lanes;legal_speed;speed_zone_30;oneway;shares_bike;bike_box;bus_lane;dedicated_bus_lane;length;nb_traffic_signals;nb_crossings;nb_stops;nb_give_ways;nb_lvl_crossings;roundabout;stop_id_orig;node_id_orig;coord_x_orig;coord_y_orig;stop_id_dest;node_id_dest;coord_x_dest;coord_y_dest;nb_neighbouring_ways_bus_stop;ordre_orig;ordre_dest;id_line;line_name;colour;operator;ref;from;to
794478501;"{\"type\":\"LineString\",\"coordinates\":[[-73.7516054,45.4566239],[-73.7514919,45.4557003]]}";1;Taxis et autobus;1;50;false;true;true;false;false;false;103.0;0;0;0;0;0;false;60997;6010968524;-73.751614;45.456579;61332;2106085874;-73.5800594;45.4833712;1;0;1;2695857;Bus 747 : YUL Aéroport Montréal-Trudeau / Centre-Ville Est;"";STM;747-E;Aéroport Pierre-Elliott-Trudeau;Station Berri-UQAM (1621 rue Berri)
539342124;"{\"type\":\"LineString\",\"coordinates\":[[-73.7514919,45.4557003],[-73.7514802,45.455483],[-73.7514487,45.455295]]}";2;Boulevard Roméo-Vachon Nord (arrivées);2;50;false;true;true;false;false;false;46.0;0;0;0;0;0;false;60997;6010968524;-73.751614;45.456579;61332;2106085874;-73.5800594;45.4833712;0;0;1;2695857;Bus 747 : YUL Aéroport Montréal-Trudeau / Centre-Ville Est;"";STM;747-E;Aéroport Pierre-Elliott-Trudeau;Station Berri-UQAM (1621 rue Berri)
150945172;"{\"type\":\"LineString\",\"coordinates\":[[-73.7514487,45.455295],[-73.7513889,45.4550981],[-73.7512833,45.4546922]]}";3;Boulevard Roméo-Vachon Sud;1;50;false;true;true;false;false;false;69.0;0;0;0;0;0;false;60997;6010968524;-73.751614;45.456579;61332;2106085874;-73.5800594;45.4833712;0;0;1;2695857;Bus 747 : YUL Aéroport Montréal-Trudeau / Centre-Ville Est;"";STM;747-E;Aéroport Pierre-Elliott-Trudeau;Station Berri-UQAM (1621 rue Berri)
472392058;"{\"type\":\"LineString\",\"coordinates\":[[-73.7512833,45.4546922],[-73.7510787,45.454215]]}";4;Boulevard Roméo-Vachon Nord;2;50;false;true;true;false;false;false;56.0;0;0;0;0;0;false;60997;6010968524;-73.751614;45.456579;61332;2106085874;-73.5800594;45.4833712;0;0;1;2695857;Bus 747 : YUL Aéroport Montréal-Trudeau / Centre-Ville Est;"";STM;747-E;Aéroport Pierre-Elliott-Trudeau;Station Berri-UQAM (1621 rue Berri)
534939131;"{\"type\":\"LineString\",\"coordinates\":[[-73.7510787,45.454215],[-73.7508771,45.4537758],[-73.7508382,45.4536776],[-73.7507186,45.4534227]]}";5;Boulevard Roméo-Vachon Sud;2;50;false;true;true;false;false;false;93.0;0;0;0;0;0;false;60997;6010968524;-73.751614;45.456579;61332;2106085874;-73.5800594;45.4833712;0;0;1;2695857;Bus 747 : YUL Aéroport Montréal-Trudeau / Centre-Ville Est;"";STM;747-E;Aéroport Pierre-Elliott-Trudeau;Station Berri-UQAM (1621 rue Berri)
472392057;"{\"type\":\"LineString\",\"coordinates\":[[-73.7507186,45.4534227],[-73.7506348,45.4532031],[-73.7505767,45.4530934],[-73.7505056,45.4529852]]}";6;Boulevard Roméo-Vachon Sud;3;50;false;true;true;false;false;false;52.0;0;0;0;0;0;false;60997;6010968524;-73.751614;45.456579;61332;2106085874;-73.5800594;45.4833712;0;0;1;2695857;Bus 747 : YUL Aéroport Montréal-Trudeau / Centre-Ville Est;"";STM;747-E;Aéroport Pierre-Elliott-Trudeau;Station Berri-UQAM (1621 rue Berri)
287194801;"{\"type\":\"LineString\",\"coordinates\":[[-73.7505056,45.4529852],[-73.7504183,45.4529001],[-73.750303,45.4528125],[-73.7501749,45.4527351],[-73.7500303,45.4526681]]}";7;Boulevard Roméo-Vachon Sud;1;50;false;true;true;false;false;false;52.0;0;0;0;0;0;false;60997;6010968524;-73.751614;45.456579;61332;2106085874;-73.5800594;45.4833712;0;0;1;2695857;Bus 747 : YUL Aéroport Montréal-Trudeau / Centre-Ville Est;"";STM;747-E;Aéroport Pierre-Elliott-Trudeau;Station Berri-UQAM (1621 rue Berri)
287194799;"{\"type\":\"LineString\",\"coordinates\":[[-73.7500303,45.4526681],[-73.7498331,45.452612],[-73.74965,45.4525815],[-73.7494359,45.4525672],[-73.7487535,45.4526169]]}";8;Boulevard Roméo-Vachon Sud;3;50;false;true;true;false;false;false;102.0;0;0;0;0;0;false;60997;6010968524;-73.751614;45.456579;61332;2106085874;-73.5800594;45.4833712;0;0;1;2695857;Bus 747 : YUL Aéroport Montréal-Trudeau / Centre-Ville Est;"";STM;747-E;Aéroport Pierre-Elliott-Trudeau;Station Berri-UQAM (1621 rue Berri)
534696831;"{\"type\":\"LineString\",\"coordinates\":[[-73.7487535,45.4526169],[-73.7483934,45.4526481],[-73.7468631,45.4527455],[-73.7462557,45.4527627],[-73.7455024,45.4527515]]}";9;Boulevard Roméo-Vachon Sud;3;50;false;true;true;false;false;false;255.0;0;0;0;0;0;false;60997;6010968524;-73.751614;45.456579;61332;2106085874;-73.5800594;45.4833712;0;0;1;2695857;Bus 747 : YUL Aéroport Montréal-Trudeau / Centre-Ville Est;"";STM;747-E;Aéroport Pierre-Elliott-Trudeau;Station Berri-UQAM (1621 rue Berri)
170992764;"{\"type\":\"LineString\",\"coordinates\":[[-73.7455024,45.4527515],[-73.7452078,45.4527368]]}";10;Boulevard Roméo-Vachon Sud;1;50;false;true;true;false;false;false;24.0;0;0;0;0;0;false;60997;6010968524;-73.751614;45.456579;61332;2106085874;-73.5800594;45.4833712;0;0;1;2695857;Bus 747 : YUL Aéroport Montréal-Trudeau / Centre-Ville Est;"";STM;747-E;Aéroport Pierre-Elliott-Trudeau;Station Berri-UQAM (1621 rue Berri)
170992765;"{\"type\":\"LineString\",\"coordinates\":[[-73.7452078,45.4527368],[-73.7450721,45.4527276],[-73.7441208,45.4526632],[-73.7438626,45.4526314],[-73.7434784,45.4525761],[-73.7429565,45.4524709],[-73.7424794,45.4523479]]}";11;"";2;50;false;true;true;false;false;false;219.0;0;0;0;0;0;false;60997;6010968524;-73.751614;45.456579;61332;2106085874;-73.5800594;45.4833712;0;0;1;2695857;Bus 747 : YUL Aéroport Montréal-Trudeau / Centre-Ville Est;"";STM;747-E;Aéroport Pierre-Elliott-Trudeau;Station Berri-UQAM (1621 rue Berri)
150945171;"{\"type\":\"LineString\",\"coordinates\":[[-73.7424794,45.4523479],[-73.7421132,45.4522263]]}";12;"";2;50;false;true;true;false;false;false;32.0;0;0;0;0;0;false;60997;6010968524;-73.751614;45.456579;61332;2106085874;-73.5800594;45.4833712;0;0;1;2695857;Bus 747 : YUL Aéroport Montréal-Trudeau / Centre-Ville Est;"";STM;747-E;Aéroport Pierre-Elliott-Trudeau;Station Berri-UQAM (1621 rue Berri)
597861282;"{\"type\":\"LineString\",\"coordinates\":[[-73.7421132,45.4522263],[-73.7419702,45.4521766]]}";13;"";2;50;false;true;true;false;false;false;13.0;0;0;0;0;0;false;60997;6010968524;-73.751614;45.456579;61332;2106085874;-73.5800594;45.4833712;0;0;1;2695857;Bus 747 : YUL Aéroport Montréal-Trudeau / Centre-Ville Est;"";STM;747-E;Aéroport Pierre-Elliott-Trudeau;Station Berri-UQAM (1621 rue Berri)
362472483;"{\"type\":\"LineString\",\"coordinates\":[[-73.7419702,45.4521766],[-73.7416028,45.4520755],[-73.7412665,45.4519356]]}";14;"";1;50;false;true;true;false;false;false;62.0;0;0;0;0;0;false;60997;6010968524;-73.751614;45.456579;61332;2106085874;-73.5800594;45.4833712;0;0;1;2695857;Bus 747 : YUL Aéroport Montréal-Trudeau / Centre-Ville Est;"";STM;747-E;Aéroport Pierre-Elliott-Trudeau;Station Berri-UQAM (1621 rue Berri)
354209251;"{\"type\":\"LineString\",\"coordinates\":[[-73.7412665,45.4519356],[-73.7407632,45.4516983]]}";15;"";1;50;false;true;true;false;false;false;48.0;0;0;0;0;0;false;60997;6010968524;-73.751614;45.456579;61332;2106085874;-73.5800594;45.4833712;0;0;1;2695857;Bus 747 : YUL Aéroport Montréal-Trudeau / Centre-Ville Est;"";STM;747-E;Aéroport Pierre-Elliott-Trudeau;Station Berri-UQAM (1621 rue Berri)
354209249;"{\"type\":\"LineString\",\"coordinates\":[[-73.7407632,45.4516983],[-73.7404826,45.4515365],[-73.7402435,45.4513944],[-73.7400558,45.451275],[-73.7397849,45.4510863]]}";16;"";1;50;false;true;true;false;false;false;103.0;0;0;0;0;0;false;60997;6010968524;-73.751614;45.456579;61332;2106085874;-73.5800594;45.4833712;0;0;1;2695857;Bus 747 : YUL Aéroport Montréal-Trudeau / Centre-Ville Est;"";STM;747-E;Aéroport Pierre-Elliott-Trudeau;Station Berri-UQAM (1621 rue Berri)
354209243;"{\"type\":\"LineString\",\"coordinates\":[[-73.7397849,45.4510863],[-73.7394114,45.4507963],[-73.7391282,45.4505607],[-73.7390035,45.450457]]}";17;"";1;50;false;true;true;false;false;false;93.0;0;0;0;0;0;false;60997;6010968524;-73.751614;45.456579;61332;2106085874;-73.5800594;45.4833712;0;0;1;2695857;Bus 747 : YUL Aéroport Montréal-Trudeau / Centre-Ville Est;"";STM;747-E;Aéroport Pierre-Elliott-Trudeau;Station Berri-UQAM (1621 rue Berri)
354209238;"{\"type\":\"LineString\",\"coordinates\":[[-73.7390035,45.450457],[-73.7388037,45.4502703],[-73.7385215,45.4499794],[-73.7382624,45.4497022],[-73.7379477,45.4493333]]}";18;"";1;50;false;true;true;false;false;false;150.0;0;0;0;0;0;false;60997;6010968524;-73.751614;45.456579;61332;2106085874;-73.5800594;45.4833712;0;0;1;2695857;Bus 747 : YUL Aéroport Montréal-Trudeau / Centre-Ville Est;"";STM;747-E;Aéroport Pierre-Elliott-Trudeau;Station Berri-UQAM (1621 rue Berri)
542636085;"{\"type\":\"LineString\",\"coordinates\":[[-73.7379477,45.4493333],[-73.7374518,45.4487475],[-73.7372648,45.4485607],[-73.7371331,45.4484572],[-73.7370284,45.4483904],[-73.7369441,45.4483366],[-73.7368452,45.4482876],[-73.7367429,45.4482493],[-73.7366527,45.4482174],[-73.7365246,45.4481809],[-73.7363678,45.4481416],[-73.7362323,45.4481237],[-73.736011,45.4481087],[-73.7358721,45.4481039]]}";19;"";1;50;false;true;true;false;false;false;226.0;0;0;0;0;0;false;60997;6010968524;-73.751614;45.456579;61332;2106085874;-73.5800594;45.4833712;0;0;1;2695857;Bus 747 : YUL Aéroport Montréal-Trudeau / Centre-Ville Est;"";STM;747-E;Aéroport Pierre-Elliott-Trudeau;Station Berri-UQAM (1621 rue Berri)
110479870;"{\"type\":\"LineString\",\"coordinates\":[[-73.7358721,45.4481039],[-73.7356121,45.4481221],[-73.7353816,45.4481507],[-73.7345828,45.448221],[-73.7341652,45.4482711],[-73.7337329,45.4483229],[-73.733291,45.4483687]]}";20;"";1;50;false;true;true;false;false;false;204.0;0;0;0;0;0;false;60997;6010968524;-73.751614;45.456579;61332;2106085874;-73.5800594;45.4833712;0;0;1;2695857;Bus 747 : YUL Aéroport Montréal-Trudeau / Centre-Ville Est;"";STM;747-E;Aéroport Pierre-Elliott-Trudeau;Station Berri-UQAM (1621 rue Berri)
548254286;"{\"type\":\"LineString\",\"coordinates\":[[-73.733291,45.4483687],[-73.7326442,45.4484248],[-73.7321636,45.4484564],[-73.7287322,45.4485134]]}";21;"";1;50;false;true;true;false;false;false;357.0;0;0;0;0;0;false;60997;6010968524;-73.751614;45.456579;61332;2106085874;-73.5800594;45.4833712;0;0;1;2695857;Bus 747 : YUL Aéroport Montréal-Trudeau / Centre-Ville Est;"";STM;747-E;Aéroport Pierre-Elliott-Trudeau;Station Berri-UQAM (1621 rue Berri)
355817168;"{\"type\":\"LineString\",\"coordinates\":[[-73.7287322,45.4485134],[-73.7249405,45.4484439]]}";22;Autoroute du Souvenir;5;70;false;true;true;false;false;false;297.0;0;0;0;0;0;false;60997;6010968524;-73.751614;45.456579;61332;2106085874;-73.5800594;45.4833712;0;0;1;2695857;Bus 747 : YUL Aéroport Montréal-Trudeau / Centre-Ville Est;"";STM;747-E;Aéroport Pierre-Elliott-Trudeau;Station Berri-UQAM (1621 rue Berri)
361818769;"{\"type\":\"LineString\",\"coordinates\":[[-73.7249405,45.4484439],[-73.7209358,45.4483765]]}";23;Autoroute du Souvenir;4;70;false;true;true;false;false;false;314.0;0;0;0;0;0;false;60997;6010968524;-73.751614;45.456579;61332;2106085874;-73.5800594;45.4833712;0;0;1;2695857;Bus 747 : YUL Aéroport Montréal-Trudeau / Centre-Ville Est;"";STM;747-E;Aéroport Pierre-Elliott-Trudeau;Station Berri-UQAM (1621 rue Berri)
105391581;"{\"type\":\"LineString\",\"coordinates\":[[-73.7209358,45.4483765],[-73.7203296,45.4483656]]}";24;Autoroute du Souvenir;3;70;false;true;true;false;false;false;48.0;0;0;0;0;0;false;60997;6010968524;-73.751614;45.456579;61332;2106085874;-73.5800594;45.4833712;0;0;1;2695857;Bus 747 : YUL Aéroport Montréal-Trudeau / Centre-Ville Est;"";STM;747-E;Aéroport Pierre-Elliott-Trudeau;Station Berri-UQAM (1621 rue Berri)
105391550;"{\"type\":\"LineString\",\"coordinates\":[[-73.7203296,45.4483656],[-73.7175796,45.4483159]]}";25;Autoroute du Souvenir;4;70;false;true;true;false;false;false;216.0;0;0;0;0;0;false;60997;6010968524;-73.751614;45.456579;61332;2106085874;-73.5800594;45.4833712;0;0;1;2695857;Bus 747 : YUL Aéroport Montréal-Trudeau / Centre-Ville Est;"";STM;747-E;Aéroport Pierre-Elliott-Trudeau;Station Berri-UQAM (1621 rue Berri)
361818770;"{\"type\":\"LineString\",\"coordinates\":[[-73.7175796,45.4483159],[-73.7146204,45.4482581]]}";26;Autoroute du Souvenir;5;70;false;true;true;false;false;false;232.0;0;0;0;0;0;false;60997;6010968524;-73.751614;45.456579;61332;2106085874;-73.5800594;45.4833712;0;0;1;2695857;Bus 747 : YUL Aéroport Montréal-Trudeau / Centre-Ville Est;"";STM;747-E;Aéroport Pierre-Elliott-Trudeau;Station Berri-UQAM (1621 rue Berri)
361818771;"{\"type\":\"LineString\",\"coordinates\":[[-73.7146204,45.4482581],[-73.7104205,45.448176],[-73.7053276,45.4480735],[-73.7026194,45.4480198]]}";27;Autoroute du Souvenir;4;70;false;true;true;false;false;false;939.0;0;0;0;0;0;false;60997;6010968524;-73.751614;45.456579;61332;2106085874;-73.5800594;45.4833712;0;0;1;2695857;Bus 747 : YUL Aéroport Montréal-Trudeau / Centre-Ville Est;"";STM;747-E;Aéroport Pierre-Elliott-Trudeau;Station Berri-UQAM (1621 rue Berri)
361993053;"{\"type\":\"LineString\",\"coordinates\":[[-73.7026194,45.4480198],[-73.7012222,45.4479921]]}";28;Autoroute du Souvenir;5;70;false;true;true;false;false;false;110.0;0;0;0;0;0;false;60997;6010968524;-73.751614;45.456579;61332;2106085874;-73.5800594;45.4833712;0;0;1;2695857;Bus 747 : YUL Aéroport Montréal-Trudeau / Centre-Ville Est;"";STM;747-E;Aéroport Pierre-Elliott-Trudeau;Station Berri-UQAM (1621 rue Berri)
361993054;"{\"type\":\"LineString\",\"coordinates\":[[-73.7012222,45.4479921],[-73.6933709,45.4478478]]}";29;Autoroute du Souvenir;4;70;false;true;true;false;false;false;614.0;0;0;0;0;0;false;60997;6010968524;-73.751614;45.456579;61332;2106085874;-73.5800594;45.4833712;0;0;1;2695857;Bus 747 : YUL Aéroport Montréal-Trudeau / Centre-Ville Est;"";STM;747-E;Aéroport Pierre-Elliott-Trudeau;Station Berri-UQAM (1621 rue Berri)
419811052;"{\"type\":\"LineString\",\"coordinates\":[[-73.6933709,45.4478478],[-73.6927895,45.447833]]}";30;Autoroute du Souvenir;4;70;false;true;true;false;false;false;46.0;0;0;0;0;0;false;60997;6010968524;-73.751614;45.456579;61332;2106085874;-73.5800594;45.4833712;0;0;1;2695857;Bus 747 : YUL Aéroport Montréal-Trudeau / Centre-Ville Est;"";STM;747-E;Aéroport Pierre-Elliott-Trudeau;Station Berri-UQAM (1621 rue Berri)
361993052;"{\"type\":\"LineString\",\"coordinates\":[[-73.6927895,45.447833],[-73.6922362,45.4478214],[-73.6915549,45.4477959],[-73.6903934,45.4477452],[-73.6893502,45.4476775],[-73.6878516,45.4475773],[-73.6867945,45.447511],[-73.6856905,45.447455],[-73.6838285,45.4474011],[-73.682093,45.4473497]]}";31;Autoroute du Souvenir;3;70;false;true;true;false;false;false;839.0;0;0;0;0;0;false;60997;6010968524;-73.751614;45.456579;61332;2106085874;-73.5800594;45.4833712;0;0;1;2695857;Bus 747 : YUL Aéroport Montréal-Trudeau / Centre-Ville Est;"";STM;747-E;Aéroport Pierre-Elliott-Trudeau;Station Berri-UQAM (1621 rue Berri)
361993055;"{\"type\":\"LineString\",\"coordinates\":[[-73.682093,45.4473497],[-73.6815098,45.4473383],[-73.6805517,45.4473196],[-73.6784424,45.4472493],[-73.6722567,45.4471539],[-73.6711984,45.4470364],[-73.66974,45.4466958],[-73.668917,45.4464374],[-73.6644181,45.4446596],[-73.658823,45.4428837],[-73.6574311,45.4425394],[-73.656326,45.4423295],[-73.6535505,45.4420884]]}";32;Autoroute du Souvenir;1;70;false;true;true;false;false;false;2351.0;0;0;0;0;0;false;60997;6010968524;-73.751614;45.456579;61332;2106085874;-73.5800594;45.4833712;0;0;1;2695857;Bus 747 : YUL Aéroport Montréal-Trudeau / Centre-Ville Est;"";STM;747-E;Aéroport Pierre-Elliott-Trudeau;Station Berri-UQAM (1621 rue Berri)
47919038;"{\"type\":\"LineString\",\"coordinates\":[[-73.6535505,45.4420884],[-73.6518473,45.4419646],[-73.6514541,45.4419469]]}";33;Autoroute du Souvenir;2;70;false;true;true;false;false;false;165.0;0;0;0;0;0;false;60997;6010968524;-73.751614;45.456579;61332;2106085874;-73.5800594;45.4833712;0;0;1;2695857;Bus 747 : YUL Aéroport Montréal-Trudeau / Centre-Ville Est;"";STM;747-E;Aéroport Pierre-Elliott-Trudeau;Station Berri-UQAM (1621 rue Berri)
104938768;"{\"type\":\"LineString\",\"coordinates\":[[-73.6514541,45.4419469],[-73.6512511,45.4419379],[-73.6510332,45.4419386]]}";34;Autoroute du Souvenir;2;70;false;true;true;false;false;false;33.0;0;0;0;0;0;false;60997;6010968524;-73.751614;45.456579;61332;2106085874;-73.5800594;45.4833712;0;0;1;2695857;Bus 747 : YUL Aéroport Montréal-Trudeau / Centre-Ville Est;"";STM;747-E;Aéroport Pierre-Elliott-Trudeau;Station Berri-UQAM (1621 rue Berri)
104938775;"{\"type\":\"LineString\",\"coordinates\":[[-73.6510332,45.4419386],[-73.6506737,45.4419472],[-73.6501062,45.4419933],[-73.6498754,45.4420235],[-73.6495868,45.4420713],[-73.6493578,45.4421128],[-73.649163,45.442155],[-73.6489359,45.4422047],[-73.6486969,45.4422725],[-73.6482937,45.4423994],[-73.6479883,45.4425141],[-73.6477405,45.4426162],[-73.6475812,45.4426857],[-73.6474264,45.4427655]]}";35;Autoroute du Souvenir;2;70;false;true;true;false;false;false;302.0;0;0;0;0;0;false;60997;6010968524;-73.751614;45.456579;61332;2106085874;-73.5800594;45.4833712;0;0;1;2695857;Bus 747 : YUL Aéroport Montréal-Trudeau / Centre-Ville Est;"";STM;747-E;Aéroport Pierre-Elliott-Trudeau;Station Berri-UQAM (1621 rue Berri)
104938766;"{\"type\":\"LineString\",\"coordinates\":[[-73.6474264,45.4427655],[-73.6470733,45.4429423]]}";36;Autoroute du Souvenir;2;70;false;true;true;false;false;false;34.0;0;0;0;0;0;false;60997;6010968524;-73.751614;45.456579;61332;2106085874;-73.5800594;45.4833712;0;0;1;2695857;Bus 747 : YUL Aéroport Montréal-Trudeau / Centre-Ville Est;"";STM;747-E;Aéroport Pierre-Elliott-Trudeau;Station Berri-UQAM (1621 rue Berri)
47919174;"{\"type\":\"LineString\",\"coordinates\":[[-73.6470733,45.4429423],[-73.6463513,45.443317]]}";37;Autoroute du Souvenir;2;70;false;true;true;false;false;false;71.0;0;0;0;0;0;false;60997;6010968524;-73.751614;45.456579;61332;2106085874;-73.5800594;45.4833712;0;0;1;2695857;Bus 747 : YUL Aéroport Montréal-Trudeau / Centre-Ville Est;"";STM;747-E;Aéroport Pierre-Elliott-Trudeau;Station Berri-UQAM (1621 rue Berri)
521554875;"{\"type\":\"LineString\",\"coordinates\":[[-73.6463513,45.443317],[-73.6440463,45.4444134],[-73.6437052,45.4445622],[-73.6430493,45.444867],[-73.642379,45.44521],[-73.6414084,45.4457174],[-73.6409487,45.4459628],[-73.6403824,45.4462797],[-73.6393377,45.4468362]]}";38;Autoroute du Souvenir;2;70;false;true;true;false;false;false;674.0;0;0;0;0;0;false;60997;6010968524;-73.751614;45.456579;61332;2106085874;-73.5800594;45.4833712;0;0;1;2695857;Bus 747 : YUL Aéroport Montréal-Trudeau / Centre-Ville Est;"";STM;747-E;Aéroport Pierre-Elliott-Trudeau;Station Berri-UQAM (1621 rue Berri)
521554877;"{\"type\":\"LineString\",\"coordinates\":[[-73.6393377,45.4468362],[-73.6388408,45.4472023],[-73.6385719,45.4474096],[-73.6382532,45.4476211],[-73.636863,45.4484185],[-73.6348686,45.4494976],[-73.634393,45.4496843],[-73.63405,45.4498129],[-73.6337496,45.4499408],[-73.6327807,45.450461],[-73.6323792,45.4506959]]}";39;20 est / 138 est (temp);3;70;false;true;true;false;false;false;695.0;0;0;0;0;0;false;60997;6010968524;-73.751614;45.456579;61332;2106085874;-73.5800594;45.4833712;0;0;1;2695857;Bus 747 : YUL Aéroport Montréal-Trudeau / Centre-Ville Est;"";STM;747-E;Aéroport Pierre-Elliott-Trudeau;Station Berri-UQAM (1621 rue Berri)
729768640;"{\"type\":\"LineString\",\"coordinates\":[[-73.6323792,45.4506959],[-73.6319616,45.4509711],[-73.6310201,45.4515573],[-73.6299156,45.4522977]]}";40;Autoroute du Souvenir;3;70;false;true;true;false;false;false;263.0;0;0;0;0;0;false;60997;6010968524;-73.751614;45.456579;61332;2106085874;-73.5800594;45.4833712;0;0;1;2695857;Bus 747 : YUL Aéroport Montréal-Trudeau / Centre-Ville Est;"";STM;747-E;Aéroport Pierre-Elliott-Trudeau;Station Berri-UQAM (1621 rue Berri)
640352531;"{\"type\":\"LineString\",\"coordinates\":[[-73.6299156,45.4522977],[-73.629402,45.4526591],[-73.628089,45.4536019],[-73.6277467,45.4538391],[-73.6266387,45.4546009],[-73.6254427,45.4554297],[-73.624235,45.4562691],[-73.6226012,45.457381],[-73.6211822,45.4582861]]}";41;Autoroute du Souvenir;3;50;false;true;true;false;false;false;954.0;0;0;0;0;0;false;60997;6010968524;-73.751614;45.456579;61332;2106085874;-73.5800594;45.4833712;0;0;1;2695857;Bus 747 : YUL Aéroport Montréal-Trudeau / Centre-Ville Est;"";STM;747-E;Aéroport Pierre-Elliott-Trudeau;Station Berri-UQAM (1621 rue Berri)
656534657;"{\"type\":\"LineString\",\"coordinates\":[[-73.6211822,45.4582861],[-73.6204151,45.4587336],[-73.6196054,45.4591624],[-73.6187057,45.4596317],[-73.6176478,45.4601359],[-73.6163791,45.4606938],[-73.6149213,45.4612704],[-73.6138825,45.461689]]}";42;Autoroute du Souvenir;4;50;false;true;true;false;false;false;686.0;0;0;0;0;0;false;60997;6010968524;-73.751614;45.456579;61332;2106085874;-73.5800594;45.4833712;0;0;1;2695857;Bus 747 : YUL Aéroport Montréal-Trudeau / Centre-Ville Est;"";STM;747-E;Aéroport Pierre-Elliott-Trudeau;Station Berri-UQAM (1621 rue Berri)
656534656;"{\"type\":\"LineString\",\"coordinates\":[[-73.6138825,45.461689],[-73.6122125,45.4623092],[-73.6105938,45.4629732],[-73.6090128,45.4636154]]}";43;Autoroute du Souvenir;4;50;false;true;true;false;false;false;437.0;0;0;0;0;0;false;60997;6010968524;-73.751614;45.456579;61332;2106085874;-73.5800594;45.4833712;0;0;1;2695857;Bus 747 : YUL Aéroport Montréal-Trudeau / Centre-Ville Est;"";STM;747-E;Aéroport Pierre-Elliott-Trudeau;Station Berri-UQAM (1621 rue Berri)
369021505;"{\"type\":\"LineString\",\"coordinates\":[[-73.6090128,45.4636154],[-73.6076673,45.4642174],[-73.6058022,45.4649988],[-73.6045116,45.4655716],[-73.6037081,45.4659327],[-73.6030489,45.4662571],[-73.6024411,45.4665798],[-73.6017791,45.4669498]]}";44;Autoroute Ville-Marie;2;50;false;true;true;false;false;false;677.0;0;0;0;0;0;false;60997;6010968524;-73.751614;45.456579;61332;2106085874;-73.5800594;45.4833712;0;0;1;2695857;Bus 747 : YUL Aéroport Montréal-Trudeau / Centre-Ville Est;"";STM;747-E;Aéroport Pierre-Elliott-Trudeau;Station Berri-UQAM (1621 rue Berri)
539101845;"{\"type\":\"LineString\",\"coordinates\":[[-73.6017791,45.4669498],[-73.6012526,45.467247],[-73.6009223,45.4674507],[-73.6005347,45.4677079],[-73.6001964,45.4679355],[-73.5998455,45.4681926],[-73.5996316,45.4683702],[-73.5994273,45.468546],[-73.5990458,45.4688974]]}";45;Autoroute Ville-Marie;2;70;false;true;true;false;false;false;306.0;0;0;0;0;0;false;60997;6010968524;-73.751614;45.456579;61332;2106085874;-73.5800594;45.4833712;0;0;1;2695857;Bus 747 : YUL Aéroport Montréal-Trudeau / Centre-Ville Est;"";STM;747-E;Aéroport Pierre-Elliott-Trudeau;Station Berri-UQAM (1621 rue Berri)
400819498;"{\"type\":\"LineString\",\"coordinates\":[[-73.5990458,45.4688974],[-73.5987325,45.4692206],[-73.5984248,45.4695693],[-73.598163,45.4698955],[-73.5979191,45.4702442],[-73.597706,45.4705987],[-73.5973955,45.4711845]]}";46;Autoroute Ville-Marie;2;70;false;true;true;false;false;false;286.0;0;0;0;0;0;false;60997;6010968524;-73.751614;45.456579;61332;2106085874;-73.5800594;45.4833712;0;0;1;2695857;Bus 747 : YUL Aéroport Montréal-Trudeau / Centre-Ville Est;"";STM;747-E;Aéroport Pierre-Elliott-Trudeau;Station Berri-UQAM (1621 rue Berri)
454754497;"{\"type\":\"LineString\",\"coordinates\":[[-73.5973955,45.4711845],[-73.5971539,45.4716601],[-73.5965979,45.4728893]]}";47;Autoroute Ville-Marie;2;50;false;true;true;false;false;false;200.0;0;0;0;0;0;false;60997;6010968524;-73.751614;45.456579;61332;2106085874;-73.5800594;45.4833712;0;0;1;2695857;Bus 747 : YUL Aéroport Montréal-Trudeau / Centre-Ville Est;"";STM;747-E;Aéroport Pierre-Elliott-Trudeau;Station Berri-UQAM (1621 rue Berri)
685116207;"{\"type\":\"LineString\",\"coordinates\":[[-73.5965979,45.4728893],[-73.5964636,45.473191]]}";48;Autoroute Ville-Marie;2;50;false;true;true;false;false;false;36.0;0;0;0;0;0;false;60997;6010968524;-73.751614;45.456579;61332;2106085874;-73.5800594;45.4833712;0;0;1;2695857;Bus 747 : YUL Aéroport Montréal-Trudeau / Centre-Ville Est;"";STM;747-E;Aéroport Pierre-Elliott-Trudeau;Station Berri-UQAM (1621 rue Berri)
687959819;"{\"type\":\"LineString\",\"coordinates\":[[-73.5964636,45.473191],[-73.5963633,45.4733829],[-73.5962406,45.4735838],[-73.5961515,45.4737136],[-73.5959072,45.4740979],[-73.595821,45.4742586],[-73.5957144,45.4744959]]}";49;Autoroute Ville-Marie;2;50;false;true;true;false;false;false;157.0;0;0;0;0;0;false;60997;6010968524;-73.751614;45.456579;61332;2106085874;-73.5800594;45.4833712;0;0;1;2695857;Bus 747 : YUL Aéroport Montréal-Trudeau / Centre-Ville Est;"";STM;747-E;Aéroport Pierre-Elliott-Trudeau;Station Berri-UQAM (1621 rue Berri)
401987800;"{\"type\":\"LineString\",\"coordinates\":[[-73.5957144,45.4744959],[-73.5954665,45.4750741]]}";50;Autoroute Ville-Marie;4;70;false;true;true;false;false;false;68.0;0;0;0;0;0;false;60997;6010968524;-73.751614;45.456579;61332;2106085874;-73.5800594;45.4833712;0;0;1;2695857;Bus 747 : YUL Aéroport Montréal-Trudeau / Centre-Ville Est;"";STM;747-E;Aéroport Pierre-Elliott-Trudeau;Station Berri-UQAM (1621 rue Berri)
454754490;"{\"type\":\"LineString\",\"coordinates\":[[-73.5954665,45.4750741],[-73.5952147,45.4756852]]}";51;Autoroute Ville-Marie;4;70;false;true;true;false;false;false;71.0;0;0;0;0;0;false;60997;6010968524;-73.751614;45.456579;61332;2106085874;-73.5800594;45.4833712;0;0;1;2695857;Bus 747 : YUL Aéroport Montréal-Trudeau / Centre-Ville Est;"";STM;747-E;Aéroport Pierre-Elliott-Trudeau;Station Berri-UQAM (1621 rue Berri)
454754491;"{\"type\":\"LineString\",\"coordinates\":[[-73.5952147,45.4756852],[-73.5951144,45.4759245]]}";52;Autoroute Ville-Marie;3;70;false;true;true;false;false;false;28.0;0;0;0;0;0;false;60997;6010968524;-73.751614;45.456579;61332;2106085874;-73.5800594;45.4833712;0;0;1;2695857;Bus 747 : YUL Aéroport Montréal-Trudeau / Centre-Ville Est;"";STM;747-E;Aéroport Pierre-Elliott-Trudeau;Station Berri-UQAM (1621 rue Berri)
454754492;"{\"type\":\"LineString\",\"coordinates\":[[-73.5951144,45.4759245],[-73.5949259,45.4763459],[-73.5947863,45.4766249],[-73.59463,45.4768834],[-73.594504,45.4770724],[-73.5943328,45.4773227],[-73.594181,45.4775217],[-73.5940116,45.4777239],[-73.5938009,45.4779565],[-73.5935824,45.4781711],[-73.5932576,45.4784423],[-73.5928455,45.4787542],[-73.5922372,45.4791654],[-73.5918712,45.4794061]]}";53;Autoroute Ville-Marie;3;70;false;true;true;false;false;false;470.0;0;0;0;0;0;false;60997;6010968524;-73.751614;45.456579;61332;2106085874;-73.5800594;45.4833712;0;0;1;2695857;Bus 747 : YUL Aéroport Montréal-Trudeau / Centre-Ville Est;"";STM;747-E;Aéroport Pierre-Elliott-Trudeau;Station Berri-UQAM (1621 rue Berri)
402181671;"{\"type\":\"LineString\",\"coordinates\":[[-73.5918712,45.4794061],[-73.5912743,45.4797345],[-73.5903057,45.4803053],[-73.5895971,45.4807533],[-73.5888739,45.4811807],[-73.5885175,45.4813776],[-73.5881884,45.4815816],[-73.5871908,45.4821965]]}";54;"";1;50;false;true;true;false;false;false;480.0;0;0;0;0;0;false;60997;6010968524;-73.751614;45.456579;61332;2106085874;-73.5800594;45.4833712;0;0;1;2695857;Bus 747 : YUL Aéroport Montréal-Trudeau / Centre-Ville Est;"";STM;747-E;Aéroport Pierre-Elliott-Trudeau;Station Berri-UQAM (1621 rue Berri)
454754493;"{\"type\":\"LineString\",\"coordinates\":[[-73.5871908,45.4821965],[-73.5868296,45.482402],[-73.586658,45.4824698],[-73.5864615,45.4825255],[-73.5861762,45.4825474],[-73.5859001,45.4825239],[-73.5856373,45.4824609],[-73.5854857,45.4823909],[-73.58538,45.4823375],[-73.5852925,45.4822951],[-73.5851507,45.4822519]]}";55;"";2;50;false;true;true;false;false;false;179.0;1;0;0;0;0;false;60997;6010968524;-73.751614;45.456579;61332;2106085874;-73.5800594;45.4833712;0;0;1;2695857;Bus 747 : YUL Aéroport Montréal-Trudeau / Centre-Ville Est;"";STM;747-E;Aéroport Pierre-Elliott-Trudeau;Station Berri-UQAM (1621 rue Berri)
10509454;"{\"type\":\"LineString\",\"coordinates\":[[-73.5851507,45.4822519],[-73.5829598,45.4812017]]}";56;Rue Rose-de-Lima;1;50;false;true;true;false;false;false;208.0;2;0;0;0;0;false;60997;6010968524;-73.751614;45.456579;61332;2106085874;-73.5800594;45.4833712;0;0;1;2695857;Bus 747 : YUL Aéroport Montréal-Trudeau / Centre-Ville Est;"";STM;747-E;Aéroport Pierre-Elliott-Trudeau;Station Berri-UQAM (1621 rue Berri)
463671311;"{\"type\":\"LineString\",\"coordinates\":[[-73.5829598,45.4812017],[-73.5824366,45.4817514],[-73.5818929,45.4822939],[-73.5816369,45.4825297],[-73.5814133,45.4826863]]}";57;Rue Saint-Jacques;4;50;false;true;true;false;false;false;205.0;2;0;0;0;0;false;60997;6010968524;-73.751614;45.456579;61332;2106085874;-73.5800594;45.4833712;0;0;1;2695857;Bus 747 : YUL Aéroport Montréal-Trudeau / Centre-Ville Est;"";STM;747-E;Aéroport Pierre-Elliott-Trudeau;Station Berri-UQAM (1621 rue Berri)
792160913;"{\"type\":\"LineString\",\"coordinates\":[[-73.5814133,45.4826863],[-73.5813387,45.4827316],[-73.5810113,45.4829303],[-73.5806692,45.4831379],[-73.5806104,45.483174],[-73.5801865,45.4834342],[-73.580032,45.4835291],[-73.5799347,45.4835888],[-73.5797042,45.4837181],[-73.5796234,45.4837635]]}";58;Rue Saint-Jacques;4;50;false;true;true;false;false;false;92.5;2;2;0;0;0;false;60997;6010968524;-73.751614;45.456579;61332;2106085874;-73.5800594;45.4833712;1;0;1;2695857;Bus 747 : YUL Aéroport Montréal-Trudeau / Centre-Ville Est;"";STM;747-E;Aéroport Pierre-Elliott-Trudeau;Station Berri-UQAM (1621 rue Berri)
792160913;"{\"type\":\"LineString\",\"coordinates\":[[-73.5814133,45.4826863],[-73.5813387,45.4827316],[-73.5810113,45.4829303],[-73.5806692,45.4831379],[-73.5806104,45.483174],[-73.5801865,45.4834342],[-73.580032,45.4835291],[-73.5799347,45.4835888],[-73.5797042,45.4837181],[-73.5796234,45.4837635]]}";1;Rue Saint-Jacques;4;50;false;true;true;false;false;false;92.5;2;2;0;0;0;false;61332;2106085874;-73.5800594;45.4833712;52326;6010970018;-73.574736;45.493792;1;1;2;2695857;Bus 747 : YUL Aéroport Montréal-Trudeau / Centre-Ville Est;"";STM;747-E;Aéroport Pierre-Elliott-Trudeau;Station Berri-UQAM (1621 rue Berri)
463671310;"{\"type\":\"LineString\",\"coordinates\":[[-73.5796234,45.4837635],[-73.5794724,45.4838513]]}";2;Rue Saint-Jacques;4;50;false;true;true;false;false;false;16.0;2;0;0;0;0;false;61332;2106085874;-73.5800594;45.4833712;52326;6010970018;-73.574736;45.493792;0;1;2;2695857;Bus 747 : YUL Aéroport Montréal-Trudeau / Centre-Ville Est;"";STM;747-E;Aéroport Pierre-Elliott-Trudeau;Station Berri-UQAM (1621 rue Berri)
200638843;"{\"type\":\"LineString\",\"coordinates\":[[-73.5794724,45.4838513],[-73.5793794,45.4839082],[-73.5782532,45.4845967],[-73.5769129,45.4854161],[-73.5756218,45.4861869],[-73.5742366,45.4870299],[-73.5741018,45.4871299],[-73.5738174,45.4873855],[-73.5736455,45.4875596],[-73.5734337,45.4877743],[-73.5727474,45.488491],[-73.5720824,45.4891846],[-73.5714475,45.4898338],[-73.5707374,45.4905612],[-73.5699429,45.4914226]]}";3;Rue Saint-Jacques;4;50;false;true;true;false;false;false;1133.0;3;1;0;0;0;false;61332;2106085874;-73.5800594;45.4833712;52326;6010970018;-73.574736;45.493792;0;1;2;2695857;Bus 747 : YUL Aéroport Montréal-Trudeau / Centre-Ville Est;"";STM;747-E;Aéroport Pierre-Elliott-Trudeau;Station Berri-UQAM (1621 rue Berri)
111771067;"{\"type\":\"LineString\",\"coordinates\":[[-73.5722641,45.4925231],[-73.5717573,45.4922829],[-73.5714328,45.492129],[-73.5711989,45.4920181],[-73.5709226,45.4918867],[-73.5703618,45.49162],[-73.5699429,45.4914226]]}";4;Rue Guy;2;50;false;false;false;false;false;false;219.0;2;0;0;0;0;false;61332;2106085874;-73.5800594;45.4833712;52326;6010970018;-73.574736;45.493792;0;1;2;2695857;Bus 747 : YUL Aéroport Montréal-Trudeau / Centre-Ville Est;"";STM;747-E;Aéroport Pierre-Elliott-Trudeau;Station Berri-UQAM (1621 rue Berri)
465656094;"{\"type\":\"LineString\",\"coordinates\":[[-73.5733646,45.493045],[-73.5732396,45.4929853],[-73.5722641,45.4925231]]}";5;Rue Guy;2;50;false;false;false;false;false;false;104.0;1;0;0;0;0;false;61332;2106085874;-73.5800594;45.4833712;52326;6010970018;-73.574736;45.493792;0;1;2;2695857;Bus 747 : YUL Aéroport Montréal-Trudeau / Centre-Ville Est;"";STM;747-E;Aéroport Pierre-Elliott-Trudeau;Station Berri-UQAM (1621 rue Berri)
111771070;"{\"type\":\"LineString\",\"coordinates\":[[-73.5734717,45.4930962],[-73.5733646,45.493045]]}";6;Rue Guy;2;50;false;false;true;false;false;false;11.0;0;0;0;0;0;false;61332;2106085874;-73.5800594;45.4833712;52326;6010970018;-73.574736;45.493792;0;1;2;2695857;Bus 747 : YUL Aéroport Montréal-Trudeau / Centre-Ville Est;"";STM;747-E;Aéroport Pierre-Elliott-Trudeau;Station Berri-UQAM (1621 rue Berri)
41258976;"{\"type\":\"LineString\",\"coordinates\":[[-73.5749228,45.4937871],[-73.5748521,45.4937545],[-73.5747787,45.4937195],[-73.5742816,45.4934824],[-73.5741833,45.4934356],[-73.5737652,45.4932362],[-73.5734717,45.4930962]]}";7;Rue Guy;2;50;false;false;false;false;false;false;68.5;1;1;0;0;0;false;61332;2106085874;-73.5800594;45.4833712;52326;6010970018;-73.574736;45.493792;1;1;2;2695857;Bus 747 : YUL Aéroport Montréal-Trudeau / Centre-Ville Est;"";STM;747-E;Aéroport Pierre-Elliott-Trudeau;Station Berri-UQAM (1621 rue Berri)
41258976;"{\"type\":\"LineString\",\"coordinates\":[[-73.5749228,45.4937871],[-73.5748521,45.4937545],[-73.5747787,45.4937195],[-73.5742816,45.4934824],[-73.5741833,45.4934356],[-73.5737652,45.4932362],[-73.5734717,45.4930962]]}";1;Rue Guy;2;50;false;false;false;false;false;false;137.0;1;1;0;0;0;false;52326;6010970018;-73.574736;45.493792;52437;6010974423;-73.571555;45.49721;2;2;3;2695857;Bus 747 : YUL Aéroport Montréal-Trudeau / Centre-Ville Est;"";STM;747-E;Aéroport Pierre-Elliott-Trudeau;Station Berri-UQAM (1621 rue Berri)
455083980;"{\"type\":\"LineString\",\"coordinates\":[[-73.5749228,45.4937871],[-73.5748406,45.4938732],[-73.5743246,45.4944177],[-73.5742983,45.4944452],[-73.5742499,45.4944922]]}";2;Boulevard René-Lévesque Ouest;1;50;false;true;true;false;false;false;95.0;1;2;0;0;0;false;52326;6010970018;-73.574736;45.493792;52437;6010974423;-73.571555;45.49721;0;2;3;2695857;Bus 747 : YUL Aéroport Montréal-Trudeau / Centre-Ville Est;"";STM;747-E;Aéroport Pierre-Elliott-Trudeau;Station Berri-UQAM (1621 rue Berri)
455083970;"{\"type\":\"LineString\",\"coordinates\":[[-73.5742499,45.4944922],[-73.5741983,45.4945502],[-73.5736095,45.4951836],[-73.5735742,45.4952216]]}";3;Boulevard René-Lévesque Ouest;1;50;false;true;true;false;false;false;97.0;0;2;0;0;0;false;52326;6010970018;-73.574736;45.493792;52437;6010974423;-73.571555;45.49721;0;2;3;2695857;Bus 747 : YUL Aéroport Montréal-Trudeau / Centre-Ville Est;"";STM;747-E;Aéroport Pierre-Elliott-Trudeau;Station Berri-UQAM (1621 rue Berri)
41258971;"{\"type\":\"LineString\",\"coordinates\":[[-73.5735742,45.4952216],[-73.5735312,45.4952671],[-73.5731374,45.495684],[-73.5731232,45.495699],[-73.5730899,45.4957342]]}";4;Boulevard René-Lévesque Ouest;1;50;false;true;true;false;false;false;69.0;1;2;0;0;0;false;52326;6010970018;-73.574736;45.493792;52437;6010974423;-73.571555;45.49721;0;2;3;2695857;Bus 747 : YUL Aéroport Montréal-Trudeau / Centre-Ville Est;"";STM;747-E;Aéroport Pierre-Elliott-Trudeau;Station Berri-UQAM (1621 rue Berri)
546047308;"{\"type\":\"LineString\",\"coordinates\":[[-73.5730899,45.4957342],[-73.5729663,45.4958609],[-73.5729439,45.4958839],[-73.5723495,45.4964934],[-73.5723341,45.4965092],[-73.5722728,45.4965721]]}";5;Boulevard René-Lévesque Ouest;1;50;false;true;true;false;false;false;113.0;1;2;0;0;0;false;52326;6010970018;-73.574736;45.493792;52437;6010974423;-73.571555;45.49721;0;2;3;2695857;Bus 747 : YUL Aéroport Montréal-Trudeau / Centre-Ville Est;"";STM;747-E;Aéroport Pierre-Elliott-Trudeau;Station Berri-UQAM (1621 rue Berri)
134811808;"{\"type\":\"LineString\",\"coordinates\":[[-73.5722728,45.4965721],[-73.5722131,45.4966364],[-73.5716207,45.4972737],[-73.5716072,45.4972882],[-73.5715574,45.4973418]]}";6;Boulevard René-Lévesque Ouest;3;50;false;true;true;false;false;false;103.0;1;2;0;0;0;false;52326;6010970018;-73.574736;45.493792;52437;6010974423;-73.571555;45.49721;2;2;3;2695857;Bus 747 : YUL Aéroport Montréal-Trudeau / Centre-Ville Est;"";STM;747-E;Aéroport Pierre-Elliott-Trudeau;Station Berri-UQAM (1621 rue Berri)
134811808;"{\"type\":\"LineString\",\"coordinates\":[[-73.5722728,45.4965721],[-73.5722131,45.4966364],[-73.5716207,45.4972737],[-73.5716072,45.4972882],[-73.5715574,45.4973418]]}";1;Boulevard René-Lévesque Ouest;3;50;false;true;true;false;false;false;103.0;1;2;0;0;0;false;52437;6010974423;-73.571555;45.49721;61807;7430773038;-73.570932;45.497877;2;3;4;2695857;Bus 747 : YUL Aéroport Montréal-Trudeau / Centre-Ville Est;"";STM;747-E;Aéroport Pierre-Elliott-Trudeau;Station Berri-UQAM (1621 rue Berri)
465649963;"{\"type\":\"LineString\",\"coordinates\":[[-73.5715574,45.4973418],[-73.5714957,45.4974051],[-73.5709822,45.4979319],[-73.5709512,45.4979638],[-73.5709071,45.498009]]}";2;Boulevard René-Lévesque Ouest;3;50;false;true;true;false;false;false;90.0;1;2;0;0;0;false;52437;6010974423;-73.571555;45.49721;61807;7430773038;-73.570932;45.497877;2;3;4;2695857;Bus 747 : YUL Aéroport Montréal-Trudeau / Centre-Ville Est;"";STM;747-E;Aéroport Pierre-Elliott-Trudeau;Station Berri-UQAM (1621 rue Berri)
465649268;"{\"type\":\"LineString\",\"coordinates\":[[-73.5709071,45.498009],[-73.5708526,45.4980669],[-73.5703937,45.498555],[-73.5703158,45.4986378]]}";1;Boulevard René-Lévesque Ouest;3;50;false;true;true;false;false;false;84.0;1;1;0;0;0;false;61807;7430773038;-73.570932;45.497877;52530;6010971884;-73.569002;45.499943;2;4;5;2695857;Bus 747 : YUL Aéroport Montréal-Trudeau / Centre-Ville Est;"";STM;747-E;Aéroport Pierre-Elliott-Trudeau;Station Berri-UQAM (1621 rue Berri)
455083966;"{\"type\":\"LineString\",\"coordinates\":[[-73.5703158,45.4986378],[-73.5702385,45.49872]]}";2;Boulevard René-Lévesque Ouest;3;50;false;true;true;false;false;false;11.0;0;0;0;0;0;false;61807;7430773038;-73.570932;45.497877;52530;6010971884;-73.569002;45.499943;0;4;5;2695857;Bus 747 : YUL Aéroport Montréal-Trudeau / Centre-Ville Est;"";STM;747-E;Aéroport Pierre-Elliott-Trudeau;Station Berri-UQAM (1621 rue Berri)
455083983;"{\"type\":\"LineString\",\"coordinates\":[[-73.5702385,45.49872],[-73.5701228,45.498843],[-73.569856,45.4991268],[-73.5697401,45.4992501],[-73.5696678,45.4993269]]}";3;Boulevard René-Lévesque Ouest;3;50;false;true;true;false;false;false;81.0;2;0;0;0;0;false;61807;7430773038;-73.570932;45.497877;52530;6010971884;-73.569002;45.499943;0;4;5;2695857;Bus 747 : YUL Aéroport Montréal-Trudeau / Centre-Ville Est;"";STM;747-E;Aéroport Pierre-Elliott-Trudeau;Station Berri-UQAM (1621 rue Berri)
439879818;"{\"type\":\"LineString\",\"coordinates\":[[-73.5696678,45.4993269],[-73.5695052,45.4995078],[-73.569449,45.4995696],[-73.5693912,45.4996333],[-73.5693417,45.4996877],[-73.5692891,45.4997457],[-73.5692334,45.499807],[-73.5691829,45.4998626],[-73.5690562,45.5000022],[-73.5689811,45.5000823]]}";4;Boulevard René-Lévesque Ouest;3;50;false;true;true;false;false;false;100.0;3;0;0;0;0;false;61807;7430773038;-73.570932;45.497877;52530;6010971884;-73.569002;45.499943;2;4;5;2695857;Bus 747 : YUL Aéroport Montréal-Trudeau / Centre-Ville Est;"";STM;747-E;Aéroport Pierre-Elliott-Trudeau;Station Berri-UQAM (1621 rue Berri)
439879818;"{\"type\":\"LineString\",\"coordinates\":[[-73.5696678,45.4993269],[-73.5695052,45.4995078],[-73.569449,45.4995696],[-73.5693912,45.4996333],[-73.5693417,45.4996877],[-73.5692891,45.4997457],[-73.5692334,45.499807],[-73.5691829,45.4998626],[-73.5690562,45.5000022],[-73.5689811,45.5000823]]}";1;Boulevard René-Lévesque Ouest;3;50;false;true;true;false;false;false;100.0;3;0;0;0;0;false;52530;6010971884;-73.569002;45.499943;53918;6010981034;-73.566823;45.502258;2;5;6;2695857;Bus 747 : YUL Aéroport Montréal-Trudeau / Centre-Ville Est;"";STM;747-E;Aéroport Pierre-Elliott-Trudeau;Station Berri-UQAM (1621 rue Berri)
455083967;"{\"type\":\"LineString\",\"coordinates\":[[-73.5689811,45.5000823],[-73.5681025,45.501036]]}";2;Boulevard René-Lévesque Ouest;3;50;false;true;true;false;false;false;127.0;1;0;0;0;0;false;52530;6010971884;-73.569002;45.499943;53918;6010981034;-73.566823;45.502258;0;5;6;2695857;Bus 747 : YUL Aéroport Montréal-Trudeau / Centre-Ville Est;"";STM;747-E;Aéroport Pierre-Elliott-Trudeau;Station Berri-UQAM (1621 rue Berri)
455083969;"{\"type\":\"LineString\",\"coordinates\":[[-73.5681025,45.501036],[-73.5673717,45.5018042]]}";3;Boulevard René-Lévesque Ouest;3;50;false;true;true;false;false;false;103.0;1;0;0;0;0;false;52530;6010971884;-73.569002;45.499943;53918;6010981034;-73.566823;45.502258;0;5;6;2695857;Bus 747 : YUL Aéroport Montréal-Trudeau / Centre-Ville Est;"";STM;747-E;Aéroport Pierre-Elliott-Trudeau;Station Berri-UQAM (1621 rue Berri)
453959372;"{\"type\":\"LineString\",\"coordinates\":[[-73.5673717,45.5018042],[-73.5672472,45.501927]]}";4;Boulevard René-Lévesque Ouest;3;50;false;true;true;false;false;false;17.0;2;0;0;0;0;false;52530;6010971884;-73.569002;45.499943;53918;6010981034;-73.566823;45.502258;0;5;6;2695857;Bus 747 : YUL Aéroport Montréal-Trudeau / Centre-Ville Est;"";STM;747-E;Aéroport Pierre-Elliott-Trudeau;Station Berri-UQAM (1621 rue Berri)
453981160;"{\"type\":\"LineString\",\"coordinates\":[[-73.5672472,45.501927],[-73.566794,45.5024147],[-73.5667503,45.5024617]]}";5;Boulevard René-Lévesque Ouest;3;50;false;true;true;false;false;false;71.0;2;0;0;0;0;false;52530;6010971884;-73.569002;45.499943;53918;6010981034;-73.566823;45.502258;2;5;6;2695857;Bus 747 : YUL Aéroport Montréal-Trudeau / Centre-Ville Est;"";STM;747-E;Aéroport Pierre-Elliott-Trudeau;Station Berri-UQAM (1621 rue Berri)
453981160;"{\"type\":\"LineString\",\"coordinates\":[[-73.5672472,45.501927],[-73.566794,45.5024147],[-73.5667503,45.5024617]]}";1;Boulevard René-Lévesque Ouest;3;50;false;true;true;false;false;false;35.5;2;0;0;0;0;false;53918;6010981034;-73.566823;45.502258;60683;988366389;-73.563673;45.5062845;1;6;7;2695857;Bus 747 : YUL Aéroport Montréal-Trudeau / Centre-Ville Est;"";STM;747-E;Aéroport Pierre-Elliott-Trudeau;Station Berri-UQAM (1621 rue Berri)
453981162;"{\"type\":\"LineString\",\"coordinates\":[[-73.5667503,45.5024617],[-73.5666784,45.502537],[-73.5664503,45.5028569],[-73.5663638,45.5029973],[-73.5663404,45.5030354]]}";2;Boulevard René-Lévesque Ouest;3;50;false;true;true;false;false;false;72.0;1;0;0;0;0;false;53918;6010981034;-73.566823;45.502258;60683;988366389;-73.563673;45.5062845;0;6;7;2695857;Bus 747 : YUL Aéroport Montréal-Trudeau / Centre-Ville Est;"";STM;747-E;Aéroport Pierre-Elliott-Trudeau;Station Berri-UQAM (1621 rue Berri)
455083973;"{\"type\":\"LineString\",\"coordinates\":[[-73.5663404,45.5030354],[-73.566248,45.5031676]]}";3;Boulevard René-Lévesque Ouest;3;50;false;true;true;false;false;false;17.0;0;0;0;0;0;false;53918;6010981034;-73.566823;45.502258;60683;988366389;-73.563673;45.5062845;0;6;7;2695857;Bus 747 : YUL Aéroport Montréal-Trudeau / Centre-Ville Est;"";STM;747-E;Aéroport Pierre-Elliott-Trudeau;Station Berri-UQAM (1621 rue Berri)
546096657;"{\"type\":\"LineString\",\"coordinates\":[[-73.566248,45.5031676],[-73.5658889,45.503616]]}";4;Boulevard René-Lévesque Ouest;3;50;false;true;true;false;false;false;58.0;0;0;0;0;0;false;53918;6010981034;-73.566823;45.502258;60683;988366389;-73.563673;45.5062845;0;6;7;2695857;Bus 747 : YUL Aéroport Montréal-Trudeau / Centre-Ville Est;"";STM;747-E;Aéroport Pierre-Elliott-Trudeau;Station Berri-UQAM (1621 rue Berri)
453959371;"{\"type\":\"LineString\",\"coordinates\":[[-73.5658889,45.503616],[-73.5658477,45.5036675],[-73.565426,45.5041761],[-73.5653782,45.5042338]]}";5;Boulevard René-Lévesque Ouest;3;50;false;true;true;false;false;false;80.0;1;0;0;0;0;false;53918;6010981034;-73.566823;45.502258;60683;988366389;-73.563673;45.5062845;0;6;7;2695857;Bus 747 : YUL Aéroport Montréal-Trudeau / Centre-Ville Est;"";STM;747-E;Aéroport Pierre-Elliott-Trudeau;Station Berri-UQAM (1621 rue Berri)
455083977;"{\"type\":\"LineString\",\"coordinates\":[[-73.5653782,45.5042338],[-73.5646475,45.5051332],[-73.5646038,45.505187]]}";6;Boulevard René-Lévesque Ouest;3;50;false;true;true;false;false;false;122.0;1;0;0;0;0;false;53918;6010981034;-73.566823;45.502258;60683;988366389;-73.563673;45.5062845;0;6;7;2695857;Bus 747 : YUL Aéroport Montréal-Trudeau / Centre-Ville Est;"";STM;747-E;Aéroport Pierre-Elliott-Trudeau;Station Berri-UQAM (1621 rue Berri)
456314148;"{\"type\":\"LineString\",\"coordinates\":[[-73.5646038,45.505187],[-73.5642057,45.5057098]]}";7;Boulevard René-Lévesque Ouest;3;50;false;true;true;false;false;false;66.0;0;0;0;0;0;false;53918;6010981034;-73.566823;45.502258;60683;988366389;-73.563673;45.5062845;0;6;7;2695857;Bus 747 : YUL Aéroport Montréal-Trudeau / Centre-Ville Est;"";STM;747-E;Aéroport Pierre-Elliott-Trudeau;Station Berri-UQAM (1621 rue Berri)
456314150;"{\"type\":\"LineString\",\"coordinates\":[[-73.5642057,45.5057098],[-73.5639227,45.5060854],[-73.5638904,45.5061282]]}";8;Boulevard René-Lévesque Ouest;3;50;false;true;true;false;false;false;53.0;1;0;0;0;0;false;53918;6010981034;-73.566823;45.502258;60683;988366389;-73.563673;45.5062845;0;6;7;2695857;Bus 747 : YUL Aéroport Montréal-Trudeau / Centre-Ville Est;"";STM;747-E;Aéroport Pierre-Elliott-Trudeau;Station Berri-UQAM (1621 rue Berri)
41258628;"{\"type\":\"LineString\",\"coordinates\":[[-73.5638904,45.5061282],[-73.5632445,45.5068845],[-73.5625852,45.5076134],[-73.5625566,45.507644],[-73.5625205,45.507685]]}";9;Boulevard René-Lévesque Ouest;3;50;false;true;true;false;false;false;102.0;1;1;0;0;0;false;53918;6010981034;-73.566823;45.502258;60683;988366389;-73.563673;45.5062845;1;6;7;2695857;Bus 747 : YUL Aéroport Montréal-Trudeau / Centre-Ville Est;"";STM;747-E;Aéroport Pierre-Elliott-Trudeau;Station Berri-UQAM (1621 rue Berri)
41258628;"{\"type\":\"LineString\",\"coordinates\":[[-73.5638904,45.5061282],[-73.5632445,45.5068845],[-73.5625852,45.5076134],[-73.5625566,45.507644],[-73.5625205,45.507685]]}";1;Boulevard René-Lévesque Ouest;3;50;false;true;true;false;false;false;102.0;1;1;0;0;0;false;60683;988366389;-73.563673;45.5062845;52782;6010977534;-73.561545;45.50862;1;7;8;2695857;Bus 747 : YUL Aéroport Montréal-Trudeau / Centre-Ville Est;"";STM;747-E;Aéroport Pierre-Elliott-Trudeau;Station Berri-UQAM (1621 rue Berri)
464943210;"{\"type\":\"LineString\",\"coordinates\":[[-73.5625205,45.507685],[-73.5624737,45.5077409],[-73.5618596,45.5084082]]}";2;Boulevard René-Lévesque Ouest;3;50;false;true;true;false;false;false;96.0;0;1;0;0;0;false;60683;988366389;-73.563673;45.5062845;52782;6010977534;-73.561545;45.50862;0;7;8;2695857;Bus 747 : YUL Aéroport Montréal-Trudeau / Centre-Ville Est;"";STM;747-E;Aéroport Pierre-Elliott-Trudeau;Station Berri-UQAM (1621 rue Berri)
464936534;"{\"type\":\"LineString\",\"coordinates\":[[-73.5618596,45.5084082],[-73.5615853,45.5087247],[-73.5615648,45.5087487],[-73.5615162,45.5088056]]}";3;Boulevard René-Lévesque Ouest;3;50;false;true;true;false;false;false;26.0;1;1;0;0;0;false;60683;988366389;-73.563673;45.5062845;52782;6010977534;-73.561545;45.50862;1;7;8;2695857;Bus 747 : YUL Aéroport Montréal-Trudeau / Centre-Ville Est;"";STM;747-E;Aéroport Pierre-Elliott-Trudeau;Station Berri-UQAM (1621 rue Berri)
464936534;"{\"type\":\"LineString\",\"coordinates\":[[-73.5618596,45.5084082],[-73.5615853,45.5087247],[-73.5615648,45.5087487],[-73.5615162,45.5088056]]}";1;Boulevard René-Lévesque Ouest;3;50;false;true;true;false;false;false;26.0;1;1;0;0;0;false;52782;6010977534;-73.561545;45.50862;52835;6010978699;-73.559927;45.510553;1;8;9;2695857;Bus 747 : YUL Aéroport Montréal-Trudeau / Centre-Ville Est;"";STM;747-E;Aéroport Pierre-Elliott-Trudeau;Station Berri-UQAM (1621 rue Berri)
454215276;"{\"type\":\"LineString\",\"coordinates\":[[-73.5615162,45.5088056],[-73.5614604,45.5088675],[-73.5610947,45.5092726]]}";2;Boulevard René-Lévesque Est;3;50;false;true;true;false;false;false;62.0;0;1;0;0;0;false;52782;6010977534;-73.561545;45.50862;52835;6010978699;-73.559927;45.510553;0;8;9;2695857;Bus 747 : YUL Aéroport Montréal-Trudeau / Centre-Ville Est;"";STM;747-E;Aéroport Pierre-Elliott-Trudeau;Station Berri-UQAM (1621 rue Berri)
454215274;"{\"type\":\"LineString\",\"coordinates\":[[-73.5610947,45.5092726],[-73.5603711,45.5100691]]}";3;Boulevard René-Lévesque Est;3;50;false;true;true;false;false;false;105.0;0;0;0;0;0;false;52782;6010977534;-73.561545;45.50862;52835;6010978699;-73.559927;45.510553;0;8;9;2695857;Bus 747 : YUL Aéroport Montréal-Trudeau / Centre-Ville Est;"";STM;747-E;Aéroport Pierre-Elliott-Trudeau;Station Berri-UQAM (1621 rue Berri)
15915825;"{\"type\":\"LineString\",\"coordinates\":[[-73.5603711,45.5100691],[-73.5600051,45.5106286],[-73.5599826,45.5106563],[-73.5599556,45.5106895]]}";4;Boulevard René-Lévesque Est;3;50;false;true;true;false;false;false;38.5;1;1;0;0;0;false;52782;6010977534;-73.561545;45.50862;52835;6010978699;-73.559927;45.510553;1;8;9;2695857;Bus 747 : YUL Aéroport Montréal-Trudeau / Centre-Ville Est;"";STM;747-E;Aéroport Pierre-Elliott-Trudeau;Station Berri-UQAM (1621 rue Berri)
15915825;"{\"type\":\"LineString\",\"coordinates\":[[-73.5603711,45.5100691],[-73.5600051,45.5106286],[-73.5599826,45.5106563],[-73.5599556,45.5106895]]}";1;Boulevard René-Lévesque Est;3;50;false;true;true;false;false;false;77.0;1;1;0;0;0;false;52835;6010978699;-73.559927;45.510553;61153;6010968816;-73.560191;45.514987;2;9;10;2695857;Bus 747 : YUL Aéroport Montréal-Trudeau / Centre-Ville Est;"";STM;747-E;Aéroport Pierre-Elliott-Trudeau;Station Berri-UQAM (1621 rue Berri)
454238786;"{\"type\":\"LineString\",\"coordinates\":[[-73.5599556,45.5106895],[-73.5599399,45.5107085],[-73.5599117,45.5107426],[-73.5595433,45.511155]]}";2;Boulevard René-Lévesque Est;3;50;false;true;true;false;false;false;61.0;0;1;0;0;0;false;52835;6010978699;-73.559927;45.510553;61153;6010968816;-73.560191;45.514987;0;9;10;2695857;Bus 747 : YUL Aéroport Montréal-Trudeau / Centre-Ville Est;"";STM;747-E;Aéroport Pierre-Elliott-Trudeau;Station Berri-UQAM (1621 rue Berri)
458245870;"{\"type\":\"LineString\",\"coordinates\":[[-73.5595433,45.511155],[-73.5589847,45.5117298]]}";3;Boulevard René-Lévesque Est;3;50;false;true;true;false;false;false;78.0;1;0;0;0;0;false;52835;6010978699;-73.559927;45.510553;61153;6010968816;-73.560191;45.514987;0;9;10;2695857;Bus 747 : YUL Aéroport Montréal-Trudeau / Centre-Ville Est;"";STM;747-E;Aéroport Pierre-Elliott-Trudeau;Station Berri-UQAM (1621 rue Berri)
458245869;"{\"type\":\"LineString\",\"coordinates\":[[-73.5589847,45.5117298],[-73.5581894,45.5126061],[-73.5581341,45.5126649]]}";4;Boulevard René-Lévesque Est;3;50;false;true;true;false;false;false;124.0;1;1;0;0;0;false;52835;6010978699;-73.559927;45.510553;61153;6010968816;-73.560191;45.514987;0;9;10;2695857;Bus 747 : YUL Aéroport Montréal-Trudeau / Centre-Ville Est;"";STM;747-E;Aéroport Pierre-Elliott-Trudeau;Station Berri-UQAM (1621 rue Berri)
331089332;"{\"type\":\"LineString\",\"coordinates\":[[-73.5581341,45.5126649],[-73.5580696,45.5127375],[-73.5578697,45.5129624],[-73.5578452,45.51299],[-73.5575284,45.5133464],[-73.557395,45.5134965]]}";5;Boulevard René-Lévesque Est;3;50;false;true;true;false;false;false;109.0;0;1;0;0;0;false;52835;6010978699;-73.559927;45.510553;61153;6010968816;-73.560191;45.514987;0;9;10;2695857;Bus 747 : YUL Aéroport Montréal-Trudeau / Centre-Ville Est;"";STM;747-E;Aéroport Pierre-Elliott-Trudeau;Station Berri-UQAM (1621 rue Berri)
109776833;"{\"type\":\"LineString\",\"coordinates\":[[-73.557395,45.5134965],[-73.5573348,45.5135596],[-73.5573188,45.5135765]]}";6;Boulevard René-Lévesque Est;1;50;false;true;true;false;false;false;11.0;1;0;0;0;0;false;52835;6010978699;-73.559927;45.510553;61153;6010968816;-73.560191;45.514987;0;9;10;2695857;Bus 747 : YUL Aéroport Montréal-Trudeau / Centre-Ville Est;"";STM;747-E;Aéroport Pierre-Elliott-Trudeau;Station Berri-UQAM (1621 rue Berri)
329989227;"{\"type\":\"LineString\",\"coordinates\":[[-73.557488,45.5136508],[-73.5573188,45.5135765]]}";7;Rue Berri;4;50;false;false;true;false;false;false;16.0;0;0;0;0;0;false;52835;6010978699;-73.559927;45.510553;61153;6010968816;-73.560191;45.514987;0;9;10;2695857;Bus 747 : YUL Aéroport Montréal-Trudeau / Centre-Ville Est;"";STM;747-E;Aéroport Pierre-Elliott-Trudeau;Station Berri-UQAM (1621 rue Berri)
464893055;"{\"type\":\"LineString\",\"coordinates\":[[-73.5575129,45.5136624],[-73.557488,45.5136508]]}";8;Rue Berri;1;50;false;false;false;false;false;false;3.0;1;0;0;0;0;false;52835;6010978699;-73.559927;45.510553;61153;6010968816;-73.560191;45.514987;0;9;10;2695857;Bus 747 : YUL Aéroport Montréal-Trudeau / Centre-Ville Est;"";STM;747-E;Aéroport Pierre-Elliott-Trudeau;Station Berri-UQAM (1621 rue Berri)
454827462;"{\"type\":\"LineString\",\"coordinates\":[[-73.5596855,45.5146493],[-73.55959,45.5146056],[-73.5577479,45.5137691],[-73.5575129,45.5136624]]}";9;Rue Berri;4;50;false;false;true;false;false;false;202.0;2;1;0;0;0;false;52835;6010978699;-73.559927;45.510553;61153;6010968816;-73.560191;45.514987;0;9;10;2695857;Bus 747 : YUL Aéroport Montréal-Trudeau / Centre-Ville Est;"";STM;747-E;Aéroport Pierre-Elliott-Trudeau;Station Berri-UQAM (1621 rue Berri)
329989914;"{\"type\":\"LineString\",\"coordinates\":[[-73.5610772,45.5153171],[-73.5609923,45.5152764],[-73.559774,45.5146921],[-73.5596855,45.5146493]]}";10;Rue Berri;4;50;false;false;true;false;false;false;132.0;2;1;0;0;0;false;52835;6010978699;-73.559927;45.510553;61153;6010968816;-73.560191;45.514987;2;9;10;2695857;Bus 747 : YUL Aéroport Montréal-Trudeau / Centre-Ville Est;"";STM;747-E;Aéroport Pierre-Elliott-Trudeau;Station Berri-UQAM (1621 rue Berri)
329989914;"{\"type\":\"LineString\",\"coordinates\":[[-73.5610772,45.5153171],[-73.5609923,45.5152764],[-73.559774,45.5146921],[-73.5596855,45.5146493]]}";1;Rue Berri;4;50;false;false;true;false;false;false;66.0;2;1;0;0;0;false;61153;6010968816;-73.560191;45.514987;61611;6010968533;-73.5623;45.515988;1;10;11;2695857;Bus 747 : YUL Aéroport Montréal-Trudeau / Centre-Ville Est;"";STM;747-E;Aéroport Pierre-Elliott-Trudeau;Station Berri-UQAM (1621 rue Berri)
561733179;"{\"type\":\"LineString\",\"coordinates\":[[-73.5610772,45.5153171],[-73.5611322,45.515365],[-73.5611732,45.5153839],[-73.5612149,45.5154031],[-73.5612401,45.5154145],[-73.5613203,45.5154196]]}";2;Rue Berri;2;50;false;true;true;false;false;false;24.0;1;1;0;0;0;false;61153;6010968816;-73.560191;45.514987;61611;6010968533;-73.5623;45.515988;0;10;11;2695857;Bus 747 : YUL Aéroport Montréal-Trudeau / Centre-Ville Est;"";STM;747-E;Aéroport Pierre-Elliott-Trudeau;Station Berri-UQAM (1621 rue Berri)
741889015;"{\"type\":\"LineString\",\"coordinates\":[[-73.5623666,45.5159138],[-73.5613203,45.5154196]]}";3;Rue Berri;4;50;false;false;true;false;false;false;99.0;0;0;0;0;0;false;61153;6010968816;-73.560191;45.514987;61611;6010968533;-73.5623;45.515988;1;10;11;2695857;Bus 747 : YUL Aéroport Montréal-Trudeau / Centre-Ville Est;"";STM;747-E;Aéroport Pierre-Elliott-Trudeau;Station Berri-UQAM (1621 rue Berri)
