way_id;shape;index;name;nb_lanes;legal_speed;speed_zone_30;oneway;shares_bike;bike_box;bus_lane;dedicated_bus_lane;length;nb_traffic_signals;nb_crossings;nb_stops;nb_give_ways;nb_lvl_crossings;roundabout;stop_id_orig;node_id_orig;coord_x_orig;coord_y_orig;stop_id_dest;node_id_dest;coord_x_dest;coord_y_dest;nb_neighbouring_ways_bus_stop;ordre_orig;ordre_dest;id_line;line_name;colour;operator;ref;from;to
330301192;"{\"type\":\"LineString\",\"coordinates\":[[-73.5659674,45.5575805],[-73.5661527,45.5573451]]}";1;Avenue Laurier Est;1;50;false;false;true;false;false;false;30.0;0;0;0;0;0;false;52578;5062144321;-73.5660844;45.5575517;52464;6010973458;-73.569025;45.557746;1;0;1;4629691;Bus 47 : Masson Ouest;"";STM;47-O;Laurier / Jeanne-d'Arc;Station Laurier (Berri / Saint-Joseph)
330153482;"{\"type\":\"LineString\",\"coordinates\":[[-73.5661527,45.5573451],[-73.5663645,45.5571184],[-73.5665649,45.5569038]]}";2;Avenue Laurier Est;1;50;false;false;true;false;false;false;59.0;0;0;0;0;0;false;52578;5062144321;-73.5660844;45.5575517;52464;6010973458;-73.569025;45.557746;0;0;1;4629691;Bus 47 : Masson Ouest;"";STM;47-O;Laurier / Jeanne-d'Arc;Station Laurier (Berri / Saint-Joseph)
330153489;"{\"type\":\"LineString\",\"coordinates\":[[-73.5665649,45.5569038],[-73.567191,45.5571022],[-73.5688644,45.5576324],[-73.5691639,45.5577273],[-73.5692868,45.5577804]]}";3;Avenue Charlemagne;1;50;false;true;true;false;false;false;117.0;0;0;1;0;0;false;52578;5062144321;-73.5660844;45.5575517;52464;6010973458;-73.569025;45.557746;1;0;1;4629691;Bus 47 : Masson Ouest;"";STM;47-O;Laurier / Jeanne-d'Arc;Station Laurier (Berri / Saint-Joseph)
330153489;"{\"type\":\"LineString\",\"coordinates\":[[-73.5665649,45.5569038],[-73.567191,45.5571022],[-73.5688644,45.5576324],[-73.5691639,45.5577273],[-73.5692868,45.5577804]]}";1;Avenue Charlemagne;1;50;false;true;true;false;false;false;117.0;0;0;1;0;0;false;52464;6010973458;-73.569025;45.557746;52452;6010970574;-73.569687;45.557317;1;1;2;4629691;Bus 47 : Masson Ouest;"";STM;47-O;Laurier / Jeanne-d'Arc;Station Laurier (Berri / Saint-Joseph)
460708597;"{\"type\":\"LineString\",\"coordinates\":[[-73.5696577,45.5571847],[-73.5692868,45.5577804]]}";2;Rue Masson;1;40;false;false;true;false;false;false;36.5;0;0;0;0;0;false;52464;6010973458;-73.569025;45.557746;52452;6010970574;-73.569687;45.557317;1;1;2;4629691;Bus 47 : Masson Ouest;"";STM;47-O;Laurier / Jeanne-d'Arc;Station Laurier (Berri / Saint-Joseph)
460708598;"{\"type\":\"LineString\",\"coordinates\":[[-73.5700584,45.55661],[-73.5696577,45.5571847]]}";1;Rue Masson;1;40;false;false;true;false;false;false;72.0;0;0;0;0;0;false;52452;6010970574;-73.569687;45.557317;52419;6010980537;-73.570824;45.555401;2;2;3;4629691;Bus 47 : Masson Ouest;"";STM;47-O;Laurier / Jeanne-d'Arc;Station Laurier (Berri / Saint-Joseph)
460708599;"{\"type\":\"LineString\",\"coordinates\":[[-73.5704352,45.5559637],[-73.5700584,45.55661]]}";2;Rue Masson;1;40;false;false;true;false;false;false;78.0;0;0;0;0;0;false;52452;6010970574;-73.569687;45.557317;52419;6010980537;-73.570824;45.555401;0;2;3;4629691;Bus 47 : Masson Ouest;"";STM;47-O;Laurier / Jeanne-d'Arc;Station Laurier (Berri / Saint-Joseph)
460708329;"{\"type\":\"LineString\",\"coordinates\":[[-73.5707946,45.5552788],[-73.5704352,45.5559637]]}";3;Rue Masson;1;40;false;false;true;false;false;false;82.0;0;0;0;0;0;false;52452;6010970574;-73.569687;45.557317;52419;6010980537;-73.570824;45.555401;2;2;3;4629691;Bus 47 : Masson Ouest;"";STM;47-O;Laurier / Jeanne-d'Arc;Station Laurier (Berri / Saint-Joseph)
460708330;"{\"type\":\"LineString\",\"coordinates\":[[-73.5711605,45.554593],[-73.5707946,45.5552788]]}";1;Rue Masson;1;40;false;false;true;false;false;false;82.0;0;0;0;0;0;false;52419;6010980537;-73.570824;45.555401;52391;6010975659;-73.571542;45.554053;2;3;4;4629691;Bus 47 : Masson Ouest;"";STM;47-O;Laurier / Jeanne-d'Arc;Station Laurier (Berri / Saint-Joseph)
460708331;"{\"type\":\"LineString\",\"coordinates\":[[-73.5715119,45.5539277],[-73.5711605,45.554593]]}";2;Rue Masson;1;40;false;false;true;false;false;false;79.0;0;0;0;0;0;false;52419;6010980537;-73.570824;45.555401;52391;6010975659;-73.571542;45.554053;2;3;4;4629691;Bus 47 : Masson Ouest;"";STM;47-O;Laurier / Jeanne-d'Arc;Station Laurier (Berri / Saint-Joseph)
374137277;"{\"type\":\"LineString\",\"coordinates\":[[-73.5741919,45.5492139],[-73.5738685,45.5497441],[-73.5735239,45.5503092],[-73.5731437,45.5509897],[-73.5727793,45.5515736],[-73.5724591,45.5521518],[-73.5721376,45.5527415],[-73.5718294,45.5533172],[-73.5715119,45.5539277]]}";1;Rue Masson;1;40;false;false;true;false;false;false;282.0;0;0;0;0;0;false;52316;4717493649;-73.573902;45.5498827;52294;5212847824;-73.5749194;45.548173;1;7;8;4629691;Bus 47 : Masson Ouest;"";STM;47-O;Laurier / Jeanne-d'Arc;Station Laurier (Berri / Saint-Joseph)
463678715;"{\"type\":\"LineString\",\"coordinates\":[[-73.5745369,45.548648],[-73.5741919,45.5492139]]}";2;Rue Masson;1;40;false;false;true;false;false;false;69.0;0;0;0;0;0;false;52316;4717493649;-73.573902;45.5498827;52294;5212847824;-73.5749194;45.548173;0;7;8;4629691;Bus 47 : Masson Ouest;"";STM;47-O;Laurier / Jeanne-d'Arc;Station Laurier (Berri / Saint-Joseph)
463678716;"{\"type\":\"LineString\",\"coordinates\":[[-73.5752249,45.5475199],[-73.5748827,45.5480811],[-73.5745369,45.548648]]}";3;Rue Masson;1;40;false;false;true;false;false;false;68.5;0;0;0;0;0;false;52316;4717493649;-73.573902;45.5498827;52294;5212847824;-73.5749194;45.548173;1;7;8;4629691;Bus 47 : Masson Ouest;"";STM;47-O;Laurier / Jeanne-d'Arc;Station Laurier (Berri / Saint-Joseph)
463678716;"{\"type\":\"LineString\",\"coordinates\":[[-73.5752249,45.5475199],[-73.5748827,45.5480811],[-73.5745369,45.548648]]}";1;Rue Masson;1;40;false;false;true;false;false;false;68.5;0;0;0;0;0;false;52294;5212847824;-73.5749194;45.548173;52259;5212859429;-73.5759455;45.5464977;1;8;9;4629691;Bus 47 : Masson Ouest;"";STM;47-O;Laurier / Jeanne-d'Arc;Station Laurier (Berri / Saint-Joseph)
463678717;"{\"type\":\"LineString\",\"coordinates\":[[-73.575567,45.5469763],[-73.5752249,45.5475199]]}";2;Rue Masson;1;40;false;false;true;false;false;false;67.0;0;0;0;0;0;false;52294;5212847824;-73.5749194;45.548173;52259;5212859429;-73.5759455;45.5464977;0;8;9;4629691;Bus 47 : Masson Ouest;"";STM;47-O;Laurier / Jeanne-d'Arc;Station Laurier (Berri / Saint-Joseph)
463678714;"{\"type\":\"LineString\",\"coordinates\":[[-73.5759046,45.5464054],[-73.575567,45.5469763]]}";3;Rue Masson;1;40;false;false;true;false;false;false;34.5;0;0;0;0;0;false;52294;5212847824;-73.5749194;45.548173;52259;5212859429;-73.5759455;45.5464977;1;8;9;4629691;Bus 47 : Masson Ouest;"";STM;47-O;Laurier / Jeanne-d'Arc;Station Laurier (Berri / Saint-Joseph)
463678718;"{\"type\":\"LineString\",\"coordinates\":[[-73.5762308,45.5458704],[-73.5759046,45.5464054]]}";1;Rue Masson;1;40;false;false;true;false;false;false;65.0;0;0;0;0;0;false;52259;5212859429;-73.5759455;45.5464977;52233;6010980390;-73.57659;45.545432;2;9;10;4629691;Bus 47 : Masson Ouest;"";STM;47-O;Laurier / Jeanne-d'Arc;Station Laurier (Berri / Saint-Joseph)
463678719;"{\"type\":\"LineString\",\"coordinates\":[[-73.5765762,45.5453085],[-73.5762308,45.5458704]]}";2;Rue Masson;1;40;false;false;true;false;false;false;68.0;0;0;0;0;0;false;52259;5212859429;-73.5759455;45.5464977;52233;6010980390;-73.57659;45.545432;2;9;10;4629691;Bus 47 : Masson Ouest;"";STM;47-O;Laurier / Jeanne-d'Arc;Station Laurier (Berri / Saint-Joseph)
463678720;"{\"type\":\"LineString\",\"coordinates\":[[-73.5773034,45.5441156],[-73.5765762,45.5453085]]}";1;Rue Masson;1;40;false;false;true;false;false;false;145.0;0;0;0;0;0;false;52233;6010980390;-73.57659;45.545432;52188;5212859430;-73.5778131;45.5435768;2;10;11;4629691;Bus 47 : Masson Ouest;"";STM;47-O;Laurier / Jeanne-d'Arc;Station Laurier (Berri / Saint-Joseph)
304120318;"{\"type\":\"LineString\",\"coordinates\":[[-73.5775766,45.5436416],[-73.5773034,45.5441156]]}";2;Rue Masson;1;40;false;false;false;false;false;false;57.0;0;0;0;0;0;false;52233;6010980390;-73.57659;45.545432;52188;5212859430;-73.5778131;45.5435768;0;10;11;4629691;Bus 47 : Masson Ouest;"";STM;47-O;Laurier / Jeanne-d'Arc;Station Laurier (Berri / Saint-Joseph)
20221025;"{\"type\":\"LineString\",\"coordinates\":[[-73.5775766,45.5436416],[-73.5779078,45.5434017],[-73.5782173,45.5431274],[-73.5782687,45.5430818]]}";3;Rue Masson;2;40;false;true;false;false;false;false;83.0;1;0;0;0;0;false;52233;6010980390;-73.57659;45.545432;52188;5212859430;-73.5778131;45.5435768;2;10;11;4629691;Bus 47 : Masson Ouest;"";STM;47-O;Laurier / Jeanne-d'Arc;Station Laurier (Berri / Saint-Joseph)
304120318;"{\"type\":\"LineString\",\"coordinates\":[[-73.5775766,45.5436416],[-73.5773034,45.5441156]]}";1;Rue Masson;1;40;false;false;false;false;false;false;57.0;0;0;0;0;0;false;52188;5212859430;-73.5778131;45.5435768;52191;5212859431;-73.578586;45.5428387;2;11;12;4629691;Bus 47 : Masson Ouest;"";STM;47-O;Laurier / Jeanne-d'Arc;Station Laurier (Berri / Saint-Joseph)
20221025;"{\"type\":\"LineString\",\"coordinates\":[[-73.5775766,45.5436416],[-73.5779078,45.5434017],[-73.5782173,45.5431274],[-73.5782687,45.5430818]]}";2;Rue Masson;2;40;false;true;false;false;false;false;83.0;1;0;0;0;0;false;52188;5212859430;-73.5778131;45.5435768;52191;5212859431;-73.578586;45.5428387;0;11;12;4629691;Bus 47 : Masson Ouest;"";STM;47-O;Laurier / Jeanne-d'Arc;Station Laurier (Berri / Saint-Joseph)
393720322;"{\"type\":\"LineString\",\"coordinates\":[[-73.5782687,45.5430818],[-73.5784619,45.5428745],[-73.5794894,45.5417719]]}";3;Rue Masson;2;40;false;true;false;false;false;false;174.0;1;0;0;0;0;false;52188;5212859430;-73.5778131;45.5435768;52191;5212859431;-73.578586;45.5428387;2;11;12;4629691;Bus 47 : Masson Ouest;"";STM;47-O;Laurier / Jeanne-d'Arc;Station Laurier (Berri / Saint-Joseph)
393720322;"{\"type\":\"LineString\",\"coordinates\":[[-73.5782687,45.5430818],[-73.5784619,45.5428745],[-73.5794894,45.5417719]]}";1;Rue Masson;2;40;false;true;false;false;false;false;87.0;1;0;0;0;0;false;52191;5212859431;-73.578586;45.5428387;52088;5212859624;-73.5817608;45.53968;1;12;13;4629691;Bus 47 : Masson Ouest;"";STM;47-O;Laurier / Jeanne-d'Arc;Station Laurier (Berri / Saint-Joseph)
27208089;"{\"type\":\"LineString\",\"coordinates\":[[-73.5794894,45.5417719],[-73.5801358,45.5410912]]}";2;Rue Masson;1;30;false;true;false;false;false;false;91.0;0;0;0;0;0;false;52191;5212859431;-73.578586;45.5428387;52088;5212859624;-73.5817608;45.53968;0;12;13;4629691;Bus 47 : Masson Ouest;"";STM;47-O;Laurier / Jeanne-d'Arc;Station Laurier (Berri / Saint-Joseph)
460941508;"{\"type\":\"LineString\",\"coordinates\":[[-73.5801358,45.5410912],[-73.5809446,45.5402424],[-73.5811154,45.5401204]]}";3;Rue Masson;1;30;false;true;false;false;false;false;133.0;0;0;0;0;0;false;52191;5212859431;-73.578586;45.5428387;52088;5212859624;-73.5817608;45.53968;0;12;13;4629691;Bus 47 : Masson Ouest;"";STM;47-O;Laurier / Jeanne-d'Arc;Station Laurier (Berri / Saint-Joseph)
460941507;"{\"type\":\"LineString\",\"coordinates\":[[-73.5811154,45.5401204],[-73.5814149,45.5399084]]}";4;Rue Masson;1;30;false;true;false;false;false;false;34.0;0;0;0;0;0;false;52191;5212859431;-73.578586;45.5428387;52088;5212859624;-73.5817608;45.53968;0;12;13;4629691;Bus 47 : Masson Ouest;"";STM;47-O;Laurier / Jeanne-d'Arc;Station Laurier (Berri / Saint-Joseph)
27208090;"{\"type\":\"LineString\",\"coordinates\":[[-73.5814149,45.5399084],[-73.5817221,45.5396157],[-73.5817496,45.5395476],[-73.5817489,45.5395123]]}";5;Rue Masson;1;30;false;true;false;false;false;false;26.5;0;0;0;0;0;false;52191;5212859431;-73.578586;45.5428387;52088;5212859624;-73.5817608;45.53968;1;12;13;4629691;Bus 47 : Masson Ouest;"";STM;47-O;Laurier / Jeanne-d'Arc;Station Laurier (Berri / Saint-Joseph)
236937856;"{\"type\":\"LineString\",\"coordinates\":[[-73.5823389,45.5389257],[-73.5817489,45.5395123]]}";1;Rue Masson;1;50;false;false;false;false;false;false;80.0;0;0;0;0;0;false;52088;5212859624;-73.5817608;45.53968;52023;5212859432;-73.5838453;45.5374094;2;13;14;4629691;Bus 47 : Masson Ouest;"";STM;47-O;Laurier / Jeanne-d'Arc;Station Laurier (Berri / Saint-Joseph)
236940244;"{\"type\":\"LineString\",\"coordinates\":[[-73.5828264,45.5384255],[-73.5823389,45.5389257]]}";2;Rue Masson;1;30;false;false;false;false;false;false;68.0;0;0;1;0;0;false;52088;5212859624;-73.5817608;45.53968;52023;5212859432;-73.5838453;45.5374094;0;13;14;4629691;Bus 47 : Masson Ouest;"";STM;47-O;Laurier / Jeanne-d'Arc;Station Laurier (Berri / Saint-Joseph)
19939508;"{\"type\":\"LineString\",\"coordinates\":[[-73.58391,45.5372524],[-73.583552,45.537643],[-73.583274,45.5379462],[-73.5828264,45.5384255]]}";3;Rue Masson;1;30;false;false;true;false;false;false;156.0;1;0;1;0;0;false;52088;5212859624;-73.5817608;45.53968;52023;5212859432;-73.5838453;45.5374094;2;13;14;4629691;Bus 47 : Masson Ouest;"";STM;47-O;Laurier / Jeanne-d'Arc;Station Laurier (Berri / Saint-Joseph)
330301182;"{\"type\":\"LineString\",\"coordinates\":[[-73.58391,45.5372524],[-73.5848341,45.5376832],[-73.5852832,45.5378896]]}";1;Avenue Papineau;4;50;false;false;true;false;false;false;129.0;2;0;0;0;0;false;52023;5212859432;-73.5838453;45.5374094;51975;5212859729;-73.5860263;45.5372002;2;14;15;4629691;Bus 47 : Masson Ouest;"";STM;47-O;Laurier / Jeanne-d'Arc;Station Laurier (Berri / Saint-Joseph)
189587738;"{\"type\":\"LineString\",\"coordinates\":[[-73.5866163,45.5364918],[-73.5863003,45.5368259],[-73.5861115,45.5370254],[-73.5859802,45.5371652],[-73.585711,45.5374481],[-73.585363,45.5378072],[-73.5852832,45.5378896]]}";2;Rue Saint-Grégoire;1;30;false;false;true;false;false;false;187.0;1;0;0;0;0;false;52023;5212859432;-73.5838453;45.5374094;51975;5212859729;-73.5860263;45.5372002;2;14;15;4629691;Bus 47 : Masson Ouest;"";STM;47-O;Laurier / Jeanne-d'Arc;Station Laurier (Berri / Saint-Joseph)
189587738;"{\"type\":\"LineString\",\"coordinates\":[[-73.5866163,45.5364918],[-73.5863003,45.5368259],[-73.5861115,45.5370254],[-73.5859802,45.5371652],[-73.585711,45.5374481],[-73.585363,45.5378072],[-73.5852832,45.5378896]]}";1;Rue Saint-Grégoire;1;30;false;false;true;false;false;false;93.5;1;0;0;0;0;false;51975;5212859729;-73.5860263;45.5372002;51929;6010974578;-73.587186;45.535968;1;15;16;4629691;Bus 47 : Masson Ouest;"";STM;47-O;Laurier / Jeanne-d'Arc;Station Laurier (Berri / Saint-Joseph)
488190667;"{\"type\":\"LineString\",\"coordinates\":[[-73.586943,45.5361497],[-73.5866163,45.5364918]]}";2;Rue Saint-Grégoire;1;30;false;false;true;false;false;false;46.0;0;0;0;0;0;false;51975;5212859729;-73.5860263;45.5372002;51929;6010974578;-73.587186;45.535968;0;15;16;4629691;Bus 47 : Masson Ouest;"";STM;47-O;Laurier / Jeanne-d'Arc;Station Laurier (Berri / Saint-Joseph)
464944650;"{\"type\":\"LineString\",\"coordinates\":[[-73.587227,45.5358523],[-73.586943,45.5361497]]}";3;Rue Saint-Grégoire;1;30;false;false;true;false;false;false;20.0;1;0;0;0;0;false;51975;5212859729;-73.5860263;45.5372002;51929;6010974578;-73.587186;45.535968;1;15;16;4629691;Bus 47 : Masson Ouest;"";STM;47-O;Laurier / Jeanne-d'Arc;Station Laurier (Berri / Saint-Joseph)
464944653;"{\"type\":\"LineString\",\"coordinates\":[[-73.5877842,45.5352521],[-73.58751,45.5355546],[-73.587227,45.5358523]]}";1;Rue Saint-Grégoire;1;30;false;false;true;false;false;false;80.0;1;0;0;0;0;false;51929;6010974578;-73.587186;45.535968;51893;6010977605;-73.588375;45.534683;2;16;17;4629691;Bus 47 : Masson Ouest;"";STM;47-O;Laurier / Jeanne-d'Arc;Station Laurier (Berri / Saint-Joseph)
464944644;"{\"type\":\"LineString\",\"coordinates\":[[-73.5881918,45.5348106],[-73.587803,45.5352318],[-73.5877842,45.5352521]]}";2;Rue Saint-Grégoire;1;30;false;false;true;false;false;false;59.0;0;0;0;0;0;false;51929;6010974578;-73.587186;45.535968;51893;6010977605;-73.588375;45.534683;0;16;17;4629691;Bus 47 : Masson Ouest;"";STM;47-O;Laurier / Jeanne-d'Arc;Station Laurier (Berri / Saint-Joseph)
464944655;"{\"type\":\"LineString\",\"coordinates\":[[-73.5886903,45.5342707],[-73.5884471,45.5345323],[-73.5881918,45.5348106]]}";3;Rue Saint-Grégoire;1;30;false;false;true;false;false;false;72.0;1;0;0;0;0;false;51929;6010974578;-73.587186;45.535968;51893;6010977605;-73.588375;45.534683;2;16;17;4629691;Bus 47 : Masson Ouest;"";STM;47-O;Laurier / Jeanne-d'Arc;Station Laurier (Berri / Saint-Joseph)
464944655;"{\"type\":\"LineString\",\"coordinates\":[[-73.5886903,45.5342707],[-73.5884471,45.5345323],[-73.5881918,45.5348106]]}";1;Rue Saint-Grégoire;1;30;false;false;true;false;false;false;36.0;1;0;0;0;0;false;51893;6010977605;-73.588375;45.534683;51852;5212859625;-73.5899929;45.5329692;1;17;18;4629691;Bus 47 : Masson Ouest;"";STM;47-O;Laurier / Jeanne-d'Arc;Station Laurier (Berri / Saint-Joseph)
729922592;"{\"type\":\"LineString\",\"coordinates\":[[-73.5887392,45.534219],[-73.5887249,45.5342341],[-73.5886903,45.5342707]]}";2;Rue Saint-Grégoire;1;30;false;false;true;false;false;false;7.0;1;0;0;0;0;false;51893;6010977605;-73.588375;45.534683;51852;5212859625;-73.5899929;45.5329692;0;17;18;4629691;Bus 47 : Masson Ouest;"";STM;47-O;Laurier / Jeanne-d'Arc;Station Laurier (Berri / Saint-Joseph)
189587739;"{\"type\":\"LineString\",\"coordinates\":[[-73.5899778,45.5329006],[-73.5891329,45.533796],[-73.5888871,45.5340633],[-73.5888062,45.5341486],[-73.5887392,45.534219]]}";3;Rue Saint-Grégoire;1;30;false;false;false;false;false;false;88.0;0;0;0;0;0;false;51893;6010977605;-73.588375;45.534683;51852;5212859625;-73.5899929;45.5329692;1;17;18;4629691;Bus 47 : Masson Ouest;"";STM;47-O;Laurier / Jeanne-d'Arc;Station Laurier (Berri / Saint-Joseph)
236746031;"{\"type\":\"LineString\",\"coordinates\":[[-73.5902435,45.5326097],[-73.5901619,45.532699],[-73.5899778,45.5329006]]}";1;Rue Saint-Grégoire;1;30;false;false;true;false;false;false;39.0;1;0;0;0;0;false;51852;5212859625;-73.5899929;45.5329692;53812;6010980176;-73.591444;45.531411;2;18;19;4629691;Bus 47 : Masson Ouest;"";STM;47-O;Laurier / Jeanne-d'Arc;Station Laurier (Berri / Saint-Joseph)
239893804;"{\"type\":\"LineString\",\"coordinates\":[[-73.5908874,45.5318957],[-73.5907771,45.5320186],[-73.5903407,45.5325047],[-73.5902981,45.5325507],[-73.5902923,45.532557],[-73.5902435,45.5326097]]}";2;Rue Saint-Grégoire;1;30;false;false;false;false;false;false;94.0;2;0;0;0;0;false;51852;5212859625;-73.5899929;45.5329692;53812;6010980176;-73.591444;45.531411;0;18;19;4629691;Bus 47 : Masson Ouest;"";STM;47-O;Laurier / Jeanne-d'Arc;Station Laurier (Berri / Saint-Joseph)
19939021;"{\"type\":\"LineString\",\"coordinates\":[[-73.5914543,45.5313151],[-73.5911709,45.5316054],[-73.591147,45.5316298],[-73.5908874,45.5318957]]}";3;Rue Saint-Grégoire;1;50;false;false;true;false;false;false;79.0;1;0;0;0;0;false;51852;5212859625;-73.5899929;45.5329692;53812;6010980176;-73.591444;45.531411;2;18;19;4629691;Bus 47 : Masson Ouest;"";STM;47-O;Laurier / Jeanne-d'Arc;Station Laurier (Berri / Saint-Joseph)
464944649;"{\"type\":\"LineString\",\"coordinates\":[[-73.5919416,45.5307666],[-73.5916792,45.531062],[-73.5914543,45.5313151]]}";1;Rue Saint-Grégoire;1;50;false;false;true;false;false;false;72.0;1;0;0;0;0;false;53812;6010980176;-73.591444;45.531411;61369;5212859433;-73.5928235;45.5292795;2;19;20;4629691;Bus 47 : Masson Ouest;"";STM;47-O;Laurier / Jeanne-d'Arc;Station Laurier (Berri / Saint-Joseph)
21066236;"{\"type\":\"LineString\",\"coordinates\":[[-73.5920517,45.5301522],[-73.5920466,45.5303086],[-73.5921218,45.5304118],[-73.5921374,45.5304679],[-73.5921367,45.5305056],[-73.5921366,45.530512],[-73.592123,45.5305506],[-73.5920985,45.5305927],[-73.5920646,45.5306302],[-73.5919542,45.5307527],[-73.5919416,45.5307666]]}";2;Rue Saint-Grégoire;1;50;false;false;true;false;false;false;74.0;1;0;0;0;0;false;53812;6010980176;-73.591444;45.531411;61369;5212859433;-73.5928235;45.5292795;0;19;20;4629691;Bus 47 : Masson Ouest;"";STM;47-O;Laurier / Jeanne-d'Arc;Station Laurier (Berri / Saint-Joseph)
19939020;"{\"type\":\"LineString\",\"coordinates\":[[-73.5932347,45.5286653],[-73.592917,45.5290353],[-73.5927676,45.5292092],[-73.5922735,45.5298607],[-73.5922635,45.5298738],[-73.5920517,45.5301522]]}";3;Rue Saint-Grégoire;2;50;false;false;true;false;false;false;190.0;1;0;0;0;0;false;53812;6010980176;-73.591444;45.531411;61369;5212859433;-73.5928235;45.5292795;2;19;20;4629691;Bus 47 : Masson Ouest;"";STM;47-O;Laurier / Jeanne-d'Arc;Station Laurier (Berri / Saint-Joseph)
19939020;"{\"type\":\"LineString\",\"coordinates\":[[-73.5932347,45.5286653],[-73.592917,45.5290353],[-73.5927676,45.5292092],[-73.5922735,45.5298607],[-73.5922635,45.5298738],[-73.5920517,45.5301522]]}";1;Rue Saint-Grégoire;2;50;false;false;true;false;false;false;95.0;1;0;0;0;0;false;61369;5212859433;-73.5928235;45.5292795;51816;286302653;-73.591899;45.527952;1;20;21;4629691;Bus 47 : Masson Ouest;"";STM;47-O;Laurier / Jeanne-d'Arc;Station Laurier (Berri / Saint-Joseph)
361481225;"{\"type\":\"LineString\",\"coordinates\":[[-73.5917477,45.5279921],[-73.5918097,45.5280202],[-73.5931811,45.528641],[-73.5932162,45.5286569],[-73.5932347,45.5286653]]}";2;Rue Saint-Denis;2;50;false;false;true;false;false;false;69.5;2;2;0;0;0;false;61369;5212859433;-73.5928235;45.5292795;51816;286302653;-73.591899;45.527952;1;20;21;4629691;Bus 47 : Masson Ouest;"";STM;47-O;Laurier / Jeanne-d'Arc;Station Laurier (Berri / Saint-Joseph)
454880675;"{\"type\":\"LineString\",\"coordinates\":[[-73.5883818,45.5264701],[-73.5894026,45.5269303],[-73.5894116,45.5269344],[-73.5894463,45.52695]]}";1;Rue Saint-Denis;2;50;false;false;true;false;false;false;99.0;1;2;0;0;0;false;51864;286302661;-73.589662;45.52694;60366;6010971800;-73.58659;45.527233;2;22;23;4629691;Bus 47 : Masson Ouest;"";STM;47-O;Laurier / Jeanne-d'Arc;Station Laurier (Berri / Saint-Joseph)
330153474;"{\"type\":\"LineString\",\"coordinates\":[[-73.5879488,45.5262705],[-73.5879872,45.5262862],[-73.5880245,45.5263034],[-73.5880379,45.5263096],[-73.5883525,45.5264548],[-73.5883818,45.5264701]]}";2;Rue Saint-Denis;2;50;false;false;true;false;false;false;41.0;1;2;0;0;0;false;51864;286302661;-73.589662;45.52694;60366;6010971800;-73.58659;45.527233;0;22;23;4629691;Bus 47 : Masson Ouest;"";STM;47-O;Laurier / Jeanne-d'Arc;Station Laurier (Berri / Saint-Joseph)
330153476;"{\"type\":\"LineString\",\"coordinates\":[[-73.5878266,45.526216],[-73.5878867,45.5262428],[-73.5879488,45.5262705]]}";3;Rue Saint-Denis;2;50;false;false;true;false;false;false;12.0;0;0;0;0;0;false;51864;286302661;-73.589662;45.52694;60366;6010971800;-73.58659;45.527233;0;22;23;4629691;Bus 47 : Masson Ouest;"";STM;47-O;Laurier / Jeanne-d'Arc;Station Laurier (Berri / Saint-Joseph)
330153477;"{\"type\":\"LineString\",\"coordinates\":[[-73.5878266,45.526216],[-73.5877525,45.5262991],[-73.5877397,45.5263135],[-73.5873744,45.526723]]}";4;Boulevard Saint-Joseph Est;2;50;false;true;true;false;false;false;67.0;0;2;0;0;0;false;51864;286302661;-73.589662;45.52694;60366;6010971800;-73.58659;45.527233;0;22;23;4629691;Bus 47 : Masson Ouest;"";STM;47-O;Laurier / Jeanne-d'Arc;Station Laurier (Berri / Saint-Joseph)
330301176;"{\"type\":\"LineString\",\"coordinates\":[[-73.5873744,45.526723],[-73.5870802,45.5270603],[-73.5868573,45.5273158],[-73.5868255,45.5273522],[-73.5868053,45.5273754]]}";5;Boulevard Saint-Joseph Est;2;50;false;true;true;false;false;false;85.0;1;0;0;0;0;false;51864;286302661;-73.589662;45.52694;60366;6010971800;-73.58659;45.527233;0;22;23;4629691;Bus 47 : Masson Ouest;"";STM;47-O;Laurier / Jeanne-d'Arc;Station Laurier (Berri / Saint-Joseph)
537573930;"{\"type\":\"LineString\",\"coordinates\":[[-73.5868053,45.5273754],[-73.5867185,45.5273377],[-73.5865645,45.5272711],[-73.5863523,45.5271793],[-73.5861185,45.5270546],[-73.5860904,45.5270312],[-73.5860646,45.526981],[-73.5861562,45.5268535]]}";6;Rue Berri;2;50;false;true;true;false;false;false;90.0;0;0;0;0;0;false;51864;286302661;-73.589662;45.52694;60366;6010971800;-73.58659;45.527233;1;22;23;4629691;Bus 47 : Masson Ouest;"";STM;47-O;Laurier / Jeanne-d'Arc;Station Laurier (Berri / Saint-Joseph)
