way_id;shape;index;name;nb_lanes;legal_speed;speed_zone_30;oneway;shares_bike;bike_box;bus_lane;dedicated_bus_lane;length;nb_traffic_signals;nb_crossings;nb_stops;nb_give_ways;nb_lvl_crossings;roundabout;stop_id_orig;node_id_orig;coord_x_orig;coord_y_orig;stop_id_dest;node_id_dest;coord_x_dest;coord_y_dest;nb_neighbouring_ways_bus_stop;ordre_orig;ordre_dest;id_line;line_name;colour;operator;ref;from;to
433122085;"{\"type\":\"LineString\",\"coordinates\":[[-70.5753153,-33.5621398],[-70.5742239,-33.5619403],[-70.573124,-33.5617397],[-70.5730849,-33.5617343],[-70.5727158,-33.5616672],[-70.5723839,-33.5616073],[-70.5722519,-33.5615836],[-70.571537,-33.5614685],[-70.5714445,-33.5614537],[-70.5712433,-33.5614224],[-70.5707353,-33.5613389],[-70.5706145,-33.5613191],[-70.5703976,-33.5612776],[-70.569815,-33.5611663],[-70.5697162,-33.5611489],[-70.569001,-33.5610312],[-70.5687717,-33.5609907],[-70.5683032,-33.560907],[-70.5681549,-33.5608805],[-70.5679672,-33.560847],[-70.5671252,-33.5606966],[-70.5667207,-33.5606244],[-70.5664948,-33.5605841]]}";1;Avenida Diego Portales;2;50;false;false;true;false;false;false;2103.0;0;0;0;0;0;false;PE343;1175507072;-70.575072;-33.5619969;PE1271;1175522588;-70.5762537;-33.5584668;1;3;4;6475737;Diego Portales - Lo Ovalle;#00c27f;Buses Vule;E02;Diego Portales;Lo Ovalle
386366666;"{\"type\":\"LineString\",\"coordinates\":[[-70.5753153,-33.5621398],[-70.5753744,-33.5619221]]}";2;Santa Cecilia;1;50;false;true;true;false;false;false;63.0;0;0;0;0;0;false;PE343;1175507072;-70.575072;-33.5619969;PE1271;1175522588;-70.5762537;-33.5584668;0;3;4;6475737;Diego Portales - Lo Ovalle;#00c27f;Buses Vule;E02;Diego Portales;Lo Ovalle
30614215;"{\"type\":\"LineString\",\"coordinates\":[[-70.5753744,-33.5619221],[-70.5754441,-33.5616572],[-70.5755236,-33.561305],[-70.5755563,-33.5611615],[-70.5755735,-33.5610184],[-70.5755649,-33.5608968],[-70.5755386,-33.5608203],[-70.5755305,-33.5607967],[-70.575479,-33.560668],[-70.575419,-33.5605178],[-70.5753932,-33.5604176],[-70.5753846,-33.560296],[-70.5753932,-33.5601816],[-70.5754361,-33.5600243],[-70.5754568,-33.5599532],[-70.5756694,-33.5593208],[-70.5759032,-33.5584827]]}";3;Santa Cecilia;1;50;false;true;true;false;false;false;984.0;1;0;0;0;0;false;PE343;1175507072;-70.575072;-33.5619969;PE1271;1175522588;-70.5762537;-33.5584668;0;3;4;6475737;Diego Portales - Lo Ovalle;#00c27f;Buses Vule;E02;Diego Portales;Lo Ovalle
436178850;"{\"type\":\"LineString\",\"coordinates\":[[-70.5760176,-33.5584928],[-70.5759032,-33.5584827]]}";4;San Jorge;1;50;false;false;true;false;false;false;27.0;2;0;0;0;0;false;PE343;1175507072;-70.575072;-33.5619969;PE1271;1175522588;-70.5762537;-33.5584668;0;3;4;6475737;Diego Portales - Lo Ovalle;#00c27f;Buses Vule;E02;Diego Portales;Lo Ovalle
436178849;"{\"type\":\"LineString\",\"coordinates\":[[-70.5853672,-33.5596205],[-70.584055,-33.5594596],[-70.5837015,-33.5594163],[-70.5832386,-33.5593673],[-70.5829153,-33.5593307],[-70.5824311,-33.5592714],[-70.5822205,-33.5592408],[-70.5816212,-33.5591631],[-70.58144,-33.5591392],[-70.5808088,-33.559071],[-70.5806419,-33.5590497],[-70.5799905,-33.558972],[-70.5796214,-33.5589191],[-70.5791477,-33.5588673],[-70.578313,-33.5587648],[-70.5775441,-33.5586681],[-70.5769956,-33.5586047],[-70.5767481,-33.5585759],[-70.5760176,-33.5584928]]}";5;San Jorge;2;50;false;false;true;false;false;false;1102.0;3;0;0;0;0;false;PE343;1175507072;-70.575072;-33.5619969;PE1271;1175522588;-70.5762537;-33.5584668;1;3;4;6475737;Diego Portales - Lo Ovalle;#00c27f;Buses Vule;E02;Diego Portales;Lo Ovalle
436178849;"{\"type\":\"LineString\",\"coordinates\":[[-70.5853672,-33.5596205],[-70.584055,-33.5594596],[-70.5837015,-33.5594163],[-70.5832386,-33.5593673],[-70.5829153,-33.5593307],[-70.5824311,-33.5592714],[-70.5822205,-33.5592408],[-70.5816212,-33.5591631],[-70.58144,-33.5591392],[-70.5808088,-33.559071],[-70.5806419,-33.5590497],[-70.5799905,-33.558972],[-70.5796214,-33.5589191],[-70.5791477,-33.5588673],[-70.578313,-33.5587648],[-70.5775441,-33.5586681],[-70.5769956,-33.5586047],[-70.5767481,-33.5585759],[-70.5760176,-33.5584928]]}";1;San Jorge;2;50;false;false;true;false;false;false;1102.0;3;0;0;0;0;false;PE346;1175522632;-70.5835765;-33.5593379;PE853;1175506523;-70.5854445;-33.5582669;1;6;7;6475737;Diego Portales - Lo Ovalle;#00c27f;Buses Vule;E02;Diego Portales;Lo Ovalle
436178821;"{\"type\":\"LineString\",\"coordinates\":[[-70.5853672,-33.5596205],[-70.5855614,-33.5586107],[-70.5856408,-33.558136],[-70.5857184,-33.5576737],[-70.5857746,-33.5573209],[-70.585786,-33.5572703],[-70.5858351,-33.5569445],[-70.5859017,-33.556534],[-70.5859874,-33.5560485],[-70.5861501,-33.5550688],[-70.5863216,-33.5539297],[-70.5864041,-33.5533841]]}";2;Avenida Vicuña Mackenna Oriente;3;50;false;true;true;false;false;false;877.0;3;0;0;0;0;false;PE346;1175522632;-70.5835765;-33.5593379;PE853;1175506523;-70.5854445;-33.5582669;1;6;7;6475737;Diego Portales - Lo Ovalle;#00c27f;Buses Vule;E02;Diego Portales;Lo Ovalle
436178821;"{\"type\":\"LineString\",\"coordinates\":[[-70.5853672,-33.5596205],[-70.5855614,-33.5586107],[-70.5856408,-33.558136],[-70.5857184,-33.5576737],[-70.5857746,-33.5573209],[-70.585786,-33.5572703],[-70.5858351,-33.5569445],[-70.5859017,-33.556534],[-70.5859874,-33.5560485],[-70.5861501,-33.5550688],[-70.5863216,-33.5539297],[-70.5864041,-33.5533841]]}";1;Avenida Vicuña Mackenna Oriente;3;50;false;true;true;false;false;false;877.0;3;0;0;0;0;false;PE1259;1175506561;-70.5862779;-33.5535993;PE875;1175506626;-70.5868055;-33.5502841;1;8;9;6475737;Diego Portales - Lo Ovalle;#00c27f;Buses Vule;E02;Diego Portales;Lo Ovalle
450812613;"{\"type\":\"LineString\",\"coordinates\":[[-70.5864041,-33.5533841],[-70.5864175,-33.553306],[-70.586515,-33.5528394],[-70.5866291,-33.5522983],[-70.5868773,-33.550948],[-70.5869095,-33.5507365],[-70.5869942,-33.550208]]}";2;Avenida Vicuña Mackenna Oriente;3;60;false;true;true;false;false;false;896.0;2;0;0;0;0;false;PE1259;1175506561;-70.5862779;-33.5535993;PE875;1175506626;-70.5868055;-33.5502841;0;8;9;6475737;Diego Portales - Lo Ovalle;#00c27f;Buses Vule;E02;Diego Portales;Lo Ovalle
108780967;"{\"type\":\"LineString\",\"coordinates\":[[-70.5869942,-33.550208],[-70.5864148,-33.5501972],[-70.5861389,-33.5501939],[-70.5859531,-33.5501865],[-70.5857268,-33.5501712],[-70.5855472,-33.5501413],[-70.5851908,-33.5500605],[-70.5850834,-33.5500246],[-70.5849207,-33.5499893],[-70.5847872,-33.5499665],[-70.5846612,-33.5499604],[-70.5840543,-33.5499693],[-70.5834397,-33.5499807],[-70.5829499,-33.5499923]]}";3;José Miguel Carrera;4;60;false;false;true;false;false;false;476.0;2;0;0;0;0;false;PE1259;1175506561;-70.5862779;-33.5535993;PE875;1175506626;-70.5868055;-33.5502841;1;8;9;6475737;Diego Portales - Lo Ovalle;#00c27f;Buses Vule;E02;Diego Portales;Lo Ovalle
108780967;"{\"type\":\"LineString\",\"coordinates\":[[-70.5869942,-33.550208],[-70.5864148,-33.5501972],[-70.5861389,-33.5501939],[-70.5859531,-33.5501865],[-70.5857268,-33.5501712],[-70.5855472,-33.5501413],[-70.5851908,-33.5500605],[-70.5850834,-33.5500246],[-70.5849207,-33.5499893],[-70.5847872,-33.5499665],[-70.5846612,-33.5499604],[-70.5840543,-33.5499693],[-70.5834397,-33.5499807],[-70.5829499,-33.5499923]]}";1;José Miguel Carrera;4;60;false;false;true;false;false;false;476.0;2;0;0;0;0;false;PE348;1175511668;-70.5831141;-33.5501217;PE349;1175521979;-70.582772;-33.5484297;1;10;11;6475737;Diego Portales - Lo Ovalle;#00c27f;Buses Vule;E02;Diego Portales;Lo Ovalle
524208597;"{\"type\":\"LineString\",\"coordinates\":[[-70.5829499,-33.5499923],[-70.5829321,-33.5490959],[-70.5829024,-33.5482221],[-70.5828737,-33.5473306],[-70.5828703,-33.547209]]}";2;Perú;2;50;false;false;true;false;false;false;388.0;3;0;0;0;0;false;PE348;1175511668;-70.5831141;-33.5501217;PE349;1175521979;-70.582772;-33.5484297;1;10;11;6475737;Diego Portales - Lo Ovalle;#00c27f;Buses Vule;E02;Diego Portales;Lo Ovalle
524208597;"{\"type\":\"LineString\",\"coordinates\":[[-70.5829499,-33.5499923],[-70.5829321,-33.5490959],[-70.5829024,-33.5482221],[-70.5828737,-33.5473306],[-70.5828703,-33.547209]]}";1;Perú;2;50;false;false;true;false;false;false;388.0;3;0;0;0;0;false;PE350;1175521968;-70.5827919;-33.547552;PE351;1175526396;-70.5871336;-33.5470793;1;12;13;6475737;Diego Portales - Lo Ovalle;#00c27f;Buses Vule;E02;Diego Portales;Lo Ovalle
108780973;"{\"type\":\"LineString\",\"coordinates\":[[-70.5828703,-33.547209],[-70.5839715,-33.5471824],[-70.5844526,-33.5471708],[-70.5847892,-33.5471636],[-70.5866909,-33.5471231],[-70.5872839,-33.5471019],[-70.5875349,-33.5471071],[-70.5876214,-33.5471151],[-70.5877032,-33.5471219],[-70.5878645,-33.5471352],[-70.5879034,-33.5471387],[-70.5881946,-33.5471478],[-70.5886848,-33.5471653]]}";2;Avenida Trinidad Oriente;2;50;false;true;true;false;false;false;678.5;4;1;0;0;0;false;PE350;1175521968;-70.5827919;-33.547552;PE351;1175526396;-70.5871336;-33.5470793;1;12;13;6475737;Diego Portales - Lo Ovalle;#00c27f;Buses Vule;E02;Diego Portales;Lo Ovalle
108780973;"{\"type\":\"LineString\",\"coordinates\":[[-70.5828703,-33.547209],[-70.5839715,-33.5471824],[-70.5844526,-33.5471708],[-70.5847892,-33.5471636],[-70.5866909,-33.5471231],[-70.5872839,-33.5471019],[-70.5875349,-33.5471071],[-70.5876214,-33.5471151],[-70.5877032,-33.5471219],[-70.5878645,-33.5471352],[-70.5879034,-33.5471387],[-70.5881946,-33.5471478],[-70.5886848,-33.5471653]]}";1;Avenida Trinidad Oriente;2;50;false;true;true;false;false;false;678.5;4;1;0;0;0;false;PE351;1175526396;-70.5871336;-33.5470793;PE353;1175526146;-70.5915412;-33.5470174;1;13;14;6475737;Diego Portales - Lo Ovalle;#00c27f;Buses Vule;E02;Diego Portales;Lo Ovalle
45862880;"{\"type\":\"LineString\",\"coordinates\":[[-70.5916406,-33.5471255],[-70.5913867,-33.547131],[-70.5908697,-33.5471371],[-70.5904837,-33.547134],[-70.5900965,-33.5471392],[-70.5899635,-33.5471405],[-70.5896948,-33.5471445],[-70.589336,-33.547154],[-70.5891232,-33.5471539],[-70.5887729,-33.547163],[-70.5886848,-33.5471653]]}";2;Avenida Trinidad;2;50;false;false;true;false;false;false;345.0;1;0;0;0;0;false;PE351;1175526396;-70.5871336;-33.5470793;PE353;1175526146;-70.5915412;-33.5470174;1;13;14;6475737;Diego Portales - Lo Ovalle;#00c27f;Buses Vule;E02;Diego Portales;Lo Ovalle
45862880;"{\"type\":\"LineString\",\"coordinates\":[[-70.5916406,-33.5471255],[-70.5913867,-33.547131],[-70.5908697,-33.5471371],[-70.5904837,-33.547134],[-70.5900965,-33.5471392],[-70.5899635,-33.5471405],[-70.5896948,-33.5471445],[-70.589336,-33.547154],[-70.5891232,-33.5471539],[-70.5887729,-33.547163],[-70.5886848,-33.5471653]]}";1;Avenida Trinidad;2;50;false;false;true;false;false;false;345.0;1;0;0;0;0;false;PE353;1175526146;-70.5915412;-33.5470174;PE355;1175526117;-70.5955673;-33.5469215;1;14;15;6475737;Diego Portales - Lo Ovalle;#00c27f;Buses Vule;E02;Diego Portales;Lo Ovalle
45862881;"{\"type\":\"LineString\",\"coordinates\":[[-70.5916406,-33.5471255],[-70.5917694,-33.5470547]]}";2;Avenida Trinidad;1;50;false;true;true;false;false;false;36.0;0;0;0;0;0;false;PE353;1175526146;-70.5915412;-33.5470174;PE355;1175526117;-70.5955673;-33.5469215;0;14;15;6475737;Diego Portales - Lo Ovalle;#00c27f;Buses Vule;E02;Diego Portales;Lo Ovalle
62642658;"{\"type\":\"LineString\",\"coordinates\":[[-70.5917694,-33.5470547],[-70.5923212,-33.5470414],[-70.592939,-33.5470266],[-70.5935586,-33.5470113],[-70.5938836,-33.5470063],[-70.594131,-33.5470039],[-70.5942539,-33.5470364]]}";3;Avenida Trinidad;1;50;false;true;true;false;false;false;581.0;2;0;0;0;0;false;PE353;1175526146;-70.5915412;-33.5470174;PE355;1175526117;-70.5955673;-33.5469215;0;14;15;6475737;Diego Portales - Lo Ovalle;#00c27f;Buses Vule;E02;Diego Portales;Lo Ovalle
790948767;"{\"type\":\"LineString\",\"coordinates\":[[-70.5942539,-33.5470364],[-70.5945639,-33.5470279],[-70.5952122,-33.5470058]]}";4;Avenida Trinidad;1;50;false;false;true;false;false;false;224.0;0;0;0;0;0;false;PE353;1175526146;-70.5915412;-33.5470174;PE355;1175526117;-70.5955673;-33.5469215;0;14;15;6475737;Diego Portales - Lo Ovalle;#00c27f;Buses Vule;E02;Diego Portales;Lo Ovalle
452730910;"{\"type\":\"LineString\",\"coordinates\":[[-70.5952122,-33.5470058],[-70.5953094,-33.5469818],[-70.5953832,-33.5469706],[-70.595457,-33.5469656],[-70.595817,-33.5469589],[-70.5960014,-33.546955],[-70.5962455,-33.5469494],[-70.5963153,-33.5469527],[-70.596379,-33.5469572],[-70.5965707,-33.5469801]]}";5;Avenida Trinidad;2;50;false;true;true;false;false;false;159.5;0;0;0;0;0;false;PE353;1175526146;-70.5915412;-33.5470174;PE355;1175526117;-70.5955673;-33.5469215;1;14;15;6475737;Diego Portales - Lo Ovalle;#00c27f;Buses Vule;E02;Diego Portales;Lo Ovalle
452730910;"{\"type\":\"LineString\",\"coordinates\":[[-70.5952122,-33.5470058],[-70.5953094,-33.5469818],[-70.5953832,-33.5469706],[-70.595457,-33.5469656],[-70.595817,-33.5469589],[-70.5960014,-33.546955],[-70.5962455,-33.5469494],[-70.5963153,-33.5469527],[-70.596379,-33.5469572],[-70.5965707,-33.5469801]]}";1;Avenida Trinidad;2;50;false;true;true;false;false;false;159.5;0;0;0;0;0;false;PE355;1175526117;-70.5955673;-33.5469215;PE356;1175526096;-70.5981568;-33.5468752;1;15;16;6475737;Diego Portales - Lo Ovalle;#00c27f;Buses Vule;E02;Diego Portales;Lo Ovalle
790948766;"{\"type\":\"LineString\",\"coordinates\":[[-70.5965707,-33.5469801],[-70.597599,-33.5469594],[-70.5979248,-33.5469567]]}";2;Avenida Trinidad;1;50;false;false;true;false;false;false;316.0;0;0;0;0;0;false;PE355;1175526117;-70.5955673;-33.5469215;PE356;1175526096;-70.5981568;-33.5468752;0;15;16;6475737;Diego Portales - Lo Ovalle;#00c27f;Buses Vule;E02;Diego Portales;Lo Ovalle
452730908;"{\"type\":\"LineString\",\"coordinates\":[[-70.5979248,-33.5469567],[-70.5980683,-33.5469018],[-70.5983529,-33.5468923],[-70.5985904,-33.5468878],[-70.5988232,-33.5469195]]}";3;Avenida Trinidad;1;50;false;true;true;false;false;false;107.0;0;0;0;0;0;false;PE355;1175526117;-70.5955673;-33.5469215;PE356;1175526096;-70.5981568;-33.5468752;1;15;16;6475737;Diego Portales - Lo Ovalle;#00c27f;Buses Vule;E02;Diego Portales;Lo Ovalle
452730908;"{\"type\":\"LineString\",\"coordinates\":[[-70.5979248,-33.5469567],[-70.5980683,-33.5469018],[-70.5983529,-33.5468923],[-70.5985904,-33.5468878],[-70.5988232,-33.5469195]]}";1;Avenida Trinidad;1;50;false;true;true;false;false;false;107.0;0;0;0;0;0;false;PE356;1175526096;-70.5981568;-33.5468752;PE357;1175526069;-70.6007905;-33.5468116;1;16;17;6475737;Diego Portales - Lo Ovalle;#00c27f;Buses Vule;E02;Diego Portales;Lo Ovalle
452730906;"{\"type\":\"LineString\",\"coordinates\":[[-70.6007264,-33.5468898],[-70.6003053,-33.5468969],[-70.6000755,-33.5468985],[-70.5995654,-33.546902],[-70.5994917,-33.5469048],[-70.5988232,-33.5469195]]}";2;Avenida Trinidad;2;50;false;false;true;false;false;false;444.0;0;0;0;0;0;false;PE356;1175526096;-70.5981568;-33.5468752;PE357;1175526069;-70.6007905;-33.5468116;0;16;17;6475737;Diego Portales - Lo Ovalle;#00c27f;Buses Vule;E02;Diego Portales;Lo Ovalle
452730907;"{\"type\":\"LineString\",\"coordinates\":[[-70.6007264,-33.5468898],[-70.6008785,-33.5468329],[-70.6010502,-33.5468315],[-70.6017326,-33.5468199],[-70.6018183,-33.546851]]}";3;Avenida Trinidad;1;50;false;true;true;false;false;false;130.0;0;0;0;0;0;false;PE356;1175526096;-70.5981568;-33.5468752;PE357;1175526069;-70.6007905;-33.5468116;1;16;17;6475737;Diego Portales - Lo Ovalle;#00c27f;Buses Vule;E02;Diego Portales;Lo Ovalle
452730907;"{\"type\":\"LineString\",\"coordinates\":[[-70.6007264,-33.5468898],[-70.6008785,-33.5468329],[-70.6010502,-33.5468315],[-70.6017326,-33.5468199],[-70.6018183,-33.546851]]}";1;Avenida Trinidad;1;50;false;true;true;false;false;false;130.0;0;0;0;0;0;false;PE357;1175526069;-70.6007905;-33.5468116;PE358;1175526056;-70.603291;-33.5467433;1;17;18;6475737;Diego Portales - Lo Ovalle;#00c27f;Buses Vule;E02;Diego Portales;Lo Ovalle
452730904;"{\"type\":\"LineString\",\"coordinates\":[[-70.6029716,-33.5468276],[-70.6028484,-33.5468301],[-70.6024096,-33.546839],[-70.60219,-33.5468435],[-70.6018183,-33.546851]]}";2;Avenida Trinidad;1;50;false;false;true;false;false;false;269.0;0;0;0;0;0;false;PE357;1175526069;-70.6007905;-33.5468116;PE358;1175526056;-70.603291;-33.5467433;0;17;18;6475737;Diego Portales - Lo Ovalle;#00c27f;Buses Vule;E02;Diego Portales;Lo Ovalle
452730903;"{\"type\":\"LineString\",\"coordinates\":[[-70.6029716,-33.5468276],[-70.6030427,-33.5467899],[-70.6035272,-33.5467676],[-70.6036331,-33.5467673],[-70.6036882,-33.546767],[-70.6037723,-33.5468179]]}";3;Avenida Trinidad;1;50;false;true;true;false;false;false;97.5;2;0;0;0;0;false;PE357;1175526069;-70.6007905;-33.5468116;PE358;1175526056;-70.603291;-33.5467433;1;17;18;6475737;Diego Portales - Lo Ovalle;#00c27f;Buses Vule;E02;Diego Portales;Lo Ovalle
452730903;"{\"type\":\"LineString\",\"coordinates\":[[-70.6029716,-33.5468276],[-70.6030427,-33.5467899],[-70.6035272,-33.5467676],[-70.6036331,-33.5467673],[-70.6036882,-33.546767],[-70.6037723,-33.5468179]]}";1;Avenida Trinidad;1;50;false;true;true;false;false;false;97.5;2;0;0;0;0;false;PE358;1175526056;-70.603291;-33.5467433;PE197;1175526029;-70.6051584;-33.5467449;1;18;19;6475737;Diego Portales - Lo Ovalle;#00c27f;Buses Vule;E02;Diego Portales;Lo Ovalle
438205711;"{\"type\":\"LineString\",\"coordinates\":[[-70.6105209,-33.546664],[-70.6100148,-33.5466726],[-70.6099537,-33.5466736],[-70.6091679,-33.546687],[-70.6084231,-33.5467051],[-70.6081305,-33.5467132],[-70.6075444,-33.5467264],[-70.6065373,-33.5467508],[-70.6060863,-33.5467663],[-70.6055915,-33.5467738],[-70.6044995,-33.5468002],[-70.6037723,-33.5468179]]}";2;Avenida Trinidad;1;50;false;false;true;false;false;false;787.5;1;0;0;0;0;false;PE358;1175526056;-70.603291;-33.5467433;PE197;1175526029;-70.6051584;-33.5467449;1;18;19;6475737;Diego Portales - Lo Ovalle;#00c27f;Buses Vule;E02;Diego Portales;Lo Ovalle
438205711;"{\"type\":\"LineString\",\"coordinates\":[[-70.6105209,-33.546664],[-70.6100148,-33.5466726],[-70.6099537,-33.5466736],[-70.6091679,-33.546687],[-70.6084231,-33.5467051],[-70.6081305,-33.5467132],[-70.6075444,-33.5467264],[-70.6065373,-33.5467508],[-70.6060863,-33.5467663],[-70.6055915,-33.5467738],[-70.6044995,-33.5468002],[-70.6037723,-33.5468179]]}";1;Avenida Trinidad;1;50;false;false;true;false;false;false;787.5;1;0;0;0;0;false;PE199;1175525979;-70.6103282;-33.5465793;PE200;1175399633;-70.61272;-33.5465745;1;21;22;6475737;Diego Portales - Lo Ovalle;#00c27f;Buses Vule;E02;Diego Portales;Lo Ovalle
438205709;"{\"type\":\"LineString\",\"coordinates\":[[-70.6106232,-33.5466622],[-70.6105209,-33.546664]]}";2;Avenida Trinidad;1;50;false;false;true;false;false;false;24.0;2;0;0;0;0;false;PE199;1175525979;-70.6103282;-33.5465793;PE200;1175399633;-70.61272;-33.5465745;0;21;22;6475737;Diego Portales - Lo Ovalle;#00c27f;Buses Vule;E02;Diego Portales;Lo Ovalle
438205710;"{\"type\":\"LineString\",\"coordinates\":[[-70.6108273,-33.5466588],[-70.6106232,-33.5466622]]}";3;Avenida Trinidad;1;50;false;false;true;false;false;false;48.0;2;0;0;0;0;false;PE199;1175525979;-70.6103282;-33.5465793;PE200;1175399633;-70.61272;-33.5465745;0;21;22;6475737;Diego Portales - Lo Ovalle;#00c27f;Buses Vule;E02;Diego Portales;Lo Ovalle
438205708;"{\"type\":\"LineString\",\"coordinates\":[[-70.61095,-33.5466567],[-70.6108273,-33.5466588]]}";4;Avenida Trinidad;1;50;false;false;true;false;false;false;29.0;2;0;0;0;0;false;PE199;1175525979;-70.6103282;-33.5465793;PE200;1175399633;-70.61272;-33.5465745;0;21;22;6475737;Diego Portales - Lo Ovalle;#00c27f;Buses Vule;E02;Diego Portales;Lo Ovalle
54077982;"{\"type\":\"LineString\",\"coordinates\":[[-70.6144982,-33.5464752],[-70.6141478,-33.5465382],[-70.6138952,-33.5465688],[-70.6137742,-33.5465763],[-70.6129988,-33.5466044],[-70.6126368,-33.5466145],[-70.6125102,-33.5466181],[-70.6114078,-33.5466489],[-70.61095,-33.5466567]]}";5;Avenida Trinidad;1;50;false;false;true;false;false;false;415.5;1;0;0;0;0;false;PE199;1175525979;-70.6103282;-33.5465793;PE200;1175399633;-70.61272;-33.5465745;1;21;22;6475737;Diego Portales - Lo Ovalle;#00c27f;Buses Vule;E02;Diego Portales;Lo Ovalle
54076827;"{\"type\":\"LineString\",\"coordinates\":[[-70.6151737,-33.5463276],[-70.6157695,-33.5462105],[-70.6162859,-33.5461044],[-70.6165237,-33.5460571],[-70.6168466,-33.5459809],[-70.6174289,-33.5458546],[-70.6179345,-33.5457441],[-70.6184497,-33.5456384],[-70.6187586,-33.5455829],[-70.6191308,-33.5455015],[-70.6214442,-33.544995]]}";1;Avenida Manuel Rodríguez;2;50;false;true;true;false;false;false;754.5;3;0;0;0;0;false;PE359;1175398624;-70.6194508;-33.5453486;PE360;1175398589;-70.624021;-33.5443647;1;23;24;6475737;Diego Portales - Lo Ovalle;#00c27f;Buses Vule;E02;Diego Portales;Lo Ovalle
642658007;"{\"type\":\"LineString\",\"coordinates\":[[-70.6214442,-33.544995],[-70.6227379,-33.5447381],[-70.6232564,-33.5446274]]}";2;Avenida Manuel Rodríguez;2;50;false;false;true;false;false;false;435.0;0;0;0;0;0;false;PE359;1175398624;-70.6194508;-33.5453486;PE360;1175398589;-70.624021;-33.5443647;0;23;24;6475737;Diego Portales - Lo Ovalle;#00c27f;Buses Vule;E02;Diego Portales;Lo Ovalle
450843908;"{\"type\":\"LineString\",\"coordinates\":[[-70.6232564,-33.5446274],[-70.6239821,-33.5444724],[-70.624331,-33.544398],[-70.6244756,-33.5443667],[-70.6253315,-33.5441806],[-70.6264747,-33.5439335],[-70.6269551,-33.5438357],[-70.6271242,-33.5437995],[-70.6274759,-33.5437302],[-70.627571,-33.5437342],[-70.6277467,-33.5437219],[-70.6279024,-33.5436897],[-70.6289079,-33.5434771],[-70.6290568,-33.5434179],[-70.6291239,-33.5433819],[-70.6291782,-33.5433469],[-70.6292222,-33.5433114]]}";3;Avenida Manuel Rodríguez;2;50;false;true;true;false;false;false;722.5;2;0;0;0;0;false;PE359;1175398624;-70.6194508;-33.5453486;PE360;1175398589;-70.624021;-33.5443647;1;23;24;6475737;Diego Portales - Lo Ovalle;#00c27f;Buses Vule;E02;Diego Portales;Lo Ovalle
450843908;"{\"type\":\"LineString\",\"coordinates\":[[-70.6232564,-33.5446274],[-70.6239821,-33.5444724],[-70.624331,-33.544398],[-70.6244756,-33.5443667],[-70.6253315,-33.5441806],[-70.6264747,-33.5439335],[-70.6269551,-33.5438357],[-70.6271242,-33.5437995],[-70.6274759,-33.5437302],[-70.627571,-33.5437342],[-70.6277467,-33.5437219],[-70.6279024,-33.5436897],[-70.6289079,-33.5434771],[-70.6290568,-33.5434179],[-70.6291239,-33.5433819],[-70.6291782,-33.5433469],[-70.6292222,-33.5433114]]}";1;Avenida Manuel Rodríguez;2;50;false;true;true;false;false;false;722.5;2;0;0;0;0;false;PE361;1175398562;-70.6266687;-33.5437587;PE173;1175635119;-70.6291118;-33.5431988;1;25;26;6475737;Diego Portales - Lo Ovalle;#00c27f;Buses Vule;E02;Diego Portales;Lo Ovalle
39259023;"{\"type\":\"LineString\",\"coordinates\":[[-70.6292222,-33.5433114],[-70.6292841,-33.5432536],[-70.6294034,-33.5430947],[-70.6295127,-33.5429623],[-70.6296106,-33.5428907],[-70.6297224,-33.5428287],[-70.6298814,-33.5427612],[-70.6300477,-33.5427322],[-70.6301926,-33.542721]]}";2;Avenida Manuel Rodríguez;1;50;false;true;true;false;false;false;148.0;0;0;0;0;0;false;PE361;1175398562;-70.6266687;-33.5437587;PE173;1175635119;-70.6291118;-33.5431988;1;25;26;6475737;Diego Portales - Lo Ovalle;#00c27f;Buses Vule;E02;Diego Portales;Lo Ovalle
39259023;"{\"type\":\"LineString\",\"coordinates\":[[-70.6292222,-33.5433114],[-70.6292841,-33.5432536],[-70.6294034,-33.5430947],[-70.6295127,-33.5429623],[-70.6296106,-33.5428907],[-70.6297224,-33.5428287],[-70.6298814,-33.5427612],[-70.6300477,-33.5427322],[-70.6301926,-33.542721]]}";1;Avenida Manuel Rodríguez;1;50;false;true;true;false;false;false;148.0;0;0;0;0;0;false;PE173;1175635119;-70.6291118;-33.5431988;PE1308;1175399787;-70.634136;-33.539678;1;26;27;6475737;Diego Portales - Lo Ovalle;#00c27f;Buses Vule;E02;Diego Portales;Lo Ovalle
39259020;"{\"type\":\"LineString\",\"coordinates\":[[-70.6301926,-33.542721],[-70.6303884,-33.5426985],[-70.6316601,-33.542526],[-70.6320915,-33.5424402]]}";2;Avenida Manuel Rodríguez;1;50;false;true;true;false;false;false;450.0;0;0;0;0;0;false;PE173;1175635119;-70.6291118;-33.5431988;PE1308;1175399787;-70.634136;-33.539678;0;26;27;6475737;Diego Portales - Lo Ovalle;#00c27f;Buses Vule;E02;Diego Portales;Lo Ovalle
436178803;"{\"type\":\"LineString\",\"coordinates\":[[-70.6320915,-33.5424402],[-70.6330466,-33.5423151]]}";3;Avenida Américo Vespucio;2;50;false;true;true;false;false;false;226.0;1;0;0;0;0;false;PE173;1175635119;-70.6291118;-33.5431988;PE1308;1175399787;-70.634136;-33.539678;0;26;27;6475737;Diego Portales - Lo Ovalle;#00c27f;Buses Vule;E02;Diego Portales;Lo Ovalle
438205669;"{\"type\":\"LineString\",\"coordinates\":[[-70.6330466,-33.5423151],[-70.6338416,-33.5422019],[-70.6339762,-33.5421827]]}";4;Avenida Américo Vespucio;2;50;false;true;true;false;false;false;220.0;2;0;0;0;0;false;PE173;1175635119;-70.6291118;-33.5431988;PE1308;1175399787;-70.634136;-33.539678;0;26;27;6475737;Diego Portales - Lo Ovalle;#00c27f;Buses Vule;E02;Diego Portales;Lo Ovalle
436178813;"{\"type\":\"LineString\",\"coordinates\":[[-70.6339762,-33.5421827],[-70.6340049,-33.5420341],[-70.6340665,-33.5417154],[-70.6341273,-33.5414423],[-70.6341729,-33.5411763],[-70.6342078,-33.5408834],[-70.6342125,-33.5408333],[-70.6342427,-33.5404989],[-70.634265,-33.5400671],[-70.6342963,-33.5393967],[-70.6343262,-33.5388986],[-70.6343854,-33.5380512],[-70.6344076,-33.5377418],[-70.6344209,-33.5374096]]}";5;Avenida Santa Rosa;2;50;false;true;true;false;false;false;667.5;3;0;0;0;0;false;PE173;1175635119;-70.6291118;-33.5431988;PE1308;1175399787;-70.634136;-33.539678;1;26;27;6475737;Diego Portales - Lo Ovalle;#00c27f;Buses Vule;E02;Diego Portales;Lo Ovalle
436178813;"{\"type\":\"LineString\",\"coordinates\":[[-70.6339762,-33.5421827],[-70.6340049,-33.5420341],[-70.6340665,-33.5417154],[-70.6341273,-33.5414423],[-70.6341729,-33.5411763],[-70.6342078,-33.5408834],[-70.6342125,-33.5408333],[-70.6342427,-33.5404989],[-70.634265,-33.5400671],[-70.6342963,-33.5393967],[-70.6343262,-33.5388986],[-70.6343854,-33.5380512],[-70.6344076,-33.5377418],[-70.6344209,-33.5374096]]}";1;Avenida Santa Rosa;2;50;false;true;true;false;false;false;667.5;3;0;0;0;0;false;PE66;1175635380;-70.6343081;-33.5379319;PE116;1175635463;-70.6346448;-33.5331623;1;28;29;6475737;Diego Portales - Lo Ovalle;#00c27f;Buses Vule;E02;Diego Portales;Lo Ovalle
15709954;"{\"type\":\"LineString\",\"coordinates\":[[-70.6344209,-33.5374096],[-70.6344249,-33.5373],[-70.6344861,-33.5359957],[-70.6345529,-33.5345152],[-70.634579,-33.5341674],[-70.634697,-33.532944],[-70.6347101,-33.5328656],[-70.6349967,-33.5308047],[-70.6350458,-33.5305806]]}";2;Avenida Santa Rosa;2;50;false;true;true;false;false;false;954.0;6;0;0;0;0;false;PE66;1175635380;-70.6343081;-33.5379319;PE116;1175635463;-70.6346448;-33.5331623;1;28;29;6475737;Diego Portales - Lo Ovalle;#00c27f;Buses Vule;E02;Diego Portales;Lo Ovalle
15709954;"{\"type\":\"LineString\",\"coordinates\":[[-70.6344209,-33.5374096],[-70.6344249,-33.5373],[-70.6344861,-33.5359957],[-70.6345529,-33.5345152],[-70.634579,-33.5341674],[-70.634697,-33.532944],[-70.6347101,-33.5328656],[-70.6349967,-33.5308047],[-70.6350458,-33.5305806]]}";1;Avenida Santa Rosa;2;50;false;true;true;false;false;false;954.0;6;0;0;0;0;false;PE116;1175635463;-70.6346448;-33.5331623;PE117;1175635500;-70.6355123;-33.5283348;1;29;30;6475737;Diego Portales - Lo Ovalle;#00c27f;Buses Vule;E02;Diego Portales;Lo Ovalle
437095615;"{\"type\":\"LineString\",\"coordinates\":[[-70.6350458,-33.5305806],[-70.6353055,-33.5294727],[-70.6353498,-33.529286],[-70.6354034,-33.5289283]]}";2;Avenida Santa Rosa;2;50;false;true;true;false;false;false;468.0;2;0;0;0;0;false;PE116;1175635463;-70.6346448;-33.5331623;PE117;1175635500;-70.6355123;-33.5283348;0;29;30;6475737;Diego Portales - Lo Ovalle;#00c27f;Buses Vule;E02;Diego Portales;Lo Ovalle
436487714;"{\"type\":\"LineString\",\"coordinates\":[[-70.6354034,-33.5289283],[-70.6355048,-33.5282904],[-70.6355386,-33.5280444]]}";3;Avenida Santa Rosa;2;50;false;true;true;false;false;false;124.5;3;0;0;0;0;false;PE116;1175635463;-70.6346448;-33.5331623;PE117;1175635500;-70.6355123;-33.5283348;1;29;30;6475737;Diego Portales - Lo Ovalle;#00c27f;Buses Vule;E02;Diego Portales;Lo Ovalle
436487714;"{\"type\":\"LineString\",\"coordinates\":[[-70.6354034,-33.5289283],[-70.6355048,-33.5282904],[-70.6355386,-33.5280444]]}";1;Avenida Santa Rosa;2;50;false;true;true;false;false;false;124.5;3;0;0;0;0;false;PE117;1175635500;-70.6355123;-33.5283348;PG436;1175417702;-70.6384235;-33.5250698;1;30;31;6475737;Diego Portales - Lo Ovalle;#00c27f;Buses Vule;E02;Diego Portales;Lo Ovalle
436487713;"{\"type\":\"LineString\",\"coordinates\":[[-70.6355386,-33.5280444],[-70.635605,-33.5273188]]}";2;Avenida Santa Rosa;2;50;false;true;true;false;false;false;203.0;2;0;0;0;0;false;PE117;1175635500;-70.6355123;-33.5283348;PG436;1175417702;-70.6384235;-33.5250698;0;30;31;6475737;Diego Portales - Lo Ovalle;#00c27f;Buses Vule;E02;Diego Portales;Lo Ovalle
451470162;"{\"type\":\"LineString\",\"coordinates\":[[-70.635605,-33.5273188],[-70.6358053,-33.525541]]}";3;Avenida Santa Rosa;2;50;false;true;true;false;false;false;497.0;2;0;0;0;0;false;PE117;1175635500;-70.6355123;-33.5283348;PG436;1175417702;-70.6384235;-33.5250698;0;30;31;6475737;Diego Portales - Lo Ovalle;#00c27f;Buses Vule;E02;Diego Portales;Lo Ovalle
436178852;"{\"type\":\"LineString\",\"coordinates\":[[-70.635913,-33.5255224],[-70.6358053,-33.525541]]}";4;Santa Ana;2;60;false;false;true;false;false;false;26.0;2;0;0;0;0;false;PE117;1175635500;-70.6355123;-33.5283348;PG436;1175417702;-70.6384235;-33.5250698;0;30;31;6475737;Diego Portales - Lo Ovalle;#00c27f;Buses Vule;E02;Diego Portales;Lo Ovalle
171939434;"{\"type\":\"LineString\",\"coordinates\":[[-70.6463304,-33.5233259],[-70.646156,-33.5233796],[-70.6455729,-33.5236276],[-70.6455048,-33.5236565],[-70.6447854,-33.5239811],[-70.6446492,-33.5240366],[-70.6443751,-33.5241354],[-70.6440934,-33.5242024],[-70.6436428,-33.5243053],[-70.6431976,-33.5243925],[-70.6428588,-33.524457],[-70.6424331,-33.5245423],[-70.6424,-33.524551],[-70.641811,-33.5246806],[-70.6416969,-33.5246977],[-70.6408949,-33.5248397],[-70.6403115,-33.5249179],[-70.6399274,-33.5249608],[-70.6394948,-33.5250186],[-70.6390989,-33.5250695],[-70.6386662,-33.5251251],[-70.6382785,-33.5251732],[-70.6381837,-33.5251872],[-70.637863,-33.5252284],[-70.6374473,-33.5252888],[-70.6367681,-33.5253886],[-70.6359168,-33.5255218],[-70.635913,-33.5255224]]}";5;Santa Ana;2;60;false;false;true;false;false;false;1260.5;3;0;0;0;0;false;PE117;1175635500;-70.6355123;-33.5283348;PG436;1175417702;-70.6384235;-33.5250698;1;30;31;6475737;Diego Portales - Lo Ovalle;#00c27f;Buses Vule;E02;Diego Portales;Lo Ovalle
171939434;"{\"type\":\"LineString\",\"coordinates\":[[-70.6463304,-33.5233259],[-70.646156,-33.5233796],[-70.6455729,-33.5236276],[-70.6455048,-33.5236565],[-70.6447854,-33.5239811],[-70.6446492,-33.5240366],[-70.6443751,-33.5241354],[-70.6440934,-33.5242024],[-70.6436428,-33.5243053],[-70.6431976,-33.5243925],[-70.6428588,-33.524457],[-70.6424331,-33.5245423],[-70.6424,-33.524551],[-70.641811,-33.5246806],[-70.6416969,-33.5246977],[-70.6408949,-33.5248397],[-70.6403115,-33.5249179],[-70.6399274,-33.5249608],[-70.6394948,-33.5250186],[-70.6390989,-33.5250695],[-70.6386662,-33.5251251],[-70.6382785,-33.5251732],[-70.6381837,-33.5251872],[-70.637863,-33.5252284],[-70.6374473,-33.5252888],[-70.6367681,-33.5253886],[-70.6359168,-33.5255218],[-70.635913,-33.5255224]]}";1;Santa Ana;2;60;false;false;true;false;false;false;1260.5;3;0;0;0;0;false;PG439;1175417739;-70.6460953;-33.5233383;PG440;1175427104;-70.6471107;-33.523096;1;34;35;6475737;Diego Portales - Lo Ovalle;#00c27f;Buses Vule;E02;Diego Portales;Lo Ovalle
24755736;"{\"type\":\"LineString\",\"coordinates\":[[-70.6598241,-33.5205978],[-70.6596907,-33.5206258],[-70.6574439,-33.521075],[-70.6574007,-33.5210837],[-70.6571685,-33.5211291],[-70.6563855,-33.5212821],[-70.6552064,-33.5215244],[-70.6546774,-33.521623],[-70.6535514,-33.5218509],[-70.6529774,-33.5219671],[-70.6524276,-33.5220857],[-70.6507411,-33.5224147],[-70.6502672,-33.5225145],[-70.6498409,-33.5226053],[-70.6487953,-33.5228183],[-70.6485102,-33.5228728],[-70.6472289,-33.5231224],[-70.646781,-33.5232186],[-70.6463304,-33.5233259]]}";2;General Freire;2;30;false;false;true;false;false;false;1618.0;4;0;0;0;0;false;PG439;1175417739;-70.6460953;-33.5233383;PG440;1175427104;-70.6471107;-33.523096;1;34;35;6475737;Diego Portales - Lo Ovalle;#00c27f;Buses Vule;E02;Diego Portales;Lo Ovalle
24755736;"{\"type\":\"LineString\",\"coordinates\":[[-70.6598241,-33.5205978],[-70.6596907,-33.5206258],[-70.6574439,-33.521075],[-70.6574007,-33.5210837],[-70.6571685,-33.5211291],[-70.6563855,-33.5212821],[-70.6552064,-33.5215244],[-70.6546774,-33.521623],[-70.6535514,-33.5218509],[-70.6529774,-33.5219671],[-70.6524276,-33.5220857],[-70.6507411,-33.5224147],[-70.6502672,-33.5225145],[-70.6498409,-33.5226053],[-70.6487953,-33.5228183],[-70.6485102,-33.5228728],[-70.6472289,-33.5231224],[-70.646781,-33.5232186],[-70.6463304,-33.5233259]]}";1;General Freire;2;30;false;false;true;false;false;false;1618.0;4;0;0;0;0;false;PG443;1175427033;-70.6593208;-33.5206475;PG444;1175426983;-70.6612257;-33.5202671;1;38;39;6475737;Diego Portales - Lo Ovalle;#00c27f;Buses Vule;E02;Diego Portales;Lo Ovalle
436178838;"{\"type\":\"LineString\",\"coordinates\":[[-70.6614723,-33.5202657],[-70.6598241,-33.5205978]]}";2;General Freire;1;50;false;false;true;false;false;false;198.0;1;0;0;0;0;false;PG443;1175427033;-70.6593208;-33.5206475;PG444;1175426983;-70.6612257;-33.5202671;1;38;39;6475737;Diego Portales - Lo Ovalle;#00c27f;Buses Vule;E02;Diego Portales;Lo Ovalle
436178838;"{\"type\":\"LineString\",\"coordinates\":[[-70.6614723,-33.5202657],[-70.6598241,-33.5205978]]}";1;General Freire;1;50;false;false;true;false;false;false;198.0;1;0;0;0;0;false;PG444;1175426983;-70.6612257;-33.5202671;PG445;1175428623;-70.6607914;-33.5185007;1;39;40;6475737;Diego Portales - Lo Ovalle;#00c27f;Buses Vule;E02;Diego Portales;Lo Ovalle
436178845;"{\"type\":\"LineString\",\"coordinates\":[[-70.6614723,-33.5202657],[-70.6613087,-33.5196732],[-70.6611773,-33.5192483],[-70.6611558,-33.5191175],[-70.6609037,-33.5182689],[-70.6608775,-33.518147],[-70.660891,-33.5180352],[-70.6609178,-33.5179278],[-70.6609748,-33.5178048],[-70.6610365,-33.5176785]]}";2;Paulina;1;50;false;true;true;false;false;false;371.5;0;0;0;0;0;false;PG444;1175426983;-70.6612257;-33.5202671;PG445;1175428623;-70.6607914;-33.5185007;1;39;40;6475737;Diego Portales - Lo Ovalle;#00c27f;Buses Vule;E02;Diego Portales;Lo Ovalle
436178845;"{\"type\":\"LineString\",\"coordinates\":[[-70.6614723,-33.5202657],[-70.6613087,-33.5196732],[-70.6611773,-33.5192483],[-70.6611558,-33.5191175],[-70.6609037,-33.5182689],[-70.6608775,-33.518147],[-70.660891,-33.5180352],[-70.6609178,-33.5179278],[-70.6609748,-33.5178048],[-70.6610365,-33.5176785]]}";1;Paulina;1;50;false;true;true;false;false;false;371.5;0;0;0;0;0;false;PG445;1175428623;-70.6607914;-33.5185007;PG1585;1175284636;-70.6604456;-33.5169749;1;40;41;6475737;Diego Portales - Lo Ovalle;#00c27f;Buses Vule;E02;Diego Portales;Lo Ovalle
436178862;"{\"type\":\"LineString\",\"coordinates\":[[-70.6610365,-33.5176785],[-70.6609733,-33.5175346],[-70.6608353,-33.5172201],[-70.6608353,-33.5170881],[-70.6608431,-33.5169825]]}";2;"";1;50;false;false;true;false;false;false;203.0;0;0;0;0;0;false;PG445;1175428623;-70.6607914;-33.5185007;PG1585;1175284636;-70.6604456;-33.5169749;1;40;41;6475737;Diego Portales - Lo Ovalle;#00c27f;Buses Vule;E02;Diego Portales;Lo Ovalle
