way_id;shape;index;name;nb_lanes;legal_speed;speed_zone_30;oneway;shares_bike;bike_box;bus_lane;dedicated_bus_lane;length;nb_traffic_signals;nb_crossings;nb_stops;nb_give_ways;nb_lvl_crossings;roundabout;stop_id_orig;node_id_orig;coord_x_orig;coord_y_orig;stop_id_dest;node_id_dest;coord_x_dest;coord_y_dest;nb_neighbouring_ways_bus_stop;order_orig;order_dest;id_line;line_name;colour;operator;ref;from;to
661290223;"{\"type\":\"LineString\",\"coordinates\":[[-6.3281247,53.3422039],[-6.3279698,53.3421991],[-6.3266761,53.3421549],[-6.3266322,53.3421535]]}";1;Sarsfield Road;2;50;false;true;false;false;false;false;101.0;0;0;0;0;0;false;2718;2362253349;-6.3277605;53.3422275;2719;5618826558;-6.320067;53.3416358;1;0;1;7725793;40 - Liffey Valley SC - Charlestown SC;"";Dublin Bus;40;Liffey Valley Shopping Centre;Charlestown Shopping Centre
782532961;"{\"type\":\"LineString\",\"coordinates\":[[-6.3266322,53.3421535],[-6.3260513,53.3421349],[-6.3253742,53.3421456]]}";2;Sarsfield Road;2;50;false;true;false;false;false;false;85.0;1;0;0;0;0;false;2718;2362253349;-6.3277605;53.3422275;2719;5618826558;-6.320067;53.3416358;0;0;1;7725793;40 - Liffey Valley SC - Charlestown SC;"";Dublin Bus;40;Liffey Valley Shopping Centre;Charlestown Shopping Centre
4402044;"{\"type\":\"LineString\",\"coordinates\":[[-6.3253742,53.3421456],[-6.325338,53.3420447]]}";3;"";1;50;false;true;true;false;false;false;12.0;2;0;0;0;0;false;2718;2362253349;-6.3277605;53.3422275;2719;5618826558;-6.320067;53.3416358;0;0;1;7725793;40 - Liffey Valley SC - Charlestown SC;"";Dublin Bus;40;Liffey Valley Shopping Centre;Charlestown Shopping Centre
4278355;"{\"type\":\"LineString\",\"coordinates\":[[-6.325338,53.3420447],[-6.3252598,53.3419359]]}";4;Sarsfield Road;1;50;false;true;true;false;false;false;14.0;1;0;0;0;0;false;2718;2362253349;-6.3277605;53.3422275;2719;5618826558;-6.320067;53.3416358;0;0;1;7725793;40 - Liffey Valley SC - Charlestown SC;"";Dublin Bus;40;Liffey Valley Shopping Centre;Charlestown Shopping Centre
750308790;"{\"type\":\"LineString\",\"coordinates\":[[-6.3252598,53.3419359],[-6.3249931,53.3418803],[-6.3245161,53.3417342],[-6.3244917,53.3417269]]}";5;Sarsfield Road;2;50;false;false;true;false;false;false;57.0;0;0;0;0;0;false;2718;2362253349;-6.3277605;53.3422275;2719;5618826558;-6.320067;53.3416358;0;0;1;7725793;40 - Liffey Valley SC - Charlestown SC;"";Dublin Bus;40;Liffey Valley Shopping Centre;Charlestown Shopping Centre
317619312;"{\"type\":\"LineString\",\"coordinates\":[[-6.3244917,53.3417269],[-6.3241518,53.3416341]]}";6;Sarsfield Road;2;50;false;false;true;false;false;false;26.0;0;0;0;0;0;false;2718;2362253349;-6.3277605;53.3422275;2719;5618826558;-6.320067;53.3416358;0;0;1;7725793;40 - Liffey Valley SC - Charlestown SC;"";Dublin Bus;40;Liffey Valley Shopping Centre;Charlestown Shopping Centre
766029598;"{\"type\":\"LineString\",\"coordinates\":[[-6.3241518,53.3416341],[-6.3240149,53.3416032],[-6.3236278,53.3415266],[-6.3232639,53.3414851],[-6.3229569,53.3414624],[-6.3223001,53.3414829],[-6.3214931,53.3415353],[-6.3208549,53.3415663],[-6.3203677,53.3415899],[-6.3199914,53.3416108],[-6.3194521,53.3416379]]}";7;Sarsfield Road;2;50;false;false;true;false;false;false;159.5;0;0;0;0;0;false;2718;2362253349;-6.3277605;53.3422275;2719;5618826558;-6.320067;53.3416358;1;0;1;7725793;40 - Liffey Valley SC - Charlestown SC;"";Dublin Bus;40;Liffey Valley Shopping Centre;Charlestown Shopping Centre
766029598;"{\"type\":\"LineString\",\"coordinates\":[[-6.3241518,53.3416341],[-6.3240149,53.3416032],[-6.3236278,53.3415266],[-6.3232639,53.3414851],[-6.3229569,53.3414624],[-6.3223001,53.3414829],[-6.3214931,53.3415353],[-6.3208549,53.3415663],[-6.3203677,53.3415899],[-6.3199914,53.3416108],[-6.3194521,53.3416379]]}";1;Sarsfield Road;2;50;false;false;true;false;false;false;159.5;0;0;0;0;0;false;2719;5618826558;-6.320067;53.3416358;2716;5622391875;-6.3323114;53.3428273;1;1;2;7725793;40 - Liffey Valley SC - Charlestown SC;"";Dublin Bus;40;Liffey Valley Shopping Centre;Charlestown Shopping Centre
317619312;"{\"type\":\"LineString\",\"coordinates\":[[-6.3244917,53.3417269],[-6.3241518,53.3416341]]}";2;Sarsfield Road;2;50;false;false;true;false;false;false;26.0;0;0;0;0;0;false;2719;5618826558;-6.320067;53.3416358;2716;5622391875;-6.3323114;53.3428273;0;1;2;7725793;40 - Liffey Valley SC - Charlestown SC;"";Dublin Bus;40;Liffey Valley Shopping Centre;Charlestown Shopping Centre
750308790;"{\"type\":\"LineString\",\"coordinates\":[[-6.3252598,53.3419359],[-6.3249931,53.3418803],[-6.3245161,53.3417342],[-6.3244917,53.3417269]]}";3;Sarsfield Road;2;50;false;false;true;false;false;false;57.0;0;0;0;0;0;false;2719;5618826558;-6.320067;53.3416358;2716;5622391875;-6.3323114;53.3428273;0;1;2;7725793;40 - Liffey Valley SC - Charlestown SC;"";Dublin Bus;40;Liffey Valley Shopping Centre;Charlestown Shopping Centre
4278355;"{\"type\":\"LineString\",\"coordinates\":[[-6.325338,53.3420447],[-6.3252598,53.3419359]]}";4;Sarsfield Road;1;50;false;true;true;false;false;false;14.0;1;0;0;0;0;false;2719;5618826558;-6.320067;53.3416358;2716;5622391875;-6.3323114;53.3428273;0;1;2;7725793;40 - Liffey Valley SC - Charlestown SC;"";Dublin Bus;40;Liffey Valley Shopping Centre;Charlestown Shopping Centre
4402044;"{\"type\":\"LineString\",\"coordinates\":[[-6.3253742,53.3421456],[-6.325338,53.3420447]]}";5;"";1;50;false;true;true;false;false;false;12.0;2;0;0;0;0;false;2719;5618826558;-6.320067;53.3416358;2716;5622391875;-6.3323114;53.3428273;0;1;2;7725793;40 - Liffey Valley SC - Charlestown SC;"";Dublin Bus;40;Liffey Valley Shopping Centre;Charlestown Shopping Centre
782532961;"{\"type\":\"LineString\",\"coordinates\":[[-6.3266322,53.3421535],[-6.3260513,53.3421349],[-6.3253742,53.3421456]]}";6;Sarsfield Road;2;50;false;true;false;false;false;false;85.0;1;0;0;0;0;false;2719;5618826558;-6.320067;53.3416358;2716;5622391875;-6.3323114;53.3428273;0;1;2;7725793;40 - Liffey Valley SC - Charlestown SC;"";Dublin Bus;40;Liffey Valley Shopping Centre;Charlestown Shopping Centre
661290223;"{\"type\":\"LineString\",\"coordinates\":[[-6.3281247,53.3422039],[-6.3279698,53.3421991],[-6.3266761,53.3421549],[-6.3266322,53.3421535]]}";7;Sarsfield Road;2;50;false;true;false;false;false;false;101.0;0;0;0;0;0;false;2719;5618826558;-6.320067;53.3416358;2716;5622391875;-6.3323114;53.3428273;0;1;2;7725793;40 - Liffey Valley SC - Charlestown SC;"";Dublin Bus;40;Liffey Valley Shopping Centre;Charlestown Shopping Centre
4402046;"{\"type\":\"LineString\",\"coordinates\":[[-6.3289236,53.3421903],[-6.3284975,53.342217],[-6.3281247,53.3422039]]}";8;Sarsfield Road;1;50;false;true;false;false;false;false;54.0;1;1;0;0;0;false;2719;5618826558;-6.320067;53.3416358;2716;5622391875;-6.3323114;53.3428273;0;1;2;7725793;40 - Liffey Valley SC - Charlestown SC;"";Dublin Bus;40;Liffey Valley Shopping Centre;Charlestown Shopping Centre
317619313;"{\"type\":\"LineString\",\"coordinates\":[[-6.3304223,53.3423496],[-6.3299813,53.3422876],[-6.3294749,53.3422362],[-6.3289236,53.3421903]]}";9;Sarsfield Road;2;50;false;false;false;false;false;false;103.0;1;0;0;0;0;false;2719;5618826558;-6.320067;53.3416358;2716;5622391875;-6.3323114;53.3428273;0;1;2;7725793;40 - Liffey Valley SC - Charlestown SC;"";Dublin Bus;40;Liffey Valley Shopping Centre;Charlestown Shopping Centre
782532960;"{\"type\":\"LineString\",\"coordinates\":[[-6.3307276,53.3424158],[-6.3304223,53.3423496]]}";10;Sarsfield Road;2;50;false;false;false;false;false;false;22.0;0;0;0;0;0;false;2719;5618826558;-6.320067;53.3416358;2716;5622391875;-6.3323114;53.3428273;0;1;2;7725793;40 - Liffey Valley SC - Charlestown SC;"";Dublin Bus;40;Liffey Valley Shopping Centre;Charlestown Shopping Centre
782532959;"{\"type\":\"LineString\",\"coordinates\":[[-6.3316508,53.3426237],[-6.3307276,53.3424158]]}";11;Sarsfield Road;2;50;false;false;false;false;false;false;67.0;0;0;0;0;0;false;2719;5618826558;-6.320067;53.3416358;2716;5622391875;-6.3323114;53.3428273;0;1;2;7725793;40 - Liffey Valley SC - Charlestown SC;"";Dublin Bus;40;Liffey Valley Shopping Centre;Charlestown Shopping Centre
782532958;"{\"type\":\"LineString\",\"coordinates\":[[-6.3345704,53.3432466],[-6.3342525,53.3432032],[-6.3341387,53.3431825],[-6.3338269,53.3431258],[-6.3333212,53.3430126],[-6.3323805,53.3427922],[-6.3316508,53.3426237]]}";12;Sarsfield Road;2;50;false;false;false;false;false;false;104.5;0;0;0;0;0;false;2719;5618826558;-6.320067;53.3416358;2716;5622391875;-6.3323114;53.3428273;1;1;2;7725793;40 - Liffey Valley SC - Charlestown SC;"";Dublin Bus;40;Liffey Valley Shopping Centre;Charlestown Shopping Centre
782532958;"{\"type\":\"LineString\",\"coordinates\":[[-6.3345704,53.3432466],[-6.3342525,53.3432032],[-6.3341387,53.3431825],[-6.3338269,53.3431258],[-6.3333212,53.3430126],[-6.3323805,53.3427922],[-6.3316508,53.3426237]]}";1;Sarsfield Road;2;50;false;false;false;false;false;false;104.5;0;0;0;0;0;false;2716;5622391875;-6.3323114;53.3428273;2715;5622391877;-6.3386039;53.342604;1;2;3;7725793;40 - Liffey Valley SC - Charlestown SC;"";Dublin Bus;40;Liffey Valley Shopping Centre;Charlestown Shopping Centre
4402064;"{\"type\":\"LineString\",\"coordinates\":[[-6.3351823,53.3432913],[-6.3348603,53.3432729],[-6.3347932,53.3432668],[-6.3345704,53.3432466]]}";2;Sarsfield Road;2;50;false;false;false;false;false;false;42.0;0;0;0;0;0;false;2716;5622391875;-6.3323114;53.3428273;2715;5622391877;-6.3386039;53.342604;0;2;3;7725793;40 - Liffey Valley SC - Charlestown SC;"";Dublin Bus;40;Liffey Valley Shopping Centre;Charlestown Shopping Centre
782532957;"{\"type\":\"LineString\",\"coordinates\":[[-6.3377962,53.3428848],[-6.3375621,53.3429591],[-6.3372075,53.3430554],[-6.3369975,53.3431026],[-6.3368433,53.3431373],[-6.3366377,53.3431768],[-6.3362959,53.3432332],[-6.3359653,53.3432719],[-6.3357418,53.34329],[-6.3354654,53.3432974],[-6.3351823,53.3432913]]}";3;Ballyfermot Road;1;50;false;false;false;false;false;false;184.0;0;0;0;0;0;false;2716;5622391875;-6.3323114;53.3428273;2715;5622391877;-6.3386039;53.342604;0;2;3;7725793;40 - Liffey Valley SC - Charlestown SC;"";Dublin Bus;40;Liffey Valley Shopping Centre;Charlestown Shopping Centre
317619308;"{\"type\":\"LineString\",\"coordinates\":[[-6.338922,53.3423864],[-6.3387315,53.3424853],[-6.338541,53.3425841],[-6.3381594,53.342753],[-6.3377962,53.3428848]]}";4;Ballyfermot Road;1;50;false;false;false;false;false;false;47.5;1;0;0;0;0;false;2716;5622391875;-6.3323114;53.3428273;2715;5622391877;-6.3386039;53.342604;1;2;3;7725793;40 - Liffey Valley SC - Charlestown SC;"";Dublin Bus;40;Liffey Valley Shopping Centre;Charlestown Shopping Centre
317619308;"{\"type\":\"LineString\",\"coordinates\":[[-6.338922,53.3423864],[-6.3387315,53.3424853],[-6.338541,53.3425841],[-6.3381594,53.342753],[-6.3377962,53.3428848]]}";1;Ballyfermot Road;1;50;false;false;false;false;false;false;47.5;1;0;0;0;0;false;2715;5622391877;-6.3386039;53.342604;1990;475642404;-6.3147073;53.3404438;1;3;4;7725793;40 - Liffey Valley SC - Charlestown SC;"";Dublin Bus;40;Liffey Valley Shopping Centre;Charlestown Shopping Centre
782532957;"{\"type\":\"LineString\",\"coordinates\":[[-6.3377962,53.3428848],[-6.3375621,53.3429591],[-6.3372075,53.3430554],[-6.3369975,53.3431026],[-6.3368433,53.3431373],[-6.3366377,53.3431768],[-6.3362959,53.3432332],[-6.3359653,53.3432719],[-6.3357418,53.34329],[-6.3354654,53.3432974],[-6.3351823,53.3432913]]}";2;Ballyfermot Road;1;50;false;false;false;false;false;false;184.0;0;0;0;0;0;false;2715;5622391877;-6.3386039;53.342604;1990;475642404;-6.3147073;53.3404438;0;3;4;7725793;40 - Liffey Valley SC - Charlestown SC;"";Dublin Bus;40;Liffey Valley Shopping Centre;Charlestown Shopping Centre
4402064;"{\"type\":\"LineString\",\"coordinates\":[[-6.3351823,53.3432913],[-6.3348603,53.3432729],[-6.3347932,53.3432668],[-6.3345704,53.3432466]]}";3;Sarsfield Road;2;50;false;false;false;false;false;false;42.0;0;0;0;0;0;false;2715;5622391877;-6.3386039;53.342604;1990;475642404;-6.3147073;53.3404438;0;3;4;7725793;40 - Liffey Valley SC - Charlestown SC;"";Dublin Bus;40;Liffey Valley Shopping Centre;Charlestown Shopping Centre
782532958;"{\"type\":\"LineString\",\"coordinates\":[[-6.3345704,53.3432466],[-6.3342525,53.3432032],[-6.3341387,53.3431825],[-6.3338269,53.3431258],[-6.3333212,53.3430126],[-6.3323805,53.3427922],[-6.3316508,53.3426237]]}";4;Sarsfield Road;2;50;false;false;false;false;false;false;209.0;0;0;0;0;0;false;2715;5622391877;-6.3386039;53.342604;1990;475642404;-6.3147073;53.3404438;0;3;4;7725793;40 - Liffey Valley SC - Charlestown SC;"";Dublin Bus;40;Liffey Valley Shopping Centre;Charlestown Shopping Centre
782532959;"{\"type\":\"LineString\",\"coordinates\":[[-6.3316508,53.3426237],[-6.3307276,53.3424158]]}";5;Sarsfield Road;2;50;false;false;false;false;false;false;67.0;0;0;0;0;0;false;2715;5622391877;-6.3386039;53.342604;1990;475642404;-6.3147073;53.3404438;0;3;4;7725793;40 - Liffey Valley SC - Charlestown SC;"";Dublin Bus;40;Liffey Valley Shopping Centre;Charlestown Shopping Centre
782532960;"{\"type\":\"LineString\",\"coordinates\":[[-6.3307276,53.3424158],[-6.3304223,53.3423496]]}";6;Sarsfield Road;2;50;false;false;false;false;false;false;22.0;0;0;0;0;0;false;2715;5622391877;-6.3386039;53.342604;1990;475642404;-6.3147073;53.3404438;0;3;4;7725793;40 - Liffey Valley SC - Charlestown SC;"";Dublin Bus;40;Liffey Valley Shopping Centre;Charlestown Shopping Centre
317619313;"{\"type\":\"LineString\",\"coordinates\":[[-6.3304223,53.3423496],[-6.3299813,53.3422876],[-6.3294749,53.3422362],[-6.3289236,53.3421903]]}";7;Sarsfield Road;2;50;false;false;false;false;false;false;103.0;1;0;0;0;0;false;2715;5622391877;-6.3386039;53.342604;1990;475642404;-6.3147073;53.3404438;0;3;4;7725793;40 - Liffey Valley SC - Charlestown SC;"";Dublin Bus;40;Liffey Valley Shopping Centre;Charlestown Shopping Centre
4402046;"{\"type\":\"LineString\",\"coordinates\":[[-6.3289236,53.3421903],[-6.3284975,53.342217],[-6.3281247,53.3422039]]}";8;Sarsfield Road;1;50;false;true;false;false;false;false;54.0;1;1;0;0;0;false;2715;5622391877;-6.3386039;53.342604;1990;475642404;-6.3147073;53.3404438;0;3;4;7725793;40 - Liffey Valley SC - Charlestown SC;"";Dublin Bus;40;Liffey Valley Shopping Centre;Charlestown Shopping Centre
661290223;"{\"type\":\"LineString\",\"coordinates\":[[-6.3281247,53.3422039],[-6.3279698,53.3421991],[-6.3266761,53.3421549],[-6.3266322,53.3421535]]}";9;Sarsfield Road;2;50;false;true;false;false;false;false;101.0;0;0;0;0;0;false;2715;5622391877;-6.3386039;53.342604;1990;475642404;-6.3147073;53.3404438;0;3;4;7725793;40 - Liffey Valley SC - Charlestown SC;"";Dublin Bus;40;Liffey Valley Shopping Centre;Charlestown Shopping Centre
782532961;"{\"type\":\"LineString\",\"coordinates\":[[-6.3266322,53.3421535],[-6.3260513,53.3421349],[-6.3253742,53.3421456]]}";10;Sarsfield Road;2;50;false;true;false;false;false;false;85.0;1;0;0;0;0;false;2715;5622391877;-6.3386039;53.342604;1990;475642404;-6.3147073;53.3404438;0;3;4;7725793;40 - Liffey Valley SC - Charlestown SC;"";Dublin Bus;40;Liffey Valley Shopping Centre;Charlestown Shopping Centre
4402044;"{\"type\":\"LineString\",\"coordinates\":[[-6.3253742,53.3421456],[-6.325338,53.3420447]]}";11;"";1;50;false;true;true;false;false;false;12.0;2;0;0;0;0;false;2715;5622391877;-6.3386039;53.342604;1990;475642404;-6.3147073;53.3404438;0;3;4;7725793;40 - Liffey Valley SC - Charlestown SC;"";Dublin Bus;40;Liffey Valley Shopping Centre;Charlestown Shopping Centre
4278355;"{\"type\":\"LineString\",\"coordinates\":[[-6.325338,53.3420447],[-6.3252598,53.3419359]]}";12;Sarsfield Road;1;50;false;true;true;false;false;false;14.0;1;0;0;0;0;false;2715;5622391877;-6.3386039;53.342604;1990;475642404;-6.3147073;53.3404438;0;3;4;7725793;40 - Liffey Valley SC - Charlestown SC;"";Dublin Bus;40;Liffey Valley Shopping Centre;Charlestown Shopping Centre
750308790;"{\"type\":\"LineString\",\"coordinates\":[[-6.3252598,53.3419359],[-6.3249931,53.3418803],[-6.3245161,53.3417342],[-6.3244917,53.3417269]]}";13;Sarsfield Road;2;50;false;false;true;false;false;false;57.0;0;0;0;0;0;false;2715;5622391877;-6.3386039;53.342604;1990;475642404;-6.3147073;53.3404438;0;3;4;7725793;40 - Liffey Valley SC - Charlestown SC;"";Dublin Bus;40;Liffey Valley Shopping Centre;Charlestown Shopping Centre
317619312;"{\"type\":\"LineString\",\"coordinates\":[[-6.3244917,53.3417269],[-6.3241518,53.3416341]]}";14;Sarsfield Road;2;50;false;false;true;false;false;false;26.0;0;0;0;0;0;false;2715;5622391877;-6.3386039;53.342604;1990;475642404;-6.3147073;53.3404438;0;3;4;7725793;40 - Liffey Valley SC - Charlestown SC;"";Dublin Bus;40;Liffey Valley Shopping Centre;Charlestown Shopping Centre
766029598;"{\"type\":\"LineString\",\"coordinates\":[[-6.3241518,53.3416341],[-6.3240149,53.3416032],[-6.3236278,53.3415266],[-6.3232639,53.3414851],[-6.3229569,53.3414624],[-6.3223001,53.3414829],[-6.3214931,53.3415353],[-6.3208549,53.3415663],[-6.3203677,53.3415899],[-6.3199914,53.3416108],[-6.3194521,53.3416379]]}";15;Sarsfield Road;2;50;false;false;true;false;false;false;319.0;0;0;0;0;0;false;2715;5622391877;-6.3386039;53.342604;1990;475642404;-6.3147073;53.3404438;0;3;4;7725793;40 - Liffey Valley SC - Charlestown SC;"";Dublin Bus;40;Liffey Valley Shopping Centre;Charlestown Shopping Centre
750308789;"{\"type\":\"LineString\",\"coordinates\":[[-6.3194521,53.3416379],[-6.3193357,53.3416542],[-6.3192072,53.3416601]]}";16;Sarsfield Road;1;50;false;true;false;false;false;false;17.0;0;0;0;0;0;false;2715;5622391877;-6.3386039;53.342604;1990;475642404;-6.3147073;53.3404438;0;3;4;7725793;40 - Liffey Valley SC - Charlestown SC;"";Dublin Bus;40;Liffey Valley Shopping Centre;Charlestown Shopping Centre
604221823;"{\"type\":\"LineString\",\"coordinates\":[[-6.3192072,53.3416601],[-6.3190518,53.3416028],[-6.3189959,53.341539]]}";17;Sarsfield Road;1;50;false;true;true;false;false;false;21.0;1;1;0;0;0;false;2715;5622391877;-6.3386039;53.342604;1990;475642404;-6.3147073;53.3404438;0;3;4;7725793;40 - Liffey Valley SC - Charlestown SC;"";Dublin Bus;40;Liffey Valley Shopping Centre;Charlestown Shopping Centre
539871129;"{\"type\":\"LineString\",\"coordinates\":[[-6.3191342,53.3414746],[-6.3189959,53.341539]]}";18;Grattan Crescent;2;50;false;false;true;false;false;false;12.0;1;0;0;0;0;false;2715;5622391877;-6.3386039;53.342604;1990;475642404;-6.3147073;53.3404438;0;3;4;7725793;40 - Liffey Valley SC - Charlestown SC;"";Dublin Bus;40;Liffey Valley Shopping Centre;Charlestown Shopping Centre
765801141;"{\"type\":\"LineString\",\"coordinates\":[[-6.3205602,53.3401126],[-6.3203933,53.3403268],[-6.3202755,53.3404852],[-6.3202126,53.3406314],[-6.3201617,53.3407537],[-6.3201504,53.3407705],[-6.3200831,53.340871],[-6.3199546,53.340988],[-6.3198079,53.3410915],[-6.3195441,53.3412396],[-6.3192433,53.341416],[-6.3191342,53.3414746]]}";19;Grattan Crescent;2;50;false;false;true;false;false;false;185.0;0;1;0;0;0;false;2715;5622391877;-6.3386039;53.342604;1990;475642404;-6.3147073;53.3404438;0;3;4;7725793;40 - Liffey Valley SC - Charlestown SC;"";Dublin Bus;40;Liffey Valley Shopping Centre;Charlestown Shopping Centre
4571528;"{\"type\":\"LineString\",\"coordinates\":[[-6.321039,53.3395244],[-6.3209479,53.3396357],[-6.3208782,53.3397278],[-6.3205602,53.3401126]]}";20;Grattan Crescent;3;50;false;false;true;false;false;false;74.0;1;2;0;0;0;false;2715;5622391877;-6.3386039;53.342604;1990;475642404;-6.3147073;53.3404438;0;3;4;7725793;40 - Liffey Valley SC - Charlestown SC;"";Dublin Bus;40;Liffey Valley Shopping Centre;Charlestown Shopping Centre
4571491;"{\"type\":\"LineString\",\"coordinates\":[[-6.321039,53.3395244],[-6.3207727,53.3394865],[-6.3205664,53.3394549],[-6.3205098,53.339447],[-6.3201112,53.3393913]]}";21;Emmet Road;3;50;false;false;true;false;false;false;64.0;1;1;0;0;0;false;2715;5622391877;-6.3386039;53.342604;1990;475642404;-6.3147073;53.3404438;0;3;4;7725793;40 - Liffey Valley SC - Charlestown SC;"";Dublin Bus;40;Liffey Valley Shopping Centre;Charlestown Shopping Centre
148087227;"{\"type\":\"LineString\",\"coordinates\":[[-6.3201112,53.3393913],[-6.3200101,53.3393738]]}";22;Golden Bridge;2;50;false;false;true;false;false;false;8.0;0;0;0;0;0;false;2715;5622391877;-6.3386039;53.342604;1990;475642404;-6.3147073;53.3404438;0;3;4;7725793;40 - Liffey Valley SC - Charlestown SC;"";Dublin Bus;40;Liffey Valley Shopping Centre;Charlestown Shopping Centre
148088741;"{\"type\":\"LineString\",\"coordinates\":[[-6.3200101,53.3393738],[-6.3199306,53.3393687]]}";23;Emmet Road;2;50;false;false;true;false;false;false;6.0;0;0;0;0;0;false;2715;5622391877;-6.3386039;53.342604;1990;475642404;-6.3147073;53.3404438;0;3;4;7725793;40 - Liffey Valley SC - Charlestown SC;"";Dublin Bus;40;Liffey Valley Shopping Centre;Charlestown Shopping Centre
148087226;"{\"type\":\"LineString\",\"coordinates\":[[-6.3199306,53.3393687],[-6.3198472,53.3393674],[-6.3196427,53.3394073],[-6.3193039,53.3395101],[-6.3189043,53.3396313],[-6.3185097,53.3397285],[-6.3178653,53.3398606],[-6.3172034,53.3400156],[-6.316981,53.3400677],[-6.3169326,53.340081],[-6.3168792,53.3400906],[-6.3165451,53.3401483]]}";24;Emmet Road;2;50;false;false;true;false;false;false;245.0;0;2;0;0;0;false;2715;5622391877;-6.3386039;53.342604;1990;475642404;-6.3147073;53.3404438;0;3;4;7725793;40 - Liffey Valley SC - Charlestown SC;"";Dublin Bus;40;Liffey Valley Shopping Centre;Charlestown Shopping Centre
810833319;"{\"type\":\"LineString\",\"coordinates\":[[-6.3165451,53.3401483],[-6.3157507,53.3402647]]}";25;Emmet Road;3;50;false;false;true;false;false;false;55.0;0;0;0;0;0;false;2715;5622391877;-6.3386039;53.342604;1990;475642404;-6.3147073;53.3404438;0;3;4;7725793;40 - Liffey Valley SC - Charlestown SC;"";Dublin Bus;40;Liffey Valley Shopping Centre;Charlestown Shopping Centre
810833318;"{\"type\":\"LineString\",\"coordinates\":[[-6.3157507,53.3402647],[-6.3155624,53.3402888],[-6.3154585,53.3403026],[-6.3144763,53.340435],[-6.3140069,53.3405037],[-6.3137804,53.3405468],[-6.3134287,53.3406088],[-6.3131698,53.3406491],[-6.3128822,53.3406866],[-6.3126821,53.3407017],[-6.3123823,53.3407085],[-6.3117962,53.3406735],[-6.3115175,53.3406532],[-6.3112713,53.3406343],[-6.3110003,53.3406104],[-6.3104457,53.3405806],[-6.3098746,53.3405793],[-6.3097328,53.340579],[-6.3089227,53.3406006]]}";26;Emmet Road;2;50;false;false;true;false;false;false;232.5;0;2;0;0;0;false;2715;5622391877;-6.3386039;53.342604;1990;475642404;-6.3147073;53.3404438;1;3;4;7725793;40 - Liffey Valley SC - Charlestown SC;"";Dublin Bus;40;Liffey Valley Shopping Centre;Charlestown Shopping Centre
810833318;"{\"type\":\"LineString\",\"coordinates\":[[-6.3157507,53.3402647],[-6.3155624,53.3402888],[-6.3154585,53.3403026],[-6.3144763,53.340435],[-6.3140069,53.3405037],[-6.3137804,53.3405468],[-6.3134287,53.3406088],[-6.3131698,53.3406491],[-6.3128822,53.3406866],[-6.3126821,53.3407017],[-6.3123823,53.3407085],[-6.3117962,53.3406735],[-6.3115175,53.3406532],[-6.3112713,53.3406343],[-6.3110003,53.3406104],[-6.3104457,53.3405806],[-6.3098746,53.3405793],[-6.3097328,53.340579],[-6.3089227,53.3406006]]}";1;Emmet Road;2;50;false;false;true;false;false;false;232.5;0;2;0;0;0;false;1990;475642404;-6.3147073;53.3404438;1989;1925143684;-6.3190196;53.3396439;1;4;5;7725793;40 - Liffey Valley SC - Charlestown SC;"";Dublin Bus;40;Liffey Valley Shopping Centre;Charlestown Shopping Centre
810833319;"{\"type\":\"LineString\",\"coordinates\":[[-6.3165451,53.3401483],[-6.3157507,53.3402647]]}";2;Emmet Road;3;50;false;false;true;false;false;false;55.0;0;0;0;0;0;false;1990;475642404;-6.3147073;53.3404438;1989;1925143684;-6.3190196;53.3396439;0;4;5;7725793;40 - Liffey Valley SC - Charlestown SC;"";Dublin Bus;40;Liffey Valley Shopping Centre;Charlestown Shopping Centre
148087226;"{\"type\":\"LineString\",\"coordinates\":[[-6.3199306,53.3393687],[-6.3198472,53.3393674],[-6.3196427,53.3394073],[-6.3193039,53.3395101],[-6.3189043,53.3396313],[-6.3185097,53.3397285],[-6.3178653,53.3398606],[-6.3172034,53.3400156],[-6.316981,53.3400677],[-6.3169326,53.340081],[-6.3168792,53.3400906],[-6.3165451,53.3401483]]}";3;Emmet Road;2;50;false;false;true;false;false;false;122.5;0;2;0;0;0;false;1990;475642404;-6.3147073;53.3404438;1989;1925143684;-6.3190196;53.3396439;1;4;5;7725793;40 - Liffey Valley SC - Charlestown SC;"";Dublin Bus;40;Liffey Valley Shopping Centre;Charlestown Shopping Centre
148087226;"{\"type\":\"LineString\",\"coordinates\":[[-6.3199306,53.3393687],[-6.3198472,53.3393674],[-6.3196427,53.3394073],[-6.3193039,53.3395101],[-6.3189043,53.3396313],[-6.3185097,53.3397285],[-6.3178653,53.3398606],[-6.3172034,53.3400156],[-6.316981,53.3400677],[-6.3169326,53.340081],[-6.3168792,53.3400906],[-6.3165451,53.3401483]]}";1;Emmet Road;2;50;false;false;true;false;false;false;122.5;0;2;0;0;0;false;1989;1925143684;-6.3190196;53.3396439;1992;2861467890;-6.3090614;53.3406445;1;5;6;7725793;40 - Liffey Valley SC - Charlestown SC;"";Dublin Bus;40;Liffey Valley Shopping Centre;Charlestown Shopping Centre
810833319;"{\"type\":\"LineString\",\"coordinates\":[[-6.3165451,53.3401483],[-6.3157507,53.3402647]]}";2;Emmet Road;3;50;false;false;true;false;false;false;55.0;0;0;0;0;0;false;1989;1925143684;-6.3190196;53.3396439;1992;2861467890;-6.3090614;53.3406445;0;5;6;7725793;40 - Liffey Valley SC - Charlestown SC;"";Dublin Bus;40;Liffey Valley Shopping Centre;Charlestown Shopping Centre
810833318;"{\"type\":\"LineString\",\"coordinates\":[[-6.3157507,53.3402647],[-6.3155624,53.3402888],[-6.3154585,53.3403026],[-6.3144763,53.340435],[-6.3140069,53.3405037],[-6.3137804,53.3405468],[-6.3134287,53.3406088],[-6.3131698,53.3406491],[-6.3128822,53.3406866],[-6.3126821,53.3407017],[-6.3123823,53.3407085],[-6.3117962,53.3406735],[-6.3115175,53.3406532],[-6.3112713,53.3406343],[-6.3110003,53.3406104],[-6.3104457,53.3405806],[-6.3098746,53.3405793],[-6.3097328,53.340579],[-6.3089227,53.3406006]]}";3;Emmet Road;2;50;false;false;true;false;false;false;465.0;0;2;0;0;0;false;1989;1925143684;-6.3190196;53.3396439;1992;2861467890;-6.3090614;53.3406445;1;5;6;7725793;40 - Liffey Valley SC - Charlestown SC;"";Dublin Bus;40;Liffey Valley Shopping Centre;Charlestown Shopping Centre
