way_id;shape;index;name;nb_lanes;legal_speed;speed_zone_30;oneway;shares_bike;bike_box;bus_lane;dedicated_bus_lane;length;nb_traffic_signals;nb_crossings;nb_stops;nb_give_ways;nb_lvl_crossings;roundabout;stop_id_orig;node_id_orig;coord_x_orig;coord_y_orig;stop_id_dest;node_id_dest;coord_x_dest;coord_y_dest;nb_neighbouring_ways_bus_stop;ordre_orig;ordre_dest;id_line;line_name;colour;operator;ref;from;to
608435180;"{\"type\":\"LineString\",\"coordinates\":[[-73.6043678,45.473753],[-73.6045207,45.4738624]]}";1;"";1;50;false;true;true;false;true;false;18.0;0;0;0;0;0;false;53797;5764418474;-73.604298;45.473765;51460;5764418473;-73.608182;45.474089;1;0;1;8452421;Bus 105 : Sherbrooke Ouest;"";STM;105-O;Station Vendôme;Gare Montréal-Ouest (Elmusrt/Sherbrooke)
455042507;"{\"type\":\"LineString\",\"coordinates\":[[-73.6045207,45.4738624],[-73.6045767,45.4738138],[-73.605118,45.4733411]]}";2;Boulevard De Maisonneuve Ouest;2;50;false;false;false;false;false;false;75.0;0;1;0;0;0;false;53797;5764418474;-73.604298;45.473765;51460;5764418473;-73.608182;45.474089;0;0;1;8452421;Bus 105 : Sherbrooke Ouest;"";STM;105-O;Station Vendôme;Gare Montréal-Ouest (Elmusrt/Sherbrooke)
416430749;"{\"type\":\"LineString\",\"coordinates\":[[-73.605118,45.4733411],[-73.6053754,45.4731187],[-73.6054796,45.473046],[-73.6057048,45.4729131]]}";3;Boulevard De Maisonneuve Ouest;2;50;false;false;false;false;false;false;67.0;1;0;0;0;0;false;53797;5764418474;-73.604298;45.473765;51460;5764418473;-73.608182;45.474089;0;0;1;8452421;Bus 105 : Sherbrooke Ouest;"";STM;105-O;Station Vendôme;Gare Montréal-Ouest (Elmusrt/Sherbrooke)
455042512;"{\"type\":\"LineString\",\"coordinates\":[[-73.6057048,45.4729131],[-73.6059615,45.4730195]]}";4;Boulevard Décarie;1;50;false;false;true;false;false;false;24.0;1;0;0;0;0;false;53797;5764418474;-73.604298;45.473765;51460;5764418473;-73.608182;45.474089;0;0;1;8452421;Bus 105 : Sherbrooke Ouest;"";STM;105-O;Station Vendôme;Gare Montréal-Ouest (Elmusrt/Sherbrooke)
316470333;"{\"type\":\"LineString\",\"coordinates\":[[-73.6059615,45.4730195],[-73.6062136,45.4731312],[-73.6064995,45.4732579],[-73.6084709,45.4741315],[-73.6085306,45.4741579],[-73.6088458,45.4742976]]}";5;Boulevard Décarie;1;50;false;false;true;false;false;false;133.5;1;0;0;0;0;false;53797;5764418474;-73.604298;45.473765;51460;5764418473;-73.608182;45.474089;1;0;1;8452421;Bus 105 : Sherbrooke Ouest;"";STM;105-O;Station Vendôme;Gare Montréal-Ouest (Elmusrt/Sherbrooke)
316470333;"{\"type\":\"LineString\",\"coordinates\":[[-73.6059615,45.4730195],[-73.6062136,45.4731312],[-73.6064995,45.4732579],[-73.6084709,45.4741315],[-73.6085306,45.4741579],[-73.6088458,45.4742976]]}";1;Boulevard Décarie;1;50;false;false;true;false;false;false;133.5;1;0;0;0;0;false;51460;5764418473;-73.608182;45.474089;51396;5764418472;-73.611861;45.472701;1;1;2;8452421;Bus 105 : Sherbrooke Ouest;"";STM;105-O;Station Vendôme;Gare Montréal-Ouest (Elmusrt/Sherbrooke)
165215476;"{\"type\":\"LineString\",\"coordinates\":[[-73.6096978,45.4737115],[-73.6092418,45.4739449],[-73.6088458,45.4742976]]}";2;Rue Sherbrooke Ouest;4;50;false;false;true;false;false;false;94.0;1;0;0;0;0;false;51460;5764418473;-73.608182;45.474089;51396;5764418472;-73.611861;45.472701;0;1;2;8452421;Bus 105 : Sherbrooke Ouest;"";STM;105-O;Station Vendôme;Gare Montréal-Ouest (Elmusrt/Sherbrooke)
463867360;"{\"type\":\"LineString\",\"coordinates\":[[-73.6103757,45.473362],[-73.6096978,45.4737115]]}";3;Rue Sherbrooke Ouest;4;50;false;false;true;false;false;false;66.0;1;0;0;0;0;false;51460;5764418473;-73.608182;45.474089;51396;5764418472;-73.611861;45.472701;0;1;2;8452421;Bus 105 : Sherbrooke Ouest;"";STM;105-O;Station Vendôme;Gare Montréal-Ouest (Elmusrt/Sherbrooke)
68520852;"{\"type\":\"LineString\",\"coordinates\":[[-73.611117,45.4729889],[-73.6103757,45.473362]]}";4;Rue Sherbrooke Ouest;1;50;false;false;true;false;false;false;72.0;2;0;0;0;0;false;51460;5764418473;-73.608182;45.474089;51396;5764418472;-73.611861;45.472701;0;1;2;8452421;Bus 105 : Sherbrooke Ouest;"";STM;105-O;Station Vendôme;Gare Montréal-Ouest (Elmusrt/Sherbrooke)
316470043;"{\"type\":\"LineString\",\"coordinates\":[[-73.6120048,45.4725194],[-73.611117,45.4729889]]}";5;Rue Sherbrooke Ouest;1;50;false;false;true;false;false;false;43.5;2;0;0;0;0;false;51460;5764418473;-73.608182;45.474089;51396;5764418472;-73.611861;45.472701;1;1;2;8452421;Bus 105 : Sherbrooke Ouest;"";STM;105-O;Station Vendôme;Gare Montréal-Ouest (Elmusrt/Sherbrooke)
316470043;"{\"type\":\"LineString\",\"coordinates\":[[-73.6120048,45.4725194],[-73.611117,45.4729889]]}";1;Rue Sherbrooke Ouest;1;50;false;false;true;false;false;false;43.5;2;0;0;0;0;false;51396;5764418472;-73.611861;45.472701;51344;5764418471;-73.614529;45.471312;1;2;3;8452421;Bus 105 : Sherbrooke Ouest;"";STM;105-O;Station Vendôme;Gare Montréal-Ouest (Elmusrt/Sherbrooke)
454019024;"{\"type\":\"LineString\",\"coordinates\":[[-73.6128676,45.4720585],[-73.6120048,45.4725194]]}";2;Rue Sherbrooke Ouest;1;50;false;false;true;false;false;false;85.0;1;0;0;0;0;false;51396;5764418472;-73.611861;45.472701;51344;5764418471;-73.614529;45.471312;0;2;3;8452421;Bus 105 : Sherbrooke Ouest;"";STM;105-O;Station Vendôme;Gare Montréal-Ouest (Elmusrt/Sherbrooke)
463866296;"{\"type\":\"LineString\",\"coordinates\":[[-73.613789,45.4716125],[-73.6128676,45.4720585]]}";3;Rue Sherbrooke Ouest;1;50;false;false;true;false;false;false;88.0;1;0;0;0;0;false;51396;5764418472;-73.611861;45.472701;51344;5764418471;-73.614529;45.471312;0;2;3;8452421;Bus 105 : Sherbrooke Ouest;"";STM;105-O;Station Vendôme;Gare Montréal-Ouest (Elmusrt/Sherbrooke)
463849424;"{\"type\":\"LineString\",\"coordinates\":[[-73.6146096,45.4711785],[-73.6141727,45.4714096],[-73.613789,45.4716125]]}";4;Rue Sherbrooke Ouest;1;50;false;false;true;false;false;false;40.5;1;0;0;0;0;false;51396;5764418472;-73.611861;45.472701;51344;5764418471;-73.614529;45.471312;1;2;3;8452421;Bus 105 : Sherbrooke Ouest;"";STM;105-O;Station Vendôme;Gare Montréal-Ouest (Elmusrt/Sherbrooke)
463866297;"{\"type\":\"LineString\",\"coordinates\":[[-73.6154966,45.4707358],[-73.6146096,45.4711785]]}";1;Rue Sherbrooke Ouest;1;50;false;false;true;false;false;false;85.0;0;0;0;0;0;false;51344;5764418471;-73.614529;45.471312;51313;5764418470;-73.61624;45.470431;2;3;4;8452421;Bus 105 : Sherbrooke Ouest;"";STM;105-O;Station Vendôme;Gare Montréal-Ouest (Elmusrt/Sherbrooke)
463849425;"{\"type\":\"LineString\",\"coordinates\":[[-73.6163045,45.4703096],[-73.6154966,45.4707358]]}";2;Rue Sherbrooke Ouest;1;50;false;false;true;false;false;false;79.0;0;0;0;0;0;false;51344;5764418471;-73.614529;45.471312;51313;5764418470;-73.61624;45.470431;2;3;4;8452421;Bus 105 : Sherbrooke Ouest;"";STM;105-O;Station Vendôme;Gare Montréal-Ouest (Elmusrt/Sherbrooke)
463849426;"{\"type\":\"LineString\",\"coordinates\":[[-73.6171449,45.4698795],[-73.6163045,45.4703096]]}";1;Rue Sherbrooke Ouest;1;50;false;false;true;false;false;false;82.0;0;0;0;0;0;false;51313;5764418470;-73.61624;45.470431;51259;5764418469;-73.619313;45.468853;2;4;5;8452421;Bus 105 : Sherbrooke Ouest;"";STM;105-O;Station Vendôme;Gare Montréal-Ouest (Elmusrt/Sherbrooke)
316470520;"{\"type\":\"LineString\",\"coordinates\":[[-73.6193652,45.4687354],[-73.6187659,45.4690625],[-73.6182224,45.4693432],[-73.6179332,45.4694731],[-73.6172345,45.4698368],[-73.6171449,45.4698795]]}";2;Rue Sherbrooke Ouest;1;50;false;false;true;false;false;false;216.0;0;0;0;0;0;false;51313;5764418470;-73.61624;45.470431;51259;5764418469;-73.619313;45.468853;2;4;5;8452421;Bus 105 : Sherbrooke Ouest;"";STM;105-O;Station Vendôme;Gare Montréal-Ouest (Elmusrt/Sherbrooke)
454019350;"{\"type\":\"LineString\",\"coordinates\":[[-73.6196138,45.4686101],[-73.6194434,45.468696],[-73.6193652,45.4687354]]}";1;Rue Sherbrooke Ouest;1;50;false;false;true;false;false;false;24.0;0;0;0;0;0;false;51259;5764418469;-73.619313;45.468853;51211;5764418468;-73.62135;45.467807;2;5;6;8452421;Bus 105 : Sherbrooke Ouest;"";STM;105-O;Station Vendôme;Gare Montréal-Ouest (Elmusrt/Sherbrooke)
502844354;"{\"type\":\"LineString\",\"coordinates\":[[-73.620481,45.4681732],[-73.6196138,45.4686101]]}";2;Rue Sherbrooke Ouest;1;50;false;false;true;false;false;false;84.0;0;0;0;0;0;false;51259;5764418469;-73.619313;45.468853;51211;5764418468;-73.62135;45.467807;0;5;6;8452421;Bus 105 : Sherbrooke Ouest;"";STM;105-O;Station Vendôme;Gare Montréal-Ouest (Elmusrt/Sherbrooke)
454019025;"{\"type\":\"LineString\",\"coordinates\":[[-73.6208219,45.4679915],[-73.620481,45.4681732]]}";3;Rue Sherbrooke Ouest;1;50;false;false;true;false;false;false;34.0;0;0;0;0;0;false;51259;5764418469;-73.619313;45.468853;51211;5764418468;-73.62135;45.467807;0;5;6;8452421;Bus 105 : Sherbrooke Ouest;"";STM;105-O;Station Vendôme;Gare Montréal-Ouest (Elmusrt/Sherbrooke)
128245169;"{\"type\":\"LineString\",\"coordinates\":[[-73.6222549,45.4672266],[-73.6213592,45.4677151],[-73.6213492,45.4677204],[-73.6208219,45.4679915]]}";4;Rue Sherbrooke Ouest;1;50;false;false;true;false;false;false;141.0;0;0;0;0;0;false;51259;5764418469;-73.619313;45.468853;51211;5764418468;-73.62135;45.467807;2;5;6;8452421;Bus 105 : Sherbrooke Ouest;"";STM;105-O;Station Vendôme;Gare Montréal-Ouest (Elmusrt/Sherbrooke)
128245169;"{\"type\":\"LineString\",\"coordinates\":[[-73.6222549,45.4672266],[-73.6213592,45.4677151],[-73.6213492,45.4677204],[-73.6208219,45.4679915]]}";1;Rue Sherbrooke Ouest;1;50;false;false;true;false;false;false;70.5;0;0;0;0;0;false;51211;5764418468;-73.62135;45.467807;51162;5764418467;-73.623268;45.466798;1;6;7;8452421;Bus 105 : Sherbrooke Ouest;"";STM;105-O;Station Vendôme;Gare Montréal-Ouest (Elmusrt/Sherbrooke)
463839080;"{\"type\":\"LineString\",\"coordinates\":[[-73.6233517,45.4666341],[-73.6222549,45.4672266]]}";2;Rue Sherbrooke Ouest;1;50;false;false;true;false;false;false;54.5;1;0;0;0;0;false;51211;5764418468;-73.62135;45.467807;51162;5764418467;-73.623268;45.466798;1;6;7;8452421;Bus 105 : Sherbrooke Ouest;"";STM;105-O;Station Vendôme;Gare Montréal-Ouest (Elmusrt/Sherbrooke)
463839081;"{\"type\":\"LineString\",\"coordinates\":[[-73.6240872,45.4662669],[-73.6233517,45.4666341]]}";1;Rue Sherbrooke Ouest;1;50;false;false;true;false;false;false;71.0;1;0;0;0;0;false;51162;5764418467;-73.623268;45.466798;51134;5764418466;-73.625042;45.465865;2;7;8;8452421;Bus 105 : Sherbrooke Ouest;"";STM;105-O;Station Vendôme;Gare Montréal-Ouest (Elmusrt/Sherbrooke)
463839082;"{\"type\":\"LineString\",\"coordinates\":[[-73.6250989,45.4657529],[-73.6247165,45.4659367],[-73.6240872,45.4662669]]}";2;Rue Sherbrooke Ouest;1;50;false;false;true;false;false;false;98.0;0;0;0;0;0;false;51162;5764418467;-73.623268;45.466798;51134;5764418466;-73.625042;45.465865;2;7;8;8452421;Bus 105 : Sherbrooke Ouest;"";STM;105-O;Station Vendôme;Gare Montréal-Ouest (Elmusrt/Sherbrooke)
463836594;"{\"type\":\"LineString\",\"coordinates\":[[-73.6259202,45.4653504],[-73.6250989,45.4657529]]}";1;Rue Sherbrooke Ouest;1;50;false;false;true;false;false;false;79.0;0;0;0;0;0;false;51134;5764418466;-73.625042;45.465865;51077;5764418465;-73.626652;45.465026;2;8;9;8452421;Bus 105 : Sherbrooke Ouest;"";STM;105-O;Station Vendôme;Gare Montréal-Ouest (Elmusrt/Sherbrooke)
463836595;"{\"type\":\"LineString\",\"coordinates\":[[-73.6267568,45.4649065],[-73.6259202,45.4653504]]}";2;Rue Sherbrooke Ouest;1;50;false;false;true;false;false;false;82.0;1;0;0;0;0;false;51134;5764418466;-73.625042;45.465865;51077;5764418465;-73.626652;45.465026;2;8;9;8452421;Bus 105 : Sherbrooke Ouest;"";STM;105-O;Station Vendôme;Gare Montréal-Ouest (Elmusrt/Sherbrooke)
463831575;"{\"type\":\"LineString\",\"coordinates\":[[-73.6339205,45.4611224],[-73.6329386,45.4616412],[-73.6324401,45.4619046],[-73.6318725,45.4622046],[-73.6315393,45.4623806],[-73.6308764,45.4627309],[-73.6307497,45.4627978],[-73.6289571,45.4637167]]}";1;Rue Sherbrooke Ouest;1;50;false;false;true;false;false;false;242.0;2;0;0;0;0;false;50945;5764418462;-73.632882;45.461744;50899;5764418461;-73.634937;45.460659;1;12;13;8452421;Bus 105 : Sherbrooke Ouest;"";STM;105-O;Station Vendôme;Gare Montréal-Ouest (Elmusrt/Sherbrooke)
463831576;"{\"type\":\"LineString\",\"coordinates\":[[-73.6343557,45.4608859],[-73.6339205,45.4611224]]}";2;Rue Sherbrooke Ouest;1;50;false;false;true;false;false;false;43.0;1;0;0;0;0;false;50945;5764418462;-73.632882;45.461744;50899;5764418461;-73.634937;45.460659;0;12;13;8452421;Bus 105 : Sherbrooke Ouest;"";STM;105-O;Station Vendôme;Gare Montréal-Ouest (Elmusrt/Sherbrooke)
463831577;"{\"type\":\"LineString\",\"coordinates\":[[-73.6359862,45.4600443],[-73.635208,45.4604414],[-73.6349686,45.4605625],[-73.6343557,45.4608859]]}";3;Rue Sherbrooke Ouest;1;50;false;false;true;false;false;false;79.5;0;0;0;0;0;false;50945;5764418462;-73.632882;45.461744;50899;5764418461;-73.634937;45.460659;1;12;13;8452421;Bus 105 : Sherbrooke Ouest;"";STM;105-O;Station Vendôme;Gare Montréal-Ouest (Elmusrt/Sherbrooke)
463831577;"{\"type\":\"LineString\",\"coordinates\":[[-73.6359862,45.4600443],[-73.635208,45.4604414],[-73.6349686,45.4605625],[-73.6343557,45.4608859]]}";1;Rue Sherbrooke Ouest;1;50;false;false;true;false;false;false;79.5;0;0;0;0;0;false;50899;5764418461;-73.634937;45.460659;50854;5764418460;-73.636616;45.459768;1;13;14;8452421;Bus 105 : Sherbrooke Ouest;"";STM;105-O;Station Vendôme;Gare Montréal-Ouest (Elmusrt/Sherbrooke)
453981204;"{\"type\":\"LineString\",\"coordinates\":[[-73.6372709,45.4592001],[-73.6367269,45.4596048],[-73.6365129,45.4597474],[-73.6359862,45.4600443]]}";2;Rue Sherbrooke Ouest;2;50;false;false;true;false;false;false;69.0;0;0;0;0;0;false;50899;5764418461;-73.634937;45.460659;50854;5764418460;-73.636616;45.459768;1;13;14;8452421;Bus 105 : Sherbrooke Ouest;"";STM;105-O;Station Vendôme;Gare Montréal-Ouest (Elmusrt/Sherbrooke)
453981204;"{\"type\":\"LineString\",\"coordinates\":[[-73.6372709,45.4592001],[-73.6367269,45.4596048],[-73.6365129,45.4597474],[-73.6359862,45.4600443]]}";1;Rue Sherbrooke Ouest;2;50;false;false;true;false;false;false;69.0;0;0;0;0;0;false;50854;5764418460;-73.636616;45.459768;53806;5764418459;-73.638935;45.457857;1;14;15;8452421;Bus 105 : Sherbrooke Ouest;"";STM;105-O;Station Vendôme;Gare Montréal-Ouest (Elmusrt/Sherbrooke)
456391092;"{\"type\":\"LineString\",\"coordinates\":[[-73.6390273,45.4576688],[-73.6388375,45.4578303],[-73.6384458,45.4581728],[-73.6382228,45.4583678],[-73.6374319,45.4590593],[-73.6372709,45.4592001]]}";2;Rue Sherbrooke Ouest;2;50;false;false;true;false;false;false;109.5;1;0;0;0;0;false;50854;5764418460;-73.636616;45.459768;53806;5764418459;-73.638935;45.457857;1;14;15;8452421;Bus 105 : Sherbrooke Ouest;"";STM;105-O;Station Vendôme;Gare Montréal-Ouest (Elmusrt/Sherbrooke)
456391092;"{\"type\":\"LineString\",\"coordinates\":[[-73.6390273,45.4576688],[-73.6388375,45.4578303],[-73.6384458,45.4581728],[-73.6382228,45.4583678],[-73.6374319,45.4590593],[-73.6372709,45.4592001]]}";1;Rue Sherbrooke Ouest;2;50;false;false;true;false;false;false;109.5;1;0;0;0;0;false;53806;5764418459;-73.638935;45.457857;50763;5764418458;-73.640198;45.456692;1;15;16;8452421;Bus 105 : Sherbrooke Ouest;"";STM;105-O;Station Vendôme;Gare Montréal-Ouest (Elmusrt/Sherbrooke)
173966372;"{\"type\":\"LineString\",\"coordinates\":[[-73.6402294,45.4565269],[-73.6398025,45.456957],[-73.6395924,45.4571686],[-73.6392984,45.4574381],[-73.6390273,45.4576688]]}";2;Rue Sherbrooke Ouest;1;50;false;false;true;false;false;false;79.0;2;0;0;0;0;false;53806;5764418459;-73.638935;45.457857;50763;5764418458;-73.640198;45.456692;1;15;16;8452421;Bus 105 : Sherbrooke Ouest;"";STM;105-O;Station Vendôme;Gare Montréal-Ouest (Elmusrt/Sherbrooke)
462766542;"{\"type\":\"LineString\",\"coordinates\":[[-73.6402294,45.4565269],[-73.6407309,45.4559039],[-73.6412546,45.4552534],[-73.6414419,45.4550207]]}";1;Rue Sherbrooke Ouest;1;50;false;false;true;false;false;false;96.5;2;0;0;0;0;false;50747;5764418457;-73.641252;45.455402;50741;5764370716;-73.641462;45.454553;1;17;18;8452421;Bus 105 : Sherbrooke Ouest;"";STM;105-O;Station Vendôme;Gare Montréal-Ouest (Elmusrt/Sherbrooke)
727573056;"{\"type\":\"LineString\",\"coordinates\":[[-73.6417677,45.4546278],[-73.6414419,45.4550207]]}";2;Rue Sherbrooke Ouest;1;50;false;false;true;false;false;false;51.0;1;0;0;0;0;false;50747;5764418457;-73.641252;45.455402;50741;5764370716;-73.641462;45.454553;0;17;18;8452421;Bus 105 : Sherbrooke Ouest;"";STM;105-O;Station Vendôme;Gare Montréal-Ouest (Elmusrt/Sherbrooke)
608435179;"{\"type\":\"LineString\",\"coordinates\":[[-73.6419323,45.4544293],[-73.6417677,45.4546278]]}";3;Rue Sherbrooke Ouest;1;50;false;false;true;false;false;false;26.0;0;0;0;0;0;false;50747;5764418457;-73.641252;45.455402;50741;5764370716;-73.641462;45.454553;0;17;18;8452421;Bus 105 : Sherbrooke Ouest;"";STM;105-O;Station Vendôme;Gare Montréal-Ouest (Elmusrt/Sherbrooke)
727573052;"{\"type\":\"LineString\",\"coordinates\":[[-73.6419323,45.4544293],[-73.6414278,45.4542438]]}";4;"";2;50;false;true;true;false;false;false;45.0;0;0;0;0;0;false;50747;5764418457;-73.641252;45.455402;50741;5764370716;-73.641462;45.454553;0;17;18;8452421;Bus 105 : Sherbrooke Ouest;"";STM;105-O;Station Vendôme;Gare Montréal-Ouest (Elmusrt/Sherbrooke)
48114739;"{\"type\":\"LineString\",\"coordinates\":[[-73.6414278,45.4542438],[-73.6413274,45.454275],[-73.641275,45.4543379],[-73.6412621,45.4543973],[-73.6412987,45.4544537],[-73.6414706,45.4545176]]}";5;"";2;50;false;true;true;false;false;false;46.0;0;0;0;0;0;false;50747;5764418457;-73.641252;45.455402;50741;5764370716;-73.641462;45.454553;1;17;18;8452421;Bus 105 : Sherbrooke Ouest;"";STM;105-O;Station Vendôme;Gare Montréal-Ouest (Elmusrt/Sherbrooke)
