way_id;shape;index;name;nb_lanes;legal_speed;speed_zone_30;oneway;shares_bike;bike_box;bus_lane;dedicated_bus_lane;length;nb_traffic_signals;nb_crossings;nb_stops;nb_give_ways;nb_lvl_crossings;roundabout;stop_id_orig;node_id_orig;coord_x_orig;coord_y_orig;stop_id_dest;node_id_dest;coord_x_dest;coord_y_dest;nb_neighbouring_ways_bus_stop;ordre_orig;ordre_dest;id_line;line_name;colour;operator;ref;from;to
652937894;"{\"type\":\"LineString\",\"coordinates\":[[-73.8928026,45.5614415],[-73.8925357,45.5614982],[-73.8922165,45.5615661],[-73.8921404,45.5616065],[-73.8920958,45.5616672]]}";1;"";1;50;false;false;true;false;true;false;63.0;0;1;0;0;0;false;81000;6119526196;-73.892828;45.561425;82829;6119523788;-73.886465;45.56146;1;0;1;9081952;Bus 8 : MÉTRO/ MONTMORENCY;"";EXO;8 S;Terminus Saint-Eustache;Station Montmorency
676848394;"{\"type\":\"LineString\",\"coordinates\":[[-73.8920958,45.5616672],[-73.8919894,45.5617621]]}";2;"";1;50;false;false;true;false;true;false;14.0;0;0;0;0;0;false;81000;6119526196;-73.892828;45.561425;82829;6119523788;-73.886465;45.56146;0;0;1;9081952;Bus 8 : MÉTRO/ MONTMORENCY;"";EXO;8 S;Terminus Saint-Eustache;Station Montmorency
652937896;"{\"type\":\"LineString\",\"coordinates\":[[-73.8919894,45.5617621],[-73.8920332,45.5618071],[-73.8921041,45.561881]]}";3;Rue de Bellefeuille;2;50;false;false;true;false;false;false;16.0;1;0;0;0;0;false;81000;6119526196;-73.892828;45.561425;82829;6119523788;-73.886465;45.56146;0;0;1;9081952;Bus 8 : MÉTRO/ MONTMORENCY;"";EXO;8 S;Terminus Saint-Eustache;Station Montmorency
652937892;"{\"type\":\"LineString\",\"coordinates\":[[-73.8921041,45.561881],[-73.8917715,45.5618883],[-73.8915548,45.561887],[-73.8912044,45.5618419],[-73.8910667,45.5618197],[-73.8907929,45.5617754],[-73.890484,45.5617042],[-73.8903988,45.5616846],[-73.8898986,45.5614992],[-73.8896254,45.5613791],[-73.8889864,45.5610372],[-73.8880226,45.5605035],[-73.8877979,45.5603793]]}";4;Boulevard Arthur-Sauvé;1;50;false;true;true;false;false;false;386.0;0;0;0;0;0;false;81000;6119526196;-73.892828;45.561425;82829;6119523788;-73.886465;45.56146;0;0;1;9081952;Bus 8 : MÉTRO/ MONTMORENCY;"";EXO;8 S;Terminus Saint-Eustache;Station Montmorency
455466140;"{\"type\":\"LineString\",\"coordinates\":[[-73.8877979,45.5603793],[-73.8873429,45.5601362]]}";5;Boulevard Arthur-Sauvé;1;50;false;true;true;false;false;false;45.0;1;0;0;0;0;false;81000;6119526196;-73.892828;45.561425;82829;6119523788;-73.886465;45.56146;0;0;1;9081952;Bus 8 : MÉTRO/ MONTMORENCY;"";EXO;8 S;Terminus Saint-Eustache;Station Montmorency
111542074;"{\"type\":\"LineString\",\"coordinates\":[[-73.8872901,45.560241],[-73.8873429,45.5601362]]}";6;Chemin de la Grande-Côte;2;50;false;false;true;false;false;false;13.0;2;0;0;0;0;false;81000;6119526196;-73.892828;45.561425;82829;6119523788;-73.886465;45.56146;0;0;1;9081952;Bus 8 : MÉTRO/ MONTMORENCY;"";EXO;8 S;Terminus Saint-Eustache;Station Montmorency
455466143;"{\"type\":\"LineString\",\"coordinates\":[[-73.8870114,45.560841],[-73.8872901,45.560241]]}";7;Chemin de la Grande-Côte;2;50;false;false;true;false;false;false;71.0;1;0;0;0;0;false;81000;6119526196;-73.892828;45.561425;82829;6119523788;-73.886465;45.56146;0;0;1;9081952;Bus 8 : MÉTRO/ MONTMORENCY;"";EXO;8 S;Terminus Saint-Eustache;Station Montmorency
440089287;"{\"type\":\"LineString\",\"coordinates\":[[-73.8864516,45.561504],[-73.8865603,45.5614189],[-73.8866604,45.5613373],[-73.886775,45.5612142],[-73.8868555,45.5610959],[-73.8870114,45.560841]]}";8;Chemin de la Grande-Côte;2;50;false;false;true;false;false;false;43.5;1;0;0;0;0;false;81000;6119526196;-73.892828;45.561425;82829;6119523788;-73.886465;45.56146;1;0;1;9081952;Bus 8 : MÉTRO/ MONTMORENCY;"";EXO;8 S;Terminus Saint-Eustache;Station Montmorency
51543690;"{\"type\":\"LineString\",\"coordinates\":[[-73.856761,45.581808],[-73.8572318,45.5815099],[-73.8574202,45.5813518],[-73.8577074,45.581046],[-73.8577355,45.5810109],[-73.8580686,45.5805262],[-73.8586582,45.5798061],[-73.8590396,45.5793433],[-73.8591898,45.5791566],[-73.85963,45.578643],[-73.8597526,45.578478],[-73.8598041,45.5784005],[-73.8600546,45.5780837],[-73.860187,45.5779353],[-73.8606223,45.577457],[-73.8610932,45.5770537],[-73.8616193,45.5765951],[-73.861769,45.5764518],[-73.8625054,45.5758614],[-73.8626065,45.5757858],[-73.8631959,45.575345],[-73.8636241,45.5749663],[-73.8636755,45.5749247],[-73.8641339,45.5745531],[-73.8646225,45.574157],[-73.8651604,45.5737209],[-73.8656164,45.5733513],[-73.8656924,45.5732897],[-73.865978,45.5730581],[-73.8664784,45.5726907],[-73.8670562,45.5722372],[-73.8671112,45.572195],[-73.8676961,45.5717868],[-73.8681074,45.5715095],[-73.8682964,45.5713794],[-73.8685078,45.5712497],[-73.8691451,45.5708228],[-73.8697677,45.5704053]]}";1;Chemin de la Grande-Côte;1;50;false;false;false;false;false;false;816.5;1;0;1;0;0;false;82412;6119524301;-73.859798;45.578259;82414;6119524299;-73.855238;45.582565;1;8;9;9081952;Bus 8 : MÉTRO/ MONTMORENCY;"";EXO;8 S;Terminus Saint-Eustache;Station Montmorency
437524399;"{\"type\":\"LineString\",\"coordinates\":[[-73.8565765,45.5819182],[-73.856761,45.581808]]}";2;Chemin de la Grande-Côte;1;50;false;false;false;false;false;false;19.0;0;0;0;0;0;false;82412;6119524301;-73.859798;45.578259;82414;6119524299;-73.855238;45.582565;0;8;9;9081952;Bus 8 : MÉTRO/ MONTMORENCY;"";EXO;8 S;Terminus Saint-Eustache;Station Montmorency
620935720;"{\"type\":\"LineString\",\"coordinates\":[[-73.8507126,45.586581],[-73.8507919,45.5864977],[-73.8513588,45.5858971],[-73.8517755,45.5854523],[-73.8521024,45.5851209],[-73.8523165,45.5849227],[-73.8524546,45.5847764],[-73.8524862,45.5847495],[-73.8528653,45.5844509],[-73.8529707,45.5843725],[-73.8533303,45.5840891],[-73.8535741,45.5839089],[-73.8538147,45.5837139],[-73.8541341,45.5834796],[-73.8542592,45.5833774],[-73.8547907,45.5830051],[-73.8550485,45.5828271],[-73.8552077,45.5827075],[-73.8559655,45.5822585],[-73.8563615,45.5820311],[-73.8565765,45.5819182]]}";3;Chemin de la Grande-Côte;1;50;false;false;false;false;false;false;347.5;1;0;4;0;0;false;82412;6119524301;-73.859798;45.578259;82414;6119524299;-73.855238;45.582565;1;8;9;9081952;Bus 8 : MÉTRO/ MONTMORENCY;"";EXO;8 S;Terminus Saint-Eustache;Station Montmorency
620935720;"{\"type\":\"LineString\",\"coordinates\":[[-73.8507126,45.586581],[-73.8507919,45.5864977],[-73.8513588,45.5858971],[-73.8517755,45.5854523],[-73.8521024,45.5851209],[-73.8523165,45.5849227],[-73.8524546,45.5847764],[-73.8524862,45.5847495],[-73.8528653,45.5844509],[-73.8529707,45.5843725],[-73.8533303,45.5840891],[-73.8535741,45.5839089],[-73.8538147,45.5837139],[-73.8541341,45.5834796],[-73.8542592,45.5833774],[-73.8547907,45.5830051],[-73.8550485,45.5828271],[-73.8552077,45.5827075],[-73.8559655,45.5822585],[-73.8563615,45.5820311],[-73.8565765,45.5819182]]}";1;Chemin de la Grande-Côte;1;50;false;false;false;false;false;false;347.5;1;0;4;0;0;false;82417;6119524296;-73.85083;45.586364;80015;6119528387;-73.747368;45.568721;1;10;11;9081952;Bus 8 : MÉTRO/ MONTMORENCY;"";EXO;8 S;Terminus Saint-Eustache;Station Montmorency
677250676;"{\"type\":\"LineString\",\"coordinates\":[[-73.849874,45.5874326],[-73.8501876,45.5871282],[-73.8502887,45.5870209],[-73.8507126,45.586581]]}";2;Chemin de la Grande-Côte;1;50;false;false;false;false;false;false;115.0;0;0;2;0;0;false;82417;6119524296;-73.85083;45.586364;80015;6119528387;-73.747368;45.568721;0;10;11;9081952;Bus 8 : MÉTRO/ MONTMORENCY;"";EXO;8 S;Terminus Saint-Eustache;Station Montmorency
629724224;"{\"type\":\"LineString\",\"coordinates\":[[-73.8495835,45.5877147],[-73.849874,45.5874326]]}";3;Chemin de la Grande-Côte;3;50;false;false;false;false;false;false;39.0;1;0;0;0;0;false;82417;6119524296;-73.85083;45.586364;80015;6119528387;-73.747368;45.568721;0;10;11;9081952;Bus 8 : MÉTRO/ MONTMORENCY;"";EXO;8 S;Terminus Saint-Eustache;Station Montmorency
455701490;"{\"type\":\"LineString\",\"coordinates\":[[-73.8495835,45.5877147],[-73.8497423,45.5878399],[-73.8503885,45.5882621]]}";4;Rue Hector-Lanthier;3;70;false;false;true;false;false;false;88.0;1;0;0;0;0;false;82417;6119524296;-73.85083;45.586364;80015;6119528387;-73.747368;45.568721;0;10;11;9081952;Bus 8 : MÉTRO/ MONTMORENCY;"";EXO;8 S;Terminus Saint-Eustache;Station Montmorency
455701491;"{\"type\":\"LineString\",\"coordinates\":[[-73.8503885,45.5882621],[-73.8504444,45.5884285],[-73.8504398,45.5885311],[-73.8504048,45.5886602],[-73.8503002,45.5887813]]}";5;"";1;50;false;true;true;false;false;false;61.0;0;0;0;0;0;false;82417;6119524296;-73.85083;45.586364;80015;6119528387;-73.747368;45.568721;0;10;11;9081952;Bus 8 : MÉTRO/ MONTMORENCY;"";EXO;8 S;Terminus Saint-Eustache;Station Montmorency
18873476;"{\"type\":\"LineString\",\"coordinates\":[[-73.8503002,45.5887813],[-73.8502488,45.5888249],[-73.849708,45.5892273],[-73.8491158,45.5896117],[-73.8486952,45.5897078],[-73.8482661,45.5896838],[-73.8478884,45.5895757],[-73.8472704,45.5891372],[-73.8458199,45.588002]]}";6;"";1;50;false;true;true;false;false;false;469.0;0;0;0;0;0;false;82417;6119524296;-73.85083;45.586364;80015;6119528387;-73.747368;45.568721;0;10;11;9081952;Bus 8 : MÉTRO/ MONTMORENCY;"";EXO;8 S;Terminus Saint-Eustache;Station Montmorency
652937895;"{\"type\":\"LineString\",\"coordinates\":[[-73.8458199,45.588002],[-73.8454477,45.5876964],[-73.844368,45.5866789],[-73.8442578,45.5865784],[-73.8421807,45.5848665],[-73.8406871,45.583527]]}";7;Autoroute Chomedey;2;100;false;true;true;false;false;false;639.0;0;0;0;0;0;false;82417;6119524296;-73.85083;45.586364;80015;6119528387;-73.747368;45.568721;0;10;11;9081952;Bus 8 : MÉTRO/ MONTMORENCY;"";EXO;8 S;Terminus Saint-Eustache;Station Montmorency
38817943;"{\"type\":\"LineString\",\"coordinates\":[[-73.8406871,45.583527],[-73.8350688,45.5783525]]}";8;Autoroute Chomedey;1;100;false;true;true;false;false;false;723.0;0;0;0;0;0;false;82417;6119524296;-73.85083;45.586364;80015;6119528387;-73.747368;45.568721;0;10;11;9081952;Bus 8 : MÉTRO/ MONTMORENCY;"";EXO;8 S;Terminus Saint-Eustache;Station Montmorency
677655973;"{\"type\":\"LineString\",\"coordinates\":[[-73.8350688,45.5783525],[-73.8335799,45.5769423]]}";9;Autoroute Chomedey;3;100;false;true;true;false;false;false;195.0;0;0;0;0;0;false;82417;6119524296;-73.85083;45.586364;80015;6119528387;-73.747368;45.568721;0;10;11;9081952;Bus 8 : MÉTRO/ MONTMORENCY;"";EXO;8 S;Terminus Saint-Eustache;Station Montmorency
466382729;"{\"type\":\"LineString\",\"coordinates\":[[-73.8335799,45.5769423],[-73.8284791,45.5722073],[-73.8239455,45.5680031]]}";10;Autoroute Chomedey;3;100;false;true;true;false;false;false;1246.0;0;0;0;0;0;false;82417;6119524296;-73.85083;45.586364;80015;6119528387;-73.747368;45.568721;0;10;11;9081952;Bus 8 : MÉTRO/ MONTMORENCY;"";EXO;8 S;Terminus Saint-Eustache;Station Montmorency
466382728;"{\"type\":\"LineString\",\"coordinates\":[[-73.8239455,45.5680031],[-73.8234966,45.5675867]]}";11;Autoroute Chomedey;3;100;false;true;true;false;false;false;59.0;0;0;0;0;0;false;82417;6119524296;-73.85083;45.586364;80015;6119528387;-73.747368;45.568721;0;10;11;9081952;Bus 8 : MÉTRO/ MONTMORENCY;"";EXO;8 S;Terminus Saint-Eustache;Station Montmorency
466382717;"{\"type\":\"LineString\",\"coordinates\":[[-73.8234966,45.5675867],[-73.8231065,45.567225]]}";12;Autoroute Chomedey;3;100;false;true;true;false;false;false;51.0;0;0;0;0;0;false;82417;6119524296;-73.85083;45.586364;80015;6119528387;-73.747368;45.568721;0;10;11;9081952;Bus 8 : MÉTRO/ MONTMORENCY;"";EXO;8 S;Terminus Saint-Eustache;Station Montmorency
509754503;"{\"type\":\"LineString\",\"coordinates\":[[-73.8231065,45.567225],[-73.8227963,45.5669373],[-73.8182448,45.5627447]]}";13;Autoroute Chomedey;3;100;false;true;true;false;false;false;626.0;0;0;0;0;0;false;82417;6119524296;-73.85083;45.586364;80015;6119528387;-73.747368;45.568721;0;10;11;9081952;Bus 8 : MÉTRO/ MONTMORENCY;"";EXO;8 S;Terminus Saint-Eustache;Station Montmorency
45797627;"{\"type\":\"LineString\",\"coordinates\":[[-73.8182448,45.5627447],[-73.8168985,45.5612615],[-73.8163415,45.5606689]]}";14;"";1;70;false;true;true;false;false;false;275.0;0;0;0;0;0;false;82417;6119524296;-73.85083;45.586364;80015;6119528387;-73.747368;45.568721;0;10;11;9081952;Bus 8 : MÉTRO/ MONTMORENCY;"";EXO;8 S;Terminus Saint-Eustache;Station Montmorency
480700272;"{\"type\":\"LineString\",\"coordinates\":[[-73.8163415,45.5606689],[-73.814259,45.558747],[-73.8130729,45.5576933]]}";15;"";1;70;false;true;true;false;false;false;418.0;0;0;0;0;0;false;82417;6119524296;-73.85083;45.586364;80015;6119528387;-73.747368;45.568721;0;10;11;9081952;Bus 8 : MÉTRO/ MONTMORENCY;"";EXO;8 S;Terminus Saint-Eustache;Station Montmorency
23497548;"{\"type\":\"LineString\",\"coordinates\":[[-73.8130729,45.5576933],[-73.8117798,45.5564939],[-73.8102983,45.5550901]]}";16;"";1;70;false;true;true;false;false;false;362.0;0;0;0;0;0;false;82417;6119524296;-73.85083;45.586364;80015;6119528387;-73.747368;45.568721;0;10;11;9081952;Bus 8 : MÉTRO/ MONTMORENCY;"";EXO;8 S;Terminus Saint-Eustache;Station Montmorency
459123420;"{\"type\":\"LineString\",\"coordinates\":[[-73.8102983,45.5550901],[-73.8091396,45.5540143]]}";17;"";1;70;false;true;true;false;false;false;150.0;0;0;0;0;0;false;82417;6119524296;-73.85083;45.586364;80015;6119528387;-73.747368;45.568721;0;10;11;9081952;Bus 8 : MÉTRO/ MONTMORENCY;"";EXO;8 S;Terminus Saint-Eustache;Station Montmorency
23497541;"{\"type\":\"LineString\",\"coordinates\":[[-73.8091396,45.5540143],[-73.8087705,45.5535335],[-73.8087105,45.5533352],[-73.808719,45.5531248],[-73.8088478,45.5529445],[-73.8090795,45.5527822],[-73.8093284,45.5527041],[-73.8096546,45.5526921],[-73.8099378,45.5527522],[-73.8101953,45.5529325],[-73.8103327,45.5531188],[-73.8103584,45.5532931],[-73.810264,45.5535215],[-73.8100237,45.5537258],[-73.8095571,45.5540393]]}";18;"";1;50;false;true;true;false;false;false;402.0;0;0;0;0;0;false;82417;6119524296;-73.85083;45.586364;80015;6119528387;-73.747368;45.568721;0;10;11;9081952;Bus 8 : MÉTRO/ MONTMORENCY;"";EXO;8 S;Terminus Saint-Eustache;Station Montmorency
23497494;"{\"type\":\"LineString\",\"coordinates\":[[-73.8095571,45.5540393],[-73.8079856,45.5545222]]}";19;"";1;70;false;true;true;false;false;false;134.0;0;0;0;0;0;false;82417;6119524296;-73.85083;45.586364;80015;6119528387;-73.747368;45.568721;0;10;11;9081952;Bus 8 : MÉTRO/ MONTMORENCY;"";EXO;8 S;Terminus Saint-Eustache;Station Montmorency
458688969;"{\"type\":\"LineString\",\"coordinates\":[[-73.8079856,45.5545222],[-73.8050662,45.5554076]]}";20;"";1;70;false;true;true;false;false;false;249.0;0;0;0;0;0;false;82417;6119524296;-73.85083;45.586364;80015;6119528387;-73.747368;45.568721;0;10;11;9081952;Bus 8 : MÉTRO/ MONTMORENCY;"";EXO;8 S;Terminus Saint-Eustache;Station Montmorency
23497497;"{\"type\":\"LineString\",\"coordinates\":[[-73.8050662,45.5554076],[-73.8043249,45.5556071],[-73.8035606,45.5558113]]}";21;"";1;70;false;true;true;false;false;false;126.0;0;0;0;0;0;false;82417;6119524296;-73.85083;45.586364;80015;6119528387;-73.747368;45.568721;0;10;11;9081952;Bus 8 : MÉTRO/ MONTMORENCY;"";EXO;8 S;Terminus Saint-Eustache;Station Montmorency
480872928;"{\"type\":\"LineString\",\"coordinates\":[[-73.8035606,45.5558113],[-73.8025179,45.5561271]]}";22;Autoroute Jean-Noël-Lavoie;1;70;false;true;true;false;false;false;89.0;0;0;0;0;0;false;82417;6119524296;-73.85083;45.586364;80015;6119528387;-73.747368;45.568721;0;10;11;9081952;Bus 8 : MÉTRO/ MONTMORENCY;"";EXO;8 S;Terminus Saint-Eustache;Station Montmorency
765192090;"{\"type\":\"LineString\",\"coordinates\":[[-73.8025179,45.5561271],[-73.8002045,45.5568072]]}";23;Autoroute Jean-Noël-Lavoie;1;70;false;true;true;false;false;false;196.0;0;0;0;0;0;false;82417;6119524296;-73.85083;45.586364;80015;6119528387;-73.747368;45.568721;0;10;11;9081952;Bus 8 : MÉTRO/ MONTMORENCY;"";EXO;8 S;Terminus Saint-Eustache;Station Montmorency
23497523;"{\"type\":\"LineString\",\"coordinates\":[[-73.8002045,45.5568072],[-73.7987455,45.5572056],[-73.7980598,45.557407],[-73.7976306,45.5575331],[-73.7945485,45.5584385],[-73.7935601,45.5587289],[-73.792148,45.5591437],[-73.7916738,45.559283],[-73.7915443,45.5593211],[-73.790894,45.5595126],[-73.7906279,45.5595909],[-73.79015,45.5597316],[-73.7901216,45.55974],[-73.7888669,45.5601094],[-73.788471,45.5602259],[-73.7865271,45.5607982],[-73.7860964,45.560925],[-73.7858669,45.5609926],[-73.7849559,45.5612607],[-73.7847774,45.5613133],[-73.7837614,45.5616124],[-73.7829097,45.5618631],[-73.7823031,45.5620502]]}";24;Autoroute Jean-Noël-Lavoie;1;70;false;true;true;false;false;false;1514.0;0;0;0;0;0;false;82417;6119524296;-73.85083;45.586364;80015;6119528387;-73.747368;45.568721;0;10;11;9081952;Bus 8 : MÉTRO/ MONTMORENCY;"";EXO;8 S;Terminus Saint-Eustache;Station Montmorency
458694445;"{\"type\":\"LineString\",\"coordinates\":[[-73.7823031,45.5620502],[-73.7766699,45.5637079],[-73.7755404,45.5640406],[-73.7731188,45.5647581]]}";25;Autoroute Jean-Noël-Lavoie;1;70;false;true;true;false;false;false;777.0;0;0;0;0;0;false;82417;6119524296;-73.85083;45.586364;80015;6119528387;-73.747368;45.568721;0;10;11;9081952;Bus 8 : MÉTRO/ MONTMORENCY;"";EXO;8 S;Terminus Saint-Eustache;Station Montmorency
458694446;"{\"type\":\"LineString\",\"coordinates\":[[-73.7731188,45.5647581],[-73.7723459,45.564982],[-73.7720977,45.5650477],[-73.7714908,45.5652371],[-73.7703036,45.5655951],[-73.7695938,45.5658004]]}";26;Autoroute Laval;2;70;false;true;true;false;false;false;299.0;0;0;0;0;0;false;82417;6119524296;-73.85083;45.586364;80015;6119528387;-73.747368;45.568721;0;10;11;9081952;Bus 8 : MÉTRO/ MONTMORENCY;"";EXO;8 S;Terminus Saint-Eustache;Station Montmorency
695760823;"{\"type\":\"LineString\",\"coordinates\":[[-73.7695938,45.5658004],[-73.7692266,45.5659021]]}";27;Autoroute Jean-Noël-Lavoie;1;70;false;true;true;false;false;false;31.0;0;0;0;0;0;false;82417;6119524296;-73.85083;45.586364;80015;6119528387;-73.747368;45.568721;0;10;11;9081952;Bus 8 : MÉTRO/ MONTMORENCY;"";EXO;8 S;Terminus Saint-Eustache;Station Montmorency
458694444;"{\"type\":\"LineString\",\"coordinates\":[[-73.7692266,45.5659021],[-73.765426,45.5670188],[-73.7643087,45.5674136]]}";28;Autoroute Jean-Noël-Lavoie;1;70;false;true;true;false;false;false;419.0;0;0;0;0;0;false;82417;6119524296;-73.85083;45.586364;80015;6119528387;-73.747368;45.568721;0;10;11;9081952;Bus 8 : MÉTRO/ MONTMORENCY;"";EXO;8 S;Terminus Saint-Eustache;Station Montmorency
198565281;"{\"type\":\"LineString\",\"coordinates\":[[-73.7643087,45.5674136],[-73.7639125,45.5675655]]}";29;Autoroute Jean-Noël-Lavoie;1;70;false;true;true;false;false;false;36.0;0;0;0;0;0;false;82417;6119524296;-73.85083;45.586364;80015;6119528387;-73.747368;45.568721;0;10;11;9081952;Bus 8 : MÉTRO/ MONTMORENCY;"";EXO;8 S;Terminus Saint-Eustache;Station Montmorency
198565282;"{\"type\":\"LineString\",\"coordinates\":[[-73.7639125,45.5675655],[-73.7633294,45.5678162],[-73.7618089,45.5685346],[-73.7603132,45.569353],[-73.7601665,45.5694403],[-73.759204,45.5700129]]}";30;Autoroute Jean-Noël-Lavoie;1;70;false;true;true;false;false;false;458.0;0;0;0;0;0;false;82417;6119524296;-73.85083;45.586364;80015;6119528387;-73.747368;45.568721;0;10;11;9081952;Bus 8 : MÉTRO/ MONTMORENCY;"";EXO;8 S;Terminus Saint-Eustache;Station Montmorency
45755853;"{\"type\":\"LineString\",\"coordinates\":[[-73.759204,45.5700129],[-73.7589449,45.5700528],[-73.7588095,45.5700449],[-73.7586879,45.5700047],[-73.75794,45.5693625],[-73.7575073,45.5689662],[-73.7572167,45.5686999],[-73.7571199,45.5686094]]}";31;Boulevard Daniel-Johnson;3;60;false;true;true;false;false;false;240.0;2;0;0;0;0;false;82417;6119524296;-73.85083;45.586364;80015;6119528387;-73.747368;45.568721;0;10;11;9081952;Bus 8 : MÉTRO/ MONTMORENCY;"";EXO;8 S;Terminus Saint-Eustache;Station Montmorency
453771456;"{\"type\":\"LineString\",\"coordinates\":[[-73.7571199,45.5686094],[-73.7569349,45.5684445],[-73.7561995,45.5677932],[-73.75556,45.5672267],[-73.7554726,45.5671493],[-73.7553859,45.5670725],[-73.7544924,45.5662812],[-73.7537138,45.5655915]]}";32;Boulevard Daniel-Johnson;2;60;false;true;false;false;false;false;428.0;4;0;0;0;0;false;82417;6119524296;-73.85083;45.586364;80015;6119528387;-73.747368;45.568721;0;10;11;9081952;Bus 8 : MÉTRO/ MONTMORENCY;"";EXO;8 S;Terminus Saint-Eustache;Station Montmorency
684308398;"{\"type\":\"LineString\",\"coordinates\":[[-73.7537138,45.5655915],[-73.7535894,45.5654874]]}";33;Boulevard Daniel-Johnson;2;60;false;true;false;false;false;false;16.0;2;0;0;0;0;false;82417;6119524296;-73.85083;45.586364;80015;6119528387;-73.747368;45.568721;0;10;11;9081952;Bus 8 : MÉTRO/ MONTMORENCY;"";EXO;8 S;Terminus Saint-Eustache;Station Montmorency
455472716;"{\"type\":\"LineString\",\"coordinates\":[[-73.7535894,45.5654874],[-73.7534246,45.5656112]]}";34;Boulevard Le Carrefour;2;50;false;true;true;false;false;false;19.0;2;0;0;0;0;false;82417;6119524296;-73.85083;45.586364;80015;6119528387;-73.747368;45.568721;0;10;11;9081952;Bus 8 : MÉTRO/ MONTMORENCY;"";EXO;8 S;Terminus Saint-Eustache;Station Montmorency
455472714;"{\"type\":\"LineString\",\"coordinates\":[[-73.7534246,45.5656112],[-73.7531331,45.5658189]]}";35;Boulevard Le Carrefour;2;50;false;true;true;false;false;false;33.0;1;0;0;0;0;false;82417;6119524296;-73.85083;45.586364;80015;6119528387;-73.747368;45.568721;0;10;11;9081952;Bus 8 : MÉTRO/ MONTMORENCY;"";EXO;8 S;Terminus Saint-Eustache;Station Montmorency
45755845;"{\"type\":\"LineString\",\"coordinates\":[[-73.7531331,45.5658189],[-73.7530943,45.5658466],[-73.752082,45.5666123],[-73.752034,45.5666486],[-73.751984,45.5666864],[-73.7514521,45.5670888],[-73.7512257,45.5672491],[-73.7508536,45.5674963],[-73.7507569,45.5675681],[-73.7501092,45.568049],[-73.7499936,45.5681349],[-73.7497084,45.5683231],[-73.749603,45.5683977]]}";36;Boulevard Le Carrefour;2;50;false;true;true;false;false;false;398.0;3;1;0;0;0;false;82417;6119524296;-73.85083;45.586364;80015;6119528387;-73.747368;45.568721;0;10;11;9081952;Bus 8 : MÉTRO/ MONTMORENCY;"";EXO;8 S;Terminus Saint-Eustache;Station Montmorency
684308382;"{\"type\":\"LineString\",\"coordinates\":[[-73.749603,45.5683977],[-73.7494872,45.5684757],[-73.749474,45.5684846],[-73.7490509,45.5687693],[-73.7488748,45.5688878],[-73.7486183,45.5690313],[-73.7486118,45.5690349],[-73.7482908,45.5692144],[-73.7481645,45.5692712],[-73.7480536,45.5693169]]}";37;Boulevard Le Carrefour;2;50;false;true;true;false;false;false;159.0;2;3;0;0;0;false;82417;6119524296;-73.85083;45.586364;80015;6119528387;-73.747368;45.568721;0;10;11;9081952;Bus 8 : MÉTRO/ MONTMORENCY;"";EXO;8 S;Terminus Saint-Eustache;Station Montmorency
45760900;"{\"type\":\"LineString\",\"coordinates\":[[-73.7480536,45.5693169],[-73.7477738,45.569102],[-73.7477012,45.5690397],[-73.7476345,45.569001],[-73.747466,45.5689034],[-73.7473901,45.5688594],[-73.7472267,45.5687802],[-73.7470932,45.5687155]]}";38;Avenue Terry Fox;2;50;false;false;false;false;false;false;50.5;1;0;0;0;0;false;82417;6119524296;-73.85083;45.586364;80015;6119528387;-73.747368;45.568721;1;10;11;9081952;Bus 8 : MÉTRO/ MONTMORENCY;"";EXO;8 S;Terminus Saint-Eustache;Station Montmorency
45760900;"{\"type\":\"LineString\",\"coordinates\":[[-73.7480536,45.5693169],[-73.7477738,45.569102],[-73.7477012,45.5690397],[-73.7476345,45.569001],[-73.747466,45.5689034],[-73.7473901,45.5688594],[-73.7472267,45.5687802],[-73.7470932,45.5687155]]}";1;Avenue Terry Fox;2;50;false;false;false;false;false;false;50.5;1;0;0;0;0;false;80015;6119528387;-73.747368;45.568721;82127;6119525230;-73.7207969;45.5583911;1;11;12;9081952;Bus 8 : MÉTRO/ MONTMORENCY;"";EXO;8 S;Terminus Saint-Eustache;Station Montmorency
652947075;"{\"type\":\"LineString\",\"coordinates\":[[-73.7470932,45.5687155],[-73.7468322,45.568589],[-73.7464567,45.5683412],[-73.7463387,45.5682322],[-73.7462207,45.5681233],[-73.7460383,45.5679055],[-73.7459632,45.5677703]]}";2;Avenue Terry Fox;2;50;false;false;false;false;false;false;140.0;0;0;0;0;0;false;80015;6119528387;-73.747368;45.568721;82127;6119525230;-73.7207969;45.5583911;0;11;12;9081952;Bus 8 : MÉTRO/ MONTMORENCY;"";EXO;8 S;Terminus Saint-Eustache;Station Montmorency
533027294;"{\"type\":\"LineString\",\"coordinates\":[[-73.7459632,45.5677703],[-73.7458747,45.5676255],[-73.7457673,45.567501],[-73.7445105,45.5663572],[-73.7440327,45.5659183],[-73.7438029,45.565733]]}";3;Avenue Terry Fox;2;50;false;false;false;false;false;false;283.0;0;0;0;0;0;false;80015;6119528387;-73.747368;45.568721;82127;6119525230;-73.7207969;45.5583911;0;11;12;9081952;Bus 8 : MÉTRO/ MONTMORENCY;"";EXO;8 S;Terminus Saint-Eustache;Station Montmorency
533027293;"{\"type\":\"LineString\",\"coordinates\":[[-73.7438029,45.565733],[-73.7434298,45.5659492],[-73.7425099,45.5664589],[-73.742397,45.5665234]]}";4;Avenue du Cosmodôme;1;50;false;false;true;false;false;false;141.0;0;0;0;0;0;false;80015;6119528387;-73.747368;45.568721;82127;6119525230;-73.7207969;45.5583911;0;11;12;9081952;Bus 8 : MÉTRO/ MONTMORENCY;"";EXO;8 S;Terminus Saint-Eustache;Station Montmorency
45755859;"{\"type\":\"LineString\",\"coordinates\":[[-73.742397,45.5665234],[-73.7422231,45.5665439],[-73.7420392,45.5664969],[-73.741632,45.5663349]]}";5;Avenue du Cosmodôme;1;50;false;true;true;false;false;false;66.0;0;0;0;0;0;false;80015;6119528387;-73.747368;45.568721;82127;6119525230;-73.7207969;45.5583911;0;11;12;9081952;Bus 8 : MÉTRO/ MONTMORENCY;"";EXO;8 S;Terminus Saint-Eustache;Station Montmorency
653183992;"{\"type\":\"LineString\",\"coordinates\":[[-73.741632,45.5663349],[-73.7410747,45.5658391],[-73.740263,45.5651023]]}";6;Autoroute des Laurentides;1;70;false;true;true;false;false;false;174.0;0;0;0;0;0;false;80015;6119528387;-73.747368;45.568721;82127;6119525230;-73.7207969;45.5583911;0;11;12;9081952;Bus 8 : MÉTRO/ MONTMORENCY;"";EXO;8 S;Terminus Saint-Eustache;Station Montmorency
459126679;"{\"type\":\"LineString\",\"coordinates\":[[-73.740263,45.5651023],[-73.7379123,45.5629414]]}";7;"";1;70;false;true;true;false;false;false;303.0;0;0;0;0;0;false;80015;6119528387;-73.747368;45.568721;82127;6119525230;-73.7207969;45.5583911;0;11;12;9081952;Bus 8 : MÉTRO/ MONTMORENCY;"";EXO;8 S;Terminus Saint-Eustache;Station Montmorency
573757596;"{\"type\":\"LineString\",\"coordinates\":[[-73.7379123,45.5629414],[-73.7377613,45.5628017]]}";8;"";1;70;false;true;true;false;false;false;20.0;0;0;0;0;0;false;80015;6119528387;-73.747368;45.568721;82127;6119525230;-73.7207969;45.5583911;0;11;12;9081952;Bus 8 : MÉTRO/ MONTMORENCY;"";EXO;8 S;Terminus Saint-Eustache;Station Montmorency
147995435;"{\"type\":\"LineString\",\"coordinates\":[[-73.7377613,45.5628017],[-73.7374226,45.5624828]]}";9;"";1;70;false;true;true;false;false;false;45.0;0;0;0;0;0;false;80015;6119528387;-73.747368;45.568721;82127;6119525230;-73.7207969;45.5583911;0;11;12;9081952;Bus 8 : MÉTRO/ MONTMORENCY;"";EXO;8 S;Terminus Saint-Eustache;Station Montmorency
147995432;"{\"type\":\"LineString\",\"coordinates\":[[-73.7374226,45.5624828],[-73.7360916,45.5612504],[-73.7351849,45.5603984],[-73.7334566,45.5587745]]}";10;"";1;70;false;true;true;false;false;false;516.0;0;0;0;0;0;false;80015;6119528387;-73.747368;45.568721;82127;6119525230;-73.7207969;45.5583911;0;11;12;9081952;Bus 8 : MÉTRO/ MONTMORENCY;"";EXO;8 S;Terminus Saint-Eustache;Station Montmorency
670784771;"{\"type\":\"LineString\",\"coordinates\":[[-73.7334566,45.5587745],[-73.7327013,45.5580713],[-73.7307358,45.5562564],[-73.7305467,45.5560822]]}";11;"";1;70;false;true;true;false;false;false;376.0;0;0;0;0;0;false;80015;6119528387;-73.747368;45.568721;82127;6119525230;-73.7207969;45.5583911;0;11;12;9081952;Bus 8 : MÉTRO/ MONTMORENCY;"";EXO;8 S;Terminus Saint-Eustache;Station Montmorency
459343063;"{\"type\":\"LineString\",\"coordinates\":[[-73.7305467,45.5560822],[-73.7290192,45.5546757]]}";12;"";1;70;false;true;true;false;false;false;197.0;0;0;0;0;0;false;80015;6119528387;-73.747368;45.568721;82127;6119525230;-73.7207969;45.5583911;0;11;12;9081952;Bus 8 : MÉTRO/ MONTMORENCY;"";EXO;8 S;Terminus Saint-Eustache;Station Montmorency
46348324;"{\"type\":\"LineString\",\"coordinates\":[[-73.7290192,45.5546757],[-73.7284751,45.5540359],[-73.7283442,45.553864],[-73.7282383,45.5536737],[-73.7281954,45.553502],[-73.7282056,45.5532819],[-73.7283429,45.552975],[-73.7285063,45.5525536],[-73.7285226,45.5522819],[-73.7284538,45.5521182],[-73.7283629,45.5519816],[-73.7282335,45.5518405]]}";13;"";1;50;false;true;true;false;false;false;340.0;0;0;0;0;0;false;80015;6119528387;-73.747368;45.568721;82127;6119525230;-73.7207969;45.5583911;0;11;12;9081952;Bus 8 : MÉTRO/ MONTMORENCY;"";EXO;8 S;Terminus Saint-Eustache;Station Montmorency
459343062;"{\"type\":\"LineString\",\"coordinates\":[[-73.7282335,45.5518405],[-73.727911,45.5516671],[-73.7275162,45.551451]]}";14;"";1;50;false;true;true;false;false;false;71.0;1;0;0;0;0;false;80015;6119528387;-73.747368;45.568721;82127;6119525230;-73.7207969;45.5583911;0;11;12;9081952;Bus 8 : MÉTRO/ MONTMORENCY;"";EXO;8 S;Terminus Saint-Eustache;Station Montmorency
452690021;"{\"type\":\"LineString\",\"coordinates\":[[-73.7275162,45.551451],[-73.7273818,45.5513557]]}";15;"";1;50;false;true;true;false;false;false;15.0;2;0;0;0;0;false;80015;6119528387;-73.747368;45.568721;82127;6119525230;-73.7207969;45.5583911;0;11;12;9081952;Bus 8 : MÉTRO/ MONTMORENCY;"";EXO;8 S;Terminus Saint-Eustache;Station Montmorency
652937898;"{\"type\":\"LineString\",\"coordinates\":[[-73.7273818,45.5513557],[-73.7260587,45.5521043],[-73.725552,45.5524243]]}";16;Boulevard Notre-Dame;2;60;false;true;true;false;false;false;186.0;1;0;0;0;0;false;80015;6119528387;-73.747368;45.568721;82127;6119525230;-73.7207969;45.5583911;0;11;12;9081952;Bus 8 : MÉTRO/ MONTMORENCY;"";EXO;8 S;Terminus Saint-Eustache;Station Montmorency
574700265;"{\"type\":\"LineString\",\"coordinates\":[[-73.725552,45.5524243],[-73.7244131,45.5531066],[-73.7237581,45.553498],[-73.7221073,45.5544845]]}";17;Boulevard de la Concorde Ouest;2;60;false;true;true;false;false;false;353.0;1;0;0;0;0;false;80015;6119528387;-73.747368;45.568721;82127;6119525230;-73.7207969;45.5583911;0;11;12;9081952;Bus 8 : MÉTRO/ MONTMORENCY;"";EXO;8 S;Terminus Saint-Eustache;Station Montmorency
574700264;"{\"type\":\"LineString\",\"coordinates\":[[-73.7221073,45.5544845],[-73.7219161,45.5545988]]}";18;Boulevard de la Concorde Ouest;2;60;false;true;true;false;false;false;20.0;2;0;0;0;0;false;80015;6119528387;-73.747368;45.568721;82127;6119525230;-73.7207969;45.5583911;0;11;12;9081952;Bus 8 : MÉTRO/ MONTMORENCY;"";EXO;8 S;Terminus Saint-Eustache;Station Montmorency
574704933;"{\"type\":\"LineString\",\"coordinates\":[[-73.7219161,45.5545988],[-73.720057,45.5556144],[-73.7198132,45.5557476]]}";19;Boulevard de la Concorde Ouest;2;60;false;true;true;false;false;false;208.0;1;0;0;0;0;false;80015;6119528387;-73.747368;45.568721;82127;6119525230;-73.7207969;45.5583911;0;11;12;9081952;Bus 8 : MÉTRO/ MONTMORENCY;"";EXO;8 S;Terminus Saint-Eustache;Station Montmorency
342095991;"{\"type\":\"LineString\",\"coordinates\":[[-73.7198132,45.5557476],[-73.7195308,45.5559018],[-73.7187437,45.5563318],[-73.7179908,45.5567341]]}";20;Boulevard de la Concorde Ouest;2;60;false;true;true;false;false;false;180.0;1;0;0;0;0;false;80015;6119528387;-73.747368;45.568721;82127;6119525230;-73.7207969;45.5583911;0;11;12;9081952;Bus 8 : MÉTRO/ MONTMORENCY;"";EXO;8 S;Terminus Saint-Eustache;Station Montmorency
574726033;"{\"type\":\"LineString\",\"coordinates\":[[-73.7179908,45.5567341],[-73.7178056,45.5568343]]}";21;Boulevard de la Concorde Ouest;2;60;false;true;true;false;false;false;19.0;2;0;0;0;0;false;80015;6119528387;-73.747368;45.568721;82127;6119525230;-73.7207969;45.5583911;0;11;12;9081952;Bus 8 : MÉTRO/ MONTMORENCY;"";EXO;8 S;Terminus Saint-Eustache;Station Montmorency
477685027;"{\"type\":\"LineString\",\"coordinates\":[[-73.7178056,45.5568343],[-73.7179234,45.5569627]]}";22;Boulevard de l'Avenir;3;50;false;true;true;false;false;false;17.0;2;0;0;0;0;false;80015;6119528387;-73.747368;45.568721;82127;6119525230;-73.7207969;45.5583911;0;11;12;9081952;Bus 8 : MÉTRO/ MONTMORENCY;"";EXO;8 S;Terminus Saint-Eustache;Station Montmorency
452222557;"{\"type\":\"LineString\",\"coordinates\":[[-73.7179234,45.5569627],[-73.7194731,45.5586204],[-73.7195653,45.558719]]}";23;Boulevard de l'Avenir;3;50;false;true;true;false;false;false;234.0;1;1;0;0;0;false;80015;6119528387;-73.747368;45.568721;82127;6119525230;-73.7207969;45.5583911;0;11;12;9081952;Bus 8 : MÉTRO/ MONTMORENCY;"";EXO;8 S;Terminus Saint-Eustache;Station Montmorency
292607262;"{\"type\":\"LineString\",\"coordinates\":[[-73.7195653,45.558719],[-73.7197703,45.558636]]}";24;"";1;50;false;false;true;false;false;false;19.0;0;0;0;0;0;false;80015;6119528387;-73.747368;45.568721;82127;6119525230;-73.7207969;45.5583911;0;11;12;9081952;Bus 8 : MÉTRO/ MONTMORENCY;"";EXO;8 S;Terminus Saint-Eustache;Station Montmorency
673250003;"{\"type\":\"LineString\",\"coordinates\":[[-73.7200309,45.5584789],[-73.7198217,45.5586049],[-73.7197703,45.558636]]}";25;"";1;30;false;false;false;false;false;false;27.0;0;1;0;0;0;false;80015;6119528387;-73.747368;45.568721;82127;6119525230;-73.7207969;45.5583911;0;11;12;9081952;Bus 8 : MÉTRO/ MONTMORENCY;"";EXO;8 S;Terminus Saint-Eustache;Station Montmorency
673246437;"{\"type\":\"LineString\",\"coordinates\":[[-73.7200309,45.5584789],[-73.720124,45.5585758],[-73.7201474,45.5585648]]}";26;"";1;30;false;true;false;false;false;false;16.0;0;0;0;0;0;false;80015;6119528387;-73.747368;45.568721;82127;6119525230;-73.7207969;45.5583911;0;11;12;9081952;Bus 8 : MÉTRO/ MONTMORENCY;"";EXO;8 S;Terminus Saint-Eustache;Station Montmorency
624217210;"{\"type\":\"LineString\",\"coordinates\":[[-73.7201474,45.5585648],[-73.720206,45.5585372],[-73.7203325,45.5584776]]}";27;"";1;30;false;true;false;false;false;false;18.0;0;0;0;0;0;false;80015;6119528387;-73.747368;45.568721;82127;6119525230;-73.7207969;45.5583911;1;11;12;9081952;Bus 8 : MÉTRO/ MONTMORENCY;"";EXO;8 S;Terminus Saint-Eustache;Station Montmorency
