way_id;shape;index;name;nb_lanes;legal_speed;speed_zone_30;oneway;shares_bike;bike_box;bus_lane;dedicated_bus_lane;length;nb_traffic_signals;nb_crossings;nb_stops;nb_give_ways;nb_lvl_crossings;roundabout;stop_id_orig;node_id_orig;coord_x_orig;coord_y_orig;stop_id_dest;node_id_dest;coord_x_dest;coord_y_dest;nb_neighbouring_ways_bus_stop;ordre_orig;ordre_dest;id_line;line_name;colour;operator;ref;from;to
354710813;"{\"type\":\"LineString\",\"coordinates\":[[-73.5556671,45.4962174],[-73.5572645,45.496815],[-73.5587554,45.4973796],[-73.5596678,45.4977972]]}";1;Boulevard Robert-Bourassa;4;50;false;true;true;false;false;false;359.0;4;0;0;0;0;false;71411;6184471261;-73.5585;45.497418;71083;6184473498;-73.56643;45.499186;1;1;2;9532910;Bus 600 : Direction Montréal;"";EXO;600 O;Terminus Sainte-Julie;rue Mansfield / rue De La Gauchetière
428978766;"{\"type\":\"LineString\",\"coordinates\":[[-73.5596678,45.4977972],[-73.5605507,45.4982539],[-73.5609011,45.4984149],[-73.5611605,45.4985326],[-73.5612381,45.4985678]]}";2;Boulevard Robert-Bourassa;4;50;false;true;true;false;false;false;150.0;2;1;0;0;0;false;71411;6184471261;-73.5585;45.497418;71083;6184473498;-73.56643;45.499186;0;1;2;9532910;Bus 600 : Direction Montréal;"";EXO;600 O;Terminus Sainte-Julie;rue Mansfield / rue De La Gauchetière
385754231;"{\"type\":\"LineString\",\"coordinates\":[[-73.5612381,45.4985678],[-73.561372,45.4986173],[-73.5615648,45.4986882],[-73.562215,45.4989662],[-73.5625386,45.4991131]]}";3;Boulevard Robert-Bourassa;4;50;false;true;true;false;false;false;119.0;2;1;0;0;0;false;71411;6184471261;-73.5585;45.497418;71083;6184473498;-73.56643;45.499186;0;1;2;9532910;Bus 600 : Direction Montréal;"";EXO;600 O;Terminus Sainte-Julie;rue Mansfield / rue De La Gauchetière
456316925;"{\"type\":\"LineString\",\"coordinates\":[[-73.5625386,45.4991131],[-73.5633661,45.4996899]]}";4;Boulevard Robert-Bourassa;4;50;false;true;true;false;false;false;91.0;2;0;0;0;0;false;71411;6184471261;-73.5585;45.497418;71083;6184473498;-73.56643;45.499186;0;1;2;9532910;Bus 600 : Direction Montréal;"";EXO;600 O;Terminus Sainte-Julie;rue Mansfield / rue De La Gauchetière
456316924;"{\"type\":\"LineString\",\"coordinates\":[[-73.5633661,45.4996899],[-73.564393,45.5003956]]}";5;Boulevard Robert-Bourassa;4;50;false;true;true;false;false;false;113.0;2;0;0;0;0;false;71411;6184471261;-73.5585;45.497418;71083;6184473498;-73.56643;45.499186;0;1;2;9532910;Bus 600 : Direction Montréal;"";EXO;600 O;Terminus Sainte-Julie;rue Mansfield / rue De La Gauchetière
456316923;"{\"type\":\"LineString\",\"coordinates\":[[-73.564393,45.5003956],[-73.5644762,45.5004505],[-73.5647712,45.5006451],[-73.5651992,45.5008866]]}";6;Boulevard Robert-Bourassa;4;50;false;true;true;false;false;false;84.0;2;1;0;0;0;false;71411;6184471261;-73.5585;45.497418;71083;6184473498;-73.56643;45.499186;0;1;2;9532910;Bus 600 : Direction Montréal;"";EXO;600 O;Terminus Sainte-Julie;rue Mansfield / rue De La Gauchetière
455083988;"{\"type\":\"LineString\",\"coordinates\":[[-73.5653281,45.5007117],[-73.5651992,45.5008866]]}";7;Rue de La Gauchetière Ouest;2;50;false;false;true;false;false;false;22.0;2;0;0;0;0;false;71411;6184471261;-73.5585;45.497418;71083;6184473498;-73.56643;45.499186;0;1;2;9532910;Bus 600 : Direction Montréal;"";EXO;600 O;Terminus Sainte-Julie;rue Mansfield / rue De La Gauchetière
36606095;"{\"type\":\"LineString\",\"coordinates\":[[-73.5665371,45.4991414],[-73.5663711,45.4993561],[-73.5663418,45.499394],[-73.5662163,45.4995564],[-73.5657839,45.5001157],[-73.5655998,45.5003539],[-73.5653281,45.5007117]]}";8;Rue de La Gauchetière Ouest;2;50;false;false;true;false;false;false;199.0;1;0;0;0;0;false;71411;6184471261;-73.5585;45.497418;71083;6184473498;-73.56643;45.499186;1;1;2;9532910;Bus 600 : Direction Montréal;"";EXO;600 O;Terminus Sainte-Julie;rue Mansfield / rue De La Gauchetière
