way_id;shape;index;name;nb_lanes;legal_speed;speed_zone_30;oneway;shares_bike;bike_box;bus_lane;dedicated_bus_lane;length;nb_traffic_signals;nb_crossings;nb_stops;nb_give_ways;nb_lvl_crossings;roundabout;stop_id_orig;node_id_orig;coord_x_orig;coord_y_orig;stop_id_dest;node_id_dest;coord_x_dest;coord_y_dest;nb_neighbouring_ways_bus_stop;ordre_orig;ordre_dest;id_line;line_name;colour;operator;ref;from;to
463881828;"{\"type\":\"LineString\",\"coordinates\":[[-73.7076007,45.49434],[-73.7070212,45.4947991],[-73.7061024,45.4955271]]}";1;Boulevard de la Côte-Vertu;3;50;false;true;true;false;false;false;177.0;0;0;0;0;0;false;72455;6133274296;-73.706193;45.49533;72457;6133274294;-73.6824926;45.5132045;1;1;2;9479845;Bus 40 : Direction Côte-Vertu;"";EXO;40 E;Gare Vaudreuil;Terminus Côte-Vertu
436368806;"{\"type\":\"LineString\",\"coordinates\":[[-73.7061024,45.4955271],[-73.7053988,45.4960815],[-73.7047051,45.4966282],[-73.7041265,45.4970977]]}";2;Boulevard de la Côte-Vertu;3;50;false;true;true;false;false;false;233.0;0;0;0;0;0;false;72455;6133274296;-73.706193;45.49533;72457;6133274294;-73.6824926;45.5132045;0;1;2;9479845;Bus 40 : Direction Côte-Vertu;"";EXO;40 E;Gare Vaudreuil;Terminus Côte-Vertu
452075329;"{\"type\":\"LineString\",\"coordinates\":[[-73.7041265,45.4970977],[-73.7040887,45.4971277],[-73.7040365,45.497169]]}";3;Boulevard de la Côte-Vertu;3;50;false;true;true;false;false;false;11.0;0;0;0;0;0;false;72455;6133274296;-73.706193;45.49533;72457;6133274294;-73.6824926;45.5132045;0;1;2;9479845;Bus 40 : Direction Côte-Vertu;"";EXO;40 E;Gare Vaudreuil;Terminus Côte-Vertu
681066945;"{\"type\":\"LineString\",\"coordinates\":[[-73.7040365,45.497169],[-73.7017664,45.4989691]]}";4;Boulevard de la Côte-Vertu;3;50;false;true;true;false;false;false;268.0;1;0;0;0;0;false;72455;6133274296;-73.706193;45.49533;72457;6133274294;-73.6824926;45.5132045;0;1;2;9479845;Bus 40 : Direction Côte-Vertu;"";EXO;40 E;Gare Vaudreuil;Terminus Côte-Vertu
436368797;"{\"type\":\"LineString\",\"coordinates\":[[-73.7017664,45.4989691],[-73.7013233,45.4993431]]}";5;Boulevard de la Côte-Vertu;3;50;false;true;true;false;false;false;55.0;2;0;0;0;0;false;72455;6133274296;-73.706193;45.49533;72457;6133274294;-73.6824926;45.5132045;0;1;2;9479845;Bus 40 : Direction Côte-Vertu;"";EXO;40 E;Gare Vaudreuil;Terminus Côte-Vertu
436370079;"{\"type\":\"LineString\",\"coordinates\":[[-73.7013233,45.4993431],[-73.7010779,45.499537],[-73.6995757,45.5007239]]}";6;Boulevard de la Côte-Vertu;3;50;false;true;true;false;false;false;206.0;1;0;0;0;0;false;72455;6133274296;-73.706193;45.49533;72457;6133274294;-73.6824926;45.5132045;0;1;2;9479845;Bus 40 : Direction Côte-Vertu;"";EXO;40 E;Gare Vaudreuil;Terminus Côte-Vertu
436370286;"{\"type\":\"LineString\",\"coordinates\":[[-73.6995757,45.5007239],[-73.6977172,45.5022497]]}";7;Boulevard de la Côte-Vertu;3;50;false;true;true;false;false;false;224.0;0;0;0;0;0;false;72455;6133274296;-73.706193;45.49533;72457;6133274294;-73.6824926;45.5132045;0;1;2;9479845;Bus 40 : Direction Côte-Vertu;"";EXO;40 E;Gare Vaudreuil;Terminus Côte-Vertu
436370418;"{\"type\":\"LineString\",\"coordinates\":[[-73.6977172,45.5022497],[-73.6966098,45.5031403]]}";8;Boulevard de la Côte-Vertu;3;50;false;true;true;false;false;false;132.0;0;0;0;0;0;false;72455;6133274296;-73.706193;45.49533;72457;6133274294;-73.6824926;45.5132045;0;1;2;9479845;Bus 40 : Direction Côte-Vertu;"";EXO;40 E;Gare Vaudreuil;Terminus Côte-Vertu
436370565;"{\"type\":\"LineString\",\"coordinates\":[[-73.6966098,45.5031403],[-73.6955011,45.5040319],[-73.6947493,45.5046294]]}";9;Boulevard de la Côte-Vertu;3;50;false;true;true;false;false;false;221.0;0;0;0;0;0;false;72455;6133274296;-73.706193;45.49533;72457;6133274294;-73.6824926;45.5132045;0;1;2;9479845;Bus 40 : Direction Côte-Vertu;"";EXO;40 E;Gare Vaudreuil;Terminus Côte-Vertu
22891928;"{\"type\":\"LineString\",\"coordinates\":[[-73.6947493,45.5046294],[-73.6940019,45.5052291]]}";10;Boulevard de la Côte-Vertu;3;50;false;true;true;false;false;false;89.0;0;0;0;0;0;false;72455;6133274296;-73.706193;45.49533;72457;6133274294;-73.6824926;45.5132045;0;1;2;9479845;Bus 40 : Direction Côte-Vertu;"";EXO;40 E;Gare Vaudreuil;Terminus Côte-Vertu
453486055;"{\"type\":\"LineString\",\"coordinates\":[[-73.6940019,45.5052291],[-73.692613,45.506344]]}";11;Boulevard de la Côte-Vertu;3;50;false;true;true;false;false;false;165.0;0;0;0;0;0;false;72455;6133274296;-73.706193;45.49533;72457;6133274294;-73.6824926;45.5132045;0;1;2;9479845;Bus 40 : Direction Côte-Vertu;"";EXO;40 E;Gare Vaudreuil;Terminus Côte-Vertu
453486059;"{\"type\":\"LineString\",\"coordinates\":[[-73.692613,45.506344],[-73.6924921,45.5064445]]}";12;Boulevard de la Côte-Vertu;3;50;false;true;true;false;false;false;15.0;0;0;0;0;0;false;72455;6133274296;-73.706193;45.49533;72457;6133274294;-73.6824926;45.5132045;0;1;2;9479845;Bus 40 : Direction Côte-Vertu;"";EXO;40 E;Gare Vaudreuil;Terminus Côte-Vertu
436370725;"{\"type\":\"LineString\",\"coordinates\":[[-73.6924921,45.5064445],[-73.6917385,45.5070016],[-73.6899023,45.508453]]}";13;Boulevard de la Côte-Vertu;3;50;false;true;true;false;false;false;302.0;0;0;0;0;0;false;72455;6133274296;-73.706193;45.49533;72457;6133274294;-73.6824926;45.5132045;0;1;2;9479845;Bus 40 : Direction Côte-Vertu;"";EXO;40 E;Gare Vaudreuil;Terminus Côte-Vertu
436364533;"{\"type\":\"LineString\",\"coordinates\":[[-73.6899023,45.508453],[-73.6893227,45.5089093],[-73.6887624,45.5093505],[-73.6879626,45.5099802]]}";14;Boulevard de la Côte-Vertu;3;50;false;true;true;false;false;false;228.0;0;0;0;0;0;false;72455;6133274296;-73.706193;45.49533;72457;6133274294;-73.6824926;45.5132045;0;1;2;9479845;Bus 40 : Direction Côte-Vertu;"";EXO;40 E;Gare Vaudreuil;Terminus Côte-Vertu
436371821;"{\"type\":\"LineString\",\"coordinates\":[[-73.6879626,45.5099802],[-73.6878772,45.5100495]]}";15;Boulevard de la Côte-Vertu;3;50;false;true;true;false;false;false;11.0;0;0;0;0;0;false;72455;6133274296;-73.706193;45.49533;72457;6133274294;-73.6824926;45.5132045;0;1;2;9479845;Bus 40 : Direction Côte-Vertu;"";EXO;40 E;Gare Vaudreuil;Terminus Côte-Vertu
436375273;"{\"type\":\"LineString\",\"coordinates\":[[-73.6878772,45.5100495],[-73.6874963,45.5103626],[-73.6874231,45.5104224],[-73.6872819,45.5105378],[-73.6865971,45.5110981]]}";16;Boulevard de la Côte-Vertu;3;50;false;true;true;false;false;false;154.0;1;0;0;0;0;false;72455;6133274296;-73.706193;45.49533;72457;6133274294;-73.6824926;45.5132045;0;1;2;9479845;Bus 40 : Direction Côte-Vertu;"";EXO;40 E;Gare Vaudreuil;Terminus Côte-Vertu
464907154;"{\"type\":\"LineString\",\"coordinates\":[[-73.6865971,45.5110981],[-73.6865061,45.5111727]]}";17;Boulevard de la Côte-Vertu Ouest;3;50;false;true;true;false;false;false;11.0;2;0;0;0;0;false;72455;6133274296;-73.706193;45.49533;72457;6133274294;-73.6824926;45.5132045;0;1;2;9479845;Bus 40 : Direction Côte-Vertu;"";EXO;40 E;Gare Vaudreuil;Terminus Côte-Vertu
464907153;"{\"type\":\"LineString\",\"coordinates\":[[-73.6865061,45.5111727],[-73.6857021,45.5118016]]}";18;Boulevard de la Côte-Vertu;3;50;false;true;true;false;false;false;94.0;1;0;0;0;0;false;72455;6133274296;-73.706193;45.49533;72457;6133274294;-73.6824926;45.5132045;0;1;2;9479845;Bus 40 : Direction Côte-Vertu;"";EXO;40 E;Gare Vaudreuil;Terminus Côte-Vertu
453526024;"{\"type\":\"LineString\",\"coordinates\":[[-73.6857021,45.5118016],[-73.6854195,45.5120227]]}";19;Boulevard de la Côte-Vertu;3;50;false;true;true;false;false;false;34.0;0;0;0;0;0;false;72455;6133274296;-73.706193;45.49533;72457;6133274294;-73.6824926;45.5132045;0;1;2;9479845;Bus 40 : Direction Côte-Vertu;"";EXO;40 E;Gare Vaudreuil;Terminus Côte-Vertu
436375480;"{\"type\":\"LineString\",\"coordinates\":[[-73.6854195,45.5120227],[-73.6850565,45.5123066]]}";20;Boulevard de la Côte-Vertu;3;50;false;true;true;false;false;false;43.0;0;0;0;0;0;false;72455;6133274296;-73.706193;45.49533;72457;6133274294;-73.6824926;45.5132045;0;1;2;9479845;Bus 40 : Direction Côte-Vertu;"";EXO;40 E;Gare Vaudreuil;Terminus Côte-Vertu
453491962;"{\"type\":\"LineString\",\"coordinates\":[[-73.6850565,45.5123066],[-73.6846265,45.5120318],[-73.6843912,45.5118814]]}";21;Rue Crevier;1;50;false;true;true;false;false;false;71.0;0;0;0;0;0;false;72455;6133274296;-73.706193;45.49533;72457;6133274294;-73.6824926;45.5132045;0;1;2;9479845;Bus 40 : Direction Côte-Vertu;"";EXO;40 E;Gare Vaudreuil;Terminus Côte-Vertu
39903046;"{\"type\":\"LineString\",\"coordinates\":[[-73.6840917,45.5116919],[-73.6843912,45.5118814]]}";22;Rue Crevier;1;50;false;false;true;false;false;false;32.0;0;0;0;0;0;false;72455;6133274296;-73.706193;45.49533;72457;6133274294;-73.6824926;45.5132045;0;1;2;9479845;Bus 40 : Direction Côte-Vertu;"";EXO;40 E;Gare Vaudreuil;Terminus Côte-Vertu
77784363;"{\"type\":\"LineString\",\"coordinates\":[[-73.6840917,45.5116919],[-73.6834363,45.5122041],[-73.6825451,45.5129005]]}";23;Boulevard Édouard-Laurin;1;50;false;false;true;false;false;false;181.0;0;0;0;0;0;false;72455;6133274296;-73.706193;45.49533;72457;6133274294;-73.6824926;45.5132045;0;1;2;9479845;Bus 40 : Direction Côte-Vertu;"";EXO;40 E;Gare Vaudreuil;Terminus Côte-Vertu
464935835;"{\"type\":\"LineString\",\"coordinates\":[[-73.6828242,45.5130699],[-73.6825451,45.5129005]]}";24;Rue Gohier;1;50;false;false;true;false;false;false;29.0;0;0;0;0;0;false;72455;6133274296;-73.706193;45.49533;72457;6133274294;-73.6824926;45.5132045;1;1;2;9479845;Bus 40 : Direction Côte-Vertu;"";EXO;40 E;Gare Vaudreuil;Terminus Côte-Vertu
