way_id;shape;index;name;nb_lanes;legal_speed;speed_zone_30;oneway;shares_bike;bike_box;bus_lane;dedicated_bus_lane;length;nb_traffic_signals;nb_crossings;nb_stops;nb_give_ways;nb_lvl_crossings;roundabout;stop_id_orig;node_id_orig;coord_x_orig;coord_y_orig;stop_id_dest;node_id_dest;coord_x_dest;coord_y_dest;nb_neighbouring_ways_bus_stop;ordre_orig;ordre_dest;id_line;line_name;colour;operator;ref;from;to
26251617;"{\"type\":\"LineString\",\"coordinates\":[[3.0044815,36.7526953],[3.0046058,36.7532525],[3.0046437,36.7534386],[3.004656,36.7534993],[3.0046644,36.7535531],[3.0046153,36.7536894]]}";1;"";1;50;false;true;true;false;false;false;114.0;0;0;0;0;0;false;Ben Aknoun Station;5358485987;3.0047581;36.7534237;Mokrani 1;1669627886;3.0085616;36.7563696;1;0;1;7966499;Bus: Ben Aknoun -> Place des Martyrs;"";ETUSA;50;Ben Aknoun;Place des Martyrs
26251466;"{\"type\":\"LineString\",\"coordinates\":[[3.0084278,36.7564106],[3.0082848,36.7560578],[3.0082189,36.7558953],[3.0081155,36.755777],[3.00799,36.7556731],[3.0079022,36.7556153],[3.0076773,36.7554957],[3.0075514,36.755437],[3.0075183,36.7554177],[3.0071611,36.7552456],[3.0070761,36.7552037],[3.0066352,36.7549879],[3.0061732,36.7547753],[3.0058074,36.75461],[3.0055261,36.7544667],[3.0053492,36.7543581],[3.0050792,36.7541671],[3.0049147,36.7540353],[3.0047998,36.7539255],[3.0047039,36.753799],[3.0046153,36.7536894]]}";2;Rue Ameur Haddad;1;50;false;false;true;false;false;false;476.0;0;0;0;0;0;false;Ben Aknoun Station;5358485987;3.0047581;36.7534237;Mokrani 1;1669627886;3.0085616;36.7563696;0;0;1;7966499;Bus: Ben Aknoun -> Place des Martyrs;"";ETUSA;50;Ben Aknoun;Place des Martyrs
26251402;"{\"type\":\"LineString\",\"coordinates\":[[3.0084278,36.7564106],[3.008694,36.7566004],[3.0087927,36.756699],[3.0093065,36.7570676],[3.0098708,36.7573895],[3.0103944,36.7576977],[3.011062,36.7580779],[3.0116448,36.7583833],[3.012389,36.758754],[3.0126706,36.7588983],[3.0134104,36.7594656],[3.0137811,36.7596939]]}";3;Avenue Khalef Mustapha;2;40;false;false;true;false;false;false;305.5;0;0;0;0;0;false;Ben Aknoun Station;5358485987;3.0047581;36.7534237;Mokrani 1;1669627886;3.0085616;36.7563696;1;0;1;7966499;Bus: Ben Aknoun -> Place des Martyrs;"";ETUSA;50;Ben Aknoun;Place des Martyrs
26251466;"{\"type\":\"LineString\",\"coordinates\":[[3.0084278,36.7564106],[3.0082848,36.7560578],[3.0082189,36.7558953],[3.0081155,36.755777],[3.00799,36.7556731],[3.0079022,36.7556153],[3.0076773,36.7554957],[3.0075514,36.755437],[3.0075183,36.7554177],[3.0071611,36.7552456],[3.0070761,36.7552037],[3.0066352,36.7549879],[3.0061732,36.7547753],[3.0058074,36.75461],[3.0055261,36.7544667],[3.0053492,36.7543581],[3.0050792,36.7541671],[3.0049147,36.7540353],[3.0047998,36.7539255],[3.0047039,36.753799],[3.0046153,36.7536894]]}";1;Rue Ameur Haddad;1;50;false;false;true;false;false;false;476.0;0;0;0;0;0;false;Mokrani 1;1669627886;3.0085616;36.7563696;Cité jeunes filles;3836214463;3.0142433;36.7599543;2;1;2;7966499;Bus: Ben Aknoun -> Place des Martyrs;"";ETUSA;50;Ben Aknoun;Place des Martyrs
26251402;"{\"type\":\"LineString\",\"coordinates\":[[3.0084278,36.7564106],[3.008694,36.7566004],[3.0087927,36.756699],[3.0093065,36.7570676],[3.0098708,36.7573895],[3.0103944,36.7576977],[3.011062,36.7580779],[3.0116448,36.7583833],[3.012389,36.758754],[3.0126706,36.7588983],[3.0134104,36.7594656],[3.0137811,36.7596939]]}";2;Avenue Khalef Mustapha;2;40;false;false;true;false;false;false;611.0;0;0;0;0;0;false;Mokrani 1;1669627886;3.0085616;36.7563696;Cité jeunes filles;3836214463;3.0142433;36.7599543;0;1;2;7966499;Bus: Ben Aknoun -> Place des Martyrs;"";ETUSA;50;Ben Aknoun;Place des Martyrs
232884810;"{\"type\":\"LineString\",\"coordinates\":[[3.0137464,36.7597188],[3.0137811,36.7596939],[3.0138099,36.7596825],[3.0138507,36.7596758],[3.0138922,36.7596786],[3.013931,36.7596907],[3.0139639,36.7597111],[3.0139861,36.759735],[3.014,36.7597626],[3.0140047,36.7597921],[3.0139999,36.7598216],[3.013986,36.7598491],[3.0139724,36.7598651],[3.0139558,36.759879],[3.0139365,36.7598906],[3.0139151,36.7598994],[3.0138922,36.7599053],[3.0138551,36.7599083],[3.0138183,36.7599036],[3.0137751,36.7598867],[3.0137411,36.7598595],[3.0137201,36.7598248],[3.0137142,36.7597878],[3.0137233,36.7597512],[3.0137464,36.7597188]]}";3;"";1;30;false;false;true;false;false;false;83.0;0;0;0;0;0;true;Mokrani 1;1669627886;3.0085616;36.7563696;Cité jeunes filles;3836214463;3.0142433;36.7599543;0;1;2;7966499;Bus: Ben Aknoun -> Place des Martyrs;"";ETUSA;50;Ben Aknoun;Place des Martyrs
225430546;"{\"type\":\"LineString\",\"coordinates\":[[3.013986,36.7598491],[3.0141418,36.7599958]]}";4;Chemin Gadouche Abdelkader;1;50;false;true;true;false;false;false;22.0;0;1;0;0;0;false;Mokrani 1;1669627886;3.0085616;36.7563696;Cité jeunes filles;3836214463;3.0142433;36.7599543;0;1;2;7966499;Bus: Ben Aknoun -> Place des Martyrs;"";ETUSA;50;Ben Aknoun;Place des Martyrs
26251451;"{\"type\":\"LineString\",\"coordinates\":[[3.0141418,36.7599958],[3.0141477,36.7600005],[3.0141752,36.7600191],[3.0143867,36.7601619],[3.0146257,36.7603164],[3.0149312,36.7604886],[3.0153962,36.760735],[3.0157043,36.7609466],[3.0158824,36.7610645],[3.0164245,36.7614615],[3.0165682,36.7615735],[3.0169077,36.76181],[3.0169198,36.7618183],[3.0170239,36.7618895],[3.017184,36.7619868],[3.017372,36.7620754],[3.0175569,36.7621276],[3.0178468,36.7621936],[3.018317,36.7623462],[3.0188485,36.7625123],[3.0191212,36.7626298],[3.0191659,36.7626513],[3.0192742,36.7627117],[3.0194438,36.762828],[3.0199329,36.7633021],[3.0200343,36.7633782],[3.0205123,36.7637415],[3.0206817,36.7638578],[3.0209051,36.763956],[3.0211085,36.7640181],[3.0214728,36.7641018],[3.0220758,36.7642418],[3.0221204,36.7642522],[3.0222003,36.7642731]]}";5;Avenue Khalef Mustapha;1;50;false;false;true;false;false;false;889.0;0;3;0;0;0;false;Mokrani 1;1669627886;3.0085616;36.7563696;Cité jeunes filles;3836214463;3.0142433;36.7599543;2;1;2;7966499;Bus: Ben Aknoun -> Place des Martyrs;"";ETUSA;50;Ben Aknoun;Place des Martyrs
225430546;"{\"type\":\"LineString\",\"coordinates\":[[3.013986,36.7598491],[3.0141418,36.7599958]]}";1;Chemin Gadouche Abdelkader;1;50;false;true;true;false;false;false;22.0;0;1;0;0;0;false;Cité jeunes filles;3836214463;3.0142433;36.7599543;El Biar Stade;1166459382;3.022887;36.7644625;2;2;3;7966499;Bus: Ben Aknoun -> Place des Martyrs;"";ETUSA;50;Ben Aknoun;Place des Martyrs
26251451;"{\"type\":\"LineString\",\"coordinates\":[[3.0141418,36.7599958],[3.0141477,36.7600005],[3.0141752,36.7600191],[3.0143867,36.7601619],[3.0146257,36.7603164],[3.0149312,36.7604886],[3.0153962,36.760735],[3.0157043,36.7609466],[3.0158824,36.7610645],[3.0164245,36.7614615],[3.0165682,36.7615735],[3.0169077,36.76181],[3.0169198,36.7618183],[3.0170239,36.7618895],[3.017184,36.7619868],[3.017372,36.7620754],[3.0175569,36.7621276],[3.0178468,36.7621936],[3.018317,36.7623462],[3.0188485,36.7625123],[3.0191212,36.7626298],[3.0191659,36.7626513],[3.0192742,36.7627117],[3.0194438,36.762828],[3.0199329,36.7633021],[3.0200343,36.7633782],[3.0205123,36.7637415],[3.0206817,36.7638578],[3.0209051,36.763956],[3.0211085,36.7640181],[3.0214728,36.7641018],[3.0220758,36.7642418],[3.0221204,36.7642522],[3.0222003,36.7642731]]}";2;Avenue Khalef Mustapha;1;50;false;false;true;false;false;false;889.0;0;3;0;0;0;false;Cité jeunes filles;3836214463;3.0142433;36.7599543;El Biar Stade;1166459382;3.022887;36.7644625;0;2;3;7966499;Bus: Ben Aknoun -> Place des Martyrs;"";ETUSA;50;Ben Aknoun;Place des Martyrs
633387914;"{\"type\":\"LineString\",\"coordinates\":[[3.0222003,36.7642731],[3.0222611,36.7642446],[3.0222983,36.7642422],[3.0223379,36.7642539],[3.022377,36.7642756],[3.0223836,36.7643008],[3.0223814,36.7643299]]}";3;نهج مصطفى خالف;1;50;false;false;true;false;false;false;25.0;0;0;0;0;0;false;Cité jeunes filles;3836214463;3.0142433;36.7599543;El Biar Stade;1166459382;3.022887;36.7644625;0;2;3;7966499;Bus: Ben Aknoun -> Place des Martyrs;"";ETUSA;50;Ben Aknoun;Place des Martyrs
269150496;"{\"type\":\"LineString\",\"coordinates\":[[3.0226071,36.7644055],[3.0225073,36.7643712],[3.0224912,36.7643672],[3.0223814,36.7643299]]}";4;نهج مصطفى خالف;1;50;false;false;true;false;false;false;23.0;0;0;0;0;0;false;Cité jeunes filles;3836214463;3.0142433;36.7599543;El Biar Stade;1166459382;3.022887;36.7644625;0;2;3;7966499;Bus: Ben Aknoun -> Place des Martyrs;"";ETUSA;50;Ben Aknoun;Place des Martyrs
100983695;"{\"type\":\"LineString\",\"coordinates\":[[3.025135,36.765901],[3.0248615,36.7657001],[3.0243776,36.765242],[3.0240327,36.7650168],[3.0237242,36.764861],[3.0234018,36.7647078],[3.0228631,36.7645029],[3.0226071,36.7644055]]}";5;Avenue Khalef Mustapha;1;50;false;false;true;false;false;false;288.0;0;0;0;0;0;false;Cité jeunes filles;3836214463;3.0142433;36.7599543;El Biar Stade;1166459382;3.022887;36.7644625;2;2;3;7966499;Bus: Ben Aknoun -> Place des Martyrs;"";ETUSA;50;Ben Aknoun;Place des Martyrs
100983695;"{\"type\":\"LineString\",\"coordinates\":[[3.025135,36.765901],[3.0248615,36.7657001],[3.0243776,36.765242],[3.0240327,36.7650168],[3.0237242,36.764861],[3.0234018,36.7647078],[3.0228631,36.7645029],[3.0226071,36.7644055]]}";1;Avenue Khalef Mustapha;1;50;false;false;true;false;false;false;144.0;0;0;0;0;0;false;El Biar Stade;1166459382;3.022887;36.7644625;LES PINS EL BIAR;1492357913;3.0308799;36.7673908;1;3;4;7966499;Bus: Ben Aknoun -> Place des Martyrs;"";ETUSA;50;Ben Aknoun;Place des Martyrs
26251392;"{\"type\":\"LineString\",\"coordinates\":[[3.025135,36.765901],[3.0252411,36.7659583],[3.0255663,36.7661056],[3.0268248,36.7665452],[3.026907,36.7665751],[3.0280238,36.7670408]]}";2;Avenue Khalef Mustapha;1;50;false;true;true;false;false;false;292.0;0;0;0;0;0;false;El Biar Stade;1166459382;3.022887;36.7644625;LES PINS EL BIAR;1492357913;3.0308799;36.7673908;0;3;4;7966499;Bus: Ben Aknoun -> Place des Martyrs;"";ETUSA;50;Ben Aknoun;Place des Martyrs
26250795;"{\"type\":\"LineString\",\"coordinates\":[[3.0280238,36.7670408],[3.0281083,36.7669721],[3.0281847,36.7668474],[3.0282889,36.7665906],[3.0286757,36.7658171]]}";3;Rue Mohamed Chaâbane;2;30;false;true;true;false;false;false;151.0;0;0;0;0;0;false;El Biar Stade;1166459382;3.022887;36.7644625;LES PINS EL BIAR;1492357913;3.0308799;36.7673908;0;3;4;7966499;Bus: Ben Aknoun -> Place des Martyrs;"";ETUSA;50;Ben Aknoun;Place des Martyrs
217588574;"{\"type\":\"LineString\",\"coordinates\":[[3.0286757,36.7658171],[3.0286505,36.7657926],[3.028634,36.7657637],[3.0286272,36.7657236],[3.0286368,36.7656839],[3.028662,36.7656488],[3.0286999,36.765622],[3.0287726,36.7656036],[3.0288475,36.7656153],[3.0289062,36.7656542]]}";4;"";1;50;false;false;true;false;false;false;47.0;0;0;0;0;0;true;El Biar Stade;1166459382;3.022887;36.7644625;LES PINS EL BIAR;1492357913;3.0308799;36.7673908;0;3;4;7966499;Bus: Ben Aknoun -> Place des Martyrs;"";ETUSA;50;Ben Aknoun;Place des Martyrs
29221661;"{\"type\":\"LineString\",\"coordinates\":[[3.0289062,36.7656542],[3.0296784,36.7654274]]}";5;Avenue Othmane Abou Saïd;2;30;false;true;true;false;false;false;75.0;0;0;0;0;0;false;El Biar Stade;1166459382;3.022887;36.7644625;LES PINS EL BIAR;1492357913;3.0308799;36.7673908;0;3;4;7966499;Bus: Ben Aknoun -> Place des Martyrs;"";ETUSA;50;Ben Aknoun;Place des Martyrs
100983967;"{\"type\":\"LineString\",\"coordinates\":[[3.0296784,36.7654274],[3.0297272,36.7655481],[3.0298629,36.7657884],[3.029923,36.7659011],[3.0299516,36.7659549],[3.0302832,36.7665871],[3.0306877,36.7672569],[3.0307886,36.7674345],[3.0308128,36.7674989],[3.0308626,36.7677972],[3.0308226,36.7679395],[3.0307695,36.7680478],[3.0307198,36.7681284],[3.0306918,36.7681751],[3.0305984,36.7683323],[3.0304488,36.7685416]]}";6;Rue Chabane Mohamed;3;50;false;true;true;false;false;false;190.5;0;1;0;0;0;false;El Biar Stade;1166459382;3.022887;36.7644625;LES PINS EL BIAR;1492357913;3.0308799;36.7673908;1;3;4;7966499;Bus: Ben Aknoun -> Place des Martyrs;"";ETUSA;50;Ben Aknoun;Place des Martyrs
100983967;"{\"type\":\"LineString\",\"coordinates\":[[3.0296784,36.7654274],[3.0297272,36.7655481],[3.0298629,36.7657884],[3.029923,36.7659011],[3.0299516,36.7659549],[3.0302832,36.7665871],[3.0306877,36.7672569],[3.0307886,36.7674345],[3.0308128,36.7674989],[3.0308626,36.7677972],[3.0308226,36.7679395],[3.0307695,36.7680478],[3.0307198,36.7681284],[3.0306918,36.7681751],[3.0305984,36.7683323],[3.0304488,36.7685416]]}";1;Rue Chabane Mohamed;3;50;false;true;true;false;false;false;190.5;0;1;0;0;0;false;LES PINS EL BIAR;1492357913;3.0308799;36.7673908;Saint Raphaël;1166446505;3.0372229;36.7702695;1;4;5;7966499;Bus: Ben Aknoun -> Place des Martyrs;"";ETUSA;50;Ben Aknoun;Place des Martyrs
26250758;"{\"type\":\"LineString\",\"coordinates\":[[3.0304488,36.7685416],[3.0305307,36.768637],[3.0306842,36.768869]]}";2;Avenue Bounaama Djilali;3;50;false;true;true;false;false;false;43.0;0;0;0;0;0;false;LES PINS EL BIAR;1492357913;3.0308799;36.7673908;Saint Raphaël;1166446505;3.0372229;36.7702695;0;4;5;7966499;Bus: Ben Aknoun -> Place des Martyrs;"";ETUSA;50;Ben Aknoun;Place des Martyrs
28512864;"{\"type\":\"LineString\",\"coordinates\":[[3.0306842,36.768869],[3.0308149,36.7691139],[3.0309227,36.7693262],[3.0309602,36.7695292]]}";3;Avenue Bounaama Djilali;3;50;false;true;true;false;false;false;79.0;0;0;0;0;0;false;LES PINS EL BIAR;1492357913;3.0308799;36.7673908;Saint Raphaël;1166446505;3.0372229;36.7702695;0;4;5;7966499;Bus: Ben Aknoun -> Place des Martyrs;"";ETUSA;50;Ben Aknoun;Place des Martyrs
26250602;"{\"type\":\"LineString\",\"coordinates\":[[3.0397956,36.7711336],[3.0397352,36.771115],[3.039038,36.7709006],[3.0388051,36.770835],[3.0384742,36.7707418],[3.0379954,36.7705969],[3.0377152,36.7705057],[3.0374714,36.7704222],[3.0371924,36.7703266],[3.0368904,36.7702232],[3.036676,36.7701251],[3.0356023,36.7696341],[3.0352953,36.7695656],[3.0349765,36.7695125],[3.0348131,36.7695032],[3.0344587,36.7694695],[3.0339245,36.7694289],[3.0338441,36.7694228],[3.0335872,36.7694097],[3.0332626,36.7693984],[3.0321232,36.7694564],[3.031453,36.7695032],[3.0314087,36.7695032],[3.0309602,36.7695292]]}";4;Avenue Khodja Mustapha dit Ali;2;50;false;false;true;false;false;false;419.5;0;2;0;0;0;false;LES PINS EL BIAR;1492357913;3.0308799;36.7673908;Saint Raphaël;1166446505;3.0372229;36.7702695;1;4;5;7966499;Bus: Ben Aknoun -> Place des Martyrs;"";ETUSA;50;Ben Aknoun;Place des Martyrs
26250602;"{\"type\":\"LineString\",\"coordinates\":[[3.0397956,36.7711336],[3.0397352,36.771115],[3.039038,36.7709006],[3.0388051,36.770835],[3.0384742,36.7707418],[3.0379954,36.7705969],[3.0377152,36.7705057],[3.0374714,36.7704222],[3.0371924,36.7703266],[3.0368904,36.7702232],[3.036676,36.7701251],[3.0356023,36.7696341],[3.0352953,36.7695656],[3.0349765,36.7695125],[3.0348131,36.7695032],[3.0344587,36.7694695],[3.0339245,36.7694289],[3.0338441,36.7694228],[3.0335872,36.7694097],[3.0332626,36.7693984],[3.0321232,36.7694564],[3.031453,36.7695032],[3.0314087,36.7695032],[3.0309602,36.7695292]]}";1;Avenue Khodja Mustapha dit Ali;2;50;false;false;true;false;false;false;419.5;0;2;0;0;0;false;Saint Raphaël;1166446505;3.0372229;36.7702695;Scala;1166443206;3.0423981;36.7744406;1;5;6;7966499;Bus: Ben Aknoun -> Place des Martyrs;"";ETUSA;50;Ben Aknoun;Place des Martyrs
26250637;"{\"type\":\"LineString\",\"coordinates\":[[3.0397956,36.7711336],[3.0403279,36.771412],[3.040657,36.7716853],[3.0409469,36.7720178],[3.0412479,36.7722908],[3.0416013,36.7725121],[3.0418493,36.772633],[3.0420231,36.7727717],[3.0421339,36.7729347],[3.042151,36.7731272],[3.0420784,36.7735373],[3.0420529,36.7737366],[3.0422353,36.7741233],[3.0423074,36.7744533],[3.0423104,36.774467],[3.0423164,36.7744989],[3.0423237,36.7745377],[3.042364,36.7747506],[3.0424499,36.7749053],[3.0424999,36.7749387],[3.0425893,36.7749397],[3.0427395,36.7749053],[3.0427862,36.7747979],[3.0427862,36.7746947],[3.0425815,36.7742557],[3.0425559,36.7742009],[3.0424175,36.773904],[3.0423889,36.7737439],[3.0424317,36.7736429],[3.0425028,36.7735579],[3.042606,36.7734913],[3.0426198,36.7734867],[3.0427347,36.7734482],[3.0429577,36.7733722],[3.0431388,36.7733199],[3.0432377,36.7732913],[3.0432667,36.7732829],[3.0434556,36.7732737],[3.0437288,36.7733011],[3.044005,36.7733402],[3.0442275,36.7734107],[3.0443759,36.7735132],[3.0444895,36.7736412],[3.0447843,36.7740617],[3.0450674,36.774486],[3.04554,36.7750333],[3.0458402,36.7753766],[3.0460918,36.7756276],[3.046457,36.7759024],[3.0466302,36.7760125],[3.0467895,36.7760691],[3.0468035,36.776072],[3.0473734,36.7761896],[3.0482003,36.7764038]]}";2;نهج مليكة قايد;2;50;false;false;true;false;false;false;697.5;0;3;0;0;0;false;Saint Raphaël;1166446505;3.0372229;36.7702695;Scala;1166443206;3.0423981;36.7744406;1;5;6;7966499;Bus: Ben Aknoun -> Place des Martyrs;"";ETUSA;50;Ben Aknoun;Place des Martyrs
26250637;"{\"type\":\"LineString\",\"coordinates\":[[3.0397956,36.7711336],[3.0403279,36.771412],[3.040657,36.7716853],[3.0409469,36.7720178],[3.0412479,36.7722908],[3.0416013,36.7725121],[3.0418493,36.772633],[3.0420231,36.7727717],[3.0421339,36.7729347],[3.042151,36.7731272],[3.0420784,36.7735373],[3.0420529,36.7737366],[3.0422353,36.7741233],[3.0423074,36.7744533],[3.0423104,36.774467],[3.0423164,36.7744989],[3.0423237,36.7745377],[3.042364,36.7747506],[3.0424499,36.7749053],[3.0424999,36.7749387],[3.0425893,36.7749397],[3.0427395,36.7749053],[3.0427862,36.7747979],[3.0427862,36.7746947],[3.0425815,36.7742557],[3.0425559,36.7742009],[3.0424175,36.773904],[3.0423889,36.7737439],[3.0424317,36.7736429],[3.0425028,36.7735579],[3.042606,36.7734913],[3.0426198,36.7734867],[3.0427347,36.7734482],[3.0429577,36.7733722],[3.0431388,36.7733199],[3.0432377,36.7732913],[3.0432667,36.7732829],[3.0434556,36.7732737],[3.0437288,36.7733011],[3.044005,36.7733402],[3.0442275,36.7734107],[3.0443759,36.7735132],[3.0444895,36.7736412],[3.0447843,36.7740617],[3.0450674,36.774486],[3.04554,36.7750333],[3.0458402,36.7753766],[3.0460918,36.7756276],[3.046457,36.7759024],[3.0466302,36.7760125],[3.0467895,36.7760691],[3.0468035,36.776072],[3.0473734,36.7761896],[3.0482003,36.7764038]]}";1;نهج مليكة قايد;2;50;false;false;true;false;false;false;697.5;0;3;0;0;0;false;FORT L'EMPREUR;1166465446;3.0448852;36.7740202;El Aourassi;1166465625;3.0485798;36.776565;1;7;8;7966499;Bus: Ben Aknoun -> Place des Martyrs;"";ETUSA;50;Ben Aknoun;Place des Martyrs
26250646;"{\"type\":\"LineString\",\"coordinates\":[[3.0482003,36.7764038],[3.0482323,36.7764131],[3.0483277,36.7764589],[3.0485456,36.7765991],[3.0485856,36.7766249],[3.0490188,36.7769151],[3.0493148,36.777126],[3.049453,36.7772814],[3.0496112,36.777649],[3.0498373,36.7782375]]}";2;نهج طالب محمد;2;50;false;false;true;false;false;false;132.5;0;0;0;0;0;false;FORT L'EMPREUR;1166465446;3.0448852;36.7740202;El Aourassi;1166465625;3.0485798;36.776565;1;7;8;7966499;Bus: Ben Aknoun -> Place des Martyrs;"";ETUSA;50;Ben Aknoun;Place des Martyrs
26250646;"{\"type\":\"LineString\",\"coordinates\":[[3.0482003,36.7764038],[3.0482323,36.7764131],[3.0483277,36.7764589],[3.0485456,36.7765991],[3.0485856,36.7766249],[3.0490188,36.7769151],[3.0493148,36.777126],[3.049453,36.7772814],[3.0496112,36.777649],[3.0498373,36.7782375]]}";1;نهج طالب محمد;2;50;false;false;true;false;false;false;132.5;0;0;0;0;0;false;El Aourassi;1166465625;3.0485798;36.776565;CHU AIT ALI IDIR;5454944362;3.0519783;36.7849221;1;8;9;7966499;Bus: Ben Aknoun -> Place des Martyrs;"";ETUSA;50;Ben Aknoun;Place des Martyrs
26250672;"{\"type\":\"LineString\",\"coordinates\":[[3.0498373,36.7782375],[3.0499334,36.7783467],[3.0500355,36.7784446],[3.050184,36.7785039]]}";2;نهج طالب محمد;1;50;false;true;true;false;false;false;45.0;0;1;0;0;0;false;El Aourassi;1166465625;3.0485798;36.776565;CHU AIT ALI IDIR;5454944362;3.0519783;36.7849221;0;8;9;7966499;Bus: Ben Aknoun -> Place des Martyrs;"";ETUSA;50;Ben Aknoun;Place des Martyrs
26250655;"{\"type\":\"LineString\",\"coordinates\":[[3.0503319,36.7785864],[3.0503581,36.7786603],[3.0503506,36.7786878],[3.0503358,36.7787421],[3.0502927,36.7787879],[3.0502614,36.7788071],[3.050195,36.7788287],[3.0501474,36.7788323],[3.0500772,36.778821],[3.0500224,36.7787956],[3.0499753,36.7787523],[3.0499498,36.7786999],[3.0499457,36.7786665],[3.0499595,36.7786078],[3.0499961,36.7785589],[3.0500517,36.7785227],[3.0501124,36.778505],[3.050184,36.7785039],[3.0502561,36.7785245],[3.0503107,36.7785616],[3.0503319,36.7785864]]}";3;دوار بن غانا بوعلام;1;50;false;false;true;false;false;false;117.0;0;0;0;0;0;true;El Aourassi;1166465625;3.0485798;36.776565;CHU AIT ALI IDIR;5454944362;3.0519783;36.7849221;0;8;9;7966499;Bus: Ben Aknoun -> Place des Martyrs;"";ETUSA;50;Ben Aknoun;Place des Martyrs
555385967;"{\"type\":\"LineString\",\"coordinates\":[[3.0500224,36.7787956],[3.0499584,36.7788189],[3.0497843,36.7788018],[3.0497065,36.7787867],[3.0496078,36.7787355]]}";4;شارع بن غانا بوعلام;1;50;false;true;true;false;false;false;41.0;0;0;0;0;0;false;El Aourassi;1166465625;3.0485798;36.776565;CHU AIT ALI IDIR;5454944362;3.0519783;36.7849221;0;8;9;7966499;Bus: Ben Aknoun -> Place des Martyrs;"";ETUSA;50;Ben Aknoun;Place des Martyrs
26453577;"{\"type\":\"LineString\",\"coordinates\":[[3.0496078,36.7787355],[3.0494464,36.7788106],[3.0493445,36.7788695],[3.0492305,36.7789575],[3.0491752,36.7790309],[3.0490697,36.7793245],[3.049013,36.7796451],[3.0490194,36.7798148],[3.0490599,36.7799651],[3.0496423,36.7807512],[3.0496455,36.7807606],[3.0500187,36.7818614],[3.0504463,36.782405],[3.0505139,36.7825369],[3.0505322,36.7827161],[3.0504073,36.7832755],[3.0504632,36.783423],[3.0505361,36.7835261],[3.0507576,36.7836785],[3.0512084,36.7839316],[3.0513383,36.784039],[3.0514554,36.7841883],[3.0518537,36.7848647],[3.05192,36.784942],[3.0520749,36.7850345],[3.0524204,36.7851677],[3.0526828,36.7852559],[3.0531111,36.7854248],[3.0532985,36.785542],[3.0539952,36.7862979],[3.0540681,36.7863377],[3.0542054,36.7863789]]}";5;شارع بن غانا بوعلام;1;50;false;false;true;false;false;false;536.0;0;0;0;0;0;false;El Aourassi;1166465625;3.0485798;36.776565;CHU AIT ALI IDIR;5454944362;3.0519783;36.7849221;1;8;9;7966499;Bus: Ben Aknoun -> Place des Martyrs;"";ETUSA;50;Ben Aknoun;Place des Martyrs
26453577;"{\"type\":\"LineString\",\"coordinates\":[[3.0496078,36.7787355],[3.0494464,36.7788106],[3.0493445,36.7788695],[3.0492305,36.7789575],[3.0491752,36.7790309],[3.0490697,36.7793245],[3.049013,36.7796451],[3.0490194,36.7798148],[3.0490599,36.7799651],[3.0496423,36.7807512],[3.0496455,36.7807606],[3.0500187,36.7818614],[3.0504463,36.782405],[3.0505139,36.7825369],[3.0505322,36.7827161],[3.0504073,36.7832755],[3.0504632,36.783423],[3.0505361,36.7835261],[3.0507576,36.7836785],[3.0512084,36.7839316],[3.0513383,36.784039],[3.0514554,36.7841883],[3.0518537,36.7848647],[3.05192,36.784942],[3.0520749,36.7850345],[3.0524204,36.7851677],[3.0526828,36.7852559],[3.0531111,36.7854248],[3.0532985,36.785542],[3.0539952,36.7862979],[3.0540681,36.7863377],[3.0542054,36.7863789]]}";1;شارع بن غانا بوعلام;1;50;false;false;true;false;false;false;536.0;0;0;0;0;0;false;CHU AIT ALI IDIR;5454944362;3.0519783;36.7849221;Sidi Abd Ar-Rahman;5358485986;3.0588421;36.7882946;1;9;10;7966499;Bus: Ben Aknoun -> Place des Martyrs;"";ETUSA;50;Ben Aknoun;Place des Martyrs
26453583;"{\"type\":\"LineString\",\"coordinates\":[[3.0561159,36.7857],[3.0560074,36.7856568],[3.0558357,36.7857],[3.0550959,36.7859471],[3.0546239,36.7861877],[3.0544093,36.7863114],[3.0542805,36.7863733],[3.0542054,36.7863789]]}";2;Rue Dr Bentami;1;50;false;false;true;false;false;false;195.0;0;0;0;0;0;false;CHU AIT ALI IDIR;5454944362;3.0519783;36.7849221;Sidi Abd Ar-Rahman;5358485986;3.0588421;36.7882946;0;9;10;7966499;Bus: Ben Aknoun -> Place des Martyrs;"";ETUSA;50;Ben Aknoun;Place des Martyrs
26253111;"{\"type\":\"LineString\",\"coordinates\":[[3.0563017,36.7857179],[3.0562856,36.7857362],[3.0562639,36.7857502],[3.0562381,36.7857589],[3.0562104,36.7857615],[3.0561784,36.7857566],[3.05615,36.7857437],[3.0561284,36.7857241],[3.0561159,36.7857],[3.0561133,36.7856789],[3.0561179,36.7856575],[3.0561295,36.7856379],[3.0561473,36.7856216],[3.0561693,36.7856099],[3.0561943,36.7856033],[3.0562207,36.7856021],[3.0562465,36.7856065],[3.0562713,36.7856171],[3.0562915,36.7856327],[3.0563055,36.7856522],[3.0563121,36.7856741],[3.0563108,36.7856966],[3.0563017,36.7857179]]}";3;"";1;50;false;false;true;false;false;false;57.0;0;0;0;0;0;true;CHU AIT ALI IDIR;5454944362;3.0519783;36.7849221;Sidi Abd Ar-Rahman;5358485986;3.0588421;36.7882946;0;9;10;7966499;Bus: Ben Aknoun -> Place des Martyrs;"";ETUSA;50;Ben Aknoun;Place des Martyrs
26253171;"{\"type\":\"LineString\",\"coordinates\":[[3.0563017,36.7857179],[3.0563341,36.7857908],[3.0563739,36.785883]]}";4;شارع عبد الرزاق ححاد;1;50;false;true;true;false;false;false;20.0;0;0;0;0;0;false;CHU AIT ALI IDIR;5454944362;3.0519783;36.7849221;Sidi Abd Ar-Rahman;5358485986;3.0588421;36.7882946;0;9;10;7966499;Bus: Ben Aknoun -> Place des Martyrs;"";ETUSA;50;Ben Aknoun;Place des Martyrs
26253131;"{\"type\":\"LineString\",\"coordinates\":[[3.0563739,36.785883],[3.0578787,36.7868949]]}";5;Boulevard Hahad Abderezzak;1;50;false;false;true;false;false;false;178.0;0;0;0;0;0;false;CHU AIT ALI IDIR;5454944362;3.0519783;36.7849221;Sidi Abd Ar-Rahman;5358485986;3.0588421;36.7882946;0;9;10;7966499;Bus: Ben Aknoun -> Place des Martyrs;"";ETUSA;50;Ben Aknoun;Place des Martyrs
26346209;"{\"type\":\"LineString\",\"coordinates\":[[3.0570538,36.7892675],[3.057315,36.7890941],[3.0576027,36.7889311],[3.0578078,36.7888282],[3.0578965,36.7887857],[3.0579298,36.7887683],[3.0586515,36.7884545],[3.0587237,36.7884078],[3.0587874,36.7883295],[3.0587928,36.7882902],[3.0588097,36.788168],[3.0587558,36.7880743],[3.0586134,36.7879989],[3.057958,36.7880037],[3.0577671,36.7880143],[3.0575928,36.7880204],[3.0574206,36.788008],[3.057108,36.7879071],[3.0570157,36.7878702],[3.0566182,36.7875179],[3.0565313,36.7874782],[3.0564583,36.7875076],[3.0563914,36.7875655],[3.0564056,36.7876708],[3.0566689,36.7881817],[3.0567233,36.7883447],[3.0567317,36.7884588],[3.0567243,36.7885172],[3.0566804,36.78855],[3.0566349,36.7885701],[3.0565153,36.7885465],[3.0564295,36.7883914],[3.056387,36.7882631],[3.0563072,36.7880222],[3.0560831,36.787598],[3.0559179,36.7873027],[3.0557851,36.7870954],[3.0557265,36.7870274],[3.0557427,36.7868838],[3.0558111,36.7868326],[3.0559006,36.7867977],[3.0560457,36.7867971],[3.0563794,36.7868973],[3.057107,36.7871416],[3.0572546,36.7871941],[3.057324,36.7872198],[3.0575276,36.7872658],[3.057724,36.7872222],[3.0578268,36.7871683],[3.0578893,36.7871014],[3.0579179,36.787013],[3.0578787,36.7868949]]}";6;Rampe Louni Arezki;2;50;false;false;true;false;false;false;518.0;0;0;0;0;0;false;CHU AIT ALI IDIR;5454944362;3.0519783;36.7849221;Sidi Abd Ar-Rahman;5358485986;3.0588421;36.7882946;1;9;10;7966499;Bus: Ben Aknoun -> Place des Martyrs;"";ETUSA;50;Ben Aknoun;Place des Martyrs
26346209;"{\"type\":\"LineString\",\"coordinates\":[[3.0570538,36.7892675],[3.057315,36.7890941],[3.0576027,36.7889311],[3.0578078,36.7888282],[3.0578965,36.7887857],[3.0579298,36.7887683],[3.0586515,36.7884545],[3.0587237,36.7884078],[3.0587874,36.7883295],[3.0587928,36.7882902],[3.0588097,36.788168],[3.0587558,36.7880743],[3.0586134,36.7879989],[3.057958,36.7880037],[3.0577671,36.7880143],[3.0575928,36.7880204],[3.0574206,36.788008],[3.057108,36.7879071],[3.0570157,36.7878702],[3.0566182,36.7875179],[3.0565313,36.7874782],[3.0564583,36.7875076],[3.0563914,36.7875655],[3.0564056,36.7876708],[3.0566689,36.7881817],[3.0567233,36.7883447],[3.0567317,36.7884588],[3.0567243,36.7885172],[3.0566804,36.78855],[3.0566349,36.7885701],[3.0565153,36.7885465],[3.0564295,36.7883914],[3.056387,36.7882631],[3.0563072,36.7880222],[3.0560831,36.787598],[3.0559179,36.7873027],[3.0557851,36.7870954],[3.0557265,36.7870274],[3.0557427,36.7868838],[3.0558111,36.7868326],[3.0559006,36.7867977],[3.0560457,36.7867971],[3.0563794,36.7868973],[3.057107,36.7871416],[3.0572546,36.7871941],[3.057324,36.7872198],[3.0575276,36.7872658],[3.057724,36.7872222],[3.0578268,36.7871683],[3.0578893,36.7871014],[3.0579179,36.787013],[3.0578787,36.7868949]]}";1;Rampe Louni Arezki;2;50;false;false;true;false;false;false;518.0;0;0;0;0;0;false;Sidi Abd Ar-Rahman;5358485986;3.0588421;36.7882946;LYCEE OKBA;3082556559;3.0587157;36.7896396;1;10;11;7966499;Bus: Ben Aknoun -> Place des Martyrs;"";ETUSA;50;Ben Aknoun;Place des Martyrs
26346207;"{\"type\":\"LineString\",\"coordinates\":[[3.0571084,36.7893085],[3.0571185,36.789339],[3.057116,36.7893637],[3.0571012,36.7893908],[3.0570839,36.7894068],[3.0570399,36.7894254],[3.057002,36.7894272],[3.0569738,36.7894211],[3.056951,36.7894103],[3.0569295,36.7893921],[3.0569157,36.7893697],[3.056911,36.7893484],[3.0569111,36.7893391],[3.0569197,36.789311],[3.0569375,36.789289],[3.0569633,36.7892723],[3.0569902,36.7892638],[3.0570325,36.7892626],[3.0570538,36.7892675],[3.0570914,36.7892884],[3.0571084,36.7893085]]}";2;"";1;50;false;false;true;false;false;false;59.0;0;0;0;0;0;true;Sidi Abd Ar-Rahman;5358485986;3.0588421;36.7882946;LYCEE OKBA;3082556559;3.0587157;36.7896396;0;10;11;7966499;Bus: Ben Aknoun -> Place des Martyrs;"";ETUSA;50;Ben Aknoun;Place des Martyrs
556230810;"{\"type\":\"LineString\",\"coordinates\":[[3.0577777,36.7894892],[3.057116,36.7893637]]}";3;Rampe Louni Arezki;2;50;false;false;true;false;false;false;62.0;0;0;0;0;0;false;Sidi Abd Ar-Rahman;5358485986;3.0588421;36.7882946;LYCEE OKBA;3082556559;3.0587157;36.7896396;0;10;11;7966499;Bus: Ben Aknoun -> Place des Martyrs;"";ETUSA;50;Ben Aknoun;Place des Martyrs
26621210;"{\"type\":\"LineString\",\"coordinates\":[[3.0588244,36.7898706],[3.0586814,36.7896541],[3.0584334,36.7892787],[3.0583552,36.7892292],[3.0582932,36.7892115],[3.05822,36.7892124],[3.0581176,36.7892435],[3.0577777,36.7894892]]}";4;Rampe Louni Arezki;2;50;false;false;true;false;false;false;74.5;0;0;0;0;0;false;Sidi Abd Ar-Rahman;5358485986;3.0588421;36.7882946;LYCEE OKBA;3082556559;3.0587157;36.7896396;1;10;11;7966499;Bus: Ben Aknoun -> Place des Martyrs;"";ETUSA;50;Ben Aknoun;Place des Martyrs
26621210;"{\"type\":\"LineString\",\"coordinates\":[[3.0588244,36.7898706],[3.0586814,36.7896541],[3.0584334,36.7892787],[3.0583552,36.7892292],[3.0582932,36.7892115],[3.05822,36.7892124],[3.0581176,36.7892435],[3.0577777,36.7894892]]}";1;Rampe Louni Arezki;2;50;false;false;true;false;false;false;74.5;0;0;0;0;0;false;LYCEE OKBA;3082556559;3.0587157;36.7896396;Place des Martyrs;3791500961;3.0631841;36.7864019;1;11;12;7966499;Bus: Ben Aknoun -> Place des Martyrs;"";ETUSA;50;Ben Aknoun;Place des Martyrs
26026458;"{\"type\":\"LineString\",\"coordinates\":[[3.0612556,36.7891738],[3.0609007,36.7892724],[3.0607397,36.789316],[3.0606919,36.7893314],[3.0601123,36.7895582],[3.0591396,36.7899388],[3.0590516,36.7899646],[3.0589806,36.7899598],[3.0589145,36.7899512],[3.0588656,36.7899114],[3.0588244,36.7898706]]}";2;Rampe Louni Arezki;2;50;false;false;true;false;false;false;244.0;0;1;0;0;0;false;LYCEE OKBA;3082556559;3.0587157;36.7896396;Place des Martyrs;3791500961;3.0631841;36.7864019;0;11;12;7966499;Bus: Ben Aknoun -> Place des Martyrs;"";ETUSA;50;Ben Aknoun;Place des Martyrs
26026253;"{\"type\":\"LineString\",\"coordinates\":[[3.0619424,36.7884971],[3.0618375,36.7885694],[3.0618023,36.7885993],[3.0616952,36.7887021],[3.0612556,36.7891738]]}";3;Boulevard Ouanouri Mohamed;4;50;false;false;true;false;false;false;99.0;0;0;0;0;0;false;LYCEE OKBA;3082556559;3.0587157;36.7896396;Place des Martyrs;3791500961;3.0631841;36.7864019;0;11;12;7966499;Bus: Ben Aknoun -> Place des Martyrs;"";ETUSA;50;Ben Aknoun;Place des Martyrs
26026232;"{\"type\":\"LineString\",\"coordinates\":[[3.0619424,36.7884971],[3.0621598,36.7883963],[3.0627315,36.7882398],[3.062836,36.7882112]]}";4;Avenue du 1e Novembre;2;50;false;false;true;false;false;false;88.0;1;1;0;0;0;false;LYCEE OKBA;3082556559;3.0587157;36.7896396;Place des Martyrs;3791500961;3.0631841;36.7864019;0;11;12;7966499;Bus: Ben Aknoun -> Place des Martyrs;"";ETUSA;50;Ben Aknoun;Place des Martyrs
555961183;"{\"type\":\"LineString\",\"coordinates\":[[3.062836,36.7882112],[3.0630202,36.7874956],[3.0632091,36.7866639],[3.0632537,36.7864097],[3.0632744,36.7863037]]}";5;Avenue du 1e Novembre;2;50;false;true;true;false;false;false;219.0;1;0;0;0;0;false;LYCEE OKBA;3082556559;3.0587157;36.7896396;Place des Martyrs;3791500961;3.0631841;36.7864019;1;11;12;7966499;Bus: Ben Aknoun -> Place des Martyrs;"";ETUSA;50;Ben Aknoun;Place des Martyrs
