way_id;shape;index;name;nb_lanes;legal_speed;speed_zone_30;oneway;shares_bike;bike_box;bus_lane;dedicated_bus_lane;length;nb_traffic_signals;nb_crossings;nb_stops;nb_give_ways;nb_lvl_crossings;roundabout;stop_id_orig;node_id_orig;coord_x_orig;coord_y_orig;stop_id_dest;node_id_dest;coord_x_dest;coord_y_dest;nb_neighbouring_ways_bus_stop;ordre_orig;ordre_dest;id_line;line_name;colour;operator;ref;from;to
683821948;"{\"type\":\"LineString\",\"coordinates\":[[-73.6719306,45.5651493],[-73.671773,45.5650382]]}";1;Place Juge Desnoyers;2;50;false;false;true;false;false;false;18.0;0;0;0;0;0;false;"45054;49012";6269510063;-73.67199;45.565138;45053;6269510081;-73.6724;45.563986;1;0;1;3888406;Bus : 12 O - Direction Métro Cartier;"";STL;12O;Juge-Desnoyers / Face Au 520;Métro Cartier Quai:2
683821947;"{\"type\":\"LineString\",\"coordinates\":[[-73.6732879,45.5628018],[-73.6732329,45.5628545],[-73.6730429,45.5630364],[-73.6727133,45.5634286],[-73.672557,45.5636621],[-73.6722351,45.5641431],[-73.6719934,45.564602],[-73.6718864,45.5648051],[-73.671773,45.5650382]]}";2;Place Juge Desnoyers;2;50;false;false;true;false;false;false;138.5;0;0;0;0;0;false;"45054;49012";6269510063;-73.67199;45.565138;45053;6269510081;-73.6724;45.563986;1;0;1;3888406;Bus : 12 O - Direction Métro Cartier;"";STL;12O;Juge-Desnoyers / Face Au 520;Métro Cartier Quai:2
683821947;"{\"type\":\"LineString\",\"coordinates\":[[-73.6732879,45.5628018],[-73.6732329,45.5628545],[-73.6730429,45.5630364],[-73.6727133,45.5634286],[-73.672557,45.5636621],[-73.6722351,45.5641431],[-73.6719934,45.564602],[-73.6718864,45.5648051],[-73.671773,45.5650382]]}";1;Place Juge Desnoyers;2;50;false;false;true;false;false;false;138.5;0;0;0;0;0;false;45052;6269510203;-73.67319;45.562995;45051;6269510237;-73.67406;45.562157;1;2;3;3888406;Bus : 12 O - Direction Métro Cartier;"";STL;12O;Juge-Desnoyers / Face Au 520;Métro Cartier Quai:2
45610018;"{\"type\":\"LineString\",\"coordinates\":[[-73.6773892,45.5582125],[-73.67674,45.559129],[-73.6764702,45.5594831],[-73.6759944,45.5601273],[-73.6756789,45.5605201],[-73.674554,45.5615936],[-73.6740459,45.5620785],[-73.6736441,45.5624619],[-73.6732879,45.5628018]]}";2;Place Juge Desnoyers;2;50;false;false;true;false;false;false;302.0;0;0;1;0;0;false;45052;6269510203;-73.67319;45.562995;45051;6269510237;-73.67406;45.562157;1;2;3;3888406;Bus : 12 O - Direction Métro Cartier;"";STL;12O;Juge-Desnoyers / Face Au 520;Métro Cartier Quai:2
29016311;"{\"type\":\"LineString\",\"coordinates\":[[-73.6789202,45.5601661],[-73.6788221,45.5600498],[-73.6787519,45.5599492],[-73.6785968,45.5596953],[-73.678411,45.5593914],[-73.6779102,45.5586694],[-73.6777968,45.5585363],[-73.6776225,45.5583954],[-73.6773892,45.5582125]]}";1;Rue Saint-Hubert;2;50;false;false;false;false;false;false;125.0;0;0;1;0;0;false;46418;6269510301;-73.67828;45.559379;42794;6269510265;-73.67968;45.560951;1;7;8;3888406;Bus : 12 O - Direction Métro Cartier;"";STL;12O;Juge-Desnoyers / Face Au 520;Métro Cartier Quai:2
478051944;"{\"type\":\"LineString\",\"coordinates\":[[-73.6791483,45.5603832],[-73.6789202,45.5601661]]}";2;Rue Saint-Hubert;2;50;false;false;false;false;false;false;30.0;1;0;0;0;0;false;46418;6269510301;-73.67828;45.559379;42794;6269510265;-73.67968;45.560951;0;7;8;3888406;Bus : 12 O - Direction Métro Cartier;"";STL;12O;Juge-Desnoyers / Face Au 520;Métro Cartier Quai:2
478051945;"{\"type\":\"LineString\",\"coordinates\":[[-73.6799014,45.5610385],[-73.679803,45.5609529],[-73.6797477,45.5609048],[-73.6791483,45.5603832]]}";3;Rue Saint-Hubert;1;50;false;false;false;false;false;false;47.0;1;0;0;0;0;false;46418;6269510301;-73.67828;45.559379;42794;6269510265;-73.67968;45.560951;1;7;8;3888406;Bus : 12 O - Direction Métro Cartier;"";STL;12O;Juge-Desnoyers / Face Au 520;Métro Cartier Quai:2
38311579;"{\"type\":\"LineString\",\"coordinates\":[[-73.6799014,45.5610385],[-73.6799939,45.5611189],[-73.6802218,45.5613173],[-73.6805434,45.5615971]]}";1;Rue Saint-Hubert;1;50;false;false;true;false;false;false;80.0;1;0;0;0;0;false;42794;6269510265;-73.67968;45.560951;"47128;47170;47120;47012;47002;47173;47058;47158;47141;47102;47122;47911;47133;47160;47163;47127;47137;47117;47031;47143;47174;47124;47112;47070;47148;47017";6269510222;-73.6825;45.559923;2;8;9;3888406;Bus : 12 O - Direction Métro Cartier;"";STL;12O;Juge-Desnoyers / Face Au 520;Métro Cartier Quai:2
292641475;"{\"type\":\"LineString\",\"coordinates\":[[-73.6806516,45.5616861],[-73.6805434,45.5615971]]}";2;Rue Saint-Hubert;1;50;false;false;true;false;false;false;13.0;2;0;0;0;0;false;42794;6269510265;-73.67968;45.560951;"47128;47170;47120;47012;47002;47173;47058;47158;47141;47102;47122;47911;47133;47160;47163;47127;47137;47117;47031;47143;47174;47124;47112;47070;47148;47017";6269510222;-73.6825;45.559923;0;8;9;3888406;Bus : 12 O - Direction Métro Cartier;"";STL;12O;Juge-Desnoyers / Face Au 520;Métro Cartier Quai:2
46088915;"{\"type\":\"LineString\",\"coordinates\":[[-73.6806516,45.5616861],[-73.680801,45.5616127],[-73.6811135,45.5614588],[-73.68169,45.5611749],[-73.6818442,45.561099]]}";3;Boulevard Cartier Ouest;2;50;false;true;true;false;false;false;114.0;3;0;0;0;0;false;42794;6269510265;-73.67968;45.560951;"47128;47170;47120;47012;47002;47173;47058;47158;47141;47102;47122;47911;47133;47160;47163;47127;47137;47117;47031;47143;47174;47124;47112;47070;47148;47017";6269510222;-73.6825;45.559923;0;8;9;3888406;Bus : 12 O - Direction Métro Cartier;"";STL;12O;Juge-Desnoyers / Face Au 520;Métro Cartier Quai:2
259643625;"{\"type\":\"LineString\",\"coordinates\":[[-73.6818442,45.561099],[-73.6826796,45.5606463],[-73.6831194,45.5604083]]}";4;Boulevard Cartier Ouest;2;50;false;true;true;false;false;false;126.0;2;0;0;0;0;false;42794;6269510265;-73.67968;45.560951;"47128;47170;47120;47012;47002;47173;47058;47158;47141;47102;47122;47911;47133;47160;47163;47127;47137;47117;47031;47143;47174;47124;47112;47070;47148;47017";6269510222;-73.6825;45.559923;0;8;9;3888406;Bus : 12 O - Direction Métro Cartier;"";STL;12O;Juge-Desnoyers / Face Au 520;Métro Cartier Quai:2
259643631;"{\"type\":\"LineString\",\"coordinates\":[[-73.6831194,45.5604083],[-73.6830194,45.5603075]]}";5;"";1;50;false;false;true;false;false;false;14.0;2;0;0;0;0;false;42794;6269510265;-73.67968;45.560951;"47128;47170;47120;47012;47002;47173;47058;47158;47141;47102;47122;47911;47133;47160;47163;47127;47137;47117;47031;47143;47174;47124;47112;47070;47148;47017";6269510222;-73.6825;45.559923;0;8;9;3888406;Bus : 12 O - Direction Métro Cartier;"";STL;12O;Juge-Desnoyers / Face Au 520;Métro Cartier Quai:2
242652088;"{\"type\":\"LineString\",\"coordinates\":[[-73.6830194,45.5603075],[-73.6828755,45.560162]]}";6;"";1;50;false;false;true;false;false;false;20.0;1;0;0;0;0;false;42794;6269510265;-73.67968;45.560951;"47128;47170;47120;47012;47002;47173;47058;47158;47141;47102;47122;47911;47133;47160;47163;47127;47137;47117;47031;47143;47174;47124;47112;47070;47148;47017";6269510222;-73.6825;45.559923;0;8;9;3888406;Bus : 12 O - Direction Métro Cartier;"";STL;12O;Juge-Desnoyers / Face Au 520;Métro Cartier Quai:2
259643630;"{\"type\":\"LineString\",\"coordinates\":[[-73.683108,45.5597546],[-73.6832991,45.5596564],[-73.6834151,45.5595825],[-73.6834772,45.5596133],[-73.6835498,45.5596565],[-73.6835923,45.5597297],[-73.6835737,45.5597964],[-73.6834678,45.5598527],[-73.6828755,45.560162]]}";7;"";1;50;false;false;true;false;false;false;129.0;0;0;0;0;0;false;42794;6269510265;-73.67968;45.560951;"47128;47170;47120;47012;47002;47173;47058;47158;47141;47102;47122;47911;47133;47160;47163;47127;47137;47117;47031;47143;47174;47124;47112;47070;47148;47017";6269510222;-73.6825;45.559923;0;8;9;3888406;Bus : 12 O - Direction Métro Cartier;"";STL;12O;Juge-Desnoyers / Face Au 520;Métro Cartier Quai:2
694196043;"{\"type\":\"LineString\",\"coordinates\":[[-73.6829383,45.5598439],[-73.683108,45.5597546]]}";8;"";1;50;false;false;true;false;false;false;17.0;0;0;0;0;0;false;42794;6269510265;-73.67968;45.560951;"47128;47170;47120;47012;47002;47173;47058;47158;47141;47102;47122;47911;47133;47160;47163;47127;47137;47117;47031;47143;47174;47124;47112;47070;47148;47017";6269510222;-73.6825;45.559923;0;8;9;3888406;Bus : 12 O - Direction Métro Cartier;"";STL;12O;Juge-Desnoyers / Face Au 520;Métro Cartier Quai:2
694409795;"{\"type\":\"LineString\",\"coordinates\":[[-73.6827819,45.5599253],[-73.6829383,45.5598439]]}";9;"";1;50;false;false;true;false;false;false;16.0;0;0;0;0;0;false;42794;6269510265;-73.67968;45.560951;"47128;47170;47120;47012;47002;47173;47058;47158;47141;47102;47122;47911;47133;47160;47163;47127;47137;47117;47031;47143;47174;47124;47112;47070;47148;47017";6269510222;-73.6825;45.559923;0;8;9;3888406;Bus : 12 O - Direction Métro Cartier;"";STL;12O;Juge-Desnoyers / Face Au 520;Métro Cartier Quai:2
669902223;"{\"type\":\"LineString\",\"coordinates\":[[-73.6826117,45.5600129],[-73.6827819,45.5599253]]}";10;"";1;50;false;false;true;false;false;false;17.0;0;0;0;0;0;false;42794;6269510265;-73.67968;45.560951;"47128;47170;47120;47012;47002;47173;47058;47158;47141;47102;47122;47911;47133;47160;47163;47127;47137;47117;47031;47143;47174;47124;47112;47070;47148;47017";6269510222;-73.6825;45.559923;1;8;9;3888406;Bus : 12 O - Direction Métro Cartier;"";STL;12O;Juge-Desnoyers / Face Au 520;Métro Cartier Quai:2
