way_id;shape;index;name;nb_lanes;legal_speed;speed_zone_30;oneway;shares_bike;bike_box;bus_lane;dedicated_bus_lane;length;nb_traffic_signals;nb_crossings;nb_stops;nb_give_ways;nb_lvl_crossings;roundabout;stop_id_orig;node_id_orig;coord_x_orig;coord_y_orig;stop_id_dest;node_id_dest;coord_x_dest;coord_y_dest;nb_neighbouring_ways_bus_stop;ordre_orig;ordre_dest;id_line;line_name;colour;operator;ref;from;to
212737101;"{\"type\":\"LineString\",\"coordinates\":[[3.0569268,36.7599463],[3.0569166,36.7599102],[3.0569028,36.7599002],[3.0568685,36.7598626],[3.0567947,36.7598304],[3.0565319,36.7599077],[3.0564589,36.7599727],[3.0564353,36.7600162],[3.0563758,36.7601022],[3.0563166,36.7601554],[3.0561742,36.7601998],[3.0561076,36.7602201]]}";1;"";1;50;false;false;true;false;false;false;99.0;0;0;0;0;0;false;1er Mai;287469933;3.0567062;36.7600878;Musset;3784295295;3.0600243;36.754942;1;0;1;7968277;Bus: 1e Mai -> Palais de la Culture (Diar El Afia);gray;ETUSA;27;1e Mai;Palais de la Culture (Diar El Afia)
212777304;"{\"type\":\"LineString\",\"coordinates\":[[3.0561076,36.7602201],[3.0560516,36.7601116],[3.0558318,36.7595894],[3.0557896,36.7594457]]}";2;Rue Belouizdad Mohamed;3;50;false;true;true;false;false;false;92.0;0;0;0;0;0;false;1er Mai;287469933;3.0567062;36.7600878;Musset;3784295295;3.0600243;36.754942;0;0;1;7968277;Bus: 1e Mai -> Palais de la Culture (Diar El Afia);gray;ETUSA;27;1e Mai;Palais de la Culture (Diar El Afia)
231932480;"{\"type\":\"LineString\",\"coordinates\":[[3.0557896,36.7594457],[3.0557228,36.7592352],[3.0556772,36.7590547],[3.0556711,36.7589692],[3.0556792,36.7587967],[3.0557257,36.7586204]]}";3;Rue Belouizdad Mohamed;2;50;false;true;true;false;false;false;95.0;0;0;0;0;0;false;1er Mai;287469933;3.0567062;36.7600878;Musset;3784295295;3.0600243;36.754942;0;0;1;7968277;Bus: 1e Mai -> Palais de la Culture (Diar El Afia);gray;ETUSA;27;1e Mai;Palais de la Culture (Diar El Afia)
375804046;"{\"type\":\"LineString\",\"coordinates\":[[3.0557257,36.7586204],[3.0557668,36.7585733],[3.0560114,36.7583534],[3.0565013,36.757922]]}";4;Rue Belouizdad Mohamed;2;50;false;true;true;false;false;false;106.0;0;0;0;0;0;false;1er Mai;287469933;3.0567062;36.7600878;Musset;3784295295;3.0600243;36.754942;0;0;1;7968277;Bus: 1e Mai -> Palais de la Culture (Diar El Afia);gray;ETUSA;27;1e Mai;Palais de la Culture (Diar El Afia)
327382998;"{\"type\":\"LineString\",\"coordinates\":[[3.0565013,36.757922],[3.0569533,36.7575861],[3.0574301,36.7571885],[3.0582904,36.7564796],[3.0586246,36.7561965],[3.0590113,36.7558753],[3.0592048,36.7557169],[3.0593998,36.755556],[3.0601876,36.7549022],[3.0601896,36.7549011],[3.0605585,36.7546001],[3.0606847,36.7545063],[3.0609318,36.7543136],[3.0610349,36.7542127],[3.0611448,36.7541097],[3.0612687,36.7539742],[3.0615887,36.7535376],[3.0616568,36.753408],[3.0619348,36.7530184],[3.0619787,36.752944],[3.0621765,36.7526952],[3.0622862,36.7525317],[3.0623492,36.7524302],[3.0625237,36.7521704],[3.0626328,36.752008],[3.0628394,36.7517085],[3.0628906,36.7516435],[3.0629883,36.7515242],[3.0630565,36.7514843],[3.0632115,36.7514045],[3.0638348,36.7511494],[3.0640346,36.7510825],[3.064697,36.7507961],[3.0648194,36.7507288],[3.0649526,36.7506637],[3.0653019,36.7504746],[3.0653469,36.7504488],[3.0657919,36.7502083],[3.0660068,36.7500838],[3.0662831,36.7499312],[3.0666532,36.7497335],[3.0668071,36.7496597],[3.0671059,36.7495165],[3.0674667,36.7493609],[3.0686833,36.7488071],[3.0687697,36.7487665],[3.0689423,36.7486803],[3.0690517,36.7486257],[3.0690571,36.7486227],[3.0691545,36.7485693],[3.0694046,36.748432],[3.0694576,36.7484063],[3.06948,36.7483955],[3.0695309,36.7483708],[3.0705466,36.7478993],[3.0705861,36.7478814],[3.0707255,36.7478185],[3.0707844,36.7477869],[3.0709113,36.7477272],[3.0710235,36.7476744],[3.0711483,36.7476185],[3.0712818,36.747544],[3.0714108,36.7474725],[3.072213,36.7469452],[3.0725983,36.7466968],[3.0728254,36.7465567],[3.0730321,36.7464441],[3.0734023,36.7462515],[3.0735831,36.7461756],[3.0754254,36.7454018],[3.076293,36.7449692],[3.0770784,36.7447016],[3.0781838,36.7441921],[3.0787425,36.743948],[3.0790885,36.7437947],[3.0791822,36.7437532],[3.0797252,36.7435128],[3.0802991,36.7432749],[3.0803945,36.7432333],[3.0808048,36.7430477],[3.0812297,36.7428613],[3.0815868,36.7426936],[3.0820119,36.7424647],[3.0821784,36.7423561]]}";5;Rue Belouizdad Mohamed;2;40;false;true;true;false;false;false;1479.5;0;3;0;0;0;false;1er Mai;287469933;3.0567062;36.7600878;Musset;3784295295;3.0600243;36.754942;1;0;1;7968277;Bus: 1e Mai -> Palais de la Culture (Diar El Afia);gray;ETUSA;27;1e Mai;Palais de la Culture (Diar El Afia)
327382998;"{\"type\":\"LineString\",\"coordinates\":[[3.0565013,36.757922],[3.0569533,36.7575861],[3.0574301,36.7571885],[3.0582904,36.7564796],[3.0586246,36.7561965],[3.0590113,36.7558753],[3.0592048,36.7557169],[3.0593998,36.755556],[3.0601876,36.7549022],[3.0601896,36.7549011],[3.0605585,36.7546001],[3.0606847,36.7545063],[3.0609318,36.7543136],[3.0610349,36.7542127],[3.0611448,36.7541097],[3.0612687,36.7539742],[3.0615887,36.7535376],[3.0616568,36.753408],[3.0619348,36.7530184],[3.0619787,36.752944],[3.0621765,36.7526952],[3.0622862,36.7525317],[3.0623492,36.7524302],[3.0625237,36.7521704],[3.0626328,36.752008],[3.0628394,36.7517085],[3.0628906,36.7516435],[3.0629883,36.7515242],[3.0630565,36.7514843],[3.0632115,36.7514045],[3.0638348,36.7511494],[3.0640346,36.7510825],[3.064697,36.7507961],[3.0648194,36.7507288],[3.0649526,36.7506637],[3.0653019,36.7504746],[3.0653469,36.7504488],[3.0657919,36.7502083],[3.0660068,36.7500838],[3.0662831,36.7499312],[3.0666532,36.7497335],[3.0668071,36.7496597],[3.0671059,36.7495165],[3.0674667,36.7493609],[3.0686833,36.7488071],[3.0687697,36.7487665],[3.0689423,36.7486803],[3.0690517,36.7486257],[3.0690571,36.7486227],[3.0691545,36.7485693],[3.0694046,36.748432],[3.0694576,36.7484063],[3.06948,36.7483955],[3.0695309,36.7483708],[3.0705466,36.7478993],[3.0705861,36.7478814],[3.0707255,36.7478185],[3.0707844,36.7477869],[3.0709113,36.7477272],[3.0710235,36.7476744],[3.0711483,36.7476185],[3.0712818,36.747544],[3.0714108,36.7474725],[3.072213,36.7469452],[3.0725983,36.7466968],[3.0728254,36.7465567],[3.0730321,36.7464441],[3.0734023,36.7462515],[3.0735831,36.7461756],[3.0754254,36.7454018],[3.076293,36.7449692],[3.0770784,36.7447016],[3.0781838,36.7441921],[3.0787425,36.743948],[3.0790885,36.7437947],[3.0791822,36.7437532],[3.0797252,36.7435128],[3.0802991,36.7432749],[3.0803945,36.7432333],[3.0808048,36.7430477],[3.0812297,36.7428613],[3.0815868,36.7426936],[3.0820119,36.7424647],[3.0821784,36.7423561]]}";1;Rue Belouizdad Mohamed;2;40;false;true;true;false;false;false;1479.5;0;3;0;0;0;false;El Annasser 1;3784295291;3.0791646;36.7437277;El Annasser 1;2804815547;3.0847254;36.7407406;1;6;7;7968277;Bus: 1e Mai -> Palais de la Culture (Diar El Afia);gray;ETUSA;27;1e Mai;Palais de la Culture (Diar El Afia)
213266723;"{\"type\":\"LineString\",\"coordinates\":[[3.0821784,36.7423561],[3.0824664,36.7421764]]}";2;Rue Belouizdad Mohamed;1;50;false;true;true;false;false;false;33.0;1;0;0;0;0;false;El Annasser 1;3784295291;3.0791646;36.7437277;El Annasser 1;2804815547;3.0847254;36.7407406;0;6;7;7968277;Bus: 1e Mai -> Palais de la Culture (Diar El Afia);gray;ETUSA;27;1e Mai;Palais de la Culture (Diar El Afia)
28454148;"{\"type\":\"LineString\",\"coordinates\":[[3.0824664,36.7421764],[3.0827763,36.7419846],[3.0830508,36.741822],[3.0830511,36.7418218],[3.0831061,36.7417919],[3.08322,36.7417255],[3.0833602,36.741638],[3.083681,36.741469],[3.0838782,36.7413641],[3.0841794,36.7412199],[3.084349,36.7411386],[3.0843702,36.7411237],[3.0845231,36.7410162],[3.0846433,36.7409167],[3.0847882,36.740785],[3.0850397,36.7405565]]}";3;Avenue Boudjatit Mahmoud;1;50;false;false;true;false;false;false;149.0;1;1;0;0;0;false;El Annasser 1;3784295291;3.0791646;36.7437277;El Annasser 1;2804815547;3.0847254;36.7407406;1;6;7;7968277;Bus: 1e Mai -> Palais de la Culture (Diar El Afia);gray;ETUSA;27;1e Mai;Palais de la Culture (Diar El Afia)
28454148;"{\"type\":\"LineString\",\"coordinates\":[[3.0824664,36.7421764],[3.0827763,36.7419846],[3.0830508,36.741822],[3.0830511,36.7418218],[3.0831061,36.7417919],[3.08322,36.7417255],[3.0833602,36.741638],[3.083681,36.741469],[3.0838782,36.7413641],[3.0841794,36.7412199],[3.084349,36.7411386],[3.0843702,36.7411237],[3.0845231,36.7410162],[3.0846433,36.7409167],[3.0847882,36.740785],[3.0850397,36.7405565]]}";1;Avenue Boudjatit Mahmoud;1;50;false;false;true;false;false;false;149.0;1;1;0;0;0;false;El Annasser 1;2804815547;3.0847254;36.7407406;Drid Hocine;3778056946;3.0858168;36.7393487;1;7;8;7968277;Bus: 1e Mai -> Palais de la Culture (Diar El Afia);gray;ETUSA;27;1e Mai;Palais de la Culture (Diar El Afia)
29612057;"{\"type\":\"LineString\",\"coordinates\":[[3.0850397,36.7405565],[3.0852589,36.7403325],[3.0854888,36.740181],[3.0857122,36.7400206],[3.0858455,36.7398171],[3.0859255,36.739617]]}";2;"";1;50;false;true;true;false;false;false;136.0;0;0;0;0;0;false;El Annasser 1;2804815547;3.0847254;36.7407406;Drid Hocine;3778056946;3.0858168;36.7393487;0;7;8;7968277;Bus: 1e Mai -> Palais de la Culture (Diar El Afia);gray;ETUSA;27;1e Mai;Palais de la Culture (Diar El Afia)
213978445;"{\"type\":\"LineString\",\"coordinates\":[[3.0859255,36.739617],[3.0859036,36.7393442],[3.0858781,36.7390264],[3.0858707,36.7386057],[3.0858305,36.7381278],[3.0857439,36.7378222],[3.0855827,36.7374862],[3.0853772,36.7372201],[3.0851833,36.7370249],[3.0848389,36.7367494],[3.0841568,36.7362806],[3.0837982,36.7360293]]}";3;"";3;50;false;true;true;false;false;false;237.5;0;0;0;0;0;false;El Annasser 1;2804815547;3.0847254;36.7407406;Drid Hocine;3778056946;3.0858168;36.7393487;1;7;8;7968277;Bus: 1e Mai -> Palais de la Culture (Diar El Afia);gray;ETUSA;27;1e Mai;Palais de la Culture (Diar El Afia)
213978445;"{\"type\":\"LineString\",\"coordinates\":[[3.0859255,36.739617],[3.0859036,36.7393442],[3.0858781,36.7390264],[3.0858707,36.7386057],[3.0858305,36.7381278],[3.0857439,36.7378222],[3.0855827,36.7374862],[3.0853772,36.7372201],[3.0851833,36.7370249],[3.0848389,36.7367494],[3.0841568,36.7362806],[3.0837982,36.7360293]]}";1;"";3;50;false;true;true;false;false;false;237.5;0;0;0;0;0;false;Drid Hocine;3778056946;3.0858168;36.7393487;قريدي 2;961009284;3.0635654;36.7332546;1;8;9;7968277;Bus: 1e Mai -> Palais de la Culture (Diar El Afia);gray;ETUSA;27;1e Mai;Palais de la Culture (Diar El Afia)
29678644;"{\"type\":\"LineString\",\"coordinates\":[[3.0837982,36.7360293],[3.083505,36.7358747],[3.0833334,36.7357716],[3.0830971,36.735603],[3.0828667,36.7353975],[3.0826947,36.7352247],[3.0825808,36.7350716],[3.0822374,36.7345557],[3.0820244,36.7343066],[3.0818219,36.7341648],[3.0815752,36.734081],[3.0812399,36.7340638],[3.0809368,36.7341218],[3.0806017,36.7342206],[3.0802968,36.734336]]}";2;"";1;50;false;true;true;false;false;false;426.0;0;0;0;0;0;false;Drid Hocine;3778056946;3.0858168;36.7393487;قريدي 2;961009284;3.0635654;36.7332546;0;8;9;7968277;Bus: 1e Mai -> Palais de la Culture (Diar El Afia);gray;ETUSA;27;1e Mai;Palais de la Culture (Diar El Afia)
129118827;"{\"type\":\"LineString\",\"coordinates\":[[3.0802968,36.734336],[3.0801804,36.7343991],[3.0792213,36.7349454],[3.0788817,36.7351379],[3.0786975,36.7352341],[3.0785359,36.7353185],[3.0778257,36.735658],[3.0773348,36.7358687],[3.0772353,36.7359163],[3.0771998,36.7359407],[3.0771136,36.7359998],[3.0770491,36.7360496],[3.0770198,36.7360835],[3.0769595,36.7361502]]}";3;"";1;50;false;true;true;false;false;false;366.0;0;0;0;0;0;false;Drid Hocine;3778056946;3.0858168;36.7393487;قريدي 2;961009284;3.0635654;36.7332546;0;8;9;7968277;Bus: 1e Mai -> Palais de la Culture (Diar El Afia);gray;ETUSA;27;1e Mai;Palais de la Culture (Diar El Afia)
216241198;"{\"type\":\"LineString\",\"coordinates\":[[3.0769595,36.7361502],[3.0769034,36.7361999],[3.0768349,36.7362368],[3.0766954,36.7362669],[3.0765989,36.7362724],[3.0764068,36.7362817],[3.0763385,36.7362829],[3.0762629,36.7362798],[3.0762042,36.7362604],[3.0761509,36.7362246]]}";4;"";1;50;false;true;true;false;false;false;80.0;0;0;0;0;0;false;Drid Hocine;3778056946;3.0858168;36.7393487;قريدي 2;961009284;3.0635654;36.7332546;0;8;9;7968277;Bus: 1e Mai -> Palais de la Culture (Diar El Afia);gray;ETUSA;27;1e Mai;Palais de la Culture (Diar El Afia)
129121318;"{\"type\":\"LineString\",\"coordinates\":[[3.0761509,36.7362246],[3.0760716,36.736149],[3.0759683,36.7360581],[3.0758607,36.7360094],[3.0757092,36.7359587],[3.0737888,36.7356448],[3.0722977,36.7353959],[3.0721566,36.7353876],[3.0719946,36.735415]]}";5;"";1;50;false;true;true;false;false;false;394.0;0;0;0;0;0;false;Drid Hocine;3778056946;3.0858168;36.7393487;قريدي 2;961009284;3.0635654;36.7332546;0;8;9;7968277;Bus: 1e Mai -> Palais de la Culture (Diar El Afia);gray;ETUSA;27;1e Mai;Palais de la Culture (Diar El Afia)
557998508;"{\"type\":\"LineString\",\"coordinates\":[[3.0719946,36.735415],[3.0719635,36.7354206],[3.0719318,36.7354173],[3.0719035,36.7354055],[3.0718819,36.7353867]]}";6;"";1;50;false;false;true;false;false;false;12.0;0;0;0;0;0;false;Drid Hocine;3778056946;3.0858168;36.7393487;قريدي 2;961009284;3.0635654;36.7332546;0;8;9;7968277;Bus: 1e Mai -> Palais de la Culture (Diar El Afia);gray;ETUSA;27;1e Mai;Palais de la Culture (Diar El Afia)
129121191;"{\"type\":\"LineString\",\"coordinates\":[[3.0718819,36.7353867],[3.0718017,36.7353593]]}";7;"";1;50;false;false;true;false;false;false;8.0;0;0;0;0;0;false;Drid Hocine;3778056946;3.0858168;36.7393487;قريدي 2;961009284;3.0635654;36.7332546;0;8;9;7968277;Bus: 1e Mai -> Palais de la Culture (Diar El Afia);gray;ETUSA;27;1e Mai;Palais de la Culture (Diar El Afia)
60733309;"{\"type\":\"LineString\",\"coordinates\":[[3.0680632,36.7355741],[3.0682133,36.7356539],[3.0683424,36.7357029],[3.0685436,36.735761],[3.0693536,36.7359179],[3.0696621,36.7359738],[3.0698901,36.7359931],[3.0700506,36.7359914],[3.0701717,36.7359738],[3.0703289,36.7359421],[3.0705342,36.7358772],[3.0711913,36.7356418],[3.0718017,36.7353593]]}";8;Route des Anassers;1;50;false;false;true;false;false;false;363.0;0;0;0;0;0;false;Drid Hocine;3778056946;3.0858168;36.7393487;قريدي 2;961009284;3.0635654;36.7332546;0;8;9;7968277;Bus: 1e Mai -> Palais de la Culture (Diar El Afia);gray;ETUSA;27;1e Mai;Palais de la Culture (Diar El Afia)
60733307;"{\"type\":\"LineString\",\"coordinates\":[[3.0680632,36.7355741],[3.0679593,36.7355334]]}";9;"";1;50;false;true;true;false;false;false;11.0;0;0;0;0;0;false;Drid Hocine;3778056946;3.0858168;36.7393487;قريدي 2;961009284;3.0635654;36.7332546;0;8;9;7968277;Bus: 1e Mai -> Palais de la Culture (Diar El Afia);gray;ETUSA;27;1e Mai;Palais de la Culture (Diar El Afia)
60733306;"{\"type\":\"LineString\",\"coordinates\":[[3.0679593,36.7355334],[3.0678241,36.7354751],[3.067526,36.7352946],[3.0673717,36.7352196],[3.0671021,36.7351681],[3.0669832,36.735125]]}";10;طريق العناصر;1;50;false;true;true;false;false;false;101.0;0;0;0;0;0;false;Drid Hocine;3778056946;3.0858168;36.7393487;قريدي 2;961009284;3.0635654;36.7332546;0;8;9;7968277;Bus: 1e Mai -> Palais de la Culture (Diar El Afia);gray;ETUSA;27;1e Mai;Palais de la Culture (Diar El Afia)
60733308;"{\"type\":\"LineString\",\"coordinates\":[[3.0633651,36.7342312],[3.0640167,36.7349444],[3.0643631,36.7353055],[3.064543,36.7354194],[3.0649189,36.7355414],[3.0651826,36.7355866],[3.0654094,36.7355875],[3.0656065,36.7355572],[3.0658197,36.7354916],[3.066248,36.7353559],[3.0669832,36.735125]]}";11;Route des Anassers;1;50;false;false;true;false;false;false;405.0;0;0;0;0;0;false;Drid Hocine;3778056946;3.0858168;36.7393487;قريدي 2;961009284;3.0635654;36.7332546;0;8;9;7968277;Bus: 1e Mai -> Palais de la Culture (Diar El Afia);gray;ETUSA;27;1e Mai;Palais de la Culture (Diar El Afia)
29695994;"{\"type\":\"LineString\",\"coordinates\":[[3.0633651,36.7342312],[3.0633153,36.7340974],[3.0633109,36.7339576],[3.0632993,36.7338846],[3.0632867,36.7338244]]}";12;طريق العناصر;1;50;false;true;true;false;false;false;47.0;0;0;0;0;0;false;Drid Hocine;3778056946;3.0858168;36.7393487;قريدي 2;961009284;3.0635654;36.7332546;0;8;9;7968277;Bus: 1e Mai -> Palais de la Culture (Diar El Afia);gray;ETUSA;27;1e Mai;Palais de la Culture (Diar El Afia)
29695943;"{\"type\":\"LineString\",\"coordinates\":[[3.0631153,36.7334169],[3.0631865,36.7333626],[3.0632749,36.733328],[3.0634252,36.73332],[3.0635166,36.73335],[3.0635546,36.7333625],[3.0636494,36.7334448],[3.0636919,36.7335515],[3.063674,36.7336626],[3.0635993,36.7337571],[3.0635073,36.733809],[3.0633987,36.7338323],[3.0632867,36.7338244],[3.0632308,36.7338077],[3.0631651,36.733774],[3.0631114,36.7337286],[3.0630729,36.7336742],[3.0630518,36.733614],[3.0630486,36.7335887],[3.0630484,36.7335632],[3.0630678,36.7334859],[3.0631153,36.7334169]]}";13;"";1;50;false;false;true;false;false;false;182.0;0;0;0;0;0;true;Drid Hocine;3778056946;3.0858168;36.7393487;قريدي 2;961009284;3.0635654;36.7332546;1;8;9;7968277;Bus: 1e Mai -> Palais de la Culture (Diar El Afia);gray;ETUSA;27;1e Mai;Palais de la Culture (Diar El Afia)
