way_id;shape;index;name;nb_lanes;legal_speed;speed_zone_30;oneway;shares_bike;bike_box;bus_lane;dedicated_bus_lane;length;nb_traffic_signals;nb_crossings;nb_stops;nb_give_ways;nb_lvl_crossings;roundabout;stop_id_orig;node_id_orig;coord_x_orig;coord_y_orig;stop_id_dest;node_id_dest;coord_x_dest;coord_y_dest;nb_neighbouring_ways_bus_stop;ordre_orig;ordre_dest;id_line;line_name;colour;operator;ref;from;to
766556126;"{\"type\":\"LineString\",\"coordinates\":[[-73.9028743,45.3889312],[-73.9027828,45.388961],[-73.9026794,45.3889973],[-73.9025981,45.38903],[-73.9025248,45.3890689],[-73.9024684,45.3891017],[-73.9024174,45.3891368],[-73.9023741,45.389169],[-73.9023325,45.389214],[-73.9023002,45.3892525],[-73.9022695,45.3892904]]}";1;Boulevard Perrot;2;50;false;false;true;false;false;false;64.0;0;0;1;0;0;false;72235;6133274889;-73.902376;45.389246;72279;6133274745;-73.918656;45.356326;1;0;1;9489136;Bus 47 : Service AM;"";EXO;47 AM;boul. du Domaine / boul. Perrot;boul. du Domaine / boul. Perrot
683993981;"{\"type\":\"LineString\",\"coordinates\":[[-73.9224942,45.3890071],[-73.9224087,45.3889877],[-73.9222469,45.3889511],[-73.9220314,45.3888974],[-73.9215525,45.3887833],[-73.9207254,45.3885887],[-73.9199236,45.3883959],[-73.9196871,45.3883393],[-73.919503,45.3883014],[-73.9193239,45.3882636],[-73.9191544,45.3882298],[-73.9189703,45.3881978],[-73.918785,45.3881661],[-73.918745,45.38816],[-73.9186246,45.3881415],[-73.9184605,45.3881156],[-73.9183282,45.3880988],[-73.9182147,45.3880875],[-73.9180937,45.3880797],[-73.917959,45.3880763],[-73.9178167,45.3880758],[-73.9176742,45.3880769],[-73.9175479,45.3880835],[-73.9173909,45.3880959],[-73.9172155,45.3881138],[-73.9169808,45.3881475],[-73.9169433,45.3881537],[-73.9167458,45.3881863],[-73.9165109,45.3882251],[-73.9162119,45.3882775],[-73.9159929,45.3883145],[-73.915804,45.3883453],[-73.9156304,45.3883721],[-73.9150486,45.3884633],[-73.9138933,45.3886349],[-73.9128467,45.3887938],[-73.912562,45.3888317],[-73.9124964,45.3888401],[-73.9124454,45.3888455],[-73.9123913,45.3888489],[-73.9123493,45.3888502],[-73.9123072,45.3888516],[-73.9122654,45.3888516],[-73.9121821,45.3888486],[-73.9120606,45.3888421],[-73.9118754,45.3888254],[-73.911569,45.3887983],[-73.9113651,45.3887829],[-73.9112249,45.3887775],[-73.911125,45.3887741],[-73.9109813,45.3887731],[-73.9108355,45.3887744],[-73.9107013,45.3887767],[-73.9105056,45.3887863],[-73.9101842,45.3888012],[-73.9097746,45.3888225],[-73.9092928,45.3888538],[-73.9090254,45.3888728],[-73.9088647,45.3888821],[-73.9087369,45.3888866],[-73.9086076,45.3888898],[-73.9084423,45.3888888],[-73.9081483,45.388885],[-73.9072695,45.3888641],[-73.9069811,45.3888573],[-73.9066724,45.3888468],[-73.9065317,45.3888408],[-73.9063899,45.3888322],[-73.9062595,45.3888198],[-73.9060344,45.3887923],[-73.9056072,45.3887326],[-73.9051159,45.3886601],[-73.9049847,45.3886403],[-73.9048864,45.3886268],[-73.9047839,45.3886151],[-73.9047002,45.3886099],[-73.9046237,45.3886081],[-73.9045528,45.3886079],[-73.9044378,45.3886111],[-73.9043435,45.3886183],[-73.9042465,45.3886279],[-73.9041835,45.3886368],[-73.9041001,45.3886485],[-73.9040346,45.3886607],[-73.9038941,45.3886868],[-73.9035695,45.3887575],[-73.9033344,45.3888107],[-73.9030417,45.3888825],[-73.9028743,45.3889312]]}";2;Boulevard Perrot;2;50;false;false;true;false;false;false;1569.0;0;0;3;0;0;false;72235;6133274889;-73.902376;45.389246;72279;6133274745;-73.918656;45.356326;0;0;1;9489136;Bus 47 : Service AM;"";EXO;47 AM;boul. du Domaine / boul. Perrot;boul. du Domaine / boul. Perrot
683782639;"{\"type\":\"LineString\",\"coordinates\":[[-73.9224942,45.3890071],[-73.9225316,45.3889338],[-73.9225613,45.3888781],[-73.9227385,45.3885098]]}";3;Boulevard Saint-Joseph;2;60;false;false;true;false;false;false;59.0;0;0;1;0;0;false;72235;6133274889;-73.902376;45.389246;72279;6133274745;-73.918656;45.356326;0;0;1;9489136;Bus 47 : Service AM;"";EXO;47 AM;boul. du Domaine / boul. Perrot;boul. du Domaine / boul. Perrot
780033874;"{\"type\":\"LineString\",\"coordinates\":[[-73.9227385,45.3885098],[-73.9229021,45.38817]]}";4;Boulevard Saint-Joseph;2;60;false;false;true;false;false;false;40.0;0;0;0;0;0;false;72235;6133274889;-73.902376;45.389246;72279;6133274745;-73.918656;45.356326;0;0;1;9489136;Bus 47 : Service AM;"";EXO;47 AM;boul. du Domaine / boul. Perrot;boul. du Domaine / boul. Perrot
780033873;"{\"type\":\"LineString\",\"coordinates\":[[-73.9229021,45.38817],[-73.9238779,45.3861358],[-73.924448,45.3849471],[-73.9249256,45.3839514],[-73.9249632,45.3838741]]}";5;Boulevard Saint-Joseph;2;60;false;false;true;false;false;false;504.0;0;0;1;0;0;false;72235;6133274889;-73.902376;45.389246;72279;6133274745;-73.918656;45.356326;0;0;1;9489136;Bus 47 : Service AM;"";EXO;47 AM;boul. du Domaine / boul. Perrot;boul. du Domaine / boul. Perrot
683782653;"{\"type\":\"LineString\",\"coordinates\":[[-73.9249632,45.3838741],[-73.9250072,45.3837771],[-73.9250196,45.3837492]]}";6;Boulevard Saint-Joseph;2;60;false;false;true;false;false;false;15.0;0;0;0;0;0;false;72235;6133274889;-73.902376;45.389246;72279;6133274745;-73.918656;45.356326;0;0;1;9489136;Bus 47 : Service AM;"";EXO;47 AM;boul. du Domaine / boul. Perrot;boul. du Domaine / boul. Perrot
683988605;"{\"type\":\"LineString\",\"coordinates\":[[-73.9250196,45.3837492],[-73.9250544,45.3836784],[-73.9258577,45.3820457],[-73.9267255,45.3802819],[-73.9272636,45.3791883]]}";7;Boulevard Saint-Joseph;2;60;false;false;true;false;false;false;537.0;0;0;1;0;0;false;72235;6133274889;-73.902376;45.389246;72279;6133274745;-73.918656;45.356326;0;0;1;9489136;Bus 47 : Service AM;"";EXO;47 AM;boul. du Domaine / boul. Perrot;boul. du Domaine / boul. Perrot
683782651;"{\"type\":\"LineString\",\"coordinates\":[[-73.9272636,45.3791883],[-73.9274779,45.378745],[-73.9277127,45.3782413],[-73.927757,45.3781481],[-73.9280405,45.3775278],[-73.9280455,45.3775154],[-73.9280521,45.3774779],[-73.9280558,45.377422],[-73.9280578,45.3773656]]}";8;Boulevard Saint-Joseph;2;60;false;false;true;false;false;false;213.0;1;1;0;0;0;false;72235;6133274889;-73.902376;45.389246;72279;6133274745;-73.918656;45.356326;0;0;1;9489136;Bus 47 : Service AM;"";EXO;47 AM;boul. du Domaine / boul. Perrot;boul. du Domaine / boul. Perrot
289483515;"{\"type\":\"LineString\",\"coordinates\":[[-73.9280578,45.3773656],[-73.9280531,45.377305],[-73.9280474,45.3772801],[-73.9280434,45.3772628],[-73.9280131,45.377185],[-73.9278635,45.3769005],[-73.9277021,45.3766113],[-73.9275195,45.3762738],[-73.9272989,45.3758604],[-73.9269622,45.3752346],[-73.9267473,45.3748315],[-73.9265023,45.3743789],[-73.9262426,45.373897],[-73.9262006,45.373819],[-73.9261167,45.3736632],[-73.9260681,45.3735728],[-73.9257746,45.3730362],[-73.9254564,45.3724421],[-73.9249897,45.3715752],[-73.9245857,45.3708147],[-73.9244236,45.3705058],[-73.9243566,45.3703777],[-73.9236771,45.3690786],[-73.9234205,45.368588],[-73.9233556,45.3684633],[-73.9231254,45.3680211],[-73.9229318,45.3676491],[-73.9228932,45.367575],[-73.9228713,45.3675329],[-73.9224235,45.3666726],[-73.922098,45.3660474],[-73.9220747,45.3660031],[-73.9218595,45.365594],[-73.9215605,45.3650256],[-73.9215112,45.3649319],[-73.9212888,45.3645198],[-73.9212458,45.3644401],[-73.9210178,45.3640108],[-73.9207221,45.3634619],[-73.9204246,45.3628799],[-73.9203794,45.3627841],[-73.9203359,45.3626801],[-73.9202966,45.3625747],[-73.9202542,45.3624455],[-73.9202055,45.3622987],[-73.9200792,45.3618448],[-73.9195068,45.3597866],[-73.9194405,45.359548]]}";9;Boulevard Saint-Joseph;2;80;false;false;true;false;false;false;2095.0;1;1;0;0;0;false;72235;6133274889;-73.902376;45.389246;72279;6133274745;-73.918656;45.356326;0;0;1;9489136;Bus 47 : Service AM;"";EXO;47 AM;boul. du Domaine / boul. Perrot;boul. du Domaine / boul. Perrot
765975650;"{\"type\":\"LineString\",\"coordinates\":[[-73.9194405,45.359548],[-73.9194205,45.359476],[-73.9190673,45.3582042],[-73.9188333,45.3573586],[-73.9187796,45.3571561],[-73.9187259,45.3569824],[-73.9186982,45.3568948],[-73.918658,45.356787],[-73.9185992,45.3566578],[-73.9185506,45.3565628],[-73.9185311,45.3565155],[-73.9185213,45.3564627],[-73.9185286,45.3564038],[-73.9185528,45.3563513],[-73.9185959,45.3563046],[-73.9186612,45.3562547],[-73.9187293,45.3561994]]}";10;Boulevard Saint-Joseph;2;50;false;false;true;false;false;false;385.0;0;0;1;0;0;false;72235;6133274889;-73.902376;45.389246;72279;6133274745;-73.918656;45.356326;2;0;1;9489136;Bus 47 : Service AM;"";EXO;47 AM;boul. du Domaine / boul. Perrot;boul. du Domaine / boul. Perrot
765769705;"{\"type\":\"LineString\",\"coordinates\":[[-73.8992497,45.3518273],[-73.8994101,45.3517235],[-73.8995298,45.351661],[-73.899628,45.3516196],[-73.8997563,45.351579],[-73.899963,45.3515252],[-73.9002401,45.3514583],[-73.9003376,45.3514348],[-73.9009742,45.35128],[-73.901957,45.3510409],[-73.9021689,45.3509894],[-73.9023747,45.3509357],[-73.9024903,45.3509056],[-73.9025772,45.350887],[-73.902638,45.3508741]]}";1;Boulevard Perrot;2;50;false;false;true;false;false;false;288.0;0;0;1;0;0;false;72192;6133274932;-73.902664;45.350844;72150;6133274974;-73.897349;45.353033;2;5;6;9489136;Bus 47 : Service AM;"";EXO;47 AM;boul. du Domaine / boul. Perrot;boul. du Domaine / boul. Perrot
765519145;"{\"type\":\"LineString\",\"coordinates\":[[-73.8772351,45.359317],[-73.8772484,45.3592656],[-73.8772606,45.3592317],[-73.877274,45.3591987],[-73.877402,45.3589835],[-73.8775447,45.3588233],[-73.8777098,45.3586723],[-73.8778198,45.3586063],[-73.8779412,45.358543],[-73.8782031,45.3584277],[-73.8782967,45.3583877],[-73.8784242,45.3583295],[-73.8788574,45.3581406],[-73.8789894,45.3580805],[-73.8791192,45.3580151],[-73.8792503,45.3579394],[-73.8798763,45.3575829],[-73.8801514,45.3574306],[-73.8803077,45.357346],[-73.8804305,45.3572873],[-73.8805364,45.3572403],[-73.8807239,45.3571649],[-73.8808788,45.35711],[-73.8810299,45.3570602],[-73.881152,45.3570241],[-73.8813151,45.3569831],[-73.8814472,45.3569531],[-73.8817085,45.356906],[-73.8823839,45.3567969],[-73.8827027,45.3567491],[-73.8827692,45.3567392],[-73.8831103,45.3566865],[-73.8833605,45.3566462],[-73.8835267,45.3566146],[-73.8836637,45.3565792],[-73.8838112,45.3565369],[-73.8839562,45.356489],[-73.884055,45.3564523],[-73.8842181,45.3563712],[-73.8843415,45.3563008],[-73.884452,45.356235],[-73.884577,45.356162],[-73.8847043,45.3560972],[-73.8847928,45.3560594],[-73.8849036,45.3560186],[-73.8849789,45.355994],[-73.8850763,45.3559665],[-73.8852104,45.3559296],[-73.8854637,45.3558698],[-73.8856723,45.3558205],[-73.8858734,45.3557755],[-73.8860884,45.355728],[-73.8862511,45.3556959],[-73.886377,45.3556739],[-73.8865105,45.3556548],[-73.8867313,45.3556244],[-73.8870431,45.3555814],[-73.8872456,45.3555544],[-73.8873655,45.3555351],[-73.8875056,45.3555069],[-73.8877269,45.3554525],[-73.8880368,45.3553727],[-73.88827,45.3553085],[-73.8887164,45.3551849],[-73.8887571,45.3551735],[-73.8895218,45.3549596],[-73.8896429,45.3549319],[-73.8896594,45.3549281],[-73.8897735,45.3549033],[-73.889852,45.3548861],[-73.8899735,45.354861],[-73.8900469,45.3548486],[-73.8900751,45.3548438],[-73.8901838,45.3548325],[-73.8903277,45.3548249],[-73.8904087,45.3548236],[-73.8905565,45.3548213],[-73.8906472,45.3548204],[-73.8908407,45.3548186],[-73.8908834,45.3548182],[-73.8910332,45.3548142],[-73.8911708,45.3548106],[-73.8911935,45.3548094],[-73.8912918,45.354804],[-73.8914205,45.3547951],[-73.8914343,45.3547936],[-73.8915447,45.3547817],[-73.8916195,45.3547718],[-73.8916485,45.3547679],[-73.8917548,45.3547494],[-73.891784,45.3547425],[-73.8918665,45.3547229],[-73.8919634,45.3546948],[-73.8920186,45.3546788],[-73.8921375,45.3546389],[-73.892148,45.3546354],[-73.8923284,45.354573],[-73.8924074,45.3545441],[-73.8925279,45.3545001],[-73.8928049,45.3543948],[-73.8930007,45.3543203],[-73.8932945,45.3542085],[-73.893548,45.3541186],[-73.8937046,45.3540732],[-73.8938971,45.354022],[-73.8941647,45.3539651],[-73.8950608,45.3537805],[-73.895626,45.3536628],[-73.8958366,45.3536111],[-73.8959875,45.3535717],[-73.8961373,45.3535266],[-73.8963482,45.353456],[-73.8970444,45.3531989],[-73.897329,45.3530867],[-73.8975558,45.3529777],[-73.8978513,45.3528018],[-73.898993,45.3519934],[-73.8992497,45.3518273]]}";2;Boulevard Perrot;2;50;false;false;true;false;false;false;1968.0;0;0;1;0;0;false;72192;6133274932;-73.902664;45.350844;72150;6133274974;-73.897349;45.353033;2;5;6;9489136;Bus 47 : Service AM;"";EXO;47 AM;boul. du Domaine / boul. Perrot;boul. du Domaine / boul. Perrot
765519145;"{\"type\":\"LineString\",\"coordinates\":[[-73.8772351,45.359317],[-73.8772484,45.3592656],[-73.8772606,45.3592317],[-73.877274,45.3591987],[-73.877402,45.3589835],[-73.8775447,45.3588233],[-73.8777098,45.3586723],[-73.8778198,45.3586063],[-73.8779412,45.358543],[-73.8782031,45.3584277],[-73.8782967,45.3583877],[-73.8784242,45.3583295],[-73.8788574,45.3581406],[-73.8789894,45.3580805],[-73.8791192,45.3580151],[-73.8792503,45.3579394],[-73.8798763,45.3575829],[-73.8801514,45.3574306],[-73.8803077,45.357346],[-73.8804305,45.3572873],[-73.8805364,45.3572403],[-73.8807239,45.3571649],[-73.8808788,45.35711],[-73.8810299,45.3570602],[-73.881152,45.3570241],[-73.8813151,45.3569831],[-73.8814472,45.3569531],[-73.8817085,45.356906],[-73.8823839,45.3567969],[-73.8827027,45.3567491],[-73.8827692,45.3567392],[-73.8831103,45.3566865],[-73.8833605,45.3566462],[-73.8835267,45.3566146],[-73.8836637,45.3565792],[-73.8838112,45.3565369],[-73.8839562,45.356489],[-73.884055,45.3564523],[-73.8842181,45.3563712],[-73.8843415,45.3563008],[-73.884452,45.356235],[-73.884577,45.356162],[-73.8847043,45.3560972],[-73.8847928,45.3560594],[-73.8849036,45.3560186],[-73.8849789,45.355994],[-73.8850763,45.3559665],[-73.8852104,45.3559296],[-73.8854637,45.3558698],[-73.8856723,45.3558205],[-73.8858734,45.3557755],[-73.8860884,45.355728],[-73.8862511,45.3556959],[-73.886377,45.3556739],[-73.8865105,45.3556548],[-73.8867313,45.3556244],[-73.8870431,45.3555814],[-73.8872456,45.3555544],[-73.8873655,45.3555351],[-73.8875056,45.3555069],[-73.8877269,45.3554525],[-73.8880368,45.3553727],[-73.88827,45.3553085],[-73.8887164,45.3551849],[-73.8887571,45.3551735],[-73.8895218,45.3549596],[-73.8896429,45.3549319],[-73.8896594,45.3549281],[-73.8897735,45.3549033],[-73.889852,45.3548861],[-73.8899735,45.354861],[-73.8900469,45.3548486],[-73.8900751,45.3548438],[-73.8901838,45.3548325],[-73.8903277,45.3548249],[-73.8904087,45.3548236],[-73.8905565,45.3548213],[-73.8906472,45.3548204],[-73.8908407,45.3548186],[-73.8908834,45.3548182],[-73.8910332,45.3548142],[-73.8911708,45.3548106],[-73.8911935,45.3548094],[-73.8912918,45.354804],[-73.8914205,45.3547951],[-73.8914343,45.3547936],[-73.8915447,45.3547817],[-73.8916195,45.3547718],[-73.8916485,45.3547679],[-73.8917548,45.3547494],[-73.891784,45.3547425],[-73.8918665,45.3547229],[-73.8919634,45.3546948],[-73.8920186,45.3546788],[-73.8921375,45.3546389],[-73.892148,45.3546354],[-73.8923284,45.354573],[-73.8924074,45.3545441],[-73.8925279,45.3545001],[-73.8928049,45.3543948],[-73.8930007,45.3543203],[-73.8932945,45.3542085],[-73.893548,45.3541186],[-73.8937046,45.3540732],[-73.8938971,45.354022],[-73.8941647,45.3539651],[-73.8950608,45.3537805],[-73.895626,45.3536628],[-73.8958366,45.3536111],[-73.8959875,45.3535717],[-73.8961373,45.3535266],[-73.8963482,45.353456],[-73.8970444,45.3531989],[-73.897329,45.3530867],[-73.8975558,45.3529777],[-73.8978513,45.3528018],[-73.898993,45.3519934],[-73.8992497,45.3518273]]}";1;Boulevard Perrot;2;50;false;false;true;false;false;false;984.0;0;0;1;0;0;false;72146;6133274978;-73.87913;45.357955;72143;6133274981;-73.877413;45.360513;1;9;10;9489136;Bus 47 : Service AM;"";EXO;47 AM;boul. du Domaine / boul. Perrot;boul. du Domaine / boul. Perrot
47413821;"{\"type\":\"LineString\",\"coordinates\":[[-73.8775368,45.3605974],[-73.8775188,45.3605279],[-73.8772386,45.3595051],[-73.8772314,45.3594521],[-73.8772292,45.3594059],[-73.8772305,45.3593605],[-73.8772351,45.359317]]}";2;Boulevard Perrot;2;50;false;false;true;false;false;false;72.5;0;0;0;0;0;false;72146;6133274978;-73.87913;45.357955;72143;6133274981;-73.877413;45.360513;1;9;10;9489136;Bus 47 : Service AM;"";EXO;47 AM;boul. du Domaine / boul. Perrot;boul. du Domaine / boul. Perrot
442856792;"{\"type\":\"LineString\",\"coordinates\":[[-73.8775368,45.3605974],[-73.8774838,45.360637],[-73.8774688,45.3606478],[-73.8774115,45.360683],[-73.8770417,45.3608736],[-73.8766518,45.3611],[-73.8764922,45.3612027],[-73.8763272,45.3613159],[-73.87622,45.3613973],[-73.8758761,45.3616843],[-73.8756911,45.3618432],[-73.8755537,45.36198],[-73.8755019,45.3620401],[-73.8754598,45.3620934],[-73.8751347,45.3624759],[-73.874808,45.3629695],[-73.8746198,45.3633868],[-73.8744909,45.3638012],[-73.8744271,45.3640921],[-73.8744014,45.3642714],[-73.8743707,45.3645723],[-73.8743701,45.3645901],[-73.8743683,45.3646451]]}";1;Boulevard Caza;2;30;false;false;true;false;false;false;267.5;0;1;4;0;0;false;72139;6133275185;-73.874553;45.363336;72174;6133274950;-73.871764;45.365401;1;12;13;9489136;Bus 47 : Service AM;"";EXO;47 AM;boul. du Domaine / boul. Perrot;boul. du Domaine / boul. Perrot
683996843;"{\"type\":\"LineString\",\"coordinates\":[[-73.8682262,45.366761],[-73.8682782,45.3667397],[-73.8683828,45.3666969],[-73.868522,45.3666421],[-73.8687772,45.3665444],[-73.8695254,45.3662629],[-73.869833,45.3661517],[-73.8698583,45.3661426],[-73.8703296,45.3659722],[-73.8707643,45.3658174],[-73.8712327,45.3656548],[-73.8716912,45.3654976],[-73.8726165,45.3651947],[-73.8733422,45.3649704],[-73.874173,45.364707],[-73.8743683,45.3646451]]}";2;Boulevard Don-Quichotte;2;50;false;false;true;false;false;false;268.0;0;0;1;0;0;false;72139;6133275185;-73.874553;45.363336;72174;6133274950;-73.871764;45.365401;1;12;13;9489136;Bus 47 : Service AM;"";EXO;47 AM;boul. du Domaine / boul. Perrot;boul. du Domaine / boul. Perrot
776122931;"{\"type\":\"LineString\",\"coordinates\":[[-73.8699487,45.3682685],[-73.8696275,45.3680358],[-73.8694338,45.3678835],[-73.8691373,45.3676215],[-73.8690449,45.3675428],[-73.8689609,45.3674689],[-73.8687071,45.367239],[-73.8683402,45.3668879],[-73.8683252,45.3668722],[-73.8682901,45.3668355],[-73.8682262,45.366761]]}";1;Rue Jordi-Bonet;2;30;false;false;true;false;false;false;216.0;0;0;1;0;0;false;72176;6133274948;-73.868261;45.366667;72177;6133274947;-73.870564;45.368769;2;14;15;9489136;Bus 47 : Service AM;"";EXO;47 AM;boul. du Domaine / boul. Perrot;boul. du Domaine / boul. Perrot
765273827;"{\"type\":\"LineString\",\"coordinates\":[[-73.8699869,45.3682953],[-73.8699487,45.3682685]]}";2;Rue Jordi-Bonet;2;30;false;false;true;false;false;false;5.0;0;0;0;0;0;false;72176;6133274948;-73.868261;45.366667;72177;6133274947;-73.870564;45.368769;0;14;15;9489136;Bus 47 : Service AM;"";EXO;47 AM;boul. du Domaine / boul. Perrot;boul. du Domaine / boul. Perrot
765273828;"{\"type\":\"LineString\",\"coordinates\":[[-73.870644,45.3687428],[-73.8706181,45.3687111],[-73.8705894,45.3686759],[-73.8705655,45.3686466],[-73.8702873,45.368454],[-73.8701206,45.3683454],[-73.870073,45.3683276],[-73.8699869,45.3682953]]}";3;Rue Jordi-Bonet;1;30;false;true;true;false;false;false;73.0;0;0;0;0;0;false;72176;6133274948;-73.868261;45.366667;72177;6133274947;-73.870564;45.368769;2;14;15;9489136;Bus 47 : Service AM;"";EXO;47 AM;boul. du Domaine / boul. Perrot;boul. du Domaine / boul. Perrot
519332650;"{\"type\":\"LineString\",\"coordinates\":[[-73.8707433,45.3688229],[-73.870726,45.3688077],[-73.8706926,45.3687783],[-73.870644,45.3687428]]}";1;Rue Jordi-Bonet;2;30;false;false;true;false;false;false;12.0;0;0;0;0;0;false;72177;6133274947;-73.870564;45.368769;72179;6133274945;-73.872477;45.370811;2;15;16;9489136;Bus 47 : Service AM;"";EXO;47 AM;boul. du Domaine / boul. Perrot;boul. du Domaine / boul. Perrot
519332647;"{\"type\":\"LineString\",\"coordinates\":[[-73.8707433,45.3688229],[-73.8707534,45.3688466],[-73.8707625,45.3688679],[-73.8707782,45.3689046],[-73.8709097,45.3690104],[-73.8709756,45.3690635],[-73.8711179,45.3691861],[-73.8712072,45.3692639],[-73.8712238,45.3692788],[-73.8713031,45.3693501],[-73.871365,45.3694118],[-73.8716105,45.3696568],[-73.8717589,45.3698246],[-73.8717889,45.3698571],[-73.8718637,45.3699379],[-73.8719504,45.3700426],[-73.872028,45.3701424],[-73.8721572,45.3702983],[-73.8723452,45.3705552],[-73.8725011,45.3707906],[-73.8725496,45.3708716]]}";2;Rue Jordi-Bonet;1;30;false;true;true;false;false;false;270.0;0;0;1;0;0;false;72177;6133274947;-73.870564;45.368769;72179;6133274945;-73.872477;45.370811;2;15;16;9489136;Bus 47 : Service AM;"";EXO;47 AM;boul. du Domaine / boul. Perrot;boul. du Domaine / boul. Perrot
766074665;"{\"type\":\"LineString\",\"coordinates\":[[-73.8726331,45.37086],[-73.8725496,45.3708716]]}";1;Promenade Saint-Louis;2;30;false;false;true;false;false;false;7.0;0;0;0;0;0;false;72179;6133274945;-73.872477;45.370811;72184;6133274940;-73.874706;45.37064;2;16;17;9489136;Bus 47 : Service AM;"";EXO;47 AM;boul. du Domaine / boul. Perrot;boul. du Domaine / boul. Perrot
683996839;"{\"type\":\"LineString\",\"coordinates\":[[-73.8782884,45.368787],[-73.8782528,45.368872],[-73.8782415,45.368899],[-73.8782152,45.3689554],[-73.8781691,45.3690068],[-73.8781164,45.3690554],[-73.8780668,45.3690894],[-73.8779999,45.3691233],[-73.8779093,45.3691626],[-73.8777493,45.3692156],[-73.8775063,45.3692866],[-73.8773068,45.3693481],[-73.8771382,45.3693982],[-73.8770695,45.3694241],[-73.8770067,45.3694577],[-73.8768904,45.3695215],[-73.8763621,45.3698435],[-73.876112,45.3699812],[-73.8759119,45.3700894],[-73.8757472,45.3701678],[-73.8755777,45.3702468],[-73.8750097,45.3704843],[-73.8748025,45.370557],[-73.8745853,45.3706378],[-73.8743025,45.3707314],[-73.874184,45.3707699],[-73.8740921,45.3707925],[-73.8739901,45.3708077],[-73.873904,45.3708138],[-73.8738115,45.3708096],[-73.8736837,45.37079],[-73.8736172,45.3707833],[-73.8734752,45.370777],[-73.8733467,45.3707797],[-73.8731979,45.3707876],[-73.8729708,45.3708173],[-73.872699,45.3708517],[-73.8726331,45.37086]]}";2;Promenade Saint-Louis;2;30;false;false;true;false;false;false;521.0;0;0;1;0;0;false;72179;6133274945;-73.872477;45.370811;72184;6133274940;-73.874706;45.37064;2;16;17;9489136;Bus 47 : Service AM;"";EXO;47 AM;boul. du Domaine / boul. Perrot;boul. du Domaine / boul. Perrot
778719224;"{\"type\":\"LineString\",\"coordinates\":[[-73.8799727,45.368753],[-73.8799264,45.3686992],[-73.8798822,45.3686387],[-73.8798437,45.3685789],[-73.8798121,45.3685183],[-73.8797627,45.3684115],[-73.8797281,45.3683166],[-73.8796785,45.3681669],[-73.8795814,45.3678204],[-73.8794374,45.3673194],[-73.8793689,45.3670854],[-73.8788541,45.3653016]]}";1;Boulevard Perrot;2;50;false;false;true;false;false;false;395.0;0;0;1;0;0;false;72185;6133274939;-73.87874;45.365385;72239;6133274885;-73.88346;45.370106;2;21;22;9489136;Bus 47 : Service AM;"";EXO;47 AM;boul. du Domaine / boul. Perrot;boul. du Domaine / boul. Perrot
683996845;"{\"type\":\"LineString\",\"coordinates\":[[-73.9022695,45.3892904],[-73.9020641,45.3891878],[-73.9019863,45.389146],[-73.9019227,45.3891126],[-73.9018621,45.3890709],[-73.9017867,45.3890098],[-73.9017711,45.3889972],[-73.9017192,45.3889551],[-73.9016303,45.3888778],[-73.901558,45.3888122],[-73.901495,45.3887392],[-73.9014478,45.3886601],[-73.9014258,45.3886067],[-73.9014156,45.388582],[-73.9013867,45.3884869],[-73.9013714,45.38842],[-73.9013601,45.3883232],[-73.9013543,45.3882406],[-73.9013419,45.3880567],[-73.9013304,45.3879177],[-73.9013107,45.3878074],[-73.9012846,45.38772],[-73.9012466,45.3876146],[-73.9011615,45.3874205],[-73.9010568,45.3871878],[-73.9009579,45.3869653],[-73.9008541,45.3867436],[-73.9007598,45.386556],[-73.9006471,45.3863552],[-73.9004965,45.3860813],[-73.9003048,45.3857418],[-73.9001421,45.3854544],[-73.9000512,45.3852985],[-73.8999785,45.3851801],[-73.8998727,45.385016],[-73.8997251,45.3848006],[-73.8994579,45.384436],[-73.8992067,45.3841346],[-73.8990467,45.3839269],[-73.8989745,45.3838192],[-73.8989077,45.3837046],[-73.8988549,45.3836119],[-73.8987734,45.3834293],[-73.8986736,45.3832274],[-73.8986009,45.3830946],[-73.8985196,45.382959],[-73.8984702,45.3828859],[-73.8984045,45.382798],[-73.8981091,45.3824411],[-73.8975504,45.3817896],[-73.8971775,45.3813626],[-73.8970019,45.3811472],[-73.8969037,45.3810173],[-73.8966973,45.3807497],[-73.8965085,45.3805015],[-73.8961729,45.3800601],[-73.8957266,45.3795221],[-73.8954494,45.379192],[-73.8952397,45.3789539],[-73.895117,45.3788242],[-73.8947328,45.3784181],[-73.8945502,45.378229],[-73.8943458,45.3780167],[-73.8941833,45.3778552],[-73.894001,45.3776858],[-73.8938481,45.3775549],[-73.8934044,45.3771817],[-73.892894,45.3767065],[-73.8927997,45.3766154],[-73.8922824,45.3761156],[-73.8915072,45.3754565],[-73.8912348,45.3752416],[-73.8909811,45.375056],[-73.8906368,45.3748042],[-73.8898965,45.3742805],[-73.88947,45.3739561],[-73.8888131,45.3734412],[-73.8884242,45.3731353],[-73.8882412,45.372968],[-73.8879195,45.3726441],[-73.8878223,45.3725558],[-73.8877294,45.3724842],[-73.8876189,45.3724055],[-73.8874824,45.3723093],[-73.8873392,45.3722153],[-73.8871743,45.3720992],[-73.8870472,45.3720117],[-73.8868899,45.3718948],[-73.8866191,45.3716857],[-73.8864663,45.3715664],[-73.8863413,45.3714816],[-73.8861826,45.3713803],[-73.8858669,45.371196],[-73.885619,45.3710558],[-73.8852647,45.3708606],[-73.8849322,45.3706736],[-73.88485,45.3706288],[-73.8845852,45.3705074],[-73.8842887,45.3703732],[-73.8837415,45.3701342],[-73.8832495,45.3699277],[-73.8830137,45.3698439],[-73.882799,45.3697788],[-73.882598,45.3697218],[-73.8822161,45.3696168],[-73.8816112,45.3694482],[-73.8812493,45.369347],[-73.8810325,45.3692877],[-73.880872,45.3692405],[-73.8808057,45.3692192],[-73.8807545,45.3692012],[-73.8806962,45.3691806],[-73.8806133,45.36915],[-73.8805391,45.369117],[-73.8804589,45.3690791],[-73.8803348,45.3690122],[-73.8802533,45.3689661],[-73.8801607,45.3689053],[-73.8801092,45.3688675],[-73.8800497,45.3688187],[-73.8799727,45.368753]]}";2;Boulevard Perrot;2;50;false;false;true;false;false;false;2964.0;0;0;1;0;0;false;72185;6133274939;-73.87874;45.365385;72239;6133274885;-73.88346;45.370106;2;21;22;9489136;Bus 47 : Service AM;"";EXO;47 AM;boul. du Domaine / boul. Perrot;boul. du Domaine / boul. Perrot
683996845;"{\"type\":\"LineString\",\"coordinates\":[[-73.9022695,45.3892904],[-73.9020641,45.3891878],[-73.9019863,45.389146],[-73.9019227,45.3891126],[-73.9018621,45.3890709],[-73.9017867,45.3890098],[-73.9017711,45.3889972],[-73.9017192,45.3889551],[-73.9016303,45.3888778],[-73.901558,45.3888122],[-73.901495,45.3887392],[-73.9014478,45.3886601],[-73.9014258,45.3886067],[-73.9014156,45.388582],[-73.9013867,45.3884869],[-73.9013714,45.38842],[-73.9013601,45.3883232],[-73.9013543,45.3882406],[-73.9013419,45.3880567],[-73.9013304,45.3879177],[-73.9013107,45.3878074],[-73.9012846,45.38772],[-73.9012466,45.3876146],[-73.9011615,45.3874205],[-73.9010568,45.3871878],[-73.9009579,45.3869653],[-73.9008541,45.3867436],[-73.9007598,45.386556],[-73.9006471,45.3863552],[-73.9004965,45.3860813],[-73.9003048,45.3857418],[-73.9001421,45.3854544],[-73.9000512,45.3852985],[-73.8999785,45.3851801],[-73.8998727,45.385016],[-73.8997251,45.3848006],[-73.8994579,45.384436],[-73.8992067,45.3841346],[-73.8990467,45.3839269],[-73.8989745,45.3838192],[-73.8989077,45.3837046],[-73.8988549,45.3836119],[-73.8987734,45.3834293],[-73.8986736,45.3832274],[-73.8986009,45.3830946],[-73.8985196,45.382959],[-73.8984702,45.3828859],[-73.8984045,45.382798],[-73.8981091,45.3824411],[-73.8975504,45.3817896],[-73.8971775,45.3813626],[-73.8970019,45.3811472],[-73.8969037,45.3810173],[-73.8966973,45.3807497],[-73.8965085,45.3805015],[-73.8961729,45.3800601],[-73.8957266,45.3795221],[-73.8954494,45.379192],[-73.8952397,45.3789539],[-73.895117,45.3788242],[-73.8947328,45.3784181],[-73.8945502,45.378229],[-73.8943458,45.3780167],[-73.8941833,45.3778552],[-73.894001,45.3776858],[-73.8938481,45.3775549],[-73.8934044,45.3771817],[-73.892894,45.3767065],[-73.8927997,45.3766154],[-73.8922824,45.3761156],[-73.8915072,45.3754565],[-73.8912348,45.3752416],[-73.8909811,45.375056],[-73.8906368,45.3748042],[-73.8898965,45.3742805],[-73.88947,45.3739561],[-73.8888131,45.3734412],[-73.8884242,45.3731353],[-73.8882412,45.372968],[-73.8879195,45.3726441],[-73.8878223,45.3725558],[-73.8877294,45.3724842],[-73.8876189,45.3724055],[-73.8874824,45.3723093],[-73.8873392,45.3722153],[-73.8871743,45.3720992],[-73.8870472,45.3720117],[-73.8868899,45.3718948],[-73.8866191,45.3716857],[-73.8864663,45.3715664],[-73.8863413,45.3714816],[-73.8861826,45.3713803],[-73.8858669,45.371196],[-73.885619,45.3710558],[-73.8852647,45.3708606],[-73.8849322,45.3706736],[-73.88485,45.3706288],[-73.8845852,45.3705074],[-73.8842887,45.3703732],[-73.8837415,45.3701342],[-73.8832495,45.3699277],[-73.8830137,45.3698439],[-73.882799,45.3697788],[-73.882598,45.3697218],[-73.8822161,45.3696168],[-73.8816112,45.3694482],[-73.8812493,45.369347],[-73.8810325,45.3692877],[-73.880872,45.3692405],[-73.8808057,45.3692192],[-73.8807545,45.3692012],[-73.8806962,45.3691806],[-73.8806133,45.36915],[-73.8805391,45.369117],[-73.8804589,45.3690791],[-73.8803348,45.3690122],[-73.8802533,45.3689661],[-73.8801607,45.3689053],[-73.8801092,45.3688675],[-73.8800497,45.3688187],[-73.8799727,45.368753]]}";1;Boulevard Perrot;2;50;false;false;true;false;false;false;1482.0;0;0;1;0;0;false;72155;6133274969;-73.899479;45.384616;72235;6133274889;-73.902376;45.389246;1;26;27;9489136;Bus 47 : Service AM;"";EXO;47 AM;boul. du Domaine / boul. Perrot;boul. du Domaine / boul. Perrot
766556126;"{\"type\":\"LineString\",\"coordinates\":[[-73.9028743,45.3889312],[-73.9027828,45.388961],[-73.9026794,45.3889973],[-73.9025981,45.38903],[-73.9025248,45.3890689],[-73.9024684,45.3891017],[-73.9024174,45.3891368],[-73.9023741,45.389169],[-73.9023325,45.389214],[-73.9023002,45.3892525],[-73.9022695,45.3892904]]}";2;Boulevard Perrot;2;50;false;false;true;false;false;false;64.0;0;0;1;0;0;false;72155;6133274969;-73.899479;45.384616;72235;6133274889;-73.902376;45.389246;1;26;27;9489136;Bus 47 : Service AM;"";EXO;47 AM;boul. du Domaine / boul. Perrot;boul. du Domaine / boul. Perrot
