way_id;shape;index;name;nb_lanes;legal_speed;speed_zone_30;oneway;shares_bike;bike_box;bus_lane;dedicated_bus_lane;length;nb_traffic_signals;nb_crossings;nb_stops;nb_give_ways;nb_lvl_crossings;roundabout;stop_id_orig;node_id_orig;coord_x_orig;coord_y_orig;stop_id_dest;node_id_dest;coord_x_dest;coord_y_dest;nb_neighbouring_ways_bus_stop;ordre_orig;ordre_dest;id_line;line_name;colour;operator;ref;from;to
678486009;"{\"type\":\"LineString\",\"coordinates\":[[-73.7650196,45.3562098],[-73.7650055,45.3561793],[-73.7649905,45.35614],[-73.7649739,45.3561],[-73.7649519,45.3560571]]}";1;Avenue Bourdon;2;40;false;false;true;false;false;false;18.0;0;1;1;0;0;false;78217;6190671719;-73.764875;45.35607;78145;6190671776;-73.756682;45.358169;1;0;1;9420493;Bus 90 : Direction Montréal;"";EXO;90 E;avenue Bourdon / rue Principale;Cégep André-Laurendeau
666126654;"{\"type\":\"LineString\",\"coordinates\":[[-73.7650196,45.3562098],[-73.7648725,45.3562439]]}";2;Rue Principale;3;50;false;false;true;false;false;false;13.0;0;1;0;0;0;false;78217;6190671719;-73.764875;45.35607;78145;6190671776;-73.756682;45.358169;0;0;1;9420493;Bus 90 : Direction Montréal;"";EXO;90 E;avenue Bourdon / rue Principale;Cégep André-Laurendeau
789022467;"{\"type\":\"LineString\",\"coordinates\":[[-73.7648725,45.3562439],[-73.764787,45.3562286],[-73.7647194,45.3562456],[-73.764306,45.3563498],[-73.7640205,45.3564246],[-73.7638272,45.3565066]]}";3;"";1;50;false;true;true;false;false;false;89.0;0;1;0;0;0;false;78217;6190671719;-73.764875;45.35607;78145;6190671776;-73.756682;45.358169;0;0;1;9420493;Bus 90 : Direction Montréal;"";EXO;90 E;avenue Bourdon / rue Principale;Cégep André-Laurendeau
789022468;"{\"type\":\"LineString\",\"coordinates\":[[-73.7638272,45.3565066],[-73.7636243,45.3565578],[-73.7633324,45.3566315],[-73.7632352,45.3566552],[-73.7621723,45.3569143],[-73.7618156,45.3570012],[-73.7613293,45.3571197],[-73.7602531,45.3573781],[-73.7596934,45.3575127],[-73.7594356,45.3575747],[-73.7593009,45.3576071]]}";4;Rue Principale;3;50;false;false;true;false;false;false;375.0;0;2;0;0;0;false;78217;6190671719;-73.764875;45.35607;78145;6190671776;-73.756682;45.358169;0;0;1;9420493;Bus 90 : Direction Montréal;"";EXO;90 E;avenue Bourdon / rue Principale;Cégep André-Laurendeau
788885532;"{\"type\":\"LineString\",\"coordinates\":[[-73.7593009,45.3576071],[-73.7591829,45.3576344],[-73.759058,45.3576643],[-73.7590034,45.3576774],[-73.7588878,45.3577051],[-73.7584846,45.3578018],[-73.7580866,45.3578972],[-73.7578553,45.3579526]]}";5;Rue Principale;3;50;false;false;true;false;false;false;120.0;0;1;0;0;0;false;78217;6190671719;-73.764875;45.35607;78145;6190671776;-73.756682;45.358169;0;0;1;9420493;Bus 90 : Direction Montréal;"";EXO;90 E;avenue Bourdon / rue Principale;Cégep André-Laurendeau
789022472;"{\"type\":\"LineString\",\"coordinates\":[[-73.7578553,45.3579526],[-73.757636,45.3579733],[-73.7574889,45.3580058],[-73.7573858,45.3580283]]}";6;Rue Principale;1;50;false;true;true;false;false;false;38.0;0;0;0;0;0;false;78217;6190671719;-73.764875;45.35607;78145;6190671776;-73.756682;45.358169;0;0;1;9420493;Bus 90 : Direction Montréal;"";EXO;90 E;avenue Bourdon / rue Principale;Cégep André-Laurendeau
789022473;"{\"type\":\"LineString\",\"coordinates\":[[-73.7573858,45.3580283],[-73.7571601,45.3580784]]}";7;Rue Principale;2;50;false;true;true;false;false;false;19.0;0;0;0;0;0;false;78217;6190671719;-73.764875;45.35607;78145;6190671776;-73.756682;45.358169;0;0;1;9420493;Bus 90 : Direction Montréal;"";EXO;90 E;avenue Bourdon / rue Principale;Cégep André-Laurendeau
789022474;"{\"type\":\"LineString\",\"coordinates\":[[-73.7571601,45.3580784],[-73.7568353,45.3581546],[-73.7568094,45.3581604],[-73.7566354,45.3581975]]}";8;Rue Principale;3;50;false;true;true;false;false;false;44.0;1;1;0;0;0;false;78217;6190671719;-73.764875;45.35607;78145;6190671776;-73.756682;45.358169;2;0;1;9420493;Bus 90 : Direction Montréal;"";EXO;90 E;avenue Bourdon / rue Principale;Cégep André-Laurendeau
164862472;"{\"type\":\"LineString\",\"coordinates\":[[-73.7566354,45.3581975],[-73.7565166,45.3582207],[-73.7564676,45.3582305],[-73.7561995,45.3582987],[-73.7559743,45.3583577],[-73.7550106,45.3585903],[-73.7547612,45.3586505],[-73.7542962,45.3587683],[-73.7541248,45.3588218]]}";1;Rue Principale;1;50;false;true;true;false;false;false;209.0;0;1;0;0;0;false;78145;6190671776;-73.756682;45.358169;78024;6190672478;-73.753616;45.358959;2;1;2;9420493;Bus 90 : Direction Montréal;"";EXO;90 E;avenue Bourdon / rue Principale;Cégep André-Laurendeau
790003861;"{\"type\":\"LineString\",\"coordinates\":[[-73.7541248,45.3588218],[-73.753672,45.3589312],[-73.7536211,45.3589444],[-73.7535492,45.3589608]]}";2;Rue Principale;2;50;false;true;true;false;false;false;48.0;0;1;1;0;0;false;78145;6190671776;-73.756682;45.358169;78024;6190672478;-73.753616;45.358959;2;1;2;9420493;Bus 90 : Direction Montréal;"";EXO;90 E;avenue Bourdon / rue Principale;Cégep André-Laurendeau
339617752;"{\"type\":\"LineString\",\"coordinates\":[[-73.7535492,45.3589608],[-73.7534649,45.3589749],[-73.7534071,45.3589837],[-73.7512496,45.3595205],[-73.751146,45.3595462],[-73.7506054,45.3596826]]}";1;Rue Principale;1;30;false;true;true;false;false;false;122.5;0;2;0;0;0;false;78131;6190672389;-73.751789;45.35938;78162;6190671762;-73.748566;45.360168;1;3;4;9420493;Bus 90 : Direction Montréal;"";EXO;90 E;avenue Bourdon / rue Principale;Cégep André-Laurendeau
44339177;"{\"type\":\"LineString\",\"coordinates\":[[-73.7506054,45.3596826],[-73.7503556,45.3597543]]}";2;Rue Principale;1;30;false;true;true;false;false;false;22.0;0;0;0;0;0;false;78131;6190672389;-73.751789;45.35938;78162;6190671762;-73.748566;45.360168;0;3;4;9420493;Bus 90 : Direction Montréal;"";EXO;90 E;avenue Bourdon / rue Principale;Cégep André-Laurendeau
44339178;"{\"type\":\"LineString\",\"coordinates\":[[-73.7503556,45.3597543],[-73.7500159,45.3598421],[-73.7498751,45.3598965]]}";3;Rue Principale;1;30;false;true;true;false;false;false;41.0;0;0;0;0;0;false;78131;6190672389;-73.751789;45.35938;78162;6190671762;-73.748566;45.360168;0;3;4;9420493;Bus 90 : Direction Montréal;"";EXO;90 E;avenue Bourdon / rue Principale;Cégep André-Laurendeau
789683139;"{\"type\":\"LineString\",\"coordinates\":[[-73.7498751,45.3598965],[-73.749635,45.3599612],[-73.7494106,45.3600217],[-73.7493161,45.3600431],[-73.7492575,45.3600573],[-73.7491738,45.3600764]]}";4;Rue Principale;2;30;false;true;true;false;false;false;59.0;1;1;0;0;0;false;78131;6190672389;-73.751789;45.35938;78162;6190671762;-73.748566;45.360168;0;3;4;9420493;Bus 90 : Direction Montréal;"";EXO;90 E;avenue Bourdon / rue Principale;Cégep André-Laurendeau
529095088;"{\"type\":\"LineString\",\"coordinates\":[[-73.7491738,45.3600764],[-73.7490754,45.3600995],[-73.7489449,45.3601312],[-73.7488245,45.3601655],[-73.7487634,45.3601827],[-73.748699,45.360202],[-73.7485554,45.3602402],[-73.748338,45.360313],[-73.7482877,45.3603299],[-73.7481254,45.3603885],[-73.7478805,45.3605301],[-73.7475111,45.3607961],[-73.7474601,45.3608532]]}";5;Rue Principale;1;50;false;true;true;false;false;false;81.5;0;2;0;0;0;false;78131;6190672389;-73.751789;45.35938;78162;6190671762;-73.748566;45.360168;1;3;4;9420493;Bus 90 : Direction Montréal;"";EXO;90 E;avenue Bourdon / rue Principale;Cégep André-Laurendeau
529095088;"{\"type\":\"LineString\",\"coordinates\":[[-73.7491738,45.3600764],[-73.7490754,45.3600995],[-73.7489449,45.3601312],[-73.7488245,45.3601655],[-73.7487634,45.3601827],[-73.748699,45.360202],[-73.7485554,45.3602402],[-73.748338,45.360313],[-73.7482877,45.3603299],[-73.7481254,45.3603885],[-73.7478805,45.3605301],[-73.7475111,45.3607961],[-73.7474601,45.3608532]]}";1;Rue Principale;1;50;false;true;true;false;false;false;81.5;0;2;0;0;0;false;78162;6190671762;-73.748566;45.360168;78172;6190671758;-73.745015;45.361785;1;4;5;9420493;Bus 90 : Direction Montréal;"";EXO;90 E;avenue Bourdon / rue Principale;Cégep André-Laurendeau
806543246;"{\"type\":\"LineString\",\"coordinates\":[[-73.7469966,45.3611616],[-73.7474601,45.3608532]]}";2;Pont Arthur-Laberge;1;50;false;false;true;false;false;false;50.0;0;0;0;0;0;false;78162;6190671762;-73.748566;45.360168;78172;6190671758;-73.745015;45.361785;0;4;5;9420493;Bus 90 : Direction Montréal;"";EXO;90 E;avenue Bourdon / rue Principale;Cégep André-Laurendeau
352177603;"{\"type\":\"LineString\",\"coordinates\":[[-73.746412,45.361533],[-73.7464608,45.3615025],[-73.7465485,45.3614467],[-73.7466175,45.3614028],[-73.7469966,45.3611616]]}";3;Pont Arthur-Laberge;3;50;false;false;true;false;false;false;62.0;1;1;0;0;0;false;78162;6190671762;-73.748566;45.360168;78172;6190671758;-73.745015;45.361785;0;4;5;9420493;Bus 90 : Direction Montréal;"";EXO;90 E;avenue Bourdon / rue Principale;Cégep André-Laurendeau
473814502;"{\"type\":\"LineString\",\"coordinates\":[[-73.746412,45.361533],[-73.7462948,45.3616017]]}";4;Boulevard D'anjou;2;50;false;false;true;false;false;false;12.0;0;1;0;0;0;false;78162;6190671762;-73.748566;45.360168;78172;6190671758;-73.745015;45.361785;0;4;5;9420493;Bus 90 : Direction Montréal;"";EXO;90 E;avenue Bourdon / rue Principale;Cégep André-Laurendeau
339067977;"{\"type\":\"LineString\",\"coordinates\":[[-73.7453264,45.3618588],[-73.7454376,45.361844],[-73.7456289,45.361831],[-73.7457602,45.361818],[-73.7458581,45.3617981],[-73.745938,45.3617777],[-73.7460306,45.3617452],[-73.7461032,45.3617176],[-73.7461671,45.36169],[-73.7462948,45.3616017]]}";5;Boulevard d'Anjou;1;50;false;true;true;false;false;false;84.0;1;0;0;0;0;false;78162;6190671762;-73.748566;45.360168;78172;6190671758;-73.745015;45.361785;0;4;5;9420493;Bus 90 : Direction Montréal;"";EXO;90 E;avenue Bourdon / rue Principale;Cégep André-Laurendeau
13811756;"{\"type\":\"LineString\",\"coordinates\":[[-73.7449581,45.3618424],[-73.7450896,45.3618577],[-73.7452276,45.3618584],[-73.7453264,45.3618588]]}";6;Boulevard d'Anjou;2;50;false;true;true;false;false;false;14.5;0;0;0;0;0;false;78162;6190671762;-73.748566;45.360168;78172;6190671758;-73.745015;45.361785;1;4;5;9420493;Bus 90 : Direction Montréal;"";EXO;90 E;avenue Bourdon / rue Principale;Cégep André-Laurendeau
44339145;"{\"type\":\"LineString\",\"coordinates\":[[-73.7446161,45.3618175],[-73.7449581,45.3618424]]}";1;Boulevard d'Anjou;3;50;false;true;true;false;false;false;27.0;0;0;0;0;0;false;78172;6190671758;-73.745015;45.361785;78176;6190671754;-73.738997;45.361172;2;5;6;9420493;Bus 90 : Direction Montréal;"";EXO;90 E;avenue Bourdon / rue Principale;Cégep André-Laurendeau
806553363;"{\"type\":\"LineString\",\"coordinates\":[[-73.7443609,45.3617766],[-73.7446161,45.3618175]]}";2;Boulevard d'Anjou;4;50;false;true;true;false;false;false;21.0;0;0;0;0;0;false;78172;6190671758;-73.745015;45.361785;78176;6190671754;-73.738997;45.361172;0;5;6;9420493;Bus 90 : Direction Montréal;"";EXO;90 E;avenue Bourdon / rue Principale;Cégep André-Laurendeau
806555421;"{\"type\":\"LineString\",\"coordinates\":[[-73.7443609,45.3617766],[-73.7440524,45.3617408],[-73.7437166,45.3617021],[-73.7431063,45.3616327],[-73.7430071,45.3616212]]}";3;Boulevard d'Anjou;4;50;false;false;true;false;false;false;108.0;0;0;0;0;0;false;78172;6190671758;-73.745015;45.361785;78176;6190671754;-73.738997;45.361172;0;5;6;9420493;Bus 90 : Direction Montréal;"";EXO;90 E;avenue Bourdon / rue Principale;Cégep André-Laurendeau
376030272;"{\"type\":\"LineString\",\"coordinates\":[[-73.7430071,45.3616212],[-73.7410139,45.3613889],[-73.7399877,45.3612946],[-73.7389788,45.3611854]]}";4;Boulevard d'Anjou;4;50;false;false;true;false;false;false;320.0;1;0;0;0;0;false;78172;6190671758;-73.745015;45.361785;78176;6190671754;-73.738997;45.361172;2;5;6;9420493;Bus 90 : Direction Montréal;"";EXO;90 E;avenue Bourdon / rue Principale;Cégep André-Laurendeau
678228603;"{\"type\":\"LineString\",\"coordinates\":[[-73.7327633,45.3604634],[-73.7326048,45.3604467]]}";1;Boulevard d'Anjou;5;50;false;false;true;false;false;false;13.0;0;0;0;0;0;false;78124;6190672395;-73.732825;45.360425;78171;570144086;-73.727642;45.359788;2;8;9;9420493;Bus 90 : Direction Montréal;"";EXO;90 E;avenue Bourdon / rue Principale;Cégep André-Laurendeau
339617749;"{\"type\":\"LineString\",\"coordinates\":[[-73.7326048,45.3604467],[-73.7324663,45.360431],[-73.7298048,45.3601294],[-73.7294646,45.3600909],[-73.728216,45.3599494],[-73.7275633,45.3598721],[-73.7274757,45.3598617]]}";2;Boulevard d'Anjou;5;50;false;false;true;false;false;false;407.0;2;0;0;0;0;false;78124;6190672395;-73.732825;45.360425;78171;570144086;-73.727642;45.359788;2;8;9;9420493;Bus 90 : Direction Montréal;"";EXO;90 E;avenue Bourdon / rue Principale;Cégep André-Laurendeau
678443243;"{\"type\":\"LineString\",\"coordinates\":[[-73.7274757,45.3598617],[-73.7272958,45.3598395]]}";1;Boulevard d'Anjou;5;50;false;false;true;false;false;false;15.0;0;0;0;0;0;false;78171;570144086;-73.727642;45.359788;78178;6190671752;-73.723465;45.359398;2;9;10;9420493;Bus 90 : Direction Montréal;"";EXO;90 E;avenue Bourdon / rue Principale;Cégep André-Laurendeau
666350670;"{\"type\":\"LineString\",\"coordinates\":[[-73.7272958,45.3598395],[-73.7272012,45.359829],[-73.7252656,45.3596138],[-73.723463,45.3594134],[-73.722157,45.3592668],[-73.7215402,45.3591976],[-73.718471,45.3588747],[-73.7180761,45.3588332],[-73.7177888,45.3588022]]}";2;Boulevard d'Anjou;5;50;false;false;true;false;false;false;754.0;2;0;0;0;0;false;78171;570144086;-73.727642;45.359788;78178;6190671752;-73.723465;45.359398;2;9;10;9420493;Bus 90 : Direction Montréal;"";EXO;90 E;avenue Bourdon / rue Principale;Cégep André-Laurendeau
666350670;"{\"type\":\"LineString\",\"coordinates\":[[-73.7272958,45.3598395],[-73.7272012,45.359829],[-73.7252656,45.3596138],[-73.723463,45.3594134],[-73.722157,45.3592668],[-73.7215402,45.3591976],[-73.718471,45.3588747],[-73.7180761,45.3588332],[-73.7177888,45.3588022]]}";1;Boulevard d'Anjou;5;50;false;false;true;false;false;false;377.0;2;0;0;0;0;false;78178;6190671752;-73.723465;45.359398;78132;6190672388;-73.715801;45.358657;1;10;11;9420493;Bus 90 : Direction Montréal;"";EXO;90 E;avenue Bourdon / rue Principale;Cégep André-Laurendeau
462340967;"{\"type\":\"LineString\",\"coordinates\":[[-73.7177888,45.3588022],[-73.7159491,45.3585979]]}";2;Boulevard d'Anjou;5;50;false;false;true;false;false;false;146.0;1;0;0;0;0;false;78178;6190671752;-73.723465;45.359398;78132;6190672388;-73.715801;45.358657;0;10;11;9420493;Bus 90 : Direction Montréal;"";EXO;90 E;avenue Bourdon / rue Principale;Cégep André-Laurendeau
462340968;"{\"type\":\"LineString\",\"coordinates\":[[-73.715174,45.3598686],[-73.7159491,45.3585979]]}";3;Boulevard Saint-Jean-Baptiste;5;50;false;false;true;false;false;false;77.0;1;0;0;0;0;false;78178;6190671752;-73.723465;45.359398;78132;6190672388;-73.715801;45.358657;1;10;11;9420493;Bus 90 : Direction Montréal;"";EXO;90 E;avenue Bourdon / rue Principale;Cégep André-Laurendeau
462340967;"{\"type\":\"LineString\",\"coordinates\":[[-73.7177888,45.3588022],[-73.7159491,45.3585979]]}";1;Boulevard d'Anjou;5;50;false;false;true;false;false;false;146.0;1;0;0;0;0;false;78132;6190672388;-73.715801;45.358657;78179;6190671751;-73.713495;45.362459;2;11;12;9420493;Bus 90 : Direction Montréal;"";EXO;90 E;avenue Bourdon / rue Principale;Cégep André-Laurendeau
462340968;"{\"type\":\"LineString\",\"coordinates\":[[-73.715174,45.3598686],[-73.7159491,45.3585979]]}";2;Boulevard Saint-Jean-Baptiste;5;50;false;false;true;false;false;false;154.0;1;0;0;0;0;false;78132;6190672388;-73.715801;45.358657;78179;6190671751;-73.713495;45.362459;0;11;12;9420493;Bus 90 : Direction Montréal;"";EXO;90 E;avenue Bourdon / rue Principale;Cégep André-Laurendeau
462340969;"{\"type\":\"LineString\",\"coordinates\":[[-73.7135371,45.3625678],[-73.7142507,45.3613773],[-73.7143242,45.3612455],[-73.7147433,45.3605702],[-73.7150279,45.3601066],[-73.715174,45.3598686]]}";3;Boulevard Saint-Jean-Baptiste;5;50;false;false;true;false;false;false;327.0;1;0;0;0;0;false;78132;6190672388;-73.715801;45.358657;78179;6190671751;-73.713495;45.362459;2;11;12;9420493;Bus 90 : Direction Montréal;"";EXO;90 E;avenue Bourdon / rue Principale;Cégep André-Laurendeau
677713370;"{\"type\":\"LineString\",\"coordinates\":[[-73.7115683,45.3658389],[-73.713018,45.3634711],[-73.7135371,45.3625678]]}";1;Boulevard Saint-Jean-Baptiste;5;50;false;false;true;false;false;false;197.5;2;0;0;0;0;false;78136;5515416123;-73.7117;45.365547;78125;6190672394;-73.710017;45.368313;1;13;14;9420493;Bus 90 : Direction Montréal;"";EXO;90 E;avenue Bourdon / rue Principale;Cégep André-Laurendeau
666181870;"{\"type\":\"LineString\",\"coordinates\":[[-73.7109041,45.3669337],[-73.7115683,45.3658389]]}";2;Boulevard Saint-Jean-Baptiste;5;50;false;false;true;false;false;false;133.0;1;0;0;0;0;false;78136;5515416123;-73.7117;45.365547;78125;6190672394;-73.710017;45.368313;0;13;14;9420493;Bus 90 : Direction Montréal;"";EXO;90 E;avenue Bourdon / rue Principale;Cégep André-Laurendeau
13810867;"{\"type\":\"LineString\",\"coordinates\":[[-73.7109041,45.3669337],[-73.7107783,45.3670448],[-73.7105598,45.3674213],[-73.7104644,45.3675857]]}";3;Boulevard Saint-Jean-Baptiste;5;50;false;true;true;false;false;false;81.0;1;0;0;0;0;false;78136;5515416123;-73.7117;45.365547;78125;6190672394;-73.710017;45.368313;0;13;14;9420493;Bus 90 : Direction Montréal;"";EXO;90 E;avenue Bourdon / rue Principale;Cégep André-Laurendeau
476608730;"{\"type\":\"LineString\",\"coordinates\":[[-73.7104644,45.3675857],[-73.7104073,45.3676855]]}";4;Boulevard Saint-Jean-Baptiste;5;50;false;true;true;false;false;false;12.0;0;0;0;0;0;false;78136;5515416123;-73.7117;45.365547;78125;6190672394;-73.710017;45.368313;0;13;14;9420493;Bus 90 : Direction Montréal;"";EXO;90 E;avenue Bourdon / rue Principale;Cégep André-Laurendeau
476608728;"{\"type\":\"LineString\",\"coordinates\":[[-73.7104073,45.3676855],[-73.7100703,45.36826],[-73.7099813,45.3684118]]}";5;Boulevard Saint-Jean-Baptiste;5;50;false;true;true;false;false;false;44.0;1;0;0;0;0;false;78136;5515416123;-73.7117;45.365547;78125;6190672394;-73.710017;45.368313;1;13;14;9420493;Bus 90 : Direction Montréal;"";EXO;90 E;avenue Bourdon / rue Principale;Cégep André-Laurendeau
476606111;"{\"type\":\"LineString\",\"coordinates\":[[-73.7099813,45.3684118],[-73.7099292,45.3684994]]}";1;Boulevard Saint-Jean-Baptiste;5;50;false;true;true;false;false;false;11.0;0;0;0;0;0;false;78125;6190672394;-73.710017;45.368313;78730;6190668868;-73.70505;45.376806;2;14;15;9420493;Bus 90 : Direction Montréal;"";EXO;90 E;avenue Bourdon / rue Principale;Cégep André-Laurendeau
342545891;"{\"type\":\"LineString\",\"coordinates\":[[-73.7099292,45.3684994],[-73.7096373,45.3690166],[-73.7095192,45.3692756],[-73.7094727,45.3694074]]}";2;Boulevard Saint-Jean-Baptiste;2;50;false;true;true;false;false;false;108.0;0;0;0;0;0;false;78125;6190672394;-73.710017;45.368313;78730;6190668868;-73.70505;45.376806;0;14;15;9420493;Bus 90 : Direction Montréal;"";EXO;90 E;avenue Bourdon / rue Principale;Cégep André-Laurendeau
638130699;"{\"type\":\"LineString\",\"coordinates\":[[-73.7057841,45.3757376],[-73.7059489,45.3754557],[-73.7061827,45.3750558],[-73.7077504,45.3723743],[-73.7094727,45.3694074]]}";3;Route 132;5;70;false;false;true;false;false;false;760.0;0;0;0;0;0;false;78125;6190672394;-73.710017;45.368313;78730;6190668868;-73.70505;45.376806;0;14;15;9420493;Bus 90 : Direction Montréal;"";EXO;90 E;avenue Bourdon / rue Principale;Cégep André-Laurendeau
638130701;"{\"type\":\"LineString\",\"coordinates\":[[-73.7057841,45.3757376],[-73.7056473,45.3758488],[-73.7050512,45.3768421]]}";4;Route 132;5;70;false;true;true;false;false;false;137.0;0;0;0;0;0;false;78125;6190672394;-73.710017;45.368313;78730;6190668868;-73.70505;45.376806;2;14;15;9420493;Bus 90 : Direction Montréal;"";EXO;90 E;avenue Bourdon / rue Principale;Cégep André-Laurendeau
638130696;"{\"type\":\"LineString\",\"coordinates\":[[-73.7050512,45.3768421],[-73.7044644,45.3778365],[-73.7044729,45.3779945]]}";1;Route 132;5;70;false;true;true;false;false;false;138.0;0;0;0;0;0;false;78730;6190668868;-73.70505;45.376806;78731;6190668867;-73.695464;45.393205;2;15;16;9420493;Bus 90 : Direction Montréal;"";EXO;90 E;avenue Bourdon / rue Principale;Cégep André-Laurendeau
638130703;"{\"type\":\"LineString\",\"coordinates\":[[-73.6964738,45.3918936],[-73.6983132,45.3886906],[-73.7044729,45.3779945]]}";2;Route 132;5;70;false;false;true;false;false;false;1666.0;0;0;0;0;0;false;78730;6190668868;-73.70505;45.376806;78731;6190668867;-73.695464;45.393205;0;15;16;9420493;Bus 90 : Direction Montréal;"";EXO;90 E;avenue Bourdon / rue Principale;Cégep André-Laurendeau
494183739;"{\"type\":\"LineString\",\"coordinates\":[[-73.6964738,45.3918936],[-73.6961424,45.3923398],[-73.6955908,45.3932807]]}";3;Route 132/138;5;70;false;true;true;false;false;false;169.0;1;0;0;0;0;false;78730;6190668868;-73.70505;45.376806;78731;6190668867;-73.695464;45.393205;2;15;16;9420493;Bus 90 : Direction Montréal;"";EXO;90 E;avenue Bourdon / rue Principale;Cégep André-Laurendeau
494183735;"{\"type\":\"LineString\",\"coordinates\":[[-73.6955908,45.3932807],[-73.6948254,45.3946547],[-73.6947906,45.3948515]]}";1;Route 132/138;5;70;false;true;true;false;false;false;186.0;1;0;0;0;0;false;78731;6190668867;-73.695464;45.393205;78734;6190668866;-73.689147;45.39876;2;16;17;9420493;Bus 90 : Direction Montréal;"";EXO;90 E;avenue Bourdon / rue Principale;Cégep André-Laurendeau
494183738;"{\"type\":\"LineString\",\"coordinates\":[[-73.6935913,45.3969904],[-73.6944419,45.3954988],[-73.6947906,45.3948515]]}";2;Route 132/138;5;70;false;false;true;false;false;false;256.0;0;0;0;0;0;false;78731;6190668867;-73.695464;45.393205;78734;6190668866;-73.689147;45.39876;0;16;17;9420493;Bus 90 : Direction Montréal;"";EXO;90 E;avenue Bourdon / rue Principale;Cégep André-Laurendeau
37625756;"{\"type\":\"LineString\",\"coordinates\":[[-73.6935913,45.3969904],[-73.6933137,45.3973011],[-73.6929837,45.3976439],[-73.6927866,45.3978294],[-73.6925828,45.3979952],[-73.6922287,45.398241],[-73.6918633,45.3984537],[-73.6914951,45.3986233],[-73.691125,45.3987617],[-73.6907615,45.3988757],[-73.6903766,45.3989727],[-73.6899475,45.3990357],[-73.6894578,45.3990763]]}";3;Route 132/138;2;70;false;true;true;false;false;false;417.0;1;0;0;0;0;false;78731;6190668867;-73.695464;45.393205;78734;6190668866;-73.689147;45.39876;0;16;17;9420493;Bus 90 : Direction Montréal;"";EXO;90 E;avenue Bourdon / rue Principale;Cégep André-Laurendeau
482433028;"{\"type\":\"LineString\",\"coordinates\":[[-73.6894578,45.3990763],[-73.6890302,45.3990894],[-73.688593,45.3990791],[-73.6879331,45.3990254],[-73.6877887,45.3990193]]}";4;Route 132/138;3;70;false;true;true;false;false;false;132.0;1;0;0;0;0;false;78731;6190668867;-73.695464;45.393205;78734;6190668866;-73.689147;45.39876;2;16;17;9420493;Bus 90 : Direction Montréal;"";EXO;90 E;avenue Bourdon / rue Principale;Cégep André-Laurendeau
482433028;"{\"type\":\"LineString\",\"coordinates\":[[-73.6894578,45.3990763],[-73.6890302,45.3990894],[-73.688593,45.3990791],[-73.6879331,45.3990254],[-73.6877887,45.3990193]]}";1;Route 132/138;3;70;false;true;true;false;false;false;66.0;1;0;0;0;0;false;78734;6190668866;-73.689147;45.39876;78275;6190671072;-73.68314;45.399543;1;17;18;9420493;Bus 90 : Direction Montréal;"";EXO;90 E;avenue Bourdon / rue Principale;Cégep André-Laurendeau
678489518;"{\"type\":\"LineString\",\"coordinates\":[[-73.6877887,45.3990193],[-73.6873055,45.398999],[-73.686675,45.3989981],[-73.6863957,45.3990172]]}";2;Route 132;3;70;false;true;true;false;false;false;110.0;0;0;0;0;0;false;78734;6190668866;-73.689147;45.39876;78275;6190671072;-73.68314;45.399543;0;17;18;9420493;Bus 90 : Direction Montréal;"";EXO;90 E;avenue Bourdon / rue Principale;Cégep André-Laurendeau
326317193;"{\"type\":\"LineString\",\"coordinates\":[[-73.6863957,45.3990172],[-73.6860704,45.3990395],[-73.6858456,45.399071],[-73.6851968,45.3991618],[-73.6843224,45.3993542],[-73.6830372,45.399692],[-73.6828864,45.3997322],[-73.6820288,45.3999606],[-73.6811632,45.4001912],[-73.6780117,45.4010481],[-73.6772725,45.4012441],[-73.673995,45.4021131]]}";3;Route 132;3;70;false;true;true;false;false;false;516.0;0;0;0;0;0;false;78734;6190668866;-73.689147;45.39876;78275;6190671072;-73.68314;45.399543;1;17;18;9420493;Bus 90 : Direction Montréal;"";EXO;90 E;avenue Bourdon / rue Principale;Cégep André-Laurendeau
326317193;"{\"type\":\"LineString\",\"coordinates\":[[-73.6863957,45.3990172],[-73.6860704,45.3990395],[-73.6858456,45.399071],[-73.6851968,45.3991618],[-73.6843224,45.3993542],[-73.6830372,45.399692],[-73.6828864,45.3997322],[-73.6820288,45.3999606],[-73.6811632,45.4001912],[-73.6780117,45.4010481],[-73.6772725,45.4012441],[-73.673995,45.4021131]]}";1;Route 132;3;70;false;true;true;false;false;false;516.0;0;0;0;0;0;false;78275;6190671072;-73.68314;45.399543;78274;6190671073;-73.672873;45.402284;1;18;19;9420493;Bus 90 : Direction Montréal;"";EXO;90 E;avenue Bourdon / rue Principale;Cégep André-Laurendeau
338423095;"{\"type\":\"LineString\",\"coordinates\":[[-73.673995,45.4021131],[-73.6721407,45.4025994]]}";2;Route 132;2;70;false;true;true;false;false;false;77.5;0;0;0;0;0;false;78275;6190671072;-73.68314;45.399543;78274;6190671073;-73.672873;45.402284;1;18;19;9420493;Bus 90 : Direction Montréal;"";EXO;90 E;avenue Bourdon / rue Principale;Cégep André-Laurendeau
338423095;"{\"type\":\"LineString\",\"coordinates\":[[-73.673995,45.4021131],[-73.6721407,45.4025994]]}";1;Route 132;2;70;false;true;true;false;false;false;77.5;0;0;0;0;0;false;78274;6190671073;-73.672873;45.402284;78896;6190668830;-73.605037;45.435141;1;19;20;9420493;Bus 90 : Direction Montréal;"";EXO;90 E;avenue Bourdon / rue Principale;Cégep André-Laurendeau
45271205;"{\"type\":\"LineString\",\"coordinates\":[[-73.6721407,45.4025994],[-73.6718259,45.4026793]]}";2;Route 132;2;70;false;true;false;false;false;false;27.0;0;0;0;0;0;false;78274;6190671073;-73.672873;45.402284;78896;6190668830;-73.605037;45.435141;0;19;20;9420493;Bus 90 : Direction Montréal;"";EXO;90 E;avenue Bourdon / rue Principale;Cégep André-Laurendeau
45271206;"{\"type\":\"LineString\",\"coordinates\":[[-73.6718259,45.4026793],[-73.6686174,45.4035038]]}";3;Route 132/138;2;70;false;true;false;false;false;false;268.0;0;0;0;0;0;false;78274;6190671073;-73.672873;45.402284;78896;6190668830;-73.605037;45.435141;0;19;20;9420493;Bus 90 : Direction Montréal;"";EXO;90 E;avenue Bourdon / rue Principale;Cégep André-Laurendeau
417092087;"{\"type\":\"LineString\",\"coordinates\":[[-73.6686174,45.4035038],[-73.6627339,45.4050963]]}";4;Pont Honoré-Mercier;1;70;false;true;false;false;false;false;494.0;0;0;0;0;0;false;78274;6190671073;-73.672873;45.402284;78896;6190668830;-73.605037;45.435141;0;19;20;9420493;Bus 90 : Direction Montréal;"";EXO;90 E;avenue Bourdon / rue Principale;Cégep André-Laurendeau
417092090;"{\"type\":\"LineString\",\"coordinates\":[[-73.6627339,45.4050963],[-73.6622259,45.4052419],[-73.6616956,45.4053917],[-73.6613866,45.4054763],[-73.6611234,45.4055551],[-73.6608837,45.4056237],[-73.6606032,45.4057264],[-73.6603768,45.405835],[-73.6601685,45.4059512],[-73.6599729,45.4060934],[-73.6598269,45.4062138],[-73.6596904,45.4063519],[-73.6595614,45.406511],[-73.6594348,45.406698],[-73.6593651,45.4068313],[-73.6593054,45.4069675],[-73.659252,45.4071389],[-73.6592237,45.4072872],[-73.6592088,45.4074725],[-73.6592066,45.4076714],[-73.6591998,45.4079813],[-73.6592002,45.4082715],[-73.6591779,45.4085643],[-73.6591713,45.4086677],[-73.6591458,45.4087966],[-73.6591126,45.408904],[-73.6590792,45.409],[-73.6590214,45.4091479]]}";5;Pont Honoré-Mercier;2;70;false;true;false;false;false;false;601.0;1;0;0;0;0;false;78274;6190671073;-73.672873;45.402284;78896;6190668830;-73.605037;45.435141;0;19;20;9420493;Bus 90 : Direction Montréal;"";EXO;90 E;avenue Bourdon / rue Principale;Cégep André-Laurendeau
720986411;"{\"type\":\"LineString\",\"coordinates\":[[-73.6590214,45.4091479],[-73.6585213,45.4101217],[-73.6580016,45.4111774],[-73.6572603,45.4126408],[-73.6566111,45.4138657],[-73.656491,45.4140705],[-73.6563268,45.4143483],[-73.654358,45.4175778],[-73.6520654,45.4212619]]}";6;Pont Honoré-Mercier;2;70;false;true;false;false;false;false;1452.0;0;0;0;0;0;false;78274;6190671073;-73.672873;45.402284;78896;6190668830;-73.605037;45.435141;0;19;20;9420493;Bus 90 : Direction Montréal;"";EXO;90 E;avenue Bourdon / rue Principale;Cégep André-Laurendeau
482530516;"{\"type\":\"LineString\",\"coordinates\":[[-73.6520654,45.4212619],[-73.6519112,45.4215281],[-73.6518434,45.4216675],[-73.6517835,45.4218267]]}";7;Pont Honoré-Mercier;1;70;false;true;false;false;false;false;67.0;0;0;0;0;0;false;78274;6190671073;-73.672873;45.402284;78896;6190668830;-73.605037;45.435141;0;19;20;9420493;Bus 90 : Direction Montréal;"";EXO;90 E;avenue Bourdon / rue Principale;Cégep André-Laurendeau
482530515;"{\"type\":\"LineString\",\"coordinates\":[[-73.6517835,45.4218267],[-73.6517192,45.4220142]]}";8;Pont Honoré-Mercier;1;70;false;true;false;false;false;false;22.0;0;0;0;0;0;false;78274;6190671073;-73.672873;45.402284;78896;6190668830;-73.605037;45.435141;0;19;20;9420493;Bus 90 : Direction Montréal;"";EXO;90 E;avenue Bourdon / rue Principale;Cégep André-Laurendeau
482530514;"{\"type\":\"LineString\",\"coordinates\":[[-73.6517192,45.4220142],[-73.6516557,45.422336]]}";9;Pont Honoré-Mercier;1;70;false;true;true;false;false;false;37.0;0;0;0;0;0;false;78274;6190671073;-73.672873;45.402284;78896;6190668830;-73.605037;45.435141;0;19;20;9420493;Bus 90 : Direction Montréal;"";EXO;90 E;avenue Bourdon / rue Principale;Cégep André-Laurendeau
104836575;"{\"type\":\"LineString\",\"coordinates\":[[-73.6516557,45.422336],[-73.6516448,45.422398]]}";10;Route 138;2;70;false;true;true;false;false;false;7.0;0;0;0;0;0;false;78274;6190671073;-73.672873;45.402284;78896;6190668830;-73.605037;45.435141;0;19;20;9420493;Bus 90 : Direction Montréal;"";EXO;90 E;avenue Bourdon / rue Principale;Cégep André-Laurendeau
422417413;"{\"type\":\"LineString\",\"coordinates\":[[-73.6516448,45.422398],[-73.6514116,45.4231709],[-73.6513538,45.4234419],[-73.6513121,45.4236092],[-73.6512362,45.4237671],[-73.6511279,45.4239254],[-73.6509832,45.4240821],[-73.6507779,45.4242529],[-73.6505039,45.4244128],[-73.650213,45.424533]]}";11;"";1;50;false;true;false;false;false;false;275.0;0;0;0;0;0;false;78274;6190671073;-73.672873;45.402284;78896;6190668830;-73.605037;45.435141;0;19;20;9420493;Bus 90 : Direction Montréal;"";EXO;90 E;avenue Bourdon / rue Principale;Cégep André-Laurendeau
490755726;"{\"type\":\"LineString\",\"coordinates\":[[-73.650213,45.424533],[-73.6497775,45.4246468]]}";12;"";1;50;false;true;false;false;false;false;37.0;0;0;0;0;0;false;78274;6190671073;-73.672873;45.402284;78896;6190668830;-73.605037;45.435141;0;19;20;9420493;Bus 90 : Direction Montréal;"";EXO;90 E;avenue Bourdon / rue Principale;Cégep André-Laurendeau
490755725;"{\"type\":\"LineString\",\"coordinates\":[[-73.6497775,45.4246468],[-73.6494277,45.4246853],[-73.6490931,45.4246799],[-73.6487572,45.4246407],[-73.6468808,45.424196]]}";13;"";1;50;false;true;false;false;false;false;236.0;0;0;0;0;0;false;78274;6190671073;-73.672873;45.402284;78896;6190668830;-73.605037;45.435141;0;19;20;9420493;Bus 90 : Direction Montréal;"";EXO;90 E;avenue Bourdon / rue Principale;Cégep André-Laurendeau
502887633;"{\"type\":\"LineString\",\"coordinates\":[[-73.6468808,45.424196],[-73.6457869,45.4239796]]}";14;"";1;50;false;true;true;false;false;false;89.0;0;0;0;0;0;false;78274;6190671073;-73.672873;45.402284;78896;6190668830;-73.605037;45.435141;0;19;20;9420493;Bus 90 : Direction Montréal;"";EXO;90 E;avenue Bourdon / rue Principale;Cégep André-Laurendeau
502887632;"{\"type\":\"LineString\",\"coordinates\":[[-73.6457869,45.4239796],[-73.6455252,45.4238829]]}";15;Rue Airlie;1;50;false;true;true;false;false;false;24.0;0;0;0;0;0;false;78274;6190671073;-73.672873;45.402284;78896;6190668830;-73.605037;45.435141;0;19;20;9420493;Bus 90 : Direction Montréal;"";EXO;90 E;avenue Bourdon / rue Principale;Cégep André-Laurendeau
587344192;"{\"type\":\"LineString\",\"coordinates\":[[-73.6455252,45.4238829],[-73.6424389,45.4231777],[-73.6415779,45.422982]]}";16;Rue Airlie;1;50;false;true;true;false;false;false;325.0;1;0;0;0;0;false;78274;6190671073;-73.672873;45.402284;78896;6190668830;-73.605037;45.435141;0;19;20;9420493;Bus 90 : Direction Montréal;"";EXO;90 E;avenue Bourdon / rue Principale;Cégep André-Laurendeau
502887631;"{\"type\":\"LineString\",\"coordinates\":[[-73.6415779,45.422982],[-73.6410026,45.4228474],[-73.640445,45.4227169],[-73.6390545,45.4224097],[-73.6379623,45.4221596],[-73.6374237,45.4220362]]}";17;Rue Airlie;1;50;false;true;true;false;false;false;342.0;1;0;0;0;0;false;78274;6190671073;-73.672873;45.402284;78896;6190668830;-73.605037;45.435141;0;19;20;9420493;Bus 90 : Direction Montréal;"";EXO;90 E;avenue Bourdon / rue Principale;Cégep André-Laurendeau
502887628;"{\"type\":\"LineString\",\"coordinates\":[[-73.6374237,45.4220362],[-73.6366992,45.4218752],[-73.6350544,45.4214942]]}";18;Rue Airlie;1;50;false;true;true;false;false;false;195.0;0;0;0;0;0;false;78274;6190671073;-73.672873;45.402284;78896;6190668830;-73.605037;45.435141;0;19;20;9420493;Bus 90 : Direction Montréal;"";EXO;90 E;avenue Bourdon / rue Principale;Cégep André-Laurendeau
452060062;"{\"type\":\"LineString\",\"coordinates\":[[-73.6350544,45.4214942],[-73.6344775,45.4213683],[-73.6324286,45.4209211],[-73.6309607,45.4205964]]}";19;Rue Airlie;1;50;false;true;true;false;false;false;336.0;0;0;0;0;0;false;78274;6190671073;-73.672873;45.402284;78896;6190668830;-73.605037;45.435141;0;19;20;9420493;Bus 90 : Direction Montréal;"";EXO;90 E;avenue Bourdon / rue Principale;Cégep André-Laurendeau
502888291;"{\"type\":\"LineString\",\"coordinates\":[[-73.6309607,45.4205964],[-73.6302054,45.4204217]]}";20;Rue Airlie;1;50;false;true;true;false;false;false;63.0;1;0;0;0;0;false;78274;6190671073;-73.672873;45.402284;78896;6190668830;-73.605037;45.435141;0;19;20;9420493;Bus 90 : Direction Montréal;"";EXO;90 E;avenue Bourdon / rue Principale;Cégep André-Laurendeau
236669213;"{\"type\":\"LineString\",\"coordinates\":[[-73.6302054,45.4204217],[-73.6301241,45.4204061],[-73.6299829,45.4203789],[-73.6297471,45.420369],[-73.6295647,45.4203745],[-73.6291827,45.4205202],[-73.6285538,45.4209495],[-73.6279296,45.4212938],[-73.627175,45.4216248],[-73.6265429,45.4218554],[-73.6253386,45.4222075],[-73.6235054,45.4227449],[-73.6220515,45.4231738],[-73.6200639,45.4238185],[-73.6191677,45.4241562],[-73.6184917,45.4244883],[-73.617803,45.4248094],[-73.6170437,45.4252751],[-73.6156963,45.4261424],[-73.614275,45.4270395],[-73.612247,45.4283286],[-73.6115489,45.428776],[-73.6097927,45.4298862],[-73.6096866,45.4299533]]}";21;Boulevard De La Vérendrye;1;50;false;true;true;false;false;false;1955.0;3;1;0;0;0;false;78274;6190671073;-73.672873;45.402284;78896;6190668830;-73.605037;45.435141;0;19;20;9420493;Bus 90 : Direction Montréal;"";EXO;90 E;avenue Bourdon / rue Principale;Cégep André-Laurendeau
453010605;"{\"type\":\"LineString\",\"coordinates\":[[-73.6096866,45.4299533],[-73.6095629,45.4300364]]}";22;Boulevard De La Vérendrye;1;50;false;true;true;false;false;false;14.0;2;0;0;0;0;false;78274;6190671073;-73.672873;45.402284;78896;6190668830;-73.605037;45.435141;0;19;20;9420493;Bus 90 : Direction Montréal;"";EXO;90 E;avenue Bourdon / rue Principale;Cégep André-Laurendeau
678486008;"{\"type\":\"LineString\",\"coordinates\":[[-73.6095629,45.4300364],[-73.6094951,45.4300813],[-73.6081021,45.4310043],[-73.6028052,45.43448]]}";23;Boulevard De La Vérendrye;1;50;false;true;true;false;false;false;723.0;2;1;0;0;0;false;78274;6190671073;-73.672873;45.402284;78896;6190668830;-73.605037;45.435141;0;19;20;9420493;Bus 90 : Direction Montréal;"";EXO;90 E;avenue Bourdon / rue Principale;Cégep André-Laurendeau
453711099;"{\"type\":\"LineString\",\"coordinates\":[[-73.6029888,45.4345438],[-73.6028052,45.43448]]}";24;Rue Lapierre;1;50;false;false;true;false;false;false;17.0;2;0;0;0;0;false;78274;6190671073;-73.672873;45.402284;78896;6190668830;-73.605037;45.435141;0;19;20;9420493;Bus 90 : Direction Montréal;"";EXO;90 E;avenue Bourdon / rue Principale;Cégep André-Laurendeau
453711101;"{\"type\":\"LineString\",\"coordinates\":[[-73.6043351,45.4349837],[-73.6039698,45.4348768],[-73.6036587,45.4347854],[-73.6033636,45.4346768],[-73.6031306,45.4345909],[-73.6029888,45.4345438]]}";25;Rue Lapierre;1;50;false;false;true;false;false;false;117.0;2;0;0;0;0;false;78274;6190671073;-73.672873;45.402284;78896;6190668830;-73.605037;45.435141;0;19;20;9420493;Bus 90 : Direction Montréal;"";EXO;90 E;avenue Bourdon / rue Principale;Cégep André-Laurendeau
456374138;"{\"type\":\"LineString\",\"coordinates\":[[-73.6048773,45.4350986],[-73.6043351,45.4349837]]}";26;Rue Lapierre;1;50;false;false;true;false;false;false;45.0;0;0;0;0;0;false;78274;6190671073;-73.672873;45.402284;78896;6190668830;-73.605037;45.435141;1;19;20;9420493;Bus 90 : Direction Montréal;"";EXO;90 E;avenue Bourdon / rue Principale;Cégep André-Laurendeau
