way_id;shape;index;name;nb_lanes;legal_speed;speed_zone_30;oneway;shares_bike;bike_box;bus_lane;dedicated_bus_lane;length;nb_traffic_signals;nb_crossings;nb_stops;nb_give_ways;nb_lvl_crossings;roundabout;stop_id_orig;node_id_orig;coord_x_orig;coord_y_orig;stop_id_dest;node_id_dest;coord_x_dest;coord_y_dest;nb_neighbouring_ways_bus_stop;ordre_orig;ordre_dest;id_line;line_name;colour;operator;ref;from;to
653256416;"{\"type\":\"LineString\",\"coordinates\":[[-73.834757,45.6358805],[-73.8342691,45.6358967],[-73.8341807,45.6358659],[-73.8339481,45.6356843]]}";1;"";1;50;false;true;true;false;false;false;73.0;0;0;0;0;0;false;82035;6119525317;-73.834747;45.635784;82843;6119523786;-73.829656;45.634673;1;0;1;9394148;Bus 73 : GARE STE-THÉRÈSE/ FONTAINEBLEAU;"";EXO;73;Gare Sainte-Thérèse;Gare Sainte-Thérèse
529203723;"{\"type\":\"LineString\",\"coordinates\":[[-73.8339481,45.6356843],[-73.8343198,45.635673],[-73.8355432,45.6356357],[-73.835722,45.6356303],[-73.8358794,45.6356222],[-73.8360357,45.6356141]]}";2;"";1;50;false;true;true;false;false;false;163.0;0;0;0;0;0;false;82035;6119525317;-73.834747;45.635784;82843;6119523786;-73.829656;45.634673;0;0;1;9394148;Bus 73 : GARE STE-THÉRÈSE/ FONTAINEBLEAU;"";EXO;73;Gare Sainte-Thérèse;Gare Sainte-Thérèse
529203724;"{\"type\":\"LineString\",\"coordinates\":[[-73.8339481,45.6356843],[-73.8337953,45.6356449],[-73.8337255,45.6356355],[-73.8335183,45.6356418],[-73.8331872,45.6356518],[-73.8329976,45.6355146]]}";3;"";1;50;false;false;true;false;false;false;82.0;0;0;0;0;0;false;82035;6119525317;-73.834747;45.635784;82843;6119523786;-73.829656;45.634673;0;0;1;9394148;Bus 73 : GARE STE-THÉRÈSE/ FONTAINEBLEAU;"";EXO;73;Gare Sainte-Thérèse;Gare Sainte-Thérèse
653256415;"{\"type\":\"LineString\",\"coordinates\":[[-73.8312914,45.6343832],[-73.8319665,45.6348309],[-73.8321067,45.6349239],[-73.8322795,45.6350385],[-73.8326436,45.6352799],[-73.8329976,45.6355146]]}";4;Rue Saint-Alphonse;1;50;false;false;true;false;false;false;183.0;0;0;0;0;0;false;82035;6119525317;-73.834747;45.635784;82843;6119523786;-73.829656;45.634673;0;0;1;9394148;Bus 73 : GARE STE-THÉRÈSE/ FONTAINEBLEAU;"";EXO;73;Gare Sainte-Thérèse;Gare Sainte-Thérèse
42904463;"{\"type\":\"LineString\",\"coordinates\":[[-73.8312133,45.6343318],[-73.8312914,45.6343832]]}";5;Rue Saint-Alphonse;1;50;false;false;true;false;false;false;9.0;0;0;0;0;0;false;82035;6119525317;-73.834747;45.635784;82843;6119523786;-73.829656;45.634673;0;0;1;9394148;Bus 73 : GARE STE-THÉRÈSE/ FONTAINEBLEAU;"";EXO;73;Gare Sainte-Thérèse;Gare Sainte-Thérèse
653254442;"{\"type\":\"LineString\",\"coordinates\":[[-73.8312133,45.6343318],[-73.8310774,45.6344094],[-73.8306085,45.6346142],[-73.8303329,45.6347019],[-73.8299105,45.6348048],[-73.8298803,45.6348098],[-73.8296492,45.6348481],[-73.8293823,45.6348668],[-73.8286284,45.6348731],[-73.8285388,45.634874],[-73.8282829,45.634875],[-73.8280665,45.6348758],[-73.827908,45.6348787],[-73.8266672,45.6348759],[-73.8265576,45.6348756],[-73.8263185,45.634875],[-73.8260891,45.6348617]]}";6;Boulevard Desjardins Est;2;40;false;true;true;false;false;false;414.0;0;0;0;0;0;false;82035;6119525317;-73.834747;45.635784;82843;6119523786;-73.829656;45.634673;2;0;1;9394148;Bus 73 : GARE STE-THÉRÈSE/ FONTAINEBLEAU;"";EXO;73;Gare Sainte-Thérèse;Gare Sainte-Thérèse
519985186;"{\"type\":\"LineString\",\"coordinates\":[[-73.8260891,45.6348617],[-73.824991,45.6348491],[-73.8242915,45.6348411],[-73.8237806,45.6347432],[-73.8232529,45.634571],[-73.8228896,45.6344524],[-73.8224992,45.6343731],[-73.8222707,45.6343692],[-73.8220321,45.6344084],[-73.8219021,45.6344515],[-73.8218515,45.6344683],[-73.8216794,45.6345581],[-73.8214734,45.6346842]]}";1;Boulevard Desjardins Est;2;40;false;true;false;false;false;false;190.5;0;0;0;0;0;false;82037;6119525315;-73.823082;45.634429;82845;6119523284;-73.801548;45.655244;1;3;4;9394148;Bus 73 : GARE STE-THÉRÈSE/ FONTAINEBLEAU;"";EXO;73;Gare Sainte-Thérèse;Gare Sainte-Thérèse
519985188;"{\"type\":\"LineString\",\"coordinates\":[[-73.8214734,45.6346842],[-73.8213132,45.6348362]]}";2;Boulevard Desjardins Est;2;50;false;true;true;false;false;false;21.0;1;0;0;0;0;false;82037;6119525315;-73.823082;45.634429;82845;6119523284;-73.801548;45.655244;0;3;4;9394148;Bus 73 : GARE STE-THÉRÈSE/ FONTAINEBLEAU;"";EXO;73;Gare Sainte-Thérèse;Gare Sainte-Thérèse
500685367;"{\"type\":\"LineString\",\"coordinates\":[[-73.8213132,45.6348362],[-73.8209998,45.6346679],[-73.8199812,45.6341938],[-73.8194268,45.6339614]]}";3;Boulevard Curé-Labelle;2;60;false;true;true;false;false;false;177.0;1;0;0;0;0;false;82037;6119525315;-73.823082;45.634429;82845;6119523284;-73.801548;45.655244;0;3;4;9394148;Bus 73 : GARE STE-THÉRÈSE/ FONTAINEBLEAU;"";EXO;73;Gare Sainte-Thérèse;Gare Sainte-Thérèse
455097998;"{\"type\":\"LineString\",\"coordinates\":[[-73.8194268,45.6339614],[-73.8183998,45.6335307],[-73.817817,45.6332863],[-73.8175487,45.6331738],[-73.8174692,45.6331387],[-73.8170374,45.6329559]]}";4;Boulevard Curé-Labelle;2;60;false;true;true;false;false;false;218.0;0;0;0;0;0;false;82037;6119525315;-73.823082;45.634429;82845;6119523284;-73.801548;45.655244;0;3;4;9394148;Bus 73 : GARE STE-THÉRÈSE/ FONTAINEBLEAU;"";EXO;73;Gare Sainte-Thérèse;Gare Sainte-Thérèse
455097996;"{\"type\":\"LineString\",\"coordinates\":[[-73.8170374,45.6329559],[-73.8164988,45.6327108]]}";5;Boulevard Curé-Labelle;2;60;false;true;true;false;false;false;51.0;1;0;0;0;0;false;82037;6119525315;-73.823082;45.634429;82845;6119523284;-73.801548;45.655244;0;3;4;9394148;Bus 73 : GARE STE-THÉRÈSE/ FONTAINEBLEAU;"";EXO;73;Gare Sainte-Thérèse;Gare Sainte-Thérèse
455316734;"{\"type\":\"LineString\",\"coordinates\":[[-73.8164988,45.6327108],[-73.8163819,45.632666]]}";6;Boulevard Curé-Labelle;2;60;false;true;true;false;false;false;11.0;2;0;0;0;0;false;82037;6119525315;-73.823082;45.634429;82845;6119523284;-73.801548;45.655244;0;3;4;9394148;Bus 73 : GARE STE-THÉRÈSE/ FONTAINEBLEAU;"";EXO;73;Gare Sainte-Thérèse;Gare Sainte-Thérèse
455316735;"{\"type\":\"LineString\",\"coordinates\":[[-73.8163819,45.632666],[-73.8162792,45.6327752]]}";7;"";1;50;false;true;true;false;false;false;15.0;2;0;0;0;0;false;82037;6119525315;-73.823082;45.634429;82845;6119523284;-73.801548;45.655244;0;3;4;9394148;Bus 73 : GARE STE-THÉRÈSE/ FONTAINEBLEAU;"";EXO;73;Gare Sainte-Thérèse;Gare Sainte-Thérèse
40390850;"{\"type\":\"LineString\",\"coordinates\":[[-73.8162792,45.6327752],[-73.8161057,45.6330165],[-73.8160113,45.6332205],[-73.8159888,45.6334104],[-73.8160222,45.6336205],[-73.8161057,45.6337787],[-73.8162406,45.6338861],[-73.8165606,45.6340608],[-73.8169726,45.6342468],[-73.8173932,45.6344629],[-73.8176078,45.6346369],[-73.817685,45.634841],[-73.8177108,45.635093],[-73.8176301,45.6353071]]}";8;"";1;50;false;true;true;false;false;false;346.0;1;0;0;0;0;false;82037;6119525315;-73.823082;45.634429;82845;6119523284;-73.801548;45.655244;0;3;4;9394148;Bus 73 : GARE STE-THÉRÈSE/ FONTAINEBLEAU;"";EXO;73;Gare Sainte-Thérèse;Gare Sainte-Thérèse
481972338;"{\"type\":\"LineString\",\"coordinates\":[[-73.8176301,45.6353071],[-73.8164225,45.636396]]}";9;"";2;50;false;true;true;false;false;false;154.0;0;0;0;0;0;false;82037;6119525315;-73.823082;45.634429;82845;6119523284;-73.801548;45.655244;0;3;4;9394148;Bus 73 : GARE STE-THÉRÈSE/ FONTAINEBLEAU;"";EXO;73;Gare Sainte-Thérèse;Gare Sainte-Thérèse
44625831;"{\"type\":\"LineString\",\"coordinates\":[[-73.8164225,45.636396],[-73.8157104,45.637028]]}";10;"";1;50;false;true;true;false;false;false;90.0;0;0;0;0;0;false;82037;6119525315;-73.823082;45.634429;82845;6119523284;-73.801548;45.655244;0;3;4;9394148;Bus 73 : GARE STE-THÉRÈSE/ FONTAINEBLEAU;"";EXO;73;Gare Sainte-Thérèse;Gare Sainte-Thérèse
44625832;"{\"type\":\"LineString\",\"coordinates\":[[-73.8157104,45.637028],[-73.8151432,45.6374837],[-73.8136559,45.6385137]]}";11;"";2;50;false;true;true;false;false;false;230.0;0;0;0;0;0;false;82037;6119525315;-73.823082;45.634429;82845;6119523284;-73.801548;45.655244;0;3;4;9394148;Bus 73 : GARE STE-THÉRÈSE/ FONTAINEBLEAU;"";EXO;73;Gare Sainte-Thérèse;Gare Sainte-Thérèse
676642389;"{\"type\":\"LineString\",\"coordinates\":[[-73.8136559,45.6385137],[-73.8125151,45.6393276]]}";12;"";3;50;false;true;true;false;false;false;127.0;1;0;0;0;0;false;82037;6119525315;-73.823082;45.634429;82845;6119523284;-73.801548;45.655244;0;3;4;9394148;Bus 73 : GARE STE-THÉRÈSE/ FONTAINEBLEAU;"";EXO;73;Gare Sainte-Thérèse;Gare Sainte-Thérèse
221964521;"{\"type\":\"LineString\",\"coordinates\":[[-73.8125151,45.6393276],[-73.81245,45.6393861],[-73.811023,45.6408295]]}";13;"";3;50;false;true;true;false;false;false;204.0;2;0;0;0;0;false;82037;6119525315;-73.823082;45.634429;82845;6119523284;-73.801548;45.655244;0;3;4;9394148;Bus 73 : GARE STE-THÉRÈSE/ FONTAINEBLEAU;"";EXO;73;Gare Sainte-Thérèse;Gare Sainte-Thérèse
221964520;"{\"type\":\"LineString\",\"coordinates\":[[-73.811023,45.6408295],[-73.8103912,45.6414628]]}";14;"";2;50;false;true;true;false;false;false;86.0;0;0;0;0;0;false;82037;6119525315;-73.823082;45.634429;82845;6119523284;-73.801548;45.655244;0;3;4;9394148;Bus 73 : GARE STE-THÉRÈSE/ FONTAINEBLEAU;"";EXO;73;Gare Sainte-Thérèse;Gare Sainte-Thérèse
221964522;"{\"type\":\"LineString\",\"coordinates\":[[-73.8103912,45.6414628],[-73.8096606,45.6421949],[-73.8088883,45.6429179],[-73.8078448,45.64387],[-73.8071855,45.6444824],[-73.8070698,45.6446537]]}";15;"";1;50;false;true;true;false;false;false;440.0;0;0;0;0;0;false;82037;6119525315;-73.823082;45.634429;82845;6119523284;-73.801548;45.655244;0;3;4;9394148;Bus 73 : GARE STE-THÉRÈSE/ FONTAINEBLEAU;"";EXO;73;Gare Sainte-Thérèse;Gare Sainte-Thérèse
46492587;"{\"type\":\"LineString\",\"coordinates\":[[-73.8070698,45.6446537],[-73.8057591,45.6457882],[-73.804918,45.6466043],[-73.8041713,45.6475043],[-73.8036219,45.6482423],[-73.8018529,45.6510622]]}";16;Autoroute de la Rive-Nord;2;100;false;true;true;false;false;false;825.0;0;0;0;0;0;false;82037;6119525315;-73.823082;45.634429;82845;6119523284;-73.801548;45.655244;0;3;4;9394148;Bus 73 : GARE STE-THÉRÈSE/ FONTAINEBLEAU;"";EXO;73;Gare Sainte-Thérèse;Gare Sainte-Thérèse
44812678;"{\"type\":\"LineString\",\"coordinates\":[[-73.8018529,45.6510622],[-73.8015285,45.6515721]]}";17;Autoroute de la Rive-Nord;2;100;false;true;true;false;false;false;63.0;0;0;0;0;0;false;82037;6119525315;-73.823082;45.634429;82845;6119523284;-73.801548;45.655244;0;3;4;9394148;Bus 73 : GARE STE-THÉRÈSE/ FONTAINEBLEAU;"";EXO;73;Gare Sainte-Thérèse;Gare Sainte-Thérèse
674530018;"{\"type\":\"LineString\",\"coordinates\":[[-73.8015285,45.6515721],[-73.801474,45.6516642]]}";18;Autoroute de la Rive-Nord;2;100;false;true;true;false;false;false;12.0;0;0;0;0;0;false;82037;6119525315;-73.823082;45.634429;82845;6119523284;-73.801548;45.655244;0;3;4;9394148;Bus 73 : GARE STE-THÉRÈSE/ FONTAINEBLEAU;"";EXO;73;Gare Sainte-Thérèse;Gare Sainte-Thérèse
39946213;"{\"type\":\"LineString\",\"coordinates\":[[-73.801474,45.6516642],[-73.8012533,45.6519036],[-73.8010557,45.6521787],[-73.800955,45.6522928],[-73.8008513,45.6523883],[-73.8007337,45.6524645],[-73.8005903,45.6525237],[-73.8004411,45.6525721],[-73.8002822,45.6525966],[-73.8001221,45.6526014],[-73.7999632,45.6525875],[-73.7998427,45.6525609],[-73.7997259,45.6525191],[-73.7996246,45.6524716],[-73.7995283,45.6524145],[-73.7994032,45.6523251],[-73.79917,45.6521281],[-73.799034,45.6519959]]}";19;"";1;50;false;true;true;false;false;false;270.0;0;0;0;0;0;false;82037;6119525315;-73.823082;45.634429;82845;6119523284;-73.801548;45.655244;0;3;4;9394148;Bus 73 : GARE STE-THÉRÈSE/ FONTAINEBLEAU;"";EXO;73;Gare Sainte-Thérèse;Gare Sainte-Thérèse
674530019;"{\"type\":\"LineString\",\"coordinates\":[[-73.8023228,45.6515035],[-73.8014942,45.651449],[-73.8007732,45.651425],[-73.800462,45.6514501],[-73.8001382,45.6514996],[-73.7998313,45.6516031],[-73.7995819,45.6517072],[-73.799034,45.6519959]]}";20;Chemin du Bas-de-Sainte-Thérèse;1;50;false;false;true;false;false;false;274.0;0;0;0;0;0;false;82037;6119525315;-73.823082;45.634429;82845;6119523284;-73.801548;45.655244;0;3;4;9394148;Bus 73 : GARE STE-THÉRÈSE/ FONTAINEBLEAU;"";EXO;73;Gare Sainte-Thérèse;Gare Sainte-Thérèse
218505116;"{\"type\":\"LineString\",\"coordinates\":[[-73.8023228,45.6515035],[-73.8025188,45.6516065],[-73.8025629,45.6516479],[-73.8026593,45.6518753]]}";21;"";1;50;false;true;true;false;false;false;52.0;0;0;0;0;0;false;82037;6119525315;-73.823082;45.634429;82845;6119523284;-73.801548;45.655244;0;3;4;9394148;Bus 73 : GARE STE-THÉRÈSE/ FONTAINEBLEAU;"";EXO;73;Gare Sainte-Thérèse;Gare Sainte-Thérèse
218505117;"{\"type\":\"LineString\",\"coordinates\":[[-73.8026593,45.6518753],[-73.8025275,45.6527271],[-73.8025116,45.6528224],[-73.8023715,45.6535662],[-73.8022934,45.6539772],[-73.8021264,45.6544029],[-73.8019925,45.6545901],[-73.8019033,45.6547149],[-73.8016543,45.6550988],[-73.8015762,45.6552842],[-73.80162,45.6555968],[-73.8017098,45.6558439],[-73.8018572,45.6560604],[-73.8021264,45.6563227],[-73.8028731,45.6567426],[-73.8033987,45.6570829],[-73.804046,45.6576229],[-73.8046924,45.6581307]]}";22;Boulevard des Châteaux;2;50;false;true;true;false;false;false;401.0;0;0;0;0;0;false;82037;6119525315;-73.823082;45.634429;82845;6119523284;-73.801548;45.655244;1;3;4;9394148;Bus 73 : GARE STE-THÉRÈSE/ FONTAINEBLEAU;"";EXO;73;Gare Sainte-Thérèse;Gare Sainte-Thérèse
218505114;"{\"type\":\"LineString\",\"coordinates\":[[-73.8018591,45.6558037],[-73.801766,45.6555474],[-73.8017848,45.6553045],[-73.8018366,45.6551135],[-73.8022532,45.6544659],[-73.8023628,45.6542637],[-73.8024671,45.6539769],[-73.8025514,45.6535866],[-73.802687,45.6528354]]}";1;Boulevard des Châteaux;2;50;false;true;false;false;false;false;342.0;0;0;0;0;0;false;82845;6119523284;-73.801548;45.655244;82685;6119523898;-73.804526;45.658095;2;4;5;9394148;Bus 73 : GARE STE-THÉRÈSE/ FONTAINEBLEAU;"";EXO;73;Gare Sainte-Thérèse;Gare Sainte-Thérèse
453838415;"{\"type\":\"LineString\",\"coordinates\":[[-73.8038617,45.6573081],[-73.8035169,45.6570126],[-73.8022413,45.6562094],[-73.8020858,45.6560663],[-73.8018591,45.6558037]]}";2;Boulevard des Châteaux;2;50;false;true;true;false;false;false;230.0;0;0;0;0;0;false;82845;6119523284;-73.801548;45.655244;82685;6119523898;-73.804526;45.658095;0;4;5;9394148;Bus 73 : GARE STE-THÉRÈSE/ FONTAINEBLEAU;"";EXO;73;Gare Sainte-Thérèse;Gare Sainte-Thérèse
453838411;"{\"type\":\"LineString\",\"coordinates\":[[-73.8048026,45.6580574],[-73.8038617,45.6573081]]}";3;Boulevard des Châteaux;2;50;false;true;false;false;false;false;111.0;0;0;0;0;0;false;82845;6119523284;-73.801548;45.655244;82685;6119523898;-73.804526;45.658095;0;4;5;9394148;Bus 73 : GARE STE-THÉRÈSE/ FONTAINEBLEAU;"";EXO;73;Gare Sainte-Thérèse;Gare Sainte-Thérèse
43284090;"{\"type\":\"LineString\",\"coordinates\":[[-73.8098879,45.6605329],[-73.8090615,45.6599761],[-73.808435,45.6596342],[-73.8077312,45.6593042],[-73.8066982,45.6589674],[-73.805668,45.6585784],[-73.8048026,45.6580574]]}";4;Boulevard des Châteaux;2;50;false;true;true;false;false;false;486.0;0;0;0;0;0;false;82845;6119523284;-73.801548;45.655244;82685;6119523898;-73.804526;45.658095;0;4;5;9394148;Bus 73 : GARE STE-THÉRÈSE/ FONTAINEBLEAU;"";EXO;73;Gare Sainte-Thérèse;Gare Sainte-Thérèse
26296248;"{\"type\":\"LineString\",\"coordinates\":[[-73.8098879,45.6605329],[-73.8110434,45.6596947],[-73.8117508,45.6591824],[-73.8125354,45.6586141],[-73.8129242,45.6583302],[-73.8133143,45.6580881],[-73.8136903,45.6579151],[-73.8141193,45.6577794],[-73.8145945,45.6577],[-73.8150723,45.6576607],[-73.8157364,45.6576663],[-73.8165824,45.6577546],[-73.8171156,45.6578779],[-73.8174921,45.6579925],[-73.8178031,45.658143],[-73.8180622,45.658296],[-73.8186168,45.6586948],[-73.8193731,45.6592971],[-73.8197019,45.6595346],[-73.8212088,45.6604987],[-73.8226285,45.661308],[-73.8228738,45.6614479],[-73.8232851,45.6617887],[-73.8241589,45.6625393],[-73.8248996,45.6631755],[-73.8253761,45.6635563],[-73.8258714,45.6638853],[-73.8260554,45.6640458],[-73.8261665,45.6641797],[-73.8263107,45.6644127],[-73.8264959,45.6648598],[-73.8265006,45.6651427],[-73.8264647,45.6658465],[-73.826462,45.666253],[-73.8263915,45.6666087],[-73.8261716,45.6670389],[-73.8259845,45.6672919],[-73.8248788,45.6685264],[-73.8243866,45.6689555],[-73.8234031,45.6697025],[-73.8225087,45.6702252],[-73.8217258,45.6706266],[-73.8210919,45.670957],[-73.8208543,45.6710597],[-73.820412,45.6712127],[-73.8201731,45.6712733],[-73.8197894,45.6713494],[-73.8191072,45.6714092],[-73.8186777,45.671435],[-73.8182454,45.6714193],[-73.8178519,45.6713717],[-73.8174719,45.6713093],[-73.8171549,45.6712278],[-73.8169406,45.6711658],[-73.8163685,45.6709377],[-73.8159114,45.6706902],[-73.8154229,45.6703801],[-73.815075,45.6701441],[-73.8140914,45.6695158],[-73.811632,45.6679216],[-73.8115919,45.6678969],[-73.811092,45.667583],[-73.8108653,45.6674446],[-73.8107776,45.667391],[-73.8105694,45.6672584],[-73.8098392,45.6668813],[-73.8097332,45.6668265],[-73.8089112,45.666467],[-73.8086688,45.6663222],[-73.8083797,45.6660883],[-73.8080546,45.6657636],[-73.8078066,45.6654056],[-73.8074761,45.6646461],[-73.8073837,45.6642782],[-73.8073385,45.6638706],[-73.8073725,45.6635009],[-73.8074442,45.6631246],[-73.8075658,45.6627882],[-73.807757,45.662423],[-73.8080198,45.6620478],[-73.8083015,45.6617518],[-73.808726,45.6614008],[-73.8097991,45.6606004]]}";5;Boulevard de Fontainebleau;2;50;false;false;false;false;false;false;4511.0;0;1;0;0;0;false;82845;6119523284;-73.801548;45.655244;82685;6119523898;-73.804526;45.658095;0;4;5;9394148;Bus 73 : GARE STE-THÉRÈSE/ FONTAINEBLEAU;"";EXO;73;Gare Sainte-Thérèse;Gare Sainte-Thérèse
218505118;"{\"type\":\"LineString\",\"coordinates\":[[-73.8046924,45.6581307],[-73.8050366,45.6583457],[-73.8056018,45.6586505],[-73.8066405,45.6590633],[-73.8076905,45.6593828],[-73.8083721,45.6597053],[-73.808977,45.6600459],[-73.8097991,45.6606004]]}";6;Boulevard des Châteaux;2;50;false;true;false;false;false;false;487.0;0;0;0;0;0;false;82845;6119523284;-73.801548;45.655244;82685;6119523898;-73.804526;45.658095;0;4;5;9394148;Bus 73 : GARE STE-THÉRÈSE/ FONTAINEBLEAU;"";EXO;73;Gare Sainte-Thérèse;Gare Sainte-Thérèse
218505117;"{\"type\":\"LineString\",\"coordinates\":[[-73.8026593,45.6518753],[-73.8025275,45.6527271],[-73.8025116,45.6528224],[-73.8023715,45.6535662],[-73.8022934,45.6539772],[-73.8021264,45.6544029],[-73.8019925,45.6545901],[-73.8019033,45.6547149],[-73.8016543,45.6550988],[-73.8015762,45.6552842],[-73.80162,45.6555968],[-73.8017098,45.6558439],[-73.8018572,45.6560604],[-73.8021264,45.6563227],[-73.8028731,45.6567426],[-73.8033987,45.6570829],[-73.804046,45.6576229],[-73.8046924,45.6581307]]}";7;Boulevard des Châteaux;2;50;false;true;true;false;false;false;802.0;0;0;0;0;0;false;82845;6119523284;-73.801548;45.655244;82685;6119523898;-73.804526;45.658095;2;4;5;9394148;Bus 73 : GARE STE-THÉRÈSE/ FONTAINEBLEAU;"";EXO;73;Gare Sainte-Thérèse;Gare Sainte-Thérèse
43284090;"{\"type\":\"LineString\",\"coordinates\":[[-73.8098879,45.6605329],[-73.8090615,45.6599761],[-73.808435,45.6596342],[-73.8077312,45.6593042],[-73.8066982,45.6589674],[-73.805668,45.6585784],[-73.8048026,45.6580574]]}";1;Boulevard des Châteaux;2;50;false;true;true;false;false;false;486.0;0;0;0;0;0;false;82686;6119523897;-73.807527;45.65939;82687;6119523896;-73.809575;45.660563;2;6;7;9394148;Bus 73 : GARE STE-THÉRÈSE/ FONTAINEBLEAU;"";EXO;73;Gare Sainte-Thérèse;Gare Sainte-Thérèse
26296248;"{\"type\":\"LineString\",\"coordinates\":[[-73.8098879,45.6605329],[-73.8110434,45.6596947],[-73.8117508,45.6591824],[-73.8125354,45.6586141],[-73.8129242,45.6583302],[-73.8133143,45.6580881],[-73.8136903,45.6579151],[-73.8141193,45.6577794],[-73.8145945,45.6577],[-73.8150723,45.6576607],[-73.8157364,45.6576663],[-73.8165824,45.6577546],[-73.8171156,45.6578779],[-73.8174921,45.6579925],[-73.8178031,45.658143],[-73.8180622,45.658296],[-73.8186168,45.6586948],[-73.8193731,45.6592971],[-73.8197019,45.6595346],[-73.8212088,45.6604987],[-73.8226285,45.661308],[-73.8228738,45.6614479],[-73.8232851,45.6617887],[-73.8241589,45.6625393],[-73.8248996,45.6631755],[-73.8253761,45.6635563],[-73.8258714,45.6638853],[-73.8260554,45.6640458],[-73.8261665,45.6641797],[-73.8263107,45.6644127],[-73.8264959,45.6648598],[-73.8265006,45.6651427],[-73.8264647,45.6658465],[-73.826462,45.666253],[-73.8263915,45.6666087],[-73.8261716,45.6670389],[-73.8259845,45.6672919],[-73.8248788,45.6685264],[-73.8243866,45.6689555],[-73.8234031,45.6697025],[-73.8225087,45.6702252],[-73.8217258,45.6706266],[-73.8210919,45.670957],[-73.8208543,45.6710597],[-73.820412,45.6712127],[-73.8201731,45.6712733],[-73.8197894,45.6713494],[-73.8191072,45.6714092],[-73.8186777,45.671435],[-73.8182454,45.6714193],[-73.8178519,45.6713717],[-73.8174719,45.6713093],[-73.8171549,45.6712278],[-73.8169406,45.6711658],[-73.8163685,45.6709377],[-73.8159114,45.6706902],[-73.8154229,45.6703801],[-73.815075,45.6701441],[-73.8140914,45.6695158],[-73.811632,45.6679216],[-73.8115919,45.6678969],[-73.811092,45.667583],[-73.8108653,45.6674446],[-73.8107776,45.667391],[-73.8105694,45.6672584],[-73.8098392,45.6668813],[-73.8097332,45.6668265],[-73.8089112,45.666467],[-73.8086688,45.6663222],[-73.8083797,45.6660883],[-73.8080546,45.6657636],[-73.8078066,45.6654056],[-73.8074761,45.6646461],[-73.8073837,45.6642782],[-73.8073385,45.6638706],[-73.8073725,45.6635009],[-73.8074442,45.6631246],[-73.8075658,45.6627882],[-73.807757,45.662423],[-73.8080198,45.6620478],[-73.8083015,45.6617518],[-73.808726,45.6614008],[-73.8097991,45.6606004]]}";2;Boulevard de Fontainebleau;2;50;false;false;false;false;false;false;4511.0;0;1;0;0;0;false;82686;6119523897;-73.807527;45.65939;82687;6119523896;-73.809575;45.660563;0;6;7;9394148;Bus 73 : GARE STE-THÉRÈSE/ FONTAINEBLEAU;"";EXO;73;Gare Sainte-Thérèse;Gare Sainte-Thérèse
218505118;"{\"type\":\"LineString\",\"coordinates\":[[-73.8046924,45.6581307],[-73.8050366,45.6583457],[-73.8056018,45.6586505],[-73.8066405,45.6590633],[-73.8076905,45.6593828],[-73.8083721,45.6597053],[-73.808977,45.6600459],[-73.8097991,45.6606004]]}";3;Boulevard des Châteaux;2;50;false;true;false;false;false;false;487.0;0;0;0;0;0;false;82686;6119523897;-73.807527;45.65939;82687;6119523896;-73.809575;45.660563;2;6;7;9394148;Bus 73 : GARE STE-THÉRÈSE/ FONTAINEBLEAU;"";EXO;73;Gare Sainte-Thérèse;Gare Sainte-Thérèse
218505118;"{\"type\":\"LineString\",\"coordinates\":[[-73.8046924,45.6581307],[-73.8050366,45.6583457],[-73.8056018,45.6586505],[-73.8066405,45.6590633],[-73.8076905,45.6593828],[-73.8083721,45.6597053],[-73.808977,45.6600459],[-73.8097991,45.6606004]]}";1;Boulevard des Châteaux;2;50;false;true;false;false;false;false;487.0;0;0;0;0;0;false;82708;6119523875;-73.807949;45.65931;82709;6119523874;-73.804943;45.658084;2;28;29;9394148;Bus 73 : GARE STE-THÉRÈSE/ FONTAINEBLEAU;"";EXO;73;Gare Sainte-Thérèse;Gare Sainte-Thérèse
26296248;"{\"type\":\"LineString\",\"coordinates\":[[-73.8098879,45.6605329],[-73.8110434,45.6596947],[-73.8117508,45.6591824],[-73.8125354,45.6586141],[-73.8129242,45.6583302],[-73.8133143,45.6580881],[-73.8136903,45.6579151],[-73.8141193,45.6577794],[-73.8145945,45.6577],[-73.8150723,45.6576607],[-73.8157364,45.6576663],[-73.8165824,45.6577546],[-73.8171156,45.6578779],[-73.8174921,45.6579925],[-73.8178031,45.658143],[-73.8180622,45.658296],[-73.8186168,45.6586948],[-73.8193731,45.6592971],[-73.8197019,45.6595346],[-73.8212088,45.6604987],[-73.8226285,45.661308],[-73.8228738,45.6614479],[-73.8232851,45.6617887],[-73.8241589,45.6625393],[-73.8248996,45.6631755],[-73.8253761,45.6635563],[-73.8258714,45.6638853],[-73.8260554,45.6640458],[-73.8261665,45.6641797],[-73.8263107,45.6644127],[-73.8264959,45.6648598],[-73.8265006,45.6651427],[-73.8264647,45.6658465],[-73.826462,45.666253],[-73.8263915,45.6666087],[-73.8261716,45.6670389],[-73.8259845,45.6672919],[-73.8248788,45.6685264],[-73.8243866,45.6689555],[-73.8234031,45.6697025],[-73.8225087,45.6702252],[-73.8217258,45.6706266],[-73.8210919,45.670957],[-73.8208543,45.6710597],[-73.820412,45.6712127],[-73.8201731,45.6712733],[-73.8197894,45.6713494],[-73.8191072,45.6714092],[-73.8186777,45.671435],[-73.8182454,45.6714193],[-73.8178519,45.6713717],[-73.8174719,45.6713093],[-73.8171549,45.6712278],[-73.8169406,45.6711658],[-73.8163685,45.6709377],[-73.8159114,45.6706902],[-73.8154229,45.6703801],[-73.815075,45.6701441],[-73.8140914,45.6695158],[-73.811632,45.6679216],[-73.8115919,45.6678969],[-73.811092,45.667583],[-73.8108653,45.6674446],[-73.8107776,45.667391],[-73.8105694,45.6672584],[-73.8098392,45.6668813],[-73.8097332,45.6668265],[-73.8089112,45.666467],[-73.8086688,45.6663222],[-73.8083797,45.6660883],[-73.8080546,45.6657636],[-73.8078066,45.6654056],[-73.8074761,45.6646461],[-73.8073837,45.6642782],[-73.8073385,45.6638706],[-73.8073725,45.6635009],[-73.8074442,45.6631246],[-73.8075658,45.6627882],[-73.807757,45.662423],[-73.8080198,45.6620478],[-73.8083015,45.6617518],[-73.808726,45.6614008],[-73.8097991,45.6606004]]}";2;Boulevard de Fontainebleau;2;50;false;false;false;false;false;false;4511.0;0;1;0;0;0;false;82708;6119523875;-73.807949;45.65931;82709;6119523874;-73.804943;45.658084;0;28;29;9394148;Bus 73 : GARE STE-THÉRÈSE/ FONTAINEBLEAU;"";EXO;73;Gare Sainte-Thérèse;Gare Sainte-Thérèse
43284090;"{\"type\":\"LineString\",\"coordinates\":[[-73.8098879,45.6605329],[-73.8090615,45.6599761],[-73.808435,45.6596342],[-73.8077312,45.6593042],[-73.8066982,45.6589674],[-73.805668,45.6585784],[-73.8048026,45.6580574]]}";3;Boulevard des Châteaux;2;50;false;true;true;false;false;false;486.0;0;0;0;0;0;false;82708;6119523875;-73.807949;45.65931;82709;6119523874;-73.804943;45.658084;2;28;29;9394148;Bus 73 : GARE STE-THÉRÈSE/ FONTAINEBLEAU;"";EXO;73;Gare Sainte-Thérèse;Gare Sainte-Thérèse
453838411;"{\"type\":\"LineString\",\"coordinates\":[[-73.8048026,45.6580574],[-73.8038617,45.6573081]]}";1;Boulevard des Châteaux;2;50;false;true;false;false;false;false;111.0;0;0;0;0;0;false;82709;6119523874;-73.804943;45.658084;82846;6119523283;-73.80177;45.655303;2;29;30;9394148;Bus 73 : GARE STE-THÉRÈSE/ FONTAINEBLEAU;"";EXO;73;Gare Sainte-Thérèse;Gare Sainte-Thérèse
453838415;"{\"type\":\"LineString\",\"coordinates\":[[-73.8038617,45.6573081],[-73.8035169,45.6570126],[-73.8022413,45.6562094],[-73.8020858,45.6560663],[-73.8018591,45.6558037]]}";2;Boulevard des Châteaux;2;50;false;true;true;false;false;false;230.0;0;0;0;0;0;false;82709;6119523874;-73.804943;45.658084;82846;6119523283;-73.80177;45.655303;0;29;30;9394148;Bus 73 : GARE STE-THÉRÈSE/ FONTAINEBLEAU;"";EXO;73;Gare Sainte-Thérèse;Gare Sainte-Thérèse
218505114;"{\"type\":\"LineString\",\"coordinates\":[[-73.8018591,45.6558037],[-73.801766,45.6555474],[-73.8017848,45.6553045],[-73.8018366,45.6551135],[-73.8022532,45.6544659],[-73.8023628,45.6542637],[-73.8024671,45.6539769],[-73.8025514,45.6535866],[-73.802687,45.6528354]]}";3;Boulevard des Châteaux;2;50;false;true;false;false;false;false;342.0;0;0;0;0;0;false;82709;6119523874;-73.804943;45.658084;82846;6119523283;-73.80177;45.655303;2;29;30;9394148;Bus 73 : GARE STE-THÉRÈSE/ FONTAINEBLEAU;"";EXO;73;Gare Sainte-Thérèse;Gare Sainte-Thérèse
218505117;"{\"type\":\"LineString\",\"coordinates\":[[-73.8026593,45.6518753],[-73.8025275,45.6527271],[-73.8025116,45.6528224],[-73.8023715,45.6535662],[-73.8022934,45.6539772],[-73.8021264,45.6544029],[-73.8019925,45.6545901],[-73.8019033,45.6547149],[-73.8016543,45.6550988],[-73.8015762,45.6552842],[-73.80162,45.6555968],[-73.8017098,45.6558439],[-73.8018572,45.6560604],[-73.8021264,45.6563227],[-73.8028731,45.6567426],[-73.8033987,45.6570829],[-73.804046,45.6576229],[-73.8046924,45.6581307]]}";1;Boulevard des Châteaux;2;50;false;true;true;false;false;false;802.0;0;0;0;0;0;false;82846;6119523283;-73.80177;45.655303;82710;6119523873;-73.802608;45.653739;2;30;31;9394148;Bus 73 : GARE STE-THÉRÈSE/ FONTAINEBLEAU;"";EXO;73;Gare Sainte-Thérèse;Gare Sainte-Thérèse
218505118;"{\"type\":\"LineString\",\"coordinates\":[[-73.8046924,45.6581307],[-73.8050366,45.6583457],[-73.8056018,45.6586505],[-73.8066405,45.6590633],[-73.8076905,45.6593828],[-73.8083721,45.6597053],[-73.808977,45.6600459],[-73.8097991,45.6606004]]}";2;Boulevard des Châteaux;2;50;false;true;false;false;false;false;487.0;0;0;0;0;0;false;82846;6119523283;-73.80177;45.655303;82710;6119523873;-73.802608;45.653739;0;30;31;9394148;Bus 73 : GARE STE-THÉRÈSE/ FONTAINEBLEAU;"";EXO;73;Gare Sainte-Thérèse;Gare Sainte-Thérèse
26296248;"{\"type\":\"LineString\",\"coordinates\":[[-73.8098879,45.6605329],[-73.8110434,45.6596947],[-73.8117508,45.6591824],[-73.8125354,45.6586141],[-73.8129242,45.6583302],[-73.8133143,45.6580881],[-73.8136903,45.6579151],[-73.8141193,45.6577794],[-73.8145945,45.6577],[-73.8150723,45.6576607],[-73.8157364,45.6576663],[-73.8165824,45.6577546],[-73.8171156,45.6578779],[-73.8174921,45.6579925],[-73.8178031,45.658143],[-73.8180622,45.658296],[-73.8186168,45.6586948],[-73.8193731,45.6592971],[-73.8197019,45.6595346],[-73.8212088,45.6604987],[-73.8226285,45.661308],[-73.8228738,45.6614479],[-73.8232851,45.6617887],[-73.8241589,45.6625393],[-73.8248996,45.6631755],[-73.8253761,45.6635563],[-73.8258714,45.6638853],[-73.8260554,45.6640458],[-73.8261665,45.6641797],[-73.8263107,45.6644127],[-73.8264959,45.6648598],[-73.8265006,45.6651427],[-73.8264647,45.6658465],[-73.826462,45.666253],[-73.8263915,45.6666087],[-73.8261716,45.6670389],[-73.8259845,45.6672919],[-73.8248788,45.6685264],[-73.8243866,45.6689555],[-73.8234031,45.6697025],[-73.8225087,45.6702252],[-73.8217258,45.6706266],[-73.8210919,45.670957],[-73.8208543,45.6710597],[-73.820412,45.6712127],[-73.8201731,45.6712733],[-73.8197894,45.6713494],[-73.8191072,45.6714092],[-73.8186777,45.671435],[-73.8182454,45.6714193],[-73.8178519,45.6713717],[-73.8174719,45.6713093],[-73.8171549,45.6712278],[-73.8169406,45.6711658],[-73.8163685,45.6709377],[-73.8159114,45.6706902],[-73.8154229,45.6703801],[-73.815075,45.6701441],[-73.8140914,45.6695158],[-73.811632,45.6679216],[-73.8115919,45.6678969],[-73.811092,45.667583],[-73.8108653,45.6674446],[-73.8107776,45.667391],[-73.8105694,45.6672584],[-73.8098392,45.6668813],[-73.8097332,45.6668265],[-73.8089112,45.666467],[-73.8086688,45.6663222],[-73.8083797,45.6660883],[-73.8080546,45.6657636],[-73.8078066,45.6654056],[-73.8074761,45.6646461],[-73.8073837,45.6642782],[-73.8073385,45.6638706],[-73.8073725,45.6635009],[-73.8074442,45.6631246],[-73.8075658,45.6627882],[-73.807757,45.662423],[-73.8080198,45.6620478],[-73.8083015,45.6617518],[-73.808726,45.6614008],[-73.8097991,45.6606004]]}";3;Boulevard de Fontainebleau;2;50;false;false;false;false;false;false;4511.0;0;1;0;0;0;false;82846;6119523283;-73.80177;45.655303;82710;6119523873;-73.802608;45.653739;0;30;31;9394148;Bus 73 : GARE STE-THÉRÈSE/ FONTAINEBLEAU;"";EXO;73;Gare Sainte-Thérèse;Gare Sainte-Thérèse
43284090;"{\"type\":\"LineString\",\"coordinates\":[[-73.8098879,45.6605329],[-73.8090615,45.6599761],[-73.808435,45.6596342],[-73.8077312,45.6593042],[-73.8066982,45.6589674],[-73.805668,45.6585784],[-73.8048026,45.6580574]]}";4;Boulevard des Châteaux;2;50;false;true;true;false;false;false;486.0;0;0;0;0;0;false;82846;6119523283;-73.80177;45.655303;82710;6119523873;-73.802608;45.653739;0;30;31;9394148;Bus 73 : GARE STE-THÉRÈSE/ FONTAINEBLEAU;"";EXO;73;Gare Sainte-Thérèse;Gare Sainte-Thérèse
453838411;"{\"type\":\"LineString\",\"coordinates\":[[-73.8048026,45.6580574],[-73.8038617,45.6573081]]}";5;Boulevard des Châteaux;2;50;false;true;false;false;false;false;111.0;0;0;0;0;0;false;82846;6119523283;-73.80177;45.655303;82710;6119523873;-73.802608;45.653739;0;30;31;9394148;Bus 73 : GARE STE-THÉRÈSE/ FONTAINEBLEAU;"";EXO;73;Gare Sainte-Thérèse;Gare Sainte-Thérèse
453838415;"{\"type\":\"LineString\",\"coordinates\":[[-73.8038617,45.6573081],[-73.8035169,45.6570126],[-73.8022413,45.6562094],[-73.8020858,45.6560663],[-73.8018591,45.6558037]]}";6;Boulevard des Châteaux;2;50;false;true;true;false;false;false;230.0;0;0;0;0;0;false;82846;6119523283;-73.80177;45.655303;82710;6119523873;-73.802608;45.653739;0;30;31;9394148;Bus 73 : GARE STE-THÉRÈSE/ FONTAINEBLEAU;"";EXO;73;Gare Sainte-Thérèse;Gare Sainte-Thérèse
218505114;"{\"type\":\"LineString\",\"coordinates\":[[-73.8018591,45.6558037],[-73.801766,45.6555474],[-73.8017848,45.6553045],[-73.8018366,45.6551135],[-73.8022532,45.6544659],[-73.8023628,45.6542637],[-73.8024671,45.6539769],[-73.8025514,45.6535866],[-73.802687,45.6528354]]}";7;Boulevard des Châteaux;2;50;false;true;false;false;false;false;342.0;0;0;0;0;0;false;82846;6119523283;-73.80177;45.655303;82710;6119523873;-73.802608;45.653739;2;30;31;9394148;Bus 73 : GARE STE-THÉRÈSE/ FONTAINEBLEAU;"";EXO;73;Gare Sainte-Thérèse;Gare Sainte-Thérèse
218505114;"{\"type\":\"LineString\",\"coordinates\":[[-73.8018591,45.6558037],[-73.801766,45.6555474],[-73.8017848,45.6553045],[-73.8018366,45.6551135],[-73.8022532,45.6544659],[-73.8023628,45.6542637],[-73.8024671,45.6539769],[-73.8025514,45.6535866],[-73.802687,45.6528354]]}";1;Boulevard des Châteaux;2;50;false;true;false;false;false;false;171.0;0;0;0;0;0;false;82710;6119523873;-73.802608;45.653739;82033;6119525319;-73.822636;45.634986;1;31;32;9394148;Bus 73 : GARE STE-THÉRÈSE/ FONTAINEBLEAU;"";EXO;73;Gare Sainte-Thérèse;Gare Sainte-Thérèse
674530001;"{\"type\":\"LineString\",\"coordinates\":[[-73.802687,45.6528354],[-73.8027014,45.6527312]]}";2;Boulevard des Châteaux;2;50;false;true;false;false;false;false;12.0;0;0;0;0;0;false;82710;6119523873;-73.802608;45.653739;82033;6119525319;-73.822636;45.634986;0;31;32;9394148;Bus 73 : GARE STE-THÉRÈSE/ FONTAINEBLEAU;"";EXO;73;Gare Sainte-Thérèse;Gare Sainte-Thérèse
39946245;"{\"type\":\"LineString\",\"coordinates\":[[-73.8027014,45.6527312],[-73.8025275,45.6527271],[-73.8022825,45.6527114],[-73.8020406,45.6526161],[-73.8018289,45.6524389],[-73.8017002,45.652253],[-73.8016573,45.652049],[-73.8016916,45.651815],[-73.801834,45.651594]]}";3;"";1;50;false;true;true;false;false;false;179.0;0;0;0;0;0;false;82710;6119523873;-73.802608;45.653739;82033;6119525319;-73.822636;45.634986;0;31;32;9394148;Bus 73 : GARE STE-THÉRÈSE/ FONTAINEBLEAU;"";EXO;73;Gare Sainte-Thérèse;Gare Sainte-Thérèse
44813220;"{\"type\":\"LineString\",\"coordinates\":[[-73.801834,45.651594],[-73.8019338,45.6513278]]}";4;"";1;50;false;true;true;false;false;false;31.0;0;0;0;0;0;false;82710;6119523873;-73.802608;45.653739;82033;6119525319;-73.822636;45.634986;0;31;32;9394148;Bus 73 : GARE STE-THÉRÈSE/ FONTAINEBLEAU;"";EXO;73;Gare Sainte-Thérèse;Gare Sainte-Thérèse
274960992;"{\"type\":\"LineString\",\"coordinates\":[[-73.8019338,45.6513278],[-73.802097,45.6510633]]}";5;Autoroute de la Rive-Nord;2;100;false;true;true;false;false;false;33.0;0;0;0;0;0;false;82710;6119523873;-73.802608;45.653739;82033;6119525319;-73.822636;45.634986;0;31;32;9394148;Bus 73 : GARE STE-THÉRÈSE/ FONTAINEBLEAU;"";EXO;73;Gare Sainte-Thérèse;Gare Sainte-Thérèse
44812679;"{\"type\":\"LineString\",\"coordinates\":[[-73.802097,45.6510633],[-73.8032041,45.6492698],[-73.8041311,45.6478838],[-73.8047319,45.6471578],[-73.805367,45.6464318],[-73.8061653,45.6456517],[-73.8073669,45.6446497],[-73.8084338,45.6437182]]}";6;Autoroute de la Rive-Nord;2;100;false;true;true;false;false;false;960.0;0;0;0;0;0;false;82710;6119523873;-73.802608;45.653739;82033;6119525319;-73.822636;45.634986;0;31;32;9394148;Bus 73 : GARE STE-THÉRÈSE/ FONTAINEBLEAU;"";EXO;73;Gare Sainte-Thérèse;Gare Sainte-Thérèse
25355187;"{\"type\":\"LineString\",\"coordinates\":[[-73.8084338,45.6437182],[-73.808742,45.643575],[-73.811142,45.641728],[-73.81275,45.640652],[-73.8134578,45.6400738]]}";7;"";2;50;false;true;true;false;false;false;565.0;1;0;0;0;0;false;82710;6119523873;-73.802608;45.653739;82033;6119525319;-73.822636;45.634986;0;31;32;9394148;Bus 73 : GARE STE-THÉRÈSE/ FONTAINEBLEAU;"";EXO;73;Gare Sainte-Thérèse;Gare Sainte-Thérèse
676642392;"{\"type\":\"LineString\",\"coordinates\":[[-73.8134578,45.6400738],[-73.8135401,45.6399982],[-73.8141004,45.6394606],[-73.8158524,45.6375558],[-73.8164211,45.6370572]]}";8;"";2;50;false;true;true;false;false;false;408.0;2;0;0;0;0;false;82710;6119523873;-73.802608;45.653739;82033;6119525319;-73.822636;45.634986;0;31;32;9394148;Bus 73 : GARE STE-THÉRÈSE/ FONTAINEBLEAU;"";EXO;73;Gare Sainte-Thérèse;Gare Sainte-Thérèse
44625835;"{\"type\":\"LineString\",\"coordinates\":[[-73.8164211,45.6370572],[-73.8170872,45.63645]]}";9;"";2;50;false;true;true;false;false;false;86.0;0;0;0;0;0;false;82710;6119523873;-73.802608;45.653739;82033;6119525319;-73.822636;45.634986;0;31;32;9394148;Bus 73 : GARE STE-THÉRÈSE/ FONTAINEBLEAU;"";EXO;73;Gare Sainte-Thérèse;Gare Sainte-Thérèse
481972337;"{\"type\":\"LineString\",\"coordinates\":[[-73.8170872,45.63645],[-73.8173289,45.6362682]]}";10;"";2;50;false;true;true;false;false;false;28.0;0;0;0;0;0;false;82710;6119523873;-73.802608;45.653739;82033;6119525319;-73.822636;45.634986;0;31;32;9394148;Bus 73 : GARE STE-THÉRÈSE/ FONTAINEBLEAU;"";EXO;73;Gare Sainte-Thérèse;Gare Sainte-Thérèse
44625836;"{\"type\":\"LineString\",\"coordinates\":[[-73.8173289,45.6362682],[-73.818033,45.635803],[-73.818318,45.63566],[-73.818785,45.635585],[-73.820037,45.635677],[-73.820465,45.635625],[-73.820667,45.635522],[-73.8211188,45.6351403],[-73.8213525,45.6349621]]}";11;"";2;50;false;true;true;false;false;false;374.0;1;0;0;0;0;false;82710;6119523873;-73.802608;45.653739;82033;6119525319;-73.822636;45.634986;0;31;32;9394148;Bus 73 : GARE STE-THÉRÈSE/ FONTAINEBLEAU;"";EXO;73;Gare Sainte-Thérèse;Gare Sainte-Thérèse
470951517;"{\"type\":\"LineString\",\"coordinates\":[[-73.8213525,45.6349621],[-73.8214283,45.6349091]]}";12;Boulevard Desjardins Est;1;50;false;true;true;false;false;false;9.0;2;0;0;0;0;false;82710;6119523873;-73.802608;45.653739;82033;6119525319;-73.822636;45.634986;0;31;32;9394148;Bus 73 : GARE STE-THÉRÈSE/ FONTAINEBLEAU;"";EXO;73;Gare Sainte-Thérèse;Gare Sainte-Thérèse
23592123;"{\"type\":\"LineString\",\"coordinates\":[[-73.8214283,45.6349091],[-73.8215813,45.6348094],[-73.8217749,45.6347277],[-73.8219644,45.634696],[-73.8222244,45.6346836]]}";13;Boulevard Desjardins Est;1;40;false;true;true;false;false;false;70.0;1;0;0;0;0;false;82710;6119523873;-73.802608;45.653739;82033;6119525319;-73.822636;45.634986;0;31;32;9394148;Bus 73 : GARE STE-THÉRÈSE/ FONTAINEBLEAU;"";EXO;73;Gare Sainte-Thérèse;Gare Sainte-Thérèse
24783787;"{\"type\":\"LineString\",\"coordinates\":[[-73.8222244,45.6346836],[-73.8224752,45.6346844],[-73.8227957,45.6347287],[-73.8237039,45.6348755],[-73.8242893,45.6349395],[-73.8246625,45.6349529],[-73.8249806,45.6349644],[-73.82603,45.6349616],[-73.826275,45.63497],[-73.8265576,45.6349691],[-73.8277393,45.6349655],[-73.8279516,45.6349649],[-73.828371,45.6349636],[-73.828543,45.6349631],[-73.8288256,45.6349593],[-73.8295015,45.6349502],[-73.8297348,45.634928],[-73.83011,45.6348568],[-73.8303031,45.6348021],[-73.830473,45.6347483],[-73.8306253,45.634692],[-73.8308909,45.6346017],[-73.8312648,45.6344038],[-73.8312914,45.6343832]]}";14;Boulevard Desjardins Est;2;40;false;true;true;false;false;false;363.0;0;0;0;0;0;false;82710;6119523873;-73.802608;45.653739;82033;6119525319;-73.822636;45.634986;1;31;32;9394148;Bus 73 : GARE STE-THÉRÈSE/ FONTAINEBLEAU;"";EXO;73;Gare Sainte-Thérèse;Gare Sainte-Thérèse
24783787;"{\"type\":\"LineString\",\"coordinates\":[[-73.8222244,45.6346836],[-73.8224752,45.6346844],[-73.8227957,45.6347287],[-73.8237039,45.6348755],[-73.8242893,45.6349395],[-73.8246625,45.6349529],[-73.8249806,45.6349644],[-73.82603,45.6349616],[-73.826275,45.63497],[-73.8265576,45.6349691],[-73.8277393,45.6349655],[-73.8279516,45.6349649],[-73.828371,45.6349636],[-73.828543,45.6349631],[-73.8288256,45.6349593],[-73.8295015,45.6349502],[-73.8297348,45.634928],[-73.83011,45.6348568],[-73.8303031,45.6348021],[-73.830473,45.6347483],[-73.8306253,45.634692],[-73.8308909,45.6346017],[-73.8312648,45.6344038],[-73.8312914,45.6343832]]}";1;Boulevard Desjardins Est;2;40;false;true;true;false;false;false;363.0;0;0;0;0;0;false;82034;6119525318;-73.826095;45.635189;82844;6119523785;-73.829385;45.634908;1;33;34;9394148;Bus 73 : GARE STE-THÉRÈSE/ FONTAINEBLEAU;"";EXO;73;Gare Sainte-Thérèse;Gare Sainte-Thérèse
42904463;"{\"type\":\"LineString\",\"coordinates\":[[-73.8312133,45.6343318],[-73.8312914,45.6343832]]}";2;Rue Saint-Alphonse;1;50;false;false;true;false;false;false;9.0;0;0;0;0;0;false;82034;6119525318;-73.826095;45.635189;82844;6119523785;-73.829385;45.634908;0;33;34;9394148;Bus 73 : GARE STE-THÉRÈSE/ FONTAINEBLEAU;"";EXO;73;Gare Sainte-Thérèse;Gare Sainte-Thérèse
653254442;"{\"type\":\"LineString\",\"coordinates\":[[-73.8312133,45.6343318],[-73.8310774,45.6344094],[-73.8306085,45.6346142],[-73.8303329,45.6347019],[-73.8299105,45.6348048],[-73.8298803,45.6348098],[-73.8296492,45.6348481],[-73.8293823,45.6348668],[-73.8286284,45.6348731],[-73.8285388,45.634874],[-73.8282829,45.634875],[-73.8280665,45.6348758],[-73.827908,45.6348787],[-73.8266672,45.6348759],[-73.8265576,45.6348756],[-73.8263185,45.634875],[-73.8260891,45.6348617]]}";3;Boulevard Desjardins Est;2;40;false;true;true;false;false;false;207.0;0;0;0;0;0;false;82034;6119525318;-73.826095;45.635189;82844;6119523785;-73.829385;45.634908;1;33;34;9394148;Bus 73 : GARE STE-THÉRÈSE/ FONTAINEBLEAU;"";EXO;73;Gare Sainte-Thérèse;Gare Sainte-Thérèse
24783787;"{\"type\":\"LineString\",\"coordinates\":[[-73.8222244,45.6346836],[-73.8224752,45.6346844],[-73.8227957,45.6347287],[-73.8237039,45.6348755],[-73.8242893,45.6349395],[-73.8246625,45.6349529],[-73.8249806,45.6349644],[-73.82603,45.6349616],[-73.826275,45.63497],[-73.8265576,45.6349691],[-73.8277393,45.6349655],[-73.8279516,45.6349649],[-73.828371,45.6349636],[-73.828543,45.6349631],[-73.8288256,45.6349593],[-73.8295015,45.6349502],[-73.8297348,45.634928],[-73.83011,45.6348568],[-73.8303031,45.6348021],[-73.830473,45.6347483],[-73.8306253,45.634692],[-73.8308909,45.6346017],[-73.8312648,45.6344038],[-73.8312914,45.6343832]]}";1;Boulevard Desjardins Est;2;40;false;true;true;false;false;false;726.0;0;0;0;0;0;false;82844;6119523785;-73.829385;45.634908;82035;6119525317;-73.834747;45.635784;2;34;35;9394148;Bus 73 : GARE STE-THÉRÈSE/ FONTAINEBLEAU;"";EXO;73;Gare Sainte-Thérèse;Gare Sainte-Thérèse
42904463;"{\"type\":\"LineString\",\"coordinates\":[[-73.8312133,45.6343318],[-73.8312914,45.6343832]]}";2;Rue Saint-Alphonse;1;50;false;false;true;false;false;false;9.0;0;0;0;0;0;false;82844;6119523785;-73.829385;45.634908;82035;6119525317;-73.834747;45.635784;0;34;35;9394148;Bus 73 : GARE STE-THÉRÈSE/ FONTAINEBLEAU;"";EXO;73;Gare Sainte-Thérèse;Gare Sainte-Thérèse
653256415;"{\"type\":\"LineString\",\"coordinates\":[[-73.8312914,45.6343832],[-73.8319665,45.6348309],[-73.8321067,45.6349239],[-73.8322795,45.6350385],[-73.8326436,45.6352799],[-73.8329976,45.6355146]]}";3;Rue Saint-Alphonse;1;50;false;false;true;false;false;false;183.0;0;0;0;0;0;false;82844;6119523785;-73.829385;45.634908;82035;6119525317;-73.834747;45.635784;0;34;35;9394148;Bus 73 : GARE STE-THÉRÈSE/ FONTAINEBLEAU;"";EXO;73;Gare Sainte-Thérèse;Gare Sainte-Thérèse
529203724;"{\"type\":\"LineString\",\"coordinates\":[[-73.8339481,45.6356843],[-73.8337953,45.6356449],[-73.8337255,45.6356355],[-73.8335183,45.6356418],[-73.8331872,45.6356518],[-73.8329976,45.6355146]]}";4;"";1;50;false;false;true;false;false;false;82.0;0;0;0;0;0;false;82844;6119523785;-73.829385;45.634908;82035;6119525317;-73.834747;45.635784;0;34;35;9394148;Bus 73 : GARE STE-THÉRÈSE/ FONTAINEBLEAU;"";EXO;73;Gare Sainte-Thérèse;Gare Sainte-Thérèse
653256416;"{\"type\":\"LineString\",\"coordinates\":[[-73.834757,45.6358805],[-73.8342691,45.6358967],[-73.8341807,45.6358659],[-73.8339481,45.6356843]]}";5;"";1;50;false;true;true;false;false;false;73.0;0;0;0;0;0;false;82844;6119523785;-73.829385;45.634908;82035;6119525317;-73.834747;45.635784;1;34;35;9394148;Bus 73 : GARE STE-THÉRÈSE/ FONTAINEBLEAU;"";EXO;73;Gare Sainte-Thérèse;Gare Sainte-Thérèse
