way_id;shape;index;name;nb_lanes;legal_speed;speed_zone_30;oneway;shares_bike;bike_box;bus_lane;dedicated_bus_lane;length;nb_traffic_signals;nb_crossings;nb_stops;nb_give_ways;nb_lvl_crossings;roundabout;stop_id_orig;node_id_orig;coord_x_orig;coord_y_orig;stop_id_dest;node_id_dest;coord_x_dest;coord_y_dest;nb_neighbouring_ways_bus_stop;ordre_orig;ordre_dest;id_line;line_name;colour;operator;ref;from;to
535385922;"{\"type\":\"LineString\",\"coordinates\":[[-73.5538115,45.5429438],[-73.5533953,45.5436396]]}";1;Rue Hochelaga;4;50;false;false;true;false;false;false;84.0;1;0;0;0;0;false;61620;6010965572;-73.553794;45.542778;61621;6010964279;-73.55643;45.54456;1;1;2;5908561;Bus 25 : Angus Nord;"";STM;25-N;Station Préfontaine (Édicule Sud);Station Rosemont
535385915;"{\"type\":\"LineString\",\"coordinates\":[[-73.5533953,45.5436396],[-73.5539558,45.5438022],[-73.5560453,45.5444084],[-73.5567406,45.5446101],[-73.5574335,45.544816],[-73.5584572,45.5451203],[-73.5590127,45.5452854],[-73.5599203,45.5455584],[-73.5600847,45.5456039],[-73.5604284,45.5457061]]}";2;Rue Saint-Germain;2;40;false;true;true;false;false;false;595.0;2;0;0;0;0;false;61620;6010965572;-73.553794;45.542778;61621;6010964279;-73.55643;45.54456;2;1;2;5908561;Bus 25 : Angus Nord;"";STM;25-N;Station Préfontaine (Édicule Sud);Station Rosemont
535385915;"{\"type\":\"LineString\",\"coordinates\":[[-73.5533953,45.5436396],[-73.5539558,45.5438022],[-73.5560453,45.5444084],[-73.5567406,45.5446101],[-73.5574335,45.544816],[-73.5584572,45.5451203],[-73.5590127,45.5452854],[-73.5599203,45.5455584],[-73.5600847,45.5456039],[-73.5604284,45.5457061]]}";1;Rue Saint-Germain;2;40;false;true;true;false;false;false;297.5;2;0;0;0;0;false;61621;6010964279;-73.55643;45.54456;52768;5247955921;-73.5608214;45.5452419;1;2;3;5908561;Bus 25 : Angus Nord;"";STM;25-N;Station Préfontaine (Édicule Sud);Station Rosemont
535385911;"{\"type\":\"LineString\",\"coordinates\":[[-73.5604284,45.5457061],[-73.5608346,45.5450348]]}";2;Rue Rachel Est;4;40;false;false;true;false;false;false;41.0;1;0;0;0;0;false;61621;6010964279;-73.55643;45.54456;52768;5247955921;-73.5608214;45.5452419;1;2;3;5908561;Bus 25 : Angus Nord;"";STM;25-N;Station Préfontaine (Édicule Sud);Station Rosemont
535385911;"{\"type\":\"LineString\",\"coordinates\":[[-73.5604284,45.5457061],[-73.5608346,45.5450348]]}";1;Rue Rachel Est;4;40;false;false;true;false;false;false;41.0;1;0;0;0;0;false;52768;5247955921;-73.5608214;45.5452419;60629;5180860122;-73.5625723;45.5430529;1;3;4;5908561;Bus 25 : Angus Nord;"";STM;25-N;Station Préfontaine (Édicule Sud);Station Rosemont
535385907;"{\"type\":\"LineString\",\"coordinates\":[[-73.5608346,45.5450348],[-73.5612145,45.544374],[-73.5612758,45.5442674],[-73.5614988,45.543883],[-73.5616272,45.5436617],[-73.5617075,45.5433849],[-73.5617362,45.5431355],[-73.5617296,45.543044],[-73.5617272,45.5430106],[-73.5617198,45.5429079],[-73.5617162,45.5428584]]}";2;Rue Rachel Est;4;40;false;false;true;false;false;false;255.0;2;0;0;0;0;false;52768;5247955921;-73.5608214;45.5452419;60629;5180860122;-73.5625723;45.5430529;0;3;4;5908561;Bus 25 : Angus Nord;"";STM;25-N;Station Préfontaine (Édicule Sud);Station Rosemont
20214742;"{\"type\":\"LineString\",\"coordinates\":[[-73.5617162,45.5428584],[-73.5617925,45.5428604],[-73.5618509,45.5428619],[-73.562092,45.5428662],[-73.5624074,45.5429588],[-73.5629276,45.5431107],[-73.5632545,45.5432099],[-73.5637922,45.5433658],[-73.5641247,45.543463]]}";3;Rue André-Laurendeau;2;50;false;false;true;false;false;false;101.0;1;0;0;0;0;false;52768;5247955921;-73.5608214;45.5452419;60629;5180860122;-73.5625723;45.5430529;1;3;4;5908561;Bus 25 : Angus Nord;"";STM;25-N;Station Préfontaine (Édicule Sud);Station Rosemont
20214742;"{\"type\":\"LineString\",\"coordinates\":[[-73.5617162,45.5428584],[-73.5617925,45.5428604],[-73.5618509,45.5428619],[-73.562092,45.5428662],[-73.5624074,45.5429588],[-73.5629276,45.5431107],[-73.5632545,45.5432099],[-73.5637922,45.5433658],[-73.5641247,45.543463]]}";1;Rue André-Laurendeau;2;50;false;false;true;false;false;false;101.0;1;0;0;0;0;false;60629;5180860122;-73.5625723;45.5430529;60630;4457129690;-73.5642611;45.5433462;1;4;5;5908561;Bus 25 : Angus Nord;"";STM;25-N;Station Préfontaine (Édicule Sud);Station Rosemont
393717503;"{\"type\":\"LineString\",\"coordinates\":[[-73.56432,45.5431468],[-73.5641247,45.543463]]}";2;Rue William-Tremblay;1;40;false;false;true;false;false;false;19.5;0;0;0;0;0;false;60629;5180860122;-73.5625723;45.5430529;60630;4457129690;-73.5642611;45.5433462;1;4;5;5908561;Bus 25 : Angus Nord;"";STM;25-N;Station Préfontaine (Édicule Sud);Station Rosemont
20214742;"{\"type\":\"LineString\",\"coordinates\":[[-73.5617162,45.5428584],[-73.5617925,45.5428604],[-73.5618509,45.5428619],[-73.562092,45.5428662],[-73.5624074,45.5429588],[-73.5629276,45.5431107],[-73.5632545,45.5432099],[-73.5637922,45.5433658],[-73.5641247,45.543463]]}";1;Rue André-Laurendeau;2;50;false;false;true;false;false;false;202.0;1;0;0;0;0;false;60630;4457129690;-73.5642611;45.5433462;60631;6010967060;-73.565244;45.541743;2;5;6;5908561;Bus 25 : Angus Nord;"";STM;25-N;Station Préfontaine (Édicule Sud);Station Rosemont
393717503;"{\"type\":\"LineString\",\"coordinates\":[[-73.56432,45.5431468],[-73.5641247,45.543463]]}";2;Rue William-Tremblay;1;40;false;false;true;false;false;false;39.0;0;0;0;0;0;false;60630;4457129690;-73.5642611;45.5433462;60631;6010967060;-73.565244;45.541743;0;5;6;5908561;Bus 25 : Angus Nord;"";STM;25-N;Station Préfontaine (Édicule Sud);Station Rosemont
20214743;"{\"type\":\"LineString\",\"coordinates\":[[-73.5653356,45.5415342],[-73.5646696,45.5425808],[-73.5644855,45.5428788],[-73.5644324,45.5429648],[-73.5643607,45.5430809],[-73.56432,45.5431468]]}";3;Rue William-Tremblay;1;40;false;false;true;false;false;false;196.0;0;0;0;0;0;false;60630;4457129690;-73.5642611;45.5433462;60631;6010967060;-73.565244;45.541743;2;5;6;5908561;Bus 25 : Angus Nord;"";STM;25-N;Station Préfontaine (Édicule Sud);Station Rosemont
20214743;"{\"type\":\"LineString\",\"coordinates\":[[-73.5653356,45.5415342],[-73.5646696,45.5425808],[-73.5644855,45.5428788],[-73.5644324,45.5429648],[-73.5643607,45.5430809],[-73.56432,45.5431468]]}";1;Rue William-Tremblay;1;40;false;false;true;false;false;false;98.0;0;0;0;0;0;false;60631;6010967060;-73.565244;45.541743;61095;6010968588;-73.569116;45.541962;1;6;7;5908561;Bus 25 : Angus Nord;"";STM;25-N;Station Préfontaine (Édicule Sud);Station Rosemont
382872842;"{\"type\":\"LineString\",\"coordinates\":[[-73.5723596,45.5426409],[-73.5704919,45.54208],[-73.5689012,45.5418835],[-73.5674327,45.5417396],[-73.5653356,45.5415342]]}";2;Rue Molson;1;40;false;false;false;false;false;false;283.0;0;0;0;0;0;false;60631;6010967060;-73.565244;45.541743;61095;6010968588;-73.569116;45.541962;1;6;7;5908561;Bus 25 : Angus Nord;"";STM;25-N;Station Préfontaine (Édicule Sud);Station Rosemont
382872841;"{\"type\":\"LineString\",\"coordinates\":[[-73.574909,45.5434006],[-73.5736326,45.5430252],[-73.5733595,45.5429448],[-73.572501,45.542681],[-73.5723596,45.5426409]]}";1;Place Michel-Brault;1;40;false;false;false;false;false;false;217.0;0;0;0;0;0;false;61096;6010981061;-73.572158;45.542643;52188;5212859430;-73.5778131;45.5435768;2;8;9;5908561;Bus 25 : Angus Nord;"";STM;25-N;Station Préfontaine (Édicule Sud);Station Rosemont
20218610;"{\"type\":\"LineString\",\"coordinates\":[[-73.5773034,45.5441156],[-73.5767508,45.543951],[-73.5762903,45.5438134],[-73.575772,45.5436585],[-73.575169,45.5434783],[-73.574909,45.5434006]]}";2;Rue Molson;1;40;false;false;false;false;false;false;204.0;0;0;0;0;0;false;61096;6010981061;-73.572158;45.542643;52188;5212859430;-73.5778131;45.5435768;0;8;9;5908561;Bus 25 : Angus Nord;"";STM;25-N;Station Préfontaine (Édicule Sud);Station Rosemont
304120318;"{\"type\":\"LineString\",\"coordinates\":[[-73.5775766,45.5436416],[-73.5773034,45.5441156]]}";3;Rue Masson;1;40;false;false;false;false;false;false;57.0;0;0;0;0;0;false;61096;6010981061;-73.572158;45.542643;52188;5212859430;-73.5778131;45.5435768;0;8;9;5908561;Bus 25 : Angus Nord;"";STM;25-N;Station Préfontaine (Édicule Sud);Station Rosemont
20221025;"{\"type\":\"LineString\",\"coordinates\":[[-73.5775766,45.5436416],[-73.5779078,45.5434017],[-73.5782173,45.5431274],[-73.5782687,45.5430818]]}";4;Rue Masson;2;40;false;true;false;false;false;false;83.0;1;0;0;0;0;false;61096;6010981061;-73.572158;45.542643;52188;5212859430;-73.5778131;45.5435768;2;8;9;5908561;Bus 25 : Angus Nord;"";STM;25-N;Station Préfontaine (Édicule Sud);Station Rosemont
304120318;"{\"type\":\"LineString\",\"coordinates\":[[-73.5775766,45.5436416],[-73.5773034,45.5441156]]}";1;Rue Masson;1;40;false;false;false;false;false;false;57.0;0;0;0;0;0;false;52188;5212859430;-73.5778131;45.5435768;52098;291483472;-73.580806;45.544233;2;9;10;5908561;Bus 25 : Angus Nord;"";STM;25-N;Station Préfontaine (Édicule Sud);Station Rosemont
20221025;"{\"type\":\"LineString\",\"coordinates\":[[-73.5775766,45.5436416],[-73.5779078,45.5434017],[-73.5782173,45.5431274],[-73.5782687,45.5430818]]}";2;Rue Masson;2;40;false;true;false;false;false;false;83.0;1;0;0;0;0;false;52188;5212859430;-73.5778131;45.5435768;52098;291483472;-73.580806;45.544233;0;9;10;5908561;Bus 25 : Angus Nord;"";STM;25-N;Station Préfontaine (Édicule Sud);Station Rosemont
393721770;"{\"type\":\"LineString\",\"coordinates\":[[-73.5809819,45.5442474],[-73.5808713,45.5442016],[-73.5799209,45.5438079],[-73.578712,45.5432758],[-73.5783802,45.5431303],[-73.5782687,45.5430818]]}";3;Rue D'Iberville;2;50;false;false;true;false;false;false;249.0;2;0;0;0;0;false;52188;5212859430;-73.5778131;45.5435768;52098;291483472;-73.580806;45.544233;2;9;10;5908561;Bus 25 : Angus Nord;"";STM;25-N;Station Préfontaine (Édicule Sud);Station Rosemont
454209735;"{\"type\":\"LineString\",\"coordinates\":[[-73.581984,45.5446517],[-73.5809819,45.5442474]]}";1;Rue D'Iberville;2;50;false;false;true;false;false;false;91.0;1;0;0;0;0;false;52098;291483472;-73.580806;45.544233;52037;291483481;-73.583031;45.545177;2;10;11;5908561;Bus 25 : Angus Nord;"";STM;25-N;Station Préfontaine (Édicule Sud);Station Rosemont
463835934;"{\"type\":\"LineString\",\"coordinates\":[[-73.5824146,45.5448307],[-73.581984,45.5446517]]}";2;Rue D'Iberville;2;50;false;false;true;false;false;false;40.0;0;0;0;0;0;false;52098;291483472;-73.580806;45.544233;52037;291483481;-73.583031;45.545177;0;10;11;5908561;Bus 25 : Angus Nord;"";STM;25-N;Station Préfontaine (Édicule Sud);Station Rosemont
437150504;"{\"type\":\"LineString\",\"coordinates\":[[-73.583211,45.5451702],[-73.5827101,45.544958],[-73.5824146,45.5448307]]}";3;Rue D'Iberville;2;50;false;false;true;false;false;false;73.0;1;0;0;0;0;false;52098;291483472;-73.580806;45.544233;52037;291483481;-73.583031;45.545177;2;10;11;5908561;Bus 25 : Angus Nord;"";STM;25-N;Station Préfontaine (Édicule Sud);Station Rosemont
437150348;"{\"type\":\"LineString\",\"coordinates\":[[-73.584795,45.5458521],[-73.5841468,45.5455728],[-73.583211,45.5451702]]}";1;Rue D'Iberville;2;50;false;false;true;false;false;false;145.0;2;0;0;0;0;false;52037;291483481;-73.583031;45.545177;51902;1302773425;-73.587468;45.545273;2;11;12;5908561;Bus 25 : Angus Nord;"";STM;25-N;Station Préfontaine (Édicule Sud);Station Rosemont
437150349;"{\"type\":\"LineString\",\"coordinates\":[[-73.5862497,45.5465017],[-73.5861326,45.5464488],[-73.5857675,45.5462864],[-73.5853653,45.5461068],[-73.5852355,45.5460488],[-73.584795,45.5458521]]}";2;Rue D'Iberville;2;50;false;false;true;false;false;false;135.0;2;1;0;0;0;false;52037;291483481;-73.583031;45.545177;51902;1302773425;-73.587468;45.545273;0;11;12;5908561;Bus 25 : Angus Nord;"";STM;25-N;Station Préfontaine (Édicule Sud);Station Rosemont
464696721;"{\"type\":\"LineString\",\"coordinates\":[[-73.5874266,45.5451356],[-73.5871281,45.5454729],[-73.5868315,45.5458081],[-73.5865371,45.546159],[-73.586299,45.5464389],[-73.5862497,45.5465017]]}";3;Boulevard Rosemont;2;50;false;false;true;false;false;false;178.0;1;1;0;0;0;false;52037;291483481;-73.583031;45.545177;51902;1302773425;-73.587468;45.545273;2;11;12;5908561;Bus 25 : Angus Nord;"";STM;25-N;Station Préfontaine (Édicule Sud);Station Rosemont
464696720;"{\"type\":\"LineString\",\"coordinates\":[[-73.5880306,45.5444507],[-73.5877289,45.5447928],[-73.5874266,45.5451356]]}";1;Boulevard Rosemont;2;50;false;false;true;false;false;false;90.0;0;0;0;0;0;false;51902;1302773425;-73.587468;45.545273;51859;1302759533;-73.589241;45.5432142;2;12;13;5908561;Bus 25 : Angus Nord;"";STM;25-N;Station Préfontaine (Édicule Sud);Station Rosemont
354669447;"{\"type\":\"LineString\",\"coordinates\":[[-73.5892562,45.5430598],[-73.5886431,45.5437621],[-73.5883308,45.5441124],[-73.5880306,45.5444507]]}";2;Boulevard Rosemont;2;50;false;false;true;false;false;false;182.0;0;0;0;0;0;false;51902;1302773425;-73.587468;45.545273;51859;1302759533;-73.589241;45.5432142;2;12;13;5908561;Bus 25 : Angus Nord;"";STM;25-N;Station Préfontaine (Édicule Sud);Station Rosemont
452019786;"{\"type\":\"LineString\",\"coordinates\":[[-73.5897927,45.5424315],[-73.5895184,45.5427527],[-73.5892562,45.5430598]]}";1;Boulevard Rosemont;2;50;false;false;true;false;false;false;82.0;0;0;0;0;0;false;51859;1302759533;-73.589241;45.5432142;51843;6010977971;-73.590302;45.541971;2;13;14;5908561;Bus 25 : Angus Nord;"";STM;25-N;Station Préfontaine (Édicule Sud);Station Rosemont
354645929;"{\"type\":\"LineString\",\"coordinates\":[[-73.5903345,45.5418191],[-73.5900383,45.542154],[-73.5897927,45.5424315]]}";2;Boulevard Rosemont;2;50;false;false;true;false;false;false;81.0;0;0;0;0;0;false;51859;1302759533;-73.589241;45.5432142;51843;6010977971;-73.590302;45.541971;2;13;14;5908561;Bus 25 : Angus Nord;"";STM;25-N;Station Préfontaine (Édicule Sud);Station Rosemont
354382285;"{\"type\":\"LineString\",\"coordinates\":[[-73.5909409,45.5411252],[-73.590637,45.541473],[-73.5903345,45.5418191]]}";1;Boulevard Rosemont;2;50;false;false;true;false;false;false;91.0;0;0;0;0;0;false;51843;6010977971;-73.590302;45.541971;51820;6010972004;-73.591303;45.540824;2;14;15;5908561;Bus 25 : Angus Nord;"";STM;25-N;Station Préfontaine (Édicule Sud);Station Rosemont
453530972;"{\"type\":\"LineString\",\"coordinates\":[[-73.5913193,45.5406922],[-73.591125,45.5409146],[-73.5909409,45.5411252]]}";2;Boulevard Rosemont;2;50;false;false;true;false;false;false;57.0;1;0;0;0;0;false;51843;6010977971;-73.590302;45.541971;51820;6010972004;-73.591303;45.540824;2;14;15;5908561;Bus 25 : Angus Nord;"";STM;25-N;Station Préfontaine (Édicule Sud);Station Rosemont
354643611;"{\"type\":\"LineString\",\"coordinates\":[[-73.5917048,45.5402298],[-73.5915108,45.5404625],[-73.5913193,45.5406922]]}";1;Boulevard Rosemont;2;50;false;false;true;false;false;false;60.0;1;0;0;0;0;false;51820;6010972004;-73.591303;45.540824;61315;6010969601;-73.592037;45.539949;2;15;16;5908561;Bus 25 : Angus Nord;"";STM;25-N;Station Préfontaine (Édicule Sud);Station Rosemont
407986693;"{\"type\":\"LineString\",\"coordinates\":[[-73.5931229,45.5369828],[-73.5928466,45.5373057],[-73.5925599,45.5377409],[-73.5924404,45.5381676],[-73.5923599,45.5386044],[-73.5923721,45.5387089],[-73.5923609,45.5388809],[-73.5923145,45.5391341],[-73.5922233,45.5394171],[-73.5922193,45.5394295],[-73.5921335,45.5396486],[-73.5919906,45.5398868],[-73.5917048,45.5402298]]}";2;Boulevard Rosemont;2;50;false;false;true;false;false;false;384.0;0;0;0;0;0;false;51820;6010972004;-73.591303;45.540824;61315;6010969601;-73.592037;45.539949;2;15;16;5908561;Bus 25 : Angus Nord;"";STM;25-N;Station Préfontaine (Édicule Sud);Station Rosemont
407986693;"{\"type\":\"LineString\",\"coordinates\":[[-73.5931229,45.5369828],[-73.5928466,45.5373057],[-73.5925599,45.5377409],[-73.5924404,45.5381676],[-73.5923599,45.5386044],[-73.5923721,45.5387089],[-73.5923609,45.5388809],[-73.5923145,45.5391341],[-73.5922233,45.5394171],[-73.5922193,45.5394295],[-73.5921335,45.5396486],[-73.5919906,45.5398868],[-73.5917048,45.5402298]]}";1;Boulevard Rosemont;2;50;false;false;true;false;false;false;192.0;0;0;0;0;0;false;51787;6010975723;-73.592461;45.538837;51754;6010967474;-73.593758;45.536388;1;17;18;5908561;Bus 25 : Angus Nord;"";STM;25-N;Station Préfontaine (Édicule Sud);Station Rosemont
464944661;"{\"type\":\"LineString\",\"coordinates\":[[-73.5937681,45.5362653],[-73.593143,45.5369605],[-73.5931229,45.5369828]]}";2;Boulevard Rosemont;2;50;false;false;true;false;false;false;47.5;1;0;0;0;0;false;51787;6010975723;-73.592461;45.538837;51754;6010967474;-73.593758;45.536388;1;17;18;5908561;Bus 25 : Angus Nord;"";STM;25-N;Station Préfontaine (Édicule Sud);Station Rosemont
361448563;"{\"type\":\"LineString\",\"coordinates\":[[-73.5942911,45.5356837],[-73.5939987,45.5360089],[-73.5938144,45.5362139],[-73.5937681,45.5362653]]}";1;Boulevard Rosemont;2;50;false;false;true;false;false;false;77.0;1;0;0;0;0;false;51754;6010967474;-73.593758;45.536388;51726;6010977925;-73.594953;45.535048;2;18;19;5908561;Bus 25 : Angus Nord;"";STM;25-N;Station Préfontaine (Édicule Sud);Station Rosemont
464944660;"{\"type\":\"LineString\",\"coordinates\":[[-73.5949873,45.5349095],[-73.5946142,45.5353244],[-73.5942911,45.5356837]]}";2;Boulevard Rosemont;2;50;false;false;true;false;false;false;102.0;1;0;0;0;0;false;51754;6010967474;-73.593758;45.536388;51726;6010977925;-73.594953;45.535048;2;18;19;5908561;Bus 25 : Angus Nord;"";STM;25-N;Station Préfontaine (Édicule Sud);Station Rosemont
454867299;"{\"type\":\"LineString\",\"coordinates\":[[-73.5953599,45.5344952],[-73.5949873,45.5349095]]}";1;Boulevard Rosemont;2;50;false;false;true;false;false;false;55.0;1;0;0;0;0;false;51726;6010977925;-73.594953;45.535048;51684;6010975677;-73.596559;45.533282;2;19;20;5908561;Bus 25 : Angus Nord;"";STM;25-N;Station Préfontaine (Édicule Sud);Station Rosemont
464944659;"{\"type\":\"LineString\",\"coordinates\":[[-73.5956863,45.5341322],[-73.5953599,45.5344952]]}";2;Boulevard Rosemont;2;50;false;false;true;false;false;false;48.0;1;0;0;0;0;false;51726;6010977925;-73.594953;45.535048;51684;6010975677;-73.596559;45.533282;0;19;20;5908561;Bus 25 : Angus Nord;"";STM;25-N;Station Préfontaine (Édicule Sud);Station Rosemont
464944658;"{\"type\":\"LineString\",\"coordinates\":[[-73.5960054,45.5337773],[-73.5956863,45.5341322]]}";3;Boulevard Rosemont;2;50;false;false;true;false;false;false;47.0;1;0;0;0;0;false;51726;6010977925;-73.594953;45.535048;51684;6010975677;-73.596559;45.533282;0;19;20;5908561;Bus 25 : Angus Nord;"";STM;25-N;Station Préfontaine (Édicule Sud);Station Rosemont
329918648;"{\"type\":\"LineString\",\"coordinates\":[[-73.5965499,45.5331718],[-73.5962773,45.533475],[-73.5960054,45.5337773]]}";4;Boulevard Rosemont;2;50;false;false;true;false;false;false;80.0;1;0;0;0;0;false;51726;6010977925;-73.594953;45.535048;51684;6010975677;-73.596559;45.533282;2;19;20;5908561;Bus 25 : Angus Nord;"";STM;25-N;Station Préfontaine (Édicule Sud);Station Rosemont
464944656;"{\"type\":\"LineString\",\"coordinates\":[[-73.596858,45.5328292],[-73.5965499,45.5331718]]}";1;Boulevard Rosemont;2;50;false;false;true;false;false;false;46.0;1;0;0;0;0;false;51684;6010975677;-73.596559;45.533282;61653;878785993;-73.597461;45.5312216;2;20;21;5908561;Bus 25 : Angus Nord;"";STM;25-N;Station Préfontaine (Édicule Sud);Station Rosemont
329918647;"{\"type\":\"LineString\",\"coordinates\":[[-73.5971659,45.5324867],[-73.597142,45.5325133],[-73.597078,45.5325845],[-73.5969936,45.5326783],[-73.596858,45.5328292]]}";2;Boulevard Rosemont;2;50;false;false;true;false;false;false;45.0;1;0;0;0;0;false;51684;6010975677;-73.596559;45.533282;61653;878785993;-73.597461;45.5312216;0;20;21;5908561;Bus 25 : Angus Nord;"";STM;25-N;Station Préfontaine (Édicule Sud);Station Rosemont
393726762;"{\"type\":\"LineString\",\"coordinates\":[[-73.5977939,45.5317884],[-73.597734,45.531855],[-73.5974854,45.5321314],[-73.597186,45.5324645],[-73.5971659,45.5324867]]}";3;Boulevard Rosemont;2;50;false;false;true;false;false;false;92.0;3;1;0;0;0;false;51684;6010975677;-73.596559;45.533282;61653;878785993;-73.597461;45.5312216;0;20;21;5908561;Bus 25 : Angus Nord;"";STM;25-N;Station Préfontaine (Édicule Sud);Station Rosemont
74340107;"{\"type\":\"LineString\",\"coordinates\":[[-73.5977939,45.5317884],[-73.5976578,45.5317297],[-73.5975199,45.5316645],[-73.5973224,45.5315751],[-73.5972771,45.5315471],[-73.597258,45.5315222]]}";4;Rue de Saint-Vallier;1;50;false;false;true;false;false;false;52.0;1;1;0;0;0;false;51684;6010975677;-73.596559;45.533282;61653;878785993;-73.597461;45.5312216;0;20;21;5908561;Bus 25 : Angus Nord;"";STM;25-N;Station Préfontaine (Édicule Sud);Station Rosemont
732382921;"{\"type\":\"LineString\",\"coordinates\":[[-73.597258,45.5315222],[-73.5972852,45.5313794],[-73.5973507,45.5312698],[-73.5974964,45.5311111]]}";5;"";1;50;false;true;true;false;false;false;51.0;0;2;0;0;0;false;51684;6010975677;-73.596559;45.533282;61653;878785993;-73.597461;45.5312216;1;20;21;5908561;Bus 25 : Angus Nord;"";STM;25-N;Station Préfontaine (Édicule Sud);Station Rosemont
