way_id;shape;index;name;nb_lanes;legal_speed;speed_zone_30;oneway;shares_bike;bike_box;bus_lane;dedicated_bus_lane;length;nb_traffic_signals;nb_crossings;nb_stops;nb_give_ways;nb_lvl_crossings;roundabout;stop_id_orig;node_id_orig;coord_x_orig;coord_y_orig;stop_id_dest;node_id_dest;coord_x_dest;coord_y_dest;nb_neighbouring_ways_bus_stop;ordre_orig;ordre_dest;id_line;line_name;colour;operator;ref;from;to
436375742;"{\"type\":\"LineString\",\"coordinates\":[[-73.6835316,45.5134991],[-73.6831523,45.5132689]]}";1;Rue Gohier;1;50;false;false;true;false;false;false;40.0;1;0;0;0;0;false;72458;6133274293;-73.6823652;45.5133027;72456;6133274295;-73.70615;45.495852;1;0;1;9479844;Bus 40 : Direction Vaudreuil;"";EXO;40 O;Terminus Côte-Vertu;Gare Vaudreuil
436375741;"{\"type\":\"LineString\",\"coordinates\":[[-73.6836699,45.513583],[-73.6835316,45.5134991]]}";2;Rue Gohier;1;50;false;false;true;false;false;false;15.0;2;0;0;0;0;false;72458;6133274293;-73.6823652;45.5133027;72456;6133274295;-73.70615;45.495852;0;0;1;9479844;Bus 40 : Direction Vaudreuil;"";EXO;40 O;Terminus Côte-Vertu;Gare Vaudreuil
436375740;"{\"type\":\"LineString\",\"coordinates\":[[-73.6836699,45.513583],[-73.6838898,45.5134079],[-73.6841428,45.5132063],[-73.6843893,45.51301],[-73.6845255,45.5129015],[-73.6845765,45.5128608]]}";3;Boulevard de la Côte-Vertu;1;50;false;true;true;false;false;false;107.0;1;0;0;0;0;false;72458;6133274293;-73.6823652;45.5133027;72456;6133274295;-73.70615;45.495852;0;0;1;9479844;Bus 40 : Direction Vaudreuil;"";EXO;40 O;Terminus Côte-Vertu;Gare Vaudreuil
436375482;"{\"type\":\"LineString\",\"coordinates\":[[-73.6845765,45.5128608],[-73.6848043,45.5126795]]}";4;Boulevard de la Côte-Vertu;1;50;false;true;true;false;false;false;27.0;0;0;0;0;0;false;72458;6133274293;-73.6823652;45.5133027;72456;6133274295;-73.70615;45.495852;0;0;1;9479844;Bus 40 : Direction Vaudreuil;"";EXO;40 O;Terminus Côte-Vertu;Gare Vaudreuil
436375481;"{\"type\":\"LineString\",\"coordinates\":[[-73.6848043,45.5126795],[-73.6855488,45.5120865]]}";5;Boulevard de la Côte-Vertu;1;50;false;true;true;false;false;false;88.0;0;0;0;0;0;false;72458;6133274293;-73.6823652;45.5133027;72456;6133274295;-73.70615;45.495852;0;0;1;9479844;Bus 40 : Direction Vaudreuil;"";EXO;40 O;Terminus Côte-Vertu;Gare Vaudreuil
436375371;"{\"type\":\"LineString\",\"coordinates\":[[-73.6855488,45.5120865],[-73.6866465,45.5112121]]}";6;Boulevard de la Côte-Vertu;1;50;false;true;true;false;false;false;130.0;1;0;0;0;0;false;72458;6133274293;-73.6823652;45.5133027;72456;6133274295;-73.70615;45.495852;0;0;1;9479844;Bus 40 : Direction Vaudreuil;"";EXO;40 O;Terminus Côte-Vertu;Gare Vaudreuil
436375274;"{\"type\":\"LineString\",\"coordinates\":[[-73.6866465,45.5112121],[-73.6867861,45.5111068],[-73.6877619,45.5103699]]}";7;Boulevard de la Côte-Vertu;1;50;false;true;true;false;false;false;128.0;1;0;0;0;0;false;72458;6133274293;-73.6823652;45.5133027;72456;6133274295;-73.70615;45.495852;0;0;1;9479844;Bus 40 : Direction Vaudreuil;"";EXO;40 O;Terminus Côte-Vertu;Gare Vaudreuil
453489295;"{\"type\":\"LineString\",\"coordinates\":[[-73.6877619,45.5103699],[-73.6880358,45.5101493]]}";8;Boulevard de la Côte-Vertu;1;50;false;true;true;false;false;false;33.0;0;0;0;0;0;false;72458;6133274293;-73.6823652;45.5133027;72456;6133274295;-73.70615;45.495852;0;0;1;9479844;Bus 40 : Direction Vaudreuil;"";EXO;40 O;Terminus Côte-Vertu;Gare Vaudreuil
436371823;"{\"type\":\"LineString\",\"coordinates\":[[-73.6880358,45.5101493],[-73.6881236,45.5100788]]}";9;Boulevard de la Côte-Vertu;1;50;false;true;true;false;false;false;11.0;0;0;0;0;0;false;72458;6133274293;-73.6823652;45.5133027;72456;6133274295;-73.70615;45.495852;0;0;1;9479844;Bus 40 : Direction Vaudreuil;"";EXO;40 O;Terminus Côte-Vertu;Gare Vaudreuil
453489296;"{\"type\":\"LineString\",\"coordinates\":[[-73.6881236,45.5100788],[-73.6884527,45.5098377]]}";10;Boulevard de la Côte-Vertu;1;50;false;true;true;false;false;false;38.0;0;0;0;0;0;false;72458;6133274293;-73.6823652;45.5133027;72456;6133274295;-73.70615;45.495852;0;0;1;9479844;Bus 40 : Direction Vaudreuil;"";EXO;40 O;Terminus Côte-Vertu;Gare Vaudreuil
436371825;"{\"type\":\"LineString\",\"coordinates\":[[-73.6884527,45.5098377],[-73.6885604,45.5097477],[-73.6889149,45.5094515]]}";11;Boulevard de la Côte-Vertu;1;50;false;true;true;false;false;false;57.0;0;0;0;0;0;false;72458;6133274293;-73.6823652;45.5133027;72456;6133274295;-73.70615;45.495852;0;0;1;9479844;Bus 40 : Direction Vaudreuil;"";EXO;40 O;Terminus Côte-Vertu;Gare Vaudreuil
436371827;"{\"type\":\"LineString\",\"coordinates\":[[-73.6889149,45.5094515],[-73.6890113,45.5093747],[-73.6894531,45.5090226],[-73.6900498,45.5085471],[-73.6918799,45.5070887],[-73.692602,45.5065132]]}";12;Boulevard de la Côte-Vertu;1;50;false;true;true;false;false;false;436.0;0;0;0;0;0;false;72458;6133274293;-73.6823652;45.5133027;72456;6133274295;-73.70615;45.495852;0;0;1;9479844;Bus 40 : Direction Vaudreuil;"";EXO;40 O;Terminus Côte-Vertu;Gare Vaudreuil
8150376;"{\"type\":\"LineString\",\"coordinates\":[[-73.692602,45.5065132],[-73.6927231,45.506413]]}";13;Boulevard de la Côte-Vertu;3;50;false;true;true;false;false;false;15.0;0;0;0;0;0;false;72458;6133274293;-73.6823652;45.5133027;72456;6133274295;-73.70615;45.495852;0;0;1;9479844;Bus 40 : Direction Vaudreuil;"";EXO;40 O;Terminus Côte-Vertu;Gare Vaudreuil
453486062;"{\"type\":\"LineString\",\"coordinates\":[[-73.6927231,45.506413],[-73.6948733,45.5047081]]}";14;Boulevard de la Côte-Vertu;3;50;false;true;true;false;false;false;254.0;0;0;0;0;0;false;72458;6133274293;-73.6823652;45.5133027;72456;6133274295;-73.70615;45.495852;0;0;1;9479844;Bus 40 : Direction Vaudreuil;"";EXO;40 O;Terminus Côte-Vertu;Gare Vaudreuil
436370564;"{\"type\":\"LineString\",\"coordinates\":[[-73.6948733,45.5047081],[-73.6964134,45.5035022],[-73.6967551,45.5032347]]}";15;Boulevard de la Côte-Vertu;3;50;false;true;true;false;false;false;220.0;0;0;0;0;0;false;72458;6133274293;-73.6823652;45.5133027;72456;6133274295;-73.70615;45.495852;0;0;1;9479844;Bus 40 : Direction Vaudreuil;"";EXO;40 O;Terminus Côte-Vertu;Gare Vaudreuil
436370419;"{\"type\":\"LineString\",\"coordinates\":[[-73.6967551,45.5032347],[-73.6972193,45.5028606],[-73.6978668,45.5023341]]}";16;Boulevard de la Côte-Vertu;3;50;false;true;true;false;false;false;133.0;0;0;0;0;0;false;72458;6133274293;-73.6823652;45.5133027;72456;6133274295;-73.70615;45.495852;0;0;1;9479844;Bus 40 : Direction Vaudreuil;"";EXO;40 O;Terminus Côte-Vertu;Gare Vaudreuil
436370287;"{\"type\":\"LineString\",\"coordinates\":[[-73.6978668,45.5023341],[-73.6997531,45.5008245]]}";17;Boulevard de la Côte-Vertu;3;50;false;true;true;false;false;false;224.0;0;0;0;0;0;false;72458;6133274293;-73.6823652;45.5133027;72456;6133274295;-73.70615;45.495852;0;0;1;9479844;Bus 40 : Direction Vaudreuil;"";EXO;40 O;Terminus Côte-Vertu;Gare Vaudreuil
436370078;"{\"type\":\"LineString\",\"coordinates\":[[-73.6997531,45.5008245],[-73.7014811,45.4994412]]}";18;Boulevard de la Côte-Vertu;3;50;false;true;true;false;false;false;205.0;1;0;0;0;0;false;72458;6133274293;-73.6823652;45.5133027;72456;6133274295;-73.70615;45.495852;0;0;1;9479844;Bus 40 : Direction Vaudreuil;"";EXO;40 O;Terminus Côte-Vertu;Gare Vaudreuil
436368800;"{\"type\":\"LineString\",\"coordinates\":[[-73.7014811,45.4994412],[-73.7019411,45.4990646]]}";19;Boulevard de la Côte-Vertu;3;50;false;true;true;false;false;false;56.0;2;0;0;0;0;false;72458;6133274293;-73.6823652;45.5133027;72456;6133274295;-73.70615;45.495852;0;0;1;9479844;Bus 40 : Direction Vaudreuil;"";EXO;40 O;Terminus Côte-Vertu;Gare Vaudreuil
436368803;"{\"type\":\"LineString\",\"coordinates\":[[-73.7019411,45.4990646],[-73.7024853,45.4986303],[-73.7041955,45.4972731]]}";20;Boulevard de la Côte-Vertu;3;50;false;true;true;false;false;false;266.0;1;0;0;0;0;false;72458;6133274293;-73.6823652;45.5133027;72456;6133274295;-73.70615;45.495852;0;0;1;9479844;Bus 40 : Direction Vaudreuil;"";EXO;40 O;Terminus Côte-Vertu;Gare Vaudreuil
681066946;"{\"type\":\"LineString\",\"coordinates\":[[-73.7041955,45.4972731],[-73.7042812,45.4972051]]}";21;Boulevard de la Côte-Vertu;3;50;false;true;true;false;false;false;11.0;0;0;0;0;0;false;72458;6133274293;-73.6823652;45.5133027;72456;6133274295;-73.70615;45.495852;0;0;1;9479844;Bus 40 : Direction Vaudreuil;"";EXO;40 O;Terminus Côte-Vertu;Gare Vaudreuil
452075330;"{\"type\":\"LineString\",\"coordinates\":[[-73.7042812,45.4972051],[-73.7062533,45.4956379]]}";22;Boulevard de la Côte-Vertu;3;50;false;true;true;false;false;false;116.5;0;0;0;0;0;false;72458;6133274293;-73.6823652;45.5133027;72456;6133274295;-73.70615;45.495852;1;0;1;9479844;Bus 40 : Direction Vaudreuil;"";EXO;40 O;Terminus Côte-Vertu;Gare Vaudreuil
