way_id;shape;index;name;nb_lanes;legal_speed;speed_zone_30;oneway;shares_bike;bike_box;bus_lane;dedicated_bus_lane;length;nb_traffic_signals;nb_crossings;nb_stops;nb_give_ways;nb_lvl_crossings;roundabout;stop_id_orig;node_id_orig;coord_x_orig;coord_y_orig;stop_id_dest;node_id_dest;coord_x_dest;coord_y_dest;nb_neighbouring_ways_bus_stop;ordre_orig;ordre_dest;id_line;line_name;colour;operator;ref;from;to
759205432;"{\"type\":\"LineString\",\"coordinates\":[[-73.4723723,45.717084],[-73.4726542,45.7171812],[-73.4730272,45.7172968],[-73.4731075,45.7173169],[-73.4735194,45.7174384],[-73.4736412,45.7174401]]}";1;Boulevard Claude-David;1;50;false;true;true;false;false;false;108.0;0;0;0;0;0;false;87555;692299719;-73.472131;45.717082;87556;6127178136;-73.474488;45.7178;1;0;1;9459800;Bus 9 : Direction Terminus Repentigny;"";EXO;9 E;boul. Claude-David / rue Notre-Dame;Terminus Repentigny
24817588;"{\"type\":\"LineString\",\"coordinates\":[[-73.4798616,45.7195767],[-73.4791747,45.7193549],[-73.476853,45.7185636],[-73.4749089,45.7178808],[-73.4746426,45.7177921],[-73.4736412,45.7174401]]}";2;Boulevard Claude-David;1;50;false;false;true;false;false;false;269.5;0;0;0;0;0;false;87555;692299719;-73.472131;45.717082;87556;6127178136;-73.474488;45.7178;1;0;1;9459800;Bus 9 : Direction Terminus Repentigny;"";EXO;9 E;boul. Claude-David / rue Notre-Dame;Terminus Repentigny
766312166;"{\"type\":\"LineString\",\"coordinates\":[[-73.4801109,45.717606],[-73.480107,45.7176317],[-73.4799721,45.7185266],[-73.4798616,45.7195767]]}";1;Boulevard de L'Assomption;1;50;false;false;true;false;false;false;220.0;1;1;0;0;0;false;87557;6127178135;-73.479771;45.719629;87558;6127178134;-73.480142;45.71756;2;2;3;9459800;Bus 9 : Direction Terminus Repentigny;"";EXO;9 E;boul. Claude-David / rue Notre-Dame;Terminus Repentigny
681441413;"{\"type\":\"LineString\",\"coordinates\":[[-73.4801278,45.7175184],[-73.4801156,45.7175886],[-73.4801109,45.717606]]}";2;Boulevard de L'Assomption;1;50;false;false;true;false;false;false;10.0;0;1;0;0;0;false;87557;6127178135;-73.479771;45.719629;87558;6127178134;-73.480142;45.71756;2;2;3;9459800;Bus 9 : Direction Terminus Repentigny;"";EXO;9 E;boul. Claude-David / rue Notre-Dame;Terminus Repentigny
49010954;"{\"type\":\"LineString\",\"coordinates\":[[-73.4801278,45.7175184],[-73.4802166,45.7175206],[-73.4802498,45.7175214],[-73.4805229,45.717522],[-73.4808459,45.7175106]]}";1;Boulevard Notre-Dame-des-Champs;4;50;false;false;true;false;false;false;56.0;1;1;0;0;0;false;87558;6127178134;-73.480142;45.71756;87519;6127178150;-73.483294;45.717375;2;3;4;9459800;Bus 9 : Direction Terminus Repentigny;"";EXO;9 E;boul. Claude-David / rue Notre-Dame;Terminus Repentigny
49010953;"{\"type\":\"LineString\",\"coordinates\":[[-73.4808459,45.7175106],[-73.4829766,45.7173746]]}";2;Boulevard Notre-Dame-des-Champs;4;50;false;false;true;false;false;false;167.0;0;0;0;0;0;false;87558;6127178134;-73.480142;45.71756;87519;6127178150;-73.483294;45.717375;0;3;4;9459800;Bus 9 : Direction Terminus Repentigny;"";EXO;9 E;boul. Claude-David / rue Notre-Dame;Terminus Repentigny
49011385;"{\"type\":\"LineString\",\"coordinates\":[[-73.4829766,45.7173746],[-73.4833383,45.7173498],[-73.4837188,45.7173236]]}";3;Boulevard Notre-Dame-des-Champs;4;50;false;false;true;false;false;false;59.0;1;0;0;0;0;false;87558;6127178134;-73.480142;45.71756;87519;6127178150;-73.483294;45.717375;2;3;4;9459800;Bus 9 : Direction Terminus Repentigny;"";EXO;9 E;boul. Claude-David / rue Notre-Dame;Terminus Repentigny
49011385;"{\"type\":\"LineString\",\"coordinates\":[[-73.4829766,45.7173746],[-73.4833383,45.7173498],[-73.4837188,45.7173236]]}";1;Boulevard Notre-Dame-des-Champs;4;50;false;false;true;false;false;false;29.5;1;0;0;0;0;false;87519;6127178150;-73.483294;45.717375;87521;6127178149;-73.489328;45.720056;1;4;5;9459800;Bus 9 : Direction Terminus Repentigny;"";EXO;9 E;boul. Claude-David / rue Notre-Dame;Terminus Repentigny
598631309;"{\"type\":\"LineString\",\"coordinates\":[[-73.4837188,45.7173236],[-73.4841599,45.7172942]]}";2;Boulevard Notre-Dame-des-Champs;4;50;false;false;true;false;false;false;35.0;0;0;0;0;0;false;87519;6127178150;-73.483294;45.717375;87521;6127178149;-73.489328;45.720056;0;4;5;9459800;Bus 9 : Direction Terminus Repentigny;"";EXO;9 E;boul. Claude-David / rue Notre-Dame;Terminus Repentigny
681887619;"{\"type\":\"LineString\",\"coordinates\":[[-73.4841599,45.7172942],[-73.4843536,45.7173099],[-73.4847846,45.7173285]]}";3;Boulevard Céline-Dion;2;50;false;true;true;false;false;false;49.0;0;0;0;0;0;false;87519;6127178150;-73.483294;45.717375;87521;6127178149;-73.489328;45.720056;0;4;5;9459800;Bus 9 : Direction Terminus Repentigny;"";EXO;9 E;boul. Claude-David / rue Notre-Dame;Terminus Repentigny
462128121;"{\"type\":\"LineString\",\"coordinates\":[[-73.4847846,45.7173285],[-73.4848392,45.7173276],[-73.4851389,45.7173503],[-73.4854355,45.7174065],[-73.4857025,45.7174848]]}";4;Boulevard Céline-Dion;2;50;false;true;true;false;false;false;75.0;1;0;0;0;0;false;87519;6127178150;-73.483294;45.717375;87521;6127178149;-73.489328;45.720056;0;4;5;9459800;Bus 9 : Direction Terminus Repentigny;"";EXO;9 E;boul. Claude-David / rue Notre-Dame;Terminus Repentigny
106804538;"{\"type\":\"LineString\",\"coordinates\":[[-73.4857025,45.7174848],[-73.4858411,45.7175454],[-73.485955,45.7175973],[-73.4863627,45.7178669],[-73.4884123,45.7193916],[-73.4894768,45.7201911],[-73.4907466,45.7211285],[-73.4908223,45.7211844]]}";5;Boulevard Céline-Dion;2;50;false;true;true;false;false;false;286.5;1;0;0;0;0;false;87519;6127178150;-73.483294;45.717375;87521;6127178149;-73.489328;45.720056;1;4;5;9459800;Bus 9 : Direction Terminus Repentigny;"";EXO;9 E;boul. Claude-David / rue Notre-Dame;Terminus Repentigny
241805720;"{\"type\":\"LineString\",\"coordinates\":[[-73.4908157,45.7209706],[-73.4905992,45.7208064],[-73.4896231,45.720098],[-73.489571,45.720059],[-73.4875544,45.7185486],[-73.4864212,45.7177041],[-73.4861637,45.7175618],[-73.4859648,45.7174583],[-73.4858431,45.7173973]]}";1;Boulevard Céline-Dion;2;50;false;true;true;false;false;false;555.0;1;0;0;0;0;false;87521;6127178149;-73.489328;45.720056;87523;6127178147;-73.491204;45.721497;2;5;6;9459800;Bus 9 : Direction Terminus Repentigny;"";EXO;9 E;boul. Claude-David / rue Notre-Dame;Terminus Repentigny
106804541;"{\"type\":\"LineString\",\"coordinates\":[[-73.4857025,45.7174848],[-73.4858431,45.7173973]]}";2;Rue Notre-Dame;1;50;false;false;true;false;false;false;15.0;2;0;0;0;0;false;87521;6127178149;-73.489328;45.720056;87523;6127178147;-73.491204;45.721497;0;5;6;9459800;Bus 9 : Direction Terminus Repentigny;"";EXO;9 E;boul. Claude-David / rue Notre-Dame;Terminus Repentigny
106804538;"{\"type\":\"LineString\",\"coordinates\":[[-73.4857025,45.7174848],[-73.4858411,45.7175454],[-73.485955,45.7175973],[-73.4863627,45.7178669],[-73.4884123,45.7193916],[-73.4894768,45.7201911],[-73.4907466,45.7211285],[-73.4908223,45.7211844]]}";3;Boulevard Céline-Dion;2;50;false;true;true;false;false;false;573.0;1;0;0;0;0;false;87521;6127178149;-73.489328;45.720056;87523;6127178147;-73.491204;45.721497;0;5;6;9459800;Bus 9 : Direction Terminus Repentigny;"";EXO;9 E;boul. Claude-David / rue Notre-Dame;Terminus Repentigny
462127734;"{\"type\":\"LineString\",\"coordinates\":[[-73.4908223,45.7211844],[-73.4909979,45.7213157]]}";4;Boulevard Céline-Dion;2;50;false;true;true;false;false;false;20.0;0;0;0;0;0;false;87521;6127178149;-73.489328;45.720056;87523;6127178147;-73.491204;45.721497;0;5;6;9459800;Bus 9 : Direction Terminus Repentigny;"";EXO;9 E;boul. Claude-David / rue Notre-Dame;Terminus Repentigny
758999516;"{\"type\":\"LineString\",\"coordinates\":[[-73.4909979,45.7213157],[-73.4912543,45.721505]]}";5;Boulevard Céline-Dion;2;50;false;true;true;false;false;false;29.0;1;0;0;0;0;false;87521;6127178149;-73.489328;45.720056;87523;6127178147;-73.491204;45.721497;2;5;6;9459800;Bus 9 : Direction Terminus Repentigny;"";EXO;9 E;boul. Claude-David / rue Notre-Dame;Terminus Repentigny
681719386;"{\"type\":\"LineString\",\"coordinates\":[[-73.5079604,45.7239874],[-73.508022,45.7224383],[-73.5080276,45.7222977]]}";1;Montée des Pionniers;1;50;false;true;true;false;false;false;94.0;1;0;0;0;0;false;85086;6127178741;-73.5080861;45.7236325;85253;6127178738;-73.5084908;45.7212236;1;8;9;9459800;Bus 9 : Direction Terminus Repentigny;"";EXO;9 E;boul. Claude-David / rue Notre-Dame;Terminus Repentigny
453682035;"{\"type\":\"LineString\",\"coordinates\":[[-73.5080276,45.7222977],[-73.5080621,45.721704],[-73.5080884,45.7215765],[-73.5081331,45.721466],[-73.5082297,45.7213425],[-73.508338,45.7212428],[-73.5084959,45.7210972],[-73.5086101,45.720992]]}";2;Montée des Pionniers;1;50;false;true;true;false;false;false;79.0;1;0;0;0;0;false;85086;6127178741;-73.5080861;45.7236325;85253;6127178738;-73.5084908;45.7212236;1;8;9;9459800;Bus 9 : Direction Terminus Repentigny;"";EXO;9 E;boul. Claude-David / rue Notre-Dame;Terminus Repentigny
453682035;"{\"type\":\"LineString\",\"coordinates\":[[-73.5080276,45.7222977],[-73.5080621,45.721704],[-73.5080884,45.7215765],[-73.5081331,45.721466],[-73.5082297,45.7213425],[-73.508338,45.7212428],[-73.5084959,45.7210972],[-73.5086101,45.720992]]}";1;Montée des Pionniers;1;50;false;true;true;false;false;false;79.0;1;0;0;0;0;false;85253;6127178738;-73.5084908;45.7212236;84125;6127178747;-73.511228;45.718186;1;9;10;9459800;Bus 9 : Direction Terminus Repentigny;"";EXO;9 E;boul. Claude-David / rue Notre-Dame;Terminus Repentigny
453682034;"{\"type\":\"LineString\",\"coordinates\":[[-73.5086101,45.720992],[-73.5095048,45.7202071],[-73.509878,45.7198563],[-73.5101607,45.7195324],[-73.5105395,45.7190933],[-73.5110682,45.7183706],[-73.5111396,45.7182638],[-73.5112261,45.7181344]]}";2;Montée des Pionniers;1;50;false;true;true;false;false;false;189.5;1;0;0;0;0;false;85253;6127178738;-73.5084908;45.7212236;84125;6127178747;-73.511228;45.718186;1;9;10;9459800;Bus 9 : Direction Terminus Repentigny;"";EXO;9 E;boul. Claude-David / rue Notre-Dame;Terminus Repentigny
474806365;"{\"type\":\"LineString\",\"coordinates\":[[-73.5112261,45.7181344],[-73.5112624,45.7180597]]}";1;Montée des Pionniers;1;50;false;true;true;false;false;false;9.0;0;0;0;0;0;false;84125;6127178747;-73.511228;45.718186;85776;6127178737;-73.51227;45.712928;2;10;11;9459800;Bus 9 : Direction Terminus Repentigny;"";EXO;9 E;boul. Claude-David / rue Notre-Dame;Terminus Repentigny
24574942;"{\"type\":\"LineString\",\"coordinates\":[[-73.5112624,45.7180597],[-73.5115107,45.7175999],[-73.511659,45.7172707],[-73.5118335,45.7168086],[-73.5119783,45.7163346],[-73.5120906,45.7158383],[-73.512159,45.7152865],[-73.5121807,45.7143091],[-73.5121841,45.7141582]]}";2;Montée des Pionniers;1;50;false;true;true;false;false;false;443.0;1;0;0;0;0;false;84125;6127178747;-73.511228;45.718186;85776;6127178737;-73.51227;45.712928;0;10;11;9459800;Bus 9 : Direction Terminus Repentigny;"";EXO;9 E;boul. Claude-David / rue Notre-Dame;Terminus Repentigny
453683695;"{\"type\":\"LineString\",\"coordinates\":[[-73.5121841,45.7141582],[-73.5121878,45.7140545]]}";3;Montée des Pionniers;1;50;false;true;true;false;false;false;12.0;0;0;0;0;0;false;84125;6127178747;-73.511228;45.718186;85776;6127178737;-73.51227;45.712928;0;10;11;9459800;Bus 9 : Direction Terminus Repentigny;"";EXO;9 E;boul. Claude-David / rue Notre-Dame;Terminus Repentigny
453683699;"{\"type\":\"LineString\",\"coordinates\":[[-73.5121878,45.7140545],[-73.5122035,45.7130127],[-73.5122054,45.7128888]]}";4;Montée des Pionniers;1;50;false;true;true;false;false;false;130.0;1;0;0;0;0;false;84125;6127178747;-73.511228;45.718186;85776;6127178737;-73.51227;45.712928;2;10;11;9459800;Bus 9 : Direction Terminus Repentigny;"";EXO;9 E;boul. Claude-David / rue Notre-Dame;Terminus Repentigny
241034320;"{\"type\":\"LineString\",\"coordinates\":[[-73.5122502,45.7099165],[-73.5122791,45.708671]]}";1;Montée des Pionniers;2;50;false;true;false;false;false;false;139.0;0;0;0;0;0;false;85089;6127178739;-73.5123473;45.7100381;84830;6127178745;-73.503607;45.716615;2;12;13;9459800;Bus 9 : Direction Terminus Repentigny;"";EXO;9 E;boul. Claude-David / rue Notre-Dame;Terminus Repentigny
49009250;"{\"type\":\"LineString\",\"coordinates\":[[-73.5122791,45.708671],[-73.5122334,45.7085287],[-73.5121811,45.7084566],[-73.5120878,45.7083817]]}";2;Montée des Pionniers;2;50;false;true;false;false;false;false;37.0;1;0;0;0;0;false;85089;6127178739;-73.5123473;45.7100381;84830;6127178745;-73.503607;45.716615;0;12;13;9459800;Bus 9 : Direction Terminus Repentigny;"";EXO;9 E;boul. Claude-David / rue Notre-Dame;Terminus Repentigny
49009251;"{\"type\":\"LineString\",\"coordinates\":[[-73.5120878,45.7083817],[-73.5119451,45.7083142],[-73.5118278,45.7082796],[-73.5117091,45.7082571],[-73.511573,45.7082458],[-73.5114167,45.7082664],[-73.511288,45.7083039],[-73.5111217,45.7083788],[-73.5109929,45.7085015],[-73.5106791,45.7088396],[-73.5105168,45.7089782],[-73.5103438,45.7091159],[-73.5101373,45.709231],[-73.509241,45.709749]]}";3;Chemin Saint-Charles;2;50;false;true;false;false;false;false;296.0;1;0;0;0;0;false;85089;6127178739;-73.5123473;45.7100381;84830;6127178745;-73.503607;45.716615;0;12;13;9459800;Bus 9 : Direction Terminus Repentigny;"";EXO;9 E;boul. Claude-David / rue Notre-Dame;Terminus Repentigny
163649766;"{\"type\":\"LineString\",\"coordinates\":[[-73.509241,45.709749],[-73.5078361,45.7105075]]}";4;Chemin Saint-Charles;2;50;false;true;false;false;false;false;138.0;0;0;0;0;0;false;85089;6127178739;-73.5123473;45.7100381;84830;6127178745;-73.503607;45.716615;0;12;13;9459800;Bus 9 : Direction Terminus Repentigny;"";EXO;9 E;boul. Claude-David / rue Notre-Dame;Terminus Repentigny
163649786;"{\"type\":\"LineString\",\"coordinates\":[[-73.5078361,45.7105075],[-73.505901,45.7116509],[-73.5055194,45.711918]]}";5;Chemin Saint-Charles;2;50;false;true;false;false;false;false;239.0;0;0;0;0;0;false;85089;6127178739;-73.5123473;45.7100381;84830;6127178745;-73.503607;45.716615;0;12;13;9459800;Bus 9 : Direction Terminus Repentigny;"";EXO;9 E;boul. Claude-David / rue Notre-Dame;Terminus Repentigny
163649774;"{\"type\":\"LineString\",\"coordinates\":[[-73.505166,45.7120855],[-73.5052939,45.7120279],[-73.5055194,45.711918]]}";6;Chemin Saint-Charles;4;50;false;false;true;false;false;false;34.0;1;0;0;0;0;false;85089;6127178739;-73.5123473;45.7100381;84830;6127178745;-73.503607;45.716615;0;12;13;9459800;Bus 9 : Direction Terminus Repentigny;"";EXO;9 E;boul. Claude-David / rue Notre-Dame;Terminus Repentigny
163649772;"{\"type\":\"LineString\",\"coordinates\":[[-73.5049666,45.7121523],[-73.505166,45.7120855]]}";7;Chemin Saint-Charles;4;50;false;false;true;false;false;false;18.0;0;0;0;0;0;false;85089;6127178739;-73.5123473;45.7100381;84830;6127178745;-73.503607;45.716615;0;12;13;9459800;Bus 9 : Direction Terminus Repentigny;"";EXO;9 E;boul. Claude-David / rue Notre-Dame;Terminus Repentigny
32797988;"{\"type\":\"LineString\",\"coordinates\":[[-73.5049666,45.7121523],[-73.5049627,45.7126054]]}";8;Rue des Migrateurs;1;50;false;true;true;false;false;false;51.0;0;0;0;0;0;false;85089;6127178739;-73.5123473;45.7100381;84830;6127178745;-73.503607;45.716615;0;12;13;9459800;Bus 9 : Direction Terminus Repentigny;"";EXO;9 E;boul. Claude-David / rue Notre-Dame;Terminus Repentigny
680965930;"{\"type\":\"LineString\",\"coordinates\":[[-73.5049627,45.7126054],[-73.5049514,45.7139379]]}";9;Rue des Migrateurs;1;50;false;true;true;false;false;false;148.0;1;0;0;0;0;false;85089;6127178739;-73.5123473;45.7100381;84830;6127178745;-73.503607;45.716615;0;12;13;9459800;Bus 9 : Direction Terminus Repentigny;"";EXO;9 E;boul. Claude-David / rue Notre-Dame;Terminus Repentigny
163649781;"{\"type\":\"LineString\",\"coordinates\":[[-73.5049514,45.7139379],[-73.5049509,45.7140329],[-73.5049456,45.7147873],[-73.5048546,45.7151342],[-73.5046559,45.7156001],[-73.5045245,45.7157932],[-73.5043071,45.7160112],[-73.5035804,45.7166742]]}";10;Rue des Migrateurs;1;50;false;true;true;false;false;false;334.0;2;0;0;0;0;false;85089;6127178739;-73.5123473;45.7100381;84830;6127178745;-73.503607;45.716615;2;12;13;9459800;Bus 9 : Direction Terminus Repentigny;"";EXO;9 E;boul. Claude-David / rue Notre-Dame;Terminus Repentigny
163649781;"{\"type\":\"LineString\",\"coordinates\":[[-73.5049514,45.7139379],[-73.5049509,45.7140329],[-73.5049456,45.7147873],[-73.5048546,45.7151342],[-73.5046559,45.7156001],[-73.5045245,45.7157932],[-73.5043071,45.7160112],[-73.5035804,45.7166742]]}";1;Rue des Migrateurs;1;50;false;true;true;false;false;false;334.0;2;0;0;0;0;false;84830;6127178745;-73.503607;45.716615;85014;6127178744;-73.502009;45.719807;2;13;14;9459800;Bus 9 : Direction Terminus Repentigny;"";EXO;9 E;boul. Claude-David / rue Notre-Dame;Terminus Repentigny
679842969;"{\"type\":\"LineString\",\"coordinates\":[[-73.5035804,45.7166742],[-73.5025064,45.7176201],[-73.5020151,45.7179458],[-73.5015983,45.7181182]]}";2;Rue des Migrateurs;1;50;false;true;true;false;false;false;225.0;0;0;0;0;0;false;84830;6127178745;-73.503607;45.716615;85014;6127178744;-73.502009;45.719807;0;13;14;9459800;Bus 9 : Direction Terminus Repentigny;"";EXO;9 E;boul. Claude-David / rue Notre-Dame;Terminus Repentigny
679842970;"{\"type\":\"LineString\",\"coordinates\":[[-73.503696,45.7167418],[-73.5035804,45.7166742]]}";3;Rue du Bruant;1;50;false;false;true;false;false;false;12.0;0;0;0;0;0;false;84830;6127178745;-73.503607;45.716615;85014;6127178744;-73.502009;45.719807;0;13;14;9459800;Bus 9 : Direction Terminus Repentigny;"";EXO;9 E;boul. Claude-David / rue Notre-Dame;Terminus Repentigny
679842990;"{\"type\":\"LineString\",\"coordinates\":[[-73.5018535,45.718082],[-73.5021671,45.7179746],[-73.5026307,45.7176949],[-73.5032849,45.7171221],[-73.5036382,45.7167877],[-73.503696,45.7167418]]}";4;Rue des Migrateurs;1;50;false;true;true;false;false;false;210.0;0;0;0;0;0;false;84830;6127178745;-73.503607;45.716615;85014;6127178744;-73.502009;45.719807;0;13;14;9459800;Bus 9 : Direction Terminus Repentigny;"";EXO;9 E;boul. Claude-David / rue Notre-Dame;Terminus Repentigny
375690610;"{\"type\":\"LineString\",\"coordinates\":[[-73.5018535,45.718082],[-73.501887,45.7183344],[-73.5019117,45.7185207],[-73.5019317,45.7186712],[-73.5019539,45.7188385],[-73.5019734,45.7189857],[-73.5020037,45.719219],[-73.502025,45.7193827],[-73.5020491,45.7195683],[-73.5021218,45.7201284]]}";5;"";1;50;false;false;true;false;false;false;229.0;0;0;0;0;0;false;84830;6127178745;-73.503607;45.716615;85014;6127178744;-73.502009;45.719807;2;13;14;9459800;Bus 9 : Direction Terminus Repentigny;"";EXO;9 E;boul. Claude-David / rue Notre-Dame;Terminus Repentigny
375690610;"{\"type\":\"LineString\",\"coordinates\":[[-73.5018535,45.718082],[-73.501887,45.7183344],[-73.5019117,45.7185207],[-73.5019317,45.7186712],[-73.5019539,45.7188385],[-73.5019734,45.7189857],[-73.5020037,45.719219],[-73.502025,45.7193827],[-73.5020491,45.7195683],[-73.5021218,45.7201284]]}";1;"";1;50;false;false;true;false;false;false;114.5;0;0;0;0;0;false;85014;6127178744;-73.502009;45.719807;84796;6127178746;-73.498242;45.713891;1;14;15;9459800;Bus 9 : Direction Terminus Repentigny;"";EXO;9 E;boul. Claude-David / rue Notre-Dame;Terminus Repentigny
177366312;"{\"type\":\"LineString\",\"coordinates\":[[-73.5004642,45.7182443],[-73.500379,45.7182573],[-73.5003059,45.7182891],[-73.5002472,45.7183341],[-73.5002217,45.7183916],[-73.5001987,45.7185204],[-73.5001619,45.7187924],[-73.5002936,45.7198116],[-73.5003367,45.7200103],[-73.5003948,45.720081],[-73.5004676,45.7201477],[-73.500547,45.7201949],[-73.5006574,45.7202104],[-73.5021218,45.7201284]]}";2;"";1;50;false;false;true;false;false;false;358.0;0;0;0;0;0;false;85014;6127178744;-73.502009;45.719807;84796;6127178746;-73.498242;45.713891;0;14;15;9459800;Bus 9 : Direction Terminus Repentigny;"";EXO;9 E;boul. Claude-David / rue Notre-Dame;Terminus Repentigny
177366307;"{\"type\":\"LineString\",\"coordinates\":[[-73.5015983,45.7181182],[-73.5012461,45.7181783],[-73.5008219,45.7182141],[-73.5004642,45.7182443]]}";3;Rue des Migrateurs;1;50;false;false;true;false;false;false;90.0;0;0;0;0;0;false;85014;6127178744;-73.502009;45.719807;84796;6127178746;-73.498242;45.713891;0;14;15;9459800;Bus 9 : Direction Terminus Repentigny;"";EXO;9 E;boul. Claude-David / rue Notre-Dame;Terminus Repentigny
679842969;"{\"type\":\"LineString\",\"coordinates\":[[-73.5035804,45.7166742],[-73.5025064,45.7176201],[-73.5020151,45.7179458],[-73.5015983,45.7181182]]}";4;Rue des Migrateurs;1;50;false;true;true;false;false;false;225.0;0;0;0;0;0;false;85014;6127178744;-73.502009;45.719807;84796;6127178746;-73.498242;45.713891;0;14;15;9459800;Bus 9 : Direction Terminus Repentigny;"";EXO;9 E;boul. Claude-David / rue Notre-Dame;Terminus Repentigny
679842970;"{\"type\":\"LineString\",\"coordinates\":[[-73.503696,45.7167418],[-73.5035804,45.7166742]]}";5;Rue du Bruant;1;50;false;false;true;false;false;false;12.0;0;0;0;0;0;false;85014;6127178744;-73.502009;45.719807;84796;6127178746;-73.498242;45.713891;0;14;15;9459800;Bus 9 : Direction Terminus Repentigny;"";EXO;9 E;boul. Claude-David / rue Notre-Dame;Terminus Repentigny
177365959;"{\"type\":\"LineString\",\"coordinates\":[[-73.5035804,45.7166742],[-73.5029292,45.7163377],[-73.5021185,45.7158764],[-73.5017605,45.7156939],[-73.5016605,45.7156665],[-73.5015508,45.7156561],[-73.5014591,45.7156511],[-73.5013462,45.7156597],[-73.4999259,45.7160611]]}";6;Rue du Bruant;1;50;false;false;true;false;false;false;331.0;0;0;0;0;0;false;85014;6127178744;-73.502009;45.719807;84796;6127178746;-73.498242;45.713891;0;14;15;9459800;Bus 9 : Direction Terminus Repentigny;"";EXO;9 E;boul. Claude-David / rue Notre-Dame;Terminus Repentigny
177365956;"{\"type\":\"LineString\",\"coordinates\":[[-73.4999259,45.7160611],[-73.4994471,45.7152691]]}";7;Rue du Chène Blanc;1;50;false;false;true;false;false;false;96.0;0;0;0;0;0;false;85014;6127178744;-73.502009;45.719807;84796;6127178746;-73.498242;45.713891;0;14;15;9459800;Bus 9 : Direction Terminus Repentigny;"";EXO;9 E;boul. Claude-David / rue Notre-Dame;Terminus Repentigny
679842987;"{\"type\":\"LineString\",\"coordinates\":[[-73.4990409,45.7153836],[-73.4990852,45.7153714],[-73.4994471,45.7152691]]}";8;Rue du Campagnol;1;50;false;false;true;false;false;false;35.0;0;0;0;0;0;false;85014;6127178744;-73.502009;45.719807;84796;6127178746;-73.498242;45.713891;0;14;15;9459800;Bus 9 : Direction Terminus Repentigny;"";EXO;9 E;boul. Claude-David / rue Notre-Dame;Terminus Repentigny
177365965;"{\"type\":\"LineString\",\"coordinates\":[[-73.4990409,45.7153836],[-73.4986289,45.714683],[-73.4983143,45.714148],[-73.4981606,45.7138865]]}";9;Allée du Grand-Pic;1;50;false;false;true;false;false;false;90.0;0;0;0;0;0;false;85014;6127178744;-73.502009;45.719807;84796;6127178746;-73.498242;45.713891;1;14;15;9459800;Bus 9 : Direction Terminus Repentigny;"";EXO;9 E;boul. Claude-David / rue Notre-Dame;Terminus Repentigny
177365965;"{\"type\":\"LineString\",\"coordinates\":[[-73.4990409,45.7153836],[-73.4986289,45.714683],[-73.4983143,45.714148],[-73.4981606,45.7138865]]}";1;Allée du Grand-Pic;1;50;false;false;true;false;false;false;180.0;0;0;0;0;0;false;84796;6127178746;-73.498242;45.713891;87550;6127178141;-73.492185;45.720775;2;15;16;9459800;Bus 9 : Direction Terminus Repentigny;"";EXO;9 E;boul. Claude-David / rue Notre-Dame;Terminus Repentigny
474826047;"{\"type\":\"LineString\",\"coordinates\":[[-73.4981606,45.7138865],[-73.4981487,45.7137881],[-73.4980872,45.7136585],[-73.4980964,45.7135668]]}";2;Allée du Grand-Pic;1;50;false;true;true;false;false;false;37.0;0;0;0;0;0;false;84796;6127178746;-73.498242;45.713891;87550;6127178141;-73.492185;45.720775;0;15;16;9459800;Bus 9 : Direction Terminus Repentigny;"";EXO;9 E;boul. Claude-David / rue Notre-Dame;Terminus Repentigny
679842986;"{\"type\":\"LineString\",\"coordinates\":[[-73.4980964,45.7135668],[-73.498109,45.7135448],[-73.4981147,45.7135214]]}";3;"";1;50;false;false;true;false;false;false;6.0;0;0;0;0;0;true;84796;6127178746;-73.498242;45.713891;87550;6127178141;-73.492185;45.720775;0;15;16;9459800;Bus 9 : Direction Terminus Repentigny;"";EXO;9 E;boul. Claude-David / rue Notre-Dame;Terminus Repentigny
679842972;"{\"type\":\"LineString\",\"coordinates\":[[-73.4981147,45.7135214],[-73.498113,45.7134977],[-73.4981042,45.7134749],[-73.4980885,45.7134538],[-73.4980667,45.7134355],[-73.4980446,45.7134231],[-73.4980195,45.7134136]]}";4;"";1;50;false;false;true;false;false;false;15.0;0;0;0;0;0;true;84796;6127178746;-73.498242;45.713891;87550;6127178141;-73.492185;45.720775;0;15;16;9459800;Bus 9 : Direction Terminus Repentigny;"";EXO;9 E;boul. Claude-David / rue Notre-Dame;Terminus Repentigny
474826054;"{\"type\":\"LineString\",\"coordinates\":[[-73.4980195,45.7134136],[-73.4979924,45.7134073],[-73.4979641,45.7134046],[-73.4979356,45.7134055],[-73.4979077,45.71341],[-73.4978815,45.7134179],[-73.4978577,45.7134289],[-73.4978372,45.7134428],[-73.4978206,45.713459],[-73.4978084,45.7134771],[-73.497801,45.7134964]]}";5;"";1;50;false;false;true;false;false;false;23.0;0;0;0;0;0;true;84796;6127178746;-73.498242;45.713891;87550;6127178141;-73.492185;45.720775;0;15;16;9459800;Bus 9 : Direction Terminus Repentigny;"";EXO;9 E;boul. Claude-David / rue Notre-Dame;Terminus Repentigny
474826044;"{\"type\":\"LineString\",\"coordinates\":[[-73.497801,45.7134964],[-73.4977131,45.7135545],[-73.4976579,45.7135841],[-73.4974868,45.7136786],[-73.4972874,45.7137958]]}";6;Chemin Saint-Charles;1;50;false;true;true;false;false;false;53.0;0;0;0;0;0;false;84796;6127178746;-73.498242;45.713891;87550;6127178141;-73.492185;45.720775;0;15;16;9459800;Bus 9 : Direction Terminus Repentigny;"";EXO;9 E;boul. Claude-David / rue Notre-Dame;Terminus Repentigny
474826057;"{\"type\":\"LineString\",\"coordinates\":[[-73.4945462,45.7147261],[-73.4947158,45.714627],[-73.4948635,45.7145586],[-73.4954414,45.7143678],[-73.4958587,45.7142476],[-73.4964948,45.7140555],[-73.4969101,45.7139333],[-73.4972874,45.7137958]]}";7;Chemin Saint-Charles;1;50;false;false;true;false;false;false;238.0;0;0;0;0;0;false;84796;6127178746;-73.498242;45.713891;87550;6127178141;-73.492185;45.720775;0;15;16;9459800;Bus 9 : Direction Terminus Repentigny;"";EXO;9 E;boul. Claude-David / rue Notre-Dame;Terminus Repentigny
768626073;"{\"type\":\"LineString\",\"coordinates\":[[-73.4945462,45.7147261],[-73.4944334,45.7147977],[-73.4942917,45.7148877],[-73.4940234,45.7151183],[-73.4938518,45.7152907],[-73.4936707,45.7154989],[-73.4934407,45.7158213],[-73.4932428,45.7162257],[-73.4931353,45.7165668],[-73.4930851,45.7169727],[-73.4930084,45.7194174],[-73.4929948,45.7197617],[-73.4929827,45.7198697],[-73.4929604,45.7199572]]}";8;Chemin Saint-Charles;1;50;false;false;false;false;false;false;614.0;0;0;0;0;0;false;84796;6127178746;-73.498242;45.713891;87550;6127178141;-73.492185;45.720775;0;15;16;9459800;Bus 9 : Direction Terminus Repentigny;"";EXO;9 E;boul. Claude-David / rue Notre-Dame;Terminus Repentigny
492936672;"{\"type\":\"LineString\",\"coordinates\":[[-73.4929604,45.7199572],[-73.4928646,45.7200752],[-73.4927371,45.7202815],[-73.4926495,45.7204019],[-73.4925845,45.7204884],[-73.492479,45.7206013],[-73.4922086,45.7208601]]}";9;Chemin Saint-Charles;1;50;false;true;false;false;false;false;117.0;0;0;0;0;0;false;84796;6127178746;-73.498242;45.713891;87550;6127178141;-73.492185;45.720775;2;15;16;9459800;Bus 9 : Direction Terminus Repentigny;"";EXO;9 E;boul. Claude-David / rue Notre-Dame;Terminus Repentigny
492936672;"{\"type\":\"LineString\",\"coordinates\":[[-73.4929604,45.7199572],[-73.4928646,45.7200752],[-73.4927371,45.7202815],[-73.4926495,45.7204019],[-73.4925845,45.7204884],[-73.492479,45.7206013],[-73.4922086,45.7208601]]}";1;Chemin Saint-Charles;1;50;false;true;false;false;false;false;117.0;0;0;0;0;0;false;87550;6127178141;-73.492185;45.720775;87551;6127178140;-73.489507;45.719983;2;16;17;9459800;Bus 9 : Direction Terminus Repentigny;"";EXO;9 E;boul. Claude-David / rue Notre-Dame;Terminus Repentigny
492433741;"{\"type\":\"LineString\",\"coordinates\":[[-73.4922086,45.7208601],[-73.4920362,45.7209946],[-73.4918817,45.7211098]]}";2;Chemin Saint-Charles;1;50;false;true;true;false;false;false;38.0;0;0;0;0;0;false;87550;6127178141;-73.492185;45.720775;87551;6127178140;-73.489507;45.719983;0;16;17;9459800;Bus 9 : Direction Terminus Repentigny;"";EXO;9 E;boul. Claude-David / rue Notre-Dame;Terminus Repentigny
49156377;"{\"type\":\"LineString\",\"coordinates\":[[-73.4918817,45.7211098],[-73.4917966,45.7211161],[-73.491472,45.7212378],[-73.491395,45.7212368],[-73.4912374,45.7212128],[-73.491086,45.7211118],[-73.4908157,45.7209706]]}";3;"";1;50;false;true;true;false;false;false;97.0;0;0;0;0;0;false;87550;6127178141;-73.492185;45.720775;87551;6127178140;-73.489507;45.719983;0;16;17;9459800;Bus 9 : Direction Terminus Repentigny;"";EXO;9 E;boul. Claude-David / rue Notre-Dame;Terminus Repentigny
241805720;"{\"type\":\"LineString\",\"coordinates\":[[-73.4908157,45.7209706],[-73.4905992,45.7208064],[-73.4896231,45.720098],[-73.489571,45.720059],[-73.4875544,45.7185486],[-73.4864212,45.7177041],[-73.4861637,45.7175618],[-73.4859648,45.7174583],[-73.4858431,45.7173973]]}";4;Boulevard Céline-Dion;2;50;false;true;true;false;false;false;555.0;1;0;0;0;0;false;87550;6127178141;-73.492185;45.720775;87551;6127178140;-73.489507;45.719983;2;16;17;9459800;Bus 9 : Direction Terminus Repentigny;"";EXO;9 E;boul. Claude-David / rue Notre-Dame;Terminus Repentigny
241805720;"{\"type\":\"LineString\",\"coordinates\":[[-73.4908157,45.7209706],[-73.4905992,45.7208064],[-73.4896231,45.720098],[-73.489571,45.720059],[-73.4875544,45.7185486],[-73.4864212,45.7177041],[-73.4861637,45.7175618],[-73.4859648,45.7174583],[-73.4858431,45.7173973]]}";1;Boulevard Céline-Dion;2;50;false;true;true;false;false;false;555.0;1;0;0;0;0;false;87551;6127178140;-73.489507;45.719983;87559;6127178133;-73.484193;45.719487;2;17;18;9459800;Bus 9 : Direction Terminus Repentigny;"";EXO;9 E;boul. Claude-David / rue Notre-Dame;Terminus Repentigny
106804541;"{\"type\":\"LineString\",\"coordinates\":[[-73.4857025,45.7174848],[-73.4858431,45.7173973]]}";2;Rue Notre-Dame;1;50;false;false;true;false;false;false;15.0;2;0;0;0;0;false;87551;6127178140;-73.489507;45.719983;87559;6127178133;-73.484193;45.719487;0;17;18;9459800;Bus 9 : Direction Terminus Repentigny;"";EXO;9 E;boul. Claude-David / rue Notre-Dame;Terminus Repentigny
106804538;"{\"type\":\"LineString\",\"coordinates\":[[-73.4857025,45.7174848],[-73.4858411,45.7175454],[-73.485955,45.7175973],[-73.4863627,45.7178669],[-73.4884123,45.7193916],[-73.4894768,45.7201911],[-73.4907466,45.7211285],[-73.4908223,45.7211844]]}";3;Boulevard Céline-Dion;2;50;false;true;true;false;false;false;573.0;1;0;0;0;0;false;87551;6127178140;-73.489507;45.719983;87559;6127178133;-73.484193;45.719487;0;17;18;9459800;Bus 9 : Direction Terminus Repentigny;"";EXO;9 E;boul. Claude-David / rue Notre-Dame;Terminus Repentigny
462128120;"{\"type\":\"LineString\",\"coordinates\":[[-73.4853548,45.7177096],[-73.4857025,45.7174848]]}";4;Rue Notre-Dame;1;50;false;false;true;false;false;false;37.0;1;0;0;0;0;false;87551;6127178140;-73.489507;45.719983;87559;6127178133;-73.484193;45.719487;0;17;18;9459800;Bus 9 : Direction Terminus Repentigny;"";EXO;9 E;boul. Claude-David / rue Notre-Dame;Terminus Repentigny
49156384;"{\"type\":\"LineString\",\"coordinates\":[[-73.4842213,45.7195935],[-73.484428,45.7190942],[-73.4845144,45.7188808],[-73.4845535,45.7187157],[-73.4846243,45.718371],[-73.4846656,45.7182726],[-73.4850454,45.7179301],[-73.4851237,45.7178677],[-73.4853548,45.7177096]]}";5;Rue Notre-Dame;1;50;false;false;true;false;false;false;234.0;0;0;0;0;0;false;87551;6127178140;-73.489507;45.719983;87559;6127178133;-73.484193;45.719487;2;17;18;9459800;Bus 9 : Direction Terminus Repentigny;"";EXO;9 E;boul. Claude-David / rue Notre-Dame;Terminus Repentigny
106804532;"{\"type\":\"LineString\",\"coordinates\":[[-73.4861388,45.7209989],[-73.4848341,45.7200427],[-73.4842213,45.7195935]]}";1;Rue du Sacre-Coeur;1;50;false;false;true;false;false;false;216.0;0;0;0;0;0;false;87559;6127178133;-73.484193;45.719487;87800;6127177779;-73.486161;45.721004;2;18;19;9459800;Bus 9 : Direction Terminus Repentigny;"";EXO;9 E;boul. Claude-David / rue Notre-Dame;Terminus Repentigny
106804536;"{\"type\":\"LineString\",\"coordinates\":[[-73.4879539,45.7223175],[-73.4878836,45.7222664],[-73.4873798,45.7219004],[-73.4861388,45.7209989]]}";2;Rue du Sacre-Coeur;1;50;false;false;false;false;false;false;204.0;0;0;0;0;0;false;87559;6127178133;-73.484193;45.719487;87800;6127177779;-73.486161;45.721004;2;18;19;9459800;Bus 9 : Direction Terminus Repentigny;"";EXO;9 E;boul. Claude-David / rue Notre-Dame;Terminus Repentigny
106804532;"{\"type\":\"LineString\",\"coordinates\":[[-73.4861388,45.7209989],[-73.4848341,45.7200427],[-73.4842213,45.7195935]]}";1;Rue du Sacre-Coeur;1;50;false;false;true;false;false;false;216.0;0;0;0;0;0;false;87800;6127177779;-73.486161;45.721004;87801;6127177778;-73.489058;45.723095;2;19;20;9459800;Bus 9 : Direction Terminus Repentigny;"";EXO;9 E;boul. Claude-David / rue Notre-Dame;Terminus Repentigny
106804536;"{\"type\":\"LineString\",\"coordinates\":[[-73.4879539,45.7223175],[-73.4878836,45.7222664],[-73.4873798,45.7219004],[-73.4861388,45.7209989]]}";2;Rue du Sacre-Coeur;1;50;false;false;false;false;false;false;204.0;0;0;0;0;0;false;87800;6127177779;-73.486161;45.721004;87801;6127177778;-73.489058;45.723095;0;19;20;9459800;Bus 9 : Direction Terminus Repentigny;"";EXO;9 E;boul. Claude-David / rue Notre-Dame;Terminus Repentigny
106804535;"{\"type\":\"LineString\",\"coordinates\":[[-73.4882272,45.7225098],[-73.4880548,45.7223879],[-73.4879539,45.7223175]]}";3;Rue du Sacre-Coeur;1;50;false;false;false;false;false;false;31.0;0;0;0;0;0;false;87800;6127177779;-73.486161;45.721004;87801;6127177778;-73.489058;45.723095;0;19;20;9459800;Bus 9 : Direction Terminus Repentigny;"";EXO;9 E;boul. Claude-David / rue Notre-Dame;Terminus Repentigny
49156367;"{\"type\":\"LineString\",\"coordinates\":[[-73.4890234,45.7230802],[-73.4884172,45.7226426],[-73.4882272,45.7225098]]}";4;Rue du Sacre-Coeur;1;50;false;false;false;false;false;false;89.0;0;0;0;0;0;false;87800;6127177779;-73.486161;45.721004;87801;6127177778;-73.489058;45.723095;0;19;20;9459800;Bus 9 : Direction Terminus Repentigny;"";EXO;9 E;boul. Claude-David / rue Notre-Dame;Terminus Repentigny
32800800;"{\"type\":\"LineString\",\"coordinates\":[[-73.4939422,45.7266768],[-73.4915062,45.7248957],[-73.4904605,45.724131],[-73.4890234,45.7230802]]}";5;Rue du Sacre-Coeur;1;50;false;false;true;false;false;false;554.0;0;0;0;0;0;false;87800;6127177779;-73.486161;45.721004;87801;6127177778;-73.489058;45.723095;2;19;20;9459800;Bus 9 : Direction Terminus Repentigny;"";EXO;9 E;boul. Claude-David / rue Notre-Dame;Terminus Repentigny
49156367;"{\"type\":\"LineString\",\"coordinates\":[[-73.4890234,45.7230802],[-73.4884172,45.7226426],[-73.4882272,45.7225098]]}";1;Rue du Sacre-Coeur;1;50;false;false;false;false;false;false;89.0;0;0;0;0;0;false;87801;6127177778;-73.489058;45.723095;87802;6127177777;-73.490446;45.724117;2;20;21;9459800;Bus 9 : Direction Terminus Repentigny;"";EXO;9 E;boul. Claude-David / rue Notre-Dame;Terminus Repentigny
32800800;"{\"type\":\"LineString\",\"coordinates\":[[-73.4939422,45.7266768],[-73.4915062,45.7248957],[-73.4904605,45.724131],[-73.4890234,45.7230802]]}";2;Rue du Sacre-Coeur;1;50;false;false;true;false;false;false;554.0;0;0;0;0;0;false;87801;6127177778;-73.489058;45.723095;87802;6127177777;-73.490446;45.724117;2;20;21;9459800;Bus 9 : Direction Terminus Repentigny;"";EXO;9 E;boul. Claude-David / rue Notre-Dame;Terminus Repentigny
32800800;"{\"type\":\"LineString\",\"coordinates\":[[-73.4939422,45.7266768],[-73.4915062,45.7248957],[-73.4904605,45.724131],[-73.4890234,45.7230802]]}";1;Rue du Sacre-Coeur;1;50;false;false;true;false;false;false;277.0;0;0;0;0;0;false;87803;6127177776;-73.49149;45.724885;87804;6127177775;-73.493932;45.726681;1;22;23;9459800;Bus 9 : Direction Terminus Repentigny;"";EXO;9 E;boul. Claude-David / rue Notre-Dame;Terminus Repentigny
681719383;"{\"type\":\"LineString\",\"coordinates\":[[-73.4939422,45.7266768],[-73.4936387,45.7268397],[-73.4934562,45.7268999]]}";2;Rue Carufel;1;50;false;false;true;false;false;false;23.0;0;0;0;0;0;false;87803;6127177776;-73.49149;45.724885;87804;6127177775;-73.493932;45.726681;1;22;23;9459800;Bus 9 : Direction Terminus Repentigny;"";EXO;9 E;boul. Claude-David / rue Notre-Dame;Terminus Repentigny
