way_id;shape;index;name;nb_lanes;legal_speed;speed_zone_30;oneway;shares_bike;bike_box;bus_lane;dedicated_bus_lane;length;nb_traffic_signals;nb_crossings;nb_stops;nb_give_ways;nb_lvl_crossings;roundabout;stop_id_orig;node_id_orig;coord_x_orig;coord_y_orig;stop_id_dest;node_id_dest;coord_x_dest;coord_y_dest;nb_neighbouring_ways_bus_stop;ordre_orig;ordre_dest;id_line;line_name;colour;operator;ref;from;to
242287913;"{\"type\":\"LineString\",\"coordinates\":[[-73.4451751,45.7400681],[-73.4456806,45.7397657],[-73.4459159,45.7395965],[-73.4460068,45.7395122],[-73.4464559,45.7390915],[-73.446746,45.7387909],[-73.4467801,45.738752],[-73.447225,45.7382981],[-73.4477232,45.7378269],[-73.448121,45.7374517],[-73.4496018,45.7359994],[-73.449928,45.7356847],[-73.4503036,45.7353253],[-73.4510674,45.7345784],[-73.4516636,45.7340423],[-73.4517307,45.733982],[-73.4524448,45.7334121],[-73.452519,45.7333524],[-73.4526955,45.7332104],[-73.453087,45.7329089],[-73.4535396,45.7325606],[-73.4537913,45.7323633],[-73.4543622,45.731911],[-73.4548104,45.7315063],[-73.4550703,45.7312691],[-73.4553283,45.7309635],[-73.4554805,45.7307676],[-73.4557629,45.7304024],[-73.4560067,45.7300595],[-73.456059,45.7299789],[-73.4561537,45.7297995],[-73.4562542,45.7296142],[-73.4563183,45.7295009],[-73.4564201,45.7292877],[-73.4564778,45.7291845],[-73.4564809,45.7291783],[-73.4565491,45.7290411],[-73.456566,45.729008],[-73.4565683,45.7290035],[-73.456647,45.7288501],[-73.456719,45.728718],[-73.4569413,45.7283004],[-73.4569516,45.7282776],[-73.4570793,45.7280443],[-73.4572121,45.7277968],[-73.4573971,45.7274435],[-73.4575844,45.7270927],[-73.4576063,45.7270505],[-73.4577349,45.7268029],[-73.4577879,45.7267007],[-73.4580222,45.7262496],[-73.4584362,45.7254524],[-73.4584604,45.7254088],[-73.4585264,45.7252894],[-73.4585495,45.7252478],[-73.4586814,45.7250162],[-73.4586936,45.7249904],[-73.4588822,45.7247259],[-73.458896,45.7247087],[-73.459173,45.7243691],[-73.4593706,45.7241688],[-73.4595021,45.7240354],[-73.459573,45.7239709],[-73.4596299,45.7239192],[-73.4599825,45.7236238],[-73.4603408,45.7233447],[-73.4605223,45.7232067],[-73.4610485,45.7228066],[-73.4610851,45.7227788],[-73.4612008,45.7226958],[-73.461526,45.7224622],[-73.4617472,45.7223054],[-73.4618791,45.7222119],[-73.4621897,45.7219923],[-73.4622174,45.7219761],[-73.4627959,45.7216376],[-73.4629201,45.7215649],[-73.4630871,45.7214672],[-73.4631059,45.7214562],[-73.4632907,45.7213552],[-73.4636068,45.7211825],[-73.4636377,45.7211656],[-73.4638654,45.7210482],[-73.4641025,45.7209196],[-73.4643686,45.7207753],[-73.4644213,45.7207467],[-73.4644632,45.7207241],[-73.4649,45.7204885],[-73.4649643,45.7204538],[-73.4650994,45.7203819],[-73.465165,45.720347],[-73.4652953,45.7202776],[-73.4654497,45.7201915],[-73.4655649,45.7201273],[-73.4656073,45.7201046],[-73.4658088,45.7199967],[-73.4660493,45.7198679],[-73.4661805,45.7197977],[-73.4664831,45.7196259],[-73.4667329,45.7194783],[-73.46693,45.7193618],[-73.467128,45.7192448],[-73.4673789,45.7190862],[-73.467532,45.7189894],[-73.4676687,45.7189],[-73.467698,45.7188813],[-73.4677454,45.7188509],[-73.4679809,45.7187002],[-73.4680437,45.71866],[-73.4681246,45.7186082],[-73.4681425,45.7185968],[-73.4682655,45.7185232]]}";1;Rue Notre-Dame;4;50;false;false;true;false;false;false;3042.0;2;0;0;0;0;false;87234;6127178331;-73.46802;45.718715;87235;692299395;-73.471125;45.716731;1;41;42;9462960;Bus 300 : Direction Montréal;"";EXO;300 O;boul. Iberville / rue Jacques-Plante;Terminus Radisson
681989269;"{\"type\":\"LineString\",\"coordinates\":[[-73.4682655,45.7185232],[-73.4683591,45.7184608]]}";2;Rue Notre-Dame;4;50;false;false;true;false;false;false;11.0;0;0;0;0;0;false;87234;6127178331;-73.46802;45.718715;87235;692299395;-73.471125;45.716731;0;41;42;9462960;Bus 300 : Direction Montréal;"";EXO;300 O;boul. Iberville / rue Jacques-Plante;Terminus Radisson
681655319;"{\"type\":\"LineString\",\"coordinates\":[[-73.4683591,45.7184608],[-73.4684211,45.71842],[-73.4684406,45.7184072],[-73.4688031,45.7181689],[-73.4688891,45.7181124],[-73.4690779,45.7179883],[-73.4693146,45.7178326],[-73.4696071,45.7176403],[-73.469704,45.7175766],[-73.4698299,45.7174938],[-73.4699607,45.7174078],[-73.4701563,45.7172792],[-73.470495,45.7170565],[-73.4710652,45.7166816],[-73.4711628,45.7166175]]}";3;Rue Notre-Dame;4;50;false;false;true;false;false;false;150.0;2;1;0;0;0;false;87234;6127178331;-73.46802;45.718715;87235;692299395;-73.471125;45.716731;1;41;42;9462960;Bus 300 : Direction Montréal;"";EXO;300 O;boul. Iberville / rue Jacques-Plante;Terminus Radisson
681441412;"{\"type\":\"LineString\",\"coordinates\":[[-73.4711628,45.7166175],[-73.4712838,45.7165428],[-73.4713221,45.7165191]]}";1;Rue Notre-Dame;4;50;false;false;true;false;false;false;17.0;1;0;0;0;0;false;87235;692299395;-73.471125;45.716731;87100;6127178551;-73.47455;45.714858;2;42;43;9462960;Bus 300 : Direction Montréal;"";EXO;300 O;boul. Iberville / rue Jacques-Plante;Terminus Radisson
759205438;"{\"type\":\"LineString\",\"coordinates\":[[-73.4713221,45.7165191],[-73.4714136,45.7164617]]}";2;Rue Notre-Dame;4;50;false;false;true;false;false;false;10.0;0;0;0;0;0;false;87235;692299395;-73.471125;45.716731;87100;6127178551;-73.47455;45.714858;0;42;43;9462960;Bus 300 : Direction Montréal;"";EXO;300 O;boul. Iberville / rue Jacques-Plante;Terminus Radisson
759205439;"{\"type\":\"LineString\",\"coordinates\":[[-73.4714136,45.7164617],[-73.4719916,45.7161122],[-73.4721924,45.7159909],[-73.472332,45.7159065],[-73.4725113,45.7157981],[-73.4740361,45.7149777]]}";3;Rue Notre-Dame;4;50;false;false;true;false;false;false;263.0;0;0;0;0;0;false;87235;692299395;-73.471125;45.716731;87100;6127178551;-73.47455;45.714858;0;42;43;9462960;Bus 300 : Direction Montréal;"";EXO;300 O;boul. Iberville / rue Jacques-Plante;Terminus Radisson
49156427;"{\"type\":\"LineString\",\"coordinates\":[[-73.4740361,45.7149777],[-73.4742858,45.714916],[-73.4745875,45.714756]]}";4;Rue Notre-Dame;2;50;false;true;true;false;false;false;51.0;0;0;0;0;0;false;87235;692299395;-73.471125;45.716731;87100;6127178551;-73.47455;45.714858;2;42;43;9462960;Bus 300 : Direction Montréal;"";EXO;300 O;boul. Iberville / rue Jacques-Plante;Terminus Radisson
49156424;"{\"type\":\"LineString\",\"coordinates\":[[-73.4745875,45.714756],[-73.4749776,45.7145357],[-73.474998,45.7145268],[-73.4750829,45.7144969]]}";1;Rue Notre-Dame;2;50;false;true;true;false;false;false;49.0;1;0;0;0;0;false;87100;6127178551;-73.47455;45.714858;88659;6127177189;-73.487306;45.695375;2;43;44;9462960;Bus 300 : Direction Montréal;"";EXO;300 O;boul. Iberville / rue Jacques-Plante;Terminus Radisson
49156426;"{\"type\":\"LineString\",\"coordinates\":[[-73.4750829,45.7144969],[-73.4751748,45.7144526]]}";2;Rue Notre-Dame;2;50;false;true;true;false;false;false;9.0;0;0;0;0;0;false;87100;6127178551;-73.47455;45.714858;88659;6127177189;-73.487306;45.695375;0;43;44;9462960;Bus 300 : Direction Montréal;"";EXO;300 O;boul. Iberville / rue Jacques-Plante;Terminus Radisson
49156428;"{\"type\":\"LineString\",\"coordinates\":[[-73.4751748,45.7144526],[-73.4755174,45.7142805]]}";3;Rue Notre-Dame;2;50;false;true;true;false;false;false;33.0;0;0;0;0;0;false;87100;6127178551;-73.47455;45.714858;88659;6127177189;-73.487306;45.695375;0;43;44;9462960;Bus 300 : Direction Montréal;"";EXO;300 O;boul. Iberville / rue Jacques-Plante;Terminus Radisson
49156365;"{\"type\":\"LineString\",\"coordinates\":[[-73.4755174,45.7142805],[-73.4769411,45.7135156],[-73.4771971,45.713317]]}";4;Rue Notre-Dame;2;50;false;true;true;false;false;false;170.0;0;0;0;0;0;false;87100;6127178551;-73.47455;45.714858;88659;6127177189;-73.487306;45.695375;0;43;44;9462960;Bus 300 : Direction Montréal;"";EXO;300 O;boul. Iberville / rue Jacques-Plante;Terminus Radisson
49156366;"{\"type\":\"LineString\",\"coordinates\":[[-73.4771971,45.713317],[-73.4775142,45.7131582]]}";5;Rue Notre-Dame;4;50;false;false;true;false;false;false;31.0;0;0;0;0;0;false;87100;6127178551;-73.47455;45.714858;88659;6127177189;-73.487306;45.695375;0;43;44;9462960;Bus 300 : Direction Montréal;"";EXO;300 O;boul. Iberville / rue Jacques-Plante;Terminus Radisson
23376942;"{\"type\":\"LineString\",\"coordinates\":[[-73.4775142,45.7131582],[-73.4808953,45.7113768]]}";6;Pont Le Gardeur;4;50;false;false;true;false;false;false;330.0;0;0;0;0;0;false;87100;6127178551;-73.47455;45.714858;88659;6127177189;-73.487306;45.695375;0;43;44;9462960;Bus 300 : Direction Montréal;"";EXO;300 O;boul. Iberville / rue Jacques-Plante;Terminus Radisson
81606585;"{\"type\":\"LineString\",\"coordinates\":[[-73.4808953,45.7113768],[-73.481265,45.7111807],[-73.4816152,45.7109919],[-73.4819127,45.7108228],[-73.4821486,45.7106788],[-73.4823615,45.7105439],[-73.4826364,45.7103509],[-73.4829882,45.7100521],[-73.4831199,45.7099228],[-73.4833762,45.709636],[-73.4834911,45.7094858],[-73.4836121,45.709308],[-73.4836921,45.7091691],[-73.4837654,45.7090441],[-73.4838299,45.7089038],[-73.4839325,45.7086573],[-73.4839903,45.7084861],[-73.4840598,45.7081964],[-73.4840902,45.7080063],[-73.4841132,45.7077692],[-73.484104,45.7074417],[-73.4840713,45.7071075],[-73.4840304,45.7067117],[-73.4839918,45.706339]]}";7;Rue Notre-Dame;4;50;false;false;true;false;false;false;652.0;0;0;0;0;0;false;87100;6127178551;-73.47455;45.714858;88659;6127177189;-73.487306;45.695375;0;43;44;9462960;Bus 300 : Direction Montréal;"";EXO;300 O;boul. Iberville / rue Jacques-Plante;Terminus Radisson
23376939;"{\"type\":\"LineString\",\"coordinates\":[[-73.4839918,45.706339],[-73.4839643,45.706115],[-73.4839279,45.705714],[-73.4838882,45.7053131],[-73.483846,45.7048976],[-73.4836922,45.7032786],[-73.4836474,45.7028342],[-73.4836055,45.7024538],[-73.4835587,45.7020065],[-73.4834849,45.7012533]]}";8;Pont Le Gardeur;4;50;false;false;true;false;false;false;567.0;0;0;0;0;0;false;87100;6127178551;-73.47455;45.714858;88659;6127177189;-73.487306;45.695375;0;43;44;9462960;Bus 300 : Direction Montréal;"";EXO;300 O;boul. Iberville / rue Jacques-Plante;Terminus Radisson
23376936;"{\"type\":\"LineString\",\"coordinates\":[[-73.4834849,45.7012533],[-73.4835223,45.7007621],[-73.4836027,45.7003582],[-73.483722,45.7000439],[-73.4837624,45.6999656]]}";9;Rue Notre-Dame Est;2;50;false;true;true;false;false;false;146.0;0;0;0;0;0;false;87100;6127178551;-73.47455;45.714858;88659;6127177189;-73.487306;45.695375;0;43;44;9462960;Bus 300 : Direction Montréal;"";EXO;300 O;boul. Iberville / rue Jacques-Plante;Terminus Radisson
221591856;"{\"type\":\"LineString\",\"coordinates\":[[-73.4837624,45.6999656],[-73.483821,45.6998389],[-73.4839259,45.6995979],[-73.4840611,45.6993373]]}";10;Rue Notre-Dame Est;2;50;false;true;true;false;false;false;74.0;0;0;0;0;0;false;87100;6127178551;-73.47455;45.714858;88659;6127177189;-73.487306;45.695375;0;43;44;9462960;Bus 300 : Direction Montréal;"";EXO;300 O;boul. Iberville / rue Jacques-Plante;Terminus Radisson
484887550;"{\"type\":\"LineString\",\"coordinates\":[[-73.4840611,45.6993373],[-73.484055,45.6992141],[-73.4840932,45.6990688],[-73.4841433,45.6989739],[-73.4842221,45.6988789],[-73.4843483,45.6987779],[-73.4845031,45.6987037]]}";11;Rue Notre-Dame Est;2;50;false;true;true;false;false;false;84.0;0;0;0;0;0;false;87100;6127178551;-73.47455;45.714858;88659;6127177189;-73.487306;45.695375;0;43;44;9462960;Bus 300 : Direction Montréal;"";EXO;300 O;boul. Iberville / rue Jacques-Plante;Terminus Radisson
681989277;"{\"type\":\"LineString\",\"coordinates\":[[-73.4845031,45.6987037],[-73.4845663,45.6986665],[-73.4846111,45.6986181],[-73.4846336,45.6985626],[-73.4846319,45.6985049],[-73.484606,45.6984501]]}";12;"";1;50;false;false;true;false;false;false;33.0;0;0;0;0;0;true;87100;6127178551;-73.47455;45.714858;88659;6127177189;-73.487306;45.695375;0;43;44;9462960;Bus 300 : Direction Montréal;"";EXO;300 O;boul. Iberville / rue Jacques-Plante;Terminus Radisson
681989273;"{\"type\":\"LineString\",\"coordinates\":[[-73.484606,45.6984501],[-73.4845675,45.6984101],[-73.4845162,45.698378]]}";13;"";1;50;false;false;true;false;false;false;11.0;0;0;0;0;0;true;87100;6127178551;-73.47455;45.714858;88659;6127177189;-73.487306;45.695375;0;43;44;9462960;Bus 300 : Direction Montréal;"";EXO;300 O;boul. Iberville / rue Jacques-Plante;Terminus Radisson
20930589;"{\"type\":\"LineString\",\"coordinates\":[[-73.4845162,45.698378],[-73.4844892,45.6982872],[-73.4844817,45.6982237]]}";14;Rue Notre-Dame Est;1;50;false;true;true;false;false;false;18.0;0;1;0;0;0;false;87100;6127178551;-73.47455;45.714858;88659;6127177189;-73.487306;45.695375;0;43;44;9462960;Bus 300 : Direction Montréal;"";EXO;300 O;boul. Iberville / rue Jacques-Plante;Terminus Radisson
333889797;"{\"type\":\"LineString\",\"coordinates\":[[-73.4844817,45.6982237],[-73.4844748,45.6981645],[-73.4845397,45.698013],[-73.4846624,45.6978687],[-73.4850159,45.697544],[-73.485145,45.6974239],[-73.4855355,45.6970605],[-73.4856481,45.6969543],[-73.4862823,45.6963559],[-73.4868499,45.6958144],[-73.4872657,45.6953775]]}";15;Rue Notre-Dame Est;2;50;false;true;true;false;false;false;386.0;1;1;0;0;0;false;87100;6127178551;-73.47455;45.714858;88659;6127177189;-73.487306;45.695375;0;43;44;9462960;Bus 300 : Direction Montréal;"";EXO;300 O;boul. Iberville / rue Jacques-Plante;Terminus Radisson
106550686;"{\"type\":\"LineString\",\"coordinates\":[[-73.4892423,45.6898101],[-73.4890439,45.6905294],[-73.4889491,45.6908734],[-73.4889223,45.6909706],[-73.4886679,45.6918931],[-73.4884752,45.6925919],[-73.4882544,45.6933926],[-73.4881301,45.6938434],[-73.4880983,45.6939587],[-73.4879644,45.6944194],[-73.487888,45.6946346],[-73.4877736,45.6948394],[-73.4876214,45.6950332],[-73.4872657,45.6953775]]}";16;Rue Notre-Dame Est;4;50;false;false;true;false;false;false;643.0;1;1;0;0;0;false;87100;6127178551;-73.47455;45.714858;88659;6127177189;-73.487306;45.695375;2;43;44;9462960;Bus 300 : Direction Montréal;"";EXO;300 O;boul. Iberville / rue Jacques-Plante;Terminus Radisson
333889797;"{\"type\":\"LineString\",\"coordinates\":[[-73.4844817,45.6982237],[-73.4844748,45.6981645],[-73.4845397,45.698013],[-73.4846624,45.6978687],[-73.4850159,45.697544],[-73.485145,45.6974239],[-73.4855355,45.6970605],[-73.4856481,45.6969543],[-73.4862823,45.6963559],[-73.4868499,45.6958144],[-73.4872657,45.6953775]]}";1;Rue Notre-Dame Est;2;50;false;true;true;false;false;false;386.0;1;1;0;0;0;false;88659;6127177189;-73.487306;45.695375;88664;6127177187;-73.488474;45.692597;2;44;45;9462960;Bus 300 : Direction Montréal;"";EXO;300 O;boul. Iberville / rue Jacques-Plante;Terminus Radisson
106550686;"{\"type\":\"LineString\",\"coordinates\":[[-73.4892423,45.6898101],[-73.4890439,45.6905294],[-73.4889491,45.6908734],[-73.4889223,45.6909706],[-73.4886679,45.6918931],[-73.4884752,45.6925919],[-73.4882544,45.6933926],[-73.4881301,45.6938434],[-73.4880983,45.6939587],[-73.4879644,45.6944194],[-73.487888,45.6946346],[-73.4877736,45.6948394],[-73.4876214,45.6950332],[-73.4872657,45.6953775]]}";2;Rue Notre-Dame Est;4;50;false;false;true;false;false;false;643.0;1;1;0;0;0;false;88659;6127177189;-73.487306;45.695375;88664;6127177187;-73.488474;45.692597;2;44;45;9462960;Bus 300 : Direction Montréal;"";EXO;300 O;boul. Iberville / rue Jacques-Plante;Terminus Radisson
106550686;"{\"type\":\"LineString\",\"coordinates\":[[-73.4892423,45.6898101],[-73.4890439,45.6905294],[-73.4889491,45.6908734],[-73.4889223,45.6909706],[-73.4886679,45.6918931],[-73.4884752,45.6925919],[-73.4882544,45.6933926],[-73.4881301,45.6938434],[-73.4880983,45.6939587],[-73.4879644,45.6944194],[-73.487888,45.6946346],[-73.4877736,45.6948394],[-73.4876214,45.6950332],[-73.4872657,45.6953775]]}";1;Rue Notre-Dame Est;4;50;false;false;true;false;false;false;321.5;1;1;0;0;0;false;88664;6127177187;-73.488474;45.692597;88670;6127177185;-73.494072;45.670518;1;45;46;9462960;Bus 300 : Direction Montréal;"";EXO;300 O;boul. Iberville / rue Jacques-Plante;Terminus Radisson
453673965;"{\"type\":\"LineString\",\"coordinates\":[[-73.4894586,45.6890444],[-73.4892423,45.6898101]]}";2;Rue Notre-Dame Est;4;50;false;false;true;false;false;false;87.0;0;0;0;0;0;false;88664;6127177187;-73.488474;45.692597;88670;6127177185;-73.494072;45.670518;0;45;46;9462960;Bus 300 : Direction Montréal;"";EXO;300 O;boul. Iberville / rue Jacques-Plante;Terminus Radisson
106550712;"{\"type\":\"LineString\",\"coordinates\":[[-73.4912775,45.6824227],[-73.491184,45.6827645],[-73.490598,45.6849061],[-73.4901381,45.6865867],[-73.4899444,45.6872946],[-73.4898837,45.6875164],[-73.4896774,45.6882581],[-73.4894586,45.6890444]]}";3;Rue Notre-Dame Est;4;50;false;false;true;false;false;false;749.0;0;0;0;0;0;false;88664;6127177187;-73.488474;45.692597;88670;6127177185;-73.494072;45.670518;0;45;46;9462960;Bus 300 : Direction Montréal;"";EXO;300 O;boul. Iberville / rue Jacques-Plante;Terminus Radisson
48917311;"{\"type\":\"LineString\",\"coordinates\":[[-73.4934633,45.672827],[-73.4934197,45.6730272],[-73.4933962,45.673135],[-73.4932691,45.6737187],[-73.4932448,45.6738302],[-73.4930759,45.6746053],[-73.4928969,45.6754272],[-73.492765,45.676074],[-73.4927484,45.6761503],[-73.4926872,45.6764216],[-73.492598,45.6768507],[-73.4925498,45.6770824],[-73.4924997,45.6773451],[-73.4924945,45.6773789],[-73.4923867,45.677959],[-73.4922619,45.6785606],[-73.4921909,45.6789149],[-73.4920896,45.6793412],[-73.4919817,45.6797585],[-73.4915632,45.6813414],[-73.4912775,45.6824227]]}";4;Rue Notre-Dame Est;4;50;false;false;false;false;false;false;1080.0;0;0;0;0;0;false;88664;6127177187;-73.488474;45.692597;88670;6127177185;-73.494072;45.670518;0;45;46;9462960;Bus 300 : Direction Montréal;"";EXO;300 O;boul. Iberville / rue Jacques-Plante;Terminus Radisson
453528896;"{\"type\":\"LineString\",\"coordinates\":[[-73.4902546,45.6399878],[-73.4899734,45.6413557],[-73.4899517,45.6415112],[-73.4898946,45.6420706],[-73.489816,45.642811],[-73.4897645,45.6434469],[-73.489704,45.6441201],[-73.4896509,45.644472],[-73.4895858,45.6447389],[-73.4893285,45.6454345],[-73.4890599,45.6460764],[-73.4889972,45.646218],[-73.4888948,45.6464492],[-73.4887975,45.6466691],[-73.4885666,45.6472218],[-73.4880394,45.6484425],[-73.4879493,45.64875],[-73.4879231,45.6489962],[-73.4879111,45.6491176],[-73.4879166,45.6492514],[-73.4879423,45.6494916],[-73.4879689,45.6495695],[-73.4880168,45.6497095],[-73.4880955,45.6498682],[-73.4884703,45.6506646],[-73.488772,45.6511243],[-73.4888481,45.6512403],[-73.4890413,45.6514974],[-73.4894556,45.6521213],[-73.4895735,45.6523197],[-73.4896898,45.6525561],[-73.4898145,45.6528546],[-73.4900798,45.6535868],[-73.4903867,45.6543979],[-73.4905567,45.6546359],[-73.4906787,45.6547981],[-73.4909528,45.6551904],[-73.4913592,45.6557593],[-73.4913823,45.6557916],[-73.4914137,45.6558394],[-73.4918383,45.6564856],[-73.4919547,45.6566627],[-73.491978,45.6567209],[-73.4922036,45.657285],[-73.4923312,45.6576598],[-73.4926072,45.6584826],[-73.4928124,45.6593214],[-73.4930331,45.6602485],[-73.4931447,45.6606794],[-73.4931915,45.6608714],[-73.4934362,45.6618742],[-73.4936259,45.6627596],[-73.4938372,45.6636324],[-73.4939258,45.6639911],[-73.4940014,45.6643285],[-73.4943202,45.6657505],[-73.4943792,45.6660755],[-73.4943957,45.6663482],[-73.4943689,45.6675582],[-73.4943392,45.6693025],[-73.4942408,45.669744],[-73.4940719,45.6704795],[-73.4939692,45.6708694],[-73.4937766,45.6716399],[-73.4935908,45.67236],[-73.4935796,45.6723843],[-73.4934633,45.672827]]}";5;Rue Notre-Dame Est;4;50;false;false;true;false;false;false;1877.0;0;0;0;0;0;false;88664;6127177187;-73.488474;45.692597;88670;6127177185;-73.494072;45.670518;1;45;46;9462960;Bus 300 : Direction Montréal;"";EXO;300 O;boul. Iberville / rue Jacques-Plante;Terminus Radisson
453497309;"{\"type\":\"LineString\",\"coordinates\":[[-73.4902799,45.639895],[-73.4902546,45.6399878]]}";1;Rue Notre-Dame Est;4;50;false;false;true;false;false;false;11.0;0;0;0;0;0;false;88622;6127177198;-73.490291;45.640064;88599;6127177206;-73.4969686;45.6304085;2;50;51;9462960;Bus 300 : Direction Montréal;"";EXO;300 O;boul. Iberville / rue Jacques-Plante;Terminus Radisson
453497308;"{\"type\":\"LineString\",\"coordinates\":[[-73.494919,45.6323066],[-73.4942344,45.6329068],[-73.4936228,45.6335738],[-73.4932503,45.6340944],[-73.4930698,45.6343466],[-73.4927014,45.6350843],[-73.4923917,45.6357089],[-73.4920373,45.636376],[-73.4917223,45.6369932],[-73.4913698,45.6376296],[-73.4913268,45.6377113],[-73.4910409,45.6382549],[-73.4906751,45.6389076],[-73.4904625,45.6393381],[-73.4904058,45.639491],[-73.4902799,45.639895]]}";2;Rue Notre-Dame Est;4;50;false;false;true;false;false;false;924.0;0;0;0;0;0;false;88622;6127177198;-73.490291;45.640064;88599;6127177206;-73.4969686;45.6304085;0;50;51;9462960;Bus 300 : Direction Montréal;"";EXO;300 O;boul. Iberville / rue Jacques-Plante;Terminus Radisson
599021478;"{\"type\":\"LineString\",\"coordinates\":[[-73.4956154,45.6316888],[-73.494919,45.6323066]]}";3;Rue Notre-Dame Est;4;50;false;false;true;false;false;false;88.0;0;0;0;0;0;false;88622;6127177198;-73.490291;45.640064;88599;6127177206;-73.4969686;45.6304085;0;50;51;9462960;Bus 300 : Direction Montréal;"";EXO;300 O;boul. Iberville / rue Jacques-Plante;Terminus Radisson
26914399;"{\"type\":\"LineString\",\"coordinates\":[[-73.5003557,45.6273744],[-73.5002221,45.627496],[-73.4997577,45.6279187],[-73.4993884,45.6282548],[-73.4988643,45.6287318],[-73.4986005,45.628972],[-73.4982268,45.6293121],[-73.4978931,45.6296158],[-73.4976452,45.6298414],[-73.4975736,45.6299066],[-73.497025,45.6304182],[-73.4963212,45.6310464],[-73.4956154,45.6316888]]}";4;Rue Notre-Dame Est;4;50;false;false;true;false;false;false;605.0;1;0;0;0;0;false;88622;6127177198;-73.490291;45.640064;88599;6127177206;-73.4969686;45.6304085;2;50;51;9462960;Bus 300 : Direction Montréal;"";EXO;300 O;boul. Iberville / rue Jacques-Plante;Terminus Radisson
26914399;"{\"type\":\"LineString\",\"coordinates\":[[-73.5003557,45.6273744],[-73.5002221,45.627496],[-73.4997577,45.6279187],[-73.4993884,45.6282548],[-73.4988643,45.6287318],[-73.4986005,45.628972],[-73.4982268,45.6293121],[-73.4978931,45.6296158],[-73.4976452,45.6298414],[-73.4975736,45.6299066],[-73.497025,45.6304182],[-73.4963212,45.6310464],[-73.4956154,45.6316888]]}";1;Rue Notre-Dame Est;4;50;false;false;true;false;false;false;302.5;1;0;0;0;0;false;88599;6127177206;-73.4969686;45.6304085;88595;6127177209;-73.51043;45.611515;1;51;52;9462960;Bus 300 : Direction Montréal;"";EXO;300 O;boul. Iberville / rue Jacques-Plante;Terminus Radisson
27407126;"{\"type\":\"LineString\",\"coordinates\":[[-73.5092102,45.6146908],[-73.5080106,45.6173366],[-73.507445,45.6184488],[-73.5063751,45.6203624],[-73.5057617,45.6214221],[-73.5048275,45.6230645],[-73.5044314,45.6236267],[-73.5039911,45.6241065],[-73.5021238,45.6258318],[-73.5014715,45.626402],[-73.5009587,45.626844],[-73.5003557,45.6273744]]}";2;Rue Notre-Dame Est;4;50;false;false;false;false;false;false;1585.0;1;0;0;0;0;false;88599;6127177206;-73.4969686;45.6304085;88595;6127177209;-73.51043;45.611515;0;51;52;9462960;Bus 300 : Direction Montréal;"";EXO;300 O;boul. Iberville / rue Jacques-Plante;Terminus Radisson
462527502;"{\"type\":\"LineString\",\"coordinates\":[[-73.509325,45.6143913],[-73.5092102,45.6146908]]}";3;Rue Notre-Dame Est;4;50;false;false;false;false;false;false;35.0;1;0;0;0;0;false;88599;6127177206;-73.4969686;45.6304085;88595;6127177209;-73.51043;45.611515;0;51;52;9462960;Bus 300 : Direction Montréal;"";EXO;300 O;boul. Iberville / rue Jacques-Plante;Terminus Radisson
462527503;"{\"type\":\"LineString\",\"coordinates\":[[-73.5103829,45.6114288],[-73.510111,45.6121904],[-73.509999,45.612504],[-73.5096983,45.6133459],[-73.509325,45.6143913]]}";4;Rue Notre-Dame Est;4;50;false;false;false;false;false;false;170.0;2;0;0;0;0;false;88599;6127177206;-73.4969686;45.6304085;88595;6127177209;-73.51043;45.611515;1;51;52;9462960;Bus 300 : Direction Montréal;"";EXO;300 O;boul. Iberville / rue Jacques-Plante;Terminus Radisson
27407132;"{\"type\":\"LineString\",\"coordinates\":[[-73.5103829,45.6114288],[-73.5108881,45.6115178],[-73.5109613,45.6115307],[-73.5114736,45.611621],[-73.5119684,45.6117082],[-73.5122497,45.6117577],[-73.5124671,45.611796],[-73.5129453,45.6118803],[-73.5139062,45.6120496],[-73.5143665,45.6121307]]}";1;Avenue Georges-V;1;50;false;false;true;false;false;false;321.0;2;0;0;0;0;false;88595;6127177209;-73.51043;45.611515;88597;6127177208;-73.518527;45.612844;2;52;53;9462960;Bus 300 : Direction Montréal;"";EXO;300 O;boul. Iberville / rue Jacques-Plante;Terminus Radisson
27663077;"{\"type\":\"LineString\",\"coordinates\":[[-73.5143665,45.6121307],[-73.5159223,45.6123952],[-73.5159968,45.6124078],[-73.5164749,45.6124891],[-73.5167676,45.6125388],[-73.5175432,45.6126707],[-73.5176678,45.6126919],[-73.5180673,45.6127598],[-73.5186034,45.6128509],[-73.5249442,45.6139287]]}";2;Avenue Georges-V;1;50;false;false;true;false;false;false;849.0;2;0;0;0;0;false;88595;6127177209;-73.51043;45.611515;88597;6127177208;-73.518527;45.612844;2;52;53;9462960;Bus 300 : Direction Montréal;"";EXO;300 O;boul. Iberville / rue Jacques-Plante;Terminus Radisson
27663077;"{\"type\":\"LineString\",\"coordinates\":[[-73.5143665,45.6121307],[-73.5159223,45.6123952],[-73.5159968,45.6124078],[-73.5164749,45.6124891],[-73.5167676,45.6125388],[-73.5175432,45.6126707],[-73.5176678,45.6126919],[-73.5180673,45.6127598],[-73.5186034,45.6128509],[-73.5249442,45.6139287]]}";1;Avenue Georges-V;1;50;false;false;true;false;false;false;424.5;2;0;0;0;0;false;88597;6127177208;-73.518527;45.612844;88626;6127177196;-73.527718;45.609119;1;53;54;9462960;Bus 300 : Direction Montréal;"";EXO;300 O;boul. Iberville / rue Jacques-Plante;Terminus Radisson
459568603;"{\"type\":\"LineString\",\"coordinates\":[[-73.5249442,45.6139287],[-73.5251331,45.6137185],[-73.5253914,45.613262],[-73.5258056,45.6125302],[-73.526177,45.611874],[-73.5264316,45.6113828],[-73.5266893,45.6108955],[-73.52702,45.6102781],[-73.5273217,45.6097225]]}";2;Rue Sherbrooke Est;2;50;false;true;true;false;false;false;504.0;2;0;0;0;0;false;88597;6127177208;-73.518527;45.612844;88626;6127177196;-73.527718;45.609119;0;53;54;9462960;Bus 300 : Direction Montréal;"";EXO;300 O;boul. Iberville / rue Jacques-Plante;Terminus Radisson
459568600;"{\"type\":\"LineString\",\"coordinates\":[[-73.5273217,45.6097225],[-73.5277142,45.6089995]]}";3;Rue Sherbrooke Est;2;50;false;true;true;false;false;false;43.0;0;0;0;0;0;false;88597;6127177208;-73.518527;45.612844;88626;6127177196;-73.527718;45.609119;1;53;54;9462960;Bus 300 : Direction Montréal;"";EXO;300 O;boul. Iberville / rue Jacques-Plante;Terminus Radisson
459570327;"{\"type\":\"LineString\",\"coordinates\":[[-73.5277142,45.6089995],[-73.5278165,45.6088072],[-73.528033,45.6083711],[-73.5280864,45.6082908],[-73.5283821,45.6077725],[-73.5286906,45.6072544]]}";1;Rue Sherbrooke Est;2;50;false;true;true;false;false;false;209.0;1;0;0;0;0;false;88626;6127177196;-73.527718;45.609119;88628;6127177194;-73.530286;45.604714;2;54;55;9462960;Bus 300 : Direction Montréal;"";EXO;300 O;boul. Iberville / rue Jacques-Plante;Terminus Radisson
459570326;"{\"type\":\"LineString\",\"coordinates\":[[-73.5286906,45.6072544],[-73.5291077,45.6065532]]}";2;Rue Sherbrooke Est;2;50;false;true;true;false;false;false;85.0;0;0;0;0;0;false;88626;6127177196;-73.527718;45.609119;88628;6127177194;-73.530286;45.604714;0;54;55;9462960;Bus 300 : Direction Montréal;"";EXO;300 O;boul. Iberville / rue Jacques-Plante;Terminus Radisson
459570319;"{\"type\":\"LineString\",\"coordinates\":[[-73.5291077,45.6065532],[-73.5295088,45.6058788],[-73.5298847,45.6052356],[-73.5302701,45.6045936]]}";3;Rue Sherbrooke Est;2;50;false;true;true;false;false;false;236.0;0;0;0;0;0;false;88626;6127177196;-73.527718;45.609119;88628;6127177194;-73.530286;45.604714;2;54;55;9462960;Bus 300 : Direction Montréal;"";EXO;300 O;boul. Iberville / rue Jacques-Plante;Terminus Radisson
607792919;"{\"type\":\"LineString\",\"coordinates\":[[-73.5302701,45.6045936],[-73.5304253,45.6043284],[-73.5306628,45.6039224],[-73.5310652,45.6032435]]}";1;Rue Sherbrooke Est;2;50;false;true;true;false;false;false;163.0;0;0;0;0;0;false;88628;6127177194;-73.530286;45.604714;88633;692316633;-73.535133;45.5966;2;55;56;9462960;Bus 300 : Direction Montréal;"";EXO;300 O;boul. Iberville / rue Jacques-Plante;Terminus Radisson
459570318;"{\"type\":\"LineString\",\"coordinates\":[[-73.5310652,45.6032435],[-73.5315348,45.6024632]]}";2;Rue Sherbrooke Est;2;50;false;true;true;false;false;false;95.0;0;0;0;0;0;false;88628;6127177194;-73.530286;45.604714;88633;692316633;-73.535133;45.5966;0;55;56;9462960;Bus 300 : Direction Montréal;"";EXO;300 O;boul. Iberville / rue Jacques-Plante;Terminus Radisson
459570315;"{\"type\":\"LineString\",\"coordinates\":[[-73.5315348,45.6024632],[-73.5319548,45.6017337],[-73.5323433,45.6010928],[-73.5324038,45.6009929]]}";3;Rue Sherbrooke Est;2;50;false;true;true;false;false;false;177.0;0;1;0;0;0;false;88628;6127177194;-73.530286;45.604714;88633;692316633;-73.535133;45.5966;0;55;56;9462960;Bus 300 : Direction Montréal;"";EXO;300 O;boul. Iberville / rue Jacques-Plante;Terminus Radisson
459570314;"{\"type\":\"LineString\",\"coordinates\":[[-73.5324038,45.6009929],[-73.5324253,45.6009575],[-73.5328341,45.6002844]]}";4;Rue Sherbrooke Est;2;50;false;true;true;false;false;false;86.0;0;1;0;0;0;false;88628;6127177194;-73.530286;45.604714;88633;692316633;-73.535133;45.5966;0;55;56;9462960;Bus 300 : Direction Montréal;"";EXO;300 O;boul. Iberville / rue Jacques-Plante;Terminus Radisson
20213150;"{\"type\":\"LineString\",\"coordinates\":[[-73.5328341,45.6002844],[-73.5332674,45.5995773],[-73.5336469,45.5989463]]}";5;Rue Sherbrooke Est;2;50;false;true;true;false;false;false;162.0;0;0;0;0;0;false;88628;6127177194;-73.530286;45.604714;88633;692316633;-73.535133;45.5966;0;55;56;9462960;Bus 300 : Direction Montréal;"";EXO;300 O;boul. Iberville / rue Jacques-Plante;Terminus Radisson
459571182;"{\"type\":\"LineString\",\"coordinates\":[[-73.5336469,45.5989463],[-73.5343114,45.5978491]]}";6;Rue Sherbrooke Est;2;50;false;true;true;false;false;false;133.0;0;0;0;0;0;false;88628;6127177194;-73.530286;45.604714;88633;692316633;-73.535133;45.5966;0;55;56;9462960;Bus 300 : Direction Montréal;"";EXO;300 O;boul. Iberville / rue Jacques-Plante;Terminus Radisson
452652543;"{\"type\":\"LineString\",\"coordinates\":[[-73.5343114,45.5978491],[-73.534752,45.5971593]]}";7;Rue Sherbrooke Est;2;50;false;true;true;false;false;false;84.0;0;0;0;0;0;false;88628;6127177194;-73.530286;45.604714;88633;692316633;-73.535133;45.5966;0;55;56;9462960;Bus 300 : Direction Montréal;"";EXO;300 O;boul. Iberville / rue Jacques-Plante;Terminus Radisson
452652544;"{\"type\":\"LineString\",\"coordinates\":[[-73.534752,45.5971593],[-73.5350983,45.5966052],[-73.5351548,45.5965148]]}";8;Rue Sherbrooke Est;2;50;false;true;true;false;false;false;79.0;1;0;0;0;0;false;88628;6127177194;-73.530286;45.604714;88633;692316633;-73.535133;45.5966;2;55;56;9462960;Bus 300 : Direction Montréal;"";EXO;300 O;boul. Iberville / rue Jacques-Plante;Terminus Radisson
452652540;"{\"type\":\"LineString\",\"coordinates\":[[-73.5351548,45.5965148],[-73.5354812,45.5959845]]}";1;Rue Sherbrooke Est;2;50;false;true;true;false;false;false;65.0;1;0;0;0;0;false;88633;692316633;-73.535133;45.5966;88643;692321056;-73.539893;45.589761;2;56;57;9462960;Bus 300 : Direction Montréal;"";EXO;300 O;boul. Iberville / rue Jacques-Plante;Terminus Radisson
452652546;"{\"type\":\"LineString\",\"coordinates\":[[-73.5354812,45.5959845],[-73.5358085,45.5954308]]}";2;Rue Sherbrooke Est;2;50;false;true;true;false;false;false;67.0;0;0;0;0;0;false;88633;692316633;-73.535133;45.5966;88643;692321056;-73.539893;45.589761;0;56;57;9462960;Bus 300 : Direction Montréal;"";EXO;300 O;boul. Iberville / rue Jacques-Plante;Terminus Radisson
455478688;"{\"type\":\"LineString\",\"coordinates\":[[-73.5358085,45.5954308],[-73.5358557,45.5953589]]}";3;Rue Sherbrooke Est;2;50;false;true;true;false;false;false;9.0;1;0;0;0;0;false;88633;692316633;-73.535133;45.5966;88643;692321056;-73.539893;45.589761;0;56;57;9462960;Bus 300 : Direction Montréal;"";EXO;300 O;boul. Iberville / rue Jacques-Plante;Terminus Radisson
452652536;"{\"type\":\"LineString\",\"coordinates\":[[-73.5358557,45.5953589],[-73.5361342,45.5948815]]}";4;Rue Sherbrooke Est;2;50;false;true;true;false;false;false;58.0;2;0;0;0;0;false;88633;692316633;-73.535133;45.5966;88643;692321056;-73.539893;45.589761;0;56;57;9462960;Bus 300 : Direction Montréal;"";EXO;300 O;boul. Iberville / rue Jacques-Plante;Terminus Radisson
393698268;"{\"type\":\"LineString\",\"coordinates\":[[-73.5361342,45.5948815],[-73.5363621,45.5944918],[-73.5364829,45.5942947]]}";5;Rue Sherbrooke Est;2;50;false;true;true;false;false;false;71.0;1;0;0;0;0;false;88633;692316633;-73.535133;45.5966;88643;692321056;-73.539893;45.589761;0;56;57;9462960;Bus 300 : Direction Montréal;"";EXO;300 O;boul. Iberville / rue Jacques-Plante;Terminus Radisson
455314972;"{\"type\":\"LineString\",\"coordinates\":[[-73.5364829,45.5942947],[-73.5365547,45.5941627]]}";6;Rue Sherbrooke Est;2;50;false;true;true;false;false;false;16.0;1;0;0;0;0;false;88633;692316633;-73.535133;45.5966;88643;692321056;-73.539893;45.589761;0;56;57;9462960;Bus 300 : Direction Montréal;"";EXO;300 O;boul. Iberville / rue Jacques-Plante;Terminus Radisson
511856226;"{\"type\":\"LineString\",\"coordinates\":[[-73.5365547,45.5941627],[-73.5367103,45.5938648],[-73.5368661,45.5935767]]}";7;Rue Sherbrooke Est;2;50;false;true;true;false;false;false;70.0;1;0;0;0;0;false;88633;692316633;-73.535133;45.5966;88643;692321056;-73.539893;45.589761;0;56;57;9462960;Bus 300 : Direction Montréal;"";EXO;300 O;boul. Iberville / rue Jacques-Plante;Terminus Radisson
27439805;"{\"type\":\"LineString\",\"coordinates\":[[-73.5368661,45.5935767],[-73.5372284,45.5929627]]}";8;Rue Sherbrooke Est;1;50;false;true;true;false;false;false;74.0;0;0;0;0;0;false;88633;692316633;-73.535133;45.5966;88643;692321056;-73.539893;45.589761;0;56;57;9462960;Bus 300 : Direction Montréal;"";EXO;300 O;boul. Iberville / rue Jacques-Plante;Terminus Radisson
452610968;"{\"type\":\"LineString\",\"coordinates\":[[-73.5372284,45.5929627],[-73.5373335,45.5927856],[-73.5375787,45.5923593]]}";9;Rue Sherbrooke Est;2;50;false;true;true;false;false;false;73.0;1;0;0;0;0;false;88633;692316633;-73.535133;45.5966;88643;692321056;-73.539893;45.589761;0;56;57;9462960;Bus 300 : Direction Montréal;"";EXO;300 O;boul. Iberville / rue Jacques-Plante;Terminus Radisson
455414957;"{\"type\":\"LineString\",\"coordinates\":[[-73.5375787,45.5923593],[-73.538308,45.5911737]]}";10;Rue Sherbrooke Est;2;50;false;true;true;false;false;false;144.0;1;0;0;0;0;false;88633;692316633;-73.535133;45.5966;88643;692321056;-73.539893;45.589761;0;56;57;9462960;Bus 300 : Direction Montréal;"";EXO;300 O;boul. Iberville / rue Jacques-Plante;Terminus Radisson
459586697;"{\"type\":\"LineString\",\"coordinates\":[[-73.538308,45.5911737],[-73.538472,45.5908911]]}";11;Rue Sherbrooke Est;2;50;false;true;true;false;false;false;34.0;0;0;0;0;0;false;88633;692316633;-73.535133;45.5966;88643;692321056;-73.539893;45.589761;0;56;57;9462960;Bus 300 : Direction Montréal;"";EXO;300 O;boul. Iberville / rue Jacques-Plante;Terminus Radisson
452610967;"{\"type\":\"LineString\",\"coordinates\":[[-73.538472,45.5908911],[-73.539051,45.5899151]]}";12;Rue Sherbrooke Est;2;50;false;true;true;false;false;false;118.0;0;0;0;0;0;false;88633;692316633;-73.535133;45.5966;88643;692321056;-73.539893;45.589761;0;56;57;9462960;Bus 300 : Direction Montréal;"";EXO;300 O;boul. Iberville / rue Jacques-Plante;Terminus Radisson
455314963;"{\"type\":\"LineString\",\"coordinates\":[[-73.539051,45.5899151],[-73.5393,45.5895081]]}";13;Rue Sherbrooke Est;2;50;false;true;true;false;false;false;50.0;0;0;0;0;0;false;88633;692316633;-73.535133;45.5966;88643;692321056;-73.539893;45.589761;0;56;57;9462960;Bus 300 : Direction Montréal;"";EXO;300 O;boul. Iberville / rue Jacques-Plante;Terminus Radisson
695763675;"{\"type\":\"LineString\",\"coordinates\":[[-73.5393,45.5895081],[-73.5396653,45.588906]]}";14;Rue Sherbrooke Est;2;50;false;true;true;false;false;false;73.0;0;0;0;0;0;false;88633;692316633;-73.535133;45.5966;88643;692321056;-73.539893;45.589761;0;56;57;9462960;Bus 300 : Direction Montréal;"";EXO;300 O;boul. Iberville / rue Jacques-Plante;Terminus Radisson
22909960;"{\"type\":\"LineString\",\"coordinates\":[[-73.5396653,45.588906],[-73.5406103,45.5892862],[-73.5407812,45.5893693]]}";15;Rue Des Groseilliers;1;50;false;true;true;false;false;false;102.0;0;0;0;0;0;false;88633;692316633;-73.535133;45.5966;88643;692321056;-73.539893;45.589761;0;56;57;9462960;Bus 300 : Direction Montréal;"";EXO;300 O;boul. Iberville / rue Jacques-Plante;Terminus Radisson
22909988;"{\"type\":\"LineString\",\"coordinates\":[[-73.5407812,45.5893693],[-73.5406241,45.5895279],[-73.5405111,45.5897012]]}";16;Rue Faradon;1;50;false;false;true;false;false;false;43.0;0;0;0;0;0;false;88633;692316633;-73.535133;45.5966;88643;692321056;-73.539893;45.589761;0;56;57;9462960;Bus 300 : Direction Montréal;"";EXO;300 O;boul. Iberville / rue Jacques-Plante;Terminus Radisson
681965059;"{\"type\":\"LineString\",\"coordinates\":[[-73.5405111,45.5897012],[-73.5403231,45.5899896]]}";17;Rue Faradon;1;50;false;false;true;false;false;false;36.0;0;0;0;0;0;false;88633;692316633;-73.535133;45.5966;88643;692321056;-73.539893;45.589761;0;56;57;9462960;Bus 300 : Direction Montréal;"";EXO;300 O;boul. Iberville / rue Jacques-Plante;Terminus Radisson
681965060;"{\"type\":\"LineString\",\"coordinates\":[[-73.5403231,45.5899896],[-73.5401877,45.5899477],[-73.5399633,45.5898784]]}";18;"";1;50;false;true;true;false;false;false;31.0;0;1;0;0;0;false;88633;692316633;-73.535133;45.5966;88643;692321056;-73.539893;45.589761;1;56;57;9462960;Bus 300 : Direction Montréal;"";EXO;300 O;boul. Iberville / rue Jacques-Plante;Terminus Radisson
