way_id;shape;index;name;nb_lanes;legal_speed;speed_zone_30;oneway;shares_bike;bike_box;bus_lane;dedicated_bus_lane;length;nb_traffic_signals;nb_crossings;nb_stops;nb_give_ways;nb_lvl_crossings;roundabout;stop_id_orig;node_id_orig;coord_x_orig;coord_y_orig;stop_id_dest;node_id_dest;coord_x_dest;coord_y_dest;nb_neighbouring_ways_bus_stop;ordre_orig;ordre_dest;id_line;line_name;colour;operator;ref;from;to
586937469;"{\"type\":\"LineString\",\"coordinates\":[[3.063184,36.7856488],[3.0630998,36.785581],[3.0630056,36.7855137],[3.062871,36.7853935]]}";1;Avenue du 1e Novembre;1;50;false;true;true;false;false;false;41.0;0;0;0;0;0;false;Place des Martyrs;2709436847;3.0630183;36.7856421;Port Saïd;3452502395;3.0617158;36.7810129;1;0;1;7996457;Place des Martyrs => Vieux Kouba;#468499;ETUSA;06;Place des Martyrs;Vieux Kouba
231160539;"{\"type\":\"LineString\",\"coordinates\":[[3.062871,36.7853935],[3.0627622,36.7852776],[3.0627032,36.7851676],[3.0627046,36.7851095],[3.0627151,36.7850768],[3.0627369,36.7850087],[3.0629042,36.7845444]]}";2;Avenue du 1e Novembre;1;50;false;true;true;false;false;false;103.0;0;0;0;0;0;false;Place des Martyrs;2709436847;3.0630183;36.7856421;Port Saïd;3452502395;3.0617158;36.7810129;0;0;1;7996457;Place des Martyrs => Vieux Kouba;#468499;ETUSA;06;Place des Martyrs;Vieux Kouba
82561326;"{\"type\":\"LineString\",\"coordinates\":[[3.0629042,36.7845444],[3.0629324,36.7844323],[3.0629351,36.7843635],[3.0628593,36.7839662]]}";3;Avenue du 1e Novembre;1;50;false;true;true;false;false;false;66.0;0;0;0;0;0;false;Place des Martyrs;2709436847;3.0630183;36.7856421;Port Saïd;3452502395;3.0617158;36.7810129;0;0;1;7996457;Place des Martyrs => Vieux Kouba;#468499;ETUSA;06;Place des Martyrs;Vieux Kouba
265265639;"{\"type\":\"LineString\",\"coordinates\":[[3.0628593,36.7839662],[3.0628288,36.783893]]}";4;Rue Saadi et Mokhtar Ben Hafidh;1;50;false;false;true;false;false;false;9.0;0;0;0;0;0;false;Place des Martyrs;2709436847;3.0630183;36.7856421;Port Saïd;3452502395;3.0617158;36.7810129;0;0;1;7996457;Place des Martyrs => Vieux Kouba;#468499;ETUSA;06;Place des Martyrs;Vieux Kouba
26002687;"{\"type\":\"LineString\",\"coordinates\":[[3.0628288,36.783893],[3.0627773,36.7837559],[3.0626672,36.7834312],[3.0626167,36.7832855],[3.062505,36.7829636],[3.0624043,36.7826224],[3.0622961,36.7823004],[3.0621964,36.7820155],[3.0620864,36.7817083],[3.0619188,36.7811791],[3.0618348,36.7809841],[3.0618095,36.7809196],[3.0617721,36.7808246]]}";5;Boulevard Ernesto Che Guevara;4;50;false;false;true;false;false;false;179.0;0;1;0;0;0;false;Place des Martyrs;2709436847;3.0630183;36.7856421;Port Saïd;3452502395;3.0617158;36.7810129;1;0;1;7996457;Place des Martyrs => Vieux Kouba;#468499;ETUSA;06;Place des Martyrs;Vieux Kouba
26002687;"{\"type\":\"LineString\",\"coordinates\":[[3.0628288,36.783893],[3.0627773,36.7837559],[3.0626672,36.7834312],[3.0626167,36.7832855],[3.062505,36.7829636],[3.0624043,36.7826224],[3.0622961,36.7823004],[3.0621964,36.7820155],[3.0620864,36.7817083],[3.0619188,36.7811791],[3.0618348,36.7809841],[3.0618095,36.7809196],[3.0617721,36.7808246]]}";1;Boulevard Ernesto Che Guevara;4;50;false;false;true;false;false;false;179.0;0;1;0;0;0;false;Port Saïd;3452502395;3.0617158;36.7810129;Hôtel Es-Safir;5387397608;3.0601852;36.7776771;1;1;2;7996457;Place des Martyrs => Vieux Kouba;#468499;ETUSA;06;Place des Martyrs;Vieux Kouba
25966398;"{\"type\":\"LineString\",\"coordinates\":[[3.0617721,36.7808246],[3.0615728,36.7803533],[3.0613987,36.7800026],[3.0612302,36.7796748],[3.061048,36.7793061],[3.0608123,36.778838],[3.0607876,36.7787911],[3.060634,36.7784874],[3.0605568,36.7783004]]}";2;Boulevard Zighoud Youcef;4;50;false;false;true;false;false;false;305.0;0;1;0;0;0;false;Port Saïd;3452502395;3.0617158;36.7810129;Hôtel Es-Safir;5387397608;3.0601852;36.7776771;0;1;2;7996457;Place des Martyrs => Vieux Kouba;#468499;ETUSA;06;Place des Martyrs;Vieux Kouba
26026689;"{\"type\":\"LineString\",\"coordinates\":[[3.0605568,36.7783004],[3.0604709,36.7781639],[3.0602321,36.7776653],[3.0601908,36.7775814],[3.0601585,36.777528]]}";3;Boulevard Zighoud Youcef;2;40;false;true;true;false;false;false;47.5;0;1;0;0;0;false;Port Saïd;3452502395;3.0617158;36.7810129;Hôtel Es-Safir;5387397608;3.0601852;36.7776771;1;1;2;7996457;Place des Martyrs => Vieux Kouba;#468499;ETUSA;06;Place des Martyrs;Vieux Kouba
208737725;"{\"type\":\"LineString\",\"coordinates\":[[3.0601585,36.777528],[3.0594884,36.7774128],[3.0593954,36.7773968],[3.0593139,36.7773663],[3.0592709,36.7773328],[3.0592446,36.7772988],[3.059222,36.7772695]]}";1;Rue des Freres Amrouche;4;30;false;true;true;false;false;false;93.0;0;0;0;0;0;false;Hôtel Es-Safir;5387397608;3.0601852;36.7776771;GRANDE POSTE;3780772966;3.059807;36.7737317;2;2;3;7996457;Place des Martyrs => Vieux Kouba;#468499;ETUSA;06;Place des Martyrs;Vieux Kouba
26020237;"{\"type\":\"LineString\",\"coordinates\":[[3.059222,36.7772695],[3.0592055,36.7772152],[3.059199,36.7771309],[3.0592823,36.776583],[3.0594336,36.7755673],[3.059501,36.7752405],[3.0595423,36.7750016],[3.0595971,36.7746126],[3.0596785,36.774163],[3.0597653,36.7737511],[3.059781,36.7737177],[3.0598807,36.7732552],[3.0599956,36.7726601],[3.0599884,36.7726138],[3.0600085,36.7724118],[3.0600445,36.7721739]]}";2;Rue Asselah Hocine;3;50;false;true;true;false;false;false;579.0;2;2;0;0;0;false;Hôtel Es-Safir;5387397608;3.0601852;36.7776771;GRANDE POSTE;3780772966;3.059807;36.7737317;2;2;3;7996457;Place des Martyrs => Vieux Kouba;#468499;ETUSA;06;Place des Martyrs;Vieux Kouba
26020237;"{\"type\":\"LineString\",\"coordinates\":[[3.059222,36.7772695],[3.0592055,36.7772152],[3.059199,36.7771309],[3.0592823,36.776583],[3.0594336,36.7755673],[3.059501,36.7752405],[3.0595423,36.7750016],[3.0595971,36.7746126],[3.0596785,36.774163],[3.0597653,36.7737511],[3.059781,36.7737177],[3.0598807,36.7732552],[3.0599956,36.7726601],[3.0599884,36.7726138],[3.0600085,36.7724118],[3.0600445,36.7721739]]}";1;Rue Asselah Hocine;3;50;false;true;true;false;false;false;289.5;2;2;0;0;0;false;GRANDE POSTE;3780772966;3.059807;36.7737317;MAURETANIA;5394260869;3.0561814;36.7679885;1;3;4;7996457;Place des Martyrs => Vieux Kouba;#468499;ETUSA;06;Place des Martyrs;Vieux Kouba
25966399;"{\"type\":\"LineString\",\"coordinates\":[[3.0600445,36.7721739],[3.0598112,36.7719784]]}";2;Boulevard Colonel Amirouche;3;40;false;false;true;false;false;false;31.0;2;0;0;0;0;false;GRANDE POSTE;3780772966;3.059807;36.7737317;MAURETANIA;5394260869;3.0561814;36.7679885;0;3;4;7996457;Place des Martyrs => Vieux Kouba;#468499;ETUSA;06;Place des Martyrs;Vieux Kouba
297182837;"{\"type\":\"LineString\",\"coordinates\":[[3.0598112,36.7719784],[3.0597565,36.7719346],[3.0597205,36.7719033],[3.0594625,36.7716991],[3.0590387,36.771346],[3.0587239,36.7710886],[3.0586469,36.7710256],[3.0581422,36.7706197],[3.0576577,36.7702312]]}";3;Boulevard Colonel Amirouche;3;40;false;false;true;false;false;false;277.0;2;2;0;0;0;false;GRANDE POSTE;3780772966;3.059807;36.7737317;MAURETANIA;5394260869;3.0561814;36.7679885;0;3;4;7996457;Place des Martyrs => Vieux Kouba;#468499;ETUSA;06;Place des Martyrs;Vieux Kouba
375850535;"{\"type\":\"LineString\",\"coordinates\":[[3.0576577,36.7702312],[3.0574672,36.7700706]]}";4;Boulevard Colonel Amirouche;3;40;false;false;true;false;false;false;25.0;0;0;0;0;0;false;GRANDE POSTE;3780772966;3.059807;36.7737317;MAURETANIA;5394260869;3.0561814;36.7679885;0;3;4;7996457;Place des Martyrs => Vieux Kouba;#468499;ETUSA;06;Place des Martyrs;Vieux Kouba
25966404;"{\"type\":\"LineString\",\"coordinates\":[[3.0574672,36.7700706],[3.0569903,36.7696626],[3.056843,36.7695362],[3.0567008,36.7693675],[3.0565794,36.7692165]]}";5;Tunnel de la Place du Pérou;2;40;false;false;true;false;false;false;126.0;0;0;0;0;0;false;GRANDE POSTE;3780772966;3.059807;36.7737317;MAURETANIA;5394260869;3.0561814;36.7679885;0;3;4;7996457;Place des Martyrs => Vieux Kouba;#468499;ETUSA;06;Place des Martyrs;Vieux Kouba
26015418;"{\"type\":\"LineString\",\"coordinates\":[[3.0565794,36.7692165],[3.056428,36.7689843]]}";6;Rue Hassiba Benbouali;1;50;false;false;true;false;false;false;30.0;0;0;0;0;0;false;GRANDE POSTE;3780772966;3.059807;36.7737317;MAURETANIA;5394260869;3.0561814;36.7679885;0;3;4;7996457;Place des Martyrs => Vieux Kouba;#468499;ETUSA;06;Place des Martyrs;Vieux Kouba
232362637;"{\"type\":\"LineString\",\"coordinates\":[[3.056428,36.7689843],[3.0563824,36.7688461],[3.0563579,36.7687665],[3.0563212,36.7685523],[3.0562729,36.7682937],[3.0562593,36.7682027],[3.0562266,36.7679841],[3.0561311,36.7673462],[3.0561192,36.767267],[3.0560039,36.7664973],[3.0559481,36.7662364],[3.0558999,36.7659776]]}";7;Rue Hassiba Benbouali;2;40;false;false;true;false;false;false;171.0;0;1;0;0;0;false;GRANDE POSTE;3780772966;3.059807;36.7737317;MAURETANIA;5394260869;3.0561814;36.7679885;1;3;4;7996457;Place des Martyrs => Vieux Kouba;#468499;ETUSA;06;Place des Martyrs;Vieux Kouba
232362637;"{\"type\":\"LineString\",\"coordinates\":[[3.056428,36.7689843],[3.0563824,36.7688461],[3.0563579,36.7687665],[3.0563212,36.7685523],[3.0562729,36.7682937],[3.0562593,36.7682027],[3.0562266,36.7679841],[3.0561311,36.7673462],[3.0561192,36.767267],[3.0560039,36.7664973],[3.0559481,36.7662364],[3.0558999,36.7659776]]}";1;Rue Hassiba Benbouali;2;40;false;false;true;false;false;false;171.0;0;1;0;0;0;false;MAURETANIA;5394260869;3.0561814;36.7679885;Le Moulin;3791500958;3.0559187;36.7650921;1;4;5;7996457;Place des Martyrs => Vieux Kouba;#468499;ETUSA;06;Place des Martyrs;Vieux Kouba
232362639;"{\"type\":\"LineString\",\"coordinates\":[[3.0558999,36.7659776],[3.055884,36.7657943]]}";2;Rue Hassiba Benbouali;1;50;false;false;true;false;false;false;21.0;0;0;0;0;0;false;MAURETANIA;5394260869;3.0561814;36.7679885;Le Moulin;3791500958;3.0559187;36.7650921;0;4;5;7996457;Place des Martyrs => Vieux Kouba;#468499;ETUSA;06;Place des Martyrs;Vieux Kouba
232362638;"{\"type\":\"LineString\",\"coordinates\":[[3.055884,36.7657943],[3.0558916,36.7656735],[3.0559038,36.7654952],[3.0559533,36.7650948],[3.0559602,36.7650386],[3.0560411,36.7645395],[3.0561777,36.7640862],[3.0562343,36.7639104],[3.0562485,36.7638693],[3.0563352,36.7636042],[3.0563552,36.7635299],[3.0565218,36.7629592],[3.0565381,36.7629032]]}";3;Rue Hassiba Benbouali;3;50;false;false;true;false;false;false;166.0;0;1;0;0;0;false;MAURETANIA;5394260869;3.0561814;36.7679885;Le Moulin;3791500958;3.0559187;36.7650921;1;4;5;7996457;Place des Martyrs => Vieux Kouba;#468499;ETUSA;06;Place des Martyrs;Vieux Kouba
231160541;"{\"type\":\"LineString\",\"coordinates\":[[3.0563954,36.7608424],[3.056167,36.7603486],[3.0561076,36.7602201]]}";1;Rue Belouizdad Mohamed;3;50;false;true;true;false;false;false;75.0;0;0;0;0;0;false;1er Mai;3791500960;3.0561413;36.7603562;Musset;3784295295;3.0600243;36.754942;2;6;7;7996457;Place des Martyrs => Vieux Kouba;#468499;ETUSA;06;Place des Martyrs;Vieux Kouba
212777304;"{\"type\":\"LineString\",\"coordinates\":[[3.0561076,36.7602201],[3.0560516,36.7601116],[3.0558318,36.7595894],[3.0557896,36.7594457]]}";2;Rue Belouizdad Mohamed;3;50;false;true;true;false;false;false;92.0;0;0;0;0;0;false;1er Mai;3791500960;3.0561413;36.7603562;Musset;3784295295;3.0600243;36.754942;0;6;7;7996457;Place des Martyrs => Vieux Kouba;#468499;ETUSA;06;Place des Martyrs;Vieux Kouba
231932480;"{\"type\":\"LineString\",\"coordinates\":[[3.0557896,36.7594457],[3.0557228,36.7592352],[3.0556772,36.7590547],[3.0556711,36.7589692],[3.0556792,36.7587967],[3.0557257,36.7586204]]}";3;Rue Belouizdad Mohamed;2;50;false;true;true;false;false;false;95.0;0;0;0;0;0;false;1er Mai;3791500960;3.0561413;36.7603562;Musset;3784295295;3.0600243;36.754942;0;6;7;7996457;Place des Martyrs => Vieux Kouba;#468499;ETUSA;06;Place des Martyrs;Vieux Kouba
375804046;"{\"type\":\"LineString\",\"coordinates\":[[3.0557257,36.7586204],[3.0557668,36.7585733],[3.0560114,36.7583534],[3.0565013,36.757922]]}";4;Rue Belouizdad Mohamed;2;50;false;true;true;false;false;false;106.0;0;0;0;0;0;false;1er Mai;3791500960;3.0561413;36.7603562;Musset;3784295295;3.0600243;36.754942;0;6;7;7996457;Place des Martyrs => Vieux Kouba;#468499;ETUSA;06;Place des Martyrs;Vieux Kouba
327382998;"{\"type\":\"LineString\",\"coordinates\":[[3.0565013,36.757922],[3.0569533,36.7575861],[3.0574301,36.7571885],[3.0582904,36.7564796],[3.0586246,36.7561965],[3.0590113,36.7558753],[3.0592048,36.7557169],[3.0593998,36.755556],[3.0601876,36.7549022],[3.0601896,36.7549011],[3.0605585,36.7546001],[3.0606847,36.7545063],[3.0609318,36.7543136],[3.0610349,36.7542127],[3.0611448,36.7541097],[3.0612687,36.7539742],[3.0615887,36.7535376],[3.0616568,36.753408],[3.0619348,36.7530184],[3.0619787,36.752944],[3.0621765,36.7526952],[3.0622862,36.7525317],[3.0623492,36.7524302],[3.0625237,36.7521704],[3.0626328,36.752008],[3.0628394,36.7517085],[3.0628906,36.7516435],[3.0629883,36.7515242],[3.0630565,36.7514843],[3.0632115,36.7514045],[3.0638348,36.7511494],[3.0640346,36.7510825],[3.064697,36.7507961],[3.0648194,36.7507288],[3.0649526,36.7506637],[3.0653019,36.7504746],[3.0653469,36.7504488],[3.0657919,36.7502083],[3.0660068,36.7500838],[3.0662831,36.7499312],[3.0666532,36.7497335],[3.0668071,36.7496597],[3.0671059,36.7495165],[3.0674667,36.7493609],[3.0686833,36.7488071],[3.0687697,36.7487665],[3.0689423,36.7486803],[3.0690517,36.7486257],[3.0690571,36.7486227],[3.0691545,36.7485693],[3.0694046,36.748432],[3.0694576,36.7484063],[3.06948,36.7483955],[3.0695309,36.7483708],[3.0705466,36.7478993],[3.0705861,36.7478814],[3.0707255,36.7478185],[3.0707844,36.7477869],[3.0709113,36.7477272],[3.0710235,36.7476744],[3.0711483,36.7476185],[3.0712818,36.747544],[3.0714108,36.7474725],[3.072213,36.7469452],[3.0725983,36.7466968],[3.0728254,36.7465567],[3.0730321,36.7464441],[3.0734023,36.7462515],[3.0735831,36.7461756],[3.0754254,36.7454018],[3.076293,36.7449692],[3.0770784,36.7447016],[3.0781838,36.7441921],[3.0787425,36.743948],[3.0790885,36.7437947],[3.0791822,36.7437532],[3.0797252,36.7435128],[3.0802991,36.7432749],[3.0803945,36.7432333],[3.0808048,36.7430477],[3.0812297,36.7428613],[3.0815868,36.7426936],[3.0820119,36.7424647],[3.0821784,36.7423561]]}";5;Rue Belouizdad Mohamed;2;40;false;true;true;false;false;false;2959.0;0;3;0;0;0;false;1er Mai;3791500960;3.0561413;36.7603562;Musset;3784295295;3.0600243;36.754942;2;6;7;7996457;Place des Martyrs => Vieux Kouba;#468499;ETUSA;06;Place des Martyrs;Vieux Kouba
327382998;"{\"type\":\"LineString\",\"coordinates\":[[3.0565013,36.757922],[3.0569533,36.7575861],[3.0574301,36.7571885],[3.0582904,36.7564796],[3.0586246,36.7561965],[3.0590113,36.7558753],[3.0592048,36.7557169],[3.0593998,36.755556],[3.0601876,36.7549022],[3.0601896,36.7549011],[3.0605585,36.7546001],[3.0606847,36.7545063],[3.0609318,36.7543136],[3.0610349,36.7542127],[3.0611448,36.7541097],[3.0612687,36.7539742],[3.0615887,36.7535376],[3.0616568,36.753408],[3.0619348,36.7530184],[3.0619787,36.752944],[3.0621765,36.7526952],[3.0622862,36.7525317],[3.0623492,36.7524302],[3.0625237,36.7521704],[3.0626328,36.752008],[3.0628394,36.7517085],[3.0628906,36.7516435],[3.0629883,36.7515242],[3.0630565,36.7514843],[3.0632115,36.7514045],[3.0638348,36.7511494],[3.0640346,36.7510825],[3.064697,36.7507961],[3.0648194,36.7507288],[3.0649526,36.7506637],[3.0653019,36.7504746],[3.0653469,36.7504488],[3.0657919,36.7502083],[3.0660068,36.7500838],[3.0662831,36.7499312],[3.0666532,36.7497335],[3.0668071,36.7496597],[3.0671059,36.7495165],[3.0674667,36.7493609],[3.0686833,36.7488071],[3.0687697,36.7487665],[3.0689423,36.7486803],[3.0690517,36.7486257],[3.0690571,36.7486227],[3.0691545,36.7485693],[3.0694046,36.748432],[3.0694576,36.7484063],[3.06948,36.7483955],[3.0695309,36.7483708],[3.0705466,36.7478993],[3.0705861,36.7478814],[3.0707255,36.7478185],[3.0707844,36.7477869],[3.0709113,36.7477272],[3.0710235,36.7476744],[3.0711483,36.7476185],[3.0712818,36.747544],[3.0714108,36.7474725],[3.072213,36.7469452],[3.0725983,36.7466968],[3.0728254,36.7465567],[3.0730321,36.7464441],[3.0734023,36.7462515],[3.0735831,36.7461756],[3.0754254,36.7454018],[3.076293,36.7449692],[3.0770784,36.7447016],[3.0781838,36.7441921],[3.0787425,36.743948],[3.0790885,36.7437947],[3.0791822,36.7437532],[3.0797252,36.7435128],[3.0802991,36.7432749],[3.0803945,36.7432333],[3.0808048,36.7430477],[3.0812297,36.7428613],[3.0815868,36.7426936],[3.0820119,36.7424647],[3.0821784,36.7423561]]}";1;Rue Belouizdad Mohamed;2;40;false;true;true;false;false;false;1479.5;0;3;0;0;0;false;El Annasser 1;3784295291;3.0791646;36.7437277;OUED KNIS;5394260865;3.0831805;36.7416848;1;12;13;7996457;Place des Martyrs => Vieux Kouba;#468499;ETUSA;06;Place des Martyrs;Vieux Kouba
213266723;"{\"type\":\"LineString\",\"coordinates\":[[3.0821784,36.7423561],[3.0824664,36.7421764]]}";2;Rue Belouizdad Mohamed;1;50;false;true;true;false;false;false;33.0;1;0;0;0;0;false;El Annasser 1;3784295291;3.0791646;36.7437277;OUED KNIS;5394260865;3.0831805;36.7416848;0;12;13;7996457;Place des Martyrs => Vieux Kouba;#468499;ETUSA;06;Place des Martyrs;Vieux Kouba
28454148;"{\"type\":\"LineString\",\"coordinates\":[[3.0824664,36.7421764],[3.0827763,36.7419846],[3.0830508,36.741822],[3.0830511,36.7418218],[3.0831061,36.7417919],[3.08322,36.7417255],[3.0833602,36.741638],[3.083681,36.741469],[3.0838782,36.7413641],[3.0841794,36.7412199],[3.084349,36.7411386],[3.0843702,36.7411237],[3.0845231,36.7410162],[3.0846433,36.7409167],[3.0847882,36.740785],[3.0850397,36.7405565]]}";3;Avenue Boudjatit Mahmoud;1;50;false;false;true;false;false;false;149.0;1;1;0;0;0;false;El Annasser 1;3784295291;3.0791646;36.7437277;OUED KNIS;5394260865;3.0831805;36.7416848;1;12;13;7996457;Place des Martyrs => Vieux Kouba;#468499;ETUSA;06;Place des Martyrs;Vieux Kouba
28454148;"{\"type\":\"LineString\",\"coordinates\":[[3.0824664,36.7421764],[3.0827763,36.7419846],[3.0830508,36.741822],[3.0830511,36.7418218],[3.0831061,36.7417919],[3.08322,36.7417255],[3.0833602,36.741638],[3.083681,36.741469],[3.0838782,36.7413641],[3.0841794,36.7412199],[3.084349,36.7411386],[3.0843702,36.7411237],[3.0845231,36.7410162],[3.0846433,36.7409167],[3.0847882,36.740785],[3.0850397,36.7405565]]}";1;Avenue Boudjatit Mahmoud;1;50;false;false;true;false;false;false;149.0;1;1;0;0;0;false;OUED KNIS;5394260865;3.0831805;36.7416848;Oasis;2860034771;3.0882136;36.739064;1;13;14;7996457;Place des Martyrs => Vieux Kouba;#468499;ETUSA;06;Place des Martyrs;Vieux Kouba
213978443;"{\"type\":\"LineString\",\"coordinates\":[[3.0850397,36.7405565],[3.085224,36.7404474],[3.0854235,36.7403921],[3.0856976,36.7403686],[3.0858539,36.7403686]]}";2;Avenue Boudjatit Mahmoud;1;50;false;false;true;false;false;false;79.0;0;0;0;0;0;false;OUED KNIS;5394260865;3.0831805;36.7416848;Oasis;2860034771;3.0882136;36.739064;0;13;14;7996457;Place des Martyrs => Vieux Kouba;#468499;ETUSA;06;Place des Martyrs;Vieux Kouba
28454153;"{\"type\":\"LineString\",\"coordinates\":[[3.0858539,36.7403686],[3.0866713,36.7403347]]}";3;Avenue Boudjatit Mahmoud;1;50;false;false;true;false;false;false;75.0;0;0;0;0;0;false;OUED KNIS;5394260865;3.0831805;36.7416848;Oasis;2860034771;3.0882136;36.739064;0;13;14;7996457;Place des Martyrs => Vieux Kouba;#468499;ETUSA;06;Place des Martyrs;Vieux Kouba
28454155;"{\"type\":\"LineString\",\"coordinates\":[[3.0866713,36.7403347],[3.0869836,36.7402607],[3.0871772,36.7401831],[3.0873668,36.7400166],[3.0874731,36.739912]]}";4;Avenue Boudjatit Mahmoud;1;50;false;false;true;false;false;false;90.0;0;0;0;0;0;false;OUED KNIS;5394260865;3.0831805;36.7416848;Oasis;2860034771;3.0882136;36.739064;0;13;14;7996457;Place des Martyrs => Vieux Kouba;#468499;ETUSA;06;Place des Martyrs;Vieux Kouba
314077873;"{\"type\":\"LineString\",\"coordinates\":[[3.0874731,36.739912],[3.0875463,36.7398252],[3.0875668,36.7398016],[3.0875999,36.7397636],[3.0877576,36.7395826],[3.0879894,36.7393143],[3.0881672,36.7391819],[3.0882664,36.7391336],[3.0883406,36.7390974],[3.0885162,36.739047],[3.0885462,36.7390384],[3.0886584,36.739008],[3.0890246,36.7388818],[3.089184,36.7387941],[3.089359,36.7386111],[3.0894889,36.7384848],[3.0896699,36.738293],[3.0898592,36.7380458],[3.0899913,36.7379647],[3.0900771,36.7379206],[3.090169,36.7378771],[3.0903708,36.7378029],[3.0905116,36.7377476],[3.0906236,36.7377132],[3.0907276,36.7376691],[3.0908255,36.7376159],[3.0908677,36.7375853],[3.0909207,36.7375429],[3.0910534,36.7374252],[3.0911668,36.7373193],[3.0914363,36.7371151],[3.0915161,36.7370496],[3.0915771,36.7370114],[3.0916777,36.7369716],[3.0919446,36.7368797],[3.0921531,36.7368464],[3.0922008,36.7368325]]}";5;Avenue Boudjatit Mahmoud;1;50;false;false;true;false;false;false;283.5;0;2;0;0;0;false;OUED KNIS;5394260865;3.0831805;36.7416848;Oasis;2860034771;3.0882136;36.739064;1;13;14;7996457;Place des Martyrs => Vieux Kouba;#468499;ETUSA;06;Place des Martyrs;Vieux Kouba
314077873;"{\"type\":\"LineString\",\"coordinates\":[[3.0874731,36.739912],[3.0875463,36.7398252],[3.0875668,36.7398016],[3.0875999,36.7397636],[3.0877576,36.7395826],[3.0879894,36.7393143],[3.0881672,36.7391819],[3.0882664,36.7391336],[3.0883406,36.7390974],[3.0885162,36.739047],[3.0885462,36.7390384],[3.0886584,36.739008],[3.0890246,36.7388818],[3.089184,36.7387941],[3.089359,36.7386111],[3.0894889,36.7384848],[3.0896699,36.738293],[3.0898592,36.7380458],[3.0899913,36.7379647],[3.0900771,36.7379206],[3.090169,36.7378771],[3.0903708,36.7378029],[3.0905116,36.7377476],[3.0906236,36.7377132],[3.0907276,36.7376691],[3.0908255,36.7376159],[3.0908677,36.7375853],[3.0909207,36.7375429],[3.0910534,36.7374252],[3.0911668,36.7373193],[3.0914363,36.7371151],[3.0915161,36.7370496],[3.0915771,36.7370114],[3.0916777,36.7369716],[3.0919446,36.7368797],[3.0921531,36.7368464],[3.0922008,36.7368325]]}";1;Avenue Boudjatit Mahmoud;1;50;false;false;true;false;false;false;283.5;0;2;0;0;0;false;Calvaire;2860034768;3.0914242;36.737094;APC Kouba;2860029703;3.0866967;36.7340065;1;15;16;7996457;Place des Martyrs => Vieux Kouba;#468499;ETUSA;06;Place des Martyrs;Vieux Kouba
28454251;"{\"type\":\"LineString\",\"coordinates\":[[3.0922008,36.7368325],[3.0922899,36.7367443],[3.0923352,36.7367003],[3.0923654,36.7366602],[3.0923878,36.7366089],[3.0924009,36.7365557],[3.0923835,36.7364897]]}";2;"";1;50;false;true;true;false;false;false;45.0;1;0;0;0;0;false;Calvaire;2860034768;3.0914242;36.737094;APC Kouba;2860029703;3.0866967;36.7340065;0;15;16;7996457;Place des Martyrs => Vieux Kouba;#468499;ETUSA;06;Place des Martyrs;Vieux Kouba
705495772;"{\"type\":\"LineString\",\"coordinates\":[[3.0923835,36.7364897],[3.0923359,36.7364415],[3.092257,36.7363562]]}";3;"";1;50;false;true;true;false;false;false;19.0;2;0;0;0;0;false;Calvaire;2860034768;3.0914242;36.737094;APC Kouba;2860029703;3.0866967;36.7340065;0;15;16;7996457;Place des Martyrs => Vieux Kouba;#468499;ETUSA;06;Place des Martyrs;Vieux Kouba
28454227;"{\"type\":\"LineString\",\"coordinates\":[[3.092257,36.7363562],[3.0918454,36.7364412],[3.091604,36.7365004],[3.0910253,36.7365928],[3.0906625,36.7366734],[3.0900127,36.7367975]]}";4;Avenue Rabia Mohamed;1;50;false;false;true;false;false;false;210.0;1;1;0;0;0;false;Calvaire;2860034768;3.0914242;36.737094;APC Kouba;2860029703;3.0866967;36.7340065;0;15;16;7996457;Place des Martyrs => Vieux Kouba;#468499;ETUSA;06;Place des Martyrs;Vieux Kouba
282058508;"{\"type\":\"LineString\",\"coordinates\":[[3.0900127,36.7367975],[3.0893922,36.7369377],[3.0891689,36.7369821],[3.0889151,36.7370171],[3.0887188,36.7370042],[3.0880236,36.7367717],[3.0878905,36.7367104],[3.0877738,36.7366556],[3.0868199,36.7361675],[3.0867271,36.7361073],[3.0865413,36.7359693],[3.0862985,36.7357107],[3.0862065,36.7355209],[3.0862127,36.7353249],[3.0863093,36.7349491]]}";5;Avenue Rabia Mohamed;1;50;false;false;true;false;false;false;475.0;0;2;0;0;0;false;Calvaire;2860034768;3.0914242;36.737094;APC Kouba;2860029703;3.0866967;36.7340065;0;15;16;7996457;Place des Martyrs => Vieux Kouba;#468499;ETUSA;06;Place des Martyrs;Vieux Kouba
217742115;"{\"type\":\"LineString\",\"coordinates\":[[3.0874751,36.7323482],[3.087419,36.7324953],[3.0872964,36.7327815],[3.087236,36.7329171],[3.0870583,36.7333167],[3.0869851,36.7334814],[3.0869437,36.7335702],[3.086923,36.7336204],[3.0868481,36.7338023],[3.0868072,36.7338894],[3.0867453,36.7340212],[3.0863093,36.7349491]]}";6;Avenue Fellah Mohamed;1;50;false;false;true;false;false;false;155.5;1;3;0;0;0;false;Calvaire;2860034768;3.0914242;36.737094;APC Kouba;2860029703;3.0866967;36.7340065;1;15;16;7996457;Place des Martyrs => Vieux Kouba;#468499;ETUSA;06;Place des Martyrs;Vieux Kouba
217742115;"{\"type\":\"LineString\",\"coordinates\":[[3.0874751,36.7323482],[3.087419,36.7324953],[3.0872964,36.7327815],[3.087236,36.7329171],[3.0870583,36.7333167],[3.0869851,36.7334814],[3.0869437,36.7335702],[3.086923,36.7336204],[3.0868481,36.7338023],[3.0868072,36.7338894],[3.0867453,36.7340212],[3.0863093,36.7349491]]}";1;Avenue Fellah Mohamed;1;50;false;false;true;false;false;false;155.5;1;3;0;0;0;false;APC Kouba;2860029703;3.0866967;36.7340065;La Croix;3791964308;3.0840198;36.7299915;1;16;17;7996457;Place des Martyrs => Vieux Kouba;#468499;ETUSA;06;Place des Martyrs;Vieux Kouba
28452313;"{\"type\":\"LineString\",\"coordinates\":[[3.0874751,36.7323482],[3.0874236,36.7321929],[3.0873669,36.7320819],[3.0872974,36.7319634],[3.0871508,36.7317607],[3.0870192,36.7316021],[3.0868619,36.7314734],[3.0865308,36.7312598],[3.0862643,36.731115],[3.0859927,36.7310087],[3.0858183,36.7309651],[3.0855092,36.7308595]]}";2;Avenue des Frères Abdeslami;1;40;false;false;true;false;false;false;257.0;0;1;0;0;0;false;APC Kouba;2860029703;3.0866967;36.7340065;La Croix;3791964308;3.0840198;36.7299915;0;16;17;7996457;Place des Martyrs => Vieux Kouba;#468499;ETUSA;06;Place des Martyrs;Vieux Kouba
369354268;"{\"type\":\"LineString\",\"coordinates\":[[3.0855092,36.7308595],[3.0852403,36.7307367],[3.0849713,36.7305952],[3.0843697,36.7302106],[3.0840713,36.7299531],[3.084027,36.7299149],[3.0838377,36.7298465],[3.08352,36.7296527],[3.0828534,36.7292667],[3.0826329,36.7291655],[3.0824791,36.7291161],[3.0822612,36.7290621],[3.0820703,36.7290195],[3.0818709,36.7289871],[3.081641,36.7289721],[3.0813003,36.7289706],[3.0812316,36.7289703],[3.0808171,36.7289961],[3.0803773,36.7291103],[3.0800787,36.7292117],[3.0798001,36.7293023],[3.0796995,36.729335],[3.0795995,36.7293672],[3.079597,36.7293679],[3.0793838,36.7294321],[3.0793101,36.7294543],[3.0791939,36.7294619],[3.0790291,36.7294486],[3.0786327,36.7293781],[3.078488,36.7293535],[3.078332,36.7293502],[3.0778467,36.7293701],[3.0777059,36.7293874],[3.0775516,36.729433],[3.0770779,36.7296112],[3.0769862,36.7296384],[3.0768603,36.7296531],[3.075644,36.7297651],[3.0754964,36.7297818]]}";3;Avenue des Frères Abdeslami;1;40;false;false;true;false;false;false;495.5;0;1;0;0;0;false;APC Kouba;2860029703;3.0866967;36.7340065;La Croix;3791964308;3.0840198;36.7299915;1;16;17;7996457;Place des Martyrs => Vieux Kouba;#468499;ETUSA;06;Place des Martyrs;Vieux Kouba
369354268;"{\"type\":\"LineString\",\"coordinates\":[[3.0855092,36.7308595],[3.0852403,36.7307367],[3.0849713,36.7305952],[3.0843697,36.7302106],[3.0840713,36.7299531],[3.084027,36.7299149],[3.0838377,36.7298465],[3.08352,36.7296527],[3.0828534,36.7292667],[3.0826329,36.7291655],[3.0824791,36.7291161],[3.0822612,36.7290621],[3.0820703,36.7290195],[3.0818709,36.7289871],[3.081641,36.7289721],[3.0813003,36.7289706],[3.0812316,36.7289703],[3.0808171,36.7289961],[3.0803773,36.7291103],[3.0800787,36.7292117],[3.0798001,36.7293023],[3.0796995,36.729335],[3.0795995,36.7293672],[3.079597,36.7293679],[3.0793838,36.7294321],[3.0793101,36.7294543],[3.0791939,36.7294619],[3.0790291,36.7294486],[3.0786327,36.7293781],[3.078488,36.7293535],[3.078332,36.7293502],[3.0778467,36.7293701],[3.0777059,36.7293874],[3.0775516,36.729433],[3.0770779,36.7296112],[3.0769862,36.7296384],[3.0768603,36.7296531],[3.075644,36.7297651],[3.0754964,36.7297818]]}";1;Avenue des Frères Abdeslami;1;40;false;false;true;false;false;false;495.5;0;1;0;0;0;false;FRERES EL SELAMI;3791964307;3.0794011;36.7294691;Vieux Kouba;2268895854;3.0750719;36.7295917;1;18;19;7996457;Place des Martyrs => Vieux Kouba;#468499;ETUSA;06;Place des Martyrs;Vieux Kouba
28453234;"{\"type\":\"LineString\",\"coordinates\":[[3.0754964,36.7297818],[3.0751569,36.7297272],[3.0750705,36.7297224]]}";2;Chemin Khelifi Mustapha;1;50;false;true;true;false;false;false;40.0;0;0;0;0;0;false;FRERES EL SELAMI;3791964307;3.0794011;36.7294691;Vieux Kouba;2268895854;3.0750719;36.7295917;0;18;19;7996457;Place des Martyrs => Vieux Kouba;#468499;ETUSA;06;Place des Martyrs;Vieux Kouba
88273942;"{\"type\":\"LineString\",\"coordinates\":[[3.0750258,36.7297487],[3.0750069,36.7297501],[3.0749883,36.7297473],[3.0749696,36.7297398],[3.0749545,36.7297281],[3.0749434,36.729711],[3.0749402,36.729692],[3.0749452,36.7296732],[3.0749579,36.7296568],[3.0749766,36.7296449],[3.0749993,36.7296387],[3.0750213,36.7296387],[3.0750422,36.7296443],[3.07506,36.7296547],[3.0750728,36.7296691],[3.0750795,36.7296867],[3.0750787,36.7297051],[3.0750705,36.7297224],[3.0750588,36.7297343],[3.0750436,36.7297433],[3.0750258,36.7297487]]}";3;"";1;50;false;false;true;false;false;false;40.0;0;0;0;0;0;true;FRERES EL SELAMI;3791964307;3.0794011;36.7294691;Vieux Kouba;2268895854;3.0750719;36.7295917;1;18;19;7996457;Place des Martyrs => Vieux Kouba;#468499;ETUSA;06;Place des Martyrs;Vieux Kouba
