way_id;shape;index;name;nb_lanes;legal_speed;speed_zone_30;oneway;shares_bike;bike_box;bus_lane;dedicated_bus_lane;length;nb_traffic_signals;nb_crossings;nb_stops;nb_give_ways;nb_lvl_crossings;roundabout;stop_id_orig;node_id_orig;coord_x_orig;coord_y_orig;stop_id_dest;node_id_dest;coord_x_dest;coord_y_dest;nb_neighbouring_ways_bus_stop;ordre_orig;ordre_dest;id_line;line_name;colour;operator;ref;from;to
217746302;"{\"type\":\"LineString\",\"coordinates\":[[3.1015778,36.7246363],[3.1017065,36.7241699],[3.1017337,36.7241423],[3.1017762,36.7241183],[3.1018272,36.7241011],[3.1018889,36.7240882]]}";1;"";1;50;false;true;true;false;false;false;74.0;0;0;0;0;0;false;STATION HAI EL BADR;5387204318;3.1014571;36.7246342;Cité El Bahia;5460208516;3.09322;36.7277578;1;0;1;8086697;Bus: Station Hai El Badr -> Hopital Militaire;"";ETUSA;18;Station Hai El Badr;Hopital Militaire
567154370;"{\"type\":\"LineString\",\"coordinates\":[[3.1018889,36.7240882],[3.1019027,36.7240242]]}";2;"";1;50;false;true;true;false;false;false;8.0;0;0;0;0;0;false;STATION HAI EL BADR;5387204318;3.1014571;36.7246342;Cité El Bahia;5460208516;3.09322;36.7277578;0;0;1;8086697;Bus: Station Hai El Badr -> Hopital Militaire;"";ETUSA;18;Station Hai El Badr;Hopital Militaire
567154369;"{\"type\":\"LineString\",\"coordinates\":[[3.1019027,36.7240242],[3.1013766,36.7240236]]}";3;"";1;50;false;false;true;false;false;false;48.0;0;0;0;0;0;false;STATION HAI EL BADR;5387204318;3.1014571;36.7246342;Cité El Bahia;5460208516;3.09322;36.7277578;0;0;1;8086697;Bus: Station Hai El Badr -> Hopital Militaire;"";ETUSA;18;Station Hai El Badr;Hopital Militaire
305678350;"{\"type\":\"LineString\",\"coordinates\":[[3.1013551,36.7236748],[3.1013706,36.7238462],[3.1013766,36.7240236]]}";4;Route de Badjarrah;1;60;false;false;true;false;false;false;40.0;0;0;0;0;0;false;STATION HAI EL BADR;5387204318;3.1014571;36.7246342;Cité El Bahia;5460208516;3.09322;36.7277578;0;0;1;8086697;Bus: Station Hai El Badr -> Hopital Militaire;"";ETUSA;18;Station Hai El Badr;Hopital Militaire
567154368;"{\"type\":\"LineString\",\"coordinates\":[[3.1013307,36.7234748],[3.1013444,36.7235856],[3.1013551,36.7236748]]}";5;Route de Badjarrah;1;60;false;false;true;false;false;false;23.0;0;0;0;0;0;false;STATION HAI EL BADR;5387204318;3.1014571;36.7246342;Cité El Bahia;5460208516;3.09322;36.7277578;0;0;1;8086697;Bus: Station Hai El Badr -> Hopital Militaire;"";ETUSA;18;Station Hai El Badr;Hopital Militaire
217746261;"{\"type\":\"LineString\",\"coordinates\":[[3.1013307,36.7234748],[3.1012405,36.7233929],[3.1011976,36.7233622],[3.101155,36.7233453],[3.1011285,36.7233389],[3.1010339,36.7233319]]}";6;"";1;50;false;true;true;false;false;false;33.0;0;0;0;0;0;false;STATION HAI EL BADR;5387204318;3.1014571;36.7246342;Cité El Bahia;5460208516;3.09322;36.7277578;0;0;1;8086697;Bus: Station Hai El Badr -> Hopital Militaire;"";ETUSA;18;Station Hai El Badr;Hopital Militaire
60731782;"{\"type\":\"LineString\",\"coordinates\":[[3.1010339,36.7233319],[3.1008774,36.7234388],[3.1006397,36.7236167],[3.100527,36.7236936],[3.1002581,36.7238946],[3.0999564,36.724123],[3.0994546,36.7245109],[3.0993462,36.7245932],[3.09871,36.7250763],[3.0980587,36.7256597],[3.0976135,36.7261155],[3.0974311,36.7263003],[3.0972889,36.7264186],[3.0970796,36.7265685],[3.0968087,36.7267448],[3.0966774,36.7268356],[3.0966264,36.7268829],[3.0965888,36.7269345],[3.0965429,36.7270174]]}";7;Chemin Ben Omar;1;60;false;true;true;false;false;false;583.0;0;0;0;0;0;false;STATION HAI EL BADR;5387204318;3.1014571;36.7246342;Cité El Bahia;5460208516;3.09322;36.7277578;0;0;1;8086697;Bus: Station Hai El Badr -> Hopital Militaire;"";ETUSA;18;Station Hai El Badr;Hopital Militaire
171774872;"{\"type\":\"LineString\",\"coordinates\":[[3.0963829,36.7269071],[3.0964212,36.7268982],[3.0964609,36.7269003],[3.0964929,36.726911],[3.09652,36.7269278],[3.0965375,36.7269508],[3.0965478,36.7269816],[3.0965429,36.7270174],[3.0965245,36.7270457],[3.0964951,36.7270673],[3.0964662,36.7270778],[3.0964266,36.7270814],[3.0963881,36.7270715],[3.0963721,36.7270673],[3.0963427,36.7270458],[3.0963238,36.7270164],[3.096319,36.7269847],[3.096328,36.7269536],[3.0963497,36.7269269],[3.0963829,36.7269071]]}";8;"";1;50;false;false;true;false;false;false;65.0;0;0;0;0;0;true;STATION HAI EL BADR;5387204318;3.1014571;36.7246342;Cité El Bahia;5460208516;3.09322;36.7277578;0;0;1;8086697;Bus: Station Hai El Badr -> Hopital Militaire;"";ETUSA;18;Station Hai El Badr;Hopital Militaire
60731781;"{\"type\":\"LineString\",\"coordinates\":[[3.0964266,36.7270814],[3.0962686,36.7271015],[3.0960178,36.7270883],[3.0958714,36.7270645],[3.0957375,36.7270595]]}";9;"";1;50;false;true;true;false;false;false;63.0;0;0;0;0;0;false;STATION HAI EL BADR;5387204318;3.1014571;36.7246342;Cité El Bahia;5460208516;3.09322;36.7277578;0;0;1;8086697;Bus: Station Hai El Badr -> Hopital Militaire;"";ETUSA;18;Station Hai El Badr;Hopital Militaire
60731784;"{\"type\":\"LineString\",\"coordinates\":[[3.0935837,36.727595],[3.0939124,36.7275133],[3.0957375,36.7270595]]}";10;Chemin Ben Omar;1;50;false;false;true;false;false;false;204.0;0;0;0;0;0;false;STATION HAI EL BADR;5387204318;3.1014571;36.7246342;Cité El Bahia;5460208516;3.09322;36.7277578;0;0;1;8086697;Bus: Station Hai El Badr -> Hopital Militaire;"";ETUSA;18;Station Hai El Badr;Hopital Militaire
28457575;"{\"type\":\"LineString\",\"coordinates\":[[3.0895154,36.7291938],[3.0895684,36.7291281],[3.0896887,36.7289891],[3.0897355,36.7289428],[3.0899077,36.7287899],[3.0900218,36.7287081],[3.0901404,36.7286394],[3.0906686,36.7283979],[3.0911007,36.7282904],[3.0915348,36.7281643],[3.0919229,36.7280399],[3.0922246,36.7279588],[3.0926778,36.7278375],[3.0935837,36.727595]]}";11;Rue Laalem Tahar;1;50;false;false;true;false;false;false;209.5;0;0;0;0;0;false;STATION HAI EL BADR;5387204318;3.1014571;36.7246342;Cité El Bahia;5460208516;3.09322;36.7277578;1;0;1;8086697;Bus: Station Hai El Badr -> Hopital Militaire;"";ETUSA;18;Station Hai El Badr;Hopital Militaire
28457575;"{\"type\":\"LineString\",\"coordinates\":[[3.0895154,36.7291938],[3.0895684,36.7291281],[3.0896887,36.7289891],[3.0897355,36.7289428],[3.0899077,36.7287899],[3.0900218,36.7287081],[3.0901404,36.7286394],[3.0906686,36.7283979],[3.0911007,36.7282904],[3.0915348,36.7281643],[3.0919229,36.7280399],[3.0922246,36.7279588],[3.0926778,36.7278375],[3.0935837,36.727595]]}";1;Rue Laalem Tahar;1;50;false;false;true;false;false;false;209.5;0;0;0;0;0;false;Cité El Bahia;5460208516;3.09322;36.7277578;STADE BEN HADDAD (BENOMAR);5460208517;3.0894059;36.7297592;1;1;2;8086697;Bus: Station Hai El Badr -> Hopital Militaire;"";ETUSA;18;Station Hai El Badr;Hopital Militaire
29651715;"{\"type\":\"LineString\",\"coordinates\":[[3.0895154,36.7291938],[3.089534,36.7292363],[3.0894024,36.7294684],[3.0893885,36.7294921],[3.0893717,36.7295093],[3.0893402,36.7295284]]}";2;"";1;50;false;true;true;false;false;false;43.0;0;0;0;0;0;false;Cité El Bahia;5460208516;3.09322;36.7277578;STADE BEN HADDAD (BENOMAR);5460208517;3.0894059;36.7297592;0;1;2;8086697;Bus: Station Hai El Badr -> Hopital Militaire;"";ETUSA;18;Station Hai El Badr;Hopital Militaire
231430961;"{\"type\":\"LineString\",\"coordinates\":[[3.0893402,36.7295284],[3.0893449,36.7295647],[3.0893448,36.7296111],[3.0893353,36.7296943],[3.0893277,36.7297369],[3.0893167,36.7297859],[3.0893001,36.7298298],[3.0892817,36.729871],[3.08921,36.7299052]]}";3;"";1;50;false;true;true;false;false;false;23.5;0;0;0;0;0;false;Cité El Bahia;5460208516;3.09322;36.7277578;STADE BEN HADDAD (BENOMAR);5460208517;3.0894059;36.7297592;1;1;2;8086697;Bus: Station Hai El Badr -> Hopital Militaire;"";ETUSA;18;Station Hai El Badr;Hopital Militaire
231430961;"{\"type\":\"LineString\",\"coordinates\":[[3.0893402,36.7295284],[3.0893449,36.7295647],[3.0893448,36.7296111],[3.0893353,36.7296943],[3.0893277,36.7297369],[3.0893167,36.7297859],[3.0893001,36.7298298],[3.0892817,36.729871],[3.08921,36.7299052]]}";1;"";1;50;false;true;true;false;false;false;23.5;0;0;0;0;0;false;STADE BEN HADDAD (BENOMAR);5460208517;3.0894059;36.7297592;La Croix;3791964308;3.0840198;36.7299915;1;2;3;8086697;Bus: Station Hai El Badr -> Hopital Militaire;"";ETUSA;18;Station Hai El Badr;Hopital Militaire
28453958;"{\"type\":\"LineString\",\"coordinates\":[[3.08921,36.7299052],[3.0891499,36.7300146],[3.0891139,36.7300683],[3.0887645,36.7305369],[3.0886516,36.730679],[3.0884624,36.7309497],[3.0884563,36.7309611],[3.0884435,36.7309806],[3.0881627,36.7314182],[3.0880323,36.7315866],[3.0878459,36.7318464],[3.0876223,36.7321583],[3.0874751,36.7323482]]}";2;Avenue Fellah Mohamed;1;50;false;false;true;false;false;false;317.0;0;1;0;0;0;false;STADE BEN HADDAD (BENOMAR);5460208517;3.0894059;36.7297592;La Croix;3791964308;3.0840198;36.7299915;0;2;3;8086697;Bus: Station Hai El Badr -> Hopital Militaire;"";ETUSA;18;Station Hai El Badr;Hopital Militaire
28452313;"{\"type\":\"LineString\",\"coordinates\":[[3.0874751,36.7323482],[3.0874236,36.7321929],[3.0873669,36.7320819],[3.0872974,36.7319634],[3.0871508,36.7317607],[3.0870192,36.7316021],[3.0868619,36.7314734],[3.0865308,36.7312598],[3.0862643,36.731115],[3.0859927,36.7310087],[3.0858183,36.7309651],[3.0855092,36.7308595]]}";3;Avenue des Frères Abdeslami;1;40;false;false;true;false;false;false;257.0;0;1;0;0;0;false;STADE BEN HADDAD (BENOMAR);5460208517;3.0894059;36.7297592;La Croix;3791964308;3.0840198;36.7299915;0;2;3;8086697;Bus: Station Hai El Badr -> Hopital Militaire;"";ETUSA;18;Station Hai El Badr;Hopital Militaire
369354268;"{\"type\":\"LineString\",\"coordinates\":[[3.0855092,36.7308595],[3.0852403,36.7307367],[3.0849713,36.7305952],[3.0843697,36.7302106],[3.0840713,36.7299531],[3.084027,36.7299149],[3.0838377,36.7298465],[3.08352,36.7296527],[3.0828534,36.7292667],[3.0826329,36.7291655],[3.0824791,36.7291161],[3.0822612,36.7290621],[3.0820703,36.7290195],[3.0818709,36.7289871],[3.081641,36.7289721],[3.0813003,36.7289706],[3.0812316,36.7289703],[3.0808171,36.7289961],[3.0803773,36.7291103],[3.0800787,36.7292117],[3.0798001,36.7293023],[3.0796995,36.729335],[3.0795995,36.7293672],[3.079597,36.7293679],[3.0793838,36.7294321],[3.0793101,36.7294543],[3.0791939,36.7294619],[3.0790291,36.7294486],[3.0786327,36.7293781],[3.078488,36.7293535],[3.078332,36.7293502],[3.0778467,36.7293701],[3.0777059,36.7293874],[3.0775516,36.729433],[3.0770779,36.7296112],[3.0769862,36.7296384],[3.0768603,36.7296531],[3.075644,36.7297651],[3.0754964,36.7297818]]}";4;Avenue des Frères Abdeslami;1;40;false;false;true;false;false;false;495.5;0;1;0;0;0;false;STADE BEN HADDAD (BENOMAR);5460208517;3.0894059;36.7297592;La Croix;3791964308;3.0840198;36.7299915;1;2;3;8086697;Bus: Station Hai El Badr -> Hopital Militaire;"";ETUSA;18;Station Hai El Badr;Hopital Militaire
369354268;"{\"type\":\"LineString\",\"coordinates\":[[3.0855092,36.7308595],[3.0852403,36.7307367],[3.0849713,36.7305952],[3.0843697,36.7302106],[3.0840713,36.7299531],[3.084027,36.7299149],[3.0838377,36.7298465],[3.08352,36.7296527],[3.0828534,36.7292667],[3.0826329,36.7291655],[3.0824791,36.7291161],[3.0822612,36.7290621],[3.0820703,36.7290195],[3.0818709,36.7289871],[3.081641,36.7289721],[3.0813003,36.7289706],[3.0812316,36.7289703],[3.0808171,36.7289961],[3.0803773,36.7291103],[3.0800787,36.7292117],[3.0798001,36.7293023],[3.0796995,36.729335],[3.0795995,36.7293672],[3.079597,36.7293679],[3.0793838,36.7294321],[3.0793101,36.7294543],[3.0791939,36.7294619],[3.0790291,36.7294486],[3.0786327,36.7293781],[3.078488,36.7293535],[3.078332,36.7293502],[3.0778467,36.7293701],[3.0777059,36.7293874],[3.0775516,36.729433],[3.0770779,36.7296112],[3.0769862,36.7296384],[3.0768603,36.7296531],[3.075644,36.7297651],[3.0754964,36.7297818]]}";1;Avenue des Frères Abdeslami;1;40;false;false;true;false;false;false;495.5;0;1;0;0;0;false;FRERES EL SELAMI;3791964307;3.0794011;36.7294691;Vieux Kouba;5460208518;3.0751741;36.7297635;1;4;5;8086697;Bus: Station Hai El Badr -> Hopital Militaire;"";ETUSA;18;Station Hai El Badr;Hopital Militaire
28453234;"{\"type\":\"LineString\",\"coordinates\":[[3.0754964,36.7297818],[3.0751569,36.7297272],[3.0750705,36.7297224]]}";2;Chemin Khelifi Mustapha;1;50;false;true;true;false;false;false;20.0;0;0;0;0;0;false;FRERES EL SELAMI;3791964307;3.0794011;36.7294691;Vieux Kouba;5460208518;3.0751741;36.7297635;1;4;5;8086697;Bus: Station Hai El Badr -> Hopital Militaire;"";ETUSA;18;Station Hai El Badr;Hopital Militaire
88273942;"{\"type\":\"LineString\",\"coordinates\":[[3.0750258,36.7297487],[3.0750069,36.7297501],[3.0749883,36.7297473],[3.0749696,36.7297398],[3.0749545,36.7297281],[3.0749434,36.729711],[3.0749402,36.729692],[3.0749452,36.7296732],[3.0749579,36.7296568],[3.0749766,36.7296449],[3.0749993,36.7296387],[3.0750213,36.7296387],[3.0750422,36.7296443],[3.07506,36.7296547],[3.0750728,36.7296691],[3.0750795,36.7296867],[3.0750787,36.7297051],[3.0750705,36.7297224],[3.0750588,36.7297343],[3.0750436,36.7297433],[3.0750258,36.7297487]]}";1;"";1;50;false;false;true;false;false;false;40.0;0;0;0;0;0;true;Vieux Kouba;5460208518;3.0751741;36.7297635;قريدي 1;544525403;3.06952;36.7289101;2;5;6;8086697;Bus: Station Hai El Badr -> Hopital Militaire;"";ETUSA;18;Station Hai El Badr;Hopital Militaire
217598678;"{\"type\":\"LineString\",\"coordinates\":[[3.0749545,36.7297281],[3.0747616,36.7297751],[3.0739738,36.7300023],[3.0737851,36.7300638],[3.0737273,36.7300842],[3.0736837,36.7300955]]}";2;Chemin Khelifi Mustapha;1;50;false;false;true;false;false;false;123.0;0;0;0;0;0;false;Vieux Kouba;5460208518;3.0751741;36.7297635;قريدي 1;544525403;3.06952;36.7289101;0;5;6;8086697;Bus: Station Hai El Badr -> Hopital Militaire;"";ETUSA;18;Station Hai El Badr;Hopital Militaire
28453345;"{\"type\":\"LineString\",\"coordinates\":[[3.0736837,36.7300955],[3.0734765,36.7299171],[3.0729672,36.7295599],[3.0723597,36.7290746],[3.0718401,36.7286539],[3.0717782,36.7286038],[3.0716182,36.7284509],[3.0715343,36.7283297],[3.0714332,36.728118],[3.0714168,36.7279489]]}";3;Chemin Saint Charles;1;50;false;true;true;false;false;false;324.0;0;0;0;0;0;false;Vieux Kouba;5460208518;3.0751741;36.7297635;قريدي 1;544525403;3.06952;36.7289101;0;5;6;8086697;Bus: Station Hai El Badr -> Hopital Militaire;"";ETUSA;18;Station Hai El Badr;Hopital Militaire
26226725;"{\"type\":\"LineString\",\"coordinates\":[[3.0714168,36.7279489],[3.0712344,36.7280128],[3.0710428,36.7280506],[3.0704906,36.7281594],[3.0702335,36.7282491],[3.0699154,36.7284251],[3.0695575,36.7287536],[3.0692502,36.7291453],[3.0692036,36.7292094],[3.0685939,36.7300036],[3.0680705,36.730733],[3.0678482,36.7310311]]}";4;"";1;50;false;true;true;false;false;false;496.0;0;0;0;0;0;false;Vieux Kouba;5460208518;3.0751741;36.7297635;قريدي 1;544525403;3.06952;36.7289101;2;5;6;8086697;Bus: Station Hai El Badr -> Hopital Militaire;"";ETUSA;18;Station Hai El Badr;Hopital Militaire
