way_id;shape;index;name;nb_lanes;legal_speed;speed_zone_30;oneway;shares_bike;bike_box;bus_lane;dedicated_bus_lane;length;nb_traffic_signals;nb_crossings;nb_stops;nb_give_ways;nb_lvl_crossings;roundabout;stop_id_orig;node_id_orig;coord_x_orig;coord_y_orig;stop_id_dest;node_id_dest;coord_x_dest;coord_y_dest;nb_neighbouring_ways_bus_stop;ordre_orig;ordre_dest;id_line;line_name;colour;operator;ref;from;to
284915252;"{\"type\":\"LineString\",\"coordinates\":[[-73.5501393,45.5930422],[-73.5502361,45.5931083],[-73.5503925,45.5931843],[-73.5513191,45.5934926],[-73.5529315,45.5940268],[-73.555348,45.5948538],[-73.5563571,45.5951573]]}";1;Boulevard des Galeries-d'Anjou;2;50;false;true;true;false;false;false;540.0;1;0;0;0;0;false;54615;303687934;-73.55602;45.595117;54602;303687955;-73.559305;45.596209;1;5;6;2065443;Bus 44 : Armand-Bombardier Nord;"";STM;44-N;Station Radisson;26e Avenue / Gouin
635298378;"{\"type\":\"LineString\",\"coordinates\":[[-73.5563571,45.5951573],[-73.5565267,45.5952261]]}";2;Boulevard des Galeries-d'Anjou;2;50;false;true;true;false;false;false;16.0;2;0;0;0;0;false;54615;303687934;-73.55602;45.595117;54602;303687955;-73.559305;45.596209;0;5;6;2065443;Bus 44 : Armand-Bombardier Nord;"";STM;44-N;Station Radisson;26e Avenue / Gouin
635298377;"{\"type\":\"LineString\",\"coordinates\":[[-73.5565267,45.5952261],[-73.5573043,45.5954763],[-73.5594947,45.5962158]]}";3;Boulevard des Galeries-d'Anjou;2;50;false;true;true;false;false;false;128.5;2;0;0;0;0;false;54615;303687934;-73.55602;45.595117;54602;303687955;-73.559305;45.596209;1;5;6;2065443;Bus 44 : Armand-Bombardier Nord;"";STM;44-N;Station Radisson;26e Avenue / Gouin
617504959;"{\"type\":\"LineString\",\"coordinates\":[[-73.5594947,45.5962158],[-73.5598943,45.5963192]]}";1;Boulevard des Galeries-d'Anjou;2;50;false;true;true;false;false;false;34.0;1;0;0;0;0;false;54602;303687955;-73.559305;45.596209;54594;303687958;-73.562903;45.597213;2;6;7;2065443;Bus 44 : Armand-Bombardier Nord;"";STM;44-N;Station Radisson;26e Avenue / Gouin
617504960;"{\"type\":\"LineString\",\"coordinates\":[[-73.5598943,45.5963192],[-73.5603651,45.596441],[-73.5605912,45.5964995],[-73.561762,45.5968024],[-73.5618421,45.5968268],[-73.5632776,45.5972645],[-73.5657341,45.5980736]]}";2;Boulevard des Galeries-d'Anjou;2;50;false;true;true;false;false;false;496.0;2;0;0;0;0;false;54602;303687955;-73.559305;45.596209;54594;303687958;-73.562903;45.597213;2;6;7;2065443;Bus 44 : Armand-Bombardier Nord;"";STM;44-N;Station Radisson;26e Avenue / Gouin
617504960;"{\"type\":\"LineString\",\"coordinates\":[[-73.5598943,45.5963192],[-73.5603651,45.596441],[-73.5605912,45.5964995],[-73.561762,45.5968024],[-73.5618421,45.5968268],[-73.5632776,45.5972645],[-73.5657341,45.5980736]]}";1;Boulevard des Galeries-d'Anjou;2;50;false;true;true;false;false;false;248.0;2;0;0;0;0;false;54685;303687960;-73.565467;45.598056;54580;303687963;-73.568696;45.599173;1;8;9;2065443;Bus 44 : Armand-Bombardier Nord;"";STM;44-N;Station Radisson;26e Avenue / Gouin
635299612;"{\"type\":\"LineString\",\"coordinates\":[[-73.5657341,45.5980736],[-73.565845,45.598112]]}";2;Boulevard des Galeries-d'Anjou;2;50;false;true;true;false;false;false;10.0;2;0;0;0;0;false;54685;303687960;-73.565467;45.598056;54580;303687963;-73.568696;45.599173;0;8;9;2065443;Bus 44 : Armand-Bombardier Nord;"";STM;44-N;Station Radisson;26e Avenue / Gouin
471504959;"{\"type\":\"LineString\",\"coordinates\":[[-73.565845,45.598112],[-73.5679678,45.5988156],[-73.5689513,45.5991995]]}";3;Boulevard des Galeries-d'Anjou;2;50;false;true;true;false;false;false;135.5;2;0;0;0;0;false;54685;303687960;-73.565467;45.598056;54580;303687963;-73.568696;45.599173;1;8;9;2065443;Bus 44 : Armand-Bombardier Nord;"";STM;44-N;Station Radisson;26e Avenue / Gouin
471504959;"{\"type\":\"LineString\",\"coordinates\":[[-73.565845,45.598112],[-73.5679678,45.5988156],[-73.5689513,45.5991995]]}";1;Boulevard des Galeries-d'Anjou;2;50;false;true;true;false;false;false;135.5;2;0;0;0;0;false;54580;303687963;-73.568696;45.599173;54565;6010971325;-73.572999;45.601009;1;9;10;2065443;Bus 44 : Armand-Bombardier Nord;"";STM;44-N;Station Radisson;26e Avenue / Gouin
475840404;"{\"type\":\"LineString\",\"coordinates\":[[-73.5689513,45.5991995],[-73.5690189,45.5992295]]}";2;Boulevard des Galeries-d'Anjou;2;50;false;true;true;false;false;false;7.0;2;0;0;0;0;false;54580;303687963;-73.568696;45.599173;54565;6010971325;-73.572999;45.601009;0;9;10;2065443;Bus 44 : Armand-Bombardier Nord;"";STM;44-N;Station Radisson;26e Avenue / Gouin
471504962;"{\"type\":\"LineString\",\"coordinates\":[[-73.5690189,45.5992295],[-73.5692533,45.5993307]]}";3;Boulevard des Galeries-d'Anjou;2;50;false;true;true;false;false;false;22.0;1;0;0;0;0;false;54580;303687963;-73.568696;45.599173;54565;6010971325;-73.572999;45.601009;0;9;10;2065443;Bus 44 : Armand-Bombardier Nord;"";STM;44-N;Station Radisson;26e Avenue / Gouin
471504961;"{\"type\":\"LineString\",\"coordinates\":[[-73.5692533,45.5993307],[-73.5702532,45.5997624]]}";4;Boulevard des Galeries-d'Anjou;2;50;false;true;true;false;false;false;92.0;0;0;0;0;0;false;54580;303687963;-73.568696;45.599173;54565;6010971325;-73.572999;45.601009;0;9;10;2065443;Bus 44 : Armand-Bombardier Nord;"";STM;44-N;Station Radisson;26e Avenue / Gouin
284915237;"{\"type\":\"LineString\",\"coordinates\":[[-73.5702532,45.5997624],[-73.5711437,45.6001509]]}";5;Boulevard des Galeries-d'Anjou;2;50;false;true;true;false;false;false;82.0;0;0;0;0;0;false;54580;303687963;-73.568696;45.599173;54565;6010971325;-73.572999;45.601009;0;9;10;2065443;Bus 44 : Armand-Bombardier Nord;"";STM;44-N;Station Radisson;26e Avenue / Gouin
284915236;"{\"type\":\"LineString\",\"coordinates\":[[-73.5711437,45.6001509],[-73.5726777,45.6008259]]}";6;Boulevard des Galeries-d'Anjou;2;50;false;true;true;false;false;false;142.0;0;0;0;0;0;false;54580;303687963;-73.568696;45.599173;54565;6010971325;-73.572999;45.601009;0;9;10;2065443;Bus 44 : Armand-Bombardier Nord;"";STM;44-N;Station Radisson;26e Avenue / Gouin
285089357;"{\"type\":\"LineString\",\"coordinates\":[[-73.5726777,45.6008259],[-73.575366,45.6019638],[-73.5764449,45.6024163],[-73.5785108,45.6033155],[-73.5794665,45.6037126],[-73.5816996,45.6046922],[-73.5823409,45.6049696],[-73.5829748,45.6052524],[-73.5841861,45.6057636],[-73.5847827,45.6060133],[-73.5864963,45.6067449]]}";7;Boulevard des Galeries-d'Anjou;2;50;false;true;true;false;false;false;631.0;1;0;0;0;0;false;54580;303687963;-73.568696;45.599173;54565;6010971325;-73.572999;45.601009;1;9;10;2065443;Bus 44 : Armand-Bombardier Nord;"";STM;44-N;Station Radisson;26e Avenue / Gouin
