way_id;shape;index;name;nb_lanes;legal_speed;speed_zone_30;oneway;shares_bike;bike_box;bus_lane;dedicated_bus_lane;length;nb_traffic_signals;nb_crossings;nb_stops;nb_give_ways;nb_lvl_crossings;roundabout;stop_id_orig;node_id_orig;coord_x_orig;coord_y_orig;stop_id_dest;node_id_dest;coord_x_dest;coord_y_dest;nb_neighbouring_ways_bus_stop;ordre_orig;ordre_dest;id_line;line_name;colour;operator;ref;from;to
678900150;"{\"type\":\"LineString\",\"coordinates\":[[-73.6543098,45.6979415],[-73.654154,45.6979414],[-73.6533204,45.6979395],[-73.6532321,45.6979644],[-73.6531831,45.6979995],[-73.6531647,45.6980517],[-73.6531659,45.6981074]]}";1;BUS;1;50;false;true;true;false;true;false;103.0;0;1;0;0;0;false;84875;6129482927;-73.652978;45.698038;84847;6129482949;-73.646572;45.700101;1;0;1;9426143;Bus 2 : TERREBONNE / MASCOUCHE;"";EXO;2;Terminus Terrebonne;Terminus Terrebonne
680430226;"{\"type\":\"LineString\",\"coordinates\":[[-73.6531659,45.6981074],[-73.6531964,45.6981594],[-73.6533077,45.6981896],[-73.653539,45.6981751],[-73.6536637,45.6981433]]}";2;BUS;1;50;false;true;true;false;true;false;44.0;0;0;0;0;0;false;84875;6129482927;-73.652978;45.698038;84847;6129482949;-73.646572;45.700101;0;0;1;9426143;Bus 2 : TERREBONNE / MASCOUCHE;"";EXO;2;Terminus Terrebonne;Terminus Terrebonne
35166453;"{\"type\":\"LineString\",\"coordinates\":[[-73.6536637,45.6981433],[-73.6539212,45.6980774],[-73.6541513,45.6980734],[-73.6542646,45.6980714],[-73.6543058,45.6980697]]}";3;BUS;1;50;false;true;true;false;true;false;52.0;0;1;0;0;0;false;84875;6129482927;-73.652978;45.698038;84847;6129482949;-73.646572;45.700101;0;0;1;9426143;Bus 2 : TERREBONNE / MASCOUCHE;"";EXO;2;Terminus Terrebonne;Terminus Terrebonne
517535442;"{\"type\":\"LineString\",\"coordinates\":[[-73.6543058,45.6980697],[-73.654274,45.6990998]]}";4;Côte de Terrebonne;1;50;false;true;true;false;false;false;115.0;0;0;0;0;0;false;84875;6129482927;-73.652978;45.698038;84847;6129482949;-73.646572;45.700101;0;0;1;9426143;Bus 2 : TERREBONNE / MASCOUCHE;"";EXO;2;Terminus Terrebonne;Terminus Terrebonne
465271486;"{\"type\":\"LineString\",\"coordinates\":[[-73.654274,45.6990998],[-73.654223,45.6993046],[-73.6541742,45.6993736],[-73.6540355,45.6994644],[-73.6539119,45.699513],[-73.6537781,45.6995483]]}";5;"";1;50;false;true;true;false;false;false;69.0;0;1;0;0;0;false;84875;6129482927;-73.652978;45.698038;84847;6129482949;-73.646572;45.700101;0;0;1;9426143;Bus 2 : TERREBONNE / MASCOUCHE;"";EXO;2;Terminus Terrebonne;Terminus Terrebonne
678903390;"{\"type\":\"LineString\",\"coordinates\":[[-73.6537781,45.6995483],[-73.6521925,45.6996607]]}";6;Boulevard des Seigneurs;1;50;false;true;true;false;false;false;125.0;0;0;0;0;0;false;84875;6129482927;-73.652978;45.698038;84847;6129482949;-73.646572;45.700101;0;0;1;9426143;Bus 2 : TERREBONNE / MASCOUCHE;"";EXO;2;Terminus Terrebonne;Terminus Terrebonne
177354199;"{\"type\":\"LineString\",\"coordinates\":[[-73.6521925,45.6996607],[-73.6515759,45.6997044]]}";7;Boulevard des Seigneurs;1;50;false;true;true;false;false;false;49.0;0;0;0;0;0;false;84875;6129482927;-73.652978;45.698038;84847;6129482949;-73.646572;45.700101;0;0;1;9426143;Bus 2 : TERREBONNE / MASCOUCHE;"";EXO;2;Terminus Terrebonne;Terminus Terrebonne
177354198;"{\"type\":\"LineString\",\"coordinates\":[[-73.6515759,45.6997044],[-73.6494691,45.6998431],[-73.6487887,45.6998996],[-73.6478927,45.6999889],[-73.647631,45.7000313],[-73.6472709,45.700104]]}";8;Boulevard des Seigneurs;1;50;false;true;true;false;false;false;339.0;1;0;0;0;0;false;84875;6129482927;-73.652978;45.698038;84847;6129482949;-73.646572;45.700101;0;0;1;9426143;Bus 2 : TERREBONNE / MASCOUCHE;"";EXO;2;Terminus Terrebonne;Terminus Terrebonne
473307650;"{\"type\":\"LineString\",\"coordinates\":[[-73.6472709,45.700104],[-73.6471433,45.7001298]]}";9;Boulevard des Seigneurs;1;50;false;true;true;false;false;false;11.0;2;0;0;0;0;false;84875;6129482927;-73.652978;45.698038;84847;6129482949;-73.646572;45.700101;0;0;1;9426143;Bus 2 : TERREBONNE / MASCOUCHE;"";EXO;2;Terminus Terrebonne;Terminus Terrebonne
26142216;"{\"type\":\"LineString\",\"coordinates\":[[-73.6471433,45.7001298],[-73.6461414,45.7003385],[-73.6461103,45.700347]]}";10;Boulevard des Seigneurs;1;50;false;true;true;false;false;false;84.0;1;0;0;0;0;false;84875;6129482927;-73.652978;45.698038;84847;6129482949;-73.646572;45.700101;2;0;1;9426143;Bus 2 : TERREBONNE / MASCOUCHE;"";EXO;2;Terminus Terrebonne;Terminus Terrebonne
26142216;"{\"type\":\"LineString\",\"coordinates\":[[-73.6471433,45.7001298],[-73.6461414,45.7003385],[-73.6461103,45.700347]]}";1;Boulevard des Seigneurs;1;50;false;true;true;false;false;false;42.0;1;0;0;0;0;false;84847;6129482949;-73.646572;45.700101;84762;6129483623;-73.644456;45.70067;1;1;2;9426143;Bus 2 : TERREBONNE / MASCOUCHE;"";EXO;2;Terminus Terrebonne;Terminus Terrebonne
564292180;"{\"type\":\"LineString\",\"coordinates\":[[-73.6461103,45.700347],[-73.6448429,45.7006938],[-73.6443242,45.7008305],[-73.6433021,45.7011283],[-73.6421761,45.7014415],[-73.6417688,45.7015591],[-73.6413635,45.7016844],[-73.6407856,45.7018431],[-73.6398845,45.7020973],[-73.6389285,45.7023658],[-73.6383643,45.7025253],[-73.6381318,45.7025909],[-73.6375934,45.702743],[-73.6367419,45.7029839],[-73.6359213,45.7032154],[-73.6354417,45.7033434],[-73.635073,45.7034418],[-73.6342064,45.7036655],[-73.6334956,45.7037974],[-73.632766,45.7039237],[-73.6322028,45.7040247]]}";2;Boulevard des Seigneurs;1;50;false;true;true;false;false;false;579.0;2;0;0;0;0;false;84847;6129482949;-73.646572;45.700101;84762;6129483623;-73.644456;45.70067;1;1;2;9426143;Bus 2 : TERREBONNE / MASCOUCHE;"";EXO;2;Terminus Terrebonne;Terminus Terrebonne
564292180;"{\"type\":\"LineString\",\"coordinates\":[[-73.6461103,45.700347],[-73.6448429,45.7006938],[-73.6443242,45.7008305],[-73.6433021,45.7011283],[-73.6421761,45.7014415],[-73.6417688,45.7015591],[-73.6413635,45.7016844],[-73.6407856,45.7018431],[-73.6398845,45.7020973],[-73.6389285,45.7023658],[-73.6383643,45.7025253],[-73.6381318,45.7025909],[-73.6375934,45.702743],[-73.6367419,45.7029839],[-73.6359213,45.7032154],[-73.6354417,45.7033434],[-73.635073,45.7034418],[-73.6342064,45.7036655],[-73.6334956,45.7037974],[-73.632766,45.7039237],[-73.6322028,45.7040247]]}";1;Boulevard des Seigneurs;1;50;false;true;true;false;false;false;579.0;2;0;0;0;0;false;84768;6129483617;-73.634414;45.703498;85055;6129482190;-73.632003;45.703972;1;6;7;9426143;Bus 2 : TERREBONNE / MASCOUCHE;"";EXO;2;Terminus Terrebonne;Terminus Terrebonne
476086821;"{\"type\":\"LineString\",\"coordinates\":[[-73.6322028,45.7040247],[-73.6318865,45.7040814],[-73.6318209,45.7040913]]}";2;Boulevard des Seigneurs;1;50;false;true;true;false;false;false;15.5;1;0;0;0;0;false;84768;6129483617;-73.634414;45.703498;85055;6129482190;-73.632003;45.703972;1;6;7;9426143;Bus 2 : TERREBONNE / MASCOUCHE;"";EXO;2;Terminus Terrebonne;Terminus Terrebonne
564292180;"{\"type\":\"LineString\",\"coordinates\":[[-73.6461103,45.700347],[-73.6448429,45.7006938],[-73.6443242,45.7008305],[-73.6433021,45.7011283],[-73.6421761,45.7014415],[-73.6417688,45.7015591],[-73.6413635,45.7016844],[-73.6407856,45.7018431],[-73.6398845,45.7020973],[-73.6389285,45.7023658],[-73.6383643,45.7025253],[-73.6381318,45.7025909],[-73.6375934,45.702743],[-73.6367419,45.7029839],[-73.6359213,45.7032154],[-73.6354417,45.7033434],[-73.635073,45.7034418],[-73.6342064,45.7036655],[-73.6334956,45.7037974],[-73.632766,45.7039237],[-73.6322028,45.7040247]]}";1;Boulevard des Seigneurs;1;50;false;true;true;false;false;false;1158.0;2;0;0;0;0;false;85055;6129482190;-73.632003;45.703972;84143;6129484953;-73.630492;45.705035;2;7;8;9426143;Bus 2 : TERREBONNE / MASCOUCHE;"";EXO;2;Terminus Terrebonne;Terminus Terrebonne
476086821;"{\"type\":\"LineString\",\"coordinates\":[[-73.6322028,45.7040247],[-73.6318865,45.7040814],[-73.6318209,45.7040913]]}";2;Boulevard des Seigneurs;1;50;false;true;true;false;false;false;31.0;1;0;0;0;0;false;85055;6129482190;-73.632003;45.703972;84143;6129484953;-73.630492;45.705035;0;7;8;9426143;Bus 2 : TERREBONNE / MASCOUCHE;"";EXO;2;Terminus Terrebonne;Terminus Terrebonne
465001674;"{\"type\":\"LineString\",\"coordinates\":[[-73.6318209,45.7040913],[-73.6314014,45.7041812],[-73.6312505,45.7042336],[-73.6311298,45.7043356],[-73.6309978,45.7044914],[-73.6309058,45.7046633]]}";3;Montée Masson;1;50;false;true;true;false;false;false;103.0;1;0;0;0;0;false;85055;6129482190;-73.632003;45.703972;84143;6129484953;-73.630492;45.705035;0;7;8;9426143;Bus 2 : TERREBONNE / MASCOUCHE;"";EXO;2;Terminus Terrebonne;Terminus Terrebonne
465001677;"{\"type\":\"LineString\",\"coordinates\":[[-73.6309058,45.7046633],[-73.6308035,45.7048244],[-73.6307369,45.7049292],[-73.6305107,45.705294],[-73.6292295,45.7074307],[-73.6286056,45.7085278],[-73.6277547,45.7100564]]}";4;Montée Masson;1;50;false;false;true;false;false;false;648.0;0;0;0;0;0;false;85055;6129482190;-73.632003;45.703972;84143;6129484953;-73.630492;45.705035;2;7;8;9426143;Bus 2 : TERREBONNE / MASCOUCHE;"";EXO;2;Terminus Terrebonne;Terminus Terrebonne
465001677;"{\"type\":\"LineString\",\"coordinates\":[[-73.6309058,45.7046633],[-73.6308035,45.7048244],[-73.6307369,45.7049292],[-73.6305107,45.705294],[-73.6292295,45.7074307],[-73.6286056,45.7085278],[-73.6277547,45.7100564]]}";1;Montée Masson;1;50;false;false;true;false;false;false;324.0;0;0;0;0;0;false;84145;6129484951;-73.629153;45.707354;84147;6129484949;-73.627507;45.710079;1;9;10;9426143;Bus 2 : TERREBONNE / MASCOUCHE;"";EXO;2;Terminus Terrebonne;Terminus Terrebonne
473280728;"{\"type\":\"LineString\",\"coordinates\":[[-73.6277547,45.7100564],[-73.6276124,45.710161]]}";2;Montée Masson;1;50;false;true;true;false;false;false;8.5;0;0;0;0;0;false;84145;6129484951;-73.629153;45.707354;84147;6129484949;-73.627507;45.710079;1;9;10;9426143;Bus 2 : TERREBONNE / MASCOUCHE;"";EXO;2;Terminus Terrebonne;Terminus Terrebonne
473276306;"{\"type\":\"LineString\",\"coordinates\":[[-73.6276124,45.710161],[-73.6272487,45.7107398]]}";1;Montée Masson;1;50;false;true;true;false;false;false;71.0;1;0;0;0;0;false;84147;6129484949;-73.627507;45.710079;84192;6129484918;-73.622694;45.718613;2;10;11;9426143;Bus 2 : TERREBONNE / MASCOUCHE;"";EXO;2;Terminus Terrebonne;Terminus Terrebonne
679511680;"{\"type\":\"LineString\",\"coordinates\":[[-73.6272487,45.7107398],[-73.6271684,45.7108542]]}";2;Montée Masson;1;50;false;true;true;false;false;false;15.0;2;0;0;0;0;false;84147;6129484949;-73.627507;45.710079;84192;6129484918;-73.622694;45.718613;0;10;11;9426143;Bus 2 : TERREBONNE / MASCOUCHE;"";EXO;2;Terminus Terrebonne;Terminus Terrebonne
472894061;"{\"type\":\"LineString\",\"coordinates\":[[-73.6271684,45.7108542],[-73.6267574,45.7115623],[-73.6266956,45.7117945]]}";3;Montée Masson;1;50;false;true;false;false;false;false;112.0;1;0;0;0;0;false;84147;6129484949;-73.627507;45.710079;84192;6129484918;-73.622694;45.718613;0;10;11;9426143;Bus 2 : TERREBONNE / MASCOUCHE;"";EXO;2;Terminus Terrebonne;Terminus Terrebonne
473276294;"{\"type\":\"LineString\",\"coordinates\":[[-73.6266956,45.7117945],[-73.6263203,45.7124881],[-73.6260419,45.7129857]]}";4;Montée Masson;1;50;false;false;false;false;false;false;142.0;0;0;0;0;0;false;84147;6129484949;-73.627507;45.710079;84192;6129484918;-73.622694;45.718613;0;10;11;9426143;Bus 2 : TERREBONNE / MASCOUCHE;"";EXO;2;Terminus Terrebonne;Terminus Terrebonne
52956458;"{\"type\":\"LineString\",\"coordinates\":[[-73.6260419,45.7129857],[-73.6252879,45.714292]]}";5;Montée Masson;1;50;false;false;false;false;false;false;157.0;0;0;0;0;0;false;84147;6129484949;-73.627507;45.710079;84192;6129484918;-73.622694;45.718613;0;10;11;9426143;Bus 2 : TERREBONNE / MASCOUCHE;"";EXO;2;Terminus Terrebonne;Terminus Terrebonne
52956459;"{\"type\":\"LineString\",\"coordinates\":[[-73.6252879,45.714292],[-73.6248598,45.715019],[-73.6247643,45.7151921]]}";6;Montée Masson;1;50;false;false;false;false;false;false;108.0;0;0;0;0;0;false;84147;6129484949;-73.627507;45.710079;84192;6129484918;-73.622694;45.718613;0;10;11;9426143;Bus 2 : TERREBONNE / MASCOUCHE;"";EXO;2;Terminus Terrebonne;Terminus Terrebonne
750534929;"{\"type\":\"LineString\",\"coordinates\":[[-73.6247643,45.7151921],[-73.6243937,45.7159304]]}";7;Montée Masson;1;50;false;false;true;false;false;false;87.0;0;0;0;0;0;false;84147;6129484949;-73.627507;45.710079;84192;6129484918;-73.622694;45.718613;0;10;11;9426143;Bus 2 : TERREBONNE / MASCOUCHE;"";EXO;2;Terminus Terrebonne;Terminus Terrebonne
131545382;"{\"type\":\"LineString\",\"coordinates\":[[-73.6243937,45.7159304],[-73.6243107,45.716071],[-73.6242635,45.7161559]]}";8;Montée Masson;1;50;false;false;false;false;false;false;28.0;2;0;0;0;0;false;84147;6129484949;-73.627507;45.710079;84192;6129484918;-73.622694;45.718613;0;10;11;9426143;Bus 2 : TERREBONNE / MASCOUCHE;"";EXO;2;Terminus Terrebonne;Terminus Terrebonne
472893523;"{\"type\":\"LineString\",\"coordinates\":[[-73.6242635,45.7161559],[-73.6239635,45.7166602]]}";9;Montée Masson;1;50;false;false;false;false;false;false;61.0;1;0;0;0;0;false;84147;6129484949;-73.627507;45.710079;84192;6129484918;-73.622694;45.718613;0;10;11;9426143;Bus 2 : TERREBONNE / MASCOUCHE;"";EXO;2;Terminus Terrebonne;Terminus Terrebonne
409568341;"{\"type\":\"LineString\",\"coordinates\":[[-73.6239635,45.7166602],[-73.6236547,45.7171817],[-73.6235192,45.7174105],[-73.6227373,45.7187397]]}";10;Montée Masson;1;50;false;false;false;false;false;false;250.0;0;0;0;0;0;false;84147;6129484949;-73.627507;45.710079;84192;6129484918;-73.622694;45.718613;2;10;11;9426143;Bus 2 : TERREBONNE / MASCOUCHE;"";EXO;2;Terminus Terrebonne;Terminus Terrebonne
473599259;"{\"type\":\"LineString\",\"coordinates\":[[-73.6227373,45.7187397],[-73.6224907,45.7191552],[-73.6219511,45.7200641],[-73.6219307,45.7200989],[-73.6209108,45.7218122]]}";1;Montée Masson;1;50;false;false;false;false;false;false;370.0;0;0;0;0;0;false;84192;6129484918;-73.622694;45.718613;84441;6129484519;-73.620434;45.722198;2;11;12;9426143;Bus 2 : TERREBONNE / MASCOUCHE;"";EXO;2;Terminus Terrebonne;Terminus Terrebonne
473599235;"{\"type\":\"LineString\",\"coordinates\":[[-73.6209108,45.7218122],[-73.6207986,45.7218721],[-73.6204667,45.722387],[-73.6204182,45.7224535],[-73.6200874,45.7229775],[-73.6197696,45.7235371]]}";2;Montée Masson;1;50;false;true;true;false;false;false;213.0;1;0;0;0;0;false;84192;6129484918;-73.622694;45.718613;84441;6129484519;-73.620434;45.722198;2;11;12;9426143;Bus 2 : TERREBONNE / MASCOUCHE;"";EXO;2;Terminus Terrebonne;Terminus Terrebonne
473599235;"{\"type\":\"LineString\",\"coordinates\":[[-73.6209108,45.7218122],[-73.6207986,45.7218721],[-73.6204667,45.722387],[-73.6204182,45.7224535],[-73.6200874,45.7229775],[-73.6197696,45.7235371]]}";1;Montée Masson;1;50;false;true;true;false;false;false;106.5;1;0;0;0;0;false;84441;6129484519;-73.620434;45.722198;85526;6129481063;-73.618554;45.725446;1;12;13;9426143;Bus 2 : TERREBONNE / MASCOUCHE;"";EXO;2;Terminus Terrebonne;Terminus Terrebonne
680605793;"{\"type\":\"LineString\",\"coordinates\":[[-73.6197696,45.7235371],[-73.6197309,45.7236136]]}";2;Montée Masson;1;50;false;true;true;false;false;false;10.0;2;0;0;0;0;false;84441;6129484519;-73.620434;45.722198;85526;6129481063;-73.618554;45.725446;0;12;13;9426143;Bus 2 : TERREBONNE / MASCOUCHE;"";EXO;2;Terminus Terrebonne;Terminus Terrebonne
473600736;"{\"type\":\"LineString\",\"coordinates\":[[-73.6197309,45.7236136],[-73.6196082,45.7238566]]}";3;Montée Masson;1;50;false;true;true;false;false;false;29.0;1;0;0;0;0;false;84441;6129484519;-73.620434;45.722198;85526;6129481063;-73.618554;45.725446;0;12;13;9426143;Bus 2 : TERREBONNE / MASCOUCHE;"";EXO;2;Terminus Terrebonne;Terminus Terrebonne
473600735;"{\"type\":\"LineString\",\"coordinates\":[[-73.6196082,45.7238566],[-73.6192588,45.7245349],[-73.6187486,45.7254309],[-73.6183261,45.726158],[-73.6179882,45.7267326],[-73.6177116,45.7272044]]}";4;Montée Masson;1;50;false;true;true;false;false;false;200.5;1;0;0;0;0;false;84441;6129484519;-73.620434;45.722198;85526;6129481063;-73.618554;45.725446;1;12;13;9426143;Bus 2 : TERREBONNE / MASCOUCHE;"";EXO;2;Terminus Terrebonne;Terminus Terrebonne
680913812;"{\"type\":\"LineString\",\"coordinates\":[[-73.6575206,45.7265035],[-73.6575297,45.7261325],[-73.6575351,45.7259377],[-73.6575313,45.725859]]}";1;Chemin des Anglais;1;50;false;true;true;false;false;false;36.0;1;0;0;0;0;false;84620;6129484188;-73.657662;45.726336;84142;6129484954;-73.657964;45.721282;1;66;67;9426143;Bus 2 : TERREBONNE / MASCOUCHE;"";EXO;2;Terminus Terrebonne;Terminus Terrebonne
455482397;"{\"type\":\"LineString\",\"coordinates\":[[-73.6575313,45.725859],[-73.6575242,45.7254102]]}";2;Chemin des Anglais;1;50;false;true;true;false;false;false;50.0;0;0;0;0;0;false;84620;6129484188;-73.657662;45.726336;84142;6129484954;-73.657964;45.721282;0;66;67;9426143;Bus 2 : TERREBONNE / MASCOUCHE;"";EXO;2;Terminus Terrebonne;Terminus Terrebonne
455482396;"{\"type\":\"LineString\",\"coordinates\":[[-73.6575242,45.7254102],[-73.6575056,45.7248573],[-73.6574977,45.7244683],[-73.6574492,45.7242413],[-73.6574331,45.7239548],[-73.657367,45.7238876]]}";3;Chemin des Anglais;2;50;false;true;true;false;false;false;172.0;0;0;0;0;0;false;84620;6129484188;-73.657662;45.726336;84142;6129484954;-73.657964;45.721282;0;66;67;9426143;Bus 2 : TERREBONNE / MASCOUCHE;"";EXO;2;Terminus Terrebonne;Terminus Terrebonne
455482405;"{\"type\":\"LineString\",\"coordinates\":[[-73.6588368,45.7197388],[-73.65854,45.7199576],[-73.6584267,45.720093],[-73.6581919,45.7205731],[-73.6581229,45.7207252],[-73.6577839,45.7214124],[-73.6575015,45.7220883],[-73.6573852,45.7224202],[-73.6573539,45.7225413],[-73.6573368,45.7226724],[-73.6573555,45.7234229],[-73.657367,45.7238876]]}";4;Chemin des Anglais;4;50;false;false;true;false;false;false;243.0;0;0;0;0;0;false;84620;6129484188;-73.657662;45.726336;84142;6129484954;-73.657964;45.721282;1;66;67;9426143;Bus 2 : TERREBONNE / MASCOUCHE;"";EXO;2;Terminus Terrebonne;Terminus Terrebonne
455482405;"{\"type\":\"LineString\",\"coordinates\":[[-73.6588368,45.7197388],[-73.65854,45.7199576],[-73.6584267,45.720093],[-73.6581919,45.7205731],[-73.6581229,45.7207252],[-73.6577839,45.7214124],[-73.6575015,45.7220883],[-73.6573852,45.7224202],[-73.6573539,45.7225413],[-73.6573368,45.7226724],[-73.6573555,45.7234229],[-73.657367,45.7238876]]}";1;Chemin des Anglais;4;50;false;false;true;false;false;false;243.0;0;0;0;0;0;false;84142;6129484954;-73.657964;45.721282;85488;6129481585;-73.657693;45.718861;1;67;68;9426143;Bus 2 : TERREBONNE / MASCOUCHE;"";EXO;2;Terminus Terrebonne;Terminus Terrebonne
678900134;"{\"type\":\"LineString\",\"coordinates\":[[-73.6569773,45.7184906],[-73.6571129,45.7185979],[-73.6575531,45.7188768],[-73.6582981,45.7193752],[-73.6588368,45.7197388]]}";2;Chemin Gascon;1;50;false;false;true;false;false;false;100.5;0;0;0;0;0;false;84142;6129484954;-73.657964;45.721282;85488;6129481585;-73.657693;45.718861;1;67;68;9426143;Bus 2 : TERREBONNE / MASCOUCHE;"";EXO;2;Terminus Terrebonne;Terminus Terrebonne
678900134;"{\"type\":\"LineString\",\"coordinates\":[[-73.6569773,45.7184906],[-73.6571129,45.7185979],[-73.6575531,45.7188768],[-73.6582981,45.7193752],[-73.6588368,45.7197388]]}";1;Chemin Gascon;1;50;false;false;true;false;false;false;100.5;0;0;0;0;0;false;85488;6129481585;-73.657693;45.718861;84789;6129483597;-73.655343;45.71638;1;68;69;9426143;Bus 2 : TERREBONNE / MASCOUCHE;"";EXO;2;Terminus Terrebonne;Terminus Terrebonne
473290132;"{\"type\":\"LineString\",\"coordinates\":[[-73.6545518,45.7152469],[-73.6551261,45.7164157],[-73.6560712,45.7176675],[-73.6564652,45.718081],[-73.6569773,45.7184906]]}";2;Chemin Gascon;1;50;false;false;true;false;false;false;205.5;0;0;0;0;0;false;85488;6129481585;-73.657693;45.718861;84789;6129483597;-73.655343;45.71638;1;68;69;9426143;Bus 2 : TERREBONNE / MASCOUCHE;"";EXO;2;Terminus Terrebonne;Terminus Terrebonne
473290132;"{\"type\":\"LineString\",\"coordinates\":[[-73.6545518,45.7152469],[-73.6551261,45.7164157],[-73.6560712,45.7176675],[-73.6564652,45.718081],[-73.6569773,45.7184906]]}";1;Chemin Gascon;1;50;false;false;true;false;false;false;205.5;0;0;0;0;0;false;84789;6129483597;-73.655343;45.71638;84999;6129482233;-73.654335;45.7144;1;69;70;9426143;Bus 2 : TERREBONNE / MASCOUCHE;"";EXO;2;Terminus Terrebonne;Terminus Terrebonne
473290128;"{\"type\":\"LineString\",\"coordinates\":[[-73.6545518,45.7152469],[-73.654473,45.714991],[-73.6541601,45.7142556]]}";2;Chemin Gascon;1;50;false;true;true;false;false;false;57.5;0;0;0;0;0;false;84789;6129483597;-73.655343;45.71638;84999;6129482233;-73.654335;45.7144;1;69;70;9426143;Bus 2 : TERREBONNE / MASCOUCHE;"";EXO;2;Terminus Terrebonne;Terminus Terrebonne
473290128;"{\"type\":\"LineString\",\"coordinates\":[[-73.6545518,45.7152469],[-73.654473,45.714991],[-73.6541601,45.7142556]]}";1;Chemin Gascon;1;50;false;true;true;false;false;false;57.5;0;0;0;0;0;false;84999;6129482233;-73.654335;45.7144;85004;6129482229;-73.652176;45.709604;1;70;71;9426143;Bus 2 : TERREBONNE / MASCOUCHE;"";EXO;2;Terminus Terrebonne;Terminus Terrebonne
679583075;"{\"type\":\"LineString\",\"coordinates\":[[-73.6541601,45.7142556],[-73.6537803,45.7133956],[-73.6536254,45.7131908]]}";2;Chemin Gascon;1;50;false;true;true;false;false;false;126.0;0;0;0;0;0;false;84999;6129482233;-73.654335;45.7144;85004;6129482229;-73.652176;45.709604;0;70;71;9426143;Bus 2 : TERREBONNE / MASCOUCHE;"";EXO;2;Terminus Terrebonne;Terminus Terrebonne
473290135;"{\"type\":\"LineString\",\"coordinates\":[[-73.6522013,45.7100069],[-73.6522575,45.7101334],[-73.6525375,45.710764],[-73.6536254,45.7131908]]}";3;Chemin Gascon;1;50;false;false;true;false;false;false;371.0;0;0;0;0;0;false;84999;6129482233;-73.654335;45.7144;85004;6129482229;-73.652176;45.709604;0;70;71;9426143;Bus 2 : TERREBONNE / MASCOUCHE;"";EXO;2;Terminus Terrebonne;Terminus Terrebonne
472911199;"{\"type\":\"LineString\",\"coordinates\":[[-73.6522013,45.7100069],[-73.6520252,45.7094878],[-73.6518785,45.7091157]]}";4;Chemin Gascon;1;50;false;true;true;false;false;false;51.5;0;0;0;0;0;false;84999;6129482233;-73.654335;45.7144;85004;6129482229;-73.652176;45.709604;1;70;71;9426143;Bus 2 : TERREBONNE / MASCOUCHE;"";EXO;2;Terminus Terrebonne;Terminus Terrebonne
472911199;"{\"type\":\"LineString\",\"coordinates\":[[-73.6522013,45.7100069],[-73.6520252,45.7094878],[-73.6518785,45.7091157]]}";1;Chemin Gascon;1;50;false;true;true;false;false;false;51.5;0;0;0;0;0;false;85004;6129482229;-73.652176;45.709604;84841;6129482953;-73.650291;45.705495;1;71;72;9426143;Bus 2 : TERREBONNE / MASCOUCHE;"";EXO;2;Terminus Terrebonne;Terminus Terrebonne
679583074;"{\"type\":\"LineString\",\"coordinates\":[[-73.6518785,45.7091157],[-73.6518347,45.7090162]]}";2;Chemin Gascon;1;50;false;true;true;false;false;false;12.0;0;0;0;0;0;false;85004;6129482229;-73.652176;45.709604;84841;6129482953;-73.650291;45.705495;0;71;72;9426143;Bus 2 : TERREBONNE / MASCOUCHE;"";EXO;2;Terminus Terrebonne;Terminus Terrebonne
473297336;"{\"type\":\"LineString\",\"coordinates\":[[-73.6518347,45.7090162],[-73.6517627,45.7088661],[-73.6517111,45.7087551]]}";3;Boulevard Moody;1;50;false;true;true;false;false;false;31.0;0;0;0;0;0;false;85004;6129482229;-73.652176;45.709604;84841;6129482953;-73.650291;45.705495;0;71;72;9426143;Bus 2 : TERREBONNE / MASCOUCHE;"";EXO;2;Terminus Terrebonne;Terminus Terrebonne
473297337;"{\"type\":\"LineString\",\"coordinates\":[[-73.6517111,45.7087551],[-73.6515333,45.708404],[-73.6513456,45.7080458]]}";4;Boulevard Moody;1;50;false;true;true;false;false;false;84.0;0;0;0;0;0;false;85004;6129482229;-73.652176;45.709604;84841;6129482953;-73.650291;45.705495;0;71;72;9426143;Bus 2 : TERREBONNE / MASCOUCHE;"";EXO;2;Terminus Terrebonne;Terminus Terrebonne
472911205;"{\"type\":\"LineString\",\"coordinates\":[[-73.6513456,45.7080458],[-73.6510092,45.7073822]]}";5;Boulevard Moody;1;50;false;true;true;false;false;false;79.0;0;0;0;0;0;false;85004;6129482229;-73.652176;45.709604;84841;6129482953;-73.650291;45.705495;0;71;72;9426143;Bus 2 : TERREBONNE / MASCOUCHE;"";EXO;2;Terminus Terrebonne;Terminus Terrebonne
472911206;"{\"type\":\"LineString\",\"coordinates\":[[-73.6510092,45.7073822],[-73.6509814,45.7073274]]}";6;Boulevard Moody;1;50;false;true;true;false;false;false;7.0;0;0;0;0;0;false;85004;6129482229;-73.652176;45.709604;84841;6129482953;-73.650291;45.705495;0;71;72;9426143;Bus 2 : TERREBONNE / MASCOUCHE;"";EXO;2;Terminus Terrebonne;Terminus Terrebonne
472911229;"{\"type\":\"LineString\",\"coordinates\":[[-73.6509814,45.7073274],[-73.6499962,45.705384],[-73.6498862,45.705167],[-73.649522,45.7044487],[-73.649486,45.7043777],[-73.6485947,45.7026193],[-73.6485443,45.7025199],[-73.6476514,45.7007585]]}";7;Boulevard Moody;1;50;false;true;true;false;false;false;387.5;0;0;0;0;0;false;85004;6129482229;-73.652176;45.709604;84841;6129482953;-73.650291;45.705495;1;71;72;9426143;Bus 2 : TERREBONNE / MASCOUCHE;"";EXO;2;Terminus Terrebonne;Terminus Terrebonne
472911229;"{\"type\":\"LineString\",\"coordinates\":[[-73.6509814,45.7073274],[-73.6499962,45.705384],[-73.6498862,45.705167],[-73.649522,45.7044487],[-73.649486,45.7043777],[-73.6485947,45.7026193],[-73.6485443,45.7025199],[-73.6476514,45.7007585]]}";1;Boulevard Moody;1;50;false;true;true;false;false;false;387.5;0;0;0;0;0;false;84837;6129482956;-73.64921;45.70323;84875;6129482927;-73.652978;45.698038;1;73;74;9426143;Bus 2 : TERREBONNE / MASCOUCHE;"";EXO;2;Terminus Terrebonne;Terminus Terrebonne
472911225;"{\"type\":\"LineString\",\"coordinates\":[[-73.6476514,45.7007585],[-73.6476096,45.7005954],[-73.6475385,45.7004381],[-73.647501,45.7003182],[-73.6475092,45.700267],[-73.6475382,45.7002315],[-73.6476348,45.7001917],[-73.6478477,45.7001344]]}";2;"";1;50;false;true;true;false;false;false;88.0;0;0;0;0;0;false;84837;6129482956;-73.64921;45.70323;84875;6129482927;-73.652978;45.698038;0;73;74;9426143;Bus 2 : TERREBONNE / MASCOUCHE;"";EXO;2;Terminus Terrebonne;Terminus Terrebonne
32824035;"{\"type\":\"LineString\",\"coordinates\":[[-73.6478477,45.7001344],[-73.6494132,45.6999961]]}";3;Boulevard des Seigneurs;1;50;false;true;false;false;false;false;123.0;1;0;0;0;0;false;84837;6129482956;-73.64921;45.70323;84875;6129482927;-73.652978;45.698038;0;73;74;9426143;Bus 2 : TERREBONNE / MASCOUCHE;"";EXO;2;Terminus Terrebonne;Terminus Terrebonne
460511882;"{\"type\":\"LineString\",\"coordinates\":[[-73.6494132,45.6999961],[-73.6515641,45.6998436]]}";4;Boulevard des Seigneurs;1;50;false;true;false;false;false;false;169.0;1;0;0;0;0;false;84837;6129482956;-73.64921;45.70323;84875;6129482927;-73.652978;45.698038;0;73;74;9426143;Bus 2 : TERREBONNE / MASCOUCHE;"";EXO;2;Terminus Terrebonne;Terminus Terrebonne
177354202;"{\"type\":\"LineString\",\"coordinates\":[[-73.6515641,45.6998436],[-73.6522207,45.6997971]]}";5;Boulevard des Seigneurs;1;50;false;true;false;false;false;false;52.0;0;0;0;0;0;false;84837;6129482956;-73.64921;45.70323;84875;6129482927;-73.652978;45.698038;0;73;74;9426143;Bus 2 : TERREBONNE / MASCOUCHE;"";EXO;2;Terminus Terrebonne;Terminus Terrebonne
177354201;"{\"type\":\"LineString\",\"coordinates\":[[-73.6522207,45.6997971],[-73.6541584,45.6996598],[-73.6541994,45.6996569],[-73.6543243,45.699648]]}";6;Boulevard des Seigneurs;3;50;false;true;false;false;false;false;165.0;1;1;0;0;0;false;84837;6129482956;-73.64921;45.70323;84875;6129482927;-73.652978;45.698038;0;73;74;9426143;Bus 2 : TERREBONNE / MASCOUCHE;"";EXO;2;Terminus Terrebonne;Terminus Terrebonne
678903376;"{\"type\":\"LineString\",\"coordinates\":[[-73.6543243,45.699648],[-73.6543935,45.6995058]]}";7;Côte de Terrebonne;1;50;false;true;true;false;false;false;17.0;0;0;0;0;0;false;84837;6129482956;-73.64921;45.70323;84875;6129482927;-73.652978;45.698038;0;73;74;9426143;Bus 2 : TERREBONNE / MASCOUCHE;"";EXO;2;Terminus Terrebonne;Terminus Terrebonne
678900124;"{\"type\":\"LineString\",\"coordinates\":[[-73.6543935,45.6995058],[-73.6543959,45.6994455],[-73.6544061,45.6991935]]}";8;Côte de Terrebonne;2;50;false;true;true;false;false;false;35.0;0;1;0;0;0;false;84837;6129482956;-73.64921;45.70323;84875;6129482927;-73.652978;45.698038;0;73;74;9426143;Bus 2 : TERREBONNE / MASCOUCHE;"";EXO;2;Terminus Terrebonne;Terminus Terrebonne
810018731;"{\"type\":\"LineString\",\"coordinates\":[[-73.6544061,45.6991935],[-73.6544516,45.6980667]]}";9;Côte de Terrebonne;2;50;false;true;false;false;false;false;126.0;0;0;0;0;0;false;84837;6129482956;-73.64921;45.70323;84875;6129482927;-73.652978;45.698038;0;73;74;9426143;Bus 2 : TERREBONNE / MASCOUCHE;"";EXO;2;Terminus Terrebonne;Terminus Terrebonne
679579107;"{\"type\":\"LineString\",\"coordinates\":[[-73.6544516,45.6980667],[-73.6544536,45.6980164]]}";10;Côte de Terrebonne;1;50;false;true;false;false;false;false;6.0;0;0;0;0;0;false;84837;6129482956;-73.64921;45.70323;84875;6129482927;-73.652978;45.698038;0;73;74;9426143;Bus 2 : TERREBONNE / MASCOUCHE;"";EXO;2;Terminus Terrebonne;Terminus Terrebonne
810021669;"{\"type\":\"LineString\",\"coordinates\":[[-73.6544536,45.6980164],[-73.6544566,45.6979421]]}";11;Côte de Terrebonne;1;50;false;true;false;false;false;false;9.0;0;0;0;0;0;false;84837;6129482956;-73.64921;45.70323;84875;6129482927;-73.652978;45.698038;0;73;74;9426143;Bus 2 : TERREBONNE / MASCOUCHE;"";EXO;2;Terminus Terrebonne;Terminus Terrebonne
679579096;"{\"type\":\"LineString\",\"coordinates\":[[-73.6544566,45.6979421],[-73.6543098,45.6979415]]}";12;BUS;1;50;false;true;true;false;true;false;12.0;0;0;0;0;0;false;84837;6129482956;-73.64921;45.70323;84875;6129482927;-73.652978;45.698038;0;73;74;9426143;Bus 2 : TERREBONNE / MASCOUCHE;"";EXO;2;Terminus Terrebonne;Terminus Terrebonne
678900150;"{\"type\":\"LineString\",\"coordinates\":[[-73.6543098,45.6979415],[-73.654154,45.6979414],[-73.6533204,45.6979395],[-73.6532321,45.6979644],[-73.6531831,45.6979995],[-73.6531647,45.6980517],[-73.6531659,45.6981074]]}";13;BUS;1;50;false;true;true;false;true;false;103.0;0;1;0;0;0;false;84837;6129482956;-73.64921;45.70323;84875;6129482927;-73.652978;45.698038;1;73;74;9426143;Bus 2 : TERREBONNE / MASCOUCHE;"";EXO;2;Terminus Terrebonne;Terminus Terrebonne
