way_id;shape;index;name;nb_lanes;legal_speed;speed_zone_30;oneway;shares_bike;bike_box;bus_lane;dedicated_bus_lane;length;nb_traffic_signals;nb_crossings;nb_stops;nb_give_ways;nb_lvl_crossings;roundabout;stop_id_orig;node_id_orig;coord_x_orig;coord_y_orig;stop_id_dest;node_id_dest;coord_x_dest;coord_y_dest;nb_neighbouring_ways_bus_stop;ordre_orig;ordre_dest;id_line;line_name;colour;operator;ref;from;to
455498688;"{\"type\":\"LineString\",\"coordinates\":[[-73.667578,45.7255325],[-73.6668727,45.7250574],[-73.6663319,45.724704],[-73.6662021,45.7246192],[-73.6654699,45.7241221],[-73.6652089,45.72395]]}";1;Chemin Gascon;1;50;false;true;true;false;false;false;255.0;1;0;0;0;0;false;84924;6129482885;-73.665683;45.724038;84872;6129482929;-73.662465;45.72194;1;54;55;9442912;Bus 17 : TERMINUS TERREBONNE;"";EXO;17 S;Laforce / Major;Terminus Terrebonne
678900135;"{\"type\":\"LineString\",\"coordinates\":[[-73.6652089,45.72395],[-73.6642528,45.7233103],[-73.6640988,45.7232647]]}";2;Chemin Gascon;1;50;false;true;true;false;false;false;116.0;0;0;0;0;0;false;84924;6129482885;-73.665683;45.724038;84872;6129482929;-73.662465;45.72194;0;54;55;9442912;Bus 17 : TERMINUS TERREBONNE;"";EXO;17 S;Laforce / Major;Terminus Terrebonne
455498689;"{\"type\":\"LineString\",\"coordinates\":[[-73.6588368,45.7197388],[-73.65993,45.7204702],[-73.661124,45.7212658],[-73.6612549,45.7213536],[-73.6618342,45.7217409],[-73.6640988,45.7232647]]}";3;Chemin Gascon;1;50;false;false;true;false;false;false;283.5;0;0;0;0;0;false;84924;6129482885;-73.665683;45.724038;84872;6129482929;-73.662465;45.72194;1;54;55;9442912;Bus 17 : TERMINUS TERREBONNE;"";EXO;17 S;Laforce / Major;Terminus Terrebonne
455498689;"{\"type\":\"LineString\",\"coordinates\":[[-73.6588368,45.7197388],[-73.65993,45.7204702],[-73.661124,45.7212658],[-73.6612549,45.7213536],[-73.6618342,45.7217409],[-73.6640988,45.7232647]]}";1;Chemin Gascon;1;50;false;false;true;false;false;false;283.5;0;0;0;0;0;false;84754;6129483630;-73.660243;45.72055;85488;6129481585;-73.657693;45.718861;1;56;57;9442912;Bus 17 : TERMINUS TERREBONNE;"";EXO;17 S;Laforce / Major;Terminus Terrebonne
678900134;"{\"type\":\"LineString\",\"coordinates\":[[-73.6569773,45.7184906],[-73.6571129,45.7185979],[-73.6575531,45.7188768],[-73.6582981,45.7193752],[-73.6588368,45.7197388]]}";2;Chemin Gascon;1;50;false;false;true;false;false;false;100.5;0;0;0;0;0;false;84754;6129483630;-73.660243;45.72055;85488;6129481585;-73.657693;45.718861;1;56;57;9442912;Bus 17 : TERMINUS TERREBONNE;"";EXO;17 S;Laforce / Major;Terminus Terrebonne
678900134;"{\"type\":\"LineString\",\"coordinates\":[[-73.6569773,45.7184906],[-73.6571129,45.7185979],[-73.6575531,45.7188768],[-73.6582981,45.7193752],[-73.6588368,45.7197388]]}";1;Chemin Gascon;1;50;false;false;true;false;false;false;100.5;0;0;0;0;0;false;85488;6129481585;-73.657693;45.718861;84789;6129483597;-73.655343;45.71638;1;57;58;9442912;Bus 17 : TERMINUS TERREBONNE;"";EXO;17 S;Laforce / Major;Terminus Terrebonne
473290132;"{\"type\":\"LineString\",\"coordinates\":[[-73.6545518,45.7152469],[-73.6551261,45.7164157],[-73.6560712,45.7176675],[-73.6564652,45.718081],[-73.6569773,45.7184906]]}";2;Chemin Gascon;1;50;false;false;true;false;false;false;205.5;0;0;0;0;0;false;85488;6129481585;-73.657693;45.718861;84789;6129483597;-73.655343;45.71638;1;57;58;9442912;Bus 17 : TERMINUS TERREBONNE;"";EXO;17 S;Laforce / Major;Terminus Terrebonne
473290132;"{\"type\":\"LineString\",\"coordinates\":[[-73.6545518,45.7152469],[-73.6551261,45.7164157],[-73.6560712,45.7176675],[-73.6564652,45.718081],[-73.6569773,45.7184906]]}";1;Chemin Gascon;1;50;false;false;true;false;false;false;205.5;0;0;0;0;0;false;84789;6129483597;-73.655343;45.71638;84999;6129482233;-73.654335;45.7144;1;58;59;9442912;Bus 17 : TERMINUS TERREBONNE;"";EXO;17 S;Laforce / Major;Terminus Terrebonne
473290128;"{\"type\":\"LineString\",\"coordinates\":[[-73.6545518,45.7152469],[-73.654473,45.714991],[-73.6541601,45.7142556]]}";2;Chemin Gascon;1;50;false;true;true;false;false;false;57.5;0;0;0;0;0;false;84789;6129483597;-73.655343;45.71638;84999;6129482233;-73.654335;45.7144;1;58;59;9442912;Bus 17 : TERMINUS TERREBONNE;"";EXO;17 S;Laforce / Major;Terminus Terrebonne
473290128;"{\"type\":\"LineString\",\"coordinates\":[[-73.6545518,45.7152469],[-73.654473,45.714991],[-73.6541601,45.7142556]]}";1;Chemin Gascon;1;50;false;true;true;false;false;false;57.5;0;0;0;0;0;false;84999;6129482233;-73.654335;45.7144;85004;6129482229;-73.652176;45.709604;1;59;60;9442912;Bus 17 : TERMINUS TERREBONNE;"";EXO;17 S;Laforce / Major;Terminus Terrebonne
679583075;"{\"type\":\"LineString\",\"coordinates\":[[-73.6541601,45.7142556],[-73.6537803,45.7133956],[-73.6536254,45.7131908]]}";2;Chemin Gascon;1;50;false;true;true;false;false;false;126.0;0;0;0;0;0;false;84999;6129482233;-73.654335;45.7144;85004;6129482229;-73.652176;45.709604;0;59;60;9442912;Bus 17 : TERMINUS TERREBONNE;"";EXO;17 S;Laforce / Major;Terminus Terrebonne
473290135;"{\"type\":\"LineString\",\"coordinates\":[[-73.6522013,45.7100069],[-73.6522575,45.7101334],[-73.6525375,45.710764],[-73.6536254,45.7131908]]}";3;Chemin Gascon;1;50;false;false;true;false;false;false;371.0;0;0;0;0;0;false;84999;6129482233;-73.654335;45.7144;85004;6129482229;-73.652176;45.709604;0;59;60;9442912;Bus 17 : TERMINUS TERREBONNE;"";EXO;17 S;Laforce / Major;Terminus Terrebonne
472911199;"{\"type\":\"LineString\",\"coordinates\":[[-73.6522013,45.7100069],[-73.6520252,45.7094878],[-73.6518785,45.7091157]]}";4;Chemin Gascon;1;50;false;true;true;false;false;false;51.5;0;0;0;0;0;false;84999;6129482233;-73.654335;45.7144;85004;6129482229;-73.652176;45.709604;1;59;60;9442912;Bus 17 : TERMINUS TERREBONNE;"";EXO;17 S;Laforce / Major;Terminus Terrebonne
472911199;"{\"type\":\"LineString\",\"coordinates\":[[-73.6522013,45.7100069],[-73.6520252,45.7094878],[-73.6518785,45.7091157]]}";1;Chemin Gascon;1;50;false;true;true;false;false;false;51.5;0;0;0;0;0;false;85004;6129482229;-73.652176;45.709604;84841;6129482953;-73.650291;45.705495;1;60;61;9442912;Bus 17 : TERMINUS TERREBONNE;"";EXO;17 S;Laforce / Major;Terminus Terrebonne
679583074;"{\"type\":\"LineString\",\"coordinates\":[[-73.6518785,45.7091157],[-73.6518347,45.7090162]]}";2;Chemin Gascon;1;50;false;true;true;false;false;false;12.0;0;0;0;0;0;false;85004;6129482229;-73.652176;45.709604;84841;6129482953;-73.650291;45.705495;0;60;61;9442912;Bus 17 : TERMINUS TERREBONNE;"";EXO;17 S;Laforce / Major;Terminus Terrebonne
473297336;"{\"type\":\"LineString\",\"coordinates\":[[-73.6518347,45.7090162],[-73.6517627,45.7088661],[-73.6517111,45.7087551]]}";3;Boulevard Moody;1;50;false;true;true;false;false;false;31.0;0;0;0;0;0;false;85004;6129482229;-73.652176;45.709604;84841;6129482953;-73.650291;45.705495;0;60;61;9442912;Bus 17 : TERMINUS TERREBONNE;"";EXO;17 S;Laforce / Major;Terminus Terrebonne
473297337;"{\"type\":\"LineString\",\"coordinates\":[[-73.6517111,45.7087551],[-73.6515333,45.708404],[-73.6513456,45.7080458]]}";4;Boulevard Moody;1;50;false;true;true;false;false;false;84.0;0;0;0;0;0;false;85004;6129482229;-73.652176;45.709604;84841;6129482953;-73.650291;45.705495;0;60;61;9442912;Bus 17 : TERMINUS TERREBONNE;"";EXO;17 S;Laforce / Major;Terminus Terrebonne
472911205;"{\"type\":\"LineString\",\"coordinates\":[[-73.6513456,45.7080458],[-73.6510092,45.7073822]]}";5;Boulevard Moody;1;50;false;true;true;false;false;false;79.0;0;0;0;0;0;false;85004;6129482229;-73.652176;45.709604;84841;6129482953;-73.650291;45.705495;0;60;61;9442912;Bus 17 : TERMINUS TERREBONNE;"";EXO;17 S;Laforce / Major;Terminus Terrebonne
472911206;"{\"type\":\"LineString\",\"coordinates\":[[-73.6510092,45.7073822],[-73.6509814,45.7073274]]}";6;Boulevard Moody;1;50;false;true;true;false;false;false;7.0;0;0;0;0;0;false;85004;6129482229;-73.652176;45.709604;84841;6129482953;-73.650291;45.705495;0;60;61;9442912;Bus 17 : TERMINUS TERREBONNE;"";EXO;17 S;Laforce / Major;Terminus Terrebonne
472911229;"{\"type\":\"LineString\",\"coordinates\":[[-73.6509814,45.7073274],[-73.6499962,45.705384],[-73.6498862,45.705167],[-73.649522,45.7044487],[-73.649486,45.7043777],[-73.6485947,45.7026193],[-73.6485443,45.7025199],[-73.6476514,45.7007585]]}";7;Boulevard Moody;1;50;false;true;true;false;false;false;387.5;0;0;0;0;0;false;85004;6129482229;-73.652176;45.709604;84841;6129482953;-73.650291;45.705495;1;60;61;9442912;Bus 17 : TERMINUS TERREBONNE;"";EXO;17 S;Laforce / Major;Terminus Terrebonne
472911229;"{\"type\":\"LineString\",\"coordinates\":[[-73.6509814,45.7073274],[-73.6499962,45.705384],[-73.6498862,45.705167],[-73.649522,45.7044487],[-73.649486,45.7043777],[-73.6485947,45.7026193],[-73.6485443,45.7025199],[-73.6476514,45.7007585]]}";1;Boulevard Moody;1;50;false;true;true;false;false;false;387.5;0;0;0;0;0;false;84837;6129482956;-73.64921;45.70323;84875;6129482927;-73.652978;45.698038;1;62;63;9442912;Bus 17 : TERMINUS TERREBONNE;"";EXO;17 S;Laforce / Major;Terminus Terrebonne
472911225;"{\"type\":\"LineString\",\"coordinates\":[[-73.6476514,45.7007585],[-73.6476096,45.7005954],[-73.6475385,45.7004381],[-73.647501,45.7003182],[-73.6475092,45.700267],[-73.6475382,45.7002315],[-73.6476348,45.7001917],[-73.6478477,45.7001344]]}";2;"";1;50;false;true;true;false;false;false;88.0;0;0;0;0;0;false;84837;6129482956;-73.64921;45.70323;84875;6129482927;-73.652978;45.698038;0;62;63;9442912;Bus 17 : TERMINUS TERREBONNE;"";EXO;17 S;Laforce / Major;Terminus Terrebonne
32824035;"{\"type\":\"LineString\",\"coordinates\":[[-73.6478477,45.7001344],[-73.6494132,45.6999961]]}";3;Boulevard des Seigneurs;1;50;false;true;false;false;false;false;123.0;1;0;0;0;0;false;84837;6129482956;-73.64921;45.70323;84875;6129482927;-73.652978;45.698038;0;62;63;9442912;Bus 17 : TERMINUS TERREBONNE;"";EXO;17 S;Laforce / Major;Terminus Terrebonne
460511882;"{\"type\":\"LineString\",\"coordinates\":[[-73.6494132,45.6999961],[-73.6515641,45.6998436]]}";4;Boulevard des Seigneurs;1;50;false;true;false;false;false;false;169.0;1;0;0;0;0;false;84837;6129482956;-73.64921;45.70323;84875;6129482927;-73.652978;45.698038;0;62;63;9442912;Bus 17 : TERMINUS TERREBONNE;"";EXO;17 S;Laforce / Major;Terminus Terrebonne
177354202;"{\"type\":\"LineString\",\"coordinates\":[[-73.6515641,45.6998436],[-73.6522207,45.6997971]]}";5;Boulevard des Seigneurs;1;50;false;true;false;false;false;false;52.0;0;0;0;0;0;false;84837;6129482956;-73.64921;45.70323;84875;6129482927;-73.652978;45.698038;0;62;63;9442912;Bus 17 : TERMINUS TERREBONNE;"";EXO;17 S;Laforce / Major;Terminus Terrebonne
177354201;"{\"type\":\"LineString\",\"coordinates\":[[-73.6522207,45.6997971],[-73.6541584,45.6996598],[-73.6541994,45.6996569],[-73.6543243,45.699648]]}";6;Boulevard des Seigneurs;3;50;false;true;false;false;false;false;165.0;1;1;0;0;0;false;84837;6129482956;-73.64921;45.70323;84875;6129482927;-73.652978;45.698038;0;62;63;9442912;Bus 17 : TERMINUS TERREBONNE;"";EXO;17 S;Laforce / Major;Terminus Terrebonne
678903376;"{\"type\":\"LineString\",\"coordinates\":[[-73.6543243,45.699648],[-73.6543935,45.6995058]]}";7;Côte de Terrebonne;1;50;false;true;true;false;false;false;17.0;0;0;0;0;0;false;84837;6129482956;-73.64921;45.70323;84875;6129482927;-73.652978;45.698038;0;62;63;9442912;Bus 17 : TERMINUS TERREBONNE;"";EXO;17 S;Laforce / Major;Terminus Terrebonne
678900124;"{\"type\":\"LineString\",\"coordinates\":[[-73.6543935,45.6995058],[-73.6543959,45.6994455],[-73.6544061,45.6991935]]}";8;Côte de Terrebonne;2;50;false;true;true;false;false;false;35.0;0;1;0;0;0;false;84837;6129482956;-73.64921;45.70323;84875;6129482927;-73.652978;45.698038;0;62;63;9442912;Bus 17 : TERMINUS TERREBONNE;"";EXO;17 S;Laforce / Major;Terminus Terrebonne
810018731;"{\"type\":\"LineString\",\"coordinates\":[[-73.6544061,45.6991935],[-73.6544516,45.6980667]]}";9;Côte de Terrebonne;2;50;false;true;false;false;false;false;126.0;0;0;0;0;0;false;84837;6129482956;-73.64921;45.70323;84875;6129482927;-73.652978;45.698038;0;62;63;9442912;Bus 17 : TERMINUS TERREBONNE;"";EXO;17 S;Laforce / Major;Terminus Terrebonne
679579107;"{\"type\":\"LineString\",\"coordinates\":[[-73.6544516,45.6980667],[-73.6544536,45.6980164]]}";10;Côte de Terrebonne;1;50;false;true;false;false;false;false;6.0;0;0;0;0;0;false;84837;6129482956;-73.64921;45.70323;84875;6129482927;-73.652978;45.698038;0;62;63;9442912;Bus 17 : TERMINUS TERREBONNE;"";EXO;17 S;Laforce / Major;Terminus Terrebonne
810021669;"{\"type\":\"LineString\",\"coordinates\":[[-73.6544536,45.6980164],[-73.6544566,45.6979421]]}";11;Côte de Terrebonne;1;50;false;true;false;false;false;false;9.0;0;0;0;0;0;false;84837;6129482956;-73.64921;45.70323;84875;6129482927;-73.652978;45.698038;0;62;63;9442912;Bus 17 : TERMINUS TERREBONNE;"";EXO;17 S;Laforce / Major;Terminus Terrebonne
679579096;"{\"type\":\"LineString\",\"coordinates\":[[-73.6544566,45.6979421],[-73.6543098,45.6979415]]}";12;BUS;1;50;false;true;true;false;true;false;12.0;0;0;0;0;0;false;84837;6129482956;-73.64921;45.70323;84875;6129482927;-73.652978;45.698038;0;62;63;9442912;Bus 17 : TERMINUS TERREBONNE;"";EXO;17 S;Laforce / Major;Terminus Terrebonne
678900150;"{\"type\":\"LineString\",\"coordinates\":[[-73.6543098,45.6979415],[-73.654154,45.6979414],[-73.6533204,45.6979395],[-73.6532321,45.6979644],[-73.6531831,45.6979995],[-73.6531647,45.6980517],[-73.6531659,45.6981074]]}";13;BUS;1;50;false;true;true;false;true;false;103.0;0;1;0;0;0;false;84837;6129482956;-73.64921;45.70323;84875;6129482927;-73.652978;45.698038;1;62;63;9442912;Bus 17 : TERMINUS TERREBONNE;"";EXO;17 S;Laforce / Major;Terminus Terrebonne
