way_id;shape;index;name;nb_lanes;legal_speed;speed_zone_30;oneway;shares_bike;bike_box;bus_lane;dedicated_bus_lane;length;nb_traffic_signals;nb_crossings;nb_stops;nb_give_ways;nb_lvl_crossings;roundabout;stop_id_orig;node_id_orig;coord_x_orig;coord_y_orig;stop_id_dest;node_id_dest;coord_x_dest;coord_y_dest;nb_neighbouring_ways_bus_stop;ordre_orig;ordre_dest;id_line;line_name;colour;operator;ref;from;to
679942188;"{\"type\":\"LineString\",\"coordinates\":[[-73.8069824,45.5634323],[-73.8064051,45.5637123]]}";1;Rue Justin;2;50;false;false;false;false;false;false;55.0;0;0;0;0;0;false;43267;6269508868;-73.80646;45.563777;41780;6269510207;-73.80739;45.563936;1;0;1;9312748;Bus : 61 S - Direction Métro Montmorency;"";STL;61S;Justin / Face à Hydro Québec;Métro Montmorency
45797690;"{\"type\":\"LineString\",\"coordinates\":[[-73.8069824,45.5634323],[-73.8075396,45.5639775]]}";2;Rue Josue;2;50;false;false;true;false;false;false;37.5;0;0;0;0;0;false;43267;6269508868;-73.80646;45.563777;41780;6269510207;-73.80739;45.563936;1;0;1;9312748;Bus : 61 S - Direction Métro Montmorency;"";STL;61S;Justin / Face à Hydro Québec;Métro Montmorency
679942192;"{\"type\":\"LineString\",\"coordinates\":[[-73.8137682,45.5672399],[-73.8134317,45.5673984],[-73.8133275,45.5674783],[-73.8132629,45.5675528],[-73.8132253,45.5676383],[-73.8131656,45.5678637]]}";1;Rue Jacques;2;50;false;false;true;false;false;false;89.0;0;0;0;0;0;false;41776;6269510048;-73.81357;45.567204;41766;6269510011;-73.8129;45.568574;2;3;4;9312748;Bus : 61 S - Direction Métro Montmorency;"";STL;61S;Justin / Face à Hydro Québec;Métro Montmorency
477166859;"{\"type\":\"LineString\",\"coordinates\":[[-73.8131656,45.5678637],[-73.8130247,45.5684653],[-73.8130209,45.5686453],[-73.8131453,45.5688266],[-73.8132911,45.5689736],[-73.8134339,45.5691176],[-73.8140081,45.569715]]}";2;Rue Jacques;2;50;false;false;false;false;false;false;230.0;0;0;0;0;0;false;41776;6269510048;-73.81357;45.567204;41766;6269510011;-73.8129;45.568574;2;3;4;9312748;Bus : 61 S - Direction Métro Montmorency;"";STL;61S;Justin / Face à Hydro Québec;Métro Montmorency
45797711;"{\"type\":\"LineString\",\"coordinates\":[[-73.8140081,45.569715],[-73.8146063,45.5702948],[-73.8152139,45.5708837],[-73.8157855,45.5714376],[-73.8163705,45.5720046],[-73.8169932,45.5726081]]}";1;Rue Jacques;2;50;false;false;true;false;false;false;198.5;0;0;0;0;0;false;41762;6269509368;-73.81562;45.571419;41760;6269509380;-73.81714;45.572935;1;6;7;9312748;Bus : 61 S - Direction Métro Montmorency;"";STL;61S;Justin / Face à Hydro Québec;Métro Montmorency
45260170;"{\"type\":\"LineString\",\"coordinates\":[[-73.8169932,45.5726081],[-73.8170861,45.5727586],[-73.8175258,45.5732106]]}";2;Rue Jacques;1;50;false;true;true;false;false;false;40.0;0;0;0;0;0;false;41762;6269509368;-73.81562;45.571419;41760;6269509380;-73.81714;45.572935;1;6;7;9312748;Bus : 61 S - Direction Métro Montmorency;"";STL;61S;Justin / Face à Hydro Québec;Métro Montmorency
45260170;"{\"type\":\"LineString\",\"coordinates\":[[-73.8169932,45.5726081],[-73.8170861,45.5727586],[-73.8175258,45.5732106]]}";1;Rue Jacques;1;50;false;true;true;false;false;false;40.0;0;0;0;0;0;false;41760;6269509380;-73.81714;45.572935;41475;6269509341;-73.81559;45.574069;1;7;8;9312748;Bus : 61 S - Direction Métro Montmorency;"";STL;61S;Justin / Face à Hydro Québec;Métro Montmorency
673268275;"{\"type\":\"LineString\",\"coordinates\":[[-73.8175258,45.5732106],[-73.8170467,45.5734493],[-73.8167424,45.573601],[-73.815862,45.5740397],[-73.8156513,45.5741447],[-73.8155684,45.5741862],[-73.8136257,45.5751601],[-73.813617,45.5751644]]}";2;Boulevard Dagenais Ouest;2;60;false;true;false;false;false;false;187.5;0;0;0;0;0;false;41760;6269509380;-73.81714;45.572935;41475;6269509341;-73.81559;45.574069;1;7;8;9312748;Bus : 61 S - Direction Métro Montmorency;"";STL;61S;Justin / Face à Hydro Québec;Métro Montmorency
680568197;"{\"type\":\"LineString\",\"coordinates\":[[-73.813617,45.5751644],[-73.8133352,45.5753024],[-73.8118275,45.5760408],[-73.8114413,45.5762289],[-73.8113674,45.5762649],[-73.8111701,45.5763612],[-73.8106873,45.576596]]}";1;Boulevard Dagenais Ouest;2;60;false;true;false;false;false;false;279.0;0;0;0;0;0;false;41470;6269509298;-73.81372;45.575007;42439;4638144946;-73.81087;45.576912;2;9;10;9312748;Bus : 61 S - Direction Métro Montmorency;"";STL;61S;Justin / Face à Hydro Québec;Métro Montmorency
45799321;"{\"type\":\"LineString\",\"coordinates\":[[-73.8106873,45.576596],[-73.8110622,45.5769881]]}";2;Montée Montrougeau;2;50;false;false;false;false;false;false;53.0;0;0;0;0;0;false;41470;6269509298;-73.81372;45.575007;42439;4638144946;-73.81087;45.576912;2;9;10;9312748;Bus : 61 S - Direction Métro Montmorency;"";STL;61S;Justin / Face à Hydro Québec;Métro Montmorency
451900882;"{\"type\":\"LineString\",\"coordinates\":[[-73.8113797,45.5773241],[-73.8110622,45.5769881]]}";1;Montée Montrougeau;1;50;false;false;false;false;false;false;45.0;0;0;0;0;0;false;42439;4638144946;-73.81087;45.576912;42437;4633936046;-73.81198;45.578087;2;10;11;9312748;Bus : 61 S - Direction Métro Montmorency;"";STL;61S;Justin / Face à Hydro Québec;Métro Montmorency
32647914;"{\"type\":\"LineString\",\"coordinates\":[[-73.8138992,45.5798877],[-73.813499,45.5794805],[-73.8132874,45.5792652],[-73.8131811,45.5791571],[-73.8131433,45.5791186],[-73.8128475,45.5788176],[-73.8125407,45.5785054],[-73.8122955,45.578256],[-73.812166,45.5781242],[-73.8120134,45.5779689],[-73.8116436,45.5775926],[-73.8115467,45.577494],[-73.8113797,45.5773241]]}";2;Montée Montrougeau;1;50;false;false;false;false;false;false;346.0;0;0;0;0;0;false;42439;4638144946;-73.81087;45.576912;42437;4633936046;-73.81198;45.578087;2;10;11;9312748;Bus : 61 S - Direction Métro Montmorency;"";STL;61S;Justin / Face à Hydro Québec;Métro Montmorency
45799793;"{\"type\":\"LineString\",\"coordinates\":[[-73.7930016,45.5821851],[-73.7932795,45.5826781],[-73.7938625,45.5829903],[-73.7944324,45.5833114],[-73.7945701,45.5834658],[-73.7948502,45.5843548]]}";1;Rue Gilles;2;50;false;false;false;false;false;false;147.5;0;0;0;0;0;false;41677;6269508862;-73.79409;45.58303;43389;6269508918;-73.78905;45.580421;1;27;28;9312748;Bus : 61 S - Direction Métro Montmorency;"";STL;61S;Justin / Face à Hydro Québec;Métro Montmorency
679942209;"{\"type\":\"LineString\",\"coordinates\":[[-73.7930016,45.5821851],[-73.7913759,45.5824687],[-73.7899292,45.5826399]]}";2;Boulevard Gabriel;4;60;false;false;true;false;false;false;246.0;0;0;0;0;0;false;41677;6269508862;-73.79409;45.58303;43389;6269508918;-73.78905;45.580421;0;27;28;9312748;Bus : 61 S - Direction Métro Montmorency;"";STL;61S;Justin / Face à Hydro Québec;Métro Montmorency
452025687;"{\"type\":\"LineString\",\"coordinates\":[[-73.7899292,45.5826399],[-73.7896762,45.5826665]]}";3;Boulevard Gabriel;4;60;false;false;true;false;false;false;20.0;0;0;0;0;0;false;41677;6269508862;-73.79409;45.58303;43389;6269508918;-73.78905;45.580421;0;27;28;9312748;Bus : 61 S - Direction Métro Montmorency;"";STL;61S;Justin / Face à Hydro Québec;Métro Montmorency
452025685;"{\"type\":\"LineString\",\"coordinates\":[[-73.7896762,45.5826665],[-73.7896091,45.5824106]]}";4;Boulevard Curé-Labelle;2;60;false;true;true;false;false;false;29.0;0;0;0;0;0;false;41677;6269508862;-73.79409;45.58303;43389;6269508918;-73.78905;45.580421;0;27;28;9312748;Bus : 61 S - Direction Métro Montmorency;"";STL;61S;Justin / Face à Hydro Québec;Métro Montmorency
476035432;"{\"type\":\"LineString\",\"coordinates\":[[-73.7896091,45.5824106],[-73.789354,45.5816841],[-73.7891614,45.5811317],[-73.7886665,45.5795576]]}";5;Boulevard Curé-Labelle;2;60;false;true;true;false;false;false;163.0;0;0;0;0;0;false;41677;6269508862;-73.79409;45.58303;43389;6269508918;-73.78905;45.580421;1;27;28;9312748;Bus : 61 S - Direction Métro Montmorency;"";STL;61S;Justin / Face à Hydro Québec;Métro Montmorency
476035432;"{\"type\":\"LineString\",\"coordinates\":[[-73.7896091,45.5824106],[-73.789354,45.5816841],[-73.7891614,45.5811317],[-73.7886665,45.5795576]]}";1;Boulevard Curé-Labelle;2;60;false;true;true;false;false;false;163.0;0;0;0;0;0;false;43389;6269508918;-73.78905;45.580421;41451;6269508946;-73.78858;45.578911;1;28;29;9312748;Bus : 61 S - Direction Métro Montmorency;"";STL;61S;Justin / Face à Hydro Québec;Métro Montmorency
476035431;"{\"type\":\"LineString\",\"coordinates\":[[-73.7886665,45.5795576],[-73.7886418,45.5794648]]}";2;Boulevard Curé-Labelle;2;60;false;true;true;false;false;false;11.0;0;0;0;0;0;false;43389;6269508918;-73.78905;45.580421;41451;6269508946;-73.78858;45.578911;0;28;29;9312748;Bus : 61 S - Direction Métro Montmorency;"";STL;61S;Justin / Face à Hydro Québec;Métro Montmorency
430401840;"{\"type\":\"LineString\",\"coordinates\":[[-73.7886418,45.5794648],[-73.7884321,45.5788223],[-73.7884166,45.5787748],[-73.7883804,45.5786639],[-73.7883114,45.5784527],[-73.7883051,45.5784321],[-73.7881306,45.5778629],[-73.7881164,45.5778164],[-73.7878696,45.577011],[-73.7878475,45.576942],[-73.787822,45.5768555],[-73.7874144,45.5755251],[-73.7871677,45.5747328],[-73.7871071,45.5745553]]}";3;Boulevard Curé-Labelle;2;60;false;true;true;false;false;false;279.5;0;0;0;0;0;false;43389;6269508918;-73.78905;45.580421;41451;6269508946;-73.78858;45.578911;1;28;29;9312748;Bus : 61 S - Direction Métro Montmorency;"";STL;61S;Justin / Face à Hydro Québec;Métro Montmorency
430401840;"{\"type\":\"LineString\",\"coordinates\":[[-73.7886418,45.5794648],[-73.7884321,45.5788223],[-73.7884166,45.5787748],[-73.7883804,45.5786639],[-73.7883114,45.5784527],[-73.7883051,45.5784321],[-73.7881306,45.5778629],[-73.7881164,45.5778164],[-73.7878696,45.577011],[-73.7878475,45.576942],[-73.787822,45.5768555],[-73.7874144,45.5755251],[-73.7871677,45.5747328],[-73.7871071,45.5745553]]}";1;Boulevard Curé-Labelle;2;60;false;true;true;false;false;false;279.5;0;0;0;0;0;false;41449;6269508974;-73.78799;45.577098;41447;6269509343;-73.78708;45.573977;1;30;31;9312748;Bus : 61 S - Direction Métro Montmorency;"";STL;61S;Justin / Face à Hydro Québec;Métro Montmorency
451911255;"{\"type\":\"LineString\",\"coordinates\":[[-73.7871071,45.5745553],[-73.7869915,45.5742164]]}";2;Boulevard Curé-Labelle;2;60;false;true;true;false;false;false;39.0;0;0;0;0;0;false;41449;6269508974;-73.78799;45.577098;41447;6269509343;-73.78708;45.573977;0;30;31;9312748;Bus : 61 S - Direction Métro Montmorency;"";STL;61S;Justin / Face à Hydro Québec;Métro Montmorency
451911256;"{\"type\":\"LineString\",\"coordinates\":[[-73.7869915,45.5742164],[-73.786936,45.5740539],[-73.7866956,45.5735312],[-73.7866262,45.5734372],[-73.7864296,45.5731707],[-73.786112,45.5728403],[-73.7851749,45.5719451],[-73.7835703,45.5704122],[-73.7826298,45.5695136]]}";3;Boulevard Curé-Labelle;2;60;false;true;false;false;false;false;314.0;0;0;0;0;0;false;41449;6269508974;-73.78799;45.577098;41447;6269509343;-73.78708;45.573977;1;30;31;9312748;Bus : 61 S - Direction Métro Montmorency;"";STL;61S;Justin / Face à Hydro Québec;Métro Montmorency
451911256;"{\"type\":\"LineString\",\"coordinates\":[[-73.7869915,45.5742164],[-73.786936,45.5740539],[-73.7866956,45.5735312],[-73.7866262,45.5734372],[-73.7864296,45.5731707],[-73.786112,45.5728403],[-73.7851749,45.5719451],[-73.7835703,45.5704122],[-73.7826298,45.5695136]]}";1;Boulevard Curé-Labelle;2;60;false;true;false;false;false;false;314.0;0;0;0;0;0;false;46505;6269509553;-73.78376;45.570417;41607;6269509583;-73.78084;45.56898;1;32;33;9312748;Bus : 61 S - Direction Métro Montmorency;"";STL;61S;Justin / Face à Hydro Québec;Métro Montmorency
452046901;"{\"type\":\"LineString\",\"coordinates\":[[-73.7826298,45.5695136],[-73.7818832,45.5688246]]}";2;Boulevard Curé-Labelle;2;60;false;true;false;false;false;false;97.0;1;0;0;0;0;false;46505;6269509553;-73.78376;45.570417;41607;6269509583;-73.78084;45.56898;0;32;33;9312748;Bus : 61 S - Direction Métro Montmorency;"";STL;61S;Justin / Face à Hydro Québec;Métro Montmorency
679942165;"{\"type\":\"LineString\",\"coordinates\":[[-73.7818832,45.5688246],[-73.7817939,45.5687423]]}";3;Boulevard Curé-Labelle;2;60;false;true;true;false;false;false;12.0;2;0;0;0;0;false;46505;6269509553;-73.78376;45.570417;41607;6269509583;-73.78084;45.56898;0;32;33;9312748;Bus : 61 S - Direction Métro Montmorency;"";STL;61S;Justin / Face à Hydro Québec;Métro Montmorency
46203716;"{\"type\":\"LineString\",\"coordinates\":[[-73.7817939,45.5687423],[-73.7816149,45.5688107],[-73.7809883,45.5689967],[-73.7803872,45.5691291],[-73.7796374,45.5692255],[-73.7792706,45.569252],[-73.7787835,45.5692873],[-73.7780535,45.5693466],[-73.7776717,45.5693873],[-73.7766841,45.56951]]}";4;Boulevard Saint-Elzéar Ouest;2;50;false;true;true;false;false;false;205.5;2;0;0;0;0;false;46505;6269509553;-73.78376;45.570417;41607;6269509583;-73.78084;45.56898;1;32;33;9312748;Bus : 61 S - Direction Métro Montmorency;"";STL;61S;Justin / Face à Hydro Québec;Métro Montmorency
46203716;"{\"type\":\"LineString\",\"coordinates\":[[-73.7817939,45.5687423],[-73.7816149,45.5688107],[-73.7809883,45.5689967],[-73.7803872,45.5691291],[-73.7796374,45.5692255],[-73.7792706,45.569252],[-73.7787835,45.5692873],[-73.7780535,45.5693466],[-73.7776717,45.5693873],[-73.7766841,45.56951]]}";1;Boulevard Saint-Elzéar Ouest;2;50;false;true;true;false;false;false;205.5;2;0;0;0;0;false;41607;6269509583;-73.78084;45.56898;45026;6269509564;-73.77607;45.569495;1;33;34;9312748;Bus : 61 S - Direction Métro Montmorency;"";STL;61S;Justin / Face à Hydro Québec;Métro Montmorency
32541336;"{\"type\":\"LineString\",\"coordinates\":[[-73.7766841,45.56951],[-73.7765306,45.5695175],[-73.7757989,45.5695547],[-73.7755569,45.5695665],[-73.7747115,45.5696128],[-73.7738751,45.5697242],[-73.7730568,45.56985],[-73.7721961,45.5700978],[-73.7716422,45.5703282],[-73.7712865,45.5704758]]}";2;Boulevard Saint-Elzéar Ouest;2;50;false;true;true;false;false;false;221.0;0;0;0;0;0;false;41607;6269509583;-73.78084;45.56898;45026;6269509564;-73.77607;45.569495;1;33;34;9312748;Bus : 61 S - Direction Métro Montmorency;"";STL;61S;Justin / Face à Hydro Québec;Métro Montmorency
545696725;"{\"type\":\"LineString\",\"coordinates\":[[-73.7712865,45.5704758],[-73.7702775,45.5709734],[-73.7698736,45.5711815],[-73.7689646,45.5717202]]}";1;Boulevard Saint-Elzéar Ouest;2;50;false;true;true;false;false;false;228.0;0;0;0;0;0;false;41604;6269509550;-73.77139;45.570382;43984;6269509501;-73.76859;45.571521;2;36;37;9312748;Bus : 61 S - Direction Métro Montmorency;"";STL;61S;Justin / Face à Hydro Québec;Métro Montmorency
679314327;"{\"type\":\"LineString\",\"coordinates\":[[-73.7689646,45.5717202],[-73.7687846,45.5718199]]}";2;Boulevard Saint-Elzéar Ouest;2;50;false;true;true;false;false;false;18.0;0;0;0;0;0;false;41604;6269509550;-73.77139;45.570382;43984;6269509501;-73.76859;45.571521;0;36;37;9312748;Bus : 61 S - Direction Métro Montmorency;"";STL;61S;Justin / Face à Hydro Québec;Métro Montmorency
45797190;"{\"type\":\"LineString\",\"coordinates\":[[-73.7687846,45.5718199],[-73.7677286,45.5706667],[-73.7676382,45.570568],[-73.7665775,45.5696248],[-73.7662896,45.5693688]]}";3;Boulevard Chomedey;3;60;false;true;false;false;false;false;336.0;0;0;0;0;0;false;41604;6269509550;-73.77139;45.570382;43984;6269509501;-73.76859;45.571521;2;36;37;9312748;Bus : 61 S - Direction Métro Montmorency;"";STL;61S;Justin / Face à Hydro Québec;Métro Montmorency
45797190;"{\"type\":\"LineString\",\"coordinates\":[[-73.7687846,45.5718199],[-73.7677286,45.5706667],[-73.7676382,45.570568],[-73.7665775,45.5696248],[-73.7662896,45.5693688]]}";1;Boulevard Chomedey;3;60;false;true;false;false;false;false;168.0;0;0;0;0;0;false;41295;6269509537;-73.76758;45.570389;41771;6269510058;-73.76058;45.565277;1;38;39;9312748;Bus : 61 S - Direction Métro Montmorency;"";STL;61S;Justin / Face à Hydro Québec;Métro Montmorency
45798945;"{\"type\":\"LineString\",\"coordinates\":[[-73.7662896,45.5693688],[-73.7658805,45.5690085],[-73.7648599,45.5681077],[-73.7646841,45.5679437],[-73.7644327,45.567716],[-73.7643576,45.5676342]]}";2;Boulevard Chomedey;3;60;false;true;false;false;false;false;245.0;1;0;0;0;0;false;41295;6269509537;-73.76758;45.570389;41771;6269510058;-73.76058;45.565277;0;38;39;9312748;Bus : 61 S - Direction Métro Montmorency;"";STL;61S;Justin / Face à Hydro Québec;Métro Montmorency
45798962;"{\"type\":\"LineString\",\"coordinates\":[[-73.7643576,45.5676342],[-73.7641814,45.5674882],[-73.7631767,45.5665799]]}";3;Boulevard Chomedey;3;60;false;true;false;false;false;false;149.0;0;0;0;0;0;false;41295;6269509537;-73.76758;45.570389;41771;6269510058;-73.76058;45.565277;0;38;39;9312748;Bus : 61 S - Direction Métro Montmorency;"";STL;61S;Justin / Face à Hydro Québec;Métro Montmorency
45798880;"{\"type\":\"LineString\",\"coordinates\":[[-73.7631767,45.5665799],[-73.7622089,45.5656937]]}";4;Boulevard Chomedey;3;60;false;true;false;false;false;false;125.0;0;0;0;0;0;false;41295;6269509537;-73.76758;45.570389;41771;6269510058;-73.76058;45.565277;0;38;39;9312748;Bus : 61 S - Direction Métro Montmorency;"";STL;61S;Justin / Face à Hydro Québec;Métro Montmorency
475840977;"{\"type\":\"LineString\",\"coordinates\":[[-73.7622089,45.5656937],[-73.762133,45.5656278],[-73.7614341,45.5650207]]}";5;Boulevard Chomedey;3;60;false;true;false;false;false;false;97.0;0;0;0;0;0;false;41295;6269509537;-73.76758;45.570389;41771;6269510058;-73.76058;45.565277;0;38;39;9312748;Bus : 61 S - Direction Métro Montmorency;"";STL;61S;Justin / Face à Hydro Québec;Métro Montmorency
475840975;"{\"type\":\"LineString\",\"coordinates\":[[-73.7614341,45.5650207],[-73.7613315,45.5649317]]}";6;Boulevard Chomedey;3;60;false;true;false;false;false;false;13.0;0;0;0;0;0;false;41295;6269509537;-73.76758;45.570389;41771;6269510058;-73.76058;45.565277;0;38;39;9312748;Bus : 61 S - Direction Métro Montmorency;"";STL;61S;Justin / Face à Hydro Québec;Métro Montmorency
475840971;"{\"type\":\"LineString\",\"coordinates\":[[-73.7613315,45.5649317],[-73.7611732,45.5650074]]}";7;Avenue Jean Béraud;2;50;false;true;true;false;false;false;15.0;0;0;0;0;0;false;41295;6269509537;-73.76758;45.570389;41771;6269510058;-73.76058;45.565277;0;38;39;9312748;Bus : 61 S - Direction Métro Montmorency;"";STL;61S;Justin / Face à Hydro Québec;Métro Montmorency
188380305;"{\"type\":\"LineString\",\"coordinates\":[[-73.7611732,45.5650074],[-73.7603816,45.5654578],[-73.7601765,45.5657426],[-73.7601436,45.5657883],[-73.7598387,45.5663244],[-73.7594771,45.5669602],[-73.7594047,45.567074],[-73.759278,45.5672731],[-73.7591335,45.5674335],[-73.7589638,45.5675757],[-73.7586519,45.5677703],[-73.7574581,45.5684414],[-73.7571199,45.5686094]]}";8;Avenue Jean Béraud;2;50;false;true;true;false;false;false;262.5;1;0;0;0;0;false;41295;6269509537;-73.76758;45.570389;41771;6269510058;-73.76058;45.565277;1;38;39;9312748;Bus : 61 S - Direction Métro Montmorency;"";STL;61S;Justin / Face à Hydro Québec;Métro Montmorency
188380305;"{\"type\":\"LineString\",\"coordinates\":[[-73.7611732,45.5650074],[-73.7603816,45.5654578],[-73.7601765,45.5657426],[-73.7601436,45.5657883],[-73.7598387,45.5663244],[-73.7594771,45.5669602],[-73.7594047,45.567074],[-73.759278,45.5672731],[-73.7591335,45.5674335],[-73.7589638,45.5675757],[-73.7586519,45.5677703],[-73.7574581,45.5684414],[-73.7571199,45.5686094]]}";1;Avenue Jean Béraud;2;50;false;true;true;false;false;false;262.5;1;0;0;0;0;false;41769;6269510004;-73.75744;45.568361;41511;6269510022;-73.75594;45.56742;1;41;42;9312748;Bus : 61 S - Direction Métro Montmorency;"";STL;61S;Justin / Face à Hydro Québec;Métro Montmorency
453771456;"{\"type\":\"LineString\",\"coordinates\":[[-73.7571199,45.5686094],[-73.7569349,45.5684445],[-73.7561995,45.5677932],[-73.75556,45.5672267],[-73.7554726,45.5671493],[-73.7553859,45.5670725],[-73.7544924,45.5662812],[-73.7537138,45.5655915]]}";2;Boulevard Daniel-Johnson;2;60;false;true;false;false;false;false;214.0;4;0;0;0;0;false;41769;6269510004;-73.75744;45.568361;41511;6269510022;-73.75594;45.56742;1;41;42;9312748;Bus : 61 S - Direction Métro Montmorency;"";STL;61S;Justin / Face à Hydro Québec;Métro Montmorency
453771456;"{\"type\":\"LineString\",\"coordinates\":[[-73.7571199,45.5686094],[-73.7569349,45.5684445],[-73.7561995,45.5677932],[-73.75556,45.5672267],[-73.7554726,45.5671493],[-73.7553859,45.5670725],[-73.7544924,45.5662812],[-73.7537138,45.5655915]]}";1;Boulevard Daniel-Johnson;2;60;false;true;false;false;false;false;214.0;4;0;0;0;0;false;41511;6269510022;-73.75594;45.56742;43296;6269509995;-73.75266;45.566085;1;42;43;9312748;Bus : 61 S - Direction Métro Montmorency;"";STL;61S;Justin / Face à Hydro Québec;Métro Montmorency
684308398;"{\"type\":\"LineString\",\"coordinates\":[[-73.7537138,45.5655915],[-73.7535894,45.5654874]]}";2;Boulevard Daniel-Johnson;2;60;false;true;false;false;false;false;16.0;2;0;0;0;0;false;41511;6269510022;-73.75594;45.56742;43296;6269509995;-73.75266;45.566085;0;42;43;9312748;Bus : 61 S - Direction Métro Montmorency;"";STL;61S;Justin / Face à Hydro Québec;Métro Montmorency
455472716;"{\"type\":\"LineString\",\"coordinates\":[[-73.7535894,45.5654874],[-73.7534246,45.5656112]]}";3;Boulevard Le Carrefour;2;50;false;true;true;false;false;false;19.0;2;0;0;0;0;false;41511;6269510022;-73.75594;45.56742;43296;6269509995;-73.75266;45.566085;0;42;43;9312748;Bus : 61 S - Direction Métro Montmorency;"";STL;61S;Justin / Face à Hydro Québec;Métro Montmorency
455472714;"{\"type\":\"LineString\",\"coordinates\":[[-73.7534246,45.5656112],[-73.7531331,45.5658189]]}";4;Boulevard Le Carrefour;2;50;false;true;true;false;false;false;33.0;1;0;0;0;0;false;41511;6269510022;-73.75594;45.56742;43296;6269509995;-73.75266;45.566085;0;42;43;9312748;Bus : 61 S - Direction Métro Montmorency;"";STL;61S;Justin / Face à Hydro Québec;Métro Montmorency
45755845;"{\"type\":\"LineString\",\"coordinates\":[[-73.7531331,45.5658189],[-73.7530943,45.5658466],[-73.752082,45.5666123],[-73.752034,45.5666486],[-73.751984,45.5666864],[-73.7514521,45.5670888],[-73.7512257,45.5672491],[-73.7508536,45.5674963],[-73.7507569,45.5675681],[-73.7501092,45.568049],[-73.7499936,45.5681349],[-73.7497084,45.5683231],[-73.749603,45.5683977]]}";5;Boulevard Le Carrefour;2;50;false;true;true;false;false;false;199.0;3;1;0;0;0;false;41511;6269510022;-73.75594;45.56742;43296;6269509995;-73.75266;45.566085;1;42;43;9312748;Bus : 61 S - Direction Métro Montmorency;"";STL;61S;Justin / Face à Hydro Québec;Métro Montmorency
45755845;"{\"type\":\"LineString\",\"coordinates\":[[-73.7531331,45.5658189],[-73.7530943,45.5658466],[-73.752082,45.5666123],[-73.752034,45.5666486],[-73.751984,45.5666864],[-73.7514521,45.5670888],[-73.7512257,45.5672491],[-73.7508536,45.5674963],[-73.7507569,45.5675681],[-73.7501092,45.568049],[-73.7499936,45.5681349],[-73.7497084,45.5683231],[-73.749603,45.5683977]]}";1;Boulevard Le Carrefour;2;50;false;true;true;false;false;false;199.0;3;1;0;0;0;false;46470;6269510014;-73.75052;45.567593;"44161;44163";6269509584;-73.7483;45.568594;1;44;45;9312748;Bus : 61 S - Direction Métro Montmorency;"";STL;61S;Justin / Face à Hydro Québec;Métro Montmorency
684308382;"{\"type\":\"LineString\",\"coordinates\":[[-73.749603,45.5683977],[-73.7494872,45.5684757],[-73.749474,45.5684846],[-73.7490509,45.5687693],[-73.7488748,45.5688878],[-73.7486183,45.5690313],[-73.7486118,45.5690349],[-73.7482908,45.5692144],[-73.7481645,45.5692712],[-73.7480536,45.5693169]]}";2;Boulevard Le Carrefour;2;50;false;true;true;false;false;false;159.0;2;3;0;0;0;false;46470;6269510014;-73.75052;45.567593;"44161;44163";6269509584;-73.7483;45.568594;0;44;45;9312748;Bus : 61 S - Direction Métro Montmorency;"";STL;61S;Justin / Face à Hydro Québec;Métro Montmorency
45760900;"{\"type\":\"LineString\",\"coordinates\":[[-73.7480536,45.5693169],[-73.7477738,45.569102],[-73.7477012,45.5690397],[-73.7476345,45.569001],[-73.747466,45.5689034],[-73.7473901,45.5688594],[-73.7472267,45.5687802],[-73.7470932,45.5687155]]}";3;Avenue Terry Fox;2;50;false;false;false;false;false;false;101.0;1;0;0;0;0;false;46470;6269510014;-73.75052;45.567593;"44161;44163";6269509584;-73.7483;45.568594;0;44;45;9312748;Bus : 61 S - Direction Métro Montmorency;"";STL;61S;Justin / Face à Hydro Québec;Métro Montmorency
662152608;"{\"type\":\"LineString\",\"coordinates\":[[-73.7475508,45.5684635],[-73.7470932,45.5687155]]}";4;"";1;50;false;false;true;false;false;false;46.0;0;0;0;0;0;false;46470;6269510014;-73.75052;45.567593;"44161;44163";6269509584;-73.7483;45.568594;0;44;45;9312748;Bus : 61 S - Direction Métro Montmorency;"";STL;61S;Justin / Face à Hydro Québec;Métro Montmorency
694409796;"{\"type\":\"LineString\",\"coordinates\":[[-73.7475508,45.5684635],[-73.7478552,45.5687373]]}";5;"";1;50;false;true;true;false;false;false;39.0;0;0;0;0;0;false;46470;6269510014;-73.75052;45.567593;"44161;44163";6269509584;-73.7483;45.568594;0;44;45;9312748;Bus : 61 S - Direction Métro Montmorency;"";STL;61S;Justin / Face à Hydro Québec;Métro Montmorency
695760828;"{\"type\":\"LineString\",\"coordinates\":[[-73.7478552,45.5687373],[-73.7480061,45.5688715]]}";6;"";1;50;false;true;true;false;false;false;19.0;0;0;0;0;0;false;46470;6269510014;-73.75052;45.567593;"44161;44163";6269509584;-73.7483;45.568594;0;44;45;9312748;Bus : 61 S - Direction Métro Montmorency;"";STL;61S;Justin / Face à Hydro Québec;Métro Montmorency
292376886;"{\"type\":\"LineString\",\"coordinates\":[[-73.7480061,45.5688715],[-73.7480552,45.5689096],[-73.7481617,45.5689162],[-73.7483174,45.5688443]]}";7;"";1;50;false;true;true;false;false;false;29.0;0;0;0;0;0;false;46470;6269510014;-73.75052;45.567593;"44161;44163";6269509584;-73.7483;45.568594;0;44;45;9312748;Bus : 61 S - Direction Métro Montmorency;"";STL;61S;Justin / Face à Hydro Québec;Métro Montmorency
678350780;"{\"type\":\"LineString\",\"coordinates\":[[-73.7483174,45.5688443],[-73.7483189,45.5687593],[-73.7481831,45.5686551],[-73.7480275,45.5685377]]}";8;"";1;50;false;true;true;false;false;false;21.5;0;0;0;0;0;false;46470;6269510014;-73.75052;45.567593;"44161;44163";6269509584;-73.7483;45.568594;1;44;45;9312748;Bus : 61 S - Direction Métro Montmorency;"";STL;61S;Justin / Face à Hydro Québec;Métro Montmorency
678350780;"{\"type\":\"LineString\",\"coordinates\":[[-73.7483174,45.5688443],[-73.7483189,45.5687593],[-73.7481831,45.5686551],[-73.7480275,45.5685377]]}";1;"";1;50;false;true;true;false;false;false;21.5;0;0;0;0;0;false;"44161;44163";6269509584;-73.7483;45.568594;43385;6269510012;-73.74612;45.567828;1;45;46;9312748;Bus : 61 S - Direction Métro Montmorency;"";STL;61S;Justin / Face à Hydro Québec;Métro Montmorency
292376886;"{\"type\":\"LineString\",\"coordinates\":[[-73.7480061,45.5688715],[-73.7480552,45.5689096],[-73.7481617,45.5689162],[-73.7483174,45.5688443]]}";2;"";1;50;false;true;true;false;false;false;29.0;0;0;0;0;0;false;"44161;44163";6269509584;-73.7483;45.568594;43385;6269510012;-73.74612;45.567828;0;45;46;9312748;Bus : 61 S - Direction Métro Montmorency;"";STL;61S;Justin / Face à Hydro Québec;Métro Montmorency
695760828;"{\"type\":\"LineString\",\"coordinates\":[[-73.7478552,45.5687373],[-73.7480061,45.5688715]]}";3;"";1;50;false;true;true;false;false;false;19.0;0;0;0;0;0;false;"44161;44163";6269509584;-73.7483;45.568594;43385;6269510012;-73.74612;45.567828;0;45;46;9312748;Bus : 61 S - Direction Métro Montmorency;"";STL;61S;Justin / Face à Hydro Québec;Métro Montmorency
694409796;"{\"type\":\"LineString\",\"coordinates\":[[-73.7475508,45.5684635],[-73.7478552,45.5687373]]}";4;"";1;50;false;true;true;false;false;false;39.0;0;0;0;0;0;false;"44161;44163";6269509584;-73.7483;45.568594;43385;6269510012;-73.74612;45.567828;0;45;46;9312748;Bus : 61 S - Direction Métro Montmorency;"";STL;61S;Justin / Face à Hydro Québec;Métro Montmorency
662152608;"{\"type\":\"LineString\",\"coordinates\":[[-73.7475508,45.5684635],[-73.7470932,45.5687155]]}";5;"";1;50;false;false;true;false;false;false;46.0;0;0;0;0;0;false;"44161;44163";6269509584;-73.7483;45.568594;43385;6269510012;-73.74612;45.567828;0;45;46;9312748;Bus : 61 S - Direction Métro Montmorency;"";STL;61S;Justin / Face à Hydro Québec;Métro Montmorency
652947075;"{\"type\":\"LineString\",\"coordinates\":[[-73.7470932,45.5687155],[-73.7468322,45.568589],[-73.7464567,45.5683412],[-73.7463387,45.5682322],[-73.7462207,45.5681233],[-73.7460383,45.5679055],[-73.7459632,45.5677703]]}";6;Avenue Terry Fox;2;50;false;false;false;false;false;false;70.0;0;0;0;0;0;false;"44161;44163";6269509584;-73.7483;45.568594;43385;6269510012;-73.74612;45.567828;1;45;46;9312748;Bus : 61 S - Direction Métro Montmorency;"";STL;61S;Justin / Face à Hydro Québec;Métro Montmorency
533027294;"{\"type\":\"LineString\",\"coordinates\":[[-73.7459632,45.5677703],[-73.7458747,45.5676255],[-73.7457673,45.567501],[-73.7445105,45.5663572],[-73.7440327,45.5659183],[-73.7438029,45.565733]]}";1;Avenue Terry Fox;2;50;false;false;false;false;false;false;141.5;0;0;0;0;0;false;43386;6269510044;-73.74471;45.566381;46531;6269510055;-73.74473;45.565218;1;47;48;9312748;Bus : 61 S - Direction Métro Montmorency;"";STL;61S;Justin / Face à Hydro Québec;Métro Montmorency
100163297;"{\"type\":\"LineString\",\"coordinates\":[[-73.7457923,45.5644932],[-73.7453673,45.5647484],[-73.7452639,45.5648074],[-73.7445476,45.565216],[-73.7438029,45.565733]]}";2;Avenue du Cosmodôme;1;50;false;false;false;false;false;false;104.0;0;0;0;0;0;false;43386;6269510044;-73.74471;45.566381;46531;6269510055;-73.74473;45.565218;1;47;48;9312748;Bus : 61 S - Direction Métro Montmorency;"";STL;61S;Justin / Face à Hydro Québec;Métro Montmorency
100163297;"{\"type\":\"LineString\",\"coordinates\":[[-73.7457923,45.5644932],[-73.7453673,45.5647484],[-73.7452639,45.5648074],[-73.7445476,45.565216],[-73.7438029,45.565733]]}";1;Avenue du Cosmodôme;1;50;false;false;false;false;false;false;104.0;0;0;0;0;0;false;46531;6269510055;-73.74473;45.565218;43979;6269510205;-73.74493;45.563548;1;48;49;9312748;Bus : 61 S - Direction Métro Montmorency;"";STL;61S;Justin / Face à Hydro Québec;Métro Montmorency
45755861;"{\"type\":\"LineString\",\"coordinates\":[[-73.743441,45.5623716],[-73.7438281,45.5627209],[-73.7446913,45.5635061],[-73.7457923,45.5644932]]}";2;Avenue Pierre Péladeau;4;50;false;false;false;false;false;false;149.5;0;0;0;0;0;false;46531;6269510055;-73.74473;45.565218;43979;6269510205;-73.74493;45.563548;1;48;49;9312748;Bus : 61 S - Direction Métro Montmorency;"";STL;61S;Justin / Face à Hydro Québec;Métro Montmorency
45755861;"{\"type\":\"LineString\",\"coordinates\":[[-73.743441,45.5623716],[-73.7438281,45.5627209],[-73.7446913,45.5635061],[-73.7457923,45.5644932]]}";1;Avenue Pierre Péladeau;4;50;false;false;false;false;false;false;149.5;0;0;0;0;0;false;43979;6269510205;-73.74493;45.563548;43387;6269510252;-73.74319;45.562031;1;49;50;9312748;Bus : 61 S - Direction Métro Montmorency;"";STL;61S;Justin / Face à Hydro Québec;Métro Montmorency
452046892;"{\"type\":\"LineString\",\"coordinates\":[[-73.743441,45.5623716],[-73.7433541,45.5622339],[-73.7429894,45.5618965],[-73.7415826,45.5605985]]}";2;Avenue Pierre Péladeau;2;50;false;true;false;false;false;false;122.5;1;0;0;0;0;false;43979;6269510205;-73.74493;45.563548;43387;6269510252;-73.74319;45.562031;1;49;50;9312748;Bus : 61 S - Direction Métro Montmorency;"";STL;61S;Justin / Face à Hydro Québec;Métro Montmorency
452046892;"{\"type\":\"LineString\",\"coordinates\":[[-73.743441,45.5623716],[-73.7433541,45.5622339],[-73.7429894,45.5618965],[-73.7415826,45.5605985]]}";1;Avenue Pierre Péladeau;2;50;false;true;false;false;false;false;122.5;1;0;0;0;0;false;43387;6269510252;-73.74319;45.562031;46422;6269510280;-73.74042;45.560903;1;50;51;9312748;Bus : 61 S - Direction Métro Montmorency;"";STL;61S;Justin / Face à Hydro Québec;Métro Montmorency
574748074;"{\"type\":\"LineString\",\"coordinates\":[[-73.7415826,45.5605985],[-73.7414253,45.5604534]]}";2;Avenue Pierre Péladeau;2;50;false;true;false;false;false;false;21.0;2;0;0;0;0;false;43387;6269510252;-73.74319;45.562031;46422;6269510280;-73.74042;45.560903;0;50;51;9312748;Bus : 61 S - Direction Métro Montmorency;"";STL;61S;Justin / Face à Hydro Québec;Métro Montmorency
452046908;"{\"type\":\"LineString\",\"coordinates\":[[-73.7414253,45.5604534],[-73.7412669,45.5605456]]}";3;Boulevard Saint-Martin Ouest;3;60;false;true;false;false;false;false;17.0;2;0;0;0;0;false;43387;6269510252;-73.74319;45.562031;46422;6269510280;-73.74042;45.560903;0;50;51;9312748;Bus : 61 S - Direction Métro Montmorency;"";STL;61S;Justin / Face à Hydro Québec;Métro Montmorency
452077090;"{\"type\":\"LineString\",\"coordinates\":[[-73.7412669,45.5605456],[-73.7399489,45.5613172],[-73.7388671,45.5619505]]}";4;Boulevard Saint-Martin Ouest;3;60;false;true;false;false;false;false;122.0;2;0;0;0;0;false;43387;6269510252;-73.74319;45.562031;46422;6269510280;-73.74042;45.560903;1;50;51;9312748;Bus : 61 S - Direction Métro Montmorency;"";STL;61S;Justin / Face à Hydro Québec;Métro Montmorency
452077090;"{\"type\":\"LineString\",\"coordinates\":[[-73.7412669,45.5605456],[-73.7399489,45.5613172],[-73.7388671,45.5619505]]}";1;Boulevard Saint-Martin Ouest;3;60;false;true;false;false;false;false;122.0;2;0;0;0;0;false;46422;6269510280;-73.74042;45.560903;42832;6269510080;-73.73331;45.564697;1;51;52;9312748;Bus : 61 S - Direction Métro Montmorency;"";STL;61S;Justin / Face à Hydro Québec;Métro Montmorency
452077088;"{\"type\":\"LineString\",\"coordinates\":[[-73.7388671,45.5619505],[-73.7382249,45.5622947]]}";2;Boulevard Saint-Martin Ouest;3;60;false;true;false;false;false;false;64.0;1;0;0;0;0;false;46422;6269510280;-73.74042;45.560903;42832;6269510080;-73.73331;45.564697;0;51;52;9312748;Bus : 61 S - Direction Métro Montmorency;"";STL;61S;Justin / Face à Hydro Québec;Métro Montmorency
455478646;"{\"type\":\"LineString\",\"coordinates\":[[-73.7382249,45.5622947],[-73.7361585,45.5633446]]}";3;Boulevard Saint-Martin Ouest;3;60;false;true;false;false;false;false;199.0;0;0;0;0;0;false;46422;6269510280;-73.74042;45.560903;42832;6269510080;-73.73331;45.564697;0;51;52;9312748;Bus : 61 S - Direction Métro Montmorency;"";STL;61S;Justin / Face à Hydro Québec;Métro Montmorency
574706910;"{\"type\":\"LineString\",\"coordinates\":[[-73.7361585,45.5633446],[-73.7352287,45.5638079]]}";4;Boulevard Saint-Martin Ouest;3;60;false;true;false;false;false;false;89.0;0;0;0;0;0;false;46422;6269510280;-73.74042;45.560903;42832;6269510080;-73.73331;45.564697;0;51;52;9312748;Bus : 61 S - Direction Métro Montmorency;"";STL;61S;Justin / Face à Hydro Québec;Métro Montmorency
455478643;"{\"type\":\"LineString\",\"coordinates\":[[-73.7352287,45.5638079],[-73.7349072,45.563967]]}";5;Boulevard Saint-Martin Ouest;3;60;false;true;false;false;false;false;31.0;0;0;0;0;0;false;46422;6269510280;-73.74042;45.560903;42832;6269510080;-73.73331;45.564697;0;51;52;9312748;Bus : 61 S - Direction Métro Montmorency;"";STL;61S;Justin / Face à Hydro Québec;Métro Montmorency
452077092;"{\"type\":\"LineString\",\"coordinates\":[[-73.7349072,45.563967],[-73.7346463,45.5641031],[-73.7339199,45.5645012],[-73.7330966,45.5649674],[-73.7330171,45.5650101],[-73.7329129,45.565066]]}";6;Boulevard Saint-Martin Ouest;3;60;false;true;false;false;false;false;99.0;0;0;0;0;0;false;46422;6269510280;-73.74042;45.560903;42832;6269510080;-73.73331;45.564697;1;51;52;9312748;Bus : 61 S - Direction Métro Montmorency;"";STL;61S;Justin / Face à Hydro Québec;Métro Montmorency
452077092;"{\"type\":\"LineString\",\"coordinates\":[[-73.7349072,45.563967],[-73.7346463,45.5641031],[-73.7339199,45.5645012],[-73.7330966,45.5649674],[-73.7330171,45.5650101],[-73.7329129,45.565066]]}";1;Boulevard Saint-Martin Ouest;3;60;false;true;false;false;false;false;99.0;0;0;0;0;0;false;42832;6269510080;-73.73331;45.564697;41958;6269510083;-73.73102;45.563894;1;52;53;9312748;Bus : 61 S - Direction Métro Montmorency;"";STL;61S;Justin / Face à Hydro Québec;Métro Montmorency
452077085;"{\"type\":\"LineString\",\"coordinates\":[[-73.7329129,45.565066],[-73.7325888,45.565235]]}";2;Boulevard Saint-Martin Ouest;3;60;false;true;false;false;false;false;32.0;1;0;0;0;0;false;42832;6269510080;-73.73331;45.564697;41958;6269510083;-73.73102;45.563894;0;52;53;9312748;Bus : 61 S - Direction Métro Montmorency;"";STL;61S;Justin / Face à Hydro Québec;Métro Montmorency
679314218;"{\"type\":\"LineString\",\"coordinates\":[[-73.7325888,45.565235],[-73.7324832,45.5652926]]}";3;Boulevard Saint-Martin Ouest;3;60;false;true;false;false;false;false;11.0;1;0;0;0;0;false;42832;6269510080;-73.73331;45.564697;41958;6269510083;-73.73102;45.563894;0;52;53;9312748;Bus : 61 S - Direction Métro Montmorency;"";STL;61S;Justin / Face à Hydro Québec;Métro Montmorency
679314213;"{\"type\":\"LineString\",\"coordinates\":[[-73.7324832,45.5652926],[-73.731199,45.5641242],[-73.7288698,45.5620685],[-73.727183,45.5605226],[-73.72707,45.5604132]]}";4;Voie réservée - boulevard Le Corbusier;1;50;false;true;true;false;true;false;344.0;0;0;0;0;0;false;42832;6269510080;-73.73331;45.564697;41958;6269510083;-73.73102;45.563894;1;52;53;9312748;Bus : 61 S - Direction Métro Montmorency;"";STL;61S;Justin / Face à Hydro Québec;Métro Montmorency
679314213;"{\"type\":\"LineString\",\"coordinates\":[[-73.7324832,45.5652926],[-73.731199,45.5641242],[-73.7288698,45.5620685],[-73.727183,45.5605226],[-73.72707,45.5604132]]}";1;Voie réservée - boulevard Le Corbusier;1;50;false;true;true;false;true;false;344.0;0;0;0;0;0;false;41937;6269510251;-73.72867;45.561807;43147;6269510273;-73.72528;45.560919;1;54;55;9312748;Bus : 61 S - Direction Métro Montmorency;"";STL;61S;Justin / Face à Hydro Québec;Métro Montmorency
475251790;"{\"type\":\"LineString\",\"coordinates\":[[-73.72707,45.5604132],[-73.7270131,45.5604364],[-73.7269504,45.5604619]]}";2;Boulevard du Souvenir;3;50;false;true;false;false;false;false;11.0;1;0;0;0;0;false;41937;6269510251;-73.72867;45.561807;43147;6269510273;-73.72528;45.560919;0;54;55;9312748;Bus : 61 S - Direction Métro Montmorency;"";STL;61S;Justin / Face à Hydro Québec;Métro Montmorency
475251788;"{\"type\":\"LineString\",\"coordinates\":[[-73.7269504,45.5604619],[-73.7266639,45.5605658],[-73.7264044,45.5606501],[-73.7255372,45.5609316]]}";3;Boulevard du Souvenir;3;50;false;true;false;false;false;false;122.0;1;0;0;0;0;false;41937;6269510251;-73.72867;45.561807;43147;6269510273;-73.72528;45.560919;0;54;55;9312748;Bus : 61 S - Direction Métro Montmorency;"";STL;61S;Justin / Face à Hydro Québec;Métro Montmorency
475237531;"{\"type\":\"LineString\",\"coordinates\":[[-73.7255372,45.5609316],[-73.7249098,45.5611404],[-73.7238338,45.5614515],[-73.722752,45.5617595]]}";4;Boulevard du Souvenir;3;50;false;true;false;false;false;false;118.0;1;0;0;0;0;false;41937;6269510251;-73.72867;45.561807;43147;6269510273;-73.72528;45.560919;1;54;55;9312748;Bus : 61 S - Direction Métro Montmorency;"";STL;61S;Justin / Face à Hydro Québec;Métro Montmorency
475237531;"{\"type\":\"LineString\",\"coordinates\":[[-73.7255372,45.5609316],[-73.7249098,45.5611404],[-73.7238338,45.5614515],[-73.722752,45.5617595]]}";1;Boulevard du Souvenir;3;50;false;true;false;false;false;false;118.0;1;0;0;0;0;false;43148;6269510225;-73.72296;45.561631;"46509;43507;46443";6269510304;-73.72082;45.559592;1;56;57;9312748;Bus : 61 S - Direction Métro Montmorency;"";STL;61S;Justin / Face à Hydro Québec;Métro Montmorency
29081985;"{\"type\":\"LineString\",\"coordinates\":[[-73.722752,45.5617595],[-73.7225279,45.561532],[-73.7214827,45.5604479],[-73.7211098,45.5600515],[-73.7210472,45.5599848],[-73.7205915,45.5595102]]}";2;Boulevard de l'Avenir;3;50;false;true;false;false;false;false;151.0;1;0;0;0;0;false;43148;6269510225;-73.72296;45.561631;"46509;43507;46443";6269510304;-73.72082;45.559592;1;56;57;9312748;Bus : 61 S - Direction Métro Montmorency;"";STL;61S;Justin / Face à Hydro Québec;Métro Montmorency
29081985;"{\"type\":\"LineString\",\"coordinates\":[[-73.722752,45.5617595],[-73.7225279,45.561532],[-73.7214827,45.5604479],[-73.7211098,45.5600515],[-73.7210472,45.5599848],[-73.7205915,45.5595102]]}";1;Boulevard de l'Avenir;3;50;false;true;false;false;false;false;151.0;1;0;0;0;0;false;"46509;43507;46443";6269510304;-73.72082;45.559592;"48126;48161;48170;48133;48165;48136;48140;48148;48176;48156;48913;48102;48145;48842";5894580468;-73.72102;45.558276;1;57;58;9312748;Bus : 61 S - Direction Métro Montmorency;"";STL;61S;Justin / Face à Hydro Québec;Métro Montmorency
695738775;"{\"type\":\"LineString\",\"coordinates\":[[-73.7205915,45.5595102],[-73.7199464,45.5588146]]}";2;Boulevard de l'Avenir;3;50;false;true;false;false;false;false;93.0;0;0;0;0;0;false;"46509;43507;46443";6269510304;-73.72082;45.559592;"48126;48161;48170;48133;48165;48136;48140;48148;48176;48156;48913;48102;48145;48842";5894580468;-73.72102;45.558276;0;57;58;9312748;Bus : 61 S - Direction Métro Montmorency;"";STL;61S;Justin / Face à Hydro Québec;Métro Montmorency
475848926;"{\"type\":\"LineString\",\"coordinates\":[[-73.7199464,45.5588146],[-73.719872,45.558742],[-73.7198603,45.5587298],[-73.7197703,45.558636]]}";3;Boulevard de l'Avenir;3;50;false;true;false;false;false;false;25.0;0;1;0;0;0;false;"46509;43507;46443";6269510304;-73.72082;45.559592;"48126;48161;48170;48133;48165;48136;48140;48148;48176;48156;48913;48102;48145;48842";5894580468;-73.72102;45.558276;0;57;58;9312748;Bus : 61 S - Direction Métro Montmorency;"";STL;61S;Justin / Face à Hydro Québec;Métro Montmorency
673250003;"{\"type\":\"LineString\",\"coordinates\":[[-73.7200309,45.5584789],[-73.7198217,45.5586049],[-73.7197703,45.558636]]}";4;"";1;30;false;false;false;false;false;false;27.0;0;1;0;0;0;false;"46509;43507;46443";6269510304;-73.72082;45.559592;"48126;48161;48170;48133;48165;48136;48140;48148;48176;48156;48913;48102;48145;48842";5894580468;-73.72102;45.558276;0;57;58;9312748;Bus : 61 S - Direction Métro Montmorency;"";STL;61S;Justin / Face à Hydro Québec;Métro Montmorency
673246437;"{\"type\":\"LineString\",\"coordinates\":[[-73.7200309,45.5584789],[-73.720124,45.5585758],[-73.7201474,45.5585648]]}";5;"";1;30;false;true;false;false;false;false;16.0;0;0;0;0;0;false;"46509;43507;46443";6269510304;-73.72082;45.559592;"48126;48161;48170;48133;48165;48136;48140;48148;48176;48156;48913;48102;48145;48842";5894580468;-73.72102;45.558276;0;57;58;9312748;Bus : 61 S - Direction Métro Montmorency;"";STL;61S;Justin / Face à Hydro Québec;Métro Montmorency
624217210;"{\"type\":\"LineString\",\"coordinates\":[[-73.7201474,45.5585648],[-73.720206,45.5585372],[-73.7203325,45.5584776]]}";6;"";1;30;false;true;false;false;false;false;18.0;0;0;0;0;0;false;"46509;43507;46443";6269510304;-73.72082;45.559592;"48126;48161;48170;48133;48165;48136;48140;48148;48176;48156;48913;48102;48145;48842";5894580468;-73.72102;45.558276;0;57;58;9312748;Bus : 61 S - Direction Métro Montmorency;"";STL;61S;Justin / Face à Hydro Québec;Métro Montmorency
673264013;"{\"type\":\"LineString\",\"coordinates\":[[-73.7203325,45.5584776],[-73.7205612,45.55837]]}";7;"";1;30;false;true;false;false;false;false;22.0;0;0;0;0;0;false;"46509;43507;46443";6269510304;-73.72082;45.559592;"48126;48161;48170;48133;48165;48136;48140;48148;48176;48156;48913;48102;48145;48842";5894580468;-73.72102;45.558276;0;57;58;9312748;Bus : 61 S - Direction Métro Montmorency;"";STL;61S;Justin / Face à Hydro Québec;Métro Montmorency
673264014;"{\"type\":\"LineString\",\"coordinates\":[[-73.7205612,45.55837],[-73.7207712,45.5582711]]}";8;"";1;30;false;true;false;false;false;false;20.0;0;0;0;0;0;false;"46509;43507;46443";6269510304;-73.72082;45.559592;"48126;48161;48170;48133;48165;48136;48140;48148;48176;48156;48913;48102;48145;48842";5894580468;-73.72102;45.558276;0;57;58;9312748;Bus : 61 S - Direction Métro Montmorency;"";STL;61S;Justin / Face à Hydro Québec;Métro Montmorency
475848923;"{\"type\":\"LineString\",\"coordinates\":[[-73.7207712,45.5582711],[-73.7209137,45.558204]]}";9;"";1;30;false;true;true;false;false;false;14.0;0;0;0;0;0;false;"46509;43507;46443";6269510304;-73.72082;45.559592;"48126;48161;48170;48133;48165;48136;48140;48148;48176;48156;48913;48102;48145;48842";5894580468;-73.72102;45.558276;1;57;58;9312748;Bus : 61 S - Direction Métro Montmorency;"";STL;61S;Justin / Face à Hydro Québec;Métro Montmorency
