way_id;shape;index;name;nb_lanes;legal_speed;speed_zone_30;oneway;shares_bike;bike_box;bus_lane;dedicated_bus_lane;length;nb_traffic_signals;nb_crossings;nb_stops;nb_give_ways;nb_lvl_crossings;roundabout;stop_id_orig;node_id_orig;coord_x_orig;coord_y_orig;stop_id_dest;node_id_dest;coord_x_dest;coord_y_dest;nb_neighbouring_ways_bus_stop;ordre_orig;ordre_dest;id_line;line_name;colour;operator;ref;from;to
198481396;"{\"type\":\"LineString\",\"coordinates\":[[-74.0082633,45.3866527],[-74.0083776,45.3866551],[-74.0086485,45.3866475],[-74.0087451,45.3866475],[-74.0087987,45.3866344],[-74.008855,45.3866042],[-74.008968,45.386553],[-74.0091367,45.3865345],[-74.0092171,45.3865458],[-74.0092849,45.3865741]]}";1;"";1;50;false;false;true;false;false;false;85.0;0;0;0;0;0;false;72946;5215346228;-74.008327;45.386603;72344;2186107541;-73.992596;45.38548;1;1;2;9492745;Bus 91 : Service AM;"";EXO;91 AM;Gare Vaudreuil;Gare Vaudreuil
682126563;"{\"type\":\"LineString\",\"coordinates\":[[-74.0100993,45.3871046],[-74.009574,45.3865709],[-74.0094408,45.386526],[-74.0093903,45.3865409],[-74.0092963,45.3865686],[-74.0092849,45.3865741]]}";2;Avenue Vaudreuil;2;50;false;false;true;false;false;false;98.0;0;0;0;0;0;false;72946;5215346228;-74.008327;45.386603;72344;2186107541;-73.992596;45.38548;0;1;2;9492745;Bus 91 : Service AM;"";EXO;91 AM;Gare Vaudreuil;Gare Vaudreuil
456611436;"{\"type\":\"LineString\",\"coordinates\":[[-74.0109765,45.386714],[-74.0100993,45.3871046]]}";3;Rue Trestler;1;50;false;true;true;false;false;false;82.0;0;0;0;0;0;false;72946;5215346228;-74.008327;45.386603;72344;2186107541;-73.992596;45.38548;0;1;2;9492745;Bus 91 : Service AM;"";EXO;91 AM;Gare Vaudreuil;Gare Vaudreuil
384121971;"{\"type\":\"LineString\",\"coordinates\":[[-74.0116362,45.3864763],[-74.0113141,45.3865703],[-74.0109765,45.386714]]}";4;Rue Trestler;1;50;false;true;true;false;false;false;59.0;0;0;0;0;0;false;72946;5215346228;-74.008327;45.386603;72344;2186107541;-73.992596;45.38548;0;1;2;9492745;Bus 91 : Service AM;"";EXO;91 AM;Gare Vaudreuil;Gare Vaudreuil
218549327;"{\"type\":\"LineString\",\"coordinates\":[[-74.0116362,45.3864763],[-74.0113815,45.3865017],[-74.0111592,45.3864847],[-74.0110089,45.3864421],[-74.010889,45.3863825]]}";5;Avenue Saint-Charles;2;50;false;true;false;false;false;false;62.0;0;0;0;0;0;false;72946;5215346228;-74.008327;45.386603;72344;2186107541;-73.992596;45.38548;0;1;2;9492745;Bus 91 : Service AM;"";EXO;91 AM;Gare Vaudreuil;Gare Vaudreuil
414517121;"{\"type\":\"LineString\",\"coordinates\":[[-74.010889,45.3863825],[-74.0104732,45.3858744]]}";6;Avenue Saint-Charles;2;50;false;true;false;false;false;false;66.0;1;0;0;0;0;false;72946;5215346228;-74.008327;45.386603;72344;2186107541;-73.992596;45.38548;0;1;2;9492745;Bus 91 : Service AM;"";EXO;91 AM;Gare Vaudreuil;Gare Vaudreuil
196778910;"{\"type\":\"LineString\",\"coordinates\":[[-74.0104732,45.3858744],[-74.0101526,45.3854915],[-74.0100366,45.3853405],[-74.0099542,45.385228],[-74.009915,45.3851508],[-74.0098923,45.385057],[-74.0098959,45.3849544]]}";7;Avenue Saint-Charles;2;50;false;true;false;false;false;false;114.0;1;0;0;0;0;false;72946;5215346228;-74.008327;45.386603;72344;2186107541;-73.992596;45.38548;0;1;2;9492745;Bus 91 : Service AM;"";EXO;91 AM;Gare Vaudreuil;Gare Vaudreuil
684251982;"{\"type\":\"LineString\",\"coordinates\":[[-74.0098959,45.3849544],[-74.0099429,45.3848422]]}";8;Avenue Saint-Charles;2;50;false;true;false;false;false;false;13.0;0;0;0;0;0;false;72946;5215346228;-74.008327;45.386603;72344;2186107541;-73.992596;45.38548;0;1;2;9492745;Bus 91 : Service AM;"";EXO;91 AM;Gare Vaudreuil;Gare Vaudreuil
196778907;"{\"type\":\"LineString\",\"coordinates\":[[-74.0099429,45.3848422],[-74.0099746,45.3847114],[-74.0099769,45.3845395],[-74.0099657,45.3844399],[-74.0099258,45.3843149]]}";9;Avenue Saint-Charles;3;50;false;true;true;false;false;false;60.0;0;0;0;0;0;false;72946;5215346228;-74.008327;45.386603;72344;2186107541;-73.992596;45.38548;0;1;2;9492745;Bus 91 : Service AM;"";EXO;91 AM;Gare Vaudreuil;Gare Vaudreuil
456569668;"{\"type\":\"LineString\",\"coordinates\":[[-74.0099258,45.3843149],[-74.0097784,45.384176]]}";10;Avenue Saint-Charles;3;50;false;true;true;false;false;false;20.0;1;0;0;0;0;false;72946;5215346228;-74.008327;45.386603;72344;2186107541;-73.992596;45.38548;0;1;2;9492745;Bus 91 : Service AM;"";EXO;91 AM;Gare Vaudreuil;Gare Vaudreuil
44334286;"{\"type\":\"LineString\",\"coordinates\":[[-74.0097784,45.384176],[-74.009678,45.3840813]]}";11;Avenue Saint-Charles;1;50;false;true;true;false;false;false;14.0;2;0;0;0;0;false;72946;5215346228;-74.008327;45.386603;72344;2186107541;-73.992596;45.38548;0;1;2;9492745;Bus 91 : Service AM;"";EXO;91 AM;Gare Vaudreuil;Gare Vaudreuil
104564061;"{\"type\":\"LineString\",\"coordinates\":[[-74.009678,45.3840813],[-74.0090034,45.3844294]]}";12;Boulevard Harwood;3;50;false;true;true;false;false;false;66.0;2;0;0;0;0;false;72946;5215346228;-74.008327;45.386603;72344;2186107541;-73.992596;45.38548;0;1;2;9492745;Bus 91 : Service AM;"";EXO;91 AM;Gare Vaudreuil;Gare Vaudreuil
635888621;"{\"type\":\"LineString\",\"coordinates\":[[-74.0090034,45.3844294],[-74.0082802,45.3848066]]}";13;Boulevard Harwood;2;50;false;true;true;false;false;false;71.0;1;0;0;0;0;false;72946;5215346228;-74.008327;45.386603;72344;2186107541;-73.992596;45.38548;0;1;2;9492745;Bus 91 : Service AM;"";EXO;91 AM;Gare Vaudreuil;Gare Vaudreuil
517292780;"{\"type\":\"LineString\",\"coordinates\":[[-74.0082802,45.3848066],[-74.0076188,45.3851516]]}";14;Boulevard Harwood;2;50;false;true;true;false;false;false;65.0;0;0;0;0;0;false;72946;5215346228;-74.008327;45.386603;72344;2186107541;-73.992596;45.38548;0;1;2;9492745;Bus 91 : Service AM;"";EXO;91 AM;Gare Vaudreuil;Gare Vaudreuil
635888620;"{\"type\":\"LineString\",\"coordinates\":[[-74.0076188,45.3851516],[-74.0069169,45.3855177]]}";15;Boulevard Harwood;2;50;false;true;true;false;false;false;69.0;0;0;0;0;0;false;72946;5215346228;-74.008327;45.386603;72344;2186107541;-73.992596;45.38548;0;1;2;9492745;Bus 91 : Service AM;"";EXO;91 AM;Gare Vaudreuil;Gare Vaudreuil
517292776;"{\"type\":\"LineString\",\"coordinates\":[[-74.0069169,45.3855177],[-74.0065575,45.3856463],[-74.0060783,45.3857845]]}";16;Boulevard Harwood;2;50;false;true;true;false;false;false;73.0;0;0;0;0;0;false;72946;5215346228;-74.008327;45.386603;72344;2186107541;-73.992596;45.38548;0;1;2;9492745;Bus 91 : Service AM;"";EXO;91 AM;Gare Vaudreuil;Gare Vaudreuil
104564058;"{\"type\":\"LineString\",\"coordinates\":[[-74.0060783,45.3857845],[-74.0059714,45.3858133],[-74.0057429,45.3858645],[-74.0054858,45.3858996],[-74.0048349,45.3859414],[-74.0041226,45.3859683]]}";17;Boulevard Harwood;3;50;false;true;false;false;false;false;156.0;0;0;0;0;0;false;72946;5215346228;-74.008327;45.386603;72344;2186107541;-73.992596;45.38548;0;1;2;9492745;Bus 91 : Service AM;"";EXO;91 AM;Gare Vaudreuil;Gare Vaudreuil
86578352;"{\"type\":\"LineString\",\"coordinates\":[[-74.0041226,45.3859683],[-73.9986969,45.3862052]]}";18;Autoroute du Souvenir;2;70;false;true;false;false;false;false;426.0;0;0;0;0;0;false;72946;5215346228;-74.008327;45.386603;72344;2186107541;-73.992596;45.38548;0;1;2;9492745;Bus 91 : Service AM;"";EXO;91 AM;Gare Vaudreuil;Gare Vaudreuil
683402660;"{\"type\":\"LineString\",\"coordinates\":[[-73.9986969,45.3862052],[-73.9983043,45.3862204]]}";19;Autoroute du Souvenir;2;70;false;true;false;false;false;false;31.0;0;0;0;0;0;false;72946;5215346228;-74.008327;45.386603;72344;2186107541;-73.992596;45.38548;0;1;2;9492745;Bus 91 : Service AM;"";EXO;91 AM;Gare Vaudreuil;Gare Vaudreuil
47459943;"{\"type\":\"LineString\",\"coordinates\":[[-73.9983043,45.3862204],[-73.996348,45.3862101],[-73.9954307,45.38622],[-73.9951174,45.3862203]]}";20;"";1;65;false;true;false;false;false;false;250.0;0;0;0;0;0;false;72946;5215346228;-74.008327;45.386603;72344;2186107541;-73.992596;45.38548;0;1;2;9492745;Bus 91 : Service AM;"";EXO;91 AM;Gare Vaudreuil;Gare Vaudreuil
769937187;"{\"type\":\"LineString\",\"coordinates\":[[-73.9951174,45.3862203],[-73.994565,45.3862047]]}";21;"";2;50;false;true;false;false;false;false;44.0;0;0;0;0;0;false;72946;5215346228;-74.008327;45.386603;72344;2186107541;-73.992596;45.38548;0;1;2;9492745;Bus 91 : Service AM;"";EXO;91 AM;Gare Vaudreuil;Gare Vaudreuil
769937188;"{\"type\":\"LineString\",\"coordinates\":[[-73.994565,45.3862047],[-73.9937034,45.3861902],[-73.9935928,45.3861911],[-73.9934289,45.3861925]]}";22;"";3;50;false;true;false;false;false;false;89.0;1;0;0;0;0;false;72946;5215346228;-74.008327;45.386603;72344;2186107541;-73.992596;45.38548;0;1;2;9492745;Bus 91 : Service AM;"";EXO;91 AM;Gare Vaudreuil;Gare Vaudreuil
47459935;"{\"type\":\"LineString\",\"coordinates\":[[-73.9934289,45.3861925],[-73.9932671,45.3861948],[-73.9932601,45.3861955],[-73.9931306,45.386208],[-73.9927013,45.3862495],[-73.9924288,45.3862813]]}";23;"";2;50;false;true;true;false;false;false;79.0;0;0;0;0;0;false;72946;5215346228;-74.008327;45.386603;72344;2186107541;-73.992596;45.38548;0;1;2;9492745;Bus 91 : Service AM;"";EXO;91 AM;Gare Vaudreuil;Gare Vaudreuil
455057389;"{\"type\":\"LineString\",\"coordinates\":[[-73.993233,45.3853707],[-73.9932486,45.3854562],[-73.9932952,45.3856808],[-73.9933204,45.3858734],[-73.9933425,45.3861117],[-73.9933524,45.386121],[-73.9934289,45.3861925]]}";24;Boulevard Cardinal-Léger;2;50;false;true;true;false;false;false;95.0;1;0;0;0;0;false;72946;5215346228;-74.008327;45.386603;72344;2186107541;-73.992596;45.38548;0;1;2;9492745;Bus 91 : Service AM;"";EXO;91 AM;Gare Vaudreuil;Gare Vaudreuil
778719204;"{\"type\":\"LineString\",\"coordinates\":[[-73.9930837,45.3853804],[-73.993233,45.3853707]]}";25;Boulevard du Traversier;2;50;false;true;true;false;false;false;12.0;0;1;0;0;0;false;72946;5215346228;-74.008327;45.386603;72344;2186107541;-73.992596;45.38548;0;1;2;9492745;Bus 91 : Service AM;"";EXO;91 AM;Gare Vaudreuil;Gare Vaudreuil
771101941;"{\"type\":\"LineString\",\"coordinates\":[[-73.9924298,45.3854446],[-73.9925307,45.3854329],[-73.9929019,45.3853932],[-73.9930181,45.3853834],[-73.9930837,45.3853804]]}";26;Boulevard du Traversier;2;50;false;true;true;false;false;false;52.0;1;1;0;0;0;false;72946;5215346228;-74.008327;45.386603;72344;2186107541;-73.992596;45.38548;2;1;2;9492745;Bus 91 : Service AM;"";EXO;91 AM;Gare Vaudreuil;Gare Vaudreuil
553570064;"{\"type\":\"LineString\",\"coordinates\":[[-73.9907235,45.3857788],[-73.9908527,45.3857245],[-73.9909666,45.3856789],[-73.9911398,45.3856271],[-73.9912963,45.3855913],[-73.9914857,45.3855582],[-73.9917818,45.3855184],[-73.9922087,45.3854701],[-73.9924298,45.3854446]]}";1;Boulevard du Traversier;2;50;false;true;true;false;false;false;140.0;0;0;0;0;0;false;72344;2186107541;-73.992596;45.38548;72040;6133275280;-73.963554;45.395972;2;2;3;9492745;Bus 91 : Service AM;"";EXO;91 AM;Gare Vaudreuil;Gare Vaudreuil
771101941;"{\"type\":\"LineString\",\"coordinates\":[[-73.9924298,45.3854446],[-73.9925307,45.3854329],[-73.9929019,45.3853932],[-73.9930181,45.3853834],[-73.9930837,45.3853804]]}";2;Boulevard du Traversier;2;50;false;true;true;false;false;false;52.0;1;1;0;0;0;false;72344;2186107541;-73.992596;45.38548;72040;6133275280;-73.963554;45.395972;0;2;3;9492745;Bus 91 : Service AM;"";EXO;91 AM;Gare Vaudreuil;Gare Vaudreuil
778719204;"{\"type\":\"LineString\",\"coordinates\":[[-73.9930837,45.3853804],[-73.993233,45.3853707]]}";3;Boulevard du Traversier;2;50;false;true;true;false;false;false;12.0;0;1;0;0;0;false;72344;2186107541;-73.992596;45.38548;72040;6133275280;-73.963554;45.395972;0;2;3;9492745;Bus 91 : Service AM;"";EXO;91 AM;Gare Vaudreuil;Gare Vaudreuil
455057389;"{\"type\":\"LineString\",\"coordinates\":[[-73.993233,45.3853707],[-73.9932486,45.3854562],[-73.9932952,45.3856808],[-73.9933204,45.3858734],[-73.9933425,45.3861117],[-73.9933524,45.386121],[-73.9934289,45.3861925]]}";4;Boulevard Cardinal-Léger;2;50;false;true;true;false;false;false;95.0;1;0;0;0;0;false;72344;2186107541;-73.992596;45.38548;72040;6133275280;-73.963554;45.395972;0;2;3;9492745;Bus 91 : Service AM;"";EXO;91 AM;Gare Vaudreuil;Gare Vaudreuil
47459935;"{\"type\":\"LineString\",\"coordinates\":[[-73.9934289,45.3861925],[-73.9932671,45.3861948],[-73.9932601,45.3861955],[-73.9931306,45.386208],[-73.9927013,45.3862495],[-73.9924288,45.3862813]]}";5;"";2;50;false;true;true;false;false;false;79.0;0;0;0;0;0;false;72344;2186107541;-73.992596;45.38548;72040;6133275280;-73.963554;45.395972;0;2;3;9492745;Bus 91 : Service AM;"";EXO;91 AM;Gare Vaudreuil;Gare Vaudreuil
684244584;"{\"type\":\"LineString\",\"coordinates\":[[-73.9924288,45.3862813],[-73.9916693,45.3863894],[-73.9910766,45.3864561],[-73.9905683,45.3865166],[-73.9899078,45.3865961],[-73.9894752,45.38666],[-73.9892576,45.3866996],[-73.9886847,45.3867968]]}";6;"";1;65;false;true;false;false;false;false;299.0;0;0;0;0;0;false;72344;2186107541;-73.992596;45.38548;72040;6133275280;-73.963554;45.395972;0;2;3;9492745;Bus 91 : Service AM;"";EXO;91 AM;Gare Vaudreuil;Gare Vaudreuil
51539328;"{\"type\":\"LineString\",\"coordinates\":[[-73.9886847,45.3867968],[-73.9881789,45.386866],[-73.9877402,45.3869302],[-73.9871765,45.3870263],[-73.9856251,45.3872817],[-73.9842857,45.3875115],[-73.9832628,45.387686],[-73.9827909,45.3877767],[-73.9823733,45.3878578],[-73.9821041,45.38791]]}";7;Autoroute du Souvenir;2;70;false;true;false;false;false;false;530.0;0;0;0;0;0;false;72344;2186107541;-73.992596;45.38548;72040;6133275280;-73.963554;45.395972;0;2;3;9492745;Bus 91 : Service AM;"";EXO;91 AM;Gare Vaudreuil;Gare Vaudreuil
771029882;"{\"type\":\"LineString\",\"coordinates\":[[-73.9821041,45.38791],[-73.9818039,45.387978],[-73.9814926,45.3880491],[-73.9812699,45.3881038],[-73.9811668,45.3881291]]}";8;Autoroute du Souvenir;3;70;false;true;false;false;false;false;78.0;1;0;0;0;0;false;72344;2186107541;-73.992596;45.38548;72040;6133275280;-73.963554;45.395972;0;2;3;9492745;Bus 91 : Service AM;"";EXO;91 AM;Gare Vaudreuil;Gare Vaudreuil
455056130;"{\"type\":\"LineString\",\"coordinates\":[[-73.9811668,45.3881291],[-73.9810184,45.3881647]]}";9;Autoroute du Souvenir;2;70;false;true;false;false;false;false;13.0;0;0;0;0;0;false;72344;2186107541;-73.992596;45.38548;72040;6133275280;-73.963554;45.395972;0;2;3;9492745;Bus 91 : Service AM;"";EXO;91 AM;Gare Vaudreuil;Gare Vaudreuil
455056134;"{\"type\":\"LineString\",\"coordinates\":[[-73.9810184,45.3881647],[-73.9807416,45.3882314],[-73.980322,45.3883391],[-73.9799654,45.3884363],[-73.9797187,45.3885062],[-73.9792518,45.3886416],[-73.978761,45.3887939],[-73.9780783,45.3890189],[-73.9772949,45.3892847],[-73.9766733,45.3895],[-73.9752678,45.3899973],[-73.9746395,45.3902202],[-73.9712269,45.3914204],[-73.9705428,45.3916632],[-73.9696421,45.39198]]}";10;Autoroute du Souvenir;2;70;false;true;false;false;false;false;987.0;0;0;0;0;0;false;72344;2186107541;-73.992596;45.38548;72040;6133275280;-73.963554;45.395972;0;2;3;9492745;Bus 91 : Service AM;"";EXO;91 AM;Gare Vaudreuil;Gare Vaudreuil
455054812;"{\"type\":\"LineString\",\"coordinates\":[[-73.9696421,45.39198],[-73.9679687,45.3925718],[-73.9678795,45.3926033]]}";11;Autoroute du Souvenir;2;70;false;true;false;false;false;false;155.0;1;0;0;0;0;false;72344;2186107541;-73.992596;45.38548;72040;6133275280;-73.963554;45.395972;0;2;3;9492745;Bus 91 : Service AM;"";EXO;91 AM;Gare Vaudreuil;Gare Vaudreuil
455054811;"{\"type\":\"LineString\",\"coordinates\":[[-73.9678795,45.3926033],[-73.9677669,45.3926438]]}";12;Autoroute du Souvenir;2;70;false;true;false;false;false;false;10.0;0;0;0;0;0;false;72344;2186107541;-73.992596;45.38548;72040;6133275280;-73.963554;45.395972;0;2;3;9492745;Bus 91 : Service AM;"";EXO;91 AM;Gare Vaudreuil;Gare Vaudreuil
455054814;"{\"type\":\"LineString\",\"coordinates\":[[-73.9677669,45.3926438],[-73.9678674,45.3927665]]}";13;Boulevard Don-Quichotte;2;50;false;true;false;false;false;false;16.0;0;0;0;0;0;false;72344;2186107541;-73.992596;45.38548;72040;6133275280;-73.963554;45.395972;0;2;3;9492745;Bus 91 : Service AM;"";EXO;91 AM;Gare Vaudreuil;Gare Vaudreuil
455056131;"{\"type\":\"LineString\",\"coordinates\":[[-73.9678674,45.3927665],[-73.9679397,45.392749]]}";14;Autoroute du Souvenir;2;70;false;true;false;false;false;false;6.0;0;0;0;0;0;false;72344;2186107541;-73.992596;45.38548;72040;6133275280;-73.963554;45.395972;0;2;3;9492745;Bus 91 : Service AM;"";EXO;91 AM;Gare Vaudreuil;Gare Vaudreuil
771029887;"{\"type\":\"LineString\",\"coordinates\":[[-73.9679397,45.392749],[-73.967952,45.3927626],[-73.9679632,45.3927708],[-73.9679799,45.3927801],[-73.9679982,45.3927926],[-73.9680078,45.3928027],[-73.9680189,45.3928145],[-73.9680736,45.3928803],[-73.9680985,45.3929193],[-73.9681219,45.392974],[-73.9681466,45.3930404]]}";15;"";2;50;false;false;true;false;true;false;37.0;1;0;0;0;0;false;72344;2186107541;-73.992596;45.38548;72040;6133275280;-73.963554;45.395972;0;2;3;9492745;Bus 91 : Service AM;"";EXO;91 AM;Gare Vaudreuil;Gare Vaudreuil
436576331;"{\"type\":\"LineString\",\"coordinates\":[[-73.964242,45.3951103],[-73.9642704,45.3950543],[-73.9642966,45.3950004],[-73.9643225,45.3949568],[-73.9644213,45.3948275],[-73.9645037,45.3947017],[-73.9645424,45.3946282],[-73.9645699,45.3945549],[-73.9645833,45.3944889],[-73.9645871,45.3944396],[-73.9645804,45.394351],[-73.9645822,45.394299],[-73.9645903,45.3942769],[-73.964611,45.3942503],[-73.9646578,45.3942095],[-73.9647457,45.3941529],[-73.9648298,45.3941025],[-73.9649662,45.3940279],[-73.9651327,45.3939429],[-73.965382,45.3938233],[-73.9656077,45.3937172],[-73.9657999,45.3936328],[-73.9659386,45.3935727],[-73.9661518,45.3934853],[-73.9664966,45.3933595],[-73.9669858,45.3931844],[-73.967094,45.3931521],[-73.9671714,45.3931345],[-73.9672529,45.3931237],[-73.9673401,45.3931188],[-73.9674363,45.3931145],[-73.9675256,45.3931094],[-73.967656,45.3930957],[-73.9678889,45.3930679],[-73.9681466,45.3930404]]}";16;BUS;1;50;false;false;true;false;true;false;416.0;0;0;0;0;0;false;72344;2186107541;-73.992596;45.38548;72040;6133275280;-73.963554;45.395972;0;2;3;9492745;Bus 91 : Service AM;"";EXO;91 AM;Gare Vaudreuil;Gare Vaudreuil
110166391;"{\"type\":\"LineString\",\"coordinates\":[[-73.964242,45.3951103],[-73.9642087,45.3951545],[-73.9641617,45.3952329],[-73.9641239,45.3953039],[-73.9641007,45.3953658],[-73.9640868,45.3954299],[-73.9640842,45.3954637],[-73.9640903,45.3955135],[-73.9640981,45.3955698],[-73.964102,45.3956012],[-73.964098,45.3956317],[-73.9640624,45.3956596],[-73.9638959,45.3958328],[-73.9637511,45.3959769],[-73.9637167,45.3960794]]}";17;"";1;50;false;true;true;false;true;false;119.0;0;0;0;0;0;false;72344;2186107541;-73.992596;45.38548;72040;6133275280;-73.963554;45.395972;0;2;3;9492745;Bus 91 : Service AM;"";EXO;91 AM;Gare Vaudreuil;Gare Vaudreuil
683933381;"{\"type\":\"LineString\",\"coordinates\":[[-73.963472,45.3961872],[-73.9635095,45.3961909],[-73.9635395,45.3961887],[-73.9635748,45.396181],[-73.9636036,45.3961688],[-73.9637167,45.3960794]]}";18;"";1;50;false;false;true;false;true;false;25.0;0;1;1;0;0;false;72344;2186107541;-73.992596;45.38548;72040;6133275280;-73.963554;45.395972;0;2;3;9492745;Bus 91 : Service AM;"";EXO;91 AM;Gare Vaudreuil;Gare Vaudreuil
683782655;"{\"type\":\"LineString\",\"coordinates\":[[-73.96297,45.3957118],[-73.963004,45.3957269],[-73.9631155,45.3957773],[-73.9632141,45.3958302],[-73.963277,45.3958688],[-73.963355,45.3959272],[-73.9633825,45.3959568],[-73.9634088,45.3959873],[-73.9634293,45.396017],[-73.9634486,45.3960527],[-73.9634679,45.3961141],[-73.9634712,45.3961498],[-73.963472,45.3961872]]}";19;Boulevard Perrot Nord;2;50;false;false;true;false;false;false;70.0;0;1;0;0;0;false;72344;2186107541;-73.992596;45.38548;72040;6133275280;-73.963554;45.395972;2;2;3;9492745;Bus 91 : Service AM;"";EXO;91 AM;Gare Vaudreuil;Gare Vaudreuil
110166391;"{\"type\":\"LineString\",\"coordinates\":[[-73.964242,45.3951103],[-73.9642087,45.3951545],[-73.9641617,45.3952329],[-73.9641239,45.3953039],[-73.9641007,45.3953658],[-73.9640868,45.3954299],[-73.9640842,45.3954637],[-73.9640903,45.3955135],[-73.9640981,45.3955698],[-73.964102,45.3956012],[-73.964098,45.3956317],[-73.9640624,45.3956596],[-73.9638959,45.3958328],[-73.9637511,45.3959769],[-73.9637167,45.3960794]]}";1;"";1;50;false;true;true;false;true;false;119.0;0;0;0;0;0;false;72040;6133275280;-73.963554;45.395972;SGV12D;6133272195;-73.868628;45.48346;2;3;4;9492745;Bus 91 : Service AM;"";EXO;91 AM;Gare Vaudreuil;Gare Vaudreuil
683933381;"{\"type\":\"LineString\",\"coordinates\":[[-73.963472,45.3961872],[-73.9635095,45.3961909],[-73.9635395,45.3961887],[-73.9635748,45.396181],[-73.9636036,45.3961688],[-73.9637167,45.3960794]]}";2;"";1;50;false;false;true;false;true;false;25.0;0;1;1;0;0;false;72040;6133275280;-73.963554;45.395972;SGV12D;6133272195;-73.868628;45.48346;0;3;4;9492745;Bus 91 : Service AM;"";EXO;91 AM;Gare Vaudreuil;Gare Vaudreuil
683782655;"{\"type\":\"LineString\",\"coordinates\":[[-73.96297,45.3957118],[-73.963004,45.3957269],[-73.9631155,45.3957773],[-73.9632141,45.3958302],[-73.963277,45.3958688],[-73.963355,45.3959272],[-73.9633825,45.3959568],[-73.9634088,45.3959873],[-73.9634293,45.396017],[-73.9634486,45.3960527],[-73.9634679,45.3961141],[-73.9634712,45.3961498],[-73.963472,45.3961872]]}";3;Boulevard Perrot Nord;2;50;false;false;true;false;false;false;70.0;0;1;0;0;0;false;72040;6133275280;-73.963554;45.395972;SGV12D;6133272195;-73.868628;45.48346;0;3;4;9492745;Bus 91 : Service AM;"";EXO;91 AM;Gare Vaudreuil;Gare Vaudreuil
42321756;"{\"type\":\"LineString\",\"coordinates\":[[-73.9626265,45.3955765],[-73.9627592,45.3956288],[-73.96297,45.3957118]]}";4;Boulevard Perrot Nord;3;50;false;false;true;false;false;false;31.0;1;1;0;0;0;false;72040;6133275280;-73.963554;45.395972;SGV12D;6133272195;-73.868628;45.48346;0;3;4;9492745;Bus 91 : Service AM;"";EXO;91 AM;Gare Vaudreuil;Gare Vaudreuil
683983710;"{\"type\":\"LineString\",\"coordinates\":[[-73.9626265,45.3955765],[-73.962427,45.3954634]]}";5;Boulevard Perrot;2;50;false;true;true;false;false;false;21.0;0;0;0;0;0;false;72040;6133275280;-73.963554;45.395972;SGV12D;6133272195;-73.868628;45.48346;0;3;4;9492745;Bus 91 : Service AM;"";EXO;91 AM;Gare Vaudreuil;Gare Vaudreuil
683983709;"{\"type\":\"LineString\",\"coordinates\":[[-73.962427,45.3954634],[-73.9623506,45.3955381]]}";6;Autoroute du Souvenir;2;70;false;true;false;false;false;false;11.0;0;0;0;0;0;false;72040;6133275280;-73.963554;45.395972;SGV12D;6133272195;-73.868628;45.48346;0;3;4;9492745;Bus 91 : Service AM;"";EXO;91 AM;Gare Vaudreuil;Gare Vaudreuil
683782600;"{\"type\":\"LineString\",\"coordinates\":[[-73.9623506,45.3955381],[-73.9619742,45.3959595],[-73.9617398,45.3962296],[-73.9608188,45.3972958],[-73.9605601,45.3975994],[-73.9604644,45.3977058]]}";7;Autoroute du Souvenir;2;70;false;true;false;false;false;false;283.0;0;0;0;0;0;false;72040;6133275280;-73.963554;45.395972;SGV12D;6133272195;-73.868628;45.48346;0;3;4;9492745;Bus 91 : Service AM;"";EXO;91 AM;Gare Vaudreuil;Gare Vaudreuil
359402012;"{\"type\":\"LineString\",\"coordinates\":[[-73.9604644,45.3977058],[-73.9600025,45.3982669],[-73.9596268,45.3987312],[-73.959257,45.3991511]]}";8;Autoroute du Souvenir;2;70;false;true;false;false;false;false;187.0;0;0;0;0;0;false;72040;6133275280;-73.963554;45.395972;SGV12D;6133272195;-73.868628;45.48346;0;3;4;9492745;Bus 91 : Service AM;"";EXO;91 AM;Gare Vaudreuil;Gare Vaudreuil
110348651;"{\"type\":\"LineString\",\"coordinates\":[[-73.959257,45.3991511],[-73.9588074,45.3996696]]}";9;Autoroute du Souvenir;3;70;false;true;true;false;false;false;68.0;0;0;0;0;0;false;72040;6133275280;-73.963554;45.395972;SGV12D;6133272195;-73.868628;45.48346;0;3;4;9492745;Bus 91 : Service AM;"";EXO;91 AM;Gare Vaudreuil;Gare Vaudreuil
110348655;"{\"type\":\"LineString\",\"coordinates\":[[-73.9588074,45.3996696],[-73.9585301,45.399975]]}";10;Autoroute du Souvenir;3;70;false;true;true;false;false;false;41.0;0;0;0;0;0;false;72040;6133275280;-73.963554;45.395972;SGV12D;6133272195;-73.868628;45.48346;0;3;4;9492745;Bus 91 : Service AM;"";EXO;91 AM;Gare Vaudreuil;Gare Vaudreuil
440100863;"{\"type\":\"LineString\",\"coordinates\":[[-73.9585301,45.399975],[-73.9577582,45.4008088],[-73.957532,45.4010581],[-73.9573993,45.4012029]]}";11;Autoroute du Souvenir;3;70;false;true;true;false;false;false;163.0;0;0;0;0;0;false;72040;6133275280;-73.963554;45.395972;SGV12D;6133272195;-73.868628;45.48346;0;3;4;9492745;Bus 91 : Service AM;"";EXO;91 AM;Gare Vaudreuil;Gare Vaudreuil
19616012;"{\"type\":\"LineString\",\"coordinates\":[[-73.9573993,45.4012029],[-73.9547964,45.4042141]]}";12;Autoroute du Souvenir;3;70;false;true;true;false;false;false;392.0;0;0;0;0;0;false;72040;6133275280;-73.963554;45.395972;SGV12D;6133272195;-73.868628;45.48346;0;3;4;9492745;Bus 91 : Service AM;"";EXO;91 AM;Gare Vaudreuil;Gare Vaudreuil
770514602;"{\"type\":\"LineString\",\"coordinates\":[[-73.9547964,45.4042141],[-73.9546864,45.4043413]]}";13;Autoroute du Souvenir;2;70;false;true;true;false;false;false;17.0;0;0;0;0;0;false;72040;6133275280;-73.963554;45.395972;SGV12D;6133272195;-73.868628;45.48346;0;3;4;9492745;Bus 91 : Service AM;"";EXO;91 AM;Gare Vaudreuil;Gare Vaudreuil
770514603;"{\"type\":\"LineString\",\"coordinates\":[[-73.9546864,45.4043413],[-73.9541782,45.4049282]]}";14;Autoroute du Souvenir;2;70;false;true;true;false;false;false;77.0;0;0;0;0;0;false;72040;6133275280;-73.963554;45.395972;SGV12D;6133272195;-73.868628;45.48346;0;3;4;9492745;Bus 91 : Service AM;"";EXO;91 AM;Gare Vaudreuil;Gare Vaudreuil
5168676;"{\"type\":\"LineString\",\"coordinates\":[[-73.9541782,45.4049282],[-73.9538255,45.4052393],[-73.9534229,45.4055248],[-73.9530162,45.4058235],[-73.9525892,45.4061039],[-73.9518357,45.4065173],[-73.9514495,45.4067086],[-73.9512542,45.4067935]]}";15;Autoroute du Souvenir;1;70;false;true;true;false;false;false;311.0;0;0;0;0;0;false;72040;6133275280;-73.963554;45.395972;SGV12D;6133272195;-73.868628;45.48346;0;3;4;9492745;Bus 91 : Service AM;"";EXO;91 AM;Gare Vaudreuil;Gare Vaudreuil
48259924;"{\"type\":\"LineString\",\"coordinates\":[[-73.9512542,45.4067935],[-73.9508432,45.4069654]]}";16;Autoroute du Souvenir;2;70;false;true;true;false;false;false;38.0;0;0;0;0;0;false;72040;6133275280;-73.963554;45.395972;SGV12D;6133272195;-73.868628;45.48346;0;3;4;9492745;Bus 91 : Service AM;"";EXO;91 AM;Gare Vaudreuil;Gare Vaudreuil
21840213;"{\"type\":\"LineString\",\"coordinates\":[[-73.9508432,45.4069654],[-73.9500483,45.407258],[-73.9496127,45.4073981],[-73.9492231,45.4075082],[-73.9473516,45.40793],[-73.9457242,45.408307],[-73.9450085,45.4084745],[-73.9444187,45.4086156],[-73.9440012,45.4087257],[-73.9432337,45.4089642],[-73.9422722,45.4093437],[-73.9410792,45.409886],[-73.9397488,45.4104163],[-73.9379507,45.4110634]]}";17;Autoroute du Souvenir;2;70;false;true;true;false;false;false;1112.0;0;0;0;0;0;false;72040;6133275280;-73.963554;45.395972;SGV12D;6133272195;-73.868628;45.48346;0;3;4;9492745;Bus 91 : Service AM;"";EXO;91 AM;Gare Vaudreuil;Gare Vaudreuil
567745411;"{\"type\":\"LineString\",\"coordinates\":[[-73.9379507,45.4110634],[-73.9327856,45.4128732],[-73.9232092,45.4162321],[-73.9223195,45.4165435],[-73.9214848,45.4169144],[-73.9203715,45.4173351],[-73.9200201,45.4174635],[-73.919298,45.4177275],[-73.9181527,45.4181431],[-73.9174076,45.4184103],[-73.9168663,45.4186047]]}";18;Autoroute du Souvenir;2;100;false;true;true;false;false;false;1851.0;0;0;0;0;0;false;72040;6133275280;-73.963554;45.395972;SGV12D;6133272195;-73.868628;45.48346;0;3;4;9492745;Bus 91 : Service AM;"";EXO;91 AM;Gare Vaudreuil;Gare Vaudreuil
48263064;"{\"type\":\"LineString\",\"coordinates\":[[-73.9168663,45.4186047],[-73.9165547,45.4187184]]}";19;Autoroute du Souvenir;2;100;false;true;true;false;false;false;28.0;0;0;0;0;0;false;72040;6133275280;-73.963554;45.395972;SGV12D;6133272195;-73.868628;45.48346;0;3;4;9492745;Bus 91 : Service AM;"";EXO;91 AM;Gare Vaudreuil;Gare Vaudreuil
21840219;"{\"type\":\"LineString\",\"coordinates\":[[-73.9165547,45.4187184],[-73.9159195,45.4189511],[-73.9148891,45.4193276],[-73.9119521,45.4203424],[-73.9103432,45.4208937],[-73.9043865,45.4230323],[-73.9020519,45.4237552],[-73.8991938,45.4245263],[-73.8964558,45.4250985],[-73.8926995,45.425741],[-73.8894335,45.4262434]]}";20;Autoroute du Souvenir;2;100;false;true;true;false;false;false;2292.0;0;0;0;0;0;false;72040;6133275280;-73.963554;45.395972;SGV12D;6133272195;-73.868628;45.48346;0;3;4;9492745;Bus 91 : Service AM;"";EXO;91 AM;Gare Vaudreuil;Gare Vaudreuil
20667238;"{\"type\":\"LineString\",\"coordinates\":[[-73.8894335,45.4262434],[-73.8846125,45.4270147],[-73.8808603,45.4275923]]}";21;Autoroute du Souvenir;1;100;false;true;true;false;false;false;687.0;0;0;0;0;0;false;72040;6133275280;-73.963554;45.395972;SGV12D;6133272195;-73.868628;45.48346;0;3;4;9492745;Bus 91 : Service AM;"";EXO;91 AM;Gare Vaudreuil;Gare Vaudreuil
20667246;"{\"type\":\"LineString\",\"coordinates\":[[-73.8808603,45.4275923],[-73.8791572,45.4278695],[-73.8762255,45.4283032],[-73.8662176,45.4299115],[-73.8611365,45.4307306],[-73.8590851,45.4311222],[-73.8567248,45.4316402],[-73.852768,45.4327183],[-73.8514462,45.4330707]]}";22;Autoroute du Souvenir;1;100;false;true;true;false;false;false;2384.0;0;0;0;0;0;false;72040;6133275280;-73.963554;45.395972;SGV12D;6133272195;-73.868628;45.48346;0;3;4;9492745;Bus 91 : Service AM;"";EXO;91 AM;Gare Vaudreuil;Gare Vaudreuil
12117188;"{\"type\":\"LineString\",\"coordinates\":[[-73.8514462,45.4330707],[-73.8483552,45.4337797],[-73.8470982,45.4340865]]}";23;"";1;50;false;true;true;false;false;false;359.0;1;0;0;0;0;false;72040;6133275280;-73.963554;45.395972;SGV12D;6133272195;-73.868628;45.48346;0;3;4;9492745;Bus 91 : Service AM;"";EXO;91 AM;Gare Vaudreuil;Gare Vaudreuil
453746520;"{\"type\":\"LineString\",\"coordinates\":[[-73.8470982,45.4340865],[-73.8469299,45.4341357]]}";24;"";1;50;false;true;true;false;false;false;15.0;2;0;0;0;0;false;72040;6133275280;-73.963554;45.395972;SGV12D;6133272195;-73.868628;45.48346;0;3;4;9492745;Bus 91 : Service AM;"";EXO;91 AM;Gare Vaudreuil;Gare Vaudreuil
483215911;"{\"type\":\"LineString\",\"coordinates\":[[-73.8469299,45.4341357],[-73.8470691,45.4346495]]}";25;Boulevard Saint-Charles;1;50;false;true;true;false;false;false;59.0;2;0;0;0;0;false;72040;6133275280;-73.963554;45.395972;SGV12D;6133272195;-73.868628;45.48346;0;3;4;9492745;Bus 91 : Service AM;"";EXO;91 AM;Gare Vaudreuil;Gare Vaudreuil
766767527;"{\"type\":\"LineString\",\"coordinates\":[[-73.8470691,45.4346495],[-73.8471679,45.4349814]]}";26;Boulevard Saint-Charles;1;50;false;true;true;false;false;false;38.0;1;0;0;0;0;false;72040;6133275280;-73.963554;45.395972;SGV12D;6133272195;-73.868628;45.48346;0;3;4;9492745;Bus 91 : Service AM;"";EXO;91 AM;Gare Vaudreuil;Gare Vaudreuil
766767525;"{\"type\":\"LineString\",\"coordinates\":[[-73.8471679,45.4349814],[-73.8472217,45.4351618]]}";27;Boulevard Saint-Charles;1;50;false;true;true;false;false;false;21.0;0;0;0;0;0;false;72040;6133275280;-73.963554;45.395972;SGV12D;6133272195;-73.868628;45.48346;0;3;4;9492745;Bus 91 : Service AM;"";EXO;91 AM;Gare Vaudreuil;Gare Vaudreuil
453942886;"{\"type\":\"LineString\",\"coordinates\":[[-73.8472217,45.4351618],[-73.8472493,45.4352545],[-73.8475208,45.4359053]]}";28;Boulevard Saint-Charles;1;50;false;true;true;false;false;false;86.0;0;0;0;0;0;false;72040;6133275280;-73.963554;45.395972;SGV12D;6133272195;-73.868628;45.48346;0;3;4;9492745;Bus 91 : Service AM;"";EXO;91 AM;Gare Vaudreuil;Gare Vaudreuil
173875445;"{\"type\":\"LineString\",\"coordinates\":[[-73.8475208,45.4359053],[-73.8476843,45.4362431]]}";29;Boulevard Saint-Charles;1;50;false;true;true;false;false;false;40.0;0;0;0;0;0;false;72040;6133275280;-73.963554;45.395972;SGV12D;6133272195;-73.868628;45.48346;0;3;4;9492745;Bus 91 : Service AM;"";EXO;91 AM;Gare Vaudreuil;Gare Vaudreuil
12117504;"{\"type\":\"LineString\",\"coordinates\":[[-73.8476843,45.4362431],[-73.848352,45.4374993]]}";30;Boulevard Saint-Charles;3;50;false;true;true;false;false;false;149.0;0;0;0;0;0;false;72040;6133275280;-73.963554;45.395972;SGV12D;6133272195;-73.868628;45.48346;0;3;4;9492745;Bus 91 : Service AM;"";EXO;91 AM;Gare Vaudreuil;Gare Vaudreuil
453940693;"{\"type\":\"LineString\",\"coordinates\":[[-73.848352,45.4374993],[-73.8486931,45.4382162]]}";31;Boulevard Saint-Charles;3;50;false;true;true;false;false;false;84.0;0;0;0;0;0;false;72040;6133275280;-73.963554;45.395972;SGV12D;6133272195;-73.868628;45.48346;0;3;4;9492745;Bus 91 : Service AM;"";EXO;91 AM;Gare Vaudreuil;Gare Vaudreuil
453940695;"{\"type\":\"LineString\",\"coordinates\":[[-73.8486931,45.4382162],[-73.8489544,45.4387892],[-73.8492087,45.4393466]]}";32;Boulevard Saint-Charles;3;50;false;true;true;false;false;false;132.0;0;0;0;0;0;false;72040;6133275280;-73.963554;45.395972;SGV12D;6133272195;-73.868628;45.48346;0;3;4;9492745;Bus 91 : Service AM;"";EXO;91 AM;Gare Vaudreuil;Gare Vaudreuil
453726383;"{\"type\":\"LineString\",\"coordinates\":[[-73.8492087,45.4393466],[-73.8506884,45.4428798],[-73.8507324,45.4430006]]}";33;Boulevard Saint-Charles;3;50;false;true;true;false;false;false;423.0;0;0;0;0;0;false;72040;6133275280;-73.963554;45.395972;SGV12D;6133272195;-73.868628;45.48346;0;3;4;9492745;Bus 91 : Service AM;"";EXO;91 AM;Gare Vaudreuil;Gare Vaudreuil
453725777;"{\"type\":\"LineString\",\"coordinates\":[[-73.8507324,45.4430006],[-73.8509193,45.4434731]]}";34;Boulevard Saint-Charles;3;50;false;true;true;false;false;false;55.0;1;0;0;0;0;false;72040;6133275280;-73.963554;45.395972;SGV12D;6133272195;-73.868628;45.48346;0;3;4;9492745;Bus 91 : Service AM;"";EXO;91 AM;Gare Vaudreuil;Gare Vaudreuil
453724468;"{\"type\":\"LineString\",\"coordinates\":[[-73.8509193,45.4434731],[-73.8516599,45.4451349],[-73.8518818,45.4455098]]}";35;Boulevard Saint-Charles;3;50;false;true;true;false;false;false;239.0;1;0;0;0;0;false;72040;6133275280;-73.963554;45.395972;SGV12D;6133272195;-73.868628;45.48346;0;3;4;9492745;Bus 91 : Service AM;"";EXO;91 AM;Gare Vaudreuil;Gare Vaudreuil
453716278;"{\"type\":\"LineString\",\"coordinates\":[[-73.8518818,45.4455098],[-73.8520195,45.4457242],[-73.8521781,45.4459504]]}";36;Boulevard Saint-Charles;3;50;false;true;true;false;false;false;55.0;0;0;0;0;0;false;72040;6133275280;-73.963554;45.395972;SGV12D;6133272195;-73.868628;45.48346;0;3;4;9492745;Bus 91 : Service AM;"";EXO;91 AM;Gare Vaudreuil;Gare Vaudreuil
453720553;"{\"type\":\"LineString\",\"coordinates\":[[-73.8521781,45.4459504],[-73.8529028,45.446812]]}";37;Boulevard Saint-Charles;3;50;false;true;true;false;false;false;112.0;0;0;0;0;0;false;72040;6133275280;-73.963554;45.395972;SGV12D;6133272195;-73.868628;45.48346;0;3;4;9492745;Bus 91 : Service AM;"";EXO;91 AM;Gare Vaudreuil;Gare Vaudreuil
453720552;"{\"type\":\"LineString\",\"coordinates\":[[-73.8529028,45.446812],[-73.8539984,45.4478769]]}";38;Boulevard Saint-Charles;3;50;false;true;true;false;false;false;147.0;0;0;0;0;0;false;72040;6133275280;-73.963554;45.395972;SGV12D;6133272195;-73.868628;45.48346;0;3;4;9492745;Bus 91 : Service AM;"";EXO;91 AM;Gare Vaudreuil;Gare Vaudreuil
453715243;"{\"type\":\"LineString\",\"coordinates\":[[-73.8539984,45.4478769],[-73.8557058,45.4495418]]}";39;Boulevard Saint-Charles;3;50;false;true;true;false;false;false;229.0;0;0;0;0;0;false;72040;6133275280;-73.963554;45.395972;SGV12D;6133272195;-73.868628;45.48346;0;3;4;9492745;Bus 91 : Service AM;"";EXO;91 AM;Gare Vaudreuil;Gare Vaudreuil
453710232;"{\"type\":\"LineString\",\"coordinates\":[[-73.8557058,45.4495418],[-73.8560991,45.4499087],[-73.8568406,45.4505994]]}";40;Boulevard Saint-Charles;3;50;false;true;true;false;false;false;148.0;1;0;0;0;0;false;72040;6133275280;-73.963554;45.395972;SGV12D;6133272195;-73.868628;45.48346;0;3;4;9492745;Bus 91 : Service AM;"";EXO;91 AM;Gare Vaudreuil;Gare Vaudreuil
453709667;"{\"type\":\"LineString\",\"coordinates\":[[-73.8568406,45.4505994],[-73.8578602,45.4516196]]}";41;Boulevard Saint-Charles;3;50;false;true;true;false;false;false;139.0;2;0;0;0;0;false;72040;6133275280;-73.963554;45.395972;SGV12D;6133272195;-73.868628;45.48346;0;3;4;9492745;Bus 91 : Service AM;"";EXO;91 AM;Gare Vaudreuil;Gare Vaudreuil
453709674;"{\"type\":\"LineString\",\"coordinates\":[[-73.8578602,45.4516196],[-73.8580537,45.4518022],[-73.8584084,45.4521472]]}";42;Boulevard Saint-Charles;3;50;false;true;true;false;false;false;73.0;1;0;0;0;0;false;72040;6133275280;-73.963554;45.395972;SGV12D;6133272195;-73.868628;45.48346;0;3;4;9492745;Bus 91 : Service AM;"";EXO;91 AM;Gare Vaudreuil;Gare Vaudreuil
197425718;"{\"type\":\"LineString\",\"coordinates\":[[-73.8584084,45.4521472],[-73.8592691,45.4529977]]}";43;Boulevard Saint-Charles;3;50;false;true;true;false;false;false;116.0;0;0;0;0;0;false;72040;6133275280;-73.963554;45.395972;SGV12D;6133272195;-73.868628;45.48346;0;3;4;9492745;Bus 91 : Service AM;"";EXO;91 AM;Gare Vaudreuil;Gare Vaudreuil
453707585;"{\"type\":\"LineString\",\"coordinates\":[[-73.8592691,45.4529977],[-73.8593956,45.4531283]]}";44;Boulevard Saint-Charles;3;50;false;true;true;false;false;false;18.0;0;0;0;0;0;false;72040;6133275280;-73.963554;45.395972;SGV12D;6133272195;-73.868628;45.48346;0;3;4;9492745;Bus 91 : Service AM;"";EXO;91 AM;Gare Vaudreuil;Gare Vaudreuil
474780656;"{\"type\":\"LineString\",\"coordinates\":[[-73.8593956,45.4531283],[-73.8598882,45.4536386]]}";45;Boulevard Saint-Charles;3;50;false;true;true;false;false;false;69.0;1;0;0;0;0;false;72040;6133275280;-73.963554;45.395972;SGV12D;6133272195;-73.868628;45.48346;0;3;4;9492745;Bus 91 : Service AM;"";EXO;91 AM;Gare Vaudreuil;Gare Vaudreuil
453703517;"{\"type\":\"LineString\",\"coordinates\":[[-73.8598882,45.4536386],[-73.8602838,45.4540496],[-73.8609207,45.4547304],[-73.8613487,45.4551701]]}";46;Boulevard Saint-Charles;3;50;false;true;true;false;false;false;205.0;1;0;0;0;0;false;72040;6133275280;-73.963554;45.395972;SGV12D;6133272195;-73.868628;45.48346;0;3;4;9492745;Bus 91 : Service AM;"";EXO;91 AM;Gare Vaudreuil;Gare Vaudreuil
453707583;"{\"type\":\"LineString\",\"coordinates\":[[-73.8613487,45.4551701],[-73.8621328,45.4560368]]}";47;Boulevard Saint-Charles;3;50;false;true;true;false;false;false;115.0;1;0;0;0;0;false;72040;6133275280;-73.963554;45.395972;SGV12D;6133272195;-73.868628;45.48346;0;3;4;9492745;Bus 91 : Service AM;"";EXO;91 AM;Gare Vaudreuil;Gare Vaudreuil
453706523;"{\"type\":\"LineString\",\"coordinates\":[[-73.8621328,45.4560368],[-73.8622331,45.4561368]]}";48;Boulevard Saint-Charles;3;50;false;true;true;false;false;false;14.0;2;0;0;0;0;false;72040;6133275280;-73.963554;45.395972;SGV12D;6133272195;-73.868628;45.48346;0;3;4;9492745;Bus 91 : Service AM;"";EXO;91 AM;Gare Vaudreuil;Gare Vaudreuil
453706526;"{\"type\":\"LineString\",\"coordinates\":[[-73.8622331,45.4561368],[-73.8625355,45.4564639],[-73.8631378,45.4571154],[-73.86338,45.4573775],[-73.8634662,45.4574708],[-73.8638053,45.4578376]]}";49;Boulevard Saint-Charles;3;50;false;true;true;false;false;false;226.0;2;0;0;0;0;false;72040;6133275280;-73.963554;45.395972;SGV12D;6133272195;-73.868628;45.48346;0;3;4;9492745;Bus 91 : Service AM;"";EXO;91 AM;Gare Vaudreuil;Gare Vaudreuil
607254952;"{\"type\":\"LineString\",\"coordinates\":[[-73.8638053,45.4578376],[-73.8638844,45.4579231]]}";50;Boulevard Saint-Charles;3;50;false;true;true;false;false;false;12.0;2;0;0;0;0;false;72040;6133275280;-73.963554;45.395972;SGV12D;6133272195;-73.868628;45.48346;0;3;4;9492745;Bus 91 : Service AM;"";EXO;91 AM;Gare Vaudreuil;Gare Vaudreuil
607254956;"{\"type\":\"LineString\",\"coordinates\":[[-73.8638844,45.4579231],[-73.8640447,45.4580965],[-73.8643992,45.45848],[-73.8645059,45.4585954],[-73.8649104,45.459033]]}";51;Boulevard Saint-Charles;3;50;false;true;true;false;false;false;148.0;2;0;0;0;0;false;72040;6133275280;-73.963554;45.395972;SGV12D;6133272195;-73.868628;45.48346;0;3;4;9492745;Bus 91 : Service AM;"";EXO;91 AM;Gare Vaudreuil;Gare Vaudreuil
453703522;"{\"type\":\"LineString\",\"coordinates\":[[-73.8649104,45.459033],[-73.8655558,45.459731],[-73.8659106,45.4601149],[-73.8661499,45.4603737]]}";52;Boulevard Saint-Charles;3;50;false;true;true;false;false;false;178.0;2;0;0;0;0;false;72040;6133275280;-73.963554;45.395972;SGV12D;6133272195;-73.868628;45.48346;0;3;4;9492745;Bus 91 : Service AM;"";EXO;91 AM;Gare Vaudreuil;Gare Vaudreuil
12123148;"{\"type\":\"LineString\",\"coordinates\":[[-73.8661499,45.4603737],[-73.8662325,45.4604594],[-73.8666187,45.4608455],[-73.8670016,45.4612282],[-73.8671812,45.4614125],[-73.8675809,45.4616871],[-73.8681281,45.4620154],[-73.8685048,45.4622213],[-73.8687557,45.4623457]]}";53;Boulevard Saint-Charles;3;50;false;true;true;false;false;false;302.0;3;0;0;0;0;false;72040;6133275280;-73.963554;45.395972;SGV12D;6133272195;-73.868628;45.48346;0;3;4;9492745;Bus 91 : Service AM;"";EXO;91 AM;Gare Vaudreuil;Gare Vaudreuil
455503630;"{\"type\":\"LineString\",\"coordinates\":[[-73.8687557,45.4623457],[-73.8699831,45.4628875],[-73.8703979,45.4630894],[-73.8709088,45.4633938]]}";54;Boulevard Saint-Charles;3;50;false;true;true;false;false;false;205.0;1;0;0;0;0;false;72040;6133275280;-73.963554;45.395972;SGV12D;6133272195;-73.868628;45.48346;0;3;4;9492745;Bus 91 : Service AM;"";EXO;91 AM;Gare Vaudreuil;Gare Vaudreuil
553917821;"{\"type\":\"LineString\",\"coordinates\":[[-73.8709088,45.4633938],[-73.8717638,45.4640015]]}";55;Boulevard Saint-Charles;3;50;false;true;true;false;false;false;95.0;0;0;0;0;0;false;72040;6133275280;-73.963554;45.395972;SGV12D;6133272195;-73.868628;45.48346;0;3;4;9492745;Bus 91 : Service AM;"";EXO;91 AM;Gare Vaudreuil;Gare Vaudreuil
553917825;"{\"type\":\"LineString\",\"coordinates\":[[-73.8717638,45.4640015],[-73.8721561,45.4643737],[-73.8724421,45.4647258]]}";56;Boulevard Saint-Charles;3;50;false;true;true;false;false;false;97.0;0;0;0;0;0;false;72040;6133275280;-73.963554;45.395972;SGV12D;6133272195;-73.868628;45.48346;0;3;4;9492745;Bus 91 : Service AM;"";EXO;91 AM;Gare Vaudreuil;Gare Vaudreuil
553917830;"{\"type\":\"LineString\",\"coordinates\":[[-73.8724421,45.4647258],[-73.8731077,45.4656214],[-73.8731783,45.4657164]]}";57;Boulevard Saint-Charles;3;50;false;true;true;false;false;false;125.0;2;0;0;0;0;false;72040;6133275280;-73.963554;45.395972;SGV12D;6133272195;-73.868628;45.48346;0;3;4;9492745;Bus 91 : Service AM;"";EXO;91 AM;Gare Vaudreuil;Gare Vaudreuil
455503622;"{\"type\":\"LineString\",\"coordinates\":[[-73.8731783,45.4657164],[-73.8739709,45.466793]]}";58;Boulevard Saint-Charles;3;50;false;true;true;false;false;false;135.0;1;0;0;0;0;false;72040;6133275280;-73.963554;45.395972;SGV12D;6133272195;-73.868628;45.48346;0;3;4;9492745;Bus 91 : Service AM;"";EXO;91 AM;Gare Vaudreuil;Gare Vaudreuil
455503621;"{\"type\":\"LineString\",\"coordinates\":[[-73.8739709,45.466793],[-73.875521,45.4689104]]}";59;Boulevard Saint-Charles;3;50;false;true;true;false;false;false;265.0;1;0;0;0;0;false;72040;6133275280;-73.963554;45.395972;SGV12D;6133272195;-73.868628;45.48346;0;3;4;9492745;Bus 91 : Service AM;"";EXO;91 AM;Gare Vaudreuil;Gare Vaudreuil
182811750;"{\"type\":\"LineString\",\"coordinates\":[[-73.875521,45.4689104],[-73.8751565,45.4691367],[-73.8749134,45.4693107],[-73.874428,45.4697001],[-73.8741141,45.4700105],[-73.8738567,45.4703246],[-73.873575,45.4707177],[-73.8733666,45.471076],[-73.8727156,45.4726957],[-73.8724351,45.4733529],[-73.8721588,45.474062],[-73.8719147,45.4746657],[-73.8717175,45.475074],[-73.8714497,45.475423],[-73.871011,45.4759945]]}";60;Boulevard de Pierrefonds;5;50;false;false;true;false;false;false;876.0;2;0;0;0;0;false;72040;6133275280;-73.963554;45.395972;SGV12D;6133272195;-73.868628;45.48346;0;3;4;9492745;Bus 91 : Service AM;"";EXO;91 AM;Gare Vaudreuil;Gare Vaudreuil
684244574;"{\"type\":\"LineString\",\"coordinates\":[[-73.8732072,45.4786097],[-73.8726508,45.4781266],[-73.8724509,45.4779531],[-73.8722792,45.4777364],[-73.8717902,45.477082],[-73.8710995,45.4761175],[-73.871011,45.4759945]]}";61;Rue Sainte-Anne;2;50;false;false;true;false;false;false;339.0;1;0;0;0;0;false;72040;6133275280;-73.963554;45.395972;SGV12D;6133272195;-73.868628;45.48346;0;3;4;9492745;Bus 91 : Service AM;"";EXO;91 AM;Gare Vaudreuil;Gare Vaudreuil
684244572;"{\"type\":\"LineString\",\"coordinates\":[[-73.8732072,45.4786097],[-73.8729009,45.4791519],[-73.8728083,45.4792878],[-73.8726487,45.4794631],[-73.8725639,45.4795252],[-73.8724355,45.4796009],[-73.8721705,45.4797141],[-73.871891,45.4798166],[-73.8712745,45.4800327],[-73.8705965,45.480277],[-73.8704462,45.4803548],[-73.8703311,45.480445],[-73.8701521,45.4806946],[-73.8698874,45.481137],[-73.8698688,45.4811681],[-73.8697386,45.4814315],[-73.8697019,45.48163],[-73.8696729,45.481787],[-73.8696205,45.4818943],[-73.8695038,45.482003],[-73.8691003,45.4822377]]}";62;Boulevard Gouin Ouest;2;50;false;false;true;false;false;false;546.0;0;1;0;0;0;false;72040;6133275280;-73.963554;45.395972;SGV12D;6133272195;-73.868628;45.48346;0;3;4;9492745;Bus 91 : Service AM;"";EXO;91 AM;Gare Vaudreuil;Gare Vaudreuil
184588277;"{\"type\":\"LineString\",\"coordinates\":[[-73.8676559,45.4831166],[-73.8677949,45.4831853],[-73.8679317,45.4832492],[-73.8681597,45.4832567],[-73.868393,45.483253],[-73.8685808,45.4832304],[-73.8687788,45.4832102],[-73.8689445,45.4831744],[-73.8691007,45.4831292],[-73.8691982,45.4830983],[-73.8694025,45.4829792],[-73.8694367,45.4829222],[-73.8694584,45.4828353],[-73.8691003,45.4822377]]}";63;"";1;50;false;false;true;false;false;false;238.0;0;0;0;0;0;false;72040;6133275280;-73.963554;45.395972;SGV12D;6133272195;-73.868628;45.48346;2;3;4;9492745;Bus 91 : Service AM;"";EXO;91 AM;Gare Vaudreuil;Gare Vaudreuil
184588277;"{\"type\":\"LineString\",\"coordinates\":[[-73.8676559,45.4831166],[-73.8677949,45.4831853],[-73.8679317,45.4832492],[-73.8681597,45.4832567],[-73.868393,45.483253],[-73.8685808,45.4832304],[-73.8687788,45.4832102],[-73.8689445,45.4831744],[-73.8691007,45.4831292],[-73.8691982,45.4830983],[-73.8694025,45.4829792],[-73.8694367,45.4829222],[-73.8694584,45.4828353],[-73.8691003,45.4822377]]}";1;"";1;50;false;false;true;false;false;false;119.0;0;0;0;0;0;false;SGV12D;6133272195;-73.868628;45.48346;DDO1C;6133272197;-73.842208;45.480188;1;4;5;9492745;Bus 91 : Service AM;"";EXO;91 AM;Gare Vaudreuil;Gare Vaudreuil
684244570;"{\"type\":\"LineString\",\"coordinates\":[[-73.8676559,45.4831166],[-73.8675268,45.4832282],[-73.867403,45.4833353],[-73.8666154,45.4841252],[-73.8662882,45.4843381],[-73.8656052,45.4846625],[-73.8650757,45.4849221],[-73.8649418,45.4849807]]}";2;Boulevard Gouin Ouest;2;50;false;false;true;false;false;false;301.0;1;0;0;0;0;false;SGV12D;6133272195;-73.868628;45.48346;DDO1C;6133272197;-73.842208;45.480188;0;4;5;9492745;Bus 91 : Service AM;"";EXO;91 AM;Gare Vaudreuil;Gare Vaudreuil
47470837;"{\"type\":\"LineString\",\"coordinates\":[[-73.8649418,45.4849807],[-73.8635202,45.4837383],[-73.86331,45.4835317],[-73.8629245,45.4830588],[-73.8623469,45.4822173],[-73.8622762,45.4821057]]}";3;Boulevard Jacques-Bizard;2;50;false;true;true;false;false;false;384.0;2;0;0;0;0;false;SGV12D;6133272195;-73.868628;45.48346;DDO1C;6133272197;-73.842208;45.480188;0;4;5;9492745;Bus 91 : Service AM;"";EXO;91 AM;Gare Vaudreuil;Gare Vaudreuil
684244564;"{\"type\":\"LineString\",\"coordinates\":[[-73.8622762,45.4821057],[-73.8621455,45.4821871]]}";4;Boulevard de Pierrefonds;5;50;false;false;true;false;false;false;14.0;2;0;0;0;0;false;SGV12D;6133272195;-73.868628;45.48346;DDO1C;6133272197;-73.842208;45.480188;0;4;5;9492745;Bus 91 : Service AM;"";EXO;91 AM;Gare Vaudreuil;Gare Vaudreuil
455252473;"{\"type\":\"LineString\",\"coordinates\":[[-73.8621455,45.4821871],[-73.8616067,45.4825659]]}";5;Boulevard de Pierrefonds;5;50;false;false;true;false;false;false;60.0;1;0;0;0;0;false;SGV12D;6133272195;-73.868628;45.48346;DDO1C;6133272197;-73.842208;45.480188;0;4;5;9492745;Bus 91 : Service AM;"";EXO;91 AM;Gare Vaudreuil;Gare Vaudreuil
455252474;"{\"type\":\"LineString\",\"coordinates\":[[-73.8616067,45.4825659],[-73.8611538,45.4828997],[-73.8609856,45.4830238],[-73.8609043,45.4830837],[-73.8607313,45.4832086],[-73.8606399,45.4832746],[-73.8605231,45.4833589],[-73.8603655,45.4834727],[-73.8601828,45.4836046],[-73.8596566,45.483972]]}";6;Boulevard de Pierrefonds;5;50;false;false;true;false;false;false;219.0;1;0;0;0;0;false;SGV12D;6133272195;-73.868628;45.48346;DDO1C;6133272197;-73.842208;45.480188;0;4;5;9492745;Bus 91 : Service AM;"";EXO;91 AM;Gare Vaudreuil;Gare Vaudreuil
182810269;"{\"type\":\"LineString\",\"coordinates\":[[-73.8523909,45.4915774],[-73.852759,45.4913303],[-73.8529187,45.4912231],[-73.853043,45.4911397],[-73.8532866,45.4909761],[-73.8534309,45.4908793],[-73.8539647,45.4905209],[-73.8540461,45.490461],[-73.8542588,45.4903043],[-73.8546427,45.4900099],[-73.854836,45.4898575],[-73.8548785,45.4898165],[-73.854988,45.4897057],[-73.855415,45.4892739],[-73.8558332,45.4887554],[-73.8559208,45.4886015],[-73.8563228,45.4878947],[-73.8563638,45.4878226],[-73.8563955,45.487761],[-73.8568804,45.4868189],[-73.8571324,45.4863752],[-73.8572613,45.486196],[-73.8574157,45.4859813],[-73.857616,45.4857337],[-73.8579545,45.4853709],[-73.8580074,45.4853142],[-73.8582581,45.4850456],[-73.8583294,45.4849856],[-73.8584424,45.4848906],[-73.8588785,45.4845237],[-73.8589535,45.4844705],[-73.8590351,45.4844127],[-73.8596566,45.483972]]}";7;Boulevard de Pierrefonds;5;50;false;false;true;false;false;false;1033.0;3;2;0;0;0;false;SGV12D;6133272195;-73.868628;45.48346;DDO1C;6133272197;-73.842208;45.480188;0;4;5;9492745;Bus 91 : Service AM;"";EXO;91 AM;Gare Vaudreuil;Gare Vaudreuil
182810272;"{\"type\":\"LineString\",\"coordinates\":[[-73.8523909,45.4915774],[-73.852105,45.4916008],[-73.8519082,45.49156],[-73.8516978,45.4914565]]}";8;"";1;50;false;true;true;false;false;false;59.0;0;0;0;0;0;false;SGV12D;6133272195;-73.868628;45.48346;DDO1C;6133272197;-73.842208;45.480188;0;4;5;9492745;Bus 91 : Service AM;"";EXO;91 AM;Gare Vaudreuil;Gare Vaudreuil
436215074;"{\"type\":\"LineString\",\"coordinates\":[[-73.8516978,45.4914565],[-73.8516603,45.4913977],[-73.8513324,45.4908836],[-73.8500998,45.4889515]]}";9;Boulevard Saint-Jean;3;50;false;true;true;false;false;false;305.0;1;0;0;0;0;false;SGV12D;6133272195;-73.868628;45.48346;DDO1C;6133272197;-73.842208;45.480188;0;4;5;9492745;Bus 91 : Service AM;"";EXO;91 AM;Gare Vaudreuil;Gare Vaudreuil
604967193;"{\"type\":\"LineString\",\"coordinates\":[[-73.8500998,45.4889515],[-73.8492733,45.487618]]}";10;Boulevard Saint-Jean;3;50;false;true;true;false;false;false;162.0;2;0;0;0;0;false;SGV12D;6133272195;-73.868628;45.48346;DDO1C;6133272197;-73.842208;45.480188;0;4;5;9492745;Bus 91 : Service AM;"";EXO;91 AM;Gare Vaudreuil;Gare Vaudreuil
436211982;"{\"type\":\"LineString\",\"coordinates\":[[-73.8492733,45.487618],[-73.8487658,45.486903]]}";11;Boulevard Saint-Jean;3;50;false;true;true;false;false;false;89.0;2;0;0;0;0;false;SGV12D;6133272195;-73.868628;45.48346;DDO1C;6133272197;-73.842208;45.480188;0;4;5;9492745;Bus 91 : Service AM;"";EXO;91 AM;Gare Vaudreuil;Gare Vaudreuil
436211306;"{\"type\":\"LineString\",\"coordinates\":[[-73.8487658,45.486903],[-73.8481399,45.486236]]}";12;Boulevard Saint-Jean;3;50;false;true;true;false;false;false;89.0;1;0;0;0;0;false;SGV12D;6133272195;-73.868628;45.48346;DDO1C;6133272197;-73.842208;45.480188;0;4;5;9492745;Bus 91 : Service AM;"";EXO;91 AM;Gare Vaudreuil;Gare Vaudreuil
436211305;"{\"type\":\"LineString\",\"coordinates\":[[-73.8481399,45.486236],[-73.846527,45.4845749]]}";13;Boulevard Saint-Jean;3;50;false;true;true;false;false;false;224.0;1;0;0;0;0;false;SGV12D;6133272195;-73.868628;45.48346;DDO1C;6133272197;-73.842208;45.480188;0;4;5;9492745;Bus 91 : Service AM;"";EXO;91 AM;Gare Vaudreuil;Gare Vaudreuil
436210820;"{\"type\":\"LineString\",\"coordinates\":[[-73.846527,45.4845749],[-73.8456201,45.4836585]]}";14;Boulevard Saint-Jean;3;50;false;true;true;false;false;false;125.0;1;0;0;0;0;false;SGV12D;6133272195;-73.868628;45.48346;DDO1C;6133272197;-73.842208;45.480188;0;4;5;9492745;Bus 91 : Service AM;"";EXO;91 AM;Gare Vaudreuil;Gare Vaudreuil
436210823;"{\"type\":\"LineString\",\"coordinates\":[[-73.8456201,45.4836585],[-73.8450035,45.4830354],[-73.844333,45.4823897]]}";15;Boulevard Saint-Jean;3;50;false;true;true;false;false;false;174.0;0;0;0;0;0;false;SGV12D;6133272195;-73.868628;45.48346;DDO1C;6133272197;-73.842208;45.480188;0;4;5;9492745;Bus 91 : Service AM;"";EXO;91 AM;Gare Vaudreuil;Gare Vaudreuil
453962972;"{\"type\":\"LineString\",\"coordinates\":[[-73.844333,45.4823897],[-73.8419814,45.480125]]}";16;Boulevard Saint-Jean;3;50;false;true;true;false;false;false;156.0;1;0;0;0;0;false;SGV12D;6133272195;-73.868628;45.48346;DDO1C;6133272197;-73.842208;45.480188;1;4;5;9492745;Bus 91 : Service AM;"";EXO;91 AM;Gare Vaudreuil;Gare Vaudreuil
433012892;"{\"type\":\"LineString\",\"coordinates\":[[-73.8419814,45.480125],[-73.8416051,45.479747],[-73.840029,45.4781638],[-73.8390002,45.4771559],[-73.838451,45.4766179]]}";1;Boulevard Saint-Jean;3;50;false;true;true;false;false;false;478.0;2;0;0;0;0;false;DDO1C;6133272197;-73.842208;45.480188;72280;6133274744;-73.833175;45.466676;2;5;6;9492745;Bus 91 : Service AM;"";EXO;91 AM;Gare Vaudreuil;Gare Vaudreuil
436209612;"{\"type\":\"LineString\",\"coordinates\":[[-73.838451,45.4766179],[-73.8381212,45.4762901]]}";2;Boulevard Saint-Jean;3;50;false;true;true;false;false;false;45.0;1;0;0;0;0;false;DDO1C;6133272197;-73.842208;45.480188;72280;6133274744;-73.833175;45.466676;0;5;6;9492745;Bus 91 : Service AM;"";EXO;91 AM;Gare Vaudreuil;Gare Vaudreuil
433011771;"{\"type\":\"LineString\",\"coordinates\":[[-73.8381212,45.4762901],[-73.8372033,45.4753777],[-73.8371426,45.4753174]]}";3;Boulevard Saint-Jean;3;50;false;true;true;false;false;false;133.0;1;0;0;0;0;false;DDO1C;6133272197;-73.842208;45.480188;72280;6133274744;-73.833175;45.466676;0;5;6;9492745;Bus 91 : Service AM;"";EXO;91 AM;Gare Vaudreuil;Gare Vaudreuil
436207105;"{\"type\":\"LineString\",\"coordinates\":[[-73.8371426,45.4753174],[-73.8369734,45.4751494],[-73.8361505,45.4743327],[-73.8359913,45.4741748],[-73.8356459,45.473832],[-73.8351668,45.4733754]]}";4;Boulevard Saint-Jean;3;50;false;true;true;false;false;false;266.0;2;0;0;0;0;false;DDO1C;6133272197;-73.842208;45.480188;72280;6133274744;-73.833175;45.466676;0;5;6;9492745;Bus 91 : Service AM;"";EXO;91 AM;Gare Vaudreuil;Gare Vaudreuil
436208418;"{\"type\":\"LineString\",\"coordinates\":[[-73.8351668,45.4733754],[-73.8350742,45.4732781]]}";5;Boulevard Saint-Jean;3;50;false;true;true;false;false;false;14.0;2;0;0;0;0;false;DDO1C;6133272197;-73.842208;45.480188;72280;6133274744;-73.833175;45.466676;0;5;6;9492745;Bus 91 : Service AM;"";EXO;91 AM;Gare Vaudreuil;Gare Vaudreuil
433011341;"{\"type\":\"LineString\",\"coordinates\":[[-73.8350742,45.4732781],[-73.8350146,45.473219],[-73.8346114,45.472817],[-73.8331881,45.471398]]}";6;Boulevard Saint-Jean;3;50;false;true;true;false;false;false;256.0;2;0;0;0;0;false;DDO1C;6133272197;-73.842208;45.480188;72280;6133274744;-73.833175;45.466676;0;5;6;9492745;Bus 91 : Service AM;"";EXO;91 AM;Gare Vaudreuil;Gare Vaudreuil
574690648;"{\"type\":\"LineString\",\"coordinates\":[[-73.8331881,45.471398],[-73.833158,45.4713702],[-73.8331146,45.4713301]]}";7;Boulevard Saint-Jean;3;50;false;true;true;false;false;false;10.0;2;0;0;0;0;false;DDO1C;6133272197;-73.842208;45.480188;72280;6133274744;-73.833175;45.466676;0;5;6;9492745;Bus 91 : Service AM;"";EXO;91 AM;Gare Vaudreuil;Gare Vaudreuil
453986338;"{\"type\":\"LineString\",\"coordinates\":[[-73.8331146,45.4713301],[-73.8324737,45.4706908]]}";8;Boulevard Saint-Jean;3;50;false;true;true;false;false;false;87.0;2;0;0;0;0;false;DDO1C;6133272197;-73.842208;45.480188;72280;6133274744;-73.833175;45.466676;0;5;6;9492745;Bus 91 : Service AM;"";EXO;91 AM;Gare Vaudreuil;Gare Vaudreuil
433011068;"{\"type\":\"LineString\",\"coordinates\":[[-73.8324737,45.4706908],[-73.8319087,45.4701356],[-73.8314771,45.4697108]]}";9;Boulevard Saint-Jean;3;50;false;true;true;false;false;false;134.0;1;0;0;0;0;false;DDO1C;6133272197;-73.842208;45.480188;72280;6133274744;-73.833175;45.466676;0;5;6;9492745;Bus 91 : Service AM;"";EXO;91 AM;Gare Vaudreuil;Gare Vaudreuil
453988224;"{\"type\":\"LineString\",\"coordinates\":[[-73.8314771,45.4697108],[-73.8313138,45.4695559]]}";10;Boulevard Saint-Jean;3;50;false;true;true;false;false;false;22.0;1;0;0;0;0;false;DDO1C;6133272197;-73.842208;45.480188;72280;6133274744;-73.833175;45.466676;0;5;6;9492745;Bus 91 : Service AM;"";EXO;91 AM;Gare Vaudreuil;Gare Vaudreuil
453987650;"{\"type\":\"LineString\",\"coordinates\":[[-73.8313138,45.4695559],[-73.8324666,45.4689317],[-73.8327439,45.4687816],[-73.8328414,45.4687288],[-73.8328921,45.4687014],[-73.8331611,45.4685558],[-73.8333754,45.4684397],[-73.8342725,45.467954]]}";11;Avenue Labrosse;4;40;false;false;true;false;false;false;292.0;1;0;0;0;0;false;DDO1C;6133272197;-73.842208;45.480188;72280;6133274744;-73.833175;45.466676;0;5;6;9492745;Bus 91 : Service AM;"";EXO;91 AM;Gare Vaudreuil;Gare Vaudreuil
455243730;"{\"type\":\"LineString\",\"coordinates\":[[-73.8342725,45.467954],[-73.8340849,45.467768],[-73.8337985,45.4674842],[-73.8336745,45.4673613]]}";12;Avenue Auto-Plaza;4;40;false;false;true;false;false;false;81.0;0;0;0;0;0;false;DDO1C;6133272197;-73.842208;45.480188;72280;6133274744;-73.833175;45.466676;0;5;6;9492745;Bus 91 : Service AM;"";EXO;91 AM;Gare Vaudreuil;Gare Vaudreuil
684244548;"{\"type\":\"LineString\",\"coordinates\":[[-73.8336745,45.4673613],[-73.8333252,45.467015],[-73.8330201,45.4667126],[-73.8329205,45.4666139]]}";13;Avenue Auto-Plaza;4;40;false;false;true;false;false;false;102.0;0;0;0;0;0;false;DDO1C;6133272197;-73.842208;45.480188;72280;6133274744;-73.833175;45.466676;2;5;6;9492745;Bus 91 : Service AM;"";EXO;91 AM;Gare Vaudreuil;Gare Vaudreuil
