way_id;shape;index;name;nb_lanes;legal_speed;speed_zone_30;oneway;shares_bike;bike_box;bus_lane;dedicated_bus_lane;length;nb_traffic_signals;nb_crossings;nb_stops;nb_give_ways;nb_lvl_crossings;roundabout;stop_id_orig;node_id_orig;coord_x_orig;coord_y_orig;stop_id_dest;node_id_dest;coord_x_dest;coord_y_dest;nb_neighbouring_ways_bus_stop;order_orig;order_dest;id_line;line_name;colour;operator;ref;from;to
83805219;"{\"type\":\"LineString\",\"coordinates\":[[-6.2344854,53.4257558],[-6.2347378,53.4254446],[-6.2349983,53.4251505],[-6.2350342,53.4250998],[-6.2350696,53.4250087]]}";1;East Link Road;2;50;false;true;true;false;false;false;93.0;0;1;0;0;0;false;7347;1416633728;-6.2419917;53.4280826;214;500320838;-6.2466519;53.3792995;1;0;1;1611070;41 - Swords Manor - Abbey Street;"";Dublin Bus;41;Swords Manor;Lower Abbey Street
129123915;"{\"type\":\"LineString\",\"coordinates\":[[-6.2350696,53.4250087],[-6.235049,53.4249226],[-6.2349401,53.4248304]]}";2;East Link Road;1;50;false;true;true;false;false;false;23.0;0;0;0;0;0;false;7347;1416633728;-6.2419917;53.4280826;214;500320838;-6.2466519;53.3792995;0;0;1;1611070;41 - Swords Manor - Abbey Street;"";Dublin Bus;41;Swords Manor;Lower Abbey Street
541774369;"{\"type\":\"LineString\",\"coordinates\":[[-6.2349401,53.4248304],[-6.2343148,53.4246137],[-6.2340588,53.4244805]]}";3;East Link Road;1;50;false;true;true;false;false;false;72.0;1;0;0;0;0;false;7347;1416633728;-6.2419917;53.4280826;214;500320838;-6.2466519;53.3792995;0;0;1;1611070;41 - Swords Manor - Abbey Street;"";Dublin Bus;41;Swords Manor;Lower Abbey Street
541774368;"{\"type\":\"LineString\",\"coordinates\":[[-6.2327445,53.4240837],[-6.2340588,53.4244805]]}";4;Corballis Road South;6;50;false;false;true;false;false;false;99.0;1;0;0;0;0;false;7347;1416633728;-6.2419917;53.4280826;214;500320838;-6.2466519;53.3792995;0;0;1;1611070;41 - Swords Manor - Abbey Street;"";Dublin Bus;41;Swords Manor;Lower Abbey Street
87312113;"{\"type\":\"LineString\",\"coordinates\":[[-6.2311458,53.4235552],[-6.2319356,53.4238206],[-6.2325397,53.4240159],[-6.2327445,53.4240837]]}";5;Corballis Road South;4;50;false;false;true;false;false;false;123.0;0;0;0;0;0;false;7347;1416633728;-6.2419917;53.4280826;214;500320838;-6.2466519;53.3792995;0;0;1;1611070;41 - Swords Manor - Abbey Street;"";Dublin Bus;41;Swords Manor;Lower Abbey Street
3819238;"{\"type\":\"LineString\",\"coordinates\":[[-6.2311458,53.4235552],[-6.2309077,53.4235194],[-6.2304631,53.4233816],[-6.2303045,53.4233353],[-6.2301127,53.4232831]]}";6;Corballis Road South;2;50;false;true;true;false;false;false;76.0;2;0;0;0;0;false;7347;1416633728;-6.2419917;53.4280826;214;500320838;-6.2466519;53.3792995;0;0;1;1611070;41 - Swords Manor - Abbey Street;"";Dublin Bus;41;Swords Manor;Lower Abbey Street
63222197;"{\"type\":\"LineString\",\"coordinates\":[[-6.2301127,53.4232831],[-6.2301688,53.4232021],[-6.230223,53.4231238],[-6.2304189,53.4228838],[-6.230624,53.4226619],[-6.2309177,53.422383],[-6.2311269,53.4221968],[-6.2313308,53.4220146],[-6.2316513,53.4217389],[-6.2320241,53.4214336],[-6.2324747,53.4210923],[-6.232971,53.4207423],[-6.2333451,53.4204969],[-6.233616,53.4203307],[-6.2340049,53.4200941],[-6.2345816,53.4197816],[-6.2351556,53.4194603]]}";7;Swords Road;2;60;false;true;false;false;false;false;550.0;2;0;0;0;0;false;7347;1416633728;-6.2419917;53.4280826;214;500320838;-6.2466519;53.3792995;0;0;1;1611070;41 - Swords Manor - Abbey Street;"";Dublin Bus;41;Swords Manor;Lower Abbey Street
541750754;"{\"type\":\"LineString\",\"coordinates\":[[-6.2351556,53.4194603],[-6.2358604,53.4190627],[-6.2364216,53.4187306]]}";8;Swords Road;1;60;false;true;false;false;false;false;118.0;0;0;0;0;0;false;7347;1416633728;-6.2419917;53.4280826;214;500320838;-6.2466519;53.3792995;0;0;1;1611070;41 - Swords Manor - Abbey Street;"";Dublin Bus;41;Swords Manor;Lower Abbey Street
541750755;"{\"type\":\"LineString\",\"coordinates\":[[-6.2364216,53.4187306],[-6.2369393,53.4184237],[-6.237359,53.4181367],[-6.2377846,53.4178127],[-6.2381047,53.4175669],[-6.2383636,53.4174476]]}";9;Swords Road;2;60;false;true;false;false;false;false;195.0;1;0;0;0;0;false;7347;1416633728;-6.2419917;53.4280826;214;500320838;-6.2466519;53.3792995;0;0;1;1611070;41 - Swords Manor - Abbey Street;"";Dublin Bus;41;Swords Manor;Lower Abbey Street
274316818;"{\"type\":\"LineString\",\"coordinates\":[[-6.2383636,53.4174476],[-6.238593,53.4172473],[-6.2387221,53.4171345],[-6.2389049,53.4169079],[-6.2390604,53.4166786],[-6.239103,53.4165892]]}";10;Swords Road;2;60;false;false;false;false;false;false;109.0;1;0;0;0;0;false;7347;1416633728;-6.2419917;53.4280826;214;500320838;-6.2466519;53.3792995;0;0;1;1611070;41 - Swords Manor - Abbey Street;"";Dublin Bus;41;Swords Manor;Lower Abbey Street
643858183;"{\"type\":\"LineString\",\"coordinates\":[[-6.239103,53.4165892],[-6.2391569,53.4164761]]}";11;Swords Road;2;60;false;false;false;false;false;false;14.0;0;0;0;0;0;false;7347;1416633728;-6.2419917;53.4280826;214;500320838;-6.2466519;53.3792995;0;0;1;1611070;41 - Swords Manor - Abbey Street;"";Dublin Bus;41;Swords Manor;Lower Abbey Street
274316809;"{\"type\":\"LineString\",\"coordinates\":[[-6.2391569,53.4164761],[-6.2392138,53.4163212],[-6.23925,53.4162227],[-6.2393205,53.4159822],[-6.2393256,53.4159647],[-6.2393372,53.4158791]]}";12;Swords Road;2;60;false;false;false;false;false;false;69.0;0;0;0;0;0;false;7347;1416633728;-6.2419917;53.4280826;214;500320838;-6.2466519;53.3792995;0;0;1;1611070;41 - Swords Manor - Abbey Street;"";Dublin Bus;41;Swords Manor;Lower Abbey Street
360262992;"{\"type\":\"LineString\",\"coordinates\":[[-6.2393372,53.4158791],[-6.2393513,53.4157745],[-6.2393578,53.4156019],[-6.2393585,53.4155831],[-6.2393182,53.4153763],[-6.2392479,53.4151208],[-6.2390784,53.4145968],[-6.2389958,53.4143424],[-6.2389606,53.4141954],[-6.2389487,53.4141078],[-6.2389427,53.4140366],[-6.2389445,53.4139],[-6.2389726,53.4134442],[-6.2389928,53.4130665]]}";13;Swords Road;4;60;false;false;false;false;false;false;318.0;1;0;0;0;0;false;7347;1416633728;-6.2419917;53.4280826;214;500320838;-6.2466519;53.3792995;0;0;1;1611070;41 - Swords Manor - Abbey Street;"";Dublin Bus;41;Swords Manor;Lower Abbey Street
274316804;"{\"type\":\"LineString\",\"coordinates\":[[-6.2389928,53.4130665],[-6.2389928,53.4130457],[-6.239005,53.4129152],[-6.239011,53.41287],[-6.2390285,53.4125348],[-6.2390321,53.4124658],[-6.2390387,53.4123395],[-6.2390304,53.4121268],[-6.2390267,53.4120325],[-6.239018,53.4119722],[-6.2389876,53.4117618],[-6.23896,53.4116065],[-6.2389394,53.4115096]]}";14;Swords Road;4;60;false;false;false;false;false;false;175.0;0;0;0;0;0;false;7347;1416633728;-6.2419917;53.4280826;214;500320838;-6.2466519;53.3792995;0;0;1;1611070;41 - Swords Manor - Abbey Street;"";Dublin Bus;41;Swords Manor;Lower Abbey Street
368266804;"{\"type\":\"LineString\",\"coordinates\":[[-6.2389394,53.4115096],[-6.2389273,53.4114209],[-6.2388018,53.4107612],[-6.238782,53.4106725],[-6.2387397,53.4104393]]}";15;Swords Road;4;60;false;false;false;false;false;false;121.0;0;0;0;0;0;false;7347;1416633728;-6.2419917;53.4280826;214;500320838;-6.2466519;53.3792995;0;0;1;1611070;41 - Swords Manor - Abbey Street;"";Dublin Bus;41;Swords Manor;Lower Abbey Street
4260020;"{\"type\":\"LineString\",\"coordinates\":[[-6.2387397,53.4104393],[-6.2386623,53.4100432]]}";16;Swords Road;4;60;false;false;false;false;false;false;45.0;0;0;0;0;0;false;7347;1416633728;-6.2419917;53.4280826;214;500320838;-6.2466519;53.3792995;0;0;1;1611070;41 - Swords Manor - Abbey Street;"";Dublin Bus;41;Swords Manor;Lower Abbey Street
128183147;"{\"type\":\"LineString\",\"coordinates\":[[-6.2386623,53.4100432],[-6.2386,53.4097958],[-6.238499,53.4096014],[-6.2384735,53.4095524],[-6.2380231,53.4088253],[-6.2378517,53.408531],[-6.2377692,53.4082979],[-6.2377189,53.4081089],[-6.2376958,53.4078987],[-6.2376893,53.4076876],[-6.2376733,53.4075474]]}";17;Swords Road;4;60;false;false;false;false;false;false;290.0;0;0;0;0;0;false;7347;1416633728;-6.2419917;53.4280826;214;500320838;-6.2466519;53.3792995;0;0;1;1611070;41 - Swords Manor - Abbey Street;"";Dublin Bus;41;Swords Manor;Lower Abbey Street
274316812;"{\"type\":\"LineString\",\"coordinates\":[[-6.2376733,53.4075474],[-6.2377006,53.407387],[-6.237732,53.4072944],[-6.2377809,53.4071325],[-6.2378812,53.4069698],[-6.2380155,53.4067833]]}";18;Swords Road;4;60;false;false;false;false;false;false;90.0;0;0;0;0;0;false;7347;1416633728;-6.2419917;53.4280826;214;500320838;-6.2466519;53.3792995;0;0;1;1611070;41 - Swords Manor - Abbey Street;"";Dublin Bus;41;Swords Manor;Lower Abbey Street
360262995;"{\"type\":\"LineString\",\"coordinates\":[[-6.2380155,53.4067833],[-6.2383178,53.4063813],[-6.2387685,53.4058072],[-6.2391838,53.4052883],[-6.2393031,53.4051487],[-6.2396398,53.404764],[-6.2399801,53.4043757]]}";19;Swords Road;4;60;false;false;false;false;false;false;301.0;0;0;0;0;0;false;7347;1416633728;-6.2419917;53.4280826;214;500320838;-6.2466519;53.3792995;0;0;1;1611070;41 - Swords Manor - Abbey Street;"";Dublin Bus;41;Swords Manor;Lower Abbey Street
360262994;"{\"type\":\"LineString\",\"coordinates\":[[-6.2399801,53.4043757],[-6.2401169,53.4042225],[-6.2403937,53.4039127],[-6.2404686,53.4038057],[-6.2406071,53.4036078]]}";20;Swords Road;4;60;false;false;false;false;false;false;96.0;0;0;0;0;0;false;7347;1416633728;-6.2419917;53.4280826;214;500320838;-6.2466519;53.3792995;0;0;1;1611070;41 - Swords Manor - Abbey Street;"";Dublin Bus;41;Swords Manor;Lower Abbey Street
526626290;"{\"type\":\"LineString\",\"coordinates\":[[-6.2439709,53.398854],[-6.2439627,53.3989639],[-6.2439835,53.399167],[-6.2440455,53.3996326],[-6.2440168,53.3998997],[-6.2438556,53.4003035],[-6.24374,53.4005328],[-6.2436178,53.4006804],[-6.2434876,53.4008348],[-6.2433133,53.4010095],[-6.2432177,53.4010786],[-6.2431003,53.4011636],[-6.2421083,53.4018328],[-6.2417696,53.4020726],[-6.2414831,53.4023415],[-6.2412393,53.4026053],[-6.2410471,53.4028813],[-6.2408726,53.4031141],[-6.2406071,53.4036078]]}";21;Swords Road;3;50;false;false;false;false;false;false;599.0;0;0;0;0;0;false;7347;1416633728;-6.2419917;53.4280826;214;500320838;-6.2466519;53.3792995;0;0;1;1611070;41 - Swords Manor - Abbey Street;"";Dublin Bus;41;Swords Manor;Lower Abbey Street
526626289;"{\"type\":\"LineString\",\"coordinates\":[[-6.2439709,53.398854],[-6.2439179,53.3987688],[-6.2439769,53.3986153],[-6.2440446,53.3985307]]}";22;Swords Road;2;50;false;true;false;false;false;false;39.0;1;0;0;0;0;false;7347;1416633728;-6.2419917;53.4280826;214;500320838;-6.2466519;53.3792995;0;0;1;1611070;41 - Swords Manor - Abbey Street;"";Dublin Bus;41;Swords Manor;Lower Abbey Street
526626292;"{\"type\":\"LineString\",\"coordinates\":[[-6.2440446,53.3985307],[-6.2442764,53.3982965]]}";23;Swords Road;2;50;false;true;false;false;false;false;31.0;1;0;0;0;0;false;7347;1416633728;-6.2419917;53.4280826;214;500320838;-6.2466519;53.3792995;0;0;1;1611070;41 - Swords Manor - Abbey Street;"";Dublin Bus;41;Swords Manor;Lower Abbey Street
698920954;"{\"type\":\"LineString\",\"coordinates\":[[-6.2442764,53.3982965],[-6.244473,53.398093],[-6.244524,53.3980234],[-6.2446589,53.3978328],[-6.2448571,53.3975045],[-6.2448977,53.3974289],[-6.245064,53.3973188]]}";24;Swords Road;2;50;false;true;false;false;false;false;123.0;1;0;0;0;0;false;7347;1416633728;-6.2419917;53.4280826;214;500320838;-6.2466519;53.3792995;0;0;1;1611070;41 - Swords Manor - Abbey Street;"";Dublin Bus;41;Swords Manor;Lower Abbey Street
3818670;"{\"type\":\"LineString\",\"coordinates\":[[-6.245064,53.3973188],[-6.2451818,53.3970535],[-6.2452462,53.3967729],[-6.2453048,53.3962376],[-6.2453632,53.3959229]]}";25;Swords Road;4;50;false;false;false;false;false;false;159.0;1;0;0;0;0;false;7347;1416633728;-6.2419917;53.4280826;214;500320838;-6.2466519;53.3792995;0;0;1;1611070;41 - Swords Manor - Abbey Street;"";Dublin Bus;41;Swords Manor;Lower Abbey Street
642763392;"{\"type\":\"LineString\",\"coordinates\":[[-6.2453632,53.3959229],[-6.2454215,53.3956082],[-6.2454508,53.3954435],[-6.2454752,53.3953407],[-6.2454828,53.3952136],[-6.2455178,53.3950106],[-6.2455912,53.3947203],[-6.2456337,53.3945188],[-6.2459587,53.3931082]]}";26;Swords Road;3;50;false;false;false;false;false;false;318.0;0;0;0;0;0;false;7347;1416633728;-6.2419917;53.4280826;214;500320838;-6.2466519;53.3792995;0;0;1;1611070;41 - Swords Manor - Abbey Street;"";Dublin Bus;41;Swords Manor;Lower Abbey Street
439444484;"{\"type\":\"LineString\",\"coordinates\":[[-6.2459587,53.3931082],[-6.2459913,53.3929677],[-6.2460218,53.3928344],[-6.2460433,53.3927317]]}";27;Swords Road;1;50;false;false;false;false;false;false;43.0;1;0;0;0;0;false;7347;1416633728;-6.2419917;53.4280826;214;500320838;-6.2466519;53.3792995;0;0;1;1611070;41 - Swords Manor - Abbey Street;"";Dublin Bus;41;Swords Manor;Lower Abbey Street
439444483;"{\"type\":\"LineString\",\"coordinates\":[[-6.2460433,53.3927317],[-6.2461848,53.391915]]}";28;Swords Road;1;50;false;false;false;false;false;false;92.0;0;0;0;0;0;false;7347;1416633728;-6.2419917;53.4280826;214;500320838;-6.2466519;53.3792995;0;0;1;1611070;41 - Swords Manor - Abbey Street;"";Dublin Bus;41;Swords Manor;Lower Abbey Street
428537161;"{\"type\":\"LineString\",\"coordinates\":[[-6.2461848,53.391915],[-6.2462568,53.3916275],[-6.2462744,53.3915571],[-6.2462894,53.3914916],[-6.246326,53.3913318],[-6.2463452,53.3912482],[-6.2463908,53.3909638],[-6.246432,53.3906178],[-6.2464542,53.3904062],[-6.2464467,53.390295],[-6.2464176,53.3902097],[-6.246283,53.3898881],[-6.2462404,53.3897866]]}";29;Swords Road;2;50;false;false;false;false;false;false;242.0;1;0;0;0;0;false;7347;1416633728;-6.2419917;53.4280826;214;500320838;-6.2466519;53.3792995;0;0;1;1611070;41 - Swords Manor - Abbey Street;"";Dublin Bus;41;Swords Manor;Lower Abbey Street
110226821;"{\"type\":\"LineString\",\"coordinates\":[[-6.2462404,53.3897866],[-6.2461953,53.3896732],[-6.2460757,53.3893715],[-6.2460272,53.389225],[-6.2460038,53.3891544],[-6.2459668,53.3890427],[-6.2459238,53.3889128],[-6.2458757,53.3887651],[-6.2458278,53.3886805],[-6.2457992,53.3886301],[-6.2456417,53.3884326],[-6.2455189,53.3883246],[-6.245362,53.3882285],[-6.2449478,53.3880041],[-6.2448693,53.3879616],[-6.2445759,53.3878028],[-6.2445654,53.3877971],[-6.2443233,53.3876914]]}";30;Swords Road;2;50;false;false;false;false;false;false;280.0;2;0;0;0;0;false;7347;1416633728;-6.2419917;53.4280826;214;500320838;-6.2466519;53.3792995;0;0;1;1611070;41 - Swords Manor - Abbey Street;"";Dublin Bus;41;Swords Manor;Lower Abbey Street
4383951;"{\"type\":\"LineString\",\"coordinates\":[[-6.2443233,53.3876914],[-6.2441058,53.3876477],[-6.2438029,53.3876186],[-6.2436057,53.3876029],[-6.2433363,53.3875836],[-6.2429699,53.3875585]]}";31;Shantalla Road;2;50;false;false;true;false;false;false;93.0;1;0;0;0;0;false;7347;1416633728;-6.2419917;53.4280826;214;500320838;-6.2466519;53.3792995;0;0;1;1611070;41 - Swords Manor - Abbey Street;"";Dublin Bus;41;Swords Manor;Lower Abbey Street
4414206;"{\"type\":\"LineString\",\"coordinates\":[[-6.2429699,53.3875585],[-6.2421215,53.3874885]]}";32;Shantalla Road;2;50;false;false;true;false;false;false;58.0;0;0;0;0;0;false;7347;1416633728;-6.2419917;53.4280826;214;500320838;-6.2466519;53.3792995;0;0;1;1611070;41 - Swords Manor - Abbey Street;"";Dublin Bus;41;Swords Manor;Lower Abbey Street
3818655;"{\"type\":\"LineString\",\"coordinates\":[[-6.2421215,53.3874885],[-6.2421052,53.3874322],[-6.2421025,53.3874233],[-6.2420883,53.3873762],[-6.2421054,53.3873001]]}";33;Swords Road;1;50;false;true;true;false;false;false;22.0;0;1;0;0;0;false;7347;1416633728;-6.2419917;53.4280826;214;500320838;-6.2466519;53.3792995;0;0;1;1611070;41 - Swords Manor - Abbey Street;"";Dublin Bus;41;Swords Manor;Lower Abbey Street
681189541;"{\"type\":\"LineString\",\"coordinates\":[[-6.2421054,53.3873001],[-6.2421195,53.3872369],[-6.2421802,53.3870524],[-6.2424947,53.3864956],[-6.2425167,53.3864566],[-6.2427228,53.3860185],[-6.2427881,53.385862],[-6.242881,53.3856393],[-6.2428956,53.3855967],[-6.2430078,53.3854118],[-6.2431225,53.3853338]]}";34;Swords Road;1;50;false;true;true;false;false;false;232.0;0;0;0;0;0;false;7347;1416633728;-6.2419917;53.4280826;214;500320838;-6.2466519;53.3792995;0;0;1;1611070;41 - Swords Manor - Abbey Street;"";Dublin Bus;41;Swords Manor;Lower Abbey Street
116019739;"{\"type\":\"LineString\",\"coordinates\":[[-6.2444604,53.3824407],[-6.2443394,53.3826298],[-6.2441915,53.3828825],[-6.2441283,53.3829957],[-6.2440524,53.3831316],[-6.2437843,53.3836113],[-6.2436232,53.3839553],[-6.2435111,53.3841947],[-6.2434919,53.3842442],[-6.2434607,53.3843236],[-6.2433639,53.3845588],[-6.2431225,53.3853338]]}";35;Swords Road;4;50;false;false;true;false;true;false;337.0;1;0;0;0;0;false;7347;1416633728;-6.2419917;53.4280826;214;500320838;-6.2466519;53.3792995;0;0;1;1611070;41 - Swords Manor - Abbey Street;"";Dublin Bus;41;Swords Manor;Lower Abbey Street
558112093;"{\"type\":\"LineString\",\"coordinates\":[[-6.2497604,53.3763668],[-6.2494247,53.3766128],[-6.2490695,53.3768586],[-6.2487753,53.3770938],[-6.2486407,53.3772018],[-6.2485291,53.3773077],[-6.2483997,53.3774448],[-6.2481673,53.3776804],[-6.2478156,53.3780869],[-6.2476522,53.3782758],[-6.247616,53.3783176],[-6.2470516,53.3789661],[-6.2469642,53.379068],[-6.2467372,53.379335],[-6.2465615,53.3795416],[-6.246469,53.3796504],[-6.2457643,53.3804804],[-6.245563,53.3807461],[-6.2453595,53.3810396],[-6.2452833,53.381151],[-6.2451493,53.381347],[-6.2450544,53.3814858],[-6.2450075,53.3815544],[-6.244722,53.3820265],[-6.2445517,53.3823037],[-6.2444604,53.3824407]]}";36;Swords Road;4;50;false;false;true;false;true;false;772.0;3;2;0;0;0;false;7347;1416633728;-6.2419917;53.4280826;214;500320838;-6.2466519;53.3792995;2;0;1;1611070;41 - Swords Manor - Abbey Street;"";Dublin Bus;41;Swords Manor;Lower Abbey Street
558112093;"{\"type\":\"LineString\",\"coordinates\":[[-6.2497604,53.3763668],[-6.2494247,53.3766128],[-6.2490695,53.3768586],[-6.2487753,53.3770938],[-6.2486407,53.3772018],[-6.2485291,53.3773077],[-6.2483997,53.3774448],[-6.2481673,53.3776804],[-6.2478156,53.3780869],[-6.2476522,53.3782758],[-6.247616,53.3783176],[-6.2470516,53.3789661],[-6.2469642,53.379068],[-6.2467372,53.379335],[-6.2465615,53.3795416],[-6.246469,53.3796504],[-6.2457643,53.3804804],[-6.245563,53.3807461],[-6.2453595,53.3810396],[-6.2452833,53.381151],[-6.2451493,53.381347],[-6.2450544,53.3814858],[-6.2450075,53.3815544],[-6.244722,53.3820265],[-6.2445517,53.3823037],[-6.2444604,53.3824407]]}";1;Swords Road;4;50;false;false;true;false;true;false;386.0;3;2;0;0;0;false;4432;500320846;-6.2484496;53.3772677;119;279042325;-6.2508295;53.3750597;1;2;3;1611070;41 - Swords Manor - Abbey Street;"";Dublin Bus;41;Swords Manor;Lower Abbey Street
3793938;"{\"type\":\"LineString\",\"coordinates\":[[-6.2503529,53.3758166],[-6.2502793,53.3759025],[-6.2502569,53.3759241],[-6.2501901,53.3759883],[-6.250008,53.3761635],[-6.249856,53.3762913],[-6.2498448,53.3763002],[-6.2497604,53.3763668]]}";2;Drumcondra Road Upper;4;50;false;false;true;false;true;false;74.0;1;0;0;0;0;false;4432;500320846;-6.2484496;53.3772677;119;279042325;-6.2508295;53.3750597;0;2;3;1611070;41 - Swords Manor - Abbey Street;"";Dublin Bus;41;Swords Manor;Lower Abbey Street
368932686;"{\"type\":\"LineString\",\"coordinates\":[[-6.2515568,53.3742844],[-6.2515326,53.3743201],[-6.2512475,53.3747395],[-6.2509327,53.3751179],[-6.2508076,53.3752684],[-6.2506497,53.3754588],[-6.2504783,53.3756654],[-6.2503529,53.3758166]]}";3;Drumcondra Road Upper;4;50;false;false;true;false;true;false;95.0;1;0;0;0;0;false;4432;500320846;-6.2484496;53.3772677;119;279042325;-6.2508295;53.3750597;1;2;3;1611070;41 - Swords Manor - Abbey Street;"";Dublin Bus;41;Swords Manor;Lower Abbey Street
368932686;"{\"type\":\"LineString\",\"coordinates\":[[-6.2515568,53.3742844],[-6.2515326,53.3743201],[-6.2512475,53.3747395],[-6.2509327,53.3751179],[-6.2508076,53.3752684],[-6.2506497,53.3754588],[-6.2504783,53.3756654],[-6.2503529,53.3758166]]}";1;Drumcondra Road Upper;4;50;false;false;true;false;true;false;95.0;1;0;0;0;0;false;119;279042325;-6.2508295;53.3750597;44;279042310;-6.2521525;53.37302;1;3;4;1611070;41 - Swords Manor - Abbey Street;"";Dublin Bus;41;Swords Manor;Lower Abbey Street
368932685;"{\"type\":\"LineString\",\"coordinates\":[[-6.2520189,53.3734261],[-6.2519675,53.3735222],[-6.2517749,53.3738826],[-6.2515787,53.3742495],[-6.2515568,53.3742844]]}";2;Drumcondra Road Upper;4;50;false;false;false;false;true;false;102.0;1;1;0;0;0;false;119;279042325;-6.2508295;53.3750597;44;279042310;-6.2521525;53.37302;0;3;4;1611070;41 - Swords Manor - Abbey Street;"";Dublin Bus;41;Swords Manor;Lower Abbey Street
37812573;"{\"type\":\"LineString\",\"coordinates\":[[-6.2549012,53.3689046],[-6.2543859,53.3697078],[-6.2542567,53.3699253],[-6.2541737,53.3700682],[-6.2539891,53.3703612],[-6.253836,53.3706086],[-6.2537492,53.3707574],[-6.2537107,53.3708197],[-6.2535422,53.3711231],[-6.2534019,53.3713749],[-6.2533205,53.3715145],[-6.2532949,53.3715546],[-6.2531797,53.3717317],[-6.253142,53.3717897],[-6.253076,53.3718861],[-6.2530065,53.371976],[-6.2528157,53.372234],[-6.2527024,53.3723692],[-6.2526721,53.3724133],[-6.2525091,53.3726376],[-6.252464,53.3727089],[-6.252255,53.373039],[-6.2520189,53.3734261]]}";3;Drumcondra Road Upper;4;50;false;false;false;false;true;false;271.5;2;2;0;0;0;false;119;279042325;-6.2508295;53.3750597;44;279042310;-6.2521525;53.37302;1;3;4;1611070;41 - Swords Manor - Abbey Street;"";Dublin Bus;41;Swords Manor;Lower Abbey Street
37812573;"{\"type\":\"LineString\",\"coordinates\":[[-6.2549012,53.3689046],[-6.2543859,53.3697078],[-6.2542567,53.3699253],[-6.2541737,53.3700682],[-6.2539891,53.3703612],[-6.253836,53.3706086],[-6.2537492,53.3707574],[-6.2537107,53.3708197],[-6.2535422,53.3711231],[-6.2534019,53.3713749],[-6.2533205,53.3715145],[-6.2532949,53.3715546],[-6.2531797,53.3717317],[-6.253142,53.3717897],[-6.253076,53.3718861],[-6.2530065,53.371976],[-6.2528157,53.372234],[-6.2527024,53.3723692],[-6.2526721,53.3724133],[-6.2525091,53.3726376],[-6.252464,53.3727089],[-6.252255,53.373039],[-6.2520189,53.3734261]]}";1;Drumcondra Road Upper;4;50;false;false;false;false;true;false;271.5;2;2;0;0;0;false;44;279042310;-6.2521525;53.37302;47;1497919918;-6.257318;53.3638451;1;4;5;1611070;41 - Swords Manor - Abbey Street;"";Dublin Bus;41;Swords Manor;Lower Abbey Street
3818298;"{\"type\":\"LineString\",\"coordinates\":[[-6.2549984,53.3687549],[-6.2549191,53.3688744],[-6.2549012,53.3689046]]}";2;Drumcondra Road Upper;4;50;false;false;true;false;false;false;18.0;1;1;0;0;0;false;44;279042310;-6.2521525;53.37302;47;1497919918;-6.257318;53.3638451;0;4;5;1611070;41 - Swords Manor - Abbey Street;"";Dublin Bus;41;Swords Manor;Lower Abbey Street
23076386;"{\"type\":\"LineString\",\"coordinates\":[[-6.2551516,53.3683985],[-6.2549984,53.3687549]]}";3;Drumcondra Road Upper;4;50;false;false;true;false;false;false;42.0;1;0;0;0;0;false;44;279042310;-6.2521525;53.37302;47;1497919918;-6.257318;53.3638451;0;4;5;1611070;41 - Swords Manor - Abbey Street;"";Dublin Bus;41;Swords Manor;Lower Abbey Street
317127402;"{\"type\":\"LineString\",\"coordinates\":[[-6.2551893,53.3683069],[-6.2551516,53.3683985]]}";4;The Frank Flood Bridge;4;50;false;false;true;false;false;false;11.0;0;0;0;0;0;false;44;279042310;-6.2521525;53.37302;47;1497919918;-6.257318;53.3638451;0;4;5;1611070;41 - Swords Manor - Abbey Street;"";Dublin Bus;41;Swords Manor;Lower Abbey Street
317738684;"{\"type\":\"LineString\",\"coordinates\":[[-6.2551936,53.3682977],[-6.2551893,53.3683069]]}";5;The Frank Flood Bridge;4;50;false;false;true;false;false;false;2.0;0;0;0;0;0;false;44;279042310;-6.2521525;53.37302;47;1497919918;-6.257318;53.3638451;0;4;5;1611070;41 - Swords Manor - Abbey Street;"";Dublin Bus;41;Swords Manor;Lower Abbey Street
23076385;"{\"type\":\"LineString\",\"coordinates\":[[-6.2552378,53.3681983],[-6.2551936,53.3682977]]}";6;The Frank Flood Bridge;4;50;false;false;true;false;false;false;12.0;0;0;0;0;0;false;44;279042310;-6.2521525;53.37302;47;1497919918;-6.257318;53.3638451;0;4;5;1611070;41 - Swords Manor - Abbey Street;"";Dublin Bus;41;Swords Manor;Lower Abbey Street
56023843;"{\"type\":\"LineString\",\"coordinates\":[[-6.2561765,53.3654741],[-6.2558987,53.3658967],[-6.255746,53.366129],[-6.255553,53.3664896],[-6.2554948,53.3667838],[-6.2554741,53.3669328],[-6.255462,53.3670527],[-6.2554568,53.3671447],[-6.255459,53.3671949],[-6.255461,53.3672703],[-6.2554656,53.3674646],[-6.2554662,53.3674889],[-6.2554677,53.3675521],[-6.2554619,53.3676209],[-6.2554355,53.3676927],[-6.2552378,53.3681983]]}";7;Drumcondra Road Lower;4;50;false;false;true;false;false;false;315.0;1;2;0;0;0;false;44;279042310;-6.2521525;53.37302;47;1497919918;-6.257318;53.3638451;0;4;5;1611070;41 - Swords Manor - Abbey Street;"";Dublin Bus;41;Swords Manor;Lower Abbey Street
317127403;"{\"type\":\"LineString\",\"coordinates\":[[-6.2571906,53.3641992],[-6.2571118,53.3642935],[-6.2567681,53.3647188],[-6.2564833,53.3650791],[-6.2561765,53.3654741]]}";8;Drumcondra Road Lower;1;50;false;false;true;false;false;false;159.0;0;0;0;0;0;false;44;279042310;-6.2521525;53.37302;47;1497919918;-6.257318;53.3638451;0;4;5;1611070;41 - Swords Manor - Abbey Street;"";Dublin Bus;41;Swords Manor;Lower Abbey Street
56007677;"{\"type\":\"LineString\",\"coordinates\":[[-6.257587,53.3637601],[-6.2574248,53.3639396],[-6.2571906,53.3641992]]}";9;Drumcondra Road Lower;1;50;false;false;true;false;false;false;28.0;0;0;0;0;0;false;44;279042310;-6.2521525;53.37302;47;1497919918;-6.257318;53.3638451;1;4;5;1611070;41 - Swords Manor - Abbey Street;"";Dublin Bus;41;Swords Manor;Lower Abbey Street
56007677;"{\"type\":\"LineString\",\"coordinates\":[[-6.257587,53.3637601],[-6.2574248,53.3639396],[-6.2571906,53.3641992]]}";1;Drumcondra Road Lower;1;50;false;false;true;false;false;false;28.0;0;0;0;0;0;false;47;1497919918;-6.257318;53.3638451;49;500320679;-6.2608655;53.3599715;1;5;6;1611070;41 - Swords Manor - Abbey Street;"";Dublin Bus;41;Swords Manor;Lower Abbey Street
317149206;"{\"type\":\"LineString\",\"coordinates\":[[-6.2579126,53.3634197],[-6.2577735,53.3635651],[-6.257587,53.3637601]]}";2;Drumcondra Road Lower;4;50;false;false;true;false;false;false;44.0;1;1;0;0;0;false;47;1497919918;-6.257318;53.3638451;49;500320679;-6.2608655;53.3599715;0;5;6;1611070;41 - Swords Manor - Abbey Street;"";Dublin Bus;41;Swords Manor;Lower Abbey Street
37747501;"{\"type\":\"LineString\",\"coordinates\":[[-6.2584369,53.3628466],[-6.2582745,53.363008],[-6.2579126,53.3634197]]}";3;Drumcondra Road Lower;4;50;false;false;true;false;false;false;74.0;1;0;0;0;0;false;47;1497919918;-6.257318;53.3638451;49;500320679;-6.2608655;53.3599715;0;5;6;1611070;41 - Swords Manor - Abbey Street;"";Dublin Bus;41;Swords Manor;Lower Abbey Street
37747503;"{\"type\":\"LineString\",\"coordinates\":[[-6.2584369,53.3628466],[-6.258427,53.3627897],[-6.2586539,53.3625395],[-6.2587064,53.3624764],[-6.2589185,53.3622495],[-6.2592958,53.3618457],[-6.259408,53.3617257]]}";4;Drumcondra Road Lower;3;50;false;true;true;false;false;false;143.0;1;1;0;0;0;false;47;1497919918;-6.257318;53.3638451;49;500320679;-6.2608655;53.3599715;0;5;6;1611070;41 - Swords Manor - Abbey Street;"";Dublin Bus;41;Swords Manor;Lower Abbey Street
37747504;"{\"type\":\"LineString\",\"coordinates\":[[-6.259408,53.3617257],[-6.2594999,53.3616889]]}";5;Drumcondra Road Lower;3;50;false;true;true;false;false;false;8.0;1;0;0;0;0;false;47;1497919918;-6.257318;53.3638451;49;500320679;-6.2608655;53.3599715;0;5;6;1611070;41 - Swords Manor - Abbey Street;"";Dublin Bus;41;Swords Manor;Lower Abbey Street
70726569;"{\"type\":\"LineString\",\"coordinates\":[[-6.2595092,53.3616723],[-6.2594999,53.3616889]]}";6;Dorset Street Lower;1;50;false;false;true;false;false;false;2.0;0;0;0;0;0;false;47;1497919918;-6.257318;53.3638451;49;500320679;-6.2608655;53.3599715;0;5;6;1611070;41 - Swords Manor - Abbey Street;"";Dublin Bus;41;Swords Manor;Lower Abbey Street
740743747;"{\"type\":\"LineString\",\"coordinates\":[[-6.2595795,53.3615833],[-6.2595092,53.3616723]]}";7;Binns Bridge;6;50;false;false;true;false;false;false;12.0;0;0;0;0;0;false;47;1497919918;-6.257318;53.3638451;49;500320679;-6.2608655;53.3599715;0;5;6;1611070;41 - Swords Manor - Abbey Street;"";Dublin Bus;41;Swords Manor;Lower Abbey Street
258341362;"{\"type\":\"LineString\",\"coordinates\":[[-6.2596177,53.3615358],[-6.2596079,53.3615473],[-6.2595795,53.3615833]]}";8;Binns Bridge;6;50;false;false;true;false;false;false;6.0;0;0;0;0;0;false;47;1497919918;-6.257318;53.3638451;49;500320679;-6.2608655;53.3599715;0;5;6;1611070;41 - Swords Manor - Abbey Street;"";Dublin Bus;41;Swords Manor;Lower Abbey Street
4937068;"{\"type\":\"LineString\",\"coordinates\":[[-6.2597204,53.3614077],[-6.2596177,53.3615358]]}";9;Binns Bridge;6;50;false;false;true;false;false;false;16.0;0;0;0;0;0;false;47;1497919918;-6.257318;53.3638451;49;500320679;-6.2608655;53.3599715;0;5;6;1611070;41 - Swords Manor - Abbey Street;"";Dublin Bus;41;Swords Manor;Lower Abbey Street
55814746;"{\"type\":\"LineString\",\"coordinates\":[[-6.259737,53.3613845],[-6.2597204,53.3614077]]}";10;Dorset Street Lower;6;50;false;false;true;false;false;false;3.0;0;0;0;0;0;false;47;1497919918;-6.257318;53.3638451;49;500320679;-6.2608655;53.3599715;0;5;6;1611070;41 - Swords Manor - Abbey Street;"";Dublin Bus;41;Swords Manor;Lower Abbey Street
37747135;"{\"type\":\"LineString\",\"coordinates\":[[-6.259737,53.3613845],[-6.2597631,53.3612585],[-6.2600173,53.360978],[-6.2602555,53.3607079]]}";11;Dorset Street Lower;3;50;false;true;true;false;false;false;85.0;1;0;0;0;0;false;47;1497919918;-6.257318;53.3638451;49;500320679;-6.2608655;53.3599715;0;5;6;1611070;41 - Swords Manor - Abbey Street;"";Dublin Bus;41;Swords Manor;Lower Abbey Street
37747645;"{\"type\":\"LineString\",\"coordinates\":[[-6.2602555,53.3607079],[-6.2603955,53.3605657],[-6.2609529,53.3599994],[-6.2610931,53.3598569],[-6.2612039,53.3597444]]}";12;Dorset Street Lower;3;50;false;true;true;false;false;false;126.0;2;2;0;0;0;false;47;1497919918;-6.257318;53.3638451;49;500320679;-6.2608655;53.3599715;1;5;6;1611070;41 - Swords Manor - Abbey Street;"";Dublin Bus;41;Swords Manor;Lower Abbey Street
