way_id;shape;index;name;nb_lanes;legal_speed;speed_zone_30;oneway;shares_bike;bike_box;bus_lane;dedicated_bus_lane;length;nb_traffic_signals;nb_crossings;nb_stops;nb_give_ways;nb_lvl_crossings;roundabout;stop_id_orig;node_id_orig;coord_x_orig;coord_y_orig;stop_id_dest;node_id_dest;coord_x_dest;coord_y_dest;nb_neighbouring_ways_bus_stop;ordre_orig;ordre_dest;id_line;line_name;colour;operator;ref;from;to
459804130;"{\"type\":\"LineString\",\"coordinates\":[[-73.5399633,45.5898784],[-73.539505,45.5897414],[-73.5394608,45.5896428],[-73.5395426,45.5895068],[-73.539666,45.5894739],[-73.5397692,45.5894824],[-73.5403715,45.58966],[-73.5405111,45.5897012]]}";1;"";1;50;false;true;true;false;false;false;148.0;0;1;0;0;0;false;88643;692321056;-73.539893;45.589761;88632;692317601;-73.534992;45.596409;1;0;1;9462872;Bus 100 : Direction l'Assomption;"";EXO;100 E;Terminus Radisson;route 343 / avenue Adhémar-Raynault
681965059;"{\"type\":\"LineString\",\"coordinates\":[[-73.5405111,45.5897012],[-73.5403231,45.5899896]]}";2;Rue Faradon;1;50;false;false;true;false;false;false;36.0;0;0;0;0;0;false;88643;692321056;-73.539893;45.589761;88632;692317601;-73.534992;45.596409;0;0;1;9462872;Bus 100 : Direction l'Assomption;"";EXO;100 E;Terminus Radisson;route 343 / avenue Adhémar-Raynault
459804128;"{\"type\":\"LineString\",\"coordinates\":[[-73.5403231,45.5899896],[-73.5401418,45.5902677]]}";3;Rue Faradon;1;50;false;true;true;false;false;false;34.0;0;0;0;0;0;false;88643;692321056;-73.539893;45.589761;88632;692317601;-73.534992;45.596409;0;0;1;9462872;Bus 100 : Direction l'Assomption;"";EXO;100 E;Terminus Radisson;route 343 / avenue Adhémar-Raynault
681965058;"{\"type\":\"LineString\",\"coordinates\":[[-73.5401418,45.5902677],[-73.5400104,45.5902252],[-73.539051,45.5899151]]}";4;Rue du Trianon;1;50;false;false;true;false;false;false;94.0;0;0;0;0;0;false;88643;692321056;-73.539893;45.589761;88632;692317601;-73.534992;45.596409;0;0;1;9462872;Bus 100 : Direction l'Assomption;"";EXO;100 E;Terminus Radisson;route 343 / avenue Adhémar-Raynault
471796484;"{\"type\":\"LineString\",\"coordinates\":[[-73.539051,45.5899151],[-73.5389055,45.589868]]}";5;Rue du Trianon;1;50;false;false;true;false;false;false;13.0;0;0;0;0;0;false;88643;692321056;-73.539893;45.589761;88632;692317601;-73.534992;45.596409;0;0;1;9462872;Bus 100 : Direction l'Assomption;"";EXO;100 E;Terminus Radisson;route 343 / avenue Adhémar-Raynault
452610966;"{\"type\":\"LineString\",\"coordinates\":[[-73.5389055,45.589868],[-73.5382975,45.5908454]]}";6;Rue Sherbrooke Est;1;50;false;true;true;false;false;false;119.0;0;0;0;0;0;false;88643;692321056;-73.539893;45.589761;88632;692317601;-73.534992;45.596409;0;0;1;9462872;Bus 100 : Direction l'Assomption;"";EXO;100 E;Terminus Radisson;route 343 / avenue Adhémar-Raynault
452610969;"{\"type\":\"LineString\",\"coordinates\":[[-73.5382975,45.5908454],[-73.537952,45.5914181],[-73.5379507,45.5914208],[-73.5377656,45.5917624],[-73.5374419,45.5923213]]}";7;Rue Sherbrooke Est;1;50;false;true;true;false;false;false;177.0;1;0;0;0;0;false;88643;692321056;-73.539893;45.589761;88632;692317601;-73.534992;45.596409;0;0;1;9462872;Bus 100 : Direction l'Assomption;"";EXO;100 E;Terminus Radisson;route 343 / avenue Adhémar-Raynault
617518800;"{\"type\":\"LineString\",\"coordinates\":[[-73.5374419,45.5923213],[-73.5372174,45.5926873]]}";8;Rue Sherbrooke Est;1;50;false;true;true;false;false;false;45.0;1;0;0;0;0;false;88643;692321056;-73.539893;45.589761;88632;692317601;-73.534992;45.596409;0;0;1;9462872;Bus 100 : Direction l'Assomption;"";EXO;100 E;Terminus Radisson;route 343 / avenue Adhémar-Raynault
607207179;"{\"type\":\"LineString\",\"coordinates\":[[-73.5372174,45.5926873],[-73.5370705,45.5929285]]}";9;Rue Sherbrooke Est;1;50;false;true;true;false;false;false;30.0;0;0;0;0;0;false;88643;692321056;-73.539893;45.589761;88632;692317601;-73.534992;45.596409;0;0;1;9462872;Bus 100 : Direction l'Assomption;"";EXO;100 E;Terminus Radisson;route 343 / avenue Adhémar-Raynault
27439807;"{\"type\":\"LineString\",\"coordinates\":[[-73.5370705,45.5929285],[-73.5367114,45.5935498]]}";10;Rue Sherbrooke Est;1;50;false;true;true;false;false;false;75.0;0;0;0;0;0;false;88643;692321056;-73.539893;45.589761;88632;692317601;-73.534992;45.596409;0;0;1;9462872;Bus 100 : Direction l'Assomption;"";EXO;100 E;Terminus Radisson;route 343 / avenue Adhémar-Raynault
27439806;"{\"type\":\"LineString\",\"coordinates\":[[-73.5367114,45.5935498],[-73.5366221,45.5937033]]}";11;Rue Sherbrooke Est;1;50;false;true;true;false;false;false;19.0;0;0;0;0;0;false;88643;692321056;-73.539893;45.589761;88632;692317601;-73.534992;45.596409;0;0;1;9462872;Bus 100 : Direction l'Assomption;"";EXO;100 E;Terminus Radisson;route 343 / avenue Adhémar-Raynault
680923344;"{\"type\":\"LineString\",\"coordinates\":[[-73.5366221,45.5937033],[-73.5363896,45.5941133]]}";12;Rue Sherbrooke Est;1;50;false;true;true;false;false;false;50.0;1;0;0;0;0;false;88643;692321056;-73.539893;45.589761;88632;692317601;-73.534992;45.596409;0;0;1;9462872;Bus 100 : Direction l'Assomption;"";EXO;100 E;Terminus Radisson;route 343 / avenue Adhémar-Raynault
511856227;"{\"type\":\"LineString\",\"coordinates\":[[-73.5363896,45.5941133],[-73.5359584,45.5948314]]}";13;Rue Sherbrooke Est;1;50;false;true;true;false;false;false;87.0;2;0;0;0;0;false;88643;692321056;-73.539893;45.589761;88632;692317601;-73.534992;45.596409;0;0;1;9462872;Bus 100 : Direction l'Assomption;"";EXO;100 E;Terminus Radisson;route 343 / avenue Adhémar-Raynault
366056241;"{\"type\":\"LineString\",\"coordinates\":[[-73.5359584,45.5948314],[-73.5356766,45.5953111]]}";14;Rue Sherbrooke Est;1;50;false;true;true;false;false;false;58.0;2;0;0;0;0;false;88643;692321056;-73.539893;45.589761;88632;692317601;-73.534992;45.596409;0;0;1;9462872;Bus 100 : Direction l'Assomption;"";EXO;100 E;Terminus Radisson;route 343 / avenue Adhémar-Raynault
455478685;"{\"type\":\"LineString\",\"coordinates\":[[-73.5356766,45.5953111],[-73.5349823,45.5964653]]}";15;Rue Sherbrooke Est;1;50;false;true;true;false;false;false;70.0;2;0;0;0;0;false;88643;692321056;-73.539893;45.589761;88632;692317601;-73.534992;45.596409;1;0;1;9462872;Bus 100 : Direction l'Assomption;"";EXO;100 E;Terminus Radisson;route 343 / avenue Adhémar-Raynault
459574503;"{\"type\":\"LineString\",\"coordinates\":[[-73.5349823,45.5964653],[-73.5349252,45.5965567],[-73.5348822,45.5966256]]}";1;Rue Sherbrooke Est;1;50;false;true;true;false;false;false;20.0;1;1;0;0;0;false;88632;692317601;-73.534992;45.596409;88627;6127177195;-73.530081;45.604472;2;1;2;9462872;Bus 100 : Direction l'Assomption;"";EXO;100 E;Terminus Radisson;route 343 / avenue Adhémar-Raynault
607795835;"{\"type\":\"LineString\",\"coordinates\":[[-73.5348822,45.5966256],[-73.5345788,45.5971111]]}";2;Rue Sherbrooke Est;1;50;false;true;true;false;false;false;59.0;0;0;0;0;0;false;88632;692317601;-73.534992;45.596409;88627;6127177195;-73.530081;45.604472;0;1;2;9462872;Bus 100 : Direction l'Assomption;"";EXO;100 E;Terminus Radisson;route 343 / avenue Adhémar-Raynault
393698266;"{\"type\":\"LineString\",\"coordinates\":[[-73.5345788,45.5971111],[-73.5345724,45.5971208],[-73.534031,45.5980133]]}";3;Rue Sherbrooke Est;1;50;false;true;true;false;false;false;109.0;0;0;0;0;0;false;88632;692317601;-73.534992;45.596409;88627;6127177195;-73.530081;45.604472;0;1;2;9462872;Bus 100 : Direction l'Assomption;"";EXO;100 E;Terminus Radisson;route 343 / avenue Adhémar-Raynault
459571181;"{\"type\":\"LineString\",\"coordinates\":[[-73.534031,45.5980133],[-73.5334875,45.5989074]]}";4;Rue Sherbrooke Est;1;50;false;true;true;false;false;false;108.0;0;0;0;0;0;false;88632;692317601;-73.534992;45.596409;88627;6127177195;-73.530081;45.604472;0;1;2;9462872;Bus 100 : Direction l'Assomption;"";EXO;100 E;Terminus Radisson;route 343 / avenue Adhémar-Raynault
459571184;"{\"type\":\"LineString\",\"coordinates\":[[-73.5334875,45.5989074],[-73.5331173,45.5995315]]}";5;Rue Sherbrooke Est;1;50;false;true;true;false;false;false;76.0;0;0;0;0;0;false;88632;692317601;-73.534992;45.596409;88627;6127177195;-73.530081;45.604472;0;1;2;9462872;Bus 100 : Direction l'Assomption;"";EXO;100 E;Terminus Radisson;route 343 / avenue Adhémar-Raynault
459570317;"{\"type\":\"LineString\",\"coordinates\":[[-73.5331173,45.5995315],[-73.532694,45.6002454]]}";6;Rue Sherbrooke Est;1;50;false;true;true;false;false;false;86.0;0;0;0;0;0;false;88632;692317601;-73.534992;45.596409;88627;6127177195;-73.530081;45.604472;0;1;2;9462872;Bus 100 : Direction l'Assomption;"";EXO;100 E;Terminus Radisson;route 343 / avenue Adhémar-Raynault
459570316;"{\"type\":\"LineString\",\"coordinates\":[[-73.532694,45.6002454],[-73.5322962,45.6009255],[-73.53228,45.6009533]]}";7;Rue Sherbrooke Est;1;50;false;true;true;false;false;false;85.0;0;1;0;0;0;false;88632;692317601;-73.534992;45.596409;88627;6127177195;-73.530081;45.604472;0;1;2;9462872;Bus 100 : Direction l'Assomption;"";EXO;100 E;Terminus Radisson;route 343 / avenue Adhémar-Raynault
393698267;"{\"type\":\"LineString\",\"coordinates\":[[-73.53228,45.6009533],[-73.5322241,45.6010449],[-73.5318309,45.6016886],[-73.5314175,45.6024216]]}";8;Rue Sherbrooke Est;1;50;false;true;true;false;false;false;177.0;0;1;0;0;0;false;88632;692317601;-73.534992;45.596409;88627;6127177195;-73.530081;45.604472;0;1;2;9462872;Bus 100 : Direction l'Assomption;"";EXO;100 E;Terminus Radisson;route 343 / avenue Adhémar-Raynault
459570323;"{\"type\":\"LineString\",\"coordinates\":[[-73.5314175,45.6024216],[-73.5309432,45.6031985]]}";9;Rue Sherbrooke Est;1;50;false;true;true;false;false;false;94.0;0;0;0;0;0;false;88632;692317601;-73.534992;45.596409;88627;6127177195;-73.530081;45.604472;0;1;2;9462872;Bus 100 : Direction l'Assomption;"";EXO;100 E;Terminus Radisson;route 343 / avenue Adhémar-Raynault
459570322;"{\"type\":\"LineString\",\"coordinates\":[[-73.5309432,45.6031985],[-73.5305315,45.6038825],[-73.5301321,45.6045522]]}";10;Rue Sherbrooke Est;1;50;false;true;true;false;false;false;164.0;0;0;0;0;0;false;88632;692317601;-73.534992;45.596409;88627;6127177195;-73.530081;45.604472;2;1;2;9462872;Bus 100 : Direction l'Assomption;"";EXO;100 E;Terminus Radisson;route 343 / avenue Adhémar-Raynault
459570329;"{\"type\":\"LineString\",\"coordinates\":[[-73.5301321,45.6045522],[-73.5297563,45.605202],[-73.5293814,45.6058502],[-73.5289854,45.6065175]]}";1;Rue Sherbrooke Est;1;50;false;true;true;false;false;false;236.0;0;0;0;0;0;false;88627;6127177195;-73.530081;45.604472;88625;6127177197;-73.527687;45.608651;2;2;3;9462872;Bus 100 : Direction l'Assomption;"";EXO;100 E;Terminus Radisson;route 343 / avenue Adhémar-Raynault
459570328;"{\"type\":\"LineString\",\"coordinates\":[[-73.5289854,45.6065175],[-73.5285679,45.607221]]}";2;Rue Sherbrooke Est;1;50;false;true;true;false;false;false;85.0;0;0;0;0;0;false;88627;6127177195;-73.530081;45.604472;88625;6127177197;-73.527687;45.608651;0;2;3;9462872;Bus 100 : Direction l'Assomption;"";EXO;100 E;Terminus Radisson;route 343 / avenue Adhémar-Raynault
459568602;"{\"type\":\"LineString\",\"coordinates\":[[-73.5285679,45.607221],[-73.528242,45.6077347],[-73.5279592,45.6082531],[-73.5276857,45.6087734],[-73.527586,45.6089702]]}";3;Rue Sherbrooke Est;1;50;false;true;true;false;false;false;209.0;1;0;0;0;0;false;88627;6127177195;-73.530081;45.604472;88625;6127177197;-73.527687;45.608651;2;2;3;9462872;Bus 100 : Direction l'Assomption;"";EXO;100 E;Terminus Radisson;route 343 / avenue Adhémar-Raynault
459568602;"{\"type\":\"LineString\",\"coordinates\":[[-73.5285679,45.607221],[-73.528242,45.6077347],[-73.5279592,45.6082531],[-73.5276857,45.6087734],[-73.527586,45.6089702]]}";1;Rue Sherbrooke Est;1;50;false;true;true;false;false;false;104.5;1;0;0;0;0;false;88625;6127177197;-73.527687;45.608651;88581;6127177220;-73.525596;45.612397;1;3;4;9462872;Bus 100 : Direction l'Assomption;"";EXO;100 E;Terminus Radisson;route 343 / avenue Adhémar-Raynault
459568599;"{\"type\":\"LineString\",\"coordinates\":[[-73.527586,45.6089702],[-73.5272082,45.6096529]]}";2;Rue Sherbrooke Est;1;50;false;true;true;false;false;false;82.0;0;0;0;0;0;false;88625;6127177197;-73.527687;45.608651;88581;6127177220;-73.525596;45.612397;0;3;4;9462872;Bus 100 : Direction l'Assomption;"";EXO;100 E;Terminus Radisson;route 343 / avenue Adhémar-Raynault
395308458;"{\"type\":\"LineString\",\"coordinates\":[[-73.5272082,45.6096529],[-73.5268811,45.610244],[-73.5265521,45.6108642],[-73.526296,45.6113532],[-73.5260422,45.6118474],[-73.5256732,45.612507],[-73.5252635,45.6132363],[-73.5250301,45.6136525],[-73.5249442,45.6139287]]}";3;Rue Sherbrooke Est;1;50;false;true;true;false;false;false;253.5;2;0;0;0;0;false;88625;6127177197;-73.527687;45.608651;88581;6127177220;-73.525596;45.612397;1;3;4;9462872;Bus 100 : Direction l'Assomption;"";EXO;100 E;Terminus Radisson;route 343 / avenue Adhémar-Raynault
395308458;"{\"type\":\"LineString\",\"coordinates\":[[-73.5272082,45.6096529],[-73.5268811,45.610244],[-73.5265521,45.6108642],[-73.526296,45.6113532],[-73.5260422,45.6118474],[-73.5256732,45.612507],[-73.5252635,45.6132363],[-73.5250301,45.6136525],[-73.5249442,45.6139287]]}";1;Rue Sherbrooke Est;1;50;false;true;true;false;false;false;253.5;2;0;0;0;0;false;88581;6127177220;-73.525596;45.612397;88582;6127177219;-73.515934;45.632736;1;4;5;9462872;Bus 100 : Direction l'Assomption;"";EXO;100 E;Terminus Radisson;route 343 / avenue Adhémar-Raynault
20314465;"{\"type\":\"LineString\",\"coordinates\":[[-73.5249442,45.6139287],[-73.5229667,45.6175721],[-73.5207654,45.6216941],[-73.5200889,45.6237052],[-73.520004,45.6239015],[-73.5188645,45.6272051],[-73.5187623,45.6274268],[-73.5173945,45.6298793],[-73.5167669,45.631021],[-73.5167142,45.6311229],[-73.5161175,45.6322774],[-73.515934,45.6328421],[-73.5159675,45.6331826]]}";2;Rue Sherbrooke Est;4;50;false;false;true;false;false;false;1128.5;2;0;0;0;0;false;88581;6127177220;-73.525596;45.612397;88582;6127177219;-73.515934;45.632736;1;4;5;9462872;Bus 100 : Direction l'Assomption;"";EXO;100 E;Terminus Radisson;route 343 / avenue Adhémar-Raynault
20314465;"{\"type\":\"LineString\",\"coordinates\":[[-73.5249442,45.6139287],[-73.5229667,45.6175721],[-73.5207654,45.6216941],[-73.5200889,45.6237052],[-73.520004,45.6239015],[-73.5188645,45.6272051],[-73.5187623,45.6274268],[-73.5173945,45.6298793],[-73.5167669,45.631021],[-73.5167142,45.6311229],[-73.5161175,45.6322774],[-73.515934,45.6328421],[-73.5159675,45.6331826]]}";1;Rue Sherbrooke Est;4;50;false;false;true;false;false;false;1128.5;2;0;0;0;0;false;88582;6127177219;-73.515934;45.632736;88583;6127177218;-73.513753;45.643642;1;5;6;9462872;Bus 100 : Direction l'Assomption;"";EXO;100 E;Terminus Radisson;route 343 / avenue Adhémar-Raynault
453485941;"{\"type\":\"LineString\",\"coordinates\":[[-73.5159675,45.6331826],[-73.5159994,45.6335074]]}";2;Rue Sherbrooke Est;4;50;false;false;true;false;false;false;37.0;0;0;0;0;0;false;88582;6127177219;-73.515934;45.632736;88583;6127177218;-73.513753;45.643642;0;5;6;9462872;Bus 100 : Direction l'Assomption;"";EXO;100 E;Terminus Radisson;route 343 / avenue Adhémar-Raynault
453485942;"{\"type\":\"LineString\",\"coordinates\":[[-73.5159994,45.6335074],[-73.5161924,45.6343265],[-73.5163716,45.6350302],[-73.5163948,45.6355357]]}";3;Rue Sherbrooke Est;4;50;false;false;true;false;false;false;228.0;0;0;0;0;0;false;88582;6127177219;-73.515934;45.632736;88583;6127177218;-73.513753;45.643642;0;5;6;9462872;Bus 100 : Direction l'Assomption;"";EXO;100 E;Terminus Radisson;route 343 / avenue Adhémar-Raynault
453482701;"{\"type\":\"LineString\",\"coordinates\":[[-73.5163948,45.6355357],[-73.5164072,45.6358051]]}";4;Rue Sherbrooke Est;4;50;false;false;true;false;false;false;30.0;0;0;0;0;0;false;88582;6127177219;-73.515934;45.632736;88583;6127177218;-73.513753;45.643642;0;5;6;9462872;Bus 100 : Direction l'Assomption;"";EXO;100 E;Terminus Radisson;route 343 / avenue Adhémar-Raynault
453482702;"{\"type\":\"LineString\",\"coordinates\":[[-73.5164072,45.6358051],[-73.5163446,45.6362112]]}";5;Rue Sherbrooke Est;4;50;false;false;true;false;false;false;46.0;0;0;0;0;0;false;88582;6127177219;-73.515934;45.632736;88583;6127177218;-73.513753;45.643642;0;5;6;9462872;Bus 100 : Direction l'Assomption;"";EXO;100 E;Terminus Radisson;route 343 / avenue Adhémar-Raynault
453482699;"{\"type\":\"LineString\",\"coordinates\":[[-73.5163446,45.6362112],[-73.5162869,45.6365859]]}";6;Rue Sherbrooke Est;4;50;false;false;true;false;false;false;42.0;0;0;0;0;0;false;88582;6127177219;-73.515934;45.632736;88583;6127177218;-73.513753;45.643642;0;5;6;9462872;Bus 100 : Direction l'Assomption;"";EXO;100 E;Terminus Radisson;route 343 / avenue Adhémar-Raynault
453484226;"{\"type\":\"LineString\",\"coordinates\":[[-73.5162869,45.6365859],[-73.5161058,45.6368164],[-73.5159567,45.6372175],[-73.5154906,45.6387258],[-73.5150595,45.6400178]]}";7;Rue Sherbrooke Est;1;50;false;true;true;false;false;false;395.0;0;0;0;0;0;false;88582;6127177219;-73.515934;45.632736;88583;6127177218;-73.513753;45.643642;0;5;6;9462872;Bus 100 : Direction l'Assomption;"";EXO;100 E;Terminus Radisson;route 343 / avenue Adhémar-Raynault
453508741;"{\"type\":\"LineString\",\"coordinates\":[[-73.5150595,45.6400178],[-73.5148339,45.6407212]]}";8;Rue Sherbrooke Est;1;50;false;true;true;false;false;false;81.0;0;0;0;0;0;false;88582;6127177219;-73.515934;45.632736;88583;6127177218;-73.513753;45.643642;0;5;6;9462872;Bus 100 : Direction l'Assomption;"";EXO;100 E;Terminus Radisson;route 343 / avenue Adhémar-Raynault
453508391;"{\"type\":\"LineString\",\"coordinates\":[[-73.5148339,45.6407212],[-73.5147484,45.6409877]]}";9;Rue Sherbrooke Est;1;50;false;true;true;false;false;false;31.0;0;0;0;0;0;false;88582;6127177219;-73.515934;45.632736;88583;6127177218;-73.513753;45.643642;0;5;6;9462872;Bus 100 : Direction l'Assomption;"";EXO;100 E;Terminus Radisson;route 343 / avenue Adhémar-Raynault
453508392;"{\"type\":\"LineString\",\"coordinates\":[[-73.5147484,45.6409877],[-73.5146327,45.6413483]]}";10;Rue Sherbrooke Est;1;50;false;true;true;false;false;false;42.0;0;0;0;0;0;false;88582;6127177219;-73.515934;45.632736;88583;6127177218;-73.513753;45.643642;0;5;6;9462872;Bus 100 : Direction l'Assomption;"";EXO;100 E;Terminus Radisson;route 343 / avenue Adhémar-Raynault
453507339;"{\"type\":\"LineString\",\"coordinates\":[[-73.5146327,45.6413483],[-73.5143972,45.6420111]]}";11;Rue Sherbrooke Est;1;50;false;true;true;false;false;false;76.0;0;0;0;0;0;false;88582;6127177219;-73.515934;45.632736;88583;6127177218;-73.513753;45.643642;0;5;6;9462872;Bus 100 : Direction l'Assomption;"";EXO;100 E;Terminus Radisson;route 343 / avenue Adhémar-Raynault
453507342;"{\"type\":\"LineString\",\"coordinates\":[[-73.5143972,45.6420111],[-73.5141177,45.6427801],[-73.5140239,45.6430383],[-73.5137815,45.6437055]]}";12;Rue Sherbrooke Est;1;50;false;true;true;false;false;false;97.5;0;0;0;0;0;false;88582;6127177219;-73.515934;45.632736;88583;6127177218;-73.513753;45.643642;1;5;6;9462872;Bus 100 : Direction l'Assomption;"";EXO;100 E;Terminus Radisson;route 343 / avenue Adhémar-Raynault
453484222;"{\"type\":\"LineString\",\"coordinates\":[[-73.5137815,45.6437055],[-73.5137418,45.6438177]]}";1;Rue Sherbrooke Est;1;50;false;true;true;false;false;false;13.0;0;0;0;0;0;false;88583;6127177218;-73.513753;45.643642;88584;6127177217;-73.510646;45.652576;2;6;7;9462872;Bus 100 : Direction l'Assomption;"";EXO;100 E;Terminus Radisson;route 343 / avenue Adhémar-Raynault
453517895;"{\"type\":\"LineString\",\"coordinates\":[[-73.5137418,45.6438177],[-73.5135321,45.6444706],[-73.5133789,45.6449475],[-73.5131592,45.6456316],[-73.5129647,45.6461424],[-73.5128148,45.646536],[-73.5126506,45.6469674],[-73.5120932,45.6485748],[-73.5119067,45.6491126],[-73.5114221,45.6505102],[-73.5113772,45.6506397],[-73.5112385,45.6510396],[-73.5106624,45.6527001],[-73.510623,45.652815]]}";2;Rue Sherbrooke Est;1;50;false;true;true;false;false;false;1029.0;0;0;0;0;0;false;88583;6127177218;-73.513753;45.643642;88584;6127177217;-73.510646;45.652576;2;6;7;9462872;Bus 100 : Direction l'Assomption;"";EXO;100 E;Terminus Radisson;route 343 / avenue Adhémar-Raynault
453517895;"{\"type\":\"LineString\",\"coordinates\":[[-73.5137418,45.6438177],[-73.5135321,45.6444706],[-73.5133789,45.6449475],[-73.5131592,45.6456316],[-73.5129647,45.6461424],[-73.5128148,45.646536],[-73.5126506,45.6469674],[-73.5120932,45.6485748],[-73.5119067,45.6491126],[-73.5114221,45.6505102],[-73.5113772,45.6506397],[-73.5112385,45.6510396],[-73.5106624,45.6527001],[-73.510623,45.652815]]}";1;Rue Sherbrooke Est;1;50;false;true;true;false;false;false;514.5;0;0;0;0;0;false;88584;6127177217;-73.510646;45.652576;88585;6127177216;-73.508671;45.658278;1;7;8;9462872;Bus 100 : Direction l'Assomption;"";EXO;100 E;Terminus Radisson;route 343 / avenue Adhémar-Raynault
457933661;"{\"type\":\"LineString\",\"coordinates\":[[-73.510623,45.652815],[-73.5102862,45.6538142]]}";2;Rue Sherbrooke Est;1;50;false;true;true;false;false;false;115.0;0;0;0;0;0;false;88584;6127177217;-73.510646;45.652576;88585;6127177216;-73.508671;45.658278;0;7;8;9462872;Bus 100 : Direction l'Assomption;"";EXO;100 E;Terminus Radisson;route 343 / avenue Adhémar-Raynault
457933670;"{\"type\":\"LineString\",\"coordinates\":[[-73.5102862,45.6538142],[-73.5099925,45.6546515]]}";3;Rue Sherbrooke Est;1;50;false;true;true;false;false;false;96.0;0;0;0;0;0;false;88584;6127177217;-73.510646;45.652576;88585;6127177216;-73.508671;45.658278;0;7;8;9462872;Bus 100 : Direction l'Assomption;"";EXO;100 E;Terminus Radisson;route 343 / avenue Adhémar-Raynault
457933671;"{\"type\":\"LineString\",\"coordinates\":[[-73.5099925,45.6546515],[-73.5096894,45.6555106],[-73.5094415,45.6562264],[-73.5092175,45.6568731],[-73.5088973,45.6577974]]}";4;Rue Sherbrooke Est;1;50;false;true;true;false;false;false;360.0;0;0;0;0;0;false;88584;6127177217;-73.510646;45.652576;88585;6127177216;-73.508671;45.658278;0;7;8;9462872;Bus 100 : Direction l'Assomption;"";EXO;100 E;Terminus Radisson;route 343 / avenue Adhémar-Raynault
453517894;"{\"type\":\"LineString\",\"coordinates\":[[-73.5088973,45.6577974],[-73.5086816,45.6584192]]}";5;Rue Sherbrooke Est;1;50;false;true;true;false;false;false;36.0;0;0;0;0;0;false;88584;6127177217;-73.510646;45.652576;88585;6127177216;-73.508671;45.658278;1;7;8;9462872;Bus 100 : Direction l'Assomption;"";EXO;100 E;Terminus Radisson;route 343 / avenue Adhémar-Raynault
20926574;"{\"type\":\"LineString\",\"coordinates\":[[-73.5086816,45.6584192],[-73.5083907,45.6593492],[-73.5080082,45.6605721],[-73.5077705,45.6612352],[-73.5076537,45.6615815],[-73.5074206,45.6622473],[-73.5069439,45.6635988],[-73.5066328,45.6645291],[-73.5065027,45.6648611],[-73.5064719,45.6649396],[-73.5061339,45.6654794],[-73.505809,45.6663089],[-73.5052877,45.6678281],[-73.505124,45.6683547],[-73.5050512,45.6685887],[-73.5050102,45.6687884]]}";1;Rue Sherbrooke Est;1;50;false;true;true;false;false;false;594.0;1;0;0;0;0;false;88586;6127177215;-73.50688;45.663492;88587;6127177214;-73.504884;45.669071;1;9;10;9462872;Bus 100 : Direction l'Assomption;"";EXO;100 E;Terminus Radisson;route 343 / avenue Adhémar-Raynault
453521564;"{\"type\":\"LineString\",\"coordinates\":[[-73.5050102,45.6687884],[-73.5049055,45.6692994]]}";2;Rue Sherbrooke Est;1;50;false;true;true;false;false;false;29.0;0;0;0;0;0;false;88586;6127177215;-73.50688;45.663492;88587;6127177214;-73.504884;45.669071;1;9;10;9462872;Bus 100 : Direction l'Assomption;"";EXO;100 E;Terminus Radisson;route 343 / avenue Adhémar-Raynault
453521564;"{\"type\":\"LineString\",\"coordinates\":[[-73.5050102,45.6687884],[-73.5049055,45.6692994]]}";1;Rue Sherbrooke Est;1;50;false;true;true;false;false;false;29.0;0;0;0;0;0;false;88587;6127177214;-73.504884;45.669071;88588;6127177213;-73.504057;45.6721;1;10;11;9462872;Bus 100 : Direction l'Assomption;"";EXO;100 E;Terminus Radisson;route 343 / avenue Adhémar-Raynault
453521563;"{\"type\":\"LineString\",\"coordinates\":[[-73.5049055,45.6692994],[-73.5048867,45.6694072]]}";2;Rue Sherbrooke Est;1;50;false;true;true;false;false;false;13.0;0;0;0;0;0;false;88587;6127177214;-73.504884;45.669071;88588;6127177213;-73.504057;45.6721;0;10;11;9462872;Bus 100 : Direction l'Assomption;"";EXO;100 E;Terminus Radisson;route 343 / avenue Adhémar-Raynault
453521572;"{\"type\":\"LineString\",\"coordinates\":[[-73.5048867,45.6694072],[-73.5047885,45.6698205]]}";3;Rue Sherbrooke Est;1;50;false;true;true;false;false;false;47.0;0;0;0;0;0;false;88587;6127177214;-73.504884;45.669071;88588;6127177213;-73.504057;45.6721;0;10;11;9462872;Bus 100 : Direction l'Assomption;"";EXO;100 E;Terminus Radisson;route 343 / avenue Adhémar-Raynault
453521577;"{\"type\":\"LineString\",\"coordinates\":[[-73.5047885,45.6698205],[-73.5047366,45.6700488],[-73.5046077,45.6705956]]}";4;Rue Sherbrooke Est;1;50;false;true;true;false;false;false;88.0;0;0;0;0;0;false;88587;6127177214;-73.504884;45.669071;88588;6127177213;-73.504057;45.6721;0;10;11;9462872;Bus 100 : Direction l'Assomption;"";EXO;100 E;Terminus Radisson;route 343 / avenue Adhémar-Raynault
20928906;"{\"type\":\"LineString\",\"coordinates\":[[-73.5046077,45.6705956],[-73.5045602,45.6707317],[-73.5043122,45.6714426],[-73.5040694,45.6721382],[-73.5036559,45.6733233],[-73.5035345,45.6736713],[-73.5028797,45.6755477],[-73.5028286,45.675694],[-73.5023747,45.6769948],[-73.5016608,45.6790404],[-73.5016026,45.6792071],[-73.5009651,45.6810339],[-73.5009609,45.6810459],[-73.5004911,45.6823919],[-73.5004659,45.6824641],[-73.5000396,45.6836855],[-73.4999358,45.6839832],[-73.4996268,45.6848685]]}";5;Rue Sherbrooke Est;4;50;false;false;true;false;false;false;816.0;2;1;0;0;0;false;88587;6127177214;-73.504884;45.669071;88588;6127177213;-73.504057;45.6721;1;10;11;9462872;Bus 100 : Direction l'Assomption;"";EXO;100 E;Terminus Radisson;route 343 / avenue Adhémar-Raynault
20928906;"{\"type\":\"LineString\",\"coordinates\":[[-73.5046077,45.6705956],[-73.5045602,45.6707317],[-73.5043122,45.6714426],[-73.5040694,45.6721382],[-73.5036559,45.6733233],[-73.5035345,45.6736713],[-73.5028797,45.6755477],[-73.5028286,45.675694],[-73.5023747,45.6769948],[-73.5016608,45.6790404],[-73.5016026,45.6792071],[-73.5009651,45.6810339],[-73.5009609,45.6810459],[-73.5004911,45.6823919],[-73.5004659,45.6824641],[-73.5000396,45.6836855],[-73.4999358,45.6839832],[-73.4996268,45.6848685]]}";1;Rue Sherbrooke Est;4;50;false;false;true;false;false;false;816.0;2;1;0;0;0;false;88589;6127177212;-73.503423;45.673582;88629;6381123028;-73.499179;45.685717;1;12;13;9462872;Bus 100 : Direction l'Assomption;"";EXO;100 E;Terminus Radisson;route 343 / avenue Adhémar-Raynault
453672759;"{\"type\":\"LineString\",\"coordinates\":[[-73.4996268,45.6848685],[-73.4992349,45.6859912],[-73.4982398,45.6888422]]}";2;Rue Sherbrooke Est;4;50;false;false;true;false;false;false;227.5;0;0;0;0;0;false;88589;6127177212;-73.503423;45.673582;88629;6381123028;-73.499179;45.685717;1;12;13;9462872;Bus 100 : Direction l'Assomption;"";EXO;100 E;Terminus Radisson;route 343 / avenue Adhémar-Raynault
453672759;"{\"type\":\"LineString\",\"coordinates\":[[-73.4996268,45.6848685],[-73.4992349,45.6859912],[-73.4982398,45.6888422]]}";1;Rue Sherbrooke Est;4;50;false;false;true;false;false;false;227.5;0;0;0;0;0;false;88629;6381123028;-73.499179;45.685717;88590;6127177211;-73.49761;45.690098;1;13;14;9462872;Bus 100 : Direction l'Assomption;"";EXO;100 E;Terminus Radisson;route 343 / avenue Adhémar-Raynault
20928909;"{\"type\":\"LineString\",\"coordinates\":[[-73.4982398,45.6888422],[-73.4976425,45.6903168]]}";2;Rue Sherbrooke Est;3;50;false;true;true;false;false;false;85.5;0;0;0;0;0;false;88629;6381123028;-73.499179;45.685717;88590;6127177211;-73.49761;45.690098;1;13;14;9462872;Bus 100 : Direction l'Assomption;"";EXO;100 E;Terminus Radisson;route 343 / avenue Adhémar-Raynault
20928909;"{\"type\":\"LineString\",\"coordinates\":[[-73.4982398,45.6888422],[-73.4976425,45.6903168]]}";1;Rue Sherbrooke Est;3;50;false;true;true;false;false;false;85.5;0;0;0;0;0;false;88590;6127177211;-73.49761;45.690098;88591;6127177210;-73.49174;45.696916;1;14;15;9462872;Bus 100 : Direction l'Assomption;"";EXO;100 E;Terminus Radisson;route 343 / avenue Adhémar-Raynault
803398718;"{\"type\":\"LineString\",\"coordinates\":[[-73.4976425,45.6903168],[-73.4969302,45.6922726],[-73.4969189,45.6923059],[-73.4967154,45.6929057],[-73.4964554,45.6934936],[-73.4960651,45.6940697],[-73.4954718,45.6947146],[-73.4950036,45.6951449],[-73.494333,45.6956151],[-73.4937456,45.6959355]]}";2;Rue Sherbrooke Est;3;50;false;true;true;false;false;false;713.0;0;0;0;0;0;false;88590;6127177211;-73.49761;45.690098;88591;6127177210;-73.49174;45.696916;0;14;15;9462872;Bus 100 : Direction l'Assomption;"";EXO;100 E;Terminus Radisson;route 343 / avenue Adhémar-Raynault
468696869;"{\"type\":\"LineString\",\"coordinates\":[[-73.4937456,45.6959355],[-73.4929649,45.6963276],[-73.492836,45.6963924]]}";3;Rue Sherbrooke Est;3;50;false;true;true;false;false;false;88.0;0;0;0;0;0;false;88590;6127177211;-73.49761;45.690098;88591;6127177210;-73.49174;45.696916;0;14;15;9462872;Bus 100 : Direction l'Assomption;"";EXO;100 E;Terminus Radisson;route 343 / avenue Adhémar-Raynault
468696868;"{\"type\":\"LineString\",\"coordinates\":[[-73.492836,45.6963924],[-73.4925868,45.6965273],[-73.4925337,45.696556],[-73.4917259,45.6969696],[-73.4916347,45.6970202]]}";4;Rue Sherbrooke Est;3;50;false;true;true;false;false;false;58.5;1;0;0;0;0;false;88590;6127177211;-73.49761;45.690098;88591;6127177210;-73.49174;45.696916;1;14;15;9462872;Bus 100 : Direction l'Assomption;"";EXO;100 E;Terminus Radisson;route 343 / avenue Adhémar-Raynault
333889841;"{\"type\":\"LineString\",\"coordinates\":[[-73.4916347,45.6970202],[-73.4910576,45.6973158],[-73.4910124,45.6973387],[-73.490355,45.6976027],[-73.4893136,45.6978675],[-73.4888106,45.6979734],[-73.4877428,45.6981322],[-73.486675,45.6982558],[-73.4859602,45.6983793],[-73.4856873,45.698429],[-73.4851903,45.6984923],[-73.4848431,45.6985181]]}";1;Rue Sherbrooke Est;2;50;false;true;true;false;false;false;561.0;1;1;0;0;0;false;88591;6127177210;-73.49174;45.696916;87101;6127178550;-73.476009;45.715397;2;15;16;9462872;Bus 100 : Direction l'Assomption;"";EXO;100 E;Terminus Radisson;route 343 / avenue Adhémar-Raynault
333889803;"{\"type\":\"LineString\",\"coordinates\":[[-73.4848431,45.6985181],[-73.4847387,45.6984928],[-73.484606,45.6984501]]}";2;Rue Sherbrooke Est;1;50;false;true;true;false;false;false;20.0;0;1;0;0;0;false;88591;6127177210;-73.49174;45.696916;87101;6127178550;-73.476009;45.715397;0;15;16;9462872;Bus 100 : Direction l'Assomption;"";EXO;100 E;Terminus Radisson;route 343 / avenue Adhémar-Raynault
681989273;"{\"type\":\"LineString\",\"coordinates\":[[-73.484606,45.6984501],[-73.4845675,45.6984101],[-73.4845162,45.698378]]}";3;"";1;50;false;false;true;false;false;false;11.0;0;0;0;0;0;true;88591;6127177210;-73.49174;45.696916;87101;6127178550;-73.476009;45.715397;0;15;16;9462872;Bus 100 : Direction l'Assomption;"";EXO;100 E;Terminus Radisson;route 343 / avenue Adhémar-Raynault
681989270;"{\"type\":\"LineString\",\"coordinates\":[[-73.4845162,45.698378],[-73.4844334,45.6983506],[-73.4843423,45.6983434],[-73.4842528,45.6983573]]}";4;"";1;50;false;false;true;false;false;false;22.0;0;0;0;0;0;true;88591;6127177210;-73.49174;45.696916;87101;6127178550;-73.476009;45.715397;0;15;16;9462872;Bus 100 : Direction l'Assomption;"";EXO;100 E;Terminus Radisson;route 343 / avenue Adhémar-Raynault
681965057;"{\"type\":\"LineString\",\"coordinates\":[[-73.4842528,45.6983573],[-73.4841747,45.6983906],[-73.4841163,45.6984397],[-73.4840838,45.6984995],[-73.4840807,45.6985634]]}";5;"";1;50;false;false;true;false;false;false;29.0;0;0;0;0;0;true;88591;6127177210;-73.49174;45.696916;87101;6127178550;-73.476009;45.715397;0;15;16;9462872;Bus 100 : Direction l'Assomption;"";EXO;100 E;Terminus Radisson;route 343 / avenue Adhémar-Raynault
20930595;"{\"type\":\"LineString\",\"coordinates\":[[-73.4840807,45.6985634],[-73.4840679,45.6988116],[-73.4839555,45.6990874],[-73.4837912,45.6994027]]}";6;Rue Notre-Dame Est;1;50;false;true;true;false;false;false;97.0;0;0;0;0;0;false;88591;6127177210;-73.49174;45.696916;87101;6127178550;-73.476009;45.715397;0;15;16;9462872;Bus 100 : Direction l'Assomption;"";EXO;100 E;Terminus Radisson;route 343 / avenue Adhémar-Raynault
484887552;"{\"type\":\"LineString\",\"coordinates\":[[-73.4837912,45.6994027],[-73.4837563,45.6994964]]}";7;Rue Notre-Dame Est;2;50;false;true;true;false;false;false;11.0;0;0;0;0;0;false;88591;6127177210;-73.49174;45.696916;87101;6127178550;-73.476009;45.715397;0;15;16;9462872;Bus 100 : Direction l'Assomption;"";EXO;100 E;Terminus Radisson;route 343 / avenue Adhémar-Raynault
333889811;"{\"type\":\"LineString\",\"coordinates\":[[-73.4837563,45.6994964],[-73.4835924,45.699821],[-73.4835048,45.700025],[-73.4834439,45.7002116],[-73.4833916,45.7004337],[-73.4833785,45.7007931],[-73.4834849,45.7012533]]}";8;Rue Notre-Dame Est;2;50;false;true;true;false;false;false;200.0;0;0;0;0;0;false;88591;6127177210;-73.49174;45.696916;87101;6127178550;-73.476009;45.715397;0;15;16;9462872;Bus 100 : Direction l'Assomption;"";EXO;100 E;Terminus Radisson;route 343 / avenue Adhémar-Raynault
23376939;"{\"type\":\"LineString\",\"coordinates\":[[-73.4839918,45.706339],[-73.4839643,45.706115],[-73.4839279,45.705714],[-73.4838882,45.7053131],[-73.483846,45.7048976],[-73.4836922,45.7032786],[-73.4836474,45.7028342],[-73.4836055,45.7024538],[-73.4835587,45.7020065],[-73.4834849,45.7012533]]}";9;Pont Le Gardeur;4;50;false;false;true;false;false;false;567.0;0;0;0;0;0;false;88591;6127177210;-73.49174;45.696916;87101;6127178550;-73.476009;45.715397;0;15;16;9462872;Bus 100 : Direction l'Assomption;"";EXO;100 E;Terminus Radisson;route 343 / avenue Adhémar-Raynault
81606585;"{\"type\":\"LineString\",\"coordinates\":[[-73.4808953,45.7113768],[-73.481265,45.7111807],[-73.4816152,45.7109919],[-73.4819127,45.7108228],[-73.4821486,45.7106788],[-73.4823615,45.7105439],[-73.4826364,45.7103509],[-73.4829882,45.7100521],[-73.4831199,45.7099228],[-73.4833762,45.709636],[-73.4834911,45.7094858],[-73.4836121,45.709308],[-73.4836921,45.7091691],[-73.4837654,45.7090441],[-73.4838299,45.7089038],[-73.4839325,45.7086573],[-73.4839903,45.7084861],[-73.4840598,45.7081964],[-73.4840902,45.7080063],[-73.4841132,45.7077692],[-73.484104,45.7074417],[-73.4840713,45.7071075],[-73.4840304,45.7067117],[-73.4839918,45.706339]]}";10;Rue Notre-Dame;4;50;false;false;true;false;false;false;652.0;0;0;0;0;0;false;88591;6127177210;-73.49174;45.696916;87101;6127178550;-73.476009;45.715397;0;15;16;9462872;Bus 100 : Direction l'Assomption;"";EXO;100 E;Terminus Radisson;route 343 / avenue Adhémar-Raynault
23376942;"{\"type\":\"LineString\",\"coordinates\":[[-73.4775142,45.7131582],[-73.4808953,45.7113768]]}";11;Pont Le Gardeur;4;50;false;false;true;false;false;false;330.0;0;0;0;0;0;false;88591;6127177210;-73.49174;45.696916;87101;6127178550;-73.476009;45.715397;0;15;16;9462872;Bus 100 : Direction l'Assomption;"";EXO;100 E;Terminus Radisson;route 343 / avenue Adhémar-Raynault
49156366;"{\"type\":\"LineString\",\"coordinates\":[[-73.4771971,45.713317],[-73.4775142,45.7131582]]}";12;Rue Notre-Dame;4;50;false;false;true;false;false;false;31.0;0;0;0;0;0;false;88591;6127177210;-73.49174;45.696916;87101;6127178550;-73.476009;45.715397;0;15;16;9462872;Bus 100 : Direction l'Assomption;"";EXO;100 E;Terminus Radisson;route 343 / avenue Adhémar-Raynault
49156364;"{\"type\":\"LineString\",\"coordinates\":[[-73.4771971,45.713317],[-73.4768685,45.7134498],[-73.4751344,45.7142947],[-73.4750161,45.7143461]]}";13;Rue Notre-Dame;2;50;false;true;true;false;false;false;205.0;1;0;0;0;0;false;88591;6127177210;-73.49174;45.696916;87101;6127178550;-73.476009;45.715397;0;15;16;9462872;Bus 100 : Direction l'Assomption;"";EXO;100 E;Terminus Radisson;route 343 / avenue Adhémar-Raynault
49156429;"{\"type\":\"LineString\",\"coordinates\":[[-73.4750161,45.7143461],[-73.4750829,45.7144969]]}";14;Boulevard Notre-Dame-des-Champs;2;50;false;true;true;false;false;false;18.0;0;0;0;0;0;false;88591;6127177210;-73.49174;45.696916;87101;6127178550;-73.476009;45.715397;0;15;16;9462872;Bus 100 : Direction l'Assomption;"";EXO;100 E;Terminus Radisson;route 343 / avenue Adhémar-Raynault
49156421;"{\"type\":\"LineString\",\"coordinates\":[[-73.4750829,45.7144969],[-73.4751547,45.7145652],[-73.4753383,45.7147398],[-73.4756488,45.7149959],[-73.4760034,45.7153086],[-73.476155,45.7154422]]}";15;Boulevard Notre-Dame-des-Champs;2;50;false;true;true;false;false;false;135.0;0;0;0;0;0;false;88591;6127177210;-73.49174;45.696916;87101;6127178550;-73.476009;45.715397;2;15;16;9462872;Bus 100 : Direction l'Assomption;"";EXO;100 E;Terminus Radisson;route 343 / avenue Adhémar-Raynault
758175725;"{\"type\":\"LineString\",\"coordinates\":[[-73.476155,45.7154422],[-73.4763704,45.7156432],[-73.4765751,45.7157837]]}";1;Boulevard Notre-Dame-des-Champs;2;50;false;true;true;false;false;false;51.0;0;0;0;0;0;false;87101;6127178550;-73.476009;45.715397;87102;6127178549;-73.48002;45.717542;2;16;17;9462872;Bus 100 : Direction l'Assomption;"";EXO;100 E;Terminus Radisson;route 343 / avenue Adhémar-Raynault
241805721;"{\"type\":\"LineString\",\"coordinates\":[[-73.4765751,45.7157837],[-73.47723,45.7163714],[-73.4776225,45.7167236],[-73.477748,45.7168194],[-73.4779253,45.7169352],[-73.4782119,45.7170882],[-73.4785607,45.7172361],[-73.4789106,45.7173405],[-73.4792043,45.7174095],[-73.4794857,45.7174563],[-73.4797626,45.7174839],[-73.4798484,45.7174925],[-73.479987,45.7175052],[-73.4800312,45.7175092]]}";2;Boulevard Notre-Dame-des-Champs;4;50;false;false;true;false;false;false;345.0;1;1;0;0;0;false;87101;6127178550;-73.476009;45.715397;87102;6127178549;-73.48002;45.717542;2;16;17;9462872;Bus 100 : Direction l'Assomption;"";EXO;100 E;Terminus Radisson;route 343 / avenue Adhémar-Raynault
766312168;"{\"type\":\"LineString\",\"coordinates\":[[-73.4800312,45.7175092],[-73.4800602,45.7175118],[-73.4801278,45.7175184]]}";1;Boulevard Notre-Dame-des-Champs;1;50;false;false;true;false;false;false;8.0;0;1;0;0;0;false;87102;6127178549;-73.48002;45.717542;87519;6127178150;-73.483294;45.717375;2;17;18;9462872;Bus 100 : Direction l'Assomption;"";EXO;100 E;Terminus Radisson;route 343 / avenue Adhémar-Raynault
49010954;"{\"type\":\"LineString\",\"coordinates\":[[-73.4801278,45.7175184],[-73.4802166,45.7175206],[-73.4802498,45.7175214],[-73.4805229,45.717522],[-73.4808459,45.7175106]]}";2;Boulevard Notre-Dame-des-Champs;4;50;false;false;true;false;false;false;56.0;1;1;0;0;0;false;87102;6127178549;-73.48002;45.717542;87519;6127178150;-73.483294;45.717375;0;17;18;9462872;Bus 100 : Direction l'Assomption;"";EXO;100 E;Terminus Radisson;route 343 / avenue Adhémar-Raynault
49010953;"{\"type\":\"LineString\",\"coordinates\":[[-73.4808459,45.7175106],[-73.4829766,45.7173746]]}";3;Boulevard Notre-Dame-des-Champs;4;50;false;false;true;false;false;false;167.0;0;0;0;0;0;false;87102;6127178549;-73.48002;45.717542;87519;6127178150;-73.483294;45.717375;0;17;18;9462872;Bus 100 : Direction l'Assomption;"";EXO;100 E;Terminus Radisson;route 343 / avenue Adhémar-Raynault
49011385;"{\"type\":\"LineString\",\"coordinates\":[[-73.4829766,45.7173746],[-73.4833383,45.7173498],[-73.4837188,45.7173236]]}";4;Boulevard Notre-Dame-des-Champs;4;50;false;false;true;false;false;false;59.0;1;0;0;0;0;false;87102;6127178549;-73.48002;45.717542;87519;6127178150;-73.483294;45.717375;2;17;18;9462872;Bus 100 : Direction l'Assomption;"";EXO;100 E;Terminus Radisson;route 343 / avenue Adhémar-Raynault
49011385;"{\"type\":\"LineString\",\"coordinates\":[[-73.4829766,45.7173746],[-73.4833383,45.7173498],[-73.4837188,45.7173236]]}";1;Boulevard Notre-Dame-des-Champs;4;50;false;false;true;false;false;false;29.5;1;0;0;0;0;false;87519;6127178150;-73.483294;45.717375;87559;6127178133;-73.484193;45.719487;1;18;19;9462872;Bus 100 : Direction l'Assomption;"";EXO;100 E;Terminus Radisson;route 343 / avenue Adhémar-Raynault
598631309;"{\"type\":\"LineString\",\"coordinates\":[[-73.4837188,45.7173236],[-73.4841599,45.7172942]]}";2;Boulevard Notre-Dame-des-Champs;4;50;false;false;true;false;false;false;35.0;0;0;0;0;0;false;87519;6127178150;-73.483294;45.717375;87559;6127178133;-73.484193;45.719487;0;18;19;9462872;Bus 100 : Direction l'Assomption;"";EXO;100 E;Terminus Radisson;route 343 / avenue Adhémar-Raynault
681887619;"{\"type\":\"LineString\",\"coordinates\":[[-73.4841599,45.7172942],[-73.4843536,45.7173099],[-73.4847846,45.7173285]]}";3;Boulevard Céline-Dion;2;50;false;true;true;false;false;false;49.0;0;0;0;0;0;false;87519;6127178150;-73.483294;45.717375;87559;6127178133;-73.484193;45.719487;0;18;19;9462872;Bus 100 : Direction l'Assomption;"";EXO;100 E;Terminus Radisson;route 343 / avenue Adhémar-Raynault
49156379;"{\"type\":\"LineString\",\"coordinates\":[[-73.4847846,45.7173285],[-73.4851903,45.7173858],[-73.4853166,45.7174413],[-73.4853642,45.7174916],[-73.4853959,45.7175518],[-73.4853897,45.7176264],[-73.485378,45.717667],[-73.4853548,45.7177096]]}";4;"";1;50;false;true;true;false;false;false;76.0;0;0;0;0;0;false;87519;6127178150;-73.483294;45.717375;87559;6127178133;-73.484193;45.719487;0;18;19;9462872;Bus 100 : Direction l'Assomption;"";EXO;100 E;Terminus Radisson;route 343 / avenue Adhémar-Raynault
49156384;"{\"type\":\"LineString\",\"coordinates\":[[-73.4842213,45.7195935],[-73.484428,45.7190942],[-73.4845144,45.7188808],[-73.4845535,45.7187157],[-73.4846243,45.718371],[-73.4846656,45.7182726],[-73.4850454,45.7179301],[-73.4851237,45.7178677],[-73.4853548,45.7177096]]}";5;Rue Notre-Dame;1;50;false;false;true;false;false;false;117.0;0;0;0;0;0;false;87519;6127178150;-73.483294;45.717375;87559;6127178133;-73.484193;45.719487;1;18;19;9462872;Bus 100 : Direction l'Assomption;"";EXO;100 E;Terminus Radisson;route 343 / avenue Adhémar-Raynault
