way_id;shape;index;name;nb_lanes;legal_speed;speed_zone_30;oneway;shares_bike;bike_box;bus_lane;dedicated_bus_lane;length;nb_traffic_signals;nb_crossings;nb_stops;nb_give_ways;nb_lvl_crossings;roundabout;stop_id_orig;node_id_orig;coord_x_orig;coord_y_orig;stop_id_dest;node_id_dest;coord_x_dest;coord_y_dest;nb_neighbouring_ways_bus_stop;ordre_orig;ordre_dest;id_line;line_name;colour;operator;ref;from;to
681655369;"{\"type\":\"LineString\",\"coordinates\":[[-73.473098,45.7274549],[-73.4731558,45.7274181],[-73.4733251,45.7273105],[-73.4737721,45.7269204],[-73.4740585,45.7266705],[-73.4743062,45.7264489],[-73.4743954,45.7263759],[-73.4744218,45.7263561],[-73.4749222,45.7259279],[-73.475165,45.7257453],[-73.4758962,45.7250837]]}";1;Boulevard de la Rochelle;1;50;false;false;true;false;false;false;342.0;0;0;0;0;0;false;87085;6127178559;-73.475904;45.725126;87086;6127178558;-73.477532;45.723693;1;60;61;9456288;Bus 1 : Direction Repentigny;"";EXO;1 O;rue Dorval / boul. l'Ange-Gardien;boul. Claude-David / rue Notre-Dame
117461736;"{\"type\":\"LineString\",\"coordinates\":[[-73.4758962,45.7250837],[-73.4765239,45.7245379],[-73.477504,45.723652],[-73.478151,45.7230927],[-73.4785707,45.7227079],[-73.4786892,45.7225502],[-73.4788037,45.7223257],[-73.4793445,45.7211177],[-73.4794062,45.7210831],[-73.4794934,45.7210765],[-73.4797402,45.7210868]]}";2;Boulevard de la Rochelle;1;50;false;false;true;false;false;false;556.0;0;0;0;0;0;false;87085;6127178559;-73.475904;45.725126;87086;6127178558;-73.477532;45.723693;2;60;61;9456288;Bus 1 : Direction Repentigny;"";EXO;1 O;rue Dorval / boul. l'Ange-Gardien;boul. Claude-David / rue Notre-Dame
766312166;"{\"type\":\"LineString\",\"coordinates\":[[-73.4801109,45.717606],[-73.480107,45.7176317],[-73.4799721,45.7185266],[-73.4798616,45.7195767]]}";1;Boulevard de L'Assomption;1;50;false;false;true;false;false;false;220.0;1;1;0;0;0;false;87089;6127178555;-73.479919;45.719651;87558;6127178134;-73.480142;45.71756;2;64;65;9456288;Bus 1 : Direction Repentigny;"";EXO;1 O;rue Dorval / boul. l'Ange-Gardien;boul. Claude-David / rue Notre-Dame
681441413;"{\"type\":\"LineString\",\"coordinates\":[[-73.4801278,45.7175184],[-73.4801156,45.7175886],[-73.4801109,45.717606]]}";2;Boulevard de L'Assomption;1;50;false;false;true;false;false;false;10.0;0;1;0;0;0;false;87089;6127178555;-73.479919;45.719651;87558;6127178134;-73.480142;45.71756;2;64;65;9456288;Bus 1 : Direction Repentigny;"";EXO;1 O;rue Dorval / boul. l'Ange-Gardien;boul. Claude-David / rue Notre-Dame
766312168;"{\"type\":\"LineString\",\"coordinates\":[[-73.4800312,45.7175092],[-73.4800602,45.7175118],[-73.4801278,45.7175184]]}";1;Boulevard Notre-Dame-des-Champs;1;50;false;false;true;false;false;false;8.0;0;1;0;0;0;false;87558;6127178134;-73.480142;45.71756;87554;6127178137;-73.476204;45.715269;2;65;66;9456288;Bus 1 : Direction Repentigny;"";EXO;1 O;rue Dorval / boul. l'Ange-Gardien;boul. Claude-David / rue Notre-Dame
241805721;"{\"type\":\"LineString\",\"coordinates\":[[-73.4765751,45.7157837],[-73.47723,45.7163714],[-73.4776225,45.7167236],[-73.477748,45.7168194],[-73.4779253,45.7169352],[-73.4782119,45.7170882],[-73.4785607,45.7172361],[-73.4789106,45.7173405],[-73.4792043,45.7174095],[-73.4794857,45.7174563],[-73.4797626,45.7174839],[-73.4798484,45.7174925],[-73.479987,45.7175052],[-73.4800312,45.7175092]]}";2;Boulevard Notre-Dame-des-Champs;4;50;false;false;true;false;false;false;345.0;1;1;0;0;0;false;87558;6127178134;-73.480142;45.71756;87554;6127178137;-73.476204;45.715269;0;65;66;9456288;Bus 1 : Direction Repentigny;"";EXO;1 O;rue Dorval / boul. l'Ange-Gardien;boul. Claude-David / rue Notre-Dame
462146738;"{\"type\":\"LineString\",\"coordinates\":[[-73.4765751,45.7157837],[-73.4764544,45.7155917],[-73.4762434,45.7153963],[-73.4760955,45.7152575],[-73.4757432,45.7149442],[-73.4754412,45.7146862]]}";3;Boulevard Notre-Dame-des-Champs;1;50;false;true;true;false;false;false;152.0;0;0;0;0;0;false;87558;6127178134;-73.480142;45.71756;87554;6127178137;-73.476204;45.715269;2;65;66;9456288;Bus 1 : Direction Repentigny;"";EXO;1 O;rue Dorval / boul. l'Ange-Gardien;boul. Claude-David / rue Notre-Dame
462146738;"{\"type\":\"LineString\",\"coordinates\":[[-73.4765751,45.7157837],[-73.4764544,45.7155917],[-73.4762434,45.7153963],[-73.4760955,45.7152575],[-73.4757432,45.7149442],[-73.4754412,45.7146862]]}";1;Boulevard Notre-Dame-des-Champs;1;50;false;true;true;false;false;false;76.0;0;0;0;0;0;false;87554;6127178137;-73.476204;45.715269;87300;7157101915;-73.4746074;45.7145273;1;66;67;9456288;Bus 1 : Direction Repentigny;"";EXO;1 O;rue Dorval / boul. l'Ange-Gardien;boul. Claude-David / rue Notre-Dame
681965062;"{\"type\":\"LineString\",\"coordinates\":[[-73.4754412,45.7146862],[-73.4752482,45.714531],[-73.47524,45.7145222],[-73.4751748,45.7144526]]}";2;Boulevard Notre-Dame-des-Champs;1;50;false;true;true;false;false;false;34.0;1;0;0;0;0;false;87554;6127178137;-73.476204;45.715269;87300;7157101915;-73.4746074;45.7145273;0;66;67;9456288;Bus 1 : Direction Repentigny;"";EXO;1 O;rue Dorval / boul. l'Ange-Gardien;boul. Claude-David / rue Notre-Dame
462146737;"{\"type\":\"LineString\",\"coordinates\":[[-73.4751748,45.7144526],[-73.4750161,45.7143461]]}";3;Boulevard Notre-Dame-des-Champs;1;50;false;true;true;false;false;false;18.0;0;0;0;0;0;false;87554;6127178137;-73.476204;45.715269;87300;7157101915;-73.4746074;45.7145273;0;66;67;9456288;Bus 1 : Direction Repentigny;"";EXO;1 O;rue Dorval / boul. l'Ange-Gardien;boul. Claude-David / rue Notre-Dame
49156431;"{\"type\":\"LineString\",\"coordinates\":[[-73.4750161,45.7143461],[-73.4748838,45.7144073],[-73.4745315,45.7146273],[-73.4742817,45.7147823],[-73.4742048,45.71483],[-73.4740361,45.7149777]]}";4;Rue Notre-Dame;2;50;false;true;true;false;false;false;52.5;0;0;0;0;0;false;87554;6127178137;-73.476204;45.715269;87300;7157101915;-73.4746074;45.7145273;1;66;67;9456288;Bus 1 : Direction Repentigny;"";EXO;1 O;rue Dorval / boul. l'Ange-Gardien;boul. Claude-David / rue Notre-Dame
49156431;"{\"type\":\"LineString\",\"coordinates\":[[-73.4750161,45.7143461],[-73.4748838,45.7144073],[-73.4745315,45.7146273],[-73.4742817,45.7147823],[-73.4742048,45.71483],[-73.4740361,45.7149777]]}";1;Rue Notre-Dame;2;50;false;true;true;false;false;false;52.5;0;0;0;0;0;false;87300;7157101915;-73.4746074;45.7145273;87555;692299719;-73.472131;45.717082;1;67;68;9456288;Bus 1 : Direction Repentigny;"";EXO;1 O;rue Dorval / boul. l'Ange-Gardien;boul. Claude-David / rue Notre-Dame
759205439;"{\"type\":\"LineString\",\"coordinates\":[[-73.4714136,45.7164617],[-73.4719916,45.7161122],[-73.4721924,45.7159909],[-73.472332,45.7159065],[-73.4725113,45.7157981],[-73.4740361,45.7149777]]}";2;Rue Notre-Dame;4;50;false;false;true;false;false;false;263.0;0;0;0;0;0;false;87300;7157101915;-73.4746074;45.7145273;87555;692299719;-73.472131;45.717082;0;67;68;9456288;Bus 1 : Direction Repentigny;"";EXO;1 O;rue Dorval / boul. l'Ange-Gardien;boul. Claude-David / rue Notre-Dame
759205438;"{\"type\":\"LineString\",\"coordinates\":[[-73.4713221,45.7165191],[-73.4714136,45.7164617]]}";3;Rue Notre-Dame;4;50;false;false;true;false;false;false;10.0;0;0;0;0;0;false;87300;7157101915;-73.4746074;45.7145273;87555;692299719;-73.472131;45.717082;0;67;68;9456288;Bus 1 : Direction Repentigny;"";EXO;1 O;rue Dorval / boul. l'Ange-Gardien;boul. Claude-David / rue Notre-Dame
681441412;"{\"type\":\"LineString\",\"coordinates\":[[-73.4711628,45.7166175],[-73.4712838,45.7165428],[-73.4713221,45.7165191]]}";4;Rue Notre-Dame;4;50;false;false;true;false;false;false;17.0;1;0;0;0;0;false;87300;7157101915;-73.4746074;45.7145273;87555;692299719;-73.472131;45.717082;0;67;68;9456288;Bus 1 : Direction Repentigny;"";EXO;1 O;rue Dorval / boul. l'Ange-Gardien;boul. Claude-David / rue Notre-Dame
681441411;"{\"type\":\"LineString\",\"coordinates\":[[-73.4711628,45.7166175],[-73.471316,45.7167077],[-73.471399,45.7167491],[-73.47186,45.7169157],[-73.4723723,45.717084]]}";5;Boulevard Claude-David;1;50;false;true;true;false;false;false;108.0;0;1;0;0;0;false;87300;7157101915;-73.4746074;45.7145273;87555;692299719;-73.472131;45.717082;1;67;68;9456288;Bus 1 : Direction Repentigny;"";EXO;1 O;rue Dorval / boul. l'Ange-Gardien;boul. Claude-David / rue Notre-Dame
