way_id;shape;index;name;nb_lanes;legal_speed;speed_zone_30;oneway;shares_bike;bike_box;bus_lane;dedicated_bus_lane;length;nb_traffic_signals;nb_crossings;nb_stops;nb_give_ways;nb_lvl_crossings;roundabout;stop_id_orig;node_id_orig;coord_x_orig;coord_y_orig;stop_id_dest;node_id_dest;coord_x_dest;coord_y_dest;nb_neighbouring_ways_bus_stop;ordre_orig;ordre_dest;id_line;line_name;colour;operator;ref;from;to
346310736;"{\"type\":\"LineString\",\"coordinates\":[[-73.6984537,45.5166602],[-73.699756,45.5174604],[-73.6998279,45.5175046]]}";1;Boulevard Marcel-Laurin;3;50;false;true;true;false;false;false;143.0;1;0;0;0;0;false;41899;6269512742;-73.69949;45.517384;41897;6269511953;-73.70806;45.522642;1;2;3;9312808;Bus : 144 O - Direction Sainte-Dorothée;"";STL;144O;Métro Côte-Vertu Quai:20;Carole / Des Tulipes
453249886;"{\"type\":\"LineString\",\"coordinates\":[[-73.6998279,45.5175046],[-73.6999122,45.5175612]]}";2;Boulevard Marcel-Laurin;3;50;false;true;true;false;false;false;10.0;0;0;0;0;0;false;41899;6269512742;-73.69949;45.517384;41897;6269511953;-73.70806;45.522642;0;2;3;9312808;Bus : 144 O - Direction Sainte-Dorothée;"";STL;144O;Métro Côte-Vertu Quai:20;Carole / Des Tulipes
436519245;"{\"type\":\"LineString\",\"coordinates\":[[-73.6999122,45.5175612],[-73.7007592,45.5180826],[-73.7016417,45.518626]]}";3;Boulevard Marcel-Laurin;3;50;false;true;true;false;false;false;180.0;1;0;0;0;0;false;41899;6269512742;-73.69949;45.517384;41897;6269511953;-73.70806;45.522642;0;2;3;9312808;Bus : 144 O - Direction Sainte-Dorothée;"";STL;144O;Métro Côte-Vertu Quai:20;Carole / Des Tulipes
436520268;"{\"type\":\"LineString\",\"coordinates\":[[-73.7016417,45.518626],[-73.7033278,45.5196684],[-73.7038305,45.5199791],[-73.7050289,45.52072]]}";4;Boulevard Marcel-Laurin;3;50;false;true;true;false;false;false;353.0;1;0;0;0;0;false;41899;6269512742;-73.69949;45.517384;41897;6269511953;-73.70806;45.522642;0;2;3;9312808;Bus : 144 O - Direction Sainte-Dorothée;"";STL;144O;Métro Côte-Vertu Quai:20;Carole / Des Tulipes
436518947;"{\"type\":\"LineString\",\"coordinates\":[[-73.7050289,45.52072],[-73.705392,45.5209162],[-73.7055537,45.5209976]]}";5;Boulevard Marcel-Laurin;3;50;false;true;true;false;false;false;52.0;1;0;0;0;0;false;41899;6269512742;-73.69949;45.517384;41897;6269511953;-73.70806;45.522642;0;2;3;9312808;Bus : 144 O - Direction Sainte-Dorothée;"";STL;144O;Métro Côte-Vertu Quai:20;Carole / Des Tulipes
5028790;"{\"type\":\"LineString\",\"coordinates\":[[-73.7055537,45.5209976],[-73.705802,45.5211304],[-73.7060866,45.5212918],[-73.7065589,45.5215394],[-73.7070962,45.5218624]]}";6;Boulevard Marcel-Laurin;1;50;false;true;true;false;false;false;155.0;1;0;0;0;0;false;41899;6269512742;-73.69949;45.517384;41897;6269511953;-73.70806;45.522642;0;2;3;9312808;Bus : 144 O - Direction Sainte-Dorothée;"";STL;144O;Métro Côte-Vertu Quai:20;Carole / Des Tulipes
436520672;"{\"type\":\"LineString\",\"coordinates\":[[-73.7070962,45.5218624],[-73.7075549,45.5221641]]}";7;Boulevard Marcel-Laurin;1;50;false;true;true;false;false;false;50.0;1;0;0;0;0;false;41899;6269512742;-73.69949;45.517384;41897;6269511953;-73.70806;45.522642;0;2;3;9312808;Bus : 144 O - Direction Sainte-Dorothée;"";STL;144O;Métro Côte-Vertu Quai:20;Carole / Des Tulipes
436529000;"{\"type\":\"LineString\",\"coordinates\":[[-73.7075549,45.5221641],[-73.7076729,45.522248]]}";8;Boulevard Marcel-Laurin;1;50;false;true;true;false;false;false;14.0;2;0;0;0;0;false;41899;6269512742;-73.69949;45.517384;41897;6269511953;-73.70806;45.522642;0;2;3;9312808;Bus : 144 O - Direction Sainte-Dorothée;"";STL;144O;Métro Côte-Vertu Quai:20;Carole / Des Tulipes
453252581;"{\"type\":\"LineString\",\"coordinates\":[[-73.7076729,45.522248],[-73.7077925,45.5223239],[-73.7080494,45.5224921]]}";9;Boulevard Marcel-Laurin;1;50;false;true;true;false;false;false;40.0;1;0;0;0;0;false;41899;6269512742;-73.69949;45.517384;41897;6269511953;-73.70806;45.522642;0;2;3;9312808;Bus : 144 O - Direction Sainte-Dorothée;"";STL;144O;Métro Côte-Vertu Quai:20;Carole / Des Tulipes
22894165;"{\"type\":\"LineString\",\"coordinates\":[[-73.7080494,45.5224921],[-73.7085562,45.5228083],[-73.7089748,45.5230725],[-73.7091363,45.5231772]]}";10;Boulevard Marcel-Laurin;1;50;false;true;true;false;false;false;57.0;0;0;0;0;0;false;41899;6269512742;-73.69949;45.517384;41897;6269511953;-73.70806;45.522642;1;2;3;9312808;Bus : 144 O - Direction Sainte-Dorothée;"";STL;144O;Métro Côte-Vertu Quai:20;Carole / Des Tulipes
453252581;"{\"type\":\"LineString\",\"coordinates\":[[-73.7076729,45.522248],[-73.7077925,45.5223239],[-73.7080494,45.5224921]]}";1;Boulevard Marcel-Laurin;1;50;false;true;true;false;false;false;40.0;1;0;0;0;0;false;41897;6269511953;-73.70806;45.522642;41895;6269511010;-73.72153;45.531209;2;3;4;9312808;Bus : 144 O - Direction Sainte-Dorothée;"";STL;144O;Métro Côte-Vertu Quai:20;Carole / Des Tulipes
22894165;"{\"type\":\"LineString\",\"coordinates\":[[-73.7080494,45.5224921],[-73.7085562,45.5228083],[-73.7089748,45.5230725],[-73.7091363,45.5231772]]}";2;Boulevard Marcel-Laurin;1;50;false;true;true;false;false;false;114.0;0;0;0;0;0;false;41897;6269511953;-73.70806;45.522642;41895;6269511010;-73.72153;45.531209;0;3;4;9312808;Bus : 144 O - Direction Sainte-Dorothée;"";STL;144O;Métro Côte-Vertu Quai:20;Carole / Des Tulipes
766554176;"{\"type\":\"LineString\",\"coordinates\":[[-73.7091363,45.5231772],[-73.7093038,45.5232826]]}";3;Boulevard Laurentien;1;50;false;true;true;false;false;false;18.0;0;0;0;0;0;false;41897;6269511953;-73.70806;45.522642;41895;6269511010;-73.72153;45.531209;0;3;4;9312808;Bus : 144 O - Direction Sainte-Dorothée;"";STL;144O;Métro Côte-Vertu Quai:20;Carole / Des Tulipes
436521603;"{\"type\":\"LineString\",\"coordinates\":[[-73.7093038,45.5232826],[-73.7107597,45.5242354],[-73.7112316,45.5245442]]}";4;Boulevard Laurentien;1;50;false;true;true;false;false;false;206.0;1;0;0;0;0;false;41897;6269511953;-73.70806;45.522642;41895;6269511010;-73.72153;45.531209;0;3;4;9312808;Bus : 144 O - Direction Sainte-Dorothée;"";STL;144O;Métro Côte-Vertu Quai:20;Carole / Des Tulipes
436522808;"{\"type\":\"LineString\",\"coordinates\":[[-73.7112316,45.5245442],[-73.7115767,45.5247605],[-73.7119263,45.5249796],[-73.7120131,45.525034]]}";5;Boulevard Laurentien;1;50;false;true;true;false;false;false;82.0;2;0;0;0;0;false;41897;6269511953;-73.70806;45.522642;41895;6269511010;-73.72153;45.531209;0;3;4;9312808;Bus : 144 O - Direction Sainte-Dorothée;"";STL;144O;Métro Côte-Vertu Quai:20;Carole / Des Tulipes
462280203;"{\"type\":\"LineString\",\"coordinates\":[[-73.7120131,45.525034],[-73.7123969,45.5252784]]}";6;Rue Lachapelle;1;50;false;true;true;false;false;false;41.0;1;0;0;0;0;false;41897;6269511953;-73.70806;45.522642;41895;6269511010;-73.72153;45.531209;0;3;4;9312808;Bus : 144 O - Direction Sainte-Dorothée;"";STL;144O;Métro Côte-Vertu Quai:20;Carole / Des Tulipes
34228233;"{\"type\":\"LineString\",\"coordinates\":[[-73.7123969,45.5252784],[-73.7128231,45.5255384],[-73.7142881,45.5264541]]}";7;Rue Lachapelle;3;50;false;true;true;false;false;false;198.0;1;0;0;0;0;false;41897;6269511953;-73.70806;45.522642;41895;6269511010;-73.72153;45.531209;0;3;4;9312808;Bus : 144 O - Direction Sainte-Dorothée;"";STL;144O;Métro Côte-Vertu Quai:20;Carole / Des Tulipes
462277756;"{\"type\":\"LineString\",\"coordinates\":[[-73.7142881,45.5264541],[-73.7147082,45.5267223],[-73.7158387,45.5274441],[-73.7173352,45.5283995],[-73.7184021,45.5290806],[-73.7192162,45.5296004],[-73.7211066,45.5308072],[-73.721773,45.5312326]]}";8;Rue Lachapelle;2;50;false;true;true;false;false;false;790.0;3;0;0;0;0;false;41897;6269511953;-73.70806;45.522642;41895;6269511010;-73.72153;45.531209;2;3;4;9312808;Bus : 144 O - Direction Sainte-Dorothée;"";STL;144O;Métro Côte-Vertu Quai:20;Carole / Des Tulipes
542780649;"{\"type\":\"LineString\",\"coordinates\":[[-73.721773,45.5312326],[-73.7226882,45.5313326],[-73.7233987,45.5314102],[-73.7238269,45.531457],[-73.7253475,45.5316231]]}";1;Rue Lachapelle;2;50;false;true;true;false;false;false;283.0;1;0;0;0;0;false;41895;6269511010;-73.72153;45.531209;42057;6269510825;-73.7328;45.536848;2;4;5;9312808;Bus : 144 O - Direction Sainte-Dorothée;"";STL;144O;Métro Côte-Vertu Quai:20;Carole / Des Tulipes
689388937;"{\"type\":\"LineString\",\"coordinates\":[[-73.7253475,45.5316231],[-73.7258129,45.5316138],[-73.726003,45.5316007],[-73.7261036,45.531608],[-73.7262157,45.5316262],[-73.726491,45.531705]]}";2;Rue Lachapelle;2;50;false;true;true;false;false;false;92.0;0;0;0;0;0;false;41895;6269511010;-73.72153;45.531209;42057;6269510825;-73.7328;45.536848;0;4;5;9312808;Bus : 144 O - Direction Sainte-Dorothée;"";STL;144O;Métro Côte-Vertu Quai:20;Carole / Des Tulipes
581936364;"{\"type\":\"LineString\",\"coordinates\":[[-73.726491,45.531705],[-73.7266069,45.5317852],[-73.7267399,45.5319041]]}";3;Boulevard Laurentien;3;50;false;true;true;false;false;false;30.0;0;0;0;0;0;false;41895;6269511010;-73.72153;45.531209;42057;6269510825;-73.7328;45.536848;0;4;5;9312808;Bus : 144 O - Direction Sainte-Dorothée;"";STL;144O;Métro Côte-Vertu Quai:20;Carole / Des Tulipes
5028806;"{\"type\":\"LineString\",\"coordinates\":[[-73.7267399,45.5319041],[-73.7291402,45.5339776]]}";4;Pont Lachapelle;3;50;false;true;true;false;false;false;297.0;0;0;0;0;0;false;41895;6269511010;-73.72153;45.531209;42057;6269510825;-73.7328;45.536848;0;4;5;9312808;Bus : 144 O - Direction Sainte-Dorothée;"";STL;144O;Métro Côte-Vertu Quai:20;Carole / Des Tulipes
747868084;"{\"type\":\"LineString\",\"coordinates\":[[-73.7291402,45.5339776],[-73.7294401,45.5342485]]}";5;Boulevard Curé-Labelle;3;60;false;true;true;false;false;false;39.0;0;0;0;0;0;false;41895;6269511010;-73.72153;45.531209;42057;6269510825;-73.7328;45.536848;0;4;5;9312808;Bus : 144 O - Direction Sainte-Dorothée;"";STL;144O;Métro Côte-Vertu Quai:20;Carole / Des Tulipes
45600838;"{\"type\":\"LineString\",\"coordinates\":[[-73.7294401,45.5342485],[-73.7316697,45.5367094],[-73.7317813,45.5368399]]}";6;Boulevard Curé-Labelle;3;60;false;true;false;false;false;false;341.0;2;0;0;0;0;false;41895;6269511010;-73.72153;45.531209;42057;6269510825;-73.7328;45.536848;0;4;5;9312808;Bus : 144 O - Direction Sainte-Dorothée;"";STL;144O;Métro Côte-Vertu Quai:20;Carole / Des Tulipes
686619022;"{\"type\":\"LineString\",\"coordinates\":[[-73.7317813,45.5368399],[-73.7321013,45.536832]]}";7;Boulevard Lévesque Ouest;2;50;false;true;false;false;false;false;25.0;2;0;0;0;0;false;41895;6269511010;-73.72153;45.531209;42057;6269510825;-73.7328;45.536848;0;4;5;9312808;Bus : 144 O - Direction Sainte-Dorothée;"";STL;144O;Métro Côte-Vertu Quai:20;Carole / Des Tulipes
45601158;"{\"type\":\"LineString\",\"coordinates\":[[-73.7321013,45.536832],[-73.7323246,45.5368197],[-73.7326861,45.5367939]]}";8;Boulevard Lévesque Ouest;2;50;false;true;true;false;false;false;46.0;1;0;0;0;0;false;41895;6269511010;-73.72153;45.531209;42057;6269510825;-73.7328;45.536848;0;4;5;9312808;Bus : 144 O - Direction Sainte-Dorothée;"";STL;144O;Métro Côte-Vertu Quai:20;Carole / Des Tulipes
45601141;"{\"type\":\"LineString\",\"coordinates\":[[-73.7326861,45.5367939],[-73.7330144,45.536776]]}";9;Boulevard Lévesque Ouest;2;50;false;true;true;false;false;false;26.0;0;0;0;0;0;false;41895;6269511010;-73.72153;45.531209;42057;6269510825;-73.7328;45.536848;2;4;5;9312808;Bus : 144 O - Direction Sainte-Dorothée;"";STL;144O;Métro Côte-Vertu Quai:20;Carole / Des Tulipes
45601158;"{\"type\":\"LineString\",\"coordinates\":[[-73.7321013,45.536832],[-73.7323246,45.5368197],[-73.7326861,45.5367939]]}";1;Boulevard Lévesque Ouest;2;50;false;true;true;false;false;false;46.0;1;0;0;0;0;false;42057;6269510825;-73.7328;45.536848;42054;6269510832;-73.73479;45.535941;2;5;6;9312808;Bus : 144 O - Direction Sainte-Dorothée;"";STL;144O;Métro Côte-Vertu Quai:20;Carole / Des Tulipes
45601141;"{\"type\":\"LineString\",\"coordinates\":[[-73.7326861,45.5367939],[-73.7330144,45.536776]]}";2;Boulevard Lévesque Ouest;2;50;false;true;true;false;false;false;26.0;0;0;0;0;0;false;42057;6269510825;-73.7328;45.536848;42054;6269510832;-73.73479;45.535941;0;5;6;9312808;Bus : 144 O - Direction Sainte-Dorothée;"";STL;144O;Métro Côte-Vertu Quai:20;Carole / Des Tulipes
45602514;"{\"type\":\"LineString\",\"coordinates\":[[-73.7330144,45.536776],[-73.7332528,45.5367286],[-73.7334331,45.5366719],[-73.7335748,45.5365972],[-73.7337403,45.5364891]]}";3;Boulevard Lévesque Ouest;2;50;false;true;true;false;false;false;67.0;0;0;0;0;0;false;42057;6269510825;-73.7328;45.536848;42054;6269510832;-73.73479;45.535941;0;5;6;9312808;Bus : 144 O - Direction Sainte-Dorothée;"";STL;144O;Métro Côte-Vertu Quai:20;Carole / Des Tulipes
45601143;"{\"type\":\"LineString\",\"coordinates\":[[-73.7361614,45.5354757],[-73.7354656,45.5356413],[-73.7352034,45.5357224],[-73.734949,45.5358318],[-73.7343517,45.536145],[-73.7340423,45.5363226],[-73.7337403,45.5364891]]}";4;Boulevard Lévesque Ouest;2;50;false;false;true;false;false;false;223.0;1;0;0;0;0;false;42057;6269510825;-73.7328;45.536848;42054;6269510832;-73.73479;45.535941;2;5;6;9312808;Bus : 144 O - Direction Sainte-Dorothée;"";STL;144O;Métro Côte-Vertu Quai:20;Carole / Des Tulipes
45601143;"{\"type\":\"LineString\",\"coordinates\":[[-73.7361614,45.5354757],[-73.7354656,45.5356413],[-73.7352034,45.5357224],[-73.734949,45.5358318],[-73.7343517,45.536145],[-73.7340423,45.5363226],[-73.7337403,45.5364891]]}";1;Boulevard Lévesque Ouest;2;50;false;false;true;false;false;false;111.5;1;0;0;0;0;false;42054;6269510832;-73.73479;45.535941;46354;6269510854;-73.73699;45.535207;1;6;7;9312808;Bus : 144 O - Direction Sainte-Dorothée;"";STL;144O;Métro Côte-Vertu Quai:20;Carole / Des Tulipes
518597251;"{\"type\":\"LineString\",\"coordinates\":[[-73.7394201,45.5345422],[-73.73931,45.5345603],[-73.7385862,45.5346795],[-73.7384314,45.5347093],[-73.7379104,45.5348241],[-73.7376477,45.534911],[-73.7372225,45.5350807],[-73.7369971,45.5351792],[-73.7364589,45.5353827],[-73.7361614,45.5354757]]}";2;Boulevard Lévesque Ouest;2;50;false;false;false;false;false;false;138.5;1;1;0;0;0;false;42054;6269510832;-73.73479;45.535941;46354;6269510854;-73.73699;45.535207;1;6;7;9312808;Bus : 144 O - Direction Sainte-Dorothée;"";STL;144O;Métro Côte-Vertu Quai:20;Carole / Des Tulipes
518597251;"{\"type\":\"LineString\",\"coordinates\":[[-73.7394201,45.5345422],[-73.73931,45.5345603],[-73.7385862,45.5346795],[-73.7384314,45.5347093],[-73.7379104,45.5348241],[-73.7376477,45.534911],[-73.7372225,45.5350807],[-73.7369971,45.5351792],[-73.7364589,45.5353827],[-73.7361614,45.5354757]]}";1;Boulevard Lévesque Ouest;2;50;false;false;false;false;false;false;138.5;1;1;0;0;0;false;42052;6269510856;-73.73852;45.534742;42039;6269510871;-73.74082;45.534159;1;8;9;9312808;Bus : 144 O - Direction Sainte-Dorothée;"";STL;144O;Métro Côte-Vertu Quai:20;Carole / Des Tulipes
45601163;"{\"type\":\"LineString\",\"coordinates\":[[-73.7452888,45.5324276],[-73.7450353,45.532546],[-73.7449013,45.5326075],[-73.7446183,45.5327197],[-73.7435688,45.533094],[-73.7434677,45.533129],[-73.7426005,45.5334322],[-73.7419755,45.5336344],[-73.7408815,45.5340513],[-73.740205,45.5343446],[-73.7401469,45.5343698],[-73.7400306,45.5344087],[-73.7398612,45.534462],[-73.7395421,45.534525],[-73.7394201,45.5345422]]}";2;Boulevard Lévesque Ouest;2;50;false;false;false;false;false;false;258.5;0;1;0;0;0;false;42052;6269510856;-73.73852;45.534742;42039;6269510871;-73.74082;45.534159;1;8;9;9312808;Bus : 144 O - Direction Sainte-Dorothée;"";STL;144O;Métro Côte-Vertu Quai:20;Carole / Des Tulipes
45601163;"{\"type\":\"LineString\",\"coordinates\":[[-73.7452888,45.5324276],[-73.7450353,45.532546],[-73.7449013,45.5326075],[-73.7446183,45.5327197],[-73.7435688,45.533094],[-73.7434677,45.533129],[-73.7426005,45.5334322],[-73.7419755,45.5336344],[-73.7408815,45.5340513],[-73.740205,45.5343446],[-73.7401469,45.5343698],[-73.7400306,45.5344087],[-73.7398612,45.534462],[-73.7395421,45.534525],[-73.7394201,45.5345422]]}";1;Boulevard Lévesque Ouest;2;50;false;false;false;false;false;false;258.5;0;1;0;0;0;false;41997;6269510996;-73.74499;45.532638;42130;6269510727;-73.74751;45.531319;1;11;12;9312808;Bus : 144 O - Direction Sainte-Dorothée;"";STL;144O;Métro Côte-Vertu Quai:20;Carole / Des Tulipes
518075294;"{\"type\":\"LineString\",\"coordinates\":[[-73.7460803,45.5320351],[-73.7455069,45.5323255],[-73.7452888,45.5324276]]}";2;Boulevard Lévesque Ouest;2;50;false;false;false;false;false;false;76.0;0;0;0;0;0;false;41997;6269510996;-73.74499;45.532638;42130;6269510727;-73.74751;45.531319;0;11;12;9312808;Bus : 144 O - Direction Sainte-Dorothée;"";STL;144O;Métro Côte-Vertu Quai:20;Carole / Des Tulipes
45601166;"{\"type\":\"LineString\",\"coordinates\":[[-73.7478517,45.531082],[-73.7474289,45.5313014],[-73.7471718,45.5314466],[-73.7469894,45.5315464],[-73.7467646,45.5316709],[-73.7466328,45.5317415],[-73.7463643,45.5318895],[-73.7460803,45.5320351]]}";3;C;2;50;false;false;false;false;false;false;87.5;0;0;0;0;0;false;41997;6269510996;-73.74499;45.532638;42130;6269510727;-73.74751;45.531319;1;11;12;9312808;Bus : 144 O - Direction Sainte-Dorothée;"";STL;144O;Métro Côte-Vertu Quai:20;Carole / Des Tulipes
45601166;"{\"type\":\"LineString\",\"coordinates\":[[-73.7478517,45.531082],[-73.7474289,45.5313014],[-73.7471718,45.5314466],[-73.7469894,45.5315464],[-73.7467646,45.5316709],[-73.7466328,45.5317415],[-73.7463643,45.5318895],[-73.7460803,45.5320351]]}";1;C;2;50;false;false;false;false;false;false;87.5;0;0;0;0;0;false;42130;6269510727;-73.74751;45.531319;42108;6269511038;-73.7492;45.530442;1;12;13;9312808;Bus : 144 O - Direction Sainte-Dorothée;"";STL;144O;Métro Côte-Vertu Quai:20;Carole / Des Tulipes
45601153;"{\"type\":\"LineString\",\"coordinates\":[[-73.7492991,45.5303462],[-73.7487442,45.5305968],[-73.7483208,45.5308116],[-73.7478517,45.531082]]}";2;Boulevard Lévesque Ouest;2;50;false;false;true;false;false;false;70.0;0;0;0;0;0;false;42130;6269510727;-73.74751;45.531319;42108;6269511038;-73.7492;45.530442;1;12;13;9312808;Bus : 144 O - Direction Sainte-Dorothée;"";STL;144O;Métro Côte-Vertu Quai:20;Carole / Des Tulipes
45568104;"{\"type\":\"LineString\",\"coordinates\":[[-73.7508409,45.5296696],[-73.7492991,45.5303462]]}";1;Boulevard Lévesque Ouest;2;50;false;false;true;false;false;false;142.0;0;0;0;0;0;false;42108;6269511038;-73.7492;45.530442;42087;6269511043;-73.75149;45.529506;2;13;14;9312808;Bus : 144 O - Direction Sainte-Dorothée;"";STL;144O;Métro Côte-Vertu Quai:20;Carole / Des Tulipes
45601167;"{\"type\":\"LineString\",\"coordinates\":[[-73.7509791,45.5296192],[-73.7508409,45.5296696]]}";2;Boulevard Lévesque Ouest;1;50;false;false;true;false;false;false;13.0;0;0;0;0;0;false;42108;6269511038;-73.7492;45.530442;42087;6269511043;-73.75149;45.529506;0;13;14;9312808;Bus : 144 O - Direction Sainte-Dorothée;"";STL;144O;Métro Côte-Vertu Quai:20;Carole / Des Tulipes
45568169;"{\"type\":\"LineString\",\"coordinates\":[[-73.7509791,45.5296192],[-73.7513742,45.5295004],[-73.7520058,45.5293442],[-73.7522822,45.52931],[-73.7523397,45.5293029],[-73.7530565,45.5293197],[-73.753951,45.5294105],[-73.7544949,45.529459],[-73.7549862,45.5295028],[-73.7551773,45.5295499]]}";3;Boulevard Lévesque Ouest;2;50;false;false;true;false;false;false;337.0;0;0;0;0;0;false;42108;6269511038;-73.7492;45.530442;42087;6269511043;-73.75149;45.529506;2;13;14;9312808;Bus : 144 O - Direction Sainte-Dorothée;"";STL;144O;Métro Côte-Vertu Quai:20;Carole / Des Tulipes
45568169;"{\"type\":\"LineString\",\"coordinates\":[[-73.7509791,45.5296192],[-73.7513742,45.5295004],[-73.7520058,45.5293442],[-73.7522822,45.52931],[-73.7523397,45.5293029],[-73.7530565,45.5293197],[-73.753951,45.5294105],[-73.7544949,45.529459],[-73.7549862,45.5295028],[-73.7551773,45.5295499]]}";1;Boulevard Lévesque Ouest;2;50;false;false;true;false;false;false;168.5;0;0;0;0;0;false;42064;6269511048;-73.75388;45.529451;43053;6269511059;-73.7575;45.529056;1;15;16;9312808;Bus : 144 O - Direction Sainte-Dorothée;"";STL;144O;Métro Côte-Vertu Quai:20;Carole / Des Tulipes
475076397;"{\"type\":\"LineString\",\"coordinates\":[[-73.7551773,45.5295499],[-73.7554352,45.5296699]]}";2;Boulevard Lévesque Ouest;2;50;false;false;true;false;false;false;25.0;1;0;0;0;0;false;42064;6269511048;-73.75388;45.529451;43053;6269511059;-73.7575;45.529056;0;15;16;9312808;Bus : 144 O - Direction Sainte-Dorothée;"";STL;144O;Métro Côte-Vertu Quai:20;Carole / Des Tulipes
475076396;"{\"type\":\"LineString\",\"coordinates\":[[-73.7554352,45.5296699],[-73.7555465,45.5297641]]}";3;Boulevard Lévesque Ouest;2;50;false;false;true;false;false;false;14.0;2;0;0;0;0;false;42064;6269511048;-73.75388;45.529451;43053;6269511059;-73.7575;45.529056;0;15;16;9312808;Bus : 144 O - Direction Sainte-Dorothée;"";STL;144O;Métro Côte-Vertu Quai:20;Carole / Des Tulipes
686619021;"{\"type\":\"LineString\",\"coordinates\":[[-73.7555465,45.5297641],[-73.7556572,45.5297162],[-73.7562211,45.529484],[-73.7565988,45.5293325],[-73.756984,45.5291779],[-73.757537,45.5289508],[-73.7584822,45.5286326],[-73.7595263,45.5283437]]}";4;Boulevard Samson;3;50;false;true;true;false;false;false;175.0;1;0;0;0;0;false;42064;6269511048;-73.75388;45.529451;43053;6269511059;-73.7575;45.529056;1;15;16;9312808;Bus : 144 O - Direction Sainte-Dorothée;"";STL;144O;Métro Côte-Vertu Quai:20;Carole / Des Tulipes
684761968;"{\"type\":\"LineString\",\"coordinates\":[[-73.7595263,45.5283437],[-73.7605499,45.5280781],[-73.7612834,45.5279038],[-73.7626116,45.5275881],[-73.7633702,45.5273616],[-73.7645403,45.5268927],[-73.7649083,45.5268026],[-73.7649273,45.5267979],[-73.7653563,45.5267097],[-73.7658027,45.5266453],[-73.7662435,45.5266052],[-73.7685798,45.5264073],[-73.7695868,45.526322],[-73.77139,45.52613],[-73.7717583,45.526096],[-73.772008,45.5260662],[-73.7723137,45.5260081],[-73.7726296,45.5259255],[-73.7729546,45.525823],[-73.7732319,45.5257226],[-73.7733231,45.5256927]]}";1;Boulevard Samson;3;50;false;true;true;false;false;false;563.5;2;0;0;0;0;false;43038;6269511908;-73.77317;45.525843;41155;6269512686;-73.78168;45.522205;1;22;23;9312808;Bus : 144 O - Direction Sainte-Dorothée;"";STL;144O;Métro Côte-Vertu Quai:20;Carole / Des Tulipes
94780892;"{\"type\":\"LineString\",\"coordinates\":[[-73.7733231,45.5256927],[-73.7735222,45.5256204],[-73.7736671,45.5255677],[-73.773989,45.5254507],[-73.7753036,45.524973],[-73.7766339,45.5244895]]}";2;Boulevard Samson;3;50;false;true;false;false;false;false;291.0;1;0;0;0;0;false;43038;6269511908;-73.77317;45.525843;41155;6269512686;-73.78168;45.522205;0;22;23;9312808;Bus : 144 O - Direction Sainte-Dorothée;"";STL;144O;Métro Côte-Vertu Quai:20;Carole / Des Tulipes
38795784;"{\"type\":\"LineString\",\"coordinates\":[[-73.7766339,45.5244895],[-73.7781359,45.5239603]]}";3;Boulevard Samson;3;50;false;true;false;false;false;false;132.0;0;0;0;0;0;false;43038;6269511908;-73.77317;45.525843;41155;6269512686;-73.78168;45.522205;0;22;23;9312808;Bus : 144 O - Direction Sainte-Dorothée;"";STL;144O;Métro Côte-Vertu Quai:20;Carole / Des Tulipes
455241088;"{\"type\":\"LineString\",\"coordinates\":[[-73.7781359,45.5239603],[-73.7794577,45.5234913]]}";4;Boulevard Samson;3;50;false;true;false;false;false;false;116.0;0;0;0;0;0;false;43038;6269511908;-73.77317;45.525843;41155;6269512686;-73.78168;45.522205;0;22;23;9312808;Bus : 144 O - Direction Sainte-Dorothée;"";STL;144O;Métro Côte-Vertu Quai:20;Carole / Des Tulipes
38795783;"{\"type\":\"LineString\",\"coordinates\":[[-73.7794577,45.5234913],[-73.7814773,45.5227393],[-73.7819037,45.5225986]]}";5;Boulevard Samson;3;50;false;true;false;false;false;false;216.0;1;0;0;0;0;false;43038;6269511908;-73.77317;45.525843;41155;6269512686;-73.78168;45.522205;0;22;23;9312808;Bus : 144 O - Direction Sainte-Dorothée;"";STL;144O;Métro Côte-Vertu Quai:20;Carole / Des Tulipes
38795548;"{\"type\":\"LineString\",\"coordinates\":[[-73.7819037,45.5225986],[-73.7818217,45.5224757]]}";6;Rue Cléophas-Charbonneau;1;50;false;false;true;false;false;false;16.0;2;0;0;0;0;false;43038;6269511908;-73.77317;45.525843;41155;6269512686;-73.78168;45.522205;0;22;23;9312808;Bus : 144 O - Direction Sainte-Dorothée;"";STL;144O;Métro Côte-Vertu Quai:20;Carole / Des Tulipes
285125506;"{\"type\":\"LineString\",\"coordinates\":[[-73.7818217,45.5224757],[-73.7806234,45.521324],[-73.7802465,45.5208554]]}";7;Rue Cléophas-Charbonneau;3;50;false;false;false;false;false;false;109.5;1;0;0;0;0;false;43038;6269511908;-73.77317;45.525843;41155;6269512686;-73.78168;45.522205;1;22;23;9312808;Bus : 144 O - Direction Sainte-Dorothée;"";STL;144O;Métro Côte-Vertu Quai:20;Carole / Des Tulipes
285125506;"{\"type\":\"LineString\",\"coordinates\":[[-73.7818217,45.5224757],[-73.7806234,45.521324],[-73.7802465,45.5208554]]}";1;Rue Cléophas-Charbonneau;3;50;false;false;false;false;false;false;109.5;1;0;0;0;0;false;45044;6269512705;-73.78056;45.52111;"41192;41180";6269512692;-73.78181;45.520288;1;24;25;9312808;Bus : 144 O - Direction Sainte-Dorothée;"";STL;144O;Métro Côte-Vertu Quai:20;Carole / Des Tulipes
80858764;"{\"type\":\"LineString\",\"coordinates\":[[-73.7802465,45.5208554],[-73.7803185,45.5208375],[-73.7808795,45.520677],[-73.7810724,45.5206095],[-73.7813128,45.5204955],[-73.7814648,45.5204281],[-73.7816193,45.520357],[-73.7818782,45.52024],[-73.7824575,45.5200128],[-73.78299,45.51985],[-73.7833632,45.5197213],[-73.78357,45.51965],[-73.784169,45.5193609],[-73.7842899,45.519302],[-73.78493,45.51907],[-73.78523,45.51899],[-73.78553,45.51893],[-73.78648,45.51885],[-73.7868026,45.5188008],[-73.7872284,45.5187359]]}";2;Chemin du Bord-de-l'Eau;2;50;false;false;false;false;false;false;301.0;0;0;0;0;0;false;45044;6269512705;-73.78056;45.52111;"41192;41180";6269512692;-73.78181;45.520288;1;24;25;9312808;Bus : 144 O - Direction Sainte-Dorothée;"";STL;144O;Métro Côte-Vertu Quai:20;Carole / Des Tulipes
80858764;"{\"type\":\"LineString\",\"coordinates\":[[-73.7802465,45.5208554],[-73.7803185,45.5208375],[-73.7808795,45.520677],[-73.7810724,45.5206095],[-73.7813128,45.5204955],[-73.7814648,45.5204281],[-73.7816193,45.520357],[-73.7818782,45.52024],[-73.7824575,45.5200128],[-73.78299,45.51985],[-73.7833632,45.5197213],[-73.78357,45.51965],[-73.784169,45.5193609],[-73.7842899,45.519302],[-73.78493,45.51907],[-73.78523,45.51899],[-73.78553,45.51893],[-73.78648,45.51885],[-73.7868026,45.5188008],[-73.7872284,45.5187359]]}";1;Chemin du Bord-de-l'Eau;2;50;false;false;false;false;false;false;301.0;0;0;0;0;0;false;41203;6269512735;-73.78691;45.518845;41205;6269512741;-73.78942;45.518308;1;27;28;9312808;Bus : 144 O - Direction Sainte-Dorothée;"";STL;144O;Métro Côte-Vertu Quai:20;Carole / Des Tulipes
94780905;"{\"type\":\"LineString\",\"coordinates\":[[-73.7872284,45.5187359],[-73.7883576,45.5185066],[-73.7888377,45.5183864],[-73.7894212,45.5182576],[-73.7908063,45.5180211],[-73.7909332,45.5180013],[-73.7911562,45.5179665],[-73.7915537,45.5179292],[-73.79322,45.51782],[-73.794178,45.5177717],[-73.7949237,45.5178082],[-73.7952527,45.5178683],[-73.7965729,45.5181641],[-73.7968024,45.518217],[-73.7974299,45.5183616],[-73.7982087,45.5184758],[-73.7992224,45.518591],[-73.7998414,45.5186609],[-73.8003186,45.5186941],[-73.8007942,45.5187113]]}";2;Chemin du Bord-de-l'Eau;2;50;false;false;false;false;false;false;542.5;0;0;0;0;0;false;41203;6269512735;-73.78691;45.518845;41205;6269512741;-73.78942;45.518308;1;27;28;9312808;Bus : 144 O - Direction Sainte-Dorothée;"";STL;144O;Métro Côte-Vertu Quai:20;Carole / Des Tulipes
94780905;"{\"type\":\"LineString\",\"coordinates\":[[-73.7872284,45.5187359],[-73.7883576,45.5185066],[-73.7888377,45.5183864],[-73.7894212,45.5182576],[-73.7908063,45.5180211],[-73.7909332,45.5180013],[-73.7911562,45.5179665],[-73.7915537,45.5179292],[-73.79322,45.51782],[-73.794178,45.5177717],[-73.7949237,45.5178082],[-73.7952527,45.5178683],[-73.7965729,45.5181641],[-73.7968024,45.518217],[-73.7974299,45.5183616],[-73.7982087,45.5184758],[-73.7992224,45.518591],[-73.7998414,45.5186609],[-73.8003186,45.5186941],[-73.8007942,45.5187113]]}";1;Chemin du Bord-de-l'Eau;2;50;false;false;false;false;false;false;542.5;0;0;0;0;0;false;41159;6269512740;-73.79804;45.518492;41161;6269512737;-73.80093;45.518764;1;31;32;9312808;Bus : 144 O - Direction Sainte-Dorothée;"";STL;144O;Métro Côte-Vertu Quai:20;Carole / Des Tulipes
94780808;"{\"type\":\"LineString\",\"coordinates\":[[-73.8007942,45.5187113],[-73.8011974,45.5187396],[-73.8015111,45.5187564],[-73.8023024,45.5188091],[-73.8027099,45.51885],[-73.8033519,45.5189066],[-73.8034879,45.5189187],[-73.8048,45.51907],[-73.8052571,45.519115],[-73.8056964,45.519201],[-73.80612,45.51929],[-73.8065436,45.5193901],[-73.80667,45.51942],[-73.8070149,45.5195277],[-73.8071409,45.5195708]]}";2;Chemin du Bord-de-l'Eau;2;50;false;false;false;false;false;false;254.0;0;0;0;0;0;false;41159;6269512740;-73.79804;45.518492;41161;6269512737;-73.80093;45.518764;1;31;32;9312808;Bus : 144 O - Direction Sainte-Dorothée;"";STL;144O;Métro Côte-Vertu Quai:20;Carole / Des Tulipes
94780905;"{\"type\":\"LineString\",\"coordinates\":[[-73.7872284,45.5187359],[-73.7883576,45.5185066],[-73.7888377,45.5183864],[-73.7894212,45.5182576],[-73.7908063,45.5180211],[-73.7909332,45.5180013],[-73.7911562,45.5179665],[-73.7915537,45.5179292],[-73.79322,45.51782],[-73.794178,45.5177717],[-73.7949237,45.5178082],[-73.7952527,45.5178683],[-73.7965729,45.5181641],[-73.7968024,45.518217],[-73.7974299,45.5183616],[-73.7982087,45.5184758],[-73.7992224,45.518591],[-73.7998414,45.5186609],[-73.8003186,45.5186941],[-73.8007942,45.5187113]]}";1;Chemin du Bord-de-l'Eau;2;50;false;false;false;false;false;false;1085.0;0;0;0;0;0;false;41161;6269512737;-73.80093;45.518764;41163;6269512723;-73.80346;45.518955;2;32;33;9312808;Bus : 144 O - Direction Sainte-Dorothée;"";STL;144O;Métro Côte-Vertu Quai:20;Carole / Des Tulipes
94780808;"{\"type\":\"LineString\",\"coordinates\":[[-73.8007942,45.5187113],[-73.8011974,45.5187396],[-73.8015111,45.5187564],[-73.8023024,45.5188091],[-73.8027099,45.51885],[-73.8033519,45.5189066],[-73.8034879,45.5189187],[-73.8048,45.51907],[-73.8052571,45.519115],[-73.8056964,45.519201],[-73.80612,45.51929],[-73.8065436,45.5193901],[-73.80667,45.51942],[-73.8070149,45.5195277],[-73.8071409,45.5195708]]}";2;Chemin du Bord-de-l'Eau;2;50;false;false;false;false;false;false;508.0;0;0;0;0;0;false;41161;6269512737;-73.80093;45.518764;41163;6269512723;-73.80346;45.518955;2;32;33;9312808;Bus : 144 O - Direction Sainte-Dorothée;"";STL;144O;Métro Côte-Vertu Quai:20;Carole / Des Tulipes
686619029;"{\"type\":\"LineString\",\"coordinates\":[[-73.8071409,45.5195708],[-73.8091537,45.5201054],[-73.8097492,45.5202179],[-73.8100925,45.5202827],[-73.8102485,45.5203122],[-73.8103721,45.5203276],[-73.810431,45.5203309],[-73.810648,45.5203429],[-73.8109228,45.5203534],[-73.8113485,45.5203697],[-73.8114514,45.5203717],[-73.812632,45.5203949],[-73.8130767,45.5204028]]}";1;Chemin du Bord-de-l'Eau;2;50;false;false;false;false;false;false;239.0;0;0;0;0;0;false;46274;6269512728;-73.81124;45.520401;41695;6269512720;-73.81335;45.520827;1;35;36;9312808;Bus : 144 O - Direction Sainte-Dorothée;"";STL;144O;Métro Côte-Vertu Quai:20;Carole / Des Tulipes
695751283;"{\"type\":\"LineString\",\"coordinates\":[[-73.8130767,45.5204028],[-73.8135773,45.5209066],[-73.8145083,45.5218437],[-73.8151796,45.5225195],[-73.8162748,45.5236219],[-73.8165524,45.5239013],[-73.8168795,45.5242305]]}";2;Montée Gravel;1;50;false;false;true;false;false;false;259.5;0;0;0;0;0;false;46274;6269512728;-73.81124;45.520401;41695;6269512720;-73.81335;45.520827;1;35;36;9312808;Bus : 144 O - Direction Sainte-Dorothée;"";STL;144O;Métro Côte-Vertu Quai:20;Carole / Des Tulipes
684470204;"{\"type\":\"LineString\",\"coordinates\":[[-73.8168795,45.5242305],[-73.816989,45.5243407],[-73.8172136,45.5245669],[-73.8173508,45.5247049],[-73.8182195,45.5255697],[-73.8187674,45.5261179],[-73.81894,45.5262876],[-73.8193203,45.5266614],[-73.8195381,45.5268755],[-73.8204754,45.5277968],[-73.82119,45.5285418],[-73.8213734,45.5287406],[-73.8215417,45.5289231]]}";1;Montée Gravel;1;50;false;false;true;false;false;false;318.0;0;0;0;0;0;false;41696;6269511084;-73.82032;45.52771;42650;5894580443;-73.82103;45.528994;1;40;41;9312808;Bus : 144 O - Direction Sainte-Dorothée;"";STL;144O;Métro Côte-Vertu Quai:20;Carole / Des Tulipes
686619030;"{\"type\":\"LineString\",\"coordinates\":[[-73.8215417,45.5289231],[-73.8210083,45.5290983],[-73.82093,45.5291226],[-73.8206575,45.5292126],[-73.8205606,45.5292446]]}";2;Rue Principale;2;50;false;false;true;false;false;false;42.5;0;0;0;0;0;false;41696;6269511084;-73.82032;45.52771;42650;5894580443;-73.82103;45.528994;1;40;41;9312808;Bus : 144 O - Direction Sainte-Dorothée;"";STL;144O;Métro Côte-Vertu Quai:20;Carole / Des Tulipes
686619030;"{\"type\":\"LineString\",\"coordinates\":[[-73.8215417,45.5289231],[-73.8210083,45.5290983],[-73.82093,45.5291226],[-73.8206575,45.5292126],[-73.8205606,45.5292446]]}";1;Rue Principale;2;50;false;false;true;false;false;false;42.5;0;0;0;0;0;false;42650;5894580443;-73.82103;45.528994;41215;6269511028;-73.82182;45.530855;1;41;42;9312808;Bus : 144 O - Direction Sainte-Dorothée;"";STL;144O;Métro Côte-Vertu Quai:20;Carole / Des Tulipes
682368053;"{\"type\":\"LineString\",\"coordinates\":[[-73.8205606,45.5292446],[-73.8204605,45.5292776]]}";2;Rue Principale;2;50;false;false;true;false;false;false;9.0;0;0;0;0;0;false;42650;5894580443;-73.82103;45.528994;41215;6269511028;-73.82182;45.530855;0;41;42;9312808;Bus : 144 O - Direction Sainte-Dorothée;"";STL;144O;Métro Côte-Vertu Quai:20;Carole / Des Tulipes
45571145;"{\"type\":\"LineString\",\"coordinates\":[[-73.8204605,45.5292776],[-73.8208451,45.529782],[-73.8209655,45.5299398],[-73.8211153,45.5300311]]}";3;Rue Carole;1;50;false;true;true;false;false;false;99.0;0;0;0;0;0;false;42650;5894580443;-73.82103;45.528994;41215;6269511028;-73.82182;45.530855;0;41;42;9312808;Bus : 144 O - Direction Sainte-Dorothée;"";STL;144O;Métro Côte-Vertu Quai:20;Carole / Des Tulipes
45571004;"{\"type\":\"LineString\",\"coordinates\":[[-73.8211153,45.5300311],[-73.8219875,45.5308824],[-73.8234059,45.5322417]]}";4;Rue Carole;2;50;false;false;true;false;false;false;152.0;0;0;0;0;0;false;42650;5894580443;-73.82103;45.528994;41215;6269511028;-73.82182;45.530855;1;41;42;9312808;Bus : 144 O - Direction Sainte-Dorothée;"";STL;144O;Métro Côte-Vertu Quai:20;Carole / Des Tulipes
