way_id;shape;index;name;nb_lanes;legal_speed;speed_zone_30;oneway;shares_bike;bike_box;bus_lane;dedicated_bus_lane;length;nb_traffic_signals;nb_crossings;nb_stops;nb_give_ways;nb_lvl_crossings;roundabout;stop_id_orig;node_id_orig;coord_x_orig;coord_y_orig;stop_id_dest;node_id_dest;coord_x_dest;coord_y_dest;nb_neighbouring_ways_bus_stop;order_orig;order_dest;id_line;line_name;colour;operator;ref;from;to
43100899;"{\"type\":\"LineString\",\"coordinates\":[[-6.2538576,53.3499392],[-6.2540211,53.350177],[-6.2543745,53.3506908],[-6.2544091,53.3507411]]}";1;Gardiner Street Lower;3;50;false;false;false;false;false;false;98.0;1;1;0;0;0;false;1171;983687485;-6.2542851;53.3503157;1172;983687478;-6.2552819;53.3517239;1;0;1;447540;33 - Lower Abbey Street - Balbriggan;"";Dublin Bus;33;Lower Abbey Street;Balbriggan
162745567;"{\"type\":\"LineString\",\"coordinates\":[[-6.2544091,53.3507411],[-6.2544851,53.3508434],[-6.2549947,53.3515298],[-6.2555708,53.3523453],[-6.2560402,53.3530263]]}";2;Gardiner Street Lower;2;50;false;false;false;false;false;false;139.5;2;1;0;0;0;false;1171;983687485;-6.2542851;53.3503157;1172;983687478;-6.2552819;53.3517239;1;0;1;447540;33 - Lower Abbey Street - Balbriggan;"";Dublin Bus;33;Lower Abbey Street;Balbriggan
162745567;"{\"type\":\"LineString\",\"coordinates\":[[-6.2544091,53.3507411],[-6.2544851,53.3508434],[-6.2549947,53.3515298],[-6.2555708,53.3523453],[-6.2560402,53.3530263]]}";1;Gardiner Street Lower;2;50;false;false;false;false;false;false;139.5;2;1;0;0;0;false;1172;983687478;-6.2552819;53.3517239;1173;983687475;-6.2567243;53.3537274;1;1;2;447540;33 - Lower Abbey Street - Balbriggan;"";Dublin Bus;33;Lower Abbey Street;Balbriggan
37746962;"{\"type\":\"LineString\",\"coordinates\":[[-6.2560402,53.3530263],[-6.2568679,53.3541819]]}";2;Gardiner Street Lower;2;50;false;false;false;false;false;false;70.5;2;0;0;0;0;false;1172;983687478;-6.2552819;53.3517239;1173;983687475;-6.2567243;53.3537274;1;1;2;447540;33 - Lower Abbey Street - Balbriggan;"";Dublin Bus;33;Lower Abbey Street;Balbriggan
37746962;"{\"type\":\"LineString\",\"coordinates\":[[-6.2560402,53.3530263],[-6.2568679,53.3541819]]}";1;Gardiner Street Lower;2;50;false;false;false;false;false;false;70.5;2;0;0;0;0;false;1173;983687475;-6.2567243;53.3537274;15;500320684;-6.2610054;53.3602484;1;2;3;447540;33 - Lower Abbey Street - Balbriggan;"";Dublin Bus;33;Lower Abbey Street;Balbriggan
37692198;"{\"type\":\"LineString\",\"coordinates\":[[-6.2568679,53.3541819],[-6.257203,53.35465],[-6.2574232,53.3549528],[-6.2574727,53.3550156],[-6.257938,53.3556449]]}";2;Gardiner Street Middle;1;50;false;false;true;false;false;false;179.0;1;0;0;0;0;false;1173;983687475;-6.2567243;53.3537274;15;500320684;-6.2610054;53.3602484;0;2;3;447540;33 - Lower Abbey Street - Balbriggan;"";Dublin Bus;33;Lower Abbey Street;Balbriggan
3936649;"{\"type\":\"LineString\",\"coordinates\":[[-6.257938,53.3556449],[-6.2580298,53.3557391]]}";3;Mountjoy Square West;1;50;false;false;true;false;false;false;13.0;0;0;0;0;0;false;1173;983687475;-6.2567243;53.3537274;15;500320684;-6.2610054;53.3602484;0;2;3;447540;33 - Lower Abbey Street - Balbriggan;"";Dublin Bus;33;Lower Abbey Street;Balbriggan
372245390;"{\"type\":\"LineString\",\"coordinates\":[[-6.2580298,53.3557391],[-6.2580798,53.3557881],[-6.2591006,53.3567871]]}";4;Mountjoy Square West;2;50;false;false;true;false;false;false;138.0;2;0;0;0;0;false;1173;983687475;-6.2567243;53.3537274;15;500320684;-6.2610054;53.3602484;0;2;3;447540;33 - Lower Abbey Street - Balbriggan;"";Dublin Bus;33;Lower Abbey Street;Balbriggan
83806426;"{\"type\":\"LineString\",\"coordinates\":[[-6.2618937,53.3589854],[-6.2616409,53.3588861],[-6.2608472,53.3585108],[-6.260825,53.3584918],[-6.2607437,53.3584223],[-6.2599039,53.3575889],[-6.2597863,53.3574795],[-6.2591006,53.3567871]]}";5;Gardiner Street Upper;3;50;false;false;true;false;false;false;314.0;2;1;0;0;0;false;1173;983687475;-6.2567243;53.3537274;15;500320684;-6.2610054;53.3602484;0;2;3;447540;33 - Lower Abbey Street - Balbriggan;"";Dublin Bus;33;Lower Abbey Street;Balbriggan
3957129;"{\"type\":\"LineString\",\"coordinates\":[[-6.2620421,53.359035],[-6.2618937,53.3589854]]}";6;Gardiner Street Upper;1;50;false;false;true;false;false;false;12.0;2;0;0;0;0;false;1173;983687475;-6.2567243;53.3537274;15;500320684;-6.2610054;53.3602484;0;2;3;447540;33 - Lower Abbey Street - Balbriggan;"";Dublin Bus;33;Lower Abbey Street;Balbriggan
37747728;"{\"type\":\"LineString\",\"coordinates\":[[-6.2620421,53.359035],[-6.261748,53.3593341],[-6.2613238,53.359764]]}";7;Dorset Street Lower;3;50;false;true;true;false;false;false;95.0;2;0;0;0;0;false;1173;983687475;-6.2567243;53.3537274;15;500320684;-6.2610054;53.3602484;0;2;3;447540;33 - Lower Abbey Street - Balbriggan;"";Dublin Bus;33;Lower Abbey Street;Balbriggan
37747133;"{\"type\":\"LineString\",\"coordinates\":[[-6.2613238,53.359764],[-6.2612459,53.3598458],[-6.2608947,53.3602147],[-6.2605215,53.3606067],[-6.2604733,53.3606573],[-6.2603728,53.360759]]}";8;Dorset Street Lower;3;50;false;true;true;false;false;false;64.5;2;2;0;0;0;false;1173;983687475;-6.2567243;53.3537274;15;500320684;-6.2610054;53.3602484;1;2;3;447540;33 - Lower Abbey Street - Balbriggan;"";Dublin Bus;33;Lower Abbey Street;Balbriggan
37747133;"{\"type\":\"LineString\",\"coordinates\":[[-6.2613238,53.359764],[-6.2612459,53.3598458],[-6.2608947,53.3602147],[-6.2605215,53.3606067],[-6.2604733,53.3606573],[-6.2603728,53.360759]]}";1;Dorset Street Lower;3;50;false;true;true;false;false;false;64.5;2;2;0;0;0;false;15;500320684;-6.2610054;53.3602484;17;442779156;-6.258468;53.3630144;1;3;4;447540;33 - Lower Abbey Street - Balbriggan;"";Dublin Bus;33;Lower Abbey Street;Balbriggan
37747008;"{\"type\":\"LineString\",\"coordinates\":[[-6.2603728,53.360759],[-6.2600407,53.3611258],[-6.2599034,53.3612558],[-6.259737,53.3613845]]}";2;Dorset Street Lower;3;50;false;true;true;false;false;false;83.0;1;0;0;0;0;false;15;500320684;-6.2610054;53.3602484;17;442779156;-6.258468;53.3630144;0;3;4;447540;33 - Lower Abbey Street - Balbriggan;"";Dublin Bus;33;Lower Abbey Street;Balbriggan
55814746;"{\"type\":\"LineString\",\"coordinates\":[[-6.259737,53.3613845],[-6.2597204,53.3614077]]}";3;Dorset Street Lower;6;50;false;false;true;false;false;false;3.0;0;0;0;0;0;false;15;500320684;-6.2610054;53.3602484;17;442779156;-6.258468;53.3630144;0;3;4;447540;33 - Lower Abbey Street - Balbriggan;"";Dublin Bus;33;Lower Abbey Street;Balbriggan
4937068;"{\"type\":\"LineString\",\"coordinates\":[[-6.2597204,53.3614077],[-6.2596177,53.3615358]]}";4;Binns Bridge;6;50;false;false;true;false;false;false;16.0;0;0;0;0;0;false;15;500320684;-6.2610054;53.3602484;17;442779156;-6.258468;53.3630144;0;3;4;447540;33 - Lower Abbey Street - Balbriggan;"";Dublin Bus;33;Lower Abbey Street;Balbriggan
258341362;"{\"type\":\"LineString\",\"coordinates\":[[-6.2596177,53.3615358],[-6.2596079,53.3615473],[-6.2595795,53.3615833]]}";5;Binns Bridge;6;50;false;false;true;false;false;false;6.0;0;0;0;0;0;false;15;500320684;-6.2610054;53.3602484;17;442779156;-6.258468;53.3630144;0;3;4;447540;33 - Lower Abbey Street - Balbriggan;"";Dublin Bus;33;Lower Abbey Street;Balbriggan
740743747;"{\"type\":\"LineString\",\"coordinates\":[[-6.2595795,53.3615833],[-6.2595092,53.3616723]]}";6;Binns Bridge;6;50;false;false;true;false;false;false;12.0;0;0;0;0;0;false;15;500320684;-6.2610054;53.3602484;17;442779156;-6.258468;53.3630144;0;3;4;447540;33 - Lower Abbey Street - Balbriggan;"";Dublin Bus;33;Lower Abbey Street;Balbriggan
70726569;"{\"type\":\"LineString\",\"coordinates\":[[-6.2595092,53.3616723],[-6.2594999,53.3616889]]}";7;Dorset Street Lower;1;50;false;false;true;false;false;false;2.0;0;0;0;0;0;false;15;500320684;-6.2610054;53.3602484;17;442779156;-6.258468;53.3630144;0;3;4;447540;33 - Lower Abbey Street - Balbriggan;"";Dublin Bus;33;Lower Abbey Street;Balbriggan
4937067;"{\"type\":\"LineString\",\"coordinates\":[[-6.2594999,53.3616889],[-6.2594926,53.3617471]]}";8;Drumcondra Road Lower;3;50;false;true;true;false;false;false;7.0;1;0;0;0;0;false;15;500320684;-6.2610054;53.3602484;17;442779156;-6.258468;53.3630144;0;3;4;447540;33 - Lower Abbey Street - Balbriggan;"";Dublin Bus;33;Lower Abbey Street;Balbriggan
128185886;"{\"type\":\"LineString\",\"coordinates\":[[-6.2594926,53.3617471],[-6.2593626,53.3618916],[-6.2588129,53.362503],[-6.2585238,53.3628227],[-6.2584369,53.3628466]]}";9;Drumcondra Road Lower;3;50;false;true;true;false;false;false;144.0;1;1;0;0;0;false;15;500320684;-6.2610054;53.3602484;17;442779156;-6.258468;53.3630144;0;3;4;447540;33 - Lower Abbey Street - Balbriggan;"";Dublin Bus;33;Lower Abbey Street;Balbriggan
37747501;"{\"type\":\"LineString\",\"coordinates\":[[-6.2584369,53.3628466],[-6.2582745,53.363008],[-6.2579126,53.3634197]]}";10;Drumcondra Road Lower;4;50;false;false;true;false;false;false;37.0;1;0;0;0;0;false;15;500320684;-6.2610054;53.3602484;17;442779156;-6.258468;53.3630144;1;3;4;447540;33 - Lower Abbey Street - Balbriggan;"";Dublin Bus;33;Lower Abbey Street;Balbriggan
128185886;"{\"type\":\"LineString\",\"coordinates\":[[-6.2594926,53.3617471],[-6.2593626,53.3618916],[-6.2588129,53.362503],[-6.2585238,53.3628227],[-6.2584369,53.3628466]]}";1;Drumcondra Road Lower;3;50;false;true;true;false;false;false;144.0;1;1;0;0;0;false;17;442779156;-6.258468;53.3630144;18;500320660;-6.2560321;53.3659279;2;4;5;447540;33 - Lower Abbey Street - Balbriggan;"";Dublin Bus;33;Lower Abbey Street;Balbriggan
37747501;"{\"type\":\"LineString\",\"coordinates\":[[-6.2584369,53.3628466],[-6.2582745,53.363008],[-6.2579126,53.3634197]]}";2;Drumcondra Road Lower;4;50;false;false;true;false;false;false;74.0;1;0;0;0;0;false;17;442779156;-6.258468;53.3630144;18;500320660;-6.2560321;53.3659279;0;4;5;447540;33 - Lower Abbey Street - Balbriggan;"";Dublin Bus;33;Lower Abbey Street;Balbriggan
317149206;"{\"type\":\"LineString\",\"coordinates\":[[-6.2579126,53.3634197],[-6.2577735,53.3635651],[-6.257587,53.3637601]]}";3;Drumcondra Road Lower;4;50;false;false;true;false;false;false;44.0;1;1;0;0;0;false;17;442779156;-6.258468;53.3630144;18;500320660;-6.2560321;53.3659279;0;4;5;447540;33 - Lower Abbey Street - Balbriggan;"";Dublin Bus;33;Lower Abbey Street;Balbriggan
56007677;"{\"type\":\"LineString\",\"coordinates\":[[-6.257587,53.3637601],[-6.2574248,53.3639396],[-6.2571906,53.3641992]]}";4;Drumcondra Road Lower;1;50;false;false;true;false;false;false;56.0;0;0;0;0;0;false;17;442779156;-6.258468;53.3630144;18;500320660;-6.2560321;53.3659279;0;4;5;447540;33 - Lower Abbey Street - Balbriggan;"";Dublin Bus;33;Lower Abbey Street;Balbriggan
317127403;"{\"type\":\"LineString\",\"coordinates\":[[-6.2571906,53.3641992],[-6.2571118,53.3642935],[-6.2567681,53.3647188],[-6.2564833,53.3650791],[-6.2561765,53.3654741]]}";5;Drumcondra Road Lower;1;50;false;false;true;false;false;false;159.0;0;0;0;0;0;false;17;442779156;-6.258468;53.3630144;18;500320660;-6.2560321;53.3659279;0;4;5;447540;33 - Lower Abbey Street - Balbriggan;"";Dublin Bus;33;Lower Abbey Street;Balbriggan
56023843;"{\"type\":\"LineString\",\"coordinates\":[[-6.2561765,53.3654741],[-6.2558987,53.3658967],[-6.255746,53.366129],[-6.255553,53.3664896],[-6.2554948,53.3667838],[-6.2554741,53.3669328],[-6.255462,53.3670527],[-6.2554568,53.3671447],[-6.255459,53.3671949],[-6.255461,53.3672703],[-6.2554656,53.3674646],[-6.2554662,53.3674889],[-6.2554677,53.3675521],[-6.2554619,53.3676209],[-6.2554355,53.3676927],[-6.2552378,53.3681983]]}";6;Drumcondra Road Lower;4;50;false;false;true;false;false;false;315.0;1;2;0;0;0;false;17;442779156;-6.258468;53.3630144;18;500320660;-6.2560321;53.3659279;2;4;5;447540;33 - Lower Abbey Street - Balbriggan;"";Dublin Bus;33;Lower Abbey Street;Balbriggan
56023843;"{\"type\":\"LineString\",\"coordinates\":[[-6.2561765,53.3654741],[-6.2558987,53.3658967],[-6.255746,53.366129],[-6.255553,53.3664896],[-6.2554948,53.3667838],[-6.2554741,53.3669328],[-6.255462,53.3670527],[-6.2554568,53.3671447],[-6.255459,53.3671949],[-6.255461,53.3672703],[-6.2554656,53.3674646],[-6.2554662,53.3674889],[-6.2554677,53.3675521],[-6.2554619,53.3676209],[-6.2554355,53.3676927],[-6.2552378,53.3681983]]}";1;Drumcondra Road Lower;4;50;false;false;true;false;false;false;157.5;1;2;0;0;0;false;19;500320789;-6.2556103;53.3672574;21;500320858;-6.2543198;53.3701115;1;6;7;447540;33 - Lower Abbey Street - Balbriggan;"";Dublin Bus;33;Lower Abbey Street;Balbriggan
23076385;"{\"type\":\"LineString\",\"coordinates\":[[-6.2552378,53.3681983],[-6.2551936,53.3682977]]}";2;The Frank Flood Bridge;4;50;false;false;true;false;false;false;12.0;0;0;0;0;0;false;19;500320789;-6.2556103;53.3672574;21;500320858;-6.2543198;53.3701115;0;6;7;447540;33 - Lower Abbey Street - Balbriggan;"";Dublin Bus;33;Lower Abbey Street;Balbriggan
317738684;"{\"type\":\"LineString\",\"coordinates\":[[-6.2551936,53.3682977],[-6.2551893,53.3683069]]}";3;The Frank Flood Bridge;4;50;false;false;true;false;false;false;2.0;0;0;0;0;0;false;19;500320789;-6.2556103;53.3672574;21;500320858;-6.2543198;53.3701115;0;6;7;447540;33 - Lower Abbey Street - Balbriggan;"";Dublin Bus;33;Lower Abbey Street;Balbriggan
317127402;"{\"type\":\"LineString\",\"coordinates\":[[-6.2551893,53.3683069],[-6.2551516,53.3683985]]}";4;The Frank Flood Bridge;4;50;false;false;true;false;false;false;11.0;0;0;0;0;0;false;19;500320789;-6.2556103;53.3672574;21;500320858;-6.2543198;53.3701115;0;6;7;447540;33 - Lower Abbey Street - Balbriggan;"";Dublin Bus;33;Lower Abbey Street;Balbriggan
23076386;"{\"type\":\"LineString\",\"coordinates\":[[-6.2551516,53.3683985],[-6.2549984,53.3687549]]}";5;Drumcondra Road Upper;4;50;false;false;true;false;false;false;42.0;1;0;0;0;0;false;19;500320789;-6.2556103;53.3672574;21;500320858;-6.2543198;53.3701115;0;6;7;447540;33 - Lower Abbey Street - Balbriggan;"";Dublin Bus;33;Lower Abbey Street;Balbriggan
3818298;"{\"type\":\"LineString\",\"coordinates\":[[-6.2549984,53.3687549],[-6.2549191,53.3688744],[-6.2549012,53.3689046]]}";6;Drumcondra Road Upper;4;50;false;false;true;false;false;false;18.0;1;1;0;0;0;false;19;500320789;-6.2556103;53.3672574;21;500320858;-6.2543198;53.3701115;0;6;7;447540;33 - Lower Abbey Street - Balbriggan;"";Dublin Bus;33;Lower Abbey Street;Balbriggan
37812573;"{\"type\":\"LineString\",\"coordinates\":[[-6.2549012,53.3689046],[-6.2543859,53.3697078],[-6.2542567,53.3699253],[-6.2541737,53.3700682],[-6.2539891,53.3703612],[-6.253836,53.3706086],[-6.2537492,53.3707574],[-6.2537107,53.3708197],[-6.2535422,53.3711231],[-6.2534019,53.3713749],[-6.2533205,53.3715145],[-6.2532949,53.3715546],[-6.2531797,53.3717317],[-6.253142,53.3717897],[-6.253076,53.3718861],[-6.2530065,53.371976],[-6.2528157,53.372234],[-6.2527024,53.3723692],[-6.2526721,53.3724133],[-6.2525091,53.3726376],[-6.252464,53.3727089],[-6.252255,53.373039],[-6.2520189,53.3734261]]}";7;Drumcondra Road Upper;4;50;false;false;false;false;true;false;271.5;2;2;0;0;0;false;19;500320789;-6.2556103;53.3672574;21;500320858;-6.2543198;53.3701115;1;6;7;447540;33 - Lower Abbey Street - Balbriggan;"";Dublin Bus;33;Lower Abbey Street;Balbriggan
37812573;"{\"type\":\"LineString\",\"coordinates\":[[-6.2549012,53.3689046],[-6.2543859,53.3697078],[-6.2542567,53.3699253],[-6.2541737,53.3700682],[-6.2539891,53.3703612],[-6.253836,53.3706086],[-6.2537492,53.3707574],[-6.2537107,53.3708197],[-6.2535422,53.3711231],[-6.2534019,53.3713749],[-6.2533205,53.3715145],[-6.2532949,53.3715546],[-6.2531797,53.3717317],[-6.253142,53.3717897],[-6.253076,53.3718861],[-6.2530065,53.371976],[-6.2528157,53.372234],[-6.2527024,53.3723692],[-6.2526721,53.3724133],[-6.2525091,53.3726376],[-6.252464,53.3727089],[-6.252255,53.373039],[-6.2520189,53.3734261]]}";1;Drumcondra Road Upper;4;50;false;false;false;false;true;false;271.5;2;2;0;0;0;false;21;500320858;-6.2543198;53.3701115;85;279042315;-6.2518758;53.3739248;1;7;8;447540;33 - Lower Abbey Street - Balbriggan;"";Dublin Bus;33;Lower Abbey Street;Balbriggan
368932685;"{\"type\":\"LineString\",\"coordinates\":[[-6.2520189,53.3734261],[-6.2519675,53.3735222],[-6.2517749,53.3738826],[-6.2515787,53.3742495],[-6.2515568,53.3742844]]}";2;Drumcondra Road Upper;4;50;false;false;false;false;true;false;51.0;1;1;0;0;0;false;21;500320858;-6.2543198;53.3701115;85;279042315;-6.2518758;53.3739248;1;7;8;447540;33 - Lower Abbey Street - Balbriggan;"";Dublin Bus;33;Lower Abbey Street;Balbriggan
368932685;"{\"type\":\"LineString\",\"coordinates\":[[-6.2520189,53.3734261],[-6.2519675,53.3735222],[-6.2517749,53.3738826],[-6.2515787,53.3742495],[-6.2515568,53.3742844]]}";1;Drumcondra Road Upper;4;50;false;false;false;false;true;false;51.0;1;1;0;0;0;false;85;279042315;-6.2518758;53.3739248;203;500320851;-6.2499469;53.3763872;1;8;9;447540;33 - Lower Abbey Street - Balbriggan;"";Dublin Bus;33;Lower Abbey Street;Balbriggan
368932686;"{\"type\":\"LineString\",\"coordinates\":[[-6.2515568,53.3742844],[-6.2515326,53.3743201],[-6.2512475,53.3747395],[-6.2509327,53.3751179],[-6.2508076,53.3752684],[-6.2506497,53.3754588],[-6.2504783,53.3756654],[-6.2503529,53.3758166]]}";2;Drumcondra Road Upper;4;50;false;false;true;false;true;false;190.0;1;0;0;0;0;false;85;279042315;-6.2518758;53.3739248;203;500320851;-6.2499469;53.3763872;0;8;9;447540;33 - Lower Abbey Street - Balbriggan;"";Dublin Bus;33;Lower Abbey Street;Balbriggan
3793938;"{\"type\":\"LineString\",\"coordinates\":[[-6.2503529,53.3758166],[-6.2502793,53.3759025],[-6.2502569,53.3759241],[-6.2501901,53.3759883],[-6.250008,53.3761635],[-6.249856,53.3762913],[-6.2498448,53.3763002],[-6.2497604,53.3763668]]}";3;Drumcondra Road Upper;4;50;false;false;true;false;true;false;37.0;1;0;0;0;0;false;85;279042315;-6.2518758;53.3739248;203;500320851;-6.2499469;53.3763872;1;8;9;447540;33 - Lower Abbey Street - Balbriggan;"";Dublin Bus;33;Lower Abbey Street;Balbriggan
558112093;"{\"type\":\"LineString\",\"coordinates\":[[-6.2497604,53.3763668],[-6.2494247,53.3766128],[-6.2490695,53.3768586],[-6.2487753,53.3770938],[-6.2486407,53.3772018],[-6.2485291,53.3773077],[-6.2483997,53.3774448],[-6.2481673,53.3776804],[-6.2478156,53.3780869],[-6.2476522,53.3782758],[-6.247616,53.3783176],[-6.2470516,53.3789661],[-6.2469642,53.379068],[-6.2467372,53.379335],[-6.2465615,53.3795416],[-6.246469,53.3796504],[-6.2457643,53.3804804],[-6.245563,53.3807461],[-6.2453595,53.3810396],[-6.2452833,53.381151],[-6.2451493,53.381347],[-6.2450544,53.3814858],[-6.2450075,53.3815544],[-6.244722,53.3820265],[-6.2445517,53.3823037],[-6.2444604,53.3824407]]}";1;Swords Road;4;50;false;false;true;false;true;false;386.0;3;2;0;0;0;false;205;500321006;-6.245328;53.3813681;1623;681742368;-6.2463432;53.3918925;1;11;12;447540;33 - Lower Abbey Street - Balbriggan;"";Dublin Bus;33;Lower Abbey Street;Balbriggan
116019739;"{\"type\":\"LineString\",\"coordinates\":[[-6.2444604,53.3824407],[-6.2443394,53.3826298],[-6.2441915,53.3828825],[-6.2441283,53.3829957],[-6.2440524,53.3831316],[-6.2437843,53.3836113],[-6.2436232,53.3839553],[-6.2435111,53.3841947],[-6.2434919,53.3842442],[-6.2434607,53.3843236],[-6.2433639,53.3845588],[-6.2431225,53.3853338]]}";2;Swords Road;4;50;false;false;true;false;true;false;337.0;1;0;0;0;0;false;205;500321006;-6.245328;53.3813681;1623;681742368;-6.2463432;53.3918925;0;11;12;447540;33 - Lower Abbey Street - Balbriggan;"";Dublin Bus;33;Lower Abbey Street;Balbriggan
3818656;"{\"type\":\"LineString\",\"coordinates\":[[-6.2431225,53.3853338],[-6.2431695,53.3856231],[-6.2431214,53.3859713],[-6.2430992,53.3862996],[-6.2431819,53.3866196],[-6.2432827,53.3867995],[-6.2436759,53.3872431],[-6.2437869,53.3873303],[-6.2438767,53.3873819],[-6.2441162,53.3875067],[-6.2442858,53.3875996],[-6.2443233,53.3876914]]}";3;Swords Road;2;50;false;true;true;false;false;false;291.0;1;0;0;0;0;false;205;500321006;-6.245328;53.3813681;1623;681742368;-6.2463432;53.3918925;0;11;12;447540;33 - Lower Abbey Street - Balbriggan;"";Dublin Bus;33;Lower Abbey Street;Balbriggan
110226821;"{\"type\":\"LineString\",\"coordinates\":[[-6.2462404,53.3897866],[-6.2461953,53.3896732],[-6.2460757,53.3893715],[-6.2460272,53.389225],[-6.2460038,53.3891544],[-6.2459668,53.3890427],[-6.2459238,53.3889128],[-6.2458757,53.3887651],[-6.2458278,53.3886805],[-6.2457992,53.3886301],[-6.2456417,53.3884326],[-6.2455189,53.3883246],[-6.245362,53.3882285],[-6.2449478,53.3880041],[-6.2448693,53.3879616],[-6.2445759,53.3878028],[-6.2445654,53.3877971],[-6.2443233,53.3876914]]}";4;Swords Road;2;50;false;false;false;false;false;false;280.0;2;0;0;0;0;false;205;500321006;-6.245328;53.3813681;1623;681742368;-6.2463432;53.3918925;0;11;12;447540;33 - Lower Abbey Street - Balbriggan;"";Dublin Bus;33;Lower Abbey Street;Balbriggan
428537161;"{\"type\":\"LineString\",\"coordinates\":[[-6.2461848,53.391915],[-6.2462568,53.3916275],[-6.2462744,53.3915571],[-6.2462894,53.3914916],[-6.246326,53.3913318],[-6.2463452,53.3912482],[-6.2463908,53.3909638],[-6.246432,53.3906178],[-6.2464542,53.3904062],[-6.2464467,53.390295],[-6.2464176,53.3902097],[-6.246283,53.3898881],[-6.2462404,53.3897866]]}";5;Swords Road;2;50;false;false;false;false;false;false;121.0;1;0;0;0;0;false;205;500321006;-6.245328;53.3813681;1623;681742368;-6.2463432;53.3918925;1;11;12;447540;33 - Lower Abbey Street - Balbriggan;"";Dublin Bus;33;Lower Abbey Street;Balbriggan
439444483;"{\"type\":\"LineString\",\"coordinates\":[[-6.2460433,53.3927317],[-6.2461848,53.391915]]}";1;Swords Road;1;50;false;false;false;false;false;false;92.0;0;0;0;0;0;false;1623;681742368;-6.2463432;53.3918925;1624;681742371;-6.2454273;53.3960919;2;12;13;447540;33 - Lower Abbey Street - Balbriggan;"";Dublin Bus;33;Lower Abbey Street;Balbriggan
439444484;"{\"type\":\"LineString\",\"coordinates\":[[-6.2459587,53.3931082],[-6.2459913,53.3929677],[-6.2460218,53.3928344],[-6.2460433,53.3927317]]}";2;Swords Road;1;50;false;false;false;false;false;false;43.0;1;0;0;0;0;false;1623;681742368;-6.2463432;53.3918925;1624;681742371;-6.2454273;53.3960919;0;12;13;447540;33 - Lower Abbey Street - Balbriggan;"";Dublin Bus;33;Lower Abbey Street;Balbriggan
642763392;"{\"type\":\"LineString\",\"coordinates\":[[-6.2453632,53.3959229],[-6.2454215,53.3956082],[-6.2454508,53.3954435],[-6.2454752,53.3953407],[-6.2454828,53.3952136],[-6.2455178,53.3950106],[-6.2455912,53.3947203],[-6.2456337,53.3945188],[-6.2459587,53.3931082]]}";3;Swords Road;3;50;false;false;false;false;false;false;318.0;0;0;0;0;0;false;1623;681742368;-6.2463432;53.3918925;1624;681742371;-6.2454273;53.3960919;0;12;13;447540;33 - Lower Abbey Street - Balbriggan;"";Dublin Bus;33;Lower Abbey Street;Balbriggan
3818670;"{\"type\":\"LineString\",\"coordinates\":[[-6.245064,53.3973188],[-6.2451818,53.3970535],[-6.2452462,53.3967729],[-6.2453048,53.3962376],[-6.2453632,53.3959229]]}";4;Swords Road;4;50;false;false;false;false;false;false;159.0;1;0;0;0;0;false;1623;681742368;-6.2463432;53.3918925;1624;681742371;-6.2454273;53.3960919;2;12;13;447540;33 - Lower Abbey Street - Balbriggan;"";Dublin Bus;33;Lower Abbey Street;Balbriggan
642763392;"{\"type\":\"LineString\",\"coordinates\":[[-6.2453632,53.3959229],[-6.2454215,53.3956082],[-6.2454508,53.3954435],[-6.2454752,53.3953407],[-6.2454828,53.3952136],[-6.2455178,53.3950106],[-6.2455912,53.3947203],[-6.2456337,53.3945188],[-6.2459587,53.3931082]]}";1;Swords Road;3;50;false;false;false;false;false;false;318.0;0;0;0;0;0;false;1624;681742371;-6.2454273;53.3960919;1625;681742377;-6.2433276;53.4010904;2;13;14;447540;33 - Lower Abbey Street - Balbriggan;"";Dublin Bus;33;Lower Abbey Street;Balbriggan
3818670;"{\"type\":\"LineString\",\"coordinates\":[[-6.245064,53.3973188],[-6.2451818,53.3970535],[-6.2452462,53.3967729],[-6.2453048,53.3962376],[-6.2453632,53.3959229]]}";2;Swords Road;4;50;false;false;false;false;false;false;159.0;1;0;0;0;0;false;1624;681742371;-6.2454273;53.3960919;1625;681742377;-6.2433276;53.4010904;0;13;14;447540;33 - Lower Abbey Street - Balbriggan;"";Dublin Bus;33;Lower Abbey Street;Balbriggan
116264238;"{\"type\":\"LineString\",\"coordinates\":[[-6.245064,53.3973188],[-6.2450388,53.3974442],[-6.2449821,53.3975398]]}";3;Swords Road;2;50;false;true;false;false;false;false;26.0;1;0;0;0;0;false;1624;681742371;-6.2454273;53.3960919;1625;681742377;-6.2433276;53.4010904;0;13;14;447540;33 - Lower Abbey Street - Balbriggan;"";Dublin Bus;33;Lower Abbey Street;Balbriggan
698920955;"{\"type\":\"LineString\",\"coordinates\":[[-6.2449821,53.3975398],[-6.2447386,53.3979303],[-6.2446551,53.3980536],[-6.2445859,53.3981395],[-6.2443947,53.3983262],[-6.2441429,53.3985559]]}";4;Swords Road;2;50;false;true;false;false;false;false;128.0;1;0;0;0;0;false;1624;681742371;-6.2454273;53.3960919;1625;681742377;-6.2433276;53.4010904;0;13;14;447540;33 - Lower Abbey Street - Balbriggan;"";Dublin Bus;33;Lower Abbey Street;Balbriggan
368266803;"{\"type\":\"LineString\",\"coordinates\":[[-6.2441429,53.3985559],[-6.244132,53.3985724]]}";5;Swords Road;2;50;false;true;false;false;false;false;2.0;1;0;0;0;0;false;1624;681742371;-6.2454273;53.3960919;1625;681742377;-6.2433276;53.4010904;0;13;14;447540;33 - Lower Abbey Street - Balbriggan;"";Dublin Bus;33;Lower Abbey Street;Balbriggan
271175862;"{\"type\":\"LineString\",\"coordinates\":[[-6.244132,53.3985724],[-6.2440734,53.3986546],[-6.2440273,53.3987582],[-6.2440109,53.3987951],[-6.2439709,53.398854]]}";6;Swords Road;2;50;false;true;false;false;false;false;34.0;0;0;0;0;0;false;1624;681742371;-6.2454273;53.3960919;1625;681742377;-6.2433276;53.4010904;0;13;14;447540;33 - Lower Abbey Street - Balbriggan;"";Dublin Bus;33;Lower Abbey Street;Balbriggan
526626290;"{\"type\":\"LineString\",\"coordinates\":[[-6.2439709,53.398854],[-6.2439627,53.3989639],[-6.2439835,53.399167],[-6.2440455,53.3996326],[-6.2440168,53.3998997],[-6.2438556,53.4003035],[-6.24374,53.4005328],[-6.2436178,53.4006804],[-6.2434876,53.4008348],[-6.2433133,53.4010095],[-6.2432177,53.4010786],[-6.2431003,53.4011636],[-6.2421083,53.4018328],[-6.2417696,53.4020726],[-6.2414831,53.4023415],[-6.2412393,53.4026053],[-6.2410471,53.4028813],[-6.2408726,53.4031141],[-6.2406071,53.4036078]]}";7;Swords Road;3;50;false;false;false;false;false;false;599.0;0;0;0;0;0;false;1624;681742371;-6.2454273;53.3960919;1625;681742377;-6.2433276;53.4010904;2;13;14;447540;33 - Lower Abbey Street - Balbriggan;"";Dublin Bus;33;Lower Abbey Street;Balbriggan
526626290;"{\"type\":\"LineString\",\"coordinates\":[[-6.2439709,53.398854],[-6.2439627,53.3989639],[-6.2439835,53.399167],[-6.2440455,53.3996326],[-6.2440168,53.3998997],[-6.2438556,53.4003035],[-6.24374,53.4005328],[-6.2436178,53.4006804],[-6.2434876,53.4008348],[-6.2433133,53.4010095],[-6.2432177,53.4010786],[-6.2431003,53.4011636],[-6.2421083,53.4018328],[-6.2417696,53.4020726],[-6.2414831,53.4023415],[-6.2412393,53.4026053],[-6.2410471,53.4028813],[-6.2408726,53.4031141],[-6.2406071,53.4036078]]}";1;Swords Road;3;50;false;false;false;false;false;false;299.5;0;0;0;0;0;false;1625;681742377;-6.2433276;53.4010904;1627;681742383;-6.2379146;53.4081756;1;14;15;447540;33 - Lower Abbey Street - Balbriggan;"";Dublin Bus;33;Lower Abbey Street;Balbriggan
360262994;"{\"type\":\"LineString\",\"coordinates\":[[-6.2399801,53.4043757],[-6.2401169,53.4042225],[-6.2403937,53.4039127],[-6.2404686,53.4038057],[-6.2406071,53.4036078]]}";2;Swords Road;4;60;false;false;false;false;false;false;96.0;0;0;0;0;0;false;1625;681742377;-6.2433276;53.4010904;1627;681742383;-6.2379146;53.4081756;0;14;15;447540;33 - Lower Abbey Street - Balbriggan;"";Dublin Bus;33;Lower Abbey Street;Balbriggan
360262995;"{\"type\":\"LineString\",\"coordinates\":[[-6.2380155,53.4067833],[-6.2383178,53.4063813],[-6.2387685,53.4058072],[-6.2391838,53.4052883],[-6.2393031,53.4051487],[-6.2396398,53.404764],[-6.2399801,53.4043757]]}";3;Swords Road;4;60;false;false;false;false;false;false;301.0;0;0;0;0;0;false;1625;681742377;-6.2433276;53.4010904;1627;681742383;-6.2379146;53.4081756;0;14;15;447540;33 - Lower Abbey Street - Balbriggan;"";Dublin Bus;33;Lower Abbey Street;Balbriggan
274316812;"{\"type\":\"LineString\",\"coordinates\":[[-6.2376733,53.4075474],[-6.2377006,53.407387],[-6.237732,53.4072944],[-6.2377809,53.4071325],[-6.2378812,53.4069698],[-6.2380155,53.4067833]]}";4;Swords Road;4;60;false;false;false;false;false;false;90.0;0;0;0;0;0;false;1625;681742377;-6.2433276;53.4010904;1627;681742383;-6.2379146;53.4081756;0;14;15;447540;33 - Lower Abbey Street - Balbriggan;"";Dublin Bus;33;Lower Abbey Street;Balbriggan
128183147;"{\"type\":\"LineString\",\"coordinates\":[[-6.2386623,53.4100432],[-6.2386,53.4097958],[-6.238499,53.4096014],[-6.2384735,53.4095524],[-6.2380231,53.4088253],[-6.2378517,53.408531],[-6.2377692,53.4082979],[-6.2377189,53.4081089],[-6.2376958,53.4078987],[-6.2376893,53.4076876],[-6.2376733,53.4075474]]}";5;Swords Road;4;60;false;false;false;false;false;false;145.0;0;0;0;0;0;false;1625;681742377;-6.2433276;53.4010904;1627;681742383;-6.2379146;53.4081756;1;14;15;447540;33 - Lower Abbey Street - Balbriggan;"";Dublin Bus;33;Lower Abbey Street;Balbriggan
128183147;"{\"type\":\"LineString\",\"coordinates\":[[-6.2386623,53.4100432],[-6.2386,53.4097958],[-6.238499,53.4096014],[-6.2384735,53.4095524],[-6.2380231,53.4088253],[-6.2378517,53.408531],[-6.2377692,53.4082979],[-6.2377189,53.4081089],[-6.2376958,53.4078987],[-6.2376893,53.4076876],[-6.2376733,53.4075474]]}";1;Swords Road;4;60;false;false;false;false;false;false;145.0;0;0;0;0;0;false;1627;681742383;-6.2379146;53.4081756;1628;681742386;-6.2391084;53.4137731;1;15;16;447540;33 - Lower Abbey Street - Balbriggan;"";Dublin Bus;33;Lower Abbey Street;Balbriggan
4260020;"{\"type\":\"LineString\",\"coordinates\":[[-6.2387397,53.4104393],[-6.2386623,53.4100432]]}";2;Swords Road;4;60;false;false;false;false;false;false;45.0;0;0;0;0;0;false;1627;681742383;-6.2379146;53.4081756;1628;681742386;-6.2391084;53.4137731;0;15;16;447540;33 - Lower Abbey Street - Balbriggan;"";Dublin Bus;33;Lower Abbey Street;Balbriggan
368266804;"{\"type\":\"LineString\",\"coordinates\":[[-6.2389394,53.4115096],[-6.2389273,53.4114209],[-6.2388018,53.4107612],[-6.238782,53.4106725],[-6.2387397,53.4104393]]}";3;Swords Road;4;60;false;false;false;false;false;false;121.0;0;0;0;0;0;false;1627;681742383;-6.2379146;53.4081756;1628;681742386;-6.2391084;53.4137731;0;15;16;447540;33 - Lower Abbey Street - Balbriggan;"";Dublin Bus;33;Lower Abbey Street;Balbriggan
274316804;"{\"type\":\"LineString\",\"coordinates\":[[-6.2389928,53.4130665],[-6.2389928,53.4130457],[-6.239005,53.4129152],[-6.239011,53.41287],[-6.2390285,53.4125348],[-6.2390321,53.4124658],[-6.2390387,53.4123395],[-6.2390304,53.4121268],[-6.2390267,53.4120325],[-6.239018,53.4119722],[-6.2389876,53.4117618],[-6.23896,53.4116065],[-6.2389394,53.4115096]]}";4;Swords Road;4;60;false;false;false;false;false;false;175.0;0;0;0;0;0;false;1627;681742383;-6.2379146;53.4081756;1628;681742386;-6.2391084;53.4137731;0;15;16;447540;33 - Lower Abbey Street - Balbriggan;"";Dublin Bus;33;Lower Abbey Street;Balbriggan
360262992;"{\"type\":\"LineString\",\"coordinates\":[[-6.2393372,53.4158791],[-6.2393513,53.4157745],[-6.2393578,53.4156019],[-6.2393585,53.4155831],[-6.2393182,53.4153763],[-6.2392479,53.4151208],[-6.2390784,53.4145968],[-6.2389958,53.4143424],[-6.2389606,53.4141954],[-6.2389487,53.4141078],[-6.2389427,53.4140366],[-6.2389445,53.4139],[-6.2389726,53.4134442],[-6.2389928,53.4130665]]}";5;Swords Road;4;60;false;false;false;false;false;false;159.0;1;0;0;0;0;false;1627;681742383;-6.2379146;53.4081756;1628;681742386;-6.2391084;53.4137731;1;15;16;447540;33 - Lower Abbey Street - Balbriggan;"";Dublin Bus;33;Lower Abbey Street;Balbriggan
360262992;"{\"type\":\"LineString\",\"coordinates\":[[-6.2393372,53.4158791],[-6.2393513,53.4157745],[-6.2393578,53.4156019],[-6.2393585,53.4155831],[-6.2393182,53.4153763],[-6.2392479,53.4151208],[-6.2390784,53.4145968],[-6.2389958,53.4143424],[-6.2389606,53.4141954],[-6.2389487,53.4141078],[-6.2389427,53.4140366],[-6.2389445,53.4139],[-6.2389726,53.4134442],[-6.2389928,53.4130665]]}";1;Swords Road;4;60;false;false;false;false;false;false;159.0;1;0;0;0;0;false;1628;681742386;-6.2391084;53.4137731;1629;681742388;-6.2389683;53.4169433;1;16;17;447540;33 - Lower Abbey Street - Balbriggan;"";Dublin Bus;33;Lower Abbey Street;Balbriggan
274316809;"{\"type\":\"LineString\",\"coordinates\":[[-6.2391569,53.4164761],[-6.2392138,53.4163212],[-6.23925,53.4162227],[-6.2393205,53.4159822],[-6.2393256,53.4159647],[-6.2393372,53.4158791]]}";2;Swords Road;2;60;false;false;false;false;false;false;69.0;0;0;0;0;0;false;1628;681742386;-6.2391084;53.4137731;1629;681742388;-6.2389683;53.4169433;0;16;17;447540;33 - Lower Abbey Street - Balbriggan;"";Dublin Bus;33;Lower Abbey Street;Balbriggan
643858183;"{\"type\":\"LineString\",\"coordinates\":[[-6.239103,53.4165892],[-6.2391569,53.4164761]]}";3;Swords Road;2;60;false;false;false;false;false;false;14.0;0;0;0;0;0;false;1628;681742386;-6.2391084;53.4137731;1629;681742388;-6.2389683;53.4169433;0;16;17;447540;33 - Lower Abbey Street - Balbriggan;"";Dublin Bus;33;Lower Abbey Street;Balbriggan
274316818;"{\"type\":\"LineString\",\"coordinates\":[[-6.2383636,53.4174476],[-6.238593,53.4172473],[-6.2387221,53.4171345],[-6.2389049,53.4169079],[-6.2390604,53.4166786],[-6.239103,53.4165892]]}";4;Swords Road;2;60;false;false;false;false;false;false;54.5;1;0;0;0;0;false;1628;681742386;-6.2391084;53.4137731;1629;681742388;-6.2389683;53.4169433;1;16;17;447540;33 - Lower Abbey Street - Balbriggan;"";Dublin Bus;33;Lower Abbey Street;Balbriggan
274316818;"{\"type\":\"LineString\",\"coordinates\":[[-6.2383636,53.4174476],[-6.238593,53.4172473],[-6.2387221,53.4171345],[-6.2389049,53.4169079],[-6.2390604,53.4166786],[-6.239103,53.4165892]]}";1;Swords Road;2;60;false;false;false;false;false;false;54.5;1;0;0;0;0;false;1629;681742388;-6.2389683;53.4169433;1630;681742395;-6.2319463;53.4217906;1;17;18;447540;33 - Lower Abbey Street - Balbriggan;"";Dublin Bus;33;Lower Abbey Street;Balbriggan
260820092;"{\"type\":\"LineString\",\"coordinates\":[[-6.2383636,53.4174476],[-6.238332,53.4175617],[-6.2381493,53.4177027],[-6.2380251,53.4177889],[-6.2374502,53.4181951],[-6.2369876,53.41851],[-6.2365088,53.4188129],[-6.2360153,53.419107],[-6.2357108,53.4192789]]}";2;Swords Road;2;60;false;true;true;false;false;false;274.0;1;0;0;0;0;false;1629;681742388;-6.2389683;53.4169433;1630;681742395;-6.2319463;53.4217906;0;17;18;447540;33 - Lower Abbey Street - Balbriggan;"";Dublin Bus;33;Lower Abbey Street;Balbriggan
274316807;"{\"type\":\"LineString\",\"coordinates\":[[-6.2357108,53.4192789],[-6.2349437,53.4196969],[-6.233962,53.4202316],[-6.23349,53.4205233],[-6.2330423,53.4208095],[-6.2325726,53.4211459],[-6.2321381,53.4214767],[-6.2317371,53.4218092],[-6.2314555,53.4220545],[-6.2311112,53.4223858]]}";3;Swords Road;2;60;false;true;true;false;false;false;233.5;0;0;0;0;0;false;1629;681742388;-6.2389683;53.4169433;1630;681742395;-6.2319463;53.4217906;1;17;18;447540;33 - Lower Abbey Street - Balbriggan;"";Dublin Bus;33;Lower Abbey Street;Balbriggan
274316807;"{\"type\":\"LineString\",\"coordinates\":[[-6.2357108,53.4192789],[-6.2349437,53.4196969],[-6.233962,53.4202316],[-6.23349,53.4205233],[-6.2330423,53.4208095],[-6.2325726,53.4211459],[-6.2321381,53.4214767],[-6.2317371,53.4218092],[-6.2314555,53.4220545],[-6.2311112,53.4223858]]}";1;Swords Road;2;60;false;true;true;false;false;false;233.5;0;0;0;0;0;false;1630;681742395;-6.2319463;53.4217906;7602;3760354769;-6.2534333;53.3715505;1;18;19;447540;33 - Lower Abbey Street - Balbriggan;"";Dublin Bus;33;Lower Abbey Street;Balbriggan
260820092;"{\"type\":\"LineString\",\"coordinates\":[[-6.2383636,53.4174476],[-6.238332,53.4175617],[-6.2381493,53.4177027],[-6.2380251,53.4177889],[-6.2374502,53.4181951],[-6.2369876,53.41851],[-6.2365088,53.4188129],[-6.2360153,53.419107],[-6.2357108,53.4192789]]}";2;Swords Road;2;60;false;true;true;false;false;false;274.0;1;0;0;0;0;false;1630;681742395;-6.2319463;53.4217906;7602;3760354769;-6.2534333;53.3715505;0;18;19;447540;33 - Lower Abbey Street - Balbriggan;"";Dublin Bus;33;Lower Abbey Street;Balbriggan
274316818;"{\"type\":\"LineString\",\"coordinates\":[[-6.2383636,53.4174476],[-6.238593,53.4172473],[-6.2387221,53.4171345],[-6.2389049,53.4169079],[-6.2390604,53.4166786],[-6.239103,53.4165892]]}";3;Swords Road;2;60;false;false;false;false;false;false;109.0;1;0;0;0;0;false;1630;681742395;-6.2319463;53.4217906;7602;3760354769;-6.2534333;53.3715505;0;18;19;447540;33 - Lower Abbey Street - Balbriggan;"";Dublin Bus;33;Lower Abbey Street;Balbriggan
643858183;"{\"type\":\"LineString\",\"coordinates\":[[-6.239103,53.4165892],[-6.2391569,53.4164761]]}";4;Swords Road;2;60;false;false;false;false;false;false;14.0;0;0;0;0;0;false;1630;681742395;-6.2319463;53.4217906;7602;3760354769;-6.2534333;53.3715505;0;18;19;447540;33 - Lower Abbey Street - Balbriggan;"";Dublin Bus;33;Lower Abbey Street;Balbriggan
274316809;"{\"type\":\"LineString\",\"coordinates\":[[-6.2391569,53.4164761],[-6.2392138,53.4163212],[-6.23925,53.4162227],[-6.2393205,53.4159822],[-6.2393256,53.4159647],[-6.2393372,53.4158791]]}";5;Swords Road;2;60;false;false;false;false;false;false;69.0;0;0;0;0;0;false;1630;681742395;-6.2319463;53.4217906;7602;3760354769;-6.2534333;53.3715505;0;18;19;447540;33 - Lower Abbey Street - Balbriggan;"";Dublin Bus;33;Lower Abbey Street;Balbriggan
360262992;"{\"type\":\"LineString\",\"coordinates\":[[-6.2393372,53.4158791],[-6.2393513,53.4157745],[-6.2393578,53.4156019],[-6.2393585,53.4155831],[-6.2393182,53.4153763],[-6.2392479,53.4151208],[-6.2390784,53.4145968],[-6.2389958,53.4143424],[-6.2389606,53.4141954],[-6.2389487,53.4141078],[-6.2389427,53.4140366],[-6.2389445,53.4139],[-6.2389726,53.4134442],[-6.2389928,53.4130665]]}";6;Swords Road;4;60;false;false;false;false;false;false;318.0;1;0;0;0;0;false;1630;681742395;-6.2319463;53.4217906;7602;3760354769;-6.2534333;53.3715505;0;18;19;447540;33 - Lower Abbey Street - Balbriggan;"";Dublin Bus;33;Lower Abbey Street;Balbriggan
274316804;"{\"type\":\"LineString\",\"coordinates\":[[-6.2389928,53.4130665],[-6.2389928,53.4130457],[-6.239005,53.4129152],[-6.239011,53.41287],[-6.2390285,53.4125348],[-6.2390321,53.4124658],[-6.2390387,53.4123395],[-6.2390304,53.4121268],[-6.2390267,53.4120325],[-6.239018,53.4119722],[-6.2389876,53.4117618],[-6.23896,53.4116065],[-6.2389394,53.4115096]]}";7;Swords Road;4;60;false;false;false;false;false;false;175.0;0;0;0;0;0;false;1630;681742395;-6.2319463;53.4217906;7602;3760354769;-6.2534333;53.3715505;0;18;19;447540;33 - Lower Abbey Street - Balbriggan;"";Dublin Bus;33;Lower Abbey Street;Balbriggan
368266804;"{\"type\":\"LineString\",\"coordinates\":[[-6.2389394,53.4115096],[-6.2389273,53.4114209],[-6.2388018,53.4107612],[-6.238782,53.4106725],[-6.2387397,53.4104393]]}";8;Swords Road;4;60;false;false;false;false;false;false;121.0;0;0;0;0;0;false;1630;681742395;-6.2319463;53.4217906;7602;3760354769;-6.2534333;53.3715505;0;18;19;447540;33 - Lower Abbey Street - Balbriggan;"";Dublin Bus;33;Lower Abbey Street;Balbriggan
4260020;"{\"type\":\"LineString\",\"coordinates\":[[-6.2387397,53.4104393],[-6.2386623,53.4100432]]}";9;Swords Road;4;60;false;false;false;false;false;false;45.0;0;0;0;0;0;false;1630;681742395;-6.2319463;53.4217906;7602;3760354769;-6.2534333;53.3715505;0;18;19;447540;33 - Lower Abbey Street - Balbriggan;"";Dublin Bus;33;Lower Abbey Street;Balbriggan
128183147;"{\"type\":\"LineString\",\"coordinates\":[[-6.2386623,53.4100432],[-6.2386,53.4097958],[-6.238499,53.4096014],[-6.2384735,53.4095524],[-6.2380231,53.4088253],[-6.2378517,53.408531],[-6.2377692,53.4082979],[-6.2377189,53.4081089],[-6.2376958,53.4078987],[-6.2376893,53.4076876],[-6.2376733,53.4075474]]}";10;Swords Road;4;60;false;false;false;false;false;false;290.0;0;0;0;0;0;false;1630;681742395;-6.2319463;53.4217906;7602;3760354769;-6.2534333;53.3715505;0;18;19;447540;33 - Lower Abbey Street - Balbriggan;"";Dublin Bus;33;Lower Abbey Street;Balbriggan
274316812;"{\"type\":\"LineString\",\"coordinates\":[[-6.2376733,53.4075474],[-6.2377006,53.407387],[-6.237732,53.4072944],[-6.2377809,53.4071325],[-6.2378812,53.4069698],[-6.2380155,53.4067833]]}";11;Swords Road;4;60;false;false;false;false;false;false;90.0;0;0;0;0;0;false;1630;681742395;-6.2319463;53.4217906;7602;3760354769;-6.2534333;53.3715505;0;18;19;447540;33 - Lower Abbey Street - Balbriggan;"";Dublin Bus;33;Lower Abbey Street;Balbriggan
360262995;"{\"type\":\"LineString\",\"coordinates\":[[-6.2380155,53.4067833],[-6.2383178,53.4063813],[-6.2387685,53.4058072],[-6.2391838,53.4052883],[-6.2393031,53.4051487],[-6.2396398,53.404764],[-6.2399801,53.4043757]]}";12;Swords Road;4;60;false;false;false;false;false;false;301.0;0;0;0;0;0;false;1630;681742395;-6.2319463;53.4217906;7602;3760354769;-6.2534333;53.3715505;0;18;19;447540;33 - Lower Abbey Street - Balbriggan;"";Dublin Bus;33;Lower Abbey Street;Balbriggan
360262994;"{\"type\":\"LineString\",\"coordinates\":[[-6.2399801,53.4043757],[-6.2401169,53.4042225],[-6.2403937,53.4039127],[-6.2404686,53.4038057],[-6.2406071,53.4036078]]}";13;Swords Road;4;60;false;false;false;false;false;false;96.0;0;0;0;0;0;false;1630;681742395;-6.2319463;53.4217906;7602;3760354769;-6.2534333;53.3715505;0;18;19;447540;33 - Lower Abbey Street - Balbriggan;"";Dublin Bus;33;Lower Abbey Street;Balbriggan
526626290;"{\"type\":\"LineString\",\"coordinates\":[[-6.2439709,53.398854],[-6.2439627,53.3989639],[-6.2439835,53.399167],[-6.2440455,53.3996326],[-6.2440168,53.3998997],[-6.2438556,53.4003035],[-6.24374,53.4005328],[-6.2436178,53.4006804],[-6.2434876,53.4008348],[-6.2433133,53.4010095],[-6.2432177,53.4010786],[-6.2431003,53.4011636],[-6.2421083,53.4018328],[-6.2417696,53.4020726],[-6.2414831,53.4023415],[-6.2412393,53.4026053],[-6.2410471,53.4028813],[-6.2408726,53.4031141],[-6.2406071,53.4036078]]}";14;Swords Road;3;50;false;false;false;false;false;false;599.0;0;0;0;0;0;false;1630;681742395;-6.2319463;53.4217906;7602;3760354769;-6.2534333;53.3715505;0;18;19;447540;33 - Lower Abbey Street - Balbriggan;"";Dublin Bus;33;Lower Abbey Street;Balbriggan
271175862;"{\"type\":\"LineString\",\"coordinates\":[[-6.244132,53.3985724],[-6.2440734,53.3986546],[-6.2440273,53.3987582],[-6.2440109,53.3987951],[-6.2439709,53.398854]]}";15;Swords Road;2;50;false;true;false;false;false;false;34.0;0;0;0;0;0;false;1630;681742395;-6.2319463;53.4217906;7602;3760354769;-6.2534333;53.3715505;0;18;19;447540;33 - Lower Abbey Street - Balbriggan;"";Dublin Bus;33;Lower Abbey Street;Balbriggan
368266803;"{\"type\":\"LineString\",\"coordinates\":[[-6.2441429,53.3985559],[-6.244132,53.3985724]]}";16;Swords Road;2;50;false;true;false;false;false;false;2.0;1;0;0;0;0;false;1630;681742395;-6.2319463;53.4217906;7602;3760354769;-6.2534333;53.3715505;0;18;19;447540;33 - Lower Abbey Street - Balbriggan;"";Dublin Bus;33;Lower Abbey Street;Balbriggan
698920955;"{\"type\":\"LineString\",\"coordinates\":[[-6.2449821,53.3975398],[-6.2447386,53.3979303],[-6.2446551,53.3980536],[-6.2445859,53.3981395],[-6.2443947,53.3983262],[-6.2441429,53.3985559]]}";17;Swords Road;2;50;false;true;false;false;false;false;128.0;1;0;0;0;0;false;1630;681742395;-6.2319463;53.4217906;7602;3760354769;-6.2534333;53.3715505;0;18;19;447540;33 - Lower Abbey Street - Balbriggan;"";Dublin Bus;33;Lower Abbey Street;Balbriggan
116264238;"{\"type\":\"LineString\",\"coordinates\":[[-6.245064,53.3973188],[-6.2450388,53.3974442],[-6.2449821,53.3975398]]}";18;Swords Road;2;50;false;true;false;false;false;false;26.0;1;0;0;0;0;false;1630;681742395;-6.2319463;53.4217906;7602;3760354769;-6.2534333;53.3715505;0;18;19;447540;33 - Lower Abbey Street - Balbriggan;"";Dublin Bus;33;Lower Abbey Street;Balbriggan
3818670;"{\"type\":\"LineString\",\"coordinates\":[[-6.245064,53.3973188],[-6.2451818,53.3970535],[-6.2452462,53.3967729],[-6.2453048,53.3962376],[-6.2453632,53.3959229]]}";19;Swords Road;4;50;false;false;false;false;false;false;159.0;1;0;0;0;0;false;1630;681742395;-6.2319463;53.4217906;7602;3760354769;-6.2534333;53.3715505;0;18;19;447540;33 - Lower Abbey Street - Balbriggan;"";Dublin Bus;33;Lower Abbey Street;Balbriggan
642763392;"{\"type\":\"LineString\",\"coordinates\":[[-6.2453632,53.3959229],[-6.2454215,53.3956082],[-6.2454508,53.3954435],[-6.2454752,53.3953407],[-6.2454828,53.3952136],[-6.2455178,53.3950106],[-6.2455912,53.3947203],[-6.2456337,53.3945188],[-6.2459587,53.3931082]]}";20;Swords Road;3;50;false;false;false;false;false;false;318.0;0;0;0;0;0;false;1630;681742395;-6.2319463;53.4217906;7602;3760354769;-6.2534333;53.3715505;0;18;19;447540;33 - Lower Abbey Street - Balbriggan;"";Dublin Bus;33;Lower Abbey Street;Balbriggan
439444484;"{\"type\":\"LineString\",\"coordinates\":[[-6.2459587,53.3931082],[-6.2459913,53.3929677],[-6.2460218,53.3928344],[-6.2460433,53.3927317]]}";21;Swords Road;1;50;false;false;false;false;false;false;43.0;1;0;0;0;0;false;1630;681742395;-6.2319463;53.4217906;7602;3760354769;-6.2534333;53.3715505;0;18;19;447540;33 - Lower Abbey Street - Balbriggan;"";Dublin Bus;33;Lower Abbey Street;Balbriggan
439444483;"{\"type\":\"LineString\",\"coordinates\":[[-6.2460433,53.3927317],[-6.2461848,53.391915]]}";22;Swords Road;1;50;false;false;false;false;false;false;92.0;0;0;0;0;0;false;1630;681742395;-6.2319463;53.4217906;7602;3760354769;-6.2534333;53.3715505;0;18;19;447540;33 - Lower Abbey Street - Balbriggan;"";Dublin Bus;33;Lower Abbey Street;Balbriggan
428537161;"{\"type\":\"LineString\",\"coordinates\":[[-6.2461848,53.391915],[-6.2462568,53.3916275],[-6.2462744,53.3915571],[-6.2462894,53.3914916],[-6.246326,53.3913318],[-6.2463452,53.3912482],[-6.2463908,53.3909638],[-6.246432,53.3906178],[-6.2464542,53.3904062],[-6.2464467,53.390295],[-6.2464176,53.3902097],[-6.246283,53.3898881],[-6.2462404,53.3897866]]}";23;Swords Road;2;50;false;false;false;false;false;false;242.0;1;0;0;0;0;false;1630;681742395;-6.2319463;53.4217906;7602;3760354769;-6.2534333;53.3715505;0;18;19;447540;33 - Lower Abbey Street - Balbriggan;"";Dublin Bus;33;Lower Abbey Street;Balbriggan
110226821;"{\"type\":\"LineString\",\"coordinates\":[[-6.2462404,53.3897866],[-6.2461953,53.3896732],[-6.2460757,53.3893715],[-6.2460272,53.389225],[-6.2460038,53.3891544],[-6.2459668,53.3890427],[-6.2459238,53.3889128],[-6.2458757,53.3887651],[-6.2458278,53.3886805],[-6.2457992,53.3886301],[-6.2456417,53.3884326],[-6.2455189,53.3883246],[-6.245362,53.3882285],[-6.2449478,53.3880041],[-6.2448693,53.3879616],[-6.2445759,53.3878028],[-6.2445654,53.3877971],[-6.2443233,53.3876914]]}";24;Swords Road;2;50;false;false;false;false;false;false;280.0;2;0;0;0;0;false;1630;681742395;-6.2319463;53.4217906;7602;3760354769;-6.2534333;53.3715505;0;18;19;447540;33 - Lower Abbey Street - Balbriggan;"";Dublin Bus;33;Lower Abbey Street;Balbriggan
3818656;"{\"type\":\"LineString\",\"coordinates\":[[-6.2431225,53.3853338],[-6.2431695,53.3856231],[-6.2431214,53.3859713],[-6.2430992,53.3862996],[-6.2431819,53.3866196],[-6.2432827,53.3867995],[-6.2436759,53.3872431],[-6.2437869,53.3873303],[-6.2438767,53.3873819],[-6.2441162,53.3875067],[-6.2442858,53.3875996],[-6.2443233,53.3876914]]}";25;Swords Road;2;50;false;true;true;false;false;false;291.0;1;0;0;0;0;false;1630;681742395;-6.2319463;53.4217906;7602;3760354769;-6.2534333;53.3715505;0;18;19;447540;33 - Lower Abbey Street - Balbriggan;"";Dublin Bus;33;Lower Abbey Street;Balbriggan
116019739;"{\"type\":\"LineString\",\"coordinates\":[[-6.2444604,53.3824407],[-6.2443394,53.3826298],[-6.2441915,53.3828825],[-6.2441283,53.3829957],[-6.2440524,53.3831316],[-6.2437843,53.3836113],[-6.2436232,53.3839553],[-6.2435111,53.3841947],[-6.2434919,53.3842442],[-6.2434607,53.3843236],[-6.2433639,53.3845588],[-6.2431225,53.3853338]]}";26;Swords Road;4;50;false;false;true;false;true;false;337.0;1;0;0;0;0;false;1630;681742395;-6.2319463;53.4217906;7602;3760354769;-6.2534333;53.3715505;0;18;19;447540;33 - Lower Abbey Street - Balbriggan;"";Dublin Bus;33;Lower Abbey Street;Balbriggan
558112093;"{\"type\":\"LineString\",\"coordinates\":[[-6.2497604,53.3763668],[-6.2494247,53.3766128],[-6.2490695,53.3768586],[-6.2487753,53.3770938],[-6.2486407,53.3772018],[-6.2485291,53.3773077],[-6.2483997,53.3774448],[-6.2481673,53.3776804],[-6.2478156,53.3780869],[-6.2476522,53.3782758],[-6.247616,53.3783176],[-6.2470516,53.3789661],[-6.2469642,53.379068],[-6.2467372,53.379335],[-6.2465615,53.3795416],[-6.246469,53.3796504],[-6.2457643,53.3804804],[-6.245563,53.3807461],[-6.2453595,53.3810396],[-6.2452833,53.381151],[-6.2451493,53.381347],[-6.2450544,53.3814858],[-6.2450075,53.3815544],[-6.244722,53.3820265],[-6.2445517,53.3823037],[-6.2444604,53.3824407]]}";27;Swords Road;4;50;false;false;true;false;true;false;772.0;3;2;0;0;0;false;1630;681742395;-6.2319463;53.4217906;7602;3760354769;-6.2534333;53.3715505;0;18;19;447540;33 - Lower Abbey Street - Balbriggan;"";Dublin Bus;33;Lower Abbey Street;Balbriggan
3793938;"{\"type\":\"LineString\",\"coordinates\":[[-6.2503529,53.3758166],[-6.2502793,53.3759025],[-6.2502569,53.3759241],[-6.2501901,53.3759883],[-6.250008,53.3761635],[-6.249856,53.3762913],[-6.2498448,53.3763002],[-6.2497604,53.3763668]]}";28;Drumcondra Road Upper;4;50;false;false;true;false;true;false;74.0;1;0;0;0;0;false;1630;681742395;-6.2319463;53.4217906;7602;3760354769;-6.2534333;53.3715505;0;18;19;447540;33 - Lower Abbey Street - Balbriggan;"";Dublin Bus;33;Lower Abbey Street;Balbriggan
368932686;"{\"type\":\"LineString\",\"coordinates\":[[-6.2515568,53.3742844],[-6.2515326,53.3743201],[-6.2512475,53.3747395],[-6.2509327,53.3751179],[-6.2508076,53.3752684],[-6.2506497,53.3754588],[-6.2504783,53.3756654],[-6.2503529,53.3758166]]}";29;Drumcondra Road Upper;4;50;false;false;true;false;true;false;190.0;1;0;0;0;0;false;1630;681742395;-6.2319463;53.4217906;7602;3760354769;-6.2534333;53.3715505;0;18;19;447540;33 - Lower Abbey Street - Balbriggan;"";Dublin Bus;33;Lower Abbey Street;Balbriggan
368932685;"{\"type\":\"LineString\",\"coordinates\":[[-6.2520189,53.3734261],[-6.2519675,53.3735222],[-6.2517749,53.3738826],[-6.2515787,53.3742495],[-6.2515568,53.3742844]]}";30;Drumcondra Road Upper;4;50;false;false;false;false;true;false;102.0;1;1;0;0;0;false;1630;681742395;-6.2319463;53.4217906;7602;3760354769;-6.2534333;53.3715505;0;18;19;447540;33 - Lower Abbey Street - Balbriggan;"";Dublin Bus;33;Lower Abbey Street;Balbriggan
37812573;"{\"type\":\"LineString\",\"coordinates\":[[-6.2549012,53.3689046],[-6.2543859,53.3697078],[-6.2542567,53.3699253],[-6.2541737,53.3700682],[-6.2539891,53.3703612],[-6.253836,53.3706086],[-6.2537492,53.3707574],[-6.2537107,53.3708197],[-6.2535422,53.3711231],[-6.2534019,53.3713749],[-6.2533205,53.3715145],[-6.2532949,53.3715546],[-6.2531797,53.3717317],[-6.253142,53.3717897],[-6.253076,53.3718861],[-6.2530065,53.371976],[-6.2528157,53.372234],[-6.2527024,53.3723692],[-6.2526721,53.3724133],[-6.2525091,53.3726376],[-6.252464,53.3727089],[-6.252255,53.373039],[-6.2520189,53.3734261]]}";31;Drumcondra Road Upper;4;50;false;false;false;false;true;false;543.0;2;2;0;0;0;false;1630;681742395;-6.2319463;53.4217906;7602;3760354769;-6.2534333;53.3715505;1;18;19;447540;33 - Lower Abbey Street - Balbriggan;"";Dublin Bus;33;Lower Abbey Street;Balbriggan
