way_id;shape;index;name;nb_lanes;legal_speed;speed_zone_30;oneway;shares_bike;bike_box;bus_lane;dedicated_bus_lane;length;nb_traffic_signals;nb_crossings;nb_stops;nb_give_ways;nb_lvl_crossings;roundabout;stop_id_orig;node_id_orig;coord_x_orig;coord_y_orig;stop_id_dest;node_id_dest;coord_x_dest;coord_y_dest;nb_neighbouring_ways_bus_stop;ordre_orig;ordre_dest;id_line;line_name;colour;operator;ref;from;to
725167101;"{\"type\":\"LineString\",\"coordinates\":[[-73.5225083,45.5239595],[-73.5224879,45.524182]]}";1;"";1;50;false;false;true;false;true;false;25.0;0;0;0;0;0;false;70000;3395466650;-73.522601;45.524188;70030;6133410514;-73.378943;45.632387;1;0;1;9622353;Bus 707 : Direction Sorel-Tracy;"";EXO;707 O;Terminus Longueuil;Terminus de Sorel
685121058;"{\"type\":\"LineString\",\"coordinates\":[[-73.522529,45.5237433],[-73.5225083,45.5239595]]}";2;"";1;50;false;false;true;false;true;false;25.0;0;0;0;0;0;false;70000;3395466650;-73.522601;45.524188;70030;6133410514;-73.378943;45.632387;0;0;1;9622353;Bus 707 : Direction Sorel-Tracy;"";EXO;707 O;Terminus Longueuil;Terminus de Sorel
725167102;"{\"type\":\"LineString\",\"coordinates\":[[-73.5225484,45.5235009],[-73.5225444,45.5235685],[-73.522529,45.5237433]]}";3;"";1;50;false;false;true;false;true;false;27.0;0;0;1;0;0;false;70000;3395466650;-73.522601;45.524188;70030;6133410514;-73.378943;45.632387;0;0;1;9622353;Bus 707 : Direction Sorel-Tracy;"";EXO;707 O;Terminus Longueuil;Terminus de Sorel
725167099;"{\"type\":\"LineString\",\"coordinates\":[[-73.5225484,45.5235009],[-73.5224252,45.5234948],[-73.522126,45.5234843]]}";4;Rue du Terminus;1;50;false;false;true;false;true;false;34.0;0;0;1;0;0;false;70000;3395466650;-73.522601;45.524188;70030;6133410514;-73.378943;45.632387;0;0;1;9622353;Bus 707 : Direction Sorel-Tracy;"";EXO;707 O;Terminus Longueuil;Terminus de Sorel
685121063;"{\"type\":\"LineString\",\"coordinates\":[[-73.522126,45.5234843],[-73.5212972,45.5234483],[-73.5204366,45.5234068],[-73.5203039,45.5234015]]}";5;Rue du Terminus;1;50;false;false;true;false;true;false;143.0;0;1;1;0;0;false;70000;3395466650;-73.522601;45.524188;70030;6133410514;-73.378943;45.632387;0;0;1;9622353;Bus 707 : Direction Sorel-Tracy;"";EXO;707 O;Terminus Longueuil;Terminus de Sorel
725167105;"{\"type\":\"LineString\",\"coordinates\":[[-73.5203039,45.5234015],[-73.5198457,45.5233843],[-73.5198012,45.5233819],[-73.5197533,45.5233798],[-73.5196342,45.5233746]]}";6;Rue du Terminus;1;50;false;false;true;false;true;false;53.0;1;1;0;0;0;false;70000;3395466650;-73.522601;45.524188;70030;6133410514;-73.378943;45.632387;0;0;1;9622353;Bus 707 : Direction Sorel-Tracy;"";EXO;707 O;Terminus Longueuil;Terminus de Sorel
41937785;"{\"type\":\"LineString\",\"coordinates\":[[-73.5196342,45.5233746],[-73.5194663,45.5233605]]}";7;"";1;50;false;false;true;false;false;false;14.0;0;0;0;0;0;false;70000;3395466650;-73.522601;45.524188;70030;6133410514;-73.378943;45.632387;0;0;1;9622353;Bus 707 : Direction Sorel-Tracy;"";EXO;707 O;Terminus Longueuil;Terminus de Sorel
41785841;"{\"type\":\"LineString\",\"coordinates\":[[-73.5194663,45.5233605],[-73.5194375,45.5234715],[-73.5192963,45.5240155],[-73.5192627,45.5243597],[-73.5192548,45.5246946],[-73.5192555,45.5250477],[-73.5192525,45.5250605],[-73.5192525,45.5250948],[-73.5192541,45.5251188],[-73.5192628,45.5251683]]}";8;Rue Saint-Charles Ouest;3;50;false;true;true;false;false;false;203.0;1;3;0;0;0;false;70000;3395466650;-73.522601;45.524188;70030;6133410514;-73.378943;45.632387;0;0;1;9622353;Bus 707 : Direction Sorel-Tracy;"";EXO;707 O;Terminus Longueuil;Terminus de Sorel
29422472;"{\"type\":\"LineString\",\"coordinates\":[[-73.5192628,45.5251683],[-73.5192762,45.5254647]]}";9;Rue Saint-Charles Ouest;2;50;false;true;true;false;false;false;33.0;0;0;0;0;0;false;70000;3395466650;-73.522601;45.524188;70030;6133410514;-73.378943;45.632387;0;0;1;9622353;Bus 707 : Direction Sorel-Tracy;"";EXO;707 O;Terminus Longueuil;Terminus de Sorel
470637268;"{\"type\":\"LineString\",\"coordinates\":[[-73.5192762,45.5254647],[-73.5192881,45.5255292],[-73.5194043,45.525817]]}";10;Rue Saint-Charles Ouest;1;50;false;true;true;false;false;false;41.0;0;1;0;0;0;false;70000;3395466650;-73.522601;45.524188;70030;6133410514;-73.378943;45.632387;0;0;1;9622353;Bus 707 : Direction Sorel-Tracy;"";EXO;707 O;Terminus Longueuil;Terminus de Sorel
753036640;"{\"type\":\"LineString\",\"coordinates\":[[-73.5194028,45.5261504],[-73.5194043,45.525817]]}";11;Rue Saint-Charles Ouest;4;50;false;false;true;false;false;false;38.0;0;0;0;0;0;false;70000;3395466650;-73.522601;45.524188;70030;6133410514;-73.378943;45.632387;0;0;1;9622353;Bus 707 : Direction Sorel-Tracy;"";EXO;707 O;Terminus Longueuil;Terminus de Sorel
247960205;"{\"type\":\"LineString\",\"coordinates\":[[-73.5194134,45.5267782],[-73.519413,45.5266847],[-73.5194041,45.5263872],[-73.5194028,45.5261504]]}";12;Rue Saint-Charles Ouest;3;50;false;false;true;false;false;false;70.0;1;0;0;0;0;false;70000;3395466650;-73.522601;45.524188;70030;6133410514;-73.378943;45.632387;0;0;1;9622353;Bus 707 : Direction Sorel-Tracy;"";EXO;707 O;Terminus Longueuil;Terminus de Sorel
247960317;"{\"type\":\"LineString\",\"coordinates\":[[-73.5194134,45.5267782],[-73.5191274,45.5268034],[-73.5186529,45.5267798],[-73.5184357,45.526769],[-73.5182302,45.5267588],[-73.5181715,45.5267559],[-73.5179061,45.5267427]]}";13;"";1;50;false;false;false;false;false;false;119.0;1;0;0;0;0;false;70000;3395466650;-73.522601;45.524188;70030;6133410514;-73.378943;45.632387;0;0;1;9622353;Bus 707 : Direction Sorel-Tracy;"";EXO;707 O;Terminus Longueuil;Terminus de Sorel
288454206;"{\"type\":\"LineString\",\"coordinates\":[[-73.5179061,45.5267427],[-73.5178585,45.5269747],[-73.5176654,45.5274332]]}";14;Rue Saint-Charles Ouest;1;50;false;true;false;false;false;false;80.0;0;0;0;0;0;false;70000;3395466650;-73.522601;45.524188;70030;6133410514;-73.378943;45.632387;0;0;1;9622353;Bus 707 : Direction Sorel-Tracy;"";EXO;707 O;Terminus Longueuil;Terminus de Sorel
40413443;"{\"type\":\"LineString\",\"coordinates\":[[-73.5176654,45.5274332],[-73.5175876,45.5276474],[-73.5175393,45.5278146],[-73.5175098,45.5279706]]}";15;Rue Saint-Charles Ouest;1;50;false;true;false;false;false;false;61.0;0;0;0;0;0;false;70000;3395466650;-73.522601;45.524188;70030;6133410514;-73.378943;45.632387;0;0;1;9622353;Bus 707 : Direction Sorel-Tracy;"";EXO;707 O;Terminus Longueuil;Terminus de Sorel
25875222;"{\"type\":\"LineString\",\"coordinates\":[[-73.5175098,45.5279706],[-73.5175567,45.5281444],[-73.5175943,45.5282384],[-73.5176131,45.5282778],[-73.517656,45.5283323],[-73.5177123,45.5283943],[-73.5177686,45.5284507],[-73.517833,45.5285014],[-73.5179135,45.5285522],[-73.5180073,45.5285973],[-73.5181119,45.5286386],[-73.5182273,45.5286781],[-73.5183963,45.528725],[-73.5185599,45.5287814],[-73.5187074,45.5288453],[-73.5189354,45.5289524],[-73.5191714,45.5290708],[-73.5192868,45.5291253],[-73.5196623,45.5293395]]}";16;"";1;50;false;true;false;false;false;false;237.0;0;0;0;0;0;false;70000;3395466650;-73.522601;45.524188;70030;6133410514;-73.378943;45.632387;0;0;1;9622353;Bus 707 : Direction Sorel-Tracy;"";EXO;707 O;Terminus Longueuil;Terminus de Sorel
25875017;"{\"type\":\"LineString\",\"coordinates\":[[-73.5196623,45.5293395],[-73.520137,45.5297604],[-73.5202148,45.5298562],[-73.5202953,45.5299595],[-73.5203865,45.5300854],[-73.5204616,45.5302038],[-73.5205125,45.5303034],[-73.5205581,45.5304142],[-73.520601,45.5305326],[-73.5206252,45.5306454],[-73.5206413,45.5307731],[-73.5206438,45.5310108],[-73.5205665,45.5313595],[-73.5204034,45.5316902],[-73.5198885,45.5324718],[-73.5189361,45.5337492]]}";17;"";2;50;false;true;true;false;false;false;541.0;0;0;0;0;0;false;70000;3395466650;-73.522601;45.524188;70030;6133410514;-73.378943;45.632387;0;0;1;9622353;Bus 707 : Direction Sorel-Tracy;"";EXO;707 O;Terminus Longueuil;Terminus de Sorel
685121030;"{\"type\":\"LineString\",\"coordinates\":[[-73.5189361,45.5337492],[-73.5184343,45.5343584],[-73.5164809,45.5367298],[-73.5159267,45.5372513],[-73.5154513,45.5376974],[-73.5144288,45.5384947],[-73.5134266,45.5392042],[-73.5125767,45.5398063],[-73.5111153,45.5408415],[-73.5101194,45.5416388],[-73.5093653,45.5423616],[-73.5082466,45.5434521],[-73.5069701,45.5448196],[-73.5060791,45.5457608],[-73.5053017,45.5465953],[-73.5043728,45.5475398]]}";18;Autoroute René-Levesque;4;100;false;true;true;false;false;false;1916.0;0;0;0;0;0;false;70000;3395466650;-73.522601;45.524188;70030;6133410514;-73.378943;45.632387;0;0;1;9622353;Bus 707 : Direction Sorel-Tracy;"";EXO;707 O;Terminus Longueuil;Terminus de Sorel
687150625;"{\"type\":\"LineString\",\"coordinates\":[[-73.5043728,45.5475398],[-73.5034705,45.5485197],[-73.5023889,45.5496907],[-73.5009696,45.5513767],[-73.5000308,45.552516],[-73.4988603,45.553917]]}";19;Autoroute René-Levesque;4;100;false;true;true;false;false;false;829.0;0;0;0;0;0;false;70000;3395466650;-73.522601;45.524188;70030;6133410514;-73.378943;45.632387;0;0;1;9622353;Bus 707 : Direction Sorel-Tracy;"";EXO;707 O;Terminus Longueuil;Terminus de Sorel
40202381;"{\"type\":\"LineString\",\"coordinates\":[[-73.4988603,45.553917],[-73.4978832,45.5551367],[-73.4961409,45.5572008],[-73.4949991,45.5585747],[-73.4938852,45.5599149],[-73.4937105,45.5601252],[-73.4930699,45.5610046],[-73.4926119,45.5616335],[-73.4919551,45.562636],[-73.4908427,45.5642586],[-73.4905872,45.5646408],[-73.49005,45.5654354],[-73.4894461,45.5663285],[-73.4885929,45.5673591],[-73.4882312,45.5677671],[-73.4872633,45.5688016],[-73.4864214,45.5696019],[-73.4859215,45.5701],[-73.4850889,45.5708295],[-73.4844332,45.5714186],[-73.4837182,45.5720383],[-73.4823663,45.5731955],[-73.4807253,45.5746089],[-73.4784679,45.5765194],[-73.4779584,45.5769449]]}";20;Autoroute René-Levesque;4;100;false;true;true;false;false;false;3047.0;0;0;0;0;0;false;70000;3395466650;-73.522601;45.524188;70030;6133410514;-73.378943;45.632387;0;0;1;9622353;Bus 707 : Direction Sorel-Tracy;"";EXO;707 O;Terminus Longueuil;Terminus de Sorel
39452094;"{\"type\":\"LineString\",\"coordinates\":[[-73.4779584,45.5769449],[-73.4772676,45.5775727],[-73.4766162,45.5781632],[-73.4759511,45.5787252],[-73.4756177,45.5789774],[-73.4753258,45.5791779]]}";21;Autoroute René-Levesque;3;100;false;true;true;false;false;false;323.0;0;0;0;0;0;false;70000;3395466650;-73.522601;45.524188;70030;6133410514;-73.378943;45.632387;0;0;1;9622353;Bus 707 : Direction Sorel-Tracy;"";EXO;707 O;Terminus Longueuil;Terminus de Sorel
128169280;"{\"type\":\"LineString\",\"coordinates\":[[-73.4753258,45.5791779],[-73.4746398,45.5796553],[-73.4742556,45.5799003],[-73.4736493,45.5802965],[-73.4731695,45.5806498],[-73.4729094,45.5808638],[-73.4726572,45.5810971],[-73.4722888,45.5815181],[-73.4720439,45.5818422],[-73.4718959,45.5820612],[-73.471718,45.5823666],[-73.4710641,45.5834974],[-73.4706483,45.5841497],[-73.4703753,45.5846082],[-73.4701121,45.5850802],[-73.4696505,45.5857256],[-73.469044,45.5864068],[-73.4665593,45.5885461]]}";22;Route 132;3;100;false;true;true;false;false;false;1260.0;0;0;0;0;0;false;70000;3395466650;-73.522601;45.524188;70030;6133410514;-73.378943;45.632387;0;0;1;9622353;Bus 707 : Direction Sorel-Tracy;"";EXO;707 O;Terminus Longueuil;Terminus de Sorel
39452095;"{\"type\":\"LineString\",\"coordinates\":[[-73.4665593,45.5885461],[-73.4657768,45.5892014],[-73.4605841,45.5935259],[-73.459134,45.5944521],[-73.4563212,45.5961498],[-73.4534141,45.5978802]]}";23;Route 132;1;100;false;true;true;false;false;false;1463.0;0;0;0;0;0;false;70000;3395466650;-73.522601;45.524188;70030;6133410514;-73.378943;45.632387;0;0;1;9622353;Bus 707 : Direction Sorel-Tracy;"";EXO;707 O;Terminus Longueuil;Terminus de Sorel
39563222;"{\"type\":\"LineString\",\"coordinates\":[[-73.4534141,45.5978802],[-73.448695,45.6007208],[-73.4480783,45.60109],[-73.4476768,45.6013303]]}";24;Route 132;1;100;false;true;true;false;false;false;589.0;0;0;0;0;0;false;70000;3395466650;-73.522601;45.524188;70030;6133410514;-73.378943;45.632387;0;0;1;9622353;Bus 707 : Direction Sorel-Tracy;"";EXO;707 O;Terminus Longueuil;Terminus de Sorel
690006343;"{\"type\":\"LineString\",\"coordinates\":[[-73.4476768,45.6013303],[-73.4473646,45.6015093]]}";25;Route 132;1;100;false;true;true;false;false;false;32.0;0;0;0;0;0;false;70000;3395466650;-73.522601;45.524188;70030;6133410514;-73.378943;45.632387;0;0;1;9622353;Bus 707 : Direction Sorel-Tracy;"";EXO;707 O;Terminus Longueuil;Terminus de Sorel
567727179;"{\"type\":\"LineString\",\"coordinates\":[[-73.4473646,45.6015093],[-73.4467292,45.601898],[-73.4462289,45.6021936],[-73.4458142,45.6024415]]}";26;Route 132;2;100;false;true;true;false;false;false;160.0;0;0;0;0;0;false;70000;3395466650;-73.522601;45.524188;70030;6133410514;-73.378943;45.632387;0;0;1;9622353;Bus 707 : Direction Sorel-Tracy;"";EXO;707 O;Terminus Longueuil;Terminus de Sorel
39283471;"{\"type\":\"LineString\",\"coordinates\":[[-73.4458142,45.6024415],[-73.4454796,45.6026382],[-73.4451939,45.6028194],[-73.4449549,45.6029696],[-73.4444998,45.6032672],[-73.4442496,45.6034443],[-73.444077,45.603576],[-73.4439634,45.603664],[-73.4438017,45.6038015],[-73.4436565,45.6039424],[-73.4435219,45.6040813],[-73.4433627,45.6042649],[-73.4432054,45.6044565],[-73.4430901,45.6046146],[-73.4429834,45.6047708],[-73.4428939,45.6049301],[-73.4428046,45.6051093],[-73.4427535,45.6052139],[-73.4426818,45.6053821],[-73.442627,45.605523],[-73.4425841,45.6056713],[-73.442539,45.6058394],[-73.4424987,45.6060326],[-73.4424739,45.6062018],[-73.4424605,45.6063664],[-73.4424561,45.6065268],[-73.4424608,45.6067286],[-73.4424743,45.606891],[-73.4424959,45.6070548],[-73.4425267,45.6072326],[-73.4425586,45.6074818],[-73.4425664,45.6076433],[-73.4425705,45.6078113],[-73.442567,45.6079634],[-73.4425561,45.6081126],[-73.4425413,45.6082622],[-73.4425091,45.6084606],[-73.4424734,45.6086222],[-73.4424254,45.6088106],[-73.4423429,45.6090606],[-73.442259,45.6092763],[-73.4421805,45.609441],[-73.442087,45.609624],[-73.4419793,45.6098163],[-73.4418358,45.6100391],[-73.4416686,45.6102691],[-73.441268,45.6107365],[-73.4408645,45.6112004]]}";27;Route 132;2;90;false;true;true;false;false;false;1093.0;0;0;0;0;0;false;70000;3395466650;-73.522601;45.524188;70030;6133410514;-73.378943;45.632387;0;0;1;9622353;Bus 707 : Direction Sorel-Tracy;"";EXO;707 O;Terminus Longueuil;Terminus de Sorel
751932231;"{\"type\":\"LineString\",\"coordinates\":[[-73.4408645,45.6112004],[-73.4405395,45.6115766],[-73.4402025,45.6119571],[-73.4399931,45.6122023],[-73.4398936,45.6123118]]}";28;Route 132;3;90;false;true;true;false;false;false;145.0;1;0;0;0;0;false;70000;3395466650;-73.522601;45.524188;70030;6133410514;-73.378943;45.632387;0;0;1;9622353;Bus 707 : Direction Sorel-Tracy;"";EXO;707 O;Terminus Longueuil;Terminus de Sorel
24351600;"{\"type\":\"LineString\",\"coordinates\":[[-73.4398936,45.6123118],[-73.4397661,45.61245],[-73.4394687,45.6127907],[-73.4388018,45.6135663]]}";29;Route 132;3;50;false;true;true;false;false;false;164.0;0;0;0;0;0;false;70000;3395466650;-73.522601;45.524188;70030;6133410514;-73.378943;45.632387;0;0;1;9622353;Bus 707 : Direction Sorel-Tracy;"";EXO;707 O;Terminus Longueuil;Terminus de Sorel
751863586;"{\"type\":\"LineString\",\"coordinates\":[[-73.4388018,45.6135663],[-73.4375078,45.6150582],[-73.4370775,45.6155515],[-73.4354022,45.6174767],[-73.4337245,45.6194129],[-73.4324421,45.6208884],[-73.4309816,45.6225589],[-73.4292519,45.6245464],[-73.4274207,45.6266515],[-73.4262227,45.6280328],[-73.4256544,45.6286995],[-73.4253094,45.6291377],[-73.4251865,45.6293047],[-73.4250442,45.6295151],[-73.4249525,45.6296569],[-73.4248422,45.62983],[-73.424713,45.6300575],[-73.4246162,45.630232],[-73.4245264,45.6304038],[-73.4243727,45.6307364]]}";30;Route 132;2;50;false;true;true;false;false;false;2217.0;0;0;0;0;0;false;70000;3395466650;-73.522601;45.524188;70030;6133410514;-73.378943;45.632387;0;0;1;9622353;Bus 707 : Direction Sorel-Tracy;"";EXO;707 O;Terminus Longueuil;Terminus de Sorel
751928534;"{\"type\":\"LineString\",\"coordinates\":[[-73.4243727,45.6307364],[-73.4242189,45.6310689],[-73.4240819,45.6314205],[-73.4240081,45.6316462],[-73.4239621,45.6317867],[-73.4238716,45.6320841]]}";31;Route 132;4;50;false;true;true;false;false;false;155.0;0;0;0;0;0;false;70000;3395466650;-73.522601;45.524188;70030;6133410514;-73.378943;45.632387;0;0;1;9622353;Bus 707 : Direction Sorel-Tracy;"";EXO;707 O;Terminus Longueuil;Terminus de Sorel
472637016;"{\"type\":\"LineString\",\"coordinates\":[[-73.4238716,45.6320841],[-73.4236937,45.6327439],[-73.4236067,45.6334024],[-73.4234018,45.6349525],[-73.4229415,45.6387568],[-73.4226465,45.6411157],[-73.4217453,45.6474882],[-73.4208698,45.6539861],[-73.4207754,45.654604]]}";32;Route 132;2;50;false;true;true;false;false;false;2513.0;0;0;0;0;0;false;70000;3395466650;-73.522601;45.524188;70030;6133410514;-73.378943;45.632387;0;0;1;9622353;Bus 707 : Direction Sorel-Tracy;"";EXO;707 O;Terminus Longueuil;Terminus de Sorel
24384104;"{\"type\":\"LineString\",\"coordinates\":[[-73.4207754,45.654604],[-73.4206406,45.6548617],[-73.4205612,45.6549235],[-73.4204713,45.6549465],[-73.4203932,45.6549475],[-73.4203017,45.6549283]]}";33;"";1;50;false;true;true;false;false;false;61.0;0;0;0;0;0;false;70000;3395466650;-73.522601;45.524188;70030;6133410514;-73.378943;45.632387;0;0;1;9622353;Bus 707 : Direction Sorel-Tracy;"";EXO;707 O;Terminus Longueuil;Terminus de Sorel
472637872;"{\"type\":\"LineString\",\"coordinates\":[[-73.4203017,45.6549283],[-73.4200442,45.6548257]]}";34;Boulevard de la Marine;1;50;false;true;false;false;false;false;24.0;0;0;0;0;0;false;70000;3395466650;-73.522601;45.524188;70030;6133410514;-73.378943;45.632387;0;0;1;9622353;Bus 707 : Direction Sorel-Tracy;"";EXO;707 O;Terminus Longueuil;Terminus de Sorel
317730053;"{\"type\":\"LineString\",\"coordinates\":[[-73.4200442,45.6548257],[-73.419773,45.6545957],[-73.4048023,45.6429459]]}";35;Boulevard Lionel-Boulet;2;50;false;false;false;false;false;false;1775.0;0;0;0;0;0;false;70000;3395466650;-73.522601;45.524188;70030;6133410514;-73.378943;45.632387;0;0;1;9622353;Bus 707 : Direction Sorel-Tracy;"";EXO;707 O;Terminus Longueuil;Terminus de Sorel
692278948;"{\"type\":\"LineString\",\"coordinates\":[[-73.4048023,45.6429459],[-73.403943,45.6422785],[-73.3911038,45.6323057]]}";36;Boulevard Lionel-Boulet;2;50;false;false;false;false;false;false;1593.0;0;0;0;0;0;false;70000;3395466650;-73.522601;45.524188;70030;6133410514;-73.378943;45.632387;0;0;1;9622353;Bus 707 : Direction Sorel-Tracy;"";EXO;707 O;Terminus Longueuil;Terminus de Sorel
692278950;"{\"type\":\"LineString\",\"coordinates\":[[-73.3911038,45.6323057],[-73.3909115,45.632449],[-73.3904395,45.6326553],[-73.3895487,45.6329792],[-73.3869122,45.6339312],[-73.3846742,45.6347393],[-73.3819228,45.6359458]]}";37;Chemin de l'Énergie;1;50;false;false;true;false;false;false;824.0;0;0;0;0;0;false;70000;3395466650;-73.522601;45.524188;70030;6133410514;-73.378943;45.632387;0;0;1;9622353;Bus 707 : Direction Sorel-Tracy;"";EXO;707 O;Terminus Longueuil;Terminus de Sorel
49156278;"{\"type\":\"LineString\",\"coordinates\":[[-73.3857271,45.6281247],[-73.3830417,45.6298718],[-73.3829206,45.6299506],[-73.3821901,45.6303889],[-73.382014,45.6304945],[-73.3819222,45.6305447],[-73.3815621,45.6307418],[-73.3808553,45.6311284],[-73.380555,45.6312733],[-73.3802838,45.6314042],[-73.3795948,45.6318292],[-73.3795136,45.6319012],[-73.3791993,45.6321799],[-73.3788433,45.6324668],[-73.3781907,45.632965],[-73.3781611,45.6330168],[-73.3781713,45.6330945],[-73.3783614,45.6332679],[-73.3819228,45.6359458]]}";38;Rue Jean Coutu;2;50;false;false;true;false;false;false;622.5;0;0;0;0;0;false;70000;3395466650;-73.522601;45.524188;70030;6133410514;-73.378943;45.632387;1;0;1;9622353;Bus 707 : Direction Sorel-Tracy;"";EXO;707 O;Terminus Longueuil;Terminus de Sorel
