way_id;shape;index;name;nb_lanes;legal_speed;speed_zone_30;oneway;shares_bike;bike_box;bus_lane;dedicated_bus_lane;length;nb_traffic_signals;nb_crossings;nb_stops;nb_give_ways;nb_lvl_crossings;roundabout;stop_id_orig;node_id_orig;coord_x_orig;coord_y_orig;stop_id_dest;node_id_dest;coord_x_dest;coord_y_dest;nb_neighbouring_ways_bus_stop;ordre_orig;ordre_dest;id_line;line_name;colour;operator;ref;from;to
679623762;"{\"type\":\"LineString\",\"coordinates\":[[-73.7500568,45.6578566],[-73.7500352,45.6578097]]}";1;Rue Bienville;1;"";false;true;true;false;false;false;6.0;0;0;0;0;0;false;41068;6269507272;-73.75014;45.657847;41893;6269507283;-73.74873;45.653171;1;0;1;9312778;Bus : 39 S - Direction Terminus Le Carrefour;"";STL;39S;Terminus Bienville;Terminus Le Carrefour
88052035;"{\"type\":\"LineString\",\"coordinates\":[[-73.7500352,45.6578097],[-73.7499809,45.6577221],[-73.7498514,45.6575867],[-73.749618,45.6573037]]}";2;Rue Bienville;1;50;false;false;true;false;false;false;66.0;0;0;0;0;0;false;41068;6269507272;-73.75014;45.657847;41893;6269507283;-73.74873;45.653171;0;0;1;9312778;Bus : 39 S - Direction Terminus Le Carrefour;"";STL;39S;Terminus Bienville;Terminus Le Carrefour
45289919;"{\"type\":\"LineString\",\"coordinates\":[[-73.7493423,45.656395],[-73.749618,45.6573037]]}";3;Rue Bienville;1;50;false;false;true;false;false;false;104.0;0;0;0;0;0;false;41068;6269507272;-73.75014;45.657847;41893;6269507283;-73.74873;45.653171;0;0;1;9312778;Bus : 39 S - Direction Terminus Le Carrefour;"";STL;39S;Terminus Bienville;Terminus Le Carrefour
32641588;"{\"type\":\"LineString\",\"coordinates\":[[-73.7485738,45.6529562],[-73.748626,45.65305],[-73.7486353,45.6531613],[-73.7485656,45.6534419],[-73.7485452,45.6535846],[-73.748556,45.6537107],[-73.7489719,45.6551502],[-73.7493423,45.656395]]}";4;Rue Bienville;2;50;false;false;false;false;false;false;390.0;0;0;0;0;0;false;41068;6269507272;-73.75014;45.657847;41893;6269507283;-73.74873;45.653171;2;0;1;9312778;Bus : 39 S - Direction Terminus Le Carrefour;"";STL;39S;Terminus Bienville;Terminus Le Carrefour
32641588;"{\"type\":\"LineString\",\"coordinates\":[[-73.7485738,45.6529562],[-73.748626,45.65305],[-73.7486353,45.6531613],[-73.7485656,45.6534419],[-73.7485452,45.6535846],[-73.748556,45.6537107],[-73.7489719,45.6551502],[-73.7493423,45.656395]]}";1;Rue Bienville;2;50;false;false;false;false;false;false;195.0;0;0;0;0;0;false;41893;6269507283;-73.74873;45.653171;41891;6269507388;-73.74843;45.651525;1;1;2;9312778;Bus : 39 S - Direction Terminus Le Carrefour;"";STL;39S;Terminus Bienville;Terminus Le Carrefour
53332410;"{\"type\":\"LineString\",\"coordinates\":[[-73.7482828,45.6529997],[-73.7484522,45.6529765],[-73.7485738,45.6529562]]}";2;Rue Bergeron;2;50;false;false;false;false;false;false;24.0;0;0;0;0;0;false;41893;6269507283;-73.74873;45.653171;41891;6269507388;-73.74843;45.651525;0;1;2;9312778;Bus : 39 S - Direction Terminus Le Carrefour;"";STL;39S;Terminus Bienville;Terminus Le Carrefour
53332411;"{\"type\":\"LineString\",\"coordinates\":[[-73.7524223,45.6458862],[-73.7514961,45.646332],[-73.7507324,45.6467415],[-73.7504224,45.6470045],[-73.750209,45.6472856],[-73.7500265,45.6475667],[-73.7497447,45.6479892],[-73.7494497,45.6484612],[-73.748926,45.649281],[-73.7487461,45.6495782],[-73.7486383,45.6497966],[-73.7484693,45.6502605],[-73.7484361,45.6504215],[-73.7483893,45.6507053],[-73.7483547,45.6510296],[-73.7483364,45.6512972],[-73.7483217,45.6521419],[-73.7483292,45.6524562],[-73.7483093,45.6527542],[-73.7482828,45.6529997]]}";3;Boulevard des Laurentides;2;50;false;false;false;false;false;false;449.5;1;0;0;0;0;false;41893;6269507283;-73.74873;45.653171;41891;6269507388;-73.74843;45.651525;1;1;2;9312778;Bus : 39 S - Direction Terminus Le Carrefour;"";STL;39S;Terminus Bienville;Terminus Le Carrefour
694196055;"{\"type\":\"LineString\",\"coordinates\":[[-73.7543477,45.6447451],[-73.7537012,45.6451721],[-73.7524223,45.6458862]]}";1;Boulevard des Laurentides;4;50;false;false;true;false;false;false;197.0;1;0;0;0;0;false;41885;6269507420;-73.75241;45.645982;41883;6269507430;-73.75497;45.644334;2;6;7;9312778;Bus : 39 S - Direction Terminus Le Carrefour;"";STL;39S;Terminus Bienville;Terminus Le Carrefour
41337564;"{\"type\":\"LineString\",\"coordinates\":[[-73.7555723,45.6408757],[-73.7558383,45.6417638],[-73.7559156,45.6421778],[-73.7559328,45.6425139],[-73.7559214,45.642638],[-73.7558342,45.6429669],[-73.7557306,45.643278],[-73.7555812,45.6435164],[-73.7553717,45.6437971],[-73.7551985,45.6439861],[-73.7545766,45.6445601],[-73.7543477,45.6447451]]}";2;Boulevard des Laurentides;4;50;false;false;true;false;false;false;468.0;1;0;0;0;0;false;41885;6269507420;-73.75241;45.645982;41883;6269507430;-73.75497;45.644334;2;6;7;9312778;Bus : 39 S - Direction Terminus Le Carrefour;"";STL;39S;Terminus Bienville;Terminus Le Carrefour
45289922;"{\"type\":\"LineString\",\"coordinates\":[[-73.7555723,45.6408757],[-73.7549784,45.6388653],[-73.7547047,45.6379031],[-73.7545546,45.6373773],[-73.7543724,45.6367691],[-73.7543289,45.6366239],[-73.754212,45.6362341],[-73.754131,45.6359638],[-73.7540991,45.6358574],[-73.7540854,45.6358118],[-73.7540712,45.6357645],[-73.7536418,45.6343323],[-73.7532601,45.633032],[-73.7531562,45.6326621],[-73.7530374,45.632239],[-73.7529152,45.6318041],[-73.7527698,45.6312639]]}";1;Boulevard des Laurentides;4;50;false;false;true;false;false;false;545.0;2;0;0;0;0;false;41870;6269507525;-73.75309;45.631935;41868;6269507532;-73.75281;45.630991;1;13;14;9312778;Bus : 39 S - Direction Terminus Le Carrefour;"";STL;39S;Terminus Bienville;Terminus Le Carrefour
686078336;"{\"type\":\"LineString\",\"coordinates\":[[-73.7527698,45.6312639],[-73.7527805,45.6311138],[-73.7525921,45.6303789]]}";2;Boulevard des Laurentides;2;50;false;true;true;false;false;false;50.0;1;0;0;0;0;false;41870;6269507525;-73.75309;45.631935;41868;6269507532;-73.75281;45.630991;1;13;14;9312778;Bus : 39 S - Direction Terminus Le Carrefour;"";STL;39S;Terminus Bienville;Terminus Le Carrefour
686078336;"{\"type\":\"LineString\",\"coordinates\":[[-73.7527698,45.6312639],[-73.7527805,45.6311138],[-73.7525921,45.6303789]]}";1;Boulevard des Laurentides;2;50;false;true;true;false;false;false;50.0;1;0;0;0;0;false;41868;6269507532;-73.75281;45.630991;41866;6269507555;-73.7522;45.628586;1;14;15;9312778;Bus : 39 S - Direction Terminus Le Carrefour;"";STL;39S;Terminus Bienville;Terminus Le Carrefour
473352709;"{\"type\":\"LineString\",\"coordinates\":[[-73.7525921,45.6303789],[-73.7522153,45.6291069],[-73.7520696,45.628567],[-73.7519892,45.6284861]]}";2;Boulevard des Laurentides;2;50;false;true;true;false;false;false;108.5;2;0;0;0;0;false;41868;6269507532;-73.75281;45.630991;41866;6269507555;-73.7522;45.628586;1;14;15;9312778;Bus : 39 S - Direction Terminus Le Carrefour;"";STL;39S;Terminus Bienville;Terminus Le Carrefour
686611413;"{\"type\":\"LineString\",\"coordinates\":[[-73.7467167,45.6217277],[-73.7455032,45.620589]]}";1;Boulevard des Laurentides;4;50;false;false;true;false;false;false;158.0;1;0;0;0;0;false;41859;6269507635;-73.74685;45.621753;41857;6269507650;-73.74493;45.619868;2;18;19;9312778;Bus : 39 S - Direction Terminus Le Carrefour;"";STL;39S;Terminus Bienville;Terminus Le Carrefour
455269000;"{\"type\":\"LineString\",\"coordinates\":[[-73.7455032,45.620589],[-73.7446231,45.6197693]]}";2;Boulevard des Laurentides;4;50;false;false;true;false;false;false;114.0;1;0;0;0;0;false;41859;6269507635;-73.74685;45.621753;41857;6269507650;-73.74493;45.619868;2;18;19;9312778;Bus : 39 S - Direction Terminus Le Carrefour;"";STL;39S;Terminus Bienville;Terminus Le Carrefour
455269000;"{\"type\":\"LineString\",\"coordinates\":[[-73.7455032,45.620589],[-73.7446231,45.6197693]]}";1;Boulevard des Laurentides;4;50;false;false;true;false;false;false;57.0;1;0;0;0;0;false;41857;6269507650;-73.74493;45.619868;41855;6269507690;-73.74269;45.617722;1;19;20;9312778;Bus : 39 S - Direction Terminus Le Carrefour;"";STL;39S;Terminus Bienville;Terminus Le Carrefour
455260229;"{\"type\":\"LineString\",\"coordinates\":[[-73.7446231,45.6197693],[-73.7425008,45.6177734],[-73.7417467,45.6170641],[-73.7406573,45.6160395],[-73.7405914,45.6159776],[-73.7400403,45.6154592]]}";2;Boulevard des Laurentides;4;50;false;false;true;false;false;false;299.0;1;0;0;0;0;false;41857;6269507650;-73.74493;45.619868;41855;6269507690;-73.74269;45.617722;1;19;20;9312778;Bus : 39 S - Direction Terminus Le Carrefour;"";STL;39S;Terminus Bienville;Terminus Le Carrefour
455260229;"{\"type\":\"LineString\",\"coordinates\":[[-73.7446231,45.6197693],[-73.7425008,45.6177734],[-73.7417467,45.6170641],[-73.7406573,45.6160395],[-73.7405914,45.6159776],[-73.7400403,45.6154592]]}";1;Boulevard des Laurentides;4;50;false;false;true;false;false;false;299.0;1;0;0;0;0;false;41853;6269507712;-73.74037;45.615585;41851;6269507758;-73.73775;45.613107;1;21;22;9312778;Bus : 39 S - Direction Terminus Le Carrefour;"";STL;39S;Terminus Bienville;Terminus Le Carrefour
455260226;"{\"type\":\"LineString\",\"coordinates\":[[-73.7400403,45.6154592],[-73.7396278,45.6150647],[-73.7387648,45.6142395],[-73.7378909,45.6134045],[-73.7374315,45.6129487],[-73.7371568,45.6126485],[-73.7370187,45.612488],[-73.7368022,45.612143],[-73.7367228,45.612007],[-73.736659,45.6118593]]}";2;Boulevard des Laurentides;4;50;false;false;true;false;false;false;240.5;0;0;0;0;0;false;41853;6269507712;-73.74037;45.615585;41851;6269507758;-73.73775;45.613107;1;21;22;9312778;Bus : 39 S - Direction Terminus Le Carrefour;"";STL;39S;Terminus Bienville;Terminus Le Carrefour
455260226;"{\"type\":\"LineString\",\"coordinates\":[[-73.7400403,45.6154592],[-73.7396278,45.6150647],[-73.7387648,45.6142395],[-73.7378909,45.6134045],[-73.7374315,45.6129487],[-73.7371568,45.6126485],[-73.7370187,45.612488],[-73.7368022,45.612143],[-73.7367228,45.612007],[-73.736659,45.6118593]]}";1;Boulevard des Laurentides;4;50;false;false;true;false;false;false;240.5;0;0;0;0;0;false;41851;6269507758;-73.73775;45.613107;45016;6269507790;-73.73507;45.611466;1;22;23;9312778;Bus : 39 S - Direction Terminus Le Carrefour;"";STL;39S;Terminus Bienville;Terminus Le Carrefour
45760616;"{\"type\":\"LineString\",\"coordinates\":[[-73.736659,45.6118593],[-73.7366643,45.6116253],[-73.736594,45.6113275],[-73.736517,45.6109063]]}";2;Boulevard des Laurentides;2;50;false;true;true;false;false;false;107.0;1;0;0;0;0;false;41851;6269507758;-73.73775;45.613107;45016;6269507790;-73.73507;45.611466;0;22;23;9312778;Bus : 39 S - Direction Terminus Le Carrefour;"";STL;39S;Terminus Bienville;Terminus Le Carrefour
45760618;"{\"type\":\"LineString\",\"coordinates\":[[-73.736517,45.6109063],[-73.7364642,45.6107878]]}";3;Boulevard des Laurentides;2;50;false;true;true;false;false;false;14.0;2;0;0;0;0;false;41851;6269507758;-73.73775;45.613107;45016;6269507790;-73.73507;45.611466;0;22;23;9312778;Bus : 39 S - Direction Terminus Le Carrefour;"";STL;39S;Terminus Bienville;Terminus Le Carrefour
453313646;"{\"type\":\"LineString\",\"coordinates\":[[-73.7364642,45.6107878],[-73.7363442,45.6108689]]}";4;Boulevard Bellerose Est;2;50;false;true;false;false;false;false;13.0;2;0;0;0;0;false;41851;6269507758;-73.73775;45.613107;45016;6269507790;-73.73507;45.611466;0;22;23;9312778;Bus : 39 S - Direction Terminus Le Carrefour;"";STL;39S;Terminus Bienville;Terminus Le Carrefour
453313645;"{\"type\":\"LineString\",\"coordinates\":[[-73.7363442,45.6108689],[-73.7360713,45.6109945]]}";5;Boulevard Bellerose Est;2;50;false;true;false;false;false;false;26.0;1;0;0;0;0;false;41851;6269507758;-73.73775;45.613107;45016;6269507790;-73.73507;45.611466;0;22;23;9312778;Bus : 39 S - Direction Terminus Le Carrefour;"";STL;39S;Terminus Bienville;Terminus Le Carrefour
41337634;"{\"type\":\"LineString\",\"coordinates\":[[-73.7360713,45.6109945],[-73.735571,45.611265],[-73.7348185,45.6116719],[-73.7342778,45.6119601],[-73.7327262,45.6127545],[-73.7319379,45.6132108],[-73.7314917,45.6135087],[-73.7303038,45.6143016],[-73.7299243,45.6145623],[-73.7297369,45.614691],[-73.7292599,45.6149701],[-73.7283872,45.6153591],[-73.7277007,45.6156475],[-73.7270336,45.6160367],[-73.7266989,45.6163368],[-73.7258063,45.6175315],[-73.7255831,45.6178437],[-73.7249136,45.6188102],[-73.7245875,45.6190744],[-73.7237892,45.6195486]]}";6;Boulevard Bellerose Est;2;50;false;true;false;false;false;false;686.5;0;0;0;0;0;false;41851;6269507758;-73.73775;45.613107;45016;6269507790;-73.73507;45.611466;1;22;23;9312778;Bus : 39 S - Direction Terminus Le Carrefour;"";STL;39S;Terminus Bienville;Terminus Le Carrefour
41337634;"{\"type\":\"LineString\",\"coordinates\":[[-73.7360713,45.6109945],[-73.735571,45.611265],[-73.7348185,45.6116719],[-73.7342778,45.6119601],[-73.7327262,45.6127545],[-73.7319379,45.6132108],[-73.7314917,45.6135087],[-73.7303038,45.6143016],[-73.7299243,45.6145623],[-73.7297369,45.614691],[-73.7292599,45.6149701],[-73.7283872,45.6153591],[-73.7277007,45.6156475],[-73.7270336,45.6160367],[-73.7266989,45.6163368],[-73.7258063,45.6175315],[-73.7255831,45.6178437],[-73.7249136,45.6188102],[-73.7245875,45.6190744],[-73.7237892,45.6195486]]}";1;Boulevard Bellerose Est;2;50;false;true;false;false;false;false;686.5;0;0;0;0;0;false;41084;6269507668;-73.72423;45.619218;42704;6269507703;-73.72337;45.616061;1;28;29;9312778;Bus : 39 S - Direction Terminus Le Carrefour;"";STL;39S;Terminus Bienville;Terminus Le Carrefour
669902227;"{\"type\":\"LineString\",\"coordinates\":[[-73.7237892,45.6195486],[-73.7232455,45.6190583],[-73.723007,45.6187005],[-73.7229383,45.6184003],[-73.723095,45.6174698],[-73.723223,45.6167092]]}";2;Boulevard René-Laennec;2;50;false;true;true;false;false;false;336.0;0;0;0;0;0;false;41084;6269507668;-73.72423;45.619218;42704;6269507703;-73.72337;45.616061;0;28;29;9312778;Bus : 39 S - Direction Terminus Le Carrefour;"";STL;39S;Terminus Bienville;Terminus Le Carrefour
634813311;"{\"type\":\"LineString\",\"coordinates\":[[-73.723223,45.6167092],[-73.7233283,45.6158715]]}";3;Boulevard René-Laennec;2;50;false;true;true;false;false;false;47.0;0;0;0;0;0;false;41084;6269507668;-73.72423;45.619218;42704;6269507703;-73.72337;45.616061;1;28;29;9312778;Bus : 39 S - Direction Terminus Le Carrefour;"";STL;39S;Terminus Bienville;Terminus Le Carrefour
634813311;"{\"type\":\"LineString\",\"coordinates\":[[-73.723223,45.6167092],[-73.7233283,45.6158715]]}";1;Boulevard René-Laennec;2;50;false;true;true;false;false;false;47.0;0;0;0;0;0;false;42704;6269507703;-73.72337;45.616061;42706;6269507746;-73.72348;45.614135;1;29;30;9312778;Bus : 39 S - Direction Terminus Le Carrefour;"";STL;39S;Terminus Bienville;Terminus Le Carrefour
634813310;"{\"type\":\"LineString\",\"coordinates\":[[-73.7233283,45.6158715],[-73.7234655,45.6151779]]}";2;Boulevard René-Laennec;2;50;false;true;true;false;false;false;78.0;0;0;0;0;0;false;42704;6269507703;-73.72337;45.616061;42706;6269507746;-73.72348;45.614135;0;29;30;9312778;Bus : 39 S - Direction Terminus Le Carrefour;"";STL;39S;Terminus Bienville;Terminus Le Carrefour
669902229;"{\"type\":\"LineString\",\"coordinates\":[[-73.7234655,45.6151779],[-73.7234614,45.6148809],[-73.7234361,45.6144471],[-73.7233183,45.6139795],[-73.7230966,45.6133378],[-73.7229614,45.6131243],[-73.7225186,45.6125565],[-73.7224902,45.6125202],[-73.720684,45.6101313]]}";3;Boulevard René-Laennec;2;50;false;true;true;false;false;false;305.5;0;0;0;0;0;false;42704;6269507703;-73.72337;45.616061;42706;6269507746;-73.72348;45.614135;1;29;30;9312778;Bus : 39 S - Direction Terminus Le Carrefour;"";STL;39S;Terminus Bienville;Terminus Le Carrefour
669902229;"{\"type\":\"LineString\",\"coordinates\":[[-73.7234655,45.6151779],[-73.7234614,45.6148809],[-73.7234361,45.6144471],[-73.7233183,45.6139795],[-73.7230966,45.6133378],[-73.7229614,45.6131243],[-73.7225186,45.6125565],[-73.7224902,45.6125202],[-73.720684,45.6101313]]}";1;Boulevard René-Laennec;2;50;false;true;true;false;false;false;305.5;0;0;0;0;0;false;42711;6269507810;-73.72095;45.610325;42714;6269507807;-73.71941;45.608726;1;32;33;9312778;Bus : 39 S - Direction Terminus Le Carrefour;"";STL;39S;Terminus Bienville;Terminus Le Carrefour
634813312;"{\"type\":\"LineString\",\"coordinates\":[[-73.720684,45.6101313],[-73.7205732,45.6099894],[-73.7201574,45.6095568],[-73.7191517,45.6086671],[-73.718628,45.6081119],[-73.7183596,45.6078274],[-73.7177449,45.6072628],[-73.7158466,45.6055285]]}";2;Boulevard René-Laennec;2;50;false;true;true;false;false;false;318.0;0;0;0;0;0;false;42711;6269507810;-73.72095;45.610325;42714;6269507807;-73.71941;45.608726;1;32;33;9312778;Bus : 39 S - Direction Terminus Le Carrefour;"";STL;39S;Terminus Bienville;Terminus Le Carrefour
634813312;"{\"type\":\"LineString\",\"coordinates\":[[-73.720684,45.6101313],[-73.7205732,45.6099894],[-73.7201574,45.6095568],[-73.7191517,45.6086671],[-73.718628,45.6081119],[-73.7183596,45.6078274],[-73.7177449,45.6072628],[-73.7158466,45.6055285]]}";1;Boulevard René-Laennec;2;50;false;true;true;false;false;false;318.0;0;0;0;0;0;false;42723;6269507888;-73.71631;45.605843;42162;6269507923;-73.71789;45.604527;1;34;35;9312778;Bus : 39 S - Direction Terminus Le Carrefour;"";STL;39S;Terminus Bienville;Terminus Le Carrefour
41338602;"{\"type\":\"LineString\",\"coordinates\":[[-73.7185425,45.5987581],[-73.718939,45.5988564],[-73.7192567,45.5990083],[-73.7203451,45.6000304],[-73.7212283,45.6008609],[-73.7213121,45.6010845],[-73.7213292,45.6013015],[-73.7213043,45.6014844],[-73.7208761,45.6026196],[-73.7206241,45.6029858],[-73.719847,45.6034024],[-73.7188722,45.6039218],[-73.7179408,45.6044116],[-73.7171683,45.6048019],[-73.7158466,45.6055285]]}";2;Rue de Lucerne;2;50;false;false;true;false;false;false;516.5;0;0;0;0;0;false;42723;6269507888;-73.71631;45.605843;42162;6269507923;-73.71789;45.604527;1;34;35;9312778;Bus : 39 S - Direction Terminus Le Carrefour;"";STL;39S;Terminus Bienville;Terminus Le Carrefour
41338897;"{\"type\":\"LineString\",\"coordinates\":[[-73.7185425,45.5987581],[-73.7186566,45.5984633],[-73.7187757,45.5983312],[-73.7194757,45.5979552],[-73.7204372,45.5974543],[-73.721267,45.5970261],[-73.7217949,45.596756]]}";1;Rue De la Bernina;1;50;false;false;true;false;false;false;172.5;0;0;0;0;0;false;41131;6269508340;-73.72044;45.597557;41832;6269508372;-73.72114;45.595972;1;40;41;9312778;Bus : 39 S - Direction Terminus Le Carrefour;"";STL;39S;Terminus Bienville;Terminus Le Carrefour
694161758;"{\"type\":\"LineString\",\"coordinates\":[[-73.7217949,45.596756],[-73.7209128,45.5959303],[-73.7202442,45.5953045],[-73.7200206,45.5950952]]}";2;Boulevard des Laurentides;4;50;false;false;true;false;false;false;115.5;0;0;0;0;0;false;41131;6269508340;-73.72044;45.597557;41832;6269508372;-73.72114;45.595972;1;40;41;9312778;Bus : 39 S - Direction Terminus Le Carrefour;"";STL;39S;Terminus Bienville;Terminus Le Carrefour
23292111;"{\"type\":\"LineString\",\"coordinates\":[[-73.7200206,45.5950952],[-73.7199739,45.5950101],[-73.7199188,45.5949358],[-73.7193506,45.5944197],[-73.7187237,45.5939086],[-73.7187146,45.5939012],[-73.7176455,45.5931754]]}";1;Boulevard des Laurentides;2;50;false;true;true;false;false;false;284.0;0;0;0;0;0;false;41830;6269508381;-73.72024;45.595137;41827;6269508664;-73.71507;45.590684;2;42;43;9312778;Bus : 39 S - Direction Terminus Le Carrefour;"";STL;39S;Terminus Bienville;Terminus Le Carrefour
672674565;"{\"type\":\"LineString\",\"coordinates\":[[-73.7176455,45.5931754],[-73.7173484,45.5929725]]}";2;Boulevard des Laurentides;2;50;false;true;true;false;false;false;33.0;0;0;0;0;0;false;41830;6269508381;-73.72024;45.595137;41827;6269508664;-73.71507;45.590684;0;42;43;9312778;Bus : 39 S - Direction Terminus Le Carrefour;"";STL;39S;Terminus Bienville;Terminus Le Carrefour
37722246;"{\"type\":\"LineString\",\"coordinates\":[[-73.7173484,45.5929725],[-73.7170879,45.5927901],[-73.7168118,45.5925764],[-73.716514,45.5923341],[-73.7163802,45.5922191]]}";3;Boulevard des Laurentides;2;50;false;true;true;false;false;false;113.0;0;0;0;0;0;false;41830;6269508381;-73.72024;45.595137;41827;6269508664;-73.71507;45.590684;0;42;43;9312778;Bus : 39 S - Direction Terminus Le Carrefour;"";STL;39S;Terminus Bienville;Terminus Le Carrefour
511504658;"{\"type\":\"LineString\",\"coordinates\":[[-73.7163802,45.5922191],[-73.716336,45.5921809]]}";4;Boulevard des Laurentides;2;50;false;true;true;false;false;false;6.0;0;0;0;0;0;false;41830;6269508381;-73.72024;45.595137;41827;6269508664;-73.71507;45.590684;0;42;43;9312778;Bus : 39 S - Direction Terminus Le Carrefour;"";STL;39S;Terminus Bienville;Terminus Le Carrefour
483683383;"{\"type\":\"LineString\",\"coordinates\":[[-73.716336,45.5921809],[-73.7161486,45.5920136]]}";5;Boulevard des Laurentides;2;50;false;true;true;false;false;false;24.0;0;0;0;0;0;false;41830;6269508381;-73.72024;45.595137;41827;6269508664;-73.71507;45.590684;0;42;43;9312778;Bus : 39 S - Direction Terminus Le Carrefour;"";STL;39S;Terminus Bienville;Terminus Le Carrefour
511504662;"{\"type\":\"LineString\",\"coordinates\":[[-73.7161486,45.5920136],[-73.7158622,45.5917283],[-73.7157899,45.5916594]]}";6;Boulevard des Laurentides;2;50;false;true;true;false;false;false;49.0;0;0;0;0;0;false;41830;6269508381;-73.72024;45.595137;41827;6269508664;-73.71507;45.590684;0;42;43;9312778;Bus : 39 S - Direction Terminus Le Carrefour;"";STL;39S;Terminus Bienville;Terminus Le Carrefour
37722247;"{\"type\":\"LineString\",\"coordinates\":[[-73.7157899,45.5916594],[-73.7156545,45.5915211],[-73.7150055,45.590814],[-73.7145267,45.5902424],[-73.7143693,45.5900475],[-73.7137609,45.5894643]]}";7;Boulevard des Laurentides;2;50;false;true;true;false;false;false;291.0;0;0;0;0;0;false;41830;6269508381;-73.72024;45.595137;41827;6269508664;-73.71507;45.590684;2;42;43;9312778;Bus : 39 S - Direction Terminus Le Carrefour;"";STL;39S;Terminus Bienville;Terminus Le Carrefour
37722247;"{\"type\":\"LineString\",\"coordinates\":[[-73.7157899,45.5916594],[-73.7156545,45.5915211],[-73.7150055,45.590814],[-73.7145267,45.5902424],[-73.7143693,45.5900475],[-73.7137609,45.5894643]]}";1;Boulevard des Laurentides;2;50;false;true;true;false;false;false;145.5;0;0;0;0;0;false;41827;6269508664;-73.71507;45.590684;41825;6269508711;-73.71332;45.588869;1;43;44;9312778;Bus : 39 S - Direction Terminus Le Carrefour;"";STL;39S;Terminus Bienville;Terminus Le Carrefour
23292070;"{\"type\":\"LineString\",\"coordinates\":[[-73.7092377,45.5853605],[-73.7110568,45.587011],[-73.7127438,45.5885415],[-73.7128208,45.5886113],[-73.7131232,45.5888858],[-73.7137609,45.5894643]]}";2;Boulevard des Laurentides;4;50;false;false;true;false;false;false;288.5;0;0;0;0;0;false;41827;6269508664;-73.71507;45.590684;41825;6269508711;-73.71332;45.588869;1;43;44;9312778;Bus : 39 S - Direction Terminus Le Carrefour;"";STL;39S;Terminus Bienville;Terminus Le Carrefour
23292070;"{\"type\":\"LineString\",\"coordinates\":[[-73.7092377,45.5853605],[-73.7110568,45.587011],[-73.7127438,45.5885415],[-73.7128208,45.5886113],[-73.7131232,45.5888858],[-73.7137609,45.5894643]]}";1;Boulevard des Laurentides;4;50;false;false;true;false;false;false;288.5;0;0;0;0;0;false;41821;6269508797;-73.70955;45.585529;41819;6269508827;-73.70803;45.583822;1;46;47;9312778;Bus : 39 S - Direction Terminus Le Carrefour;"";STL;39S;Terminus Bienville;Terminus Le Carrefour
452204249;"{\"type\":\"LineString\",\"coordinates\":[[-73.7092377,45.5853605],[-73.7086369,45.5846772],[-73.70778,45.5837267],[-73.7073522,45.5833487],[-73.7059597,45.5821183]]}";2;Boulevard des Laurentides;1;50;false;true;true;false;false;false;221.5;0;0;0;0;0;false;41821;6269508797;-73.70955;45.585529;41819;6269508827;-73.70803;45.583822;1;46;47;9312778;Bus : 39 S - Direction Terminus Le Carrefour;"";STL;39S;Terminus Bienville;Terminus Le Carrefour
45610690;"{\"type\":\"LineString\",\"coordinates\":[[-73.7059597,45.5821183],[-73.7058859,45.5819824],[-73.705876,45.5818563],[-73.7061122,45.5816159]]}";1;"";1;50;false;true;true;false;false;false;63.0;0;0;0;0;0;false;41815;6119522930;-73.70617;45.582161;42855;6269508895;-73.70677;45.58135;2;48;49;9312778;Bus : 39 S - Direction Terminus Le Carrefour;"";STL;39S;Terminus Bienville;Terminus Le Carrefour
37722260;"{\"type\":\"LineString\",\"coordinates\":[[-73.7061122,45.5816159],[-73.7072242,45.5810195],[-73.7074561,45.5809022],[-73.7078829,45.5806161],[-73.7082754,45.5803428],[-73.7089114,45.5798177],[-73.7105724,45.578313],[-73.7115212,45.5774628],[-73.7122636,45.5769466],[-73.7135566,45.575993],[-73.7143274,45.5753744],[-73.7146601,45.5751514],[-73.7154396,45.574629],[-73.7160986,45.574203],[-73.717021,45.5736777],[-73.7180504,45.5731185],[-73.7188649,45.5727628],[-73.7191535,45.5726367],[-73.7199208,45.5723147],[-73.7204022,45.5721202],[-73.7208176,45.5719244]]}";2;Boulevard Saint-Martin Ouest;3;60;false;true;false;false;false;false;1585.0;0;0;0;0;0;false;41815;6119522930;-73.70617;45.582161;42855;6269508895;-73.70677;45.58135;2;48;49;9312778;Bus : 39 S - Direction Terminus Le Carrefour;"";STL;39S;Terminus Bienville;Terminus Le Carrefour
37722260;"{\"type\":\"LineString\",\"coordinates\":[[-73.7061122,45.5816159],[-73.7072242,45.5810195],[-73.7074561,45.5809022],[-73.7078829,45.5806161],[-73.7082754,45.5803428],[-73.7089114,45.5798177],[-73.7105724,45.578313],[-73.7115212,45.5774628],[-73.7122636,45.5769466],[-73.7135566,45.575993],[-73.7143274,45.5753744],[-73.7146601,45.5751514],[-73.7154396,45.574629],[-73.7160986,45.574203],[-73.717021,45.5736777],[-73.7180504,45.5731185],[-73.7188649,45.5727628],[-73.7191535,45.5726367],[-73.7199208,45.5723147],[-73.7204022,45.5721202],[-73.7208176,45.5719244]]}";1;Boulevard Saint-Martin Ouest;3;60;false;true;false;false;false;false;792.5;0;0;0;0;0;false;42849;6269509311;-73.71471;45.575243;41922;6269509515;-73.72084;45.571038;1;52;53;9312778;Bus : 39 S - Direction Terminus Le Carrefour;"";STL;39S;Terminus Bienville;Terminus Le Carrefour
452095401;"{\"type\":\"LineString\",\"coordinates\":[[-73.7208176,45.5719244],[-73.7211776,45.5717275]]}";2;Boulevard Saint-Martin Ouest;3;60;false;true;false;false;false;false;36.0;1;0;0;0;0;false;42849;6269509311;-73.71471;45.575243;41922;6269509515;-73.72084;45.571038;0;52;53;9312778;Bus : 39 S - Direction Terminus Le Carrefour;"";STL;39S;Terminus Bienville;Terminus Le Carrefour
452095398;"{\"type\":\"LineString\",\"coordinates\":[[-73.7211776,45.5717275],[-73.7213415,45.5716383]]}";3;Boulevard Saint-Martin Ouest;3;60;false;true;false;false;false;false;17.0;2;0;0;0;0;false;42849;6269509311;-73.71471;45.575243;41922;6269509515;-73.72084;45.571038;0;52;53;9312778;Bus : 39 S - Direction Terminus Le Carrefour;"";STL;39S;Terminus Bienville;Terminus Le Carrefour
452095366;"{\"type\":\"LineString\",\"coordinates\":[[-73.7213415,45.5716383],[-73.7211966,45.5714979]]}";4;Boulevard Industriel;1;50;false;true;true;false;false;false;20.0;2;0;0;0;0;false;42849;6269509311;-73.71471;45.575243;41922;6269509515;-73.72084;45.571038;0;52;53;9312778;Bus : 39 S - Direction Terminus Le Carrefour;"";STL;39S;Terminus Bienville;Terminus Le Carrefour
452095376;"{\"type\":\"LineString\",\"coordinates\":[[-73.7211966,45.5714979],[-73.7209012,45.571202]]}";5;Boulevard Laval;3;50;false;true;false;false;false;false;41.0;1;0;0;0;0;false;42849;6269509311;-73.71471;45.575243;41922;6269509515;-73.72084;45.571038;0;52;53;9312778;Bus : 39 S - Direction Terminus Le Carrefour;"";STL;39S;Terminus Bienville;Terminus Le Carrefour
37691522;"{\"type\":\"LineString\",\"coordinates\":[[-73.7209012,45.571202],[-73.7207547,45.5710175],[-73.7206138,45.570788],[-73.7205052,45.5705621],[-73.720425,45.5703095],[-73.7203946,45.5701616],[-73.7203287,45.5693743],[-73.7203035,45.5686366],[-73.7202589,45.5681809],[-73.7201796,45.5675736],[-73.7200851,45.567171],[-73.7198706,45.5667144],[-73.7195101,45.5662457],[-73.7190836,45.5657612],[-73.7185115,45.5651955],[-73.7180853,45.5647675],[-73.7173856,45.5641293]]}";6;Boulevard Laval;3;50;false;true;false;false;false;false;428.5;1;0;0;0;0;false;42849;6269509311;-73.71471;45.575243;41922;6269509515;-73.72084;45.571038;1;52;53;9312778;Bus : 39 S - Direction Terminus Le Carrefour;"";STL;39S;Terminus Bienville;Terminus Le Carrefour
452095376;"{\"type\":\"LineString\",\"coordinates\":[[-73.7211966,45.5714979],[-73.7209012,45.571202]]}";1;Boulevard Laval;3;50;false;true;false;false;false;false;41.0;1;0;0;0;0;false;41922;6269509515;-73.72084;45.571038;41920;6269509551;-73.72042;45.56977;2;53;54;9312778;Bus : 39 S - Direction Terminus Le Carrefour;"";STL;39S;Terminus Bienville;Terminus Le Carrefour
37691522;"{\"type\":\"LineString\",\"coordinates\":[[-73.7209012,45.571202],[-73.7207547,45.5710175],[-73.7206138,45.570788],[-73.7205052,45.5705621],[-73.720425,45.5703095],[-73.7203946,45.5701616],[-73.7203287,45.5693743],[-73.7203035,45.5686366],[-73.7202589,45.5681809],[-73.7201796,45.5675736],[-73.7200851,45.567171],[-73.7198706,45.5667144],[-73.7195101,45.5662457],[-73.7190836,45.5657612],[-73.7185115,45.5651955],[-73.7180853,45.5647675],[-73.7173856,45.5641293]]}";2;Boulevard Laval;3;50;false;true;false;false;false;false;857.0;1;0;0;0;0;false;41922;6269509515;-73.72084;45.571038;41920;6269509551;-73.72042;45.56977;2;53;54;9312778;Bus : 39 S - Direction Terminus Le Carrefour;"";STL;39S;Terminus Bienville;Terminus Le Carrefour
165090588;"{\"type\":\"LineString\",\"coordinates\":[[-73.7173856,45.5641293],[-73.7175252,45.564058],[-73.7182549,45.5637161],[-73.7190351,45.5633285],[-73.7196752,45.5629869],[-73.7203549,45.5627098],[-73.7203891,45.562698],[-73.7211787,45.5624216],[-73.7221512,45.5621209],[-73.722162,45.5621176],[-73.7222878,45.5620794]]}";1;Boulevard du Souvenir;3;50;false;true;true;false;false;false;223.5;1;0;0;0;0;false;43152;6269510229;-73.72071;45.562652;46444;6269510253;-73.7224;45.561218;1;58;59;9312778;Bus : 39 S - Direction Terminus Le Carrefour;"";STL;39S;Terminus Bienville;Terminus Le Carrefour
475237530;"{\"type\":\"LineString\",\"coordinates\":[[-73.7222878,45.5620794],[-73.7227201,45.561963]]}";2;Boulevard du Souvenir;3;50;false;true;true;false;false;false;37.0;1;0;0;0;0;false;43152;6269510229;-73.72071;45.562652;46444;6269510253;-73.7224;45.561218;0;58;59;9312778;Bus : 39 S - Direction Terminus Le Carrefour;"";STL;39S;Terminus Bienville;Terminus Le Carrefour
669709379;"{\"type\":\"LineString\",\"coordinates\":[[-73.7227201,45.561963],[-73.7228972,45.5619121]]}";3;Boulevard du Souvenir;3;50;false;true;true;false;false;false;15.0;2;0;0;0;0;false;43152;6269510229;-73.72071;45.562652;46444;6269510253;-73.7224;45.561218;0;58;59;9312778;Bus : 39 S - Direction Terminus Le Carrefour;"";STL;39S;Terminus Bienville;Terminus Le Carrefour
680430220;"{\"type\":\"LineString\",\"coordinates\":[[-73.7228972,45.5619121],[-73.722752,45.5617595]]}";4;Boulevard de l'Avenir;3;50;false;true;false;false;false;false;21.0;2;0;0;0;0;false;43152;6269510229;-73.72071;45.562652;46444;6269510253;-73.7224;45.561218;0;58;59;9312778;Bus : 39 S - Direction Terminus Le Carrefour;"";STL;39S;Terminus Bienville;Terminus Le Carrefour
29081985;"{\"type\":\"LineString\",\"coordinates\":[[-73.722752,45.5617595],[-73.7225279,45.561532],[-73.7214827,45.5604479],[-73.7211098,45.5600515],[-73.7210472,45.5599848],[-73.7205915,45.5595102]]}";5;Boulevard de l'Avenir;3;50;false;true;false;false;false;false;151.0;1;0;0;0;0;false;43152;6269510229;-73.72071;45.562652;46444;6269510253;-73.7224;45.561218;1;58;59;9312778;Bus : 39 S - Direction Terminus Le Carrefour;"";STL;39S;Terminus Bienville;Terminus Le Carrefour
29081985;"{\"type\":\"LineString\",\"coordinates\":[[-73.722752,45.5617595],[-73.7225279,45.561532],[-73.7214827,45.5604479],[-73.7211098,45.5600515],[-73.7210472,45.5599848],[-73.7205915,45.5595102]]}";1;Boulevard de l'Avenir;3;50;false;true;false;false;false;false;151.0;1;0;0;0;0;false;"46509;43507;46443";6269510304;-73.72082;45.559592;"48150;48139;48036";6269510330;-73.72062;45.558472;1;60;61;9312778;Bus : 39 S - Direction Terminus Le Carrefour;"";STL;39S;Terminus Bienville;Terminus Le Carrefour
680430220;"{\"type\":\"LineString\",\"coordinates\":[[-73.7228972,45.5619121],[-73.722752,45.5617595]]}";2;Boulevard de l'Avenir;3;50;false;true;false;false;false;false;21.0;2;0;0;0;0;false;"46509;43507;46443";6269510304;-73.72082;45.559592;"48150;48139;48036";6269510330;-73.72062;45.558472;0;60;61;9312778;Bus : 39 S - Direction Terminus Le Carrefour;"";STL;39S;Terminus Bienville;Terminus Le Carrefour
669709379;"{\"type\":\"LineString\",\"coordinates\":[[-73.7227201,45.561963],[-73.7228972,45.5619121]]}";3;Boulevard du Souvenir;3;50;false;true;true;false;false;false;15.0;2;0;0;0;0;false;"46509;43507;46443";6269510304;-73.72082;45.559592;"48150;48139;48036";6269510330;-73.72062;45.558472;0;60;61;9312778;Bus : 39 S - Direction Terminus Le Carrefour;"";STL;39S;Terminus Bienville;Terminus Le Carrefour
475237530;"{\"type\":\"LineString\",\"coordinates\":[[-73.7222878,45.5620794],[-73.7227201,45.561963]]}";4;Boulevard du Souvenir;3;50;false;true;true;false;false;false;37.0;1;0;0;0;0;false;"46509;43507;46443";6269510304;-73.72082;45.559592;"48150;48139;48036";6269510330;-73.72062;45.558472;0;60;61;9312778;Bus : 39 S - Direction Terminus Le Carrefour;"";STL;39S;Terminus Bienville;Terminus Le Carrefour
669709383;"{\"type\":\"LineString\",\"coordinates\":[[-73.7225737,45.5618077],[-73.7227201,45.561963]]}";5;Boulevard de l'Avenir;3;50;false;true;true;false;false;false;21.0;2;0;0;0;0;false;"46509;43507;46443";6269510304;-73.72082;45.559592;"48150;48139;48036";6269510330;-73.72062;45.558472;0;60;61;9312778;Bus : 39 S - Direction Terminus Le Carrefour;"";STL;39S;Terminus Bienville;Terminus Le Carrefour
475848924;"{\"type\":\"LineString\",\"coordinates\":[[-73.7204185,45.5595948],[-73.7210127,45.5602042],[-73.7212014,45.5603978],[-73.7213245,45.560524],[-73.7225737,45.5618077]]}";6;Boulevard de l'Avenir;3;50;false;true;true;false;false;false;298.0;1;0;0;0;0;false;"46509;43507;46443";6269510304;-73.72082;45.559592;"48150;48139;48036";6269510330;-73.72062;45.558472;0;60;61;9312778;Bus : 39 S - Direction Terminus Le Carrefour;"";STL;39S;Terminus Bienville;Terminus Le Carrefour
29081977;"{\"type\":\"LineString\",\"coordinates\":[[-73.7195653,45.558719],[-73.7196614,45.5588173],[-73.7199922,45.5591559],[-73.7204185,45.5595948]]}";7;Boulevard de l'Avenir;3;50;false;true;true;false;false;false;118.0;0;1;0;0;0;false;"46509;43507;46443";6269510304;-73.72082;45.559592;"48150;48139;48036";6269510330;-73.72062;45.558472;0;60;61;9312778;Bus : 39 S - Direction Terminus Le Carrefour;"";STL;39S;Terminus Bienville;Terminus Le Carrefour
292607262;"{\"type\":\"LineString\",\"coordinates\":[[-73.7195653,45.558719],[-73.7197703,45.558636]]}";8;"";1;50;false;false;true;false;false;false;19.0;0;0;0;0;0;false;"46509;43507;46443";6269510304;-73.72082;45.559592;"48150;48139;48036";6269510330;-73.72062;45.558472;0;60;61;9312778;Bus : 39 S - Direction Terminus Le Carrefour;"";STL;39S;Terminus Bienville;Terminus Le Carrefour
475848926;"{\"type\":\"LineString\",\"coordinates\":[[-73.7199464,45.5588146],[-73.719872,45.558742],[-73.7198603,45.5587298],[-73.7197703,45.558636]]}";9;Boulevard de l'Avenir;3;50;false;true;false;false;false;false;25.0;0;1;0;0;0;false;"46509;43507;46443";6269510304;-73.72082;45.559592;"48150;48139;48036";6269510330;-73.72062;45.558472;0;60;61;9312778;Bus : 39 S - Direction Terminus Le Carrefour;"";STL;39S;Terminus Bienville;Terminus Le Carrefour
673250003;"{\"type\":\"LineString\",\"coordinates\":[[-73.7200309,45.5584789],[-73.7198217,45.5586049],[-73.7197703,45.558636]]}";10;"";1;30;false;false;false;false;false;false;27.0;0;1;0;0;0;false;"46509;43507;46443";6269510304;-73.72082;45.559592;"48150;48139;48036";6269510330;-73.72062;45.558472;0;60;61;9312778;Bus : 39 S - Direction Terminus Le Carrefour;"";STL;39S;Terminus Bienville;Terminus Le Carrefour
673246437;"{\"type\":\"LineString\",\"coordinates\":[[-73.7200309,45.5584789],[-73.720124,45.5585758],[-73.7201474,45.5585648]]}";11;"";1;30;false;true;false;false;false;false;16.0;0;0;0;0;0;false;"46509;43507;46443";6269510304;-73.72082;45.559592;"48150;48139;48036";6269510330;-73.72062;45.558472;0;60;61;9312778;Bus : 39 S - Direction Terminus Le Carrefour;"";STL;39S;Terminus Bienville;Terminus Le Carrefour
624217210;"{\"type\":\"LineString\",\"coordinates\":[[-73.7201474,45.5585648],[-73.720206,45.5585372],[-73.7203325,45.5584776]]}";12;"";1;30;false;true;false;false;false;false;18.0;0;0;0;0;0;false;"46509;43507;46443";6269510304;-73.72082;45.559592;"48150;48139;48036";6269510330;-73.72062;45.558472;0;60;61;9312778;Bus : 39 S - Direction Terminus Le Carrefour;"";STL;39S;Terminus Bienville;Terminus Le Carrefour
673264013;"{\"type\":\"LineString\",\"coordinates\":[[-73.7203325,45.5584776],[-73.7205612,45.55837]]}";13;"";1;30;false;true;false;false;false;false;11.0;0;0;0;0;0;false;"46509;43507;46443";6269510304;-73.72082;45.559592;"48150;48139;48036";6269510330;-73.72062;45.558472;1;60;61;9312778;Bus : 39 S - Direction Terminus Le Carrefour;"";STL;39S;Terminus Bienville;Terminus Le Carrefour
673264014;"{\"type\":\"LineString\",\"coordinates\":[[-73.7205612,45.55837],[-73.7207712,45.5582711]]}";1;"";1;30;false;true;false;false;false;false;20.0;0;0;0;0;0;false;"48150;48139;48036";6269510330;-73.72062;45.558472;43343;6269510224;-73.72369;45.561728;2;61;62;9312778;Bus : 39 S - Direction Terminus Le Carrefour;"";STL;39S;Terminus Bienville;Terminus Le Carrefour
475848923;"{\"type\":\"LineString\",\"coordinates\":[[-73.7207712,45.5582711],[-73.7209137,45.558204]]}";2;"";1;30;false;true;true;false;false;false;14.0;0;0;0;0;0;false;"48150;48139;48036";6269510330;-73.72062;45.558472;43343;6269510224;-73.72369;45.561728;0;61;62;9312778;Bus : 39 S - Direction Terminus Le Carrefour;"";STL;39S;Terminus Bienville;Terminus Le Carrefour
673264015;"{\"type\":\"LineString\",\"coordinates\":[[-73.7209137,45.558204],[-73.7207353,45.5580182]]}";3;"";1;30;false;true;true;false;false;false;25.0;0;0;0;0;0;false;"48150;48139;48036";6269510330;-73.72062;45.558472;43343;6269510224;-73.72369;45.561728;0;61;62;9312778;Bus : 39 S - Direction Terminus Le Carrefour;"";STL;39S;Terminus Bienville;Terminus Le Carrefour
669689629;"{\"type\":\"LineString\",\"coordinates\":[[-73.7207353,45.5580182],[-73.720718,45.5580002],[-73.7204415,45.5581303]]}";4;"";1;30;false;true;true;false;false;false;29.0;0;0;0;0;0;false;"48150;48139;48036";6269510330;-73.72062;45.558472;43343;6269510224;-73.72369;45.561728;0;61;62;9312778;Bus : 39 S - Direction Terminus Le Carrefour;"";STL;39S;Terminus Bienville;Terminus Le Carrefour
669709387;"{\"type\":\"LineString\",\"coordinates\":[[-73.7204415,45.5581303],[-73.7202192,45.558235]]}";5;"";1;30;false;true;true;false;false;false;21.0;0;0;0;0;0;false;"48150;48139;48036";6269510330;-73.72062;45.558472;43343;6269510224;-73.72369;45.561728;0;61;62;9312778;Bus : 39 S - Direction Terminus Le Carrefour;"";STL;39S;Terminus Bienville;Terminus Le Carrefour
673264017;"{\"type\":\"LineString\",\"coordinates\":[[-73.7202192,45.558235],[-73.7200265,45.5583257]]}";6;"";1;30;false;true;true;false;false;false;19.0;0;0;0;0;0;false;"48150;48139;48036";6269510330;-73.72062;45.558472;43343;6269510224;-73.72369;45.561728;0;61;62;9312778;Bus : 39 S - Direction Terminus Le Carrefour;"";STL;39S;Terminus Bienville;Terminus Le Carrefour
669709385;"{\"type\":\"LineString\",\"coordinates\":[[-73.7200265,45.5583257],[-73.7199282,45.558372]]}";7;"";1;30;false;true;true;false;false;false;10.0;0;0;0;0;0;false;"48150;48139;48036";6269510330;-73.72062;45.558472;43343;6269510224;-73.72369;45.561728;0;61;62;9312778;Bus : 39 S - Direction Terminus Le Carrefour;"";STL;39S;Terminus Bienville;Terminus Le Carrefour
673250002;"{\"type\":\"LineString\",\"coordinates\":[[-73.7199282,45.558372],[-73.7200309,45.5584789]]}";8;"";1;30;false;true;false;false;false;false;15.0;0;0;0;0;0;false;"48150;48139;48036";6269510330;-73.72062;45.558472;43343;6269510224;-73.72369;45.561728;0;61;62;9312778;Bus : 39 S - Direction Terminus Le Carrefour;"";STL;39S;Terminus Bienville;Terminus Le Carrefour
673250003;"{\"type\":\"LineString\",\"coordinates\":[[-73.7200309,45.5584789],[-73.7198217,45.5586049],[-73.7197703,45.558636]]}";9;"";1;30;false;false;false;false;false;false;27.0;0;1;0;0;0;false;"48150;48139;48036";6269510330;-73.72062;45.558472;43343;6269510224;-73.72369;45.561728;0;61;62;9312778;Bus : 39 S - Direction Terminus Le Carrefour;"";STL;39S;Terminus Bienville;Terminus Le Carrefour
292607262;"{\"type\":\"LineString\",\"coordinates\":[[-73.7195653,45.558719],[-73.7197703,45.558636]]}";10;"";1;50;false;false;true;false;false;false;19.0;0;0;0;0;0;false;"48150;48139;48036";6269510330;-73.72062;45.558472;43343;6269510224;-73.72369;45.561728;0;61;62;9312778;Bus : 39 S - Direction Terminus Le Carrefour;"";STL;39S;Terminus Bienville;Terminus Le Carrefour
475848926;"{\"type\":\"LineString\",\"coordinates\":[[-73.7199464,45.5588146],[-73.719872,45.558742],[-73.7198603,45.5587298],[-73.7197703,45.558636]]}";11;Boulevard de l'Avenir;3;50;false;true;false;false;false;false;25.0;0;1;0;0;0;false;"48150;48139;48036";6269510330;-73.72062;45.558472;43343;6269510224;-73.72369;45.561728;0;61;62;9312778;Bus : 39 S - Direction Terminus Le Carrefour;"";STL;39S;Terminus Bienville;Terminus Le Carrefour
695738775;"{\"type\":\"LineString\",\"coordinates\":[[-73.7205915,45.5595102],[-73.7199464,45.5588146]]}";12;Boulevard de l'Avenir;3;50;false;true;false;false;false;false;93.0;0;0;0;0;0;false;"48150;48139;48036";6269510330;-73.72062;45.558472;43343;6269510224;-73.72369;45.561728;0;61;62;9312778;Bus : 39 S - Direction Terminus Le Carrefour;"";STL;39S;Terminus Bienville;Terminus Le Carrefour
29081985;"{\"type\":\"LineString\",\"coordinates\":[[-73.722752,45.5617595],[-73.7225279,45.561532],[-73.7214827,45.5604479],[-73.7211098,45.5600515],[-73.7210472,45.5599848],[-73.7205915,45.5595102]]}";13;Boulevard de l'Avenir;3;50;false;true;false;false;false;false;302.0;1;0;0;0;0;false;"48150;48139;48036";6269510330;-73.72062;45.558472;43343;6269510224;-73.72369;45.561728;0;61;62;9312778;Bus : 39 S - Direction Terminus Le Carrefour;"";STL;39S;Terminus Bienville;Terminus Le Carrefour
680430220;"{\"type\":\"LineString\",\"coordinates\":[[-73.7228972,45.5619121],[-73.722752,45.5617595]]}";14;Boulevard de l'Avenir;3;50;false;true;false;false;false;false;21.0;2;0;0;0;0;false;"48150;48139;48036";6269510330;-73.72062;45.558472;43343;6269510224;-73.72369;45.561728;0;61;62;9312778;Bus : 39 S - Direction Terminus Le Carrefour;"";STL;39S;Terminus Bienville;Terminus Le Carrefour
29155370;"{\"type\":\"LineString\",\"coordinates\":[[-73.7228972,45.5619121],[-73.7235527,45.5617088],[-73.7240778,45.5615486],[-73.7242731,45.561489],[-73.7254238,45.5611379],[-73.7256335,45.561069]]}";15;Boulevard du Souvenir;3;50;false;true;true;false;false;false;234.0;1;0;0;0;0;false;"48150;48139;48036";6269510330;-73.72062;45.558472;43343;6269510224;-73.72369;45.561728;2;61;62;9312778;Bus : 39 S - Direction Terminus Le Carrefour;"";STL;39S;Terminus Bienville;Terminus Le Carrefour
29155370;"{\"type\":\"LineString\",\"coordinates\":[[-73.7228972,45.5619121],[-73.7235527,45.5617088],[-73.7240778,45.5615486],[-73.7242731,45.561489],[-73.7254238,45.5611379],[-73.7256335,45.561069]]}";1;Boulevard du Souvenir;3;50;false;true;true;false;false;false;117.0;1;0;0;0;0;false;43343;6269510224;-73.72369;45.561728;43146;6269510272;-73.72619;45.560951;1;62;63;9312778;Bus : 39 S - Direction Terminus Le Carrefour;"";STL;39S;Terminus Bienville;Terminus Le Carrefour
475237533;"{\"type\":\"LineString\",\"coordinates\":[[-73.7256335,45.561069],[-73.7270604,45.5605708]]}";2;Boulevard du Souvenir;3;50;false;true;true;false;false;false;62.5;1;0;0;0;0;false;43343;6269510224;-73.72369;45.561728;43146;6269510272;-73.72619;45.560951;1;62;63;9312778;Bus : 39 S - Direction Terminus Le Carrefour;"";STL;39S;Terminus Bienville;Terminus Le Carrefour
475237533;"{\"type\":\"LineString\",\"coordinates\":[[-73.7256335,45.561069],[-73.7270604,45.5605708]]}";1;Boulevard du Souvenir;3;50;false;true;true;false;false;false;62.5;1;0;0;0;0;false;43146;6269510272;-73.72619;45.560951;41957;6269510226;-73.72908;45.562299;1;63;64;9312778;Bus : 39 S - Direction Terminus Le Carrefour;"";STL;39S;Terminus Bienville;Terminus Le Carrefour
673264011;"{\"type\":\"LineString\",\"coordinates\":[[-73.7270604,45.5605708],[-73.7271245,45.5605454]]}";2;Boulevard du Souvenir;3;50;false;true;true;false;false;false;6.0;1;0;0;0;0;false;43146;6269510272;-73.72619;45.560951;41957;6269510226;-73.72908;45.562299;0;63;64;9312778;Bus : 39 S - Direction Terminus Le Carrefour;"";STL;39S;Terminus Bienville;Terminus Le Carrefour
672433263;"{\"type\":\"LineString\",\"coordinates\":[[-73.7271245,45.5605454],[-73.7273615,45.5607671],[-73.7274278,45.5608101],[-73.7275097,45.560869],[-73.7288457,45.5620823],[-73.7311728,45.5641376],[-73.7324492,45.5653114],[-73.7325997,45.5654018]]}";3;Voie réservée - boulevard Le Corbusier;1;50;false;true;true;false;true;false;344.5;0;0;0;0;0;false;43146;6269510272;-73.72619;45.560951;41957;6269510226;-73.72908;45.562299;1;63;64;9312778;Bus : 39 S - Direction Terminus Le Carrefour;"";STL;39S;Terminus Bienville;Terminus Le Carrefour
672433263;"{\"type\":\"LineString\",\"coordinates\":[[-73.7271245,45.5605454],[-73.7273615,45.5607671],[-73.7274278,45.5608101],[-73.7275097,45.560869],[-73.7288457,45.5620823],[-73.7311728,45.5641376],[-73.7324492,45.5653114],[-73.7325997,45.5654018]]}";1;Voie réservée - boulevard Le Corbusier;1;50;false;true;true;false;true;false;344.5;0;0;0;0;0;false;41952;6269510189;-73.73143;45.564352;41942;6269509996;-73.73452;45.567098;1;65;66;9312778;Bus : 39 S - Direction Terminus Le Carrefour;"";STL;39S;Terminus Bienville;Terminus Le Carrefour
679314341;"{\"type\":\"LineString\",\"coordinates\":[[-73.7325997,45.5654018],[-73.7338863,45.5665063],[-73.7343941,45.5669377],[-73.7348605,45.5673423],[-73.7350629,45.5675728]]}";2;Voie réservée - boulevard Le Corbusier;1;50;false;true;true;false;true;false;154.5;0;0;0;0;0;false;41952;6269510189;-73.73143;45.564352;41942;6269509996;-73.73452;45.567098;1;65;66;9312778;Bus : 39 S - Direction Terminus Le Carrefour;"";STL;39S;Terminus Bienville;Terminus Le Carrefour
679314341;"{\"type\":\"LineString\",\"coordinates\":[[-73.7325997,45.5654018],[-73.7338863,45.5665063],[-73.7343941,45.5669377],[-73.7348605,45.5673423],[-73.7350629,45.5675728]]}";1;Voie réservée - boulevard Le Corbusier;1;50;false;true;true;false;true;false;154.5;0;0;0;0;0;false;41942;6269509996;-73.73452;45.567098;41965;6269509534;-73.73817;45.570131;1;66;67;9312778;Bus : 39 S - Direction Terminus Le Carrefour;"";STL;39S;Terminus Bienville;Terminus Le Carrefour
45755903;"{\"type\":\"LineString\",\"coordinates\":[[-73.7350629,45.5675728],[-73.7354327,45.567807],[-73.7359482,45.5681334],[-73.7362641,45.5683683],[-73.7364145,45.5684806],[-73.7383828,45.5702326]]}";2;Boulevard Le Corbusier;2;60;false;true;false;false;false;false;197.0;1;0;0;0;0;false;41942;6269509996;-73.73452;45.567098;41965;6269509534;-73.73817;45.570131;1;66;67;9312778;Bus : 39 S - Direction Terminus Le Carrefour;"";STL;39S;Terminus Bienville;Terminus Le Carrefour
45755903;"{\"type\":\"LineString\",\"coordinates\":[[-73.7350629,45.5675728],[-73.7354327,45.567807],[-73.7359482,45.5681334],[-73.7362641,45.5683683],[-73.7364145,45.5684806],[-73.7383828,45.5702326]]}";1;Boulevard Le Corbusier;2;60;false;true;false;false;false;false;197.0;1;0;0;0;0;false;41965;6269509534;-73.73817;45.570131;"41018;41932";6269509381;-73.74198;45.572102;1;67;68;9312778;Bus : 39 S - Direction Terminus Le Carrefour;"";STL;39S;Terminus Bienville;Terminus Le Carrefour
45755730;"{\"type\":\"LineString\",\"coordinates\":[[-73.7383828,45.5702326],[-73.7391621,45.5709218],[-73.7401317,45.5717803],[-73.740957,45.5725111]]}";2;Boulevard Le Corbusier;2;60;false;true;false;false;false;false;324.0;2;0;0;0;0;false;41965;6269509534;-73.73817;45.570131;"41018;41932";6269509381;-73.74198;45.572102;0;67;68;9312778;Bus : 39 S - Direction Terminus Le Carrefour;"";STL;39S;Terminus Bienville;Terminus Le Carrefour
678350784;"{\"type\":\"LineString\",\"coordinates\":[[-73.740957,45.5725111],[-73.7410251,45.5725718]]}";3;Boulevard Le Corbusier;2;60;false;true;false;false;false;false;9.0;2;0;0;0;0;false;41965;6269509534;-73.73817;45.570131;"41018;41932";6269509381;-73.74198;45.572102;0;67;68;9312778;Bus : 39 S - Direction Terminus Le Carrefour;"";STL;39S;Terminus Bienville;Terminus Le Carrefour
455474953;"{\"type\":\"LineString\",\"coordinates\":[[-73.7410251,45.5725718],[-73.7411952,45.572484]]}";4;Boulevard Le Carrefour;1;50;false;true;false;false;false;false;17.0;2;0;0;0;0;false;41965;6269509534;-73.73817;45.570131;"41018;41932";6269509381;-73.74198;45.572102;0;67;68;9312778;Bus : 39 S - Direction Terminus Le Carrefour;"";STL;39S;Terminus Bienville;Terminus Le Carrefour
455474952;"{\"type\":\"LineString\",\"coordinates\":[[-73.7411952,45.572484],[-73.7413653,45.5723882]]}";5;Boulevard Le Carrefour;1;50;false;true;false;false;false;false;18.0;1;0;0;0;0;false;41965;6269509534;-73.73817;45.570131;"41018;41932";6269509381;-73.74198;45.572102;0;67;68;9312778;Bus : 39 S - Direction Terminus Le Carrefour;"";STL;39S;Terminus Bienville;Terminus Le Carrefour
165086150;"{\"type\":\"LineString\",\"coordinates\":[[-73.7413653,45.5723882],[-73.7414679,45.5723304],[-73.7430271,45.5714652],[-73.7435379,45.5712004],[-73.7438052,45.5710788],[-73.7441104,45.5709491],[-73.7444843,45.5708292]]}";6;Boulevard Le Carrefour;1;50;false;true;false;false;false;false;150.0;0;0;0;0;0;false;41965;6269509534;-73.73817;45.570131;"41018;41932";6269509381;-73.74198;45.572102;1;67;68;9312778;Bus : 39 S - Direction Terminus Le Carrefour;"";STL;39S;Terminus Bienville;Terminus Le Carrefour
165086150;"{\"type\":\"LineString\",\"coordinates\":[[-73.7413653,45.5723882],[-73.7414679,45.5723304],[-73.7430271,45.5714652],[-73.7435379,45.5712004],[-73.7438052,45.5710788],[-73.7441104,45.5709491],[-73.7444843,45.5708292]]}";1;Boulevard Le Carrefour;1;50;false;true;false;false;false;false;150.0;0;0;0;0;0;false;"41018;41932";6269509381;-73.74198;45.572102;"44150;44360;44039";6269509575;-73.7484;45.568901;1;68;69;9312778;Bus : 39 S - Direction Terminus Le Carrefour;"";STL;39S;Terminus Bienville;Terminus Le Carrefour
38192513;"{\"type\":\"LineString\",\"coordinates\":[[-73.7444843,45.5708292],[-73.7461679,45.5701988]]}";2;Boulevard Le Carrefour;1;50;false;true;false;false;false;false;149.0;0;0;0;0;0;false;"41018;41932";6269509381;-73.74198;45.572102;"44150;44360;44039";6269509575;-73.7484;45.568901;0;68;69;9312778;Bus : 39 S - Direction Terminus Le Carrefour;"";STL;39S;Terminus Bienville;Terminus Le Carrefour
678350783;"{\"type\":\"LineString\",\"coordinates\":[[-73.7461679,45.5701988],[-73.7474876,45.5696846],[-73.7480831,45.5694338]]}";3;Boulevard Le Carrefour;3;50;false;true;false;false;false;false;172.0;1;0;0;0;0;false;"41018;41932";6269509381;-73.74198;45.572102;"44150;44360;44039";6269509575;-73.7484;45.568901;0;68;69;9312778;Bus : 39 S - Direction Terminus Le Carrefour;"";STL;39S;Terminus Bienville;Terminus Le Carrefour
678350782;"{\"type\":\"LineString\",\"coordinates\":[[-73.7480831,45.5694338],[-73.7482256,45.5693738]]}";4;Boulevard Le Carrefour;3;50;false;true;false;false;false;false;13.0;2;0;0;0;0;false;"41018;41932";6269509381;-73.74198;45.572102;"44150;44360;44039";6269509575;-73.7484;45.568901;0;68;69;9312778;Bus : 39 S - Direction Terminus Le Carrefour;"";STL;39S;Terminus Bienville;Terminus Le Carrefour
678350781;"{\"type\":\"LineString\",\"coordinates\":[[-73.7482256,45.5693738],[-73.7480536,45.5693169]]}";5;"";1;50;false;true;false;false;false;false;15.0;2;0;0;0;0;false;"41018;41932";6269509381;-73.74198;45.572102;"44150;44360;44039";6269509575;-73.7484;45.568901;0;68;69;9312778;Bus : 39 S - Direction Terminus Le Carrefour;"";STL;39S;Terminus Bienville;Terminus Le Carrefour
45760900;"{\"type\":\"LineString\",\"coordinates\":[[-73.7480536,45.5693169],[-73.7477738,45.569102],[-73.7477012,45.5690397],[-73.7476345,45.569001],[-73.747466,45.5689034],[-73.7473901,45.5688594],[-73.7472267,45.5687802],[-73.7470932,45.5687155]]}";6;Avenue Terry Fox;2;50;false;false;false;false;false;false;101.0;1;0;0;0;0;false;"41018;41932";6269509381;-73.74198;45.572102;"44150;44360;44039";6269509575;-73.7484;45.568901;0;68;69;9312778;Bus : 39 S - Direction Terminus Le Carrefour;"";STL;39S;Terminus Bienville;Terminus Le Carrefour
662152608;"{\"type\":\"LineString\",\"coordinates\":[[-73.7475508,45.5684635],[-73.7470932,45.5687155]]}";7;"";1;50;false;false;true;false;false;false;46.0;0;0;0;0;0;false;"41018;41932";6269509381;-73.74198;45.572102;"44150;44360;44039";6269509575;-73.7484;45.568901;0;68;69;9312778;Bus : 39 S - Direction Terminus Le Carrefour;"";STL;39S;Terminus Bienville;Terminus Le Carrefour
694409796;"{\"type\":\"LineString\",\"coordinates\":[[-73.7475508,45.5684635],[-73.7478552,45.5687373]]}";8;"";1;50;false;true;true;false;false;false;39.0;0;0;0;0;0;false;"41018;41932";6269509381;-73.74198;45.572102;"44150;44360;44039";6269509575;-73.7484;45.568901;0;68;69;9312778;Bus : 39 S - Direction Terminus Le Carrefour;"";STL;39S;Terminus Bienville;Terminus Le Carrefour
695760828;"{\"type\":\"LineString\",\"coordinates\":[[-73.7478552,45.5687373],[-73.7480061,45.5688715]]}";9;"";1;50;false;true;true;false;false;false;19.0;0;0;0;0;0;false;"41018;41932";6269509381;-73.74198;45.572102;"44150;44360;44039";6269509575;-73.7484;45.568901;0;68;69;9312778;Bus : 39 S - Direction Terminus Le Carrefour;"";STL;39S;Terminus Bienville;Terminus Le Carrefour
292376886;"{\"type\":\"LineString\",\"coordinates\":[[-73.7480061,45.5688715],[-73.7480552,45.5689096],[-73.7481617,45.5689162],[-73.7483174,45.5688443]]}";10;"";1;50;false;true;true;false;false;false;29.0;0;0;0;0;0;false;"41018;41932";6269509381;-73.74198;45.572102;"44150;44360;44039";6269509575;-73.7484;45.568901;1;68;69;9312778;Bus : 39 S - Direction Terminus Le Carrefour;"";STL;39S;Terminus Bienville;Terminus Le Carrefour
