way_id;shape;index;name;nb_lanes;legal_speed;speed_zone_30;oneway;shares_bike;bike_box;bus_lane;dedicated_bus_lane;length;nb_traffic_signals;nb_crossings;nb_stops;nb_give_ways;nb_lvl_crossings;roundabout;stop_id_orig;node_id_orig;coord_x_orig;coord_y_orig;stop_id_dest;node_id_dest;coord_x_dest;coord_y_dest;nb_neighbouring_ways_bus_stop;order_orig;order_dest;id_line;line_name;colour;operator;ref;from;to
529166763;"{\"type\":\"LineString\",\"coordinates\":[[-6.2573026,53.3488011],[-6.2568531,53.3488627],[-6.2562678,53.3489597]]}";1;Abbey Street Lower;1;30;false;true;true;false;false;false;72.0;0;0;0;0;0;false;293;3248525108;-6.2571119;53.3488673;496;3255990355;-6.252168;53.3494649;1;0;1;4433091;130 - Abbey St - Castle Avenue;"";Dublin Bus;130;Abbey Street;Castle Avenue
37692490;"{\"type\":\"LineString\",\"coordinates\":[[-6.2562678,53.3489597],[-6.256031,53.3489989],[-6.2551265,53.349161],[-6.2550636,53.3491732],[-6.2549396,53.3491973]]}";2;Abbey Street Lower;1;30;false;true;true;false;false;false;93.0;1;1;0;0;0;false;293;3248525108;-6.2571119;53.3488673;496;3255990355;-6.252168;53.3494649;0;0;1;4433091;130 - Abbey St - Castle Avenue;"";Dublin Bus;130;Abbey Street;Castle Avenue
37692492;"{\"type\":\"LineString\",\"coordinates\":[[-6.2549396,53.3491973],[-6.2547817,53.349196],[-6.2547325,53.3491959],[-6.2546639,53.3491951],[-6.2544556,53.3491884],[-6.254395,53.349195]]}";3;Beresford Place;1;50;false;true;true;false;false;false;37.0;0;0;0;0;0;false;293;3248525108;-6.2571119;53.3488673;496;3255990355;-6.252168;53.3494649;0;0;1;4433091;130 - Abbey St - Castle Avenue;"";Dublin Bus;130;Abbey Street;Castle Avenue
474506101;"{\"type\":\"LineString\",\"coordinates\":[[-6.254395,53.349195],[-6.2538579,53.3493391],[-6.2535621,53.3493945],[-6.2534785,53.3494054],[-6.2533276,53.3494209]]}";4;Beresford Place;2;50;false;true;true;false;false;false;77.0;0;0;0;0;0;false;293;3248525108;-6.2571119;53.3488673;496;3255990355;-6.252168;53.3494649;0;0;1;4433091;130 - Abbey St - Castle Avenue;"";Dublin Bus;130;Abbey Street;Castle Avenue
83806415;"{\"type\":\"LineString\",\"coordinates\":[[-6.2533276,53.3494209],[-6.2532096,53.3494338],[-6.252925,53.3494562],[-6.2526505,53.3494455]]}";5;Beresford Place;4;50;false;true;true;false;false;false;46.0;0;0;0;0;0;false;293;3248525108;-6.2571119;53.3488673;496;3255990355;-6.252168;53.3494649;0;0;1;4433091;130 - Abbey St - Castle Avenue;"";Dublin Bus;130;Abbey Street;Castle Avenue
49961185;"{\"type\":\"LineString\",\"coordinates\":[[-6.2526505,53.3494455],[-6.2523082,53.3493942]]}";6;Memorial Road;4;50;false;true;true;false;false;false;24.0;0;0;0;0;0;false;293;3248525108;-6.2571119;53.3488673;496;3255990355;-6.252168;53.3494649;0;0;1;4433091;130 - Abbey St - Castle Avenue;"";Dublin Bus;130;Abbey Street;Castle Avenue
114207515;"{\"type\":\"LineString\",\"coordinates\":[[-6.2523082,53.3493942],[-6.2522257,53.3493837],[-6.2520191,53.3493614],[-6.2517991,53.3493568],[-6.2516364,53.3493856],[-6.2514792,53.3494368]]}";7;Amiens Street;2;50;false;true;true;false;false;false;29.0;0;1;0;0;0;false;293;3248525108;-6.2571119;53.3488673;496;3255990355;-6.252168;53.3494649;1;0;1;4433091;130 - Abbey St - Castle Avenue;"";Dublin Bus;130;Abbey Street;Castle Avenue
49961185;"{\"type\":\"LineString\",\"coordinates\":[[-6.2526505,53.3494455],[-6.2523082,53.3493942]]}";1;Memorial Road;4;50;false;true;true;false;false;false;24.0;0;0;0;0;0;false;496;3255990355;-6.252168;53.3494649;497;249429127;-6.250723;53.3504995;2;1;2;4433091;130 - Abbey St - Castle Avenue;"";Dublin Bus;130;Abbey Street;Castle Avenue
114207515;"{\"type\":\"LineString\",\"coordinates\":[[-6.2523082,53.3493942],[-6.2522257,53.3493837],[-6.2520191,53.3493614],[-6.2517991,53.3493568],[-6.2516364,53.3493856],[-6.2514792,53.3494368]]}";2;Amiens Street;2;50;false;true;true;false;false;false;58.0;0;1;0;0;0;false;496;3255990355;-6.252168;53.3494649;497;249429127;-6.250723;53.3504995;0;1;2;4433091;130 - Abbey St - Castle Avenue;"";Dublin Bus;130;Abbey Street;Castle Avenue
4385840;"{\"type\":\"LineString\",\"coordinates\":[[-6.2509814,53.3498562],[-6.2510383,53.3497894],[-6.2510776,53.3497433],[-6.2511441,53.3496709],[-6.2514792,53.3494368]]}";3;Amiens Street;5;50;false;false;true;false;false;false;58.0;1;0;0;0;0;false;496;3255990355;-6.252168;53.3494649;497;249429127;-6.250723;53.3504995;0;1;2;4433091;130 - Abbey St - Castle Avenue;"";Dublin Bus;130;Abbey Street;Castle Avenue
4263427;"{\"type\":\"LineString\",\"coordinates\":[[-6.2509814,53.3498562],[-6.250932,53.3499211],[-6.2509252,53.3499319],[-6.2509193,53.3499412],[-6.2508963,53.3499778],[-6.2508905,53.349988],[-6.2508232,53.3501058],[-6.2507515,53.3502263],[-6.250693,53.3503237],[-6.2506765,53.3503501],[-6.2506075,53.3504606],[-6.2505976,53.3504764]]}";4;Amiens Street;4;50;false;false;true;false;false;false;75.0;1;0;0;0;0;false;496;3255990355;-6.252168;53.3494649;497;249429127;-6.250723;53.3504995;2;1;2;4433091;130 - Abbey St - Castle Avenue;"";Dublin Bus;130;Abbey Street;Castle Avenue
627577866;"{\"type\":\"LineString\",\"coordinates\":[[-6.2505976,53.3504764],[-6.2505313,53.3505804],[-6.2504947,53.3506378],[-6.2502891,53.3509732],[-6.250277,53.350993],[-6.2501154,53.3512846],[-6.2500678,53.3513705]]}";1;Amiens Street;4;50;false;false;true;false;false;false;107.0;1;1;0;0;0;false;497;249429127;-6.250723;53.3504995;515;249429116;-6.2481829;53.3534668;2;2;3;4433091;130 - Abbey St - Castle Avenue;"";Dublin Bus;130;Abbey Street;Castle Avenue
37865178;"{\"type\":\"LineString\",\"coordinates\":[[-6.2500678,53.3513705],[-6.2500118,53.3514696],[-6.2498406,53.3517174],[-6.2497435,53.3518457]]}";2;Amiens Street;5;50;false;false;true;false;false;false;58.0;1;0;0;0;0;false;497;249429127;-6.250723;53.3504995;515;249429116;-6.2481829;53.3534668;0;2;3;4433091;130 - Abbey St - Castle Avenue;"";Dublin Bus;130;Abbey Street;Castle Avenue
37865179;"{\"type\":\"LineString\",\"coordinates\":[[-6.2497435,53.3518457],[-6.2497261,53.351872],[-6.2494985,53.3521529]]}";3;Amiens Street;4;50;false;false;true;false;false;false;39.0;0;0;0;0;0;false;497;249429127;-6.250723;53.3504995;515;249429116;-6.2481829;53.3534668;0;2;3;4433091;130 - Abbey St - Castle Avenue;"";Dublin Bus;130;Abbey Street;Castle Avenue
37865180;"{\"type\":\"LineString\",\"coordinates\":[[-6.2494985,53.3521529],[-6.249236,53.3524035],[-6.2489537,53.3526565],[-6.2488824,53.3527225]]}";4;Amiens Street;3;50;false;false;true;false;false;false;77.0;0;1;0;0;0;false;497;249429127;-6.250723;53.3504995;515;249429116;-6.2481829;53.3534668;0;2;3;4433091;130 - Abbey St - Castle Avenue;"";Dublin Bus;130;Abbey Street;Castle Avenue
520012242;"{\"type\":\"LineString\",\"coordinates\":[[-6.2488824,53.3527225],[-6.2487534,53.3528355],[-6.2486188,53.3529497]]}";5;Amiens Street;3;50;false;false;true;false;false;false;31.0;0;0;0;0;0;false;497;249429127;-6.250723;53.3504995;515;249429116;-6.2481829;53.3534668;0;2;3;4433091;130 - Abbey St - Castle Avenue;"";Dublin Bus;130;Abbey Street;Castle Avenue
354359922;"{\"type\":\"LineString\",\"coordinates\":[[-6.2486188,53.3529497],[-6.2482417,53.3532579]]}";6;Amiens Street;3;50;false;false;true;false;false;false;43.0;0;0;0;0;0;false;497;249429127;-6.250723;53.3504995;515;249429116;-6.2481829;53.3534668;0;2;3;4433091;130 - Abbey St - Castle Avenue;"";Dublin Bus;130;Abbey Street;Castle Avenue
354359921;"{\"type\":\"LineString\",\"coordinates\":[[-6.2482417,53.3532579],[-6.2480663,53.3534157],[-6.2479425,53.3535212],[-6.2477435,53.3537091],[-6.2476425,53.3538045],[-6.2474421,53.3539932],[-6.2467814,53.3546178],[-6.2466832,53.3547073]]}";7;Amiens Street;4;50;false;false;true;false;false;false;194.0;1;0;0;0;0;false;497;249429127;-6.250723;53.3504995;515;249429116;-6.2481829;53.3534668;2;2;3;4433091;130 - Abbey St - Castle Avenue;"";Dublin Bus;130;Abbey Street;Castle Avenue
354359921;"{\"type\":\"LineString\",\"coordinates\":[[-6.2482417,53.3532579],[-6.2480663,53.3534157],[-6.2479425,53.3535212],[-6.2477435,53.3537091],[-6.2476425,53.3538045],[-6.2474421,53.3539932],[-6.2467814,53.3546178],[-6.2466832,53.3547073]]}";1;Amiens Street;4;50;false;false;true;false;false;false;97.0;1;0;0;0;0;false;515;249429116;-6.2481829;53.3534668;516;3477753537;-6.2457032;53.3556769;1;3;4;4433091;130 - Abbey St - Castle Avenue;"";Dublin Bus;130;Abbey Street;Castle Avenue
130277328;"{\"type\":\"LineString\",\"coordinates\":[[-6.2466832,53.3547073],[-6.2464207,53.3549463],[-6.246288,53.3550671]]}";2;North Strand Road;4;50;false;false;true;false;false;false;49.0;1;0;0;0;0;false;515;249429116;-6.2481829;53.3534668;516;3477753537;-6.2457032;53.3556769;0;3;4;4433091;130 - Abbey St - Castle Avenue;"";Dublin Bus;130;Abbey Street;Castle Avenue
37866821;"{\"type\":\"LineString\",\"coordinates\":[[-6.246288,53.3550671],[-6.2461724,53.355154],[-6.2455796,53.3555999],[-6.2454208,53.3557193],[-6.2451039,53.3559576]]}";3;North Strand Road;4;50;false;false;true;false;false;false;64.0;0;0;0;0;0;false;515;249429116;-6.2481829;53.3534668;516;3477753537;-6.2457032;53.3556769;1;3;4;4433091;130 - Abbey St - Castle Avenue;"";Dublin Bus;130;Abbey Street;Castle Avenue
37866821;"{\"type\":\"LineString\",\"coordinates\":[[-6.246288,53.3550671],[-6.2461724,53.355154],[-6.2455796,53.3555999],[-6.2454208,53.3557193],[-6.2451039,53.3559576]]}";1;North Strand Road;4;50;false;false;true;false;false;false;64.0;0;0;0;0;0;false;516;3477753537;-6.2457032;53.3556769;4384;249428137;-6.2426969;53.3576664;1;4;5;4433091;130 - Abbey St - Castle Avenue;"";Dublin Bus;130;Abbey Street;Castle Avenue
37720965;"{\"type\":\"LineString\",\"coordinates\":[[-6.2451039,53.3559576],[-6.2448331,53.3561421],[-6.2446829,53.3562416],[-6.244431,53.3564115]]}";2;North Strand Road;4;50;false;false;true;false;false;false;68.0;0;0;0;0;0;false;516;3477753537;-6.2457032;53.3556769;4384;249428137;-6.2426969;53.3576664;0;4;5;4433091;130 - Abbey St - Castle Avenue;"";Dublin Bus;130;Abbey Street;Castle Avenue
502143950;"{\"type\":\"LineString\",\"coordinates\":[[-6.244431,53.3564115],[-6.2443719,53.3564514]]}";3;North Strand Road;4;50;false;false;true;false;false;false;6.0;0;0;0;0;0;false;516;3477753537;-6.2457032;53.3556769;4384;249428137;-6.2426969;53.3576664;0;4;5;4433091;130 - Abbey St - Castle Avenue;"";Dublin Bus;130;Abbey Street;Castle Avenue
317219095;"{\"type\":\"LineString\",\"coordinates\":[[-6.2442572,53.356529],[-6.2443719,53.3564514]]}";4;Newcomen Bridge;4;50;false;false;true;false;false;false;12.0;0;0;0;0;0;false;516;3477753537;-6.2457032;53.3556769;4384;249428137;-6.2426969;53.3576664;0;4;5;4433091;130 - Abbey St - Castle Avenue;"";Dublin Bus;130;Abbey Street;Castle Avenue
482926564;"{\"type\":\"LineString\",\"coordinates\":[[-6.2442545,53.3565305],[-6.2442572,53.356529]]}";5;North Strand Road;4;50;false;false;true;false;false;false;1.0;0;0;0;0;0;false;516;3477753537;-6.2457032;53.3556769;4384;249428137;-6.2426969;53.3576664;0;4;5;4433091;130 - Abbey St - Castle Avenue;"";Dublin Bus;130;Abbey Street;Castle Avenue
128947808;"{\"type\":\"LineString\",\"coordinates\":[[-6.2440112,53.3566966],[-6.2441549,53.3565972],[-6.2442545,53.3565305]]}";6;North Strand Road;4;50;false;false;true;false;false;false;25.0;0;0;0;0;0;false;516;3477753537;-6.2457032;53.3556769;4384;249428137;-6.2426969;53.3576664;0;4;5;4433091;130 - Abbey St - Castle Avenue;"";Dublin Bus;130;Abbey Street;Castle Avenue
4287187;"{\"type\":\"LineString\",\"coordinates\":[[-6.2440112,53.3566966],[-6.2439907,53.3567109],[-6.2439701,53.3567252],[-6.2438134,53.3568295],[-6.2433013,53.3571552],[-6.2428201,53.3574756],[-6.2427373,53.3575342],[-6.2426136,53.3576186],[-6.242318,53.3578072],[-6.242179,53.3578988],[-6.2420588,53.3579854],[-6.2416794,53.3582301],[-6.2411525,53.3586229]]}";7;North Strand Road;4;50;false;false;true;false;false;false;144.5;1;0;0;0;0;false;516;3477753537;-6.2457032;53.3556769;4384;249428137;-6.2426969;53.3576664;1;4;5;4433091;130 - Abbey St - Castle Avenue;"";Dublin Bus;130;Abbey Street;Castle Avenue
4287187;"{\"type\":\"LineString\",\"coordinates\":[[-6.2440112,53.3566966],[-6.2439907,53.3567109],[-6.2439701,53.3567252],[-6.2438134,53.3568295],[-6.2433013,53.3571552],[-6.2428201,53.3574756],[-6.2427373,53.3575342],[-6.2426136,53.3576186],[-6.242318,53.3578072],[-6.242179,53.3578988],[-6.2420588,53.3579854],[-6.2416794,53.3582301],[-6.2411525,53.3586229]]}";1;North Strand Road;4;50;false;false;true;false;false;false;144.5;1;0;0;0;0;false;4384;249428137;-6.2426969;53.3576664;519;249455004;-6.2395616;53.3602981;1;5;6;4433091;130 - Abbey St - Castle Avenue;"";Dublin Bus;130;Abbey Street;Castle Avenue
375581291;"{\"type\":\"LineString\",\"coordinates\":[[-6.2411525,53.3586229],[-6.2410033,53.3587408],[-6.2407429,53.3589741],[-6.2406104,53.3591044]]}";2;North Strand Road;4;50;false;false;true;false;false;false;66.0;0;0;0;0;0;false;4384;249428137;-6.2426969;53.3576664;519;249455004;-6.2395616;53.3602981;0;5;6;4433091;130 - Abbey St - Castle Avenue;"";Dublin Bus;130;Abbey Street;Castle Avenue
375581292;"{\"type\":\"LineString\",\"coordinates\":[[-6.2406104,53.3591044],[-6.2405626,53.3591582],[-6.2403848,53.3593319]]}";3;North Strand Road;4;50;false;false;true;false;false;false;30.0;0;0;0;0;0;false;4384;249428137;-6.2426969;53.3576664;519;249455004;-6.2395616;53.3602981;0;5;6;4433091;130 - Abbey St - Castle Avenue;"";Dublin Bus;130;Abbey Street;Castle Avenue
481221022;"{\"type\":\"LineString\",\"coordinates\":[[-6.2403848,53.3593319],[-6.2402921,53.3594225]]}";4;North Strand Road;4;50;false;false;true;false;false;false;12.0;1;0;0;0;0;false;4384;249428137;-6.2426969;53.3576664;519;249455004;-6.2395616;53.3602981;0;5;6;4433091;130 - Abbey St - Castle Avenue;"";Dublin Bus;130;Abbey Street;Castle Avenue
37691265;"{\"type\":\"LineString\",\"coordinates\":[[-6.2402921,53.3594225],[-6.2401285,53.3595559],[-6.2399931,53.3596662]]}";5;North Strand Road;1;50;false;false;true;false;false;false;34.0;1;1;0;0;0;false;4384;249428137;-6.2426969;53.3576664;519;249455004;-6.2395616;53.3602981;0;5;6;4433091;130 - Abbey St - Castle Avenue;"";Dublin Bus;130;Abbey Street;Castle Avenue
37812705;"{\"type\":\"LineString\",\"coordinates\":[[-6.2399931,53.3596662],[-6.2398718,53.3597745],[-6.2397449,53.3598965],[-6.2395592,53.3600684],[-6.2393619,53.3602691]]}";6;North Strand Road;6;50;false;false;true;false;false;false;40.0;0;0;0;0;0;false;4384;249428137;-6.2426969;53.3576664;519;249455004;-6.2395616;53.3602981;1;5;6;4433091;130 - Abbey St - Castle Avenue;"";Dublin Bus;130;Abbey Street;Castle Avenue
37096954;"{\"type\":\"LineString\",\"coordinates\":[[-6.2393619,53.3602691],[-6.2393368,53.3602973],[-6.2390148,53.3606292]]}";1;North Strand Road;5;50;false;false;true;false;false;false;47.0;1;0;0;0;0;false;519;249455004;-6.2395616;53.3602981;521;681751693;-6.2379476;53.3616457;2;6;7;4433091;130 - Abbey St - Castle Avenue;"";Dublin Bus;130;Abbey Street;Castle Avenue
4937390;"{\"type\":\"LineString\",\"coordinates\":[[-6.2390148,53.3606292],[-6.2389493,53.3606838]]}";2;Annesley Bridge Road;5;50;false;false;true;false;false;false;8.0;1;0;0;0;0;false;519;249455004;-6.2395616;53.3602981;521;681751693;-6.2379476;53.3616457;0;6;7;4433091;130 - Abbey St - Castle Avenue;"";Dublin Bus;130;Abbey Street;Castle Avenue
4937391;"{\"type\":\"LineString\",\"coordinates\":[[-6.2389493,53.3606838],[-6.2387285,53.3608653]]}";3;Annesley Bridge;5;50;false;false;true;false;false;false;26.0;0;0;0;0;0;false;519;249455004;-6.2395616;53.3602981;521;681751693;-6.2379476;53.3616457;0;6;7;4433091;130 - Abbey St - Castle Avenue;"";Dublin Bus;130;Abbey Street;Castle Avenue
317219085;"{\"type\":\"LineString\",\"coordinates\":[[-6.2387285,53.3608653],[-6.2386869,53.3608994]]}";4;Annesley Bridge;5;50;false;false;true;false;false;false;5.0;0;0;0;0;0;false;519;249455004;-6.2395616;53.3602981;521;681751693;-6.2379476;53.3616457;0;6;7;4433091;130 - Abbey St - Castle Avenue;"";Dublin Bus;130;Abbey Street;Castle Avenue
379071734;"{\"type\":\"LineString\",\"coordinates\":[[-6.2386869,53.3608994],[-6.2385622,53.3610019]]}";5;Annesley Bridge;5;50;false;false;true;false;false;false;15.0;0;0;0;0;0;false;519;249455004;-6.2395616;53.3602981;521;681751693;-6.2379476;53.3616457;0;6;7;4433091;130 - Abbey St - Castle Avenue;"";Dublin Bus;130;Abbey Street;Castle Avenue
4287188;"{\"type\":\"LineString\",\"coordinates\":[[-6.2385622,53.3610019],[-6.2384712,53.361078],[-6.2384312,53.3611116],[-6.2381319,53.3613631],[-6.2378516,53.3615991],[-6.2376588,53.3617555],[-6.2374039,53.3619789],[-6.2368792,53.3624417]]}";6;Annesley Bridge Road;5;50;false;false;true;false;false;false;197.0;0;0;0;0;0;false;519;249455004;-6.2395616;53.3602981;521;681751693;-6.2379476;53.3616457;2;6;7;4433091;130 - Abbey St - Castle Avenue;"";Dublin Bus;130;Abbey Street;Castle Avenue
4287188;"{\"type\":\"LineString\",\"coordinates\":[[-6.2385622,53.3610019],[-6.2384712,53.361078],[-6.2384312,53.3611116],[-6.2381319,53.3613631],[-6.2378516,53.3615991],[-6.2376588,53.3617555],[-6.2374039,53.3619789],[-6.2368792,53.3624417]]}";1;Annesley Bridge Road;5;50;false;false;true;false;false;false;98.5;0;0;0;0;0;false;521;681751693;-6.2379476;53.3616457;522;249426898;-6.2352414;53.3633034;1;7;8;4433091;130 - Abbey St - Castle Avenue;"";Dublin Bus;130;Abbey Street;Castle Avenue
442928296;"{\"type\":\"LineString\",\"coordinates\":[[-6.2368792,53.3624417],[-6.2366371,53.362675],[-6.2364566,53.362849]]}";2;Annesley Bridge Road;4;50;false;false;true;false;false;false;54.0;1;0;0;0;0;false;521;681751693;-6.2379476;53.3616457;522;249426898;-6.2352414;53.3633034;0;7;8;4433091;130 - Abbey St - Castle Avenue;"";Dublin Bus;130;Abbey Street;Castle Avenue
22716429;"{\"type\":\"LineString\",\"coordinates\":[[-6.2364566,53.362849],[-6.2359464,53.3630073],[-6.235517,53.36313],[-6.2351937,53.3632223],[-6.234743,53.3633522]]}";3;Fairview;5;50;false;false;true;false;false;false;64.0;1;0;0;0;0;false;521;681751693;-6.2379476;53.3616457;522;249426898;-6.2352414;53.3633034;1;7;8;4433091;130 - Abbey St - Castle Avenue;"";Dublin Bus;130;Abbey Street;Castle Avenue
22716429;"{\"type\":\"LineString\",\"coordinates\":[[-6.2364566,53.362849],[-6.2359464,53.3630073],[-6.235517,53.36313],[-6.2351937,53.3632223],[-6.234743,53.3633522]]}";1;Fairview;5;50;false;false;true;false;false;false;64.0;1;0;0;0;0;false;522;249426898;-6.2352414;53.3633034;523;249426548;-6.2316023;53.3642757;1;8;9;4433091;130 - Abbey St - Castle Avenue;"";Dublin Bus;130;Abbey Street;Castle Avenue
368990036;"{\"type\":\"LineString\",\"coordinates\":[[-6.234743,53.3633522],[-6.2342918,53.3634823],[-6.2335724,53.3636985],[-6.2332619,53.3637949]]}";2;Fairview;6;50;false;false;true;false;false;false;111.0;0;0;0;0;0;false;522;249426898;-6.2352414;53.3633034;523;249426548;-6.2316023;53.3642757;0;8;9;4433091;130 - Abbey St - Castle Avenue;"";Dublin Bus;130;Abbey Street;Castle Avenue
146465050;"{\"type\":\"LineString\",\"coordinates\":[[-6.2332619,53.3637949],[-6.2329627,53.3638733]]}";3;Marino Mart;5;50;false;false;true;false;false;false;22.0;0;0;0;0;0;false;522;249426898;-6.2352414;53.3633034;523;249426548;-6.2316023;53.3642757;0;8;9;4433091;130 - Abbey St - Castle Avenue;"";Dublin Bus;130;Abbey Street;Castle Avenue
197048019;"{\"type\":\"LineString\",\"coordinates\":[[-6.2329627,53.3638733],[-6.2327655,53.3639237],[-6.2326329,53.3639576],[-6.2318186,53.364153],[-6.2315617,53.3642009],[-6.2309918,53.3642942],[-6.2305584,53.3643355],[-6.2301531,53.3643532],[-6.2298176,53.3643593]]}";4;Marino Mart;6;50;false;false;true;false;false;false;110.0;1;0;0;0;0;false;522;249426898;-6.2352414;53.3633034;523;249426548;-6.2316023;53.3642757;1;8;9;4433091;130 - Abbey St - Castle Avenue;"";Dublin Bus;130;Abbey Street;Castle Avenue
197048019;"{\"type\":\"LineString\",\"coordinates\":[[-6.2329627,53.3638733],[-6.2327655,53.3639237],[-6.2326329,53.3639576],[-6.2318186,53.364153],[-6.2315617,53.3642009],[-6.2309918,53.3642942],[-6.2305584,53.3643355],[-6.2301531,53.3643532],[-6.2298176,53.3643593]]}";1;Marino Mart;6;50;false;false;true;false;false;false;110.0;1;0;0;0;0;false;523;249426548;-6.2316023;53.3642757;1740;622047502;-6.226816;53.364115;1;9;10;4433091;130 - Abbey St - Castle Avenue;"";Dublin Bus;130;Abbey Street;Castle Avenue
4521773;"{\"type\":\"LineString\",\"coordinates\":[[-6.2298176,53.3643593],[-6.2291068,53.3642807]]}";2;Clontarf Road;5;50;false;false;false;false;false;false;49.0;1;0;0;0;0;false;523;249426548;-6.2316023;53.3642757;1740;622047502;-6.226816;53.364115;0;9;10;4433091;130 - Abbey St - Castle Avenue;"";Dublin Bus;130;Abbey Street;Castle Avenue
368177065;"{\"type\":\"LineString\",\"coordinates\":[[-6.2291068,53.3642807],[-6.2289754,53.3642701]]}";3;Clontarf Road;5;50;false;false;false;false;false;false;9.0;0;0;0;0;0;false;523;249426548;-6.2316023;53.3642757;1740;622047502;-6.226816;53.364115;0;9;10;4433091;130 - Abbey St - Castle Avenue;"";Dublin Bus;130;Abbey Street;Castle Avenue
586889650;"{\"type\":\"LineString\",\"coordinates\":[[-6.2289754,53.3642701],[-6.2278412,53.3641497]]}";4;Clontarf Road;5;50;false;false;false;false;false;false;78.0;1;0;0;0;0;false;523;249426548;-6.2316023;53.3642757;1740;622047502;-6.226816;53.364115;0;9;10;4433091;130 - Abbey St - Castle Avenue;"";Dublin Bus;130;Abbey Street;Castle Avenue
4287191;"{\"type\":\"LineString\",\"coordinates\":[[-6.2278412,53.3641497],[-6.226961,53.3640516]]}";5;Clontarf Road;4;50;false;false;false;false;false;false;60.0;1;0;0;0;0;false;523;249426548;-6.2316023;53.3642757;1740;622047502;-6.226816;53.364115;0;9;10;4433091;130 - Abbey St - Castle Avenue;"";Dublin Bus;130;Abbey Street;Castle Avenue
50216532;"{\"type\":\"LineString\",\"coordinates\":[[-6.226961,53.3640516],[-6.226867,53.3640801],[-6.22678,53.3640722],[-6.226533,53.3640351],[-6.2258403,53.3639361],[-6.2255526,53.3638871]]}";6;Clontarf Road;2;50;false;true;false;false;false;false;49.0;0;0;0;0;0;false;523;249426548;-6.2316023;53.3642757;1740;622047502;-6.226816;53.364115;1;9;10;4433091;130 - Abbey St - Castle Avenue;"";Dublin Bus;130;Abbey Street;Castle Avenue
4287191;"{\"type\":\"LineString\",\"coordinates\":[[-6.2278412,53.3641497],[-6.226961,53.3640516]]}";1;Clontarf Road;4;50;false;false;false;false;false;false;60.0;1;0;0;0;0;false;1740;622047502;-6.226816;53.364115;1741;1517811834;-6.220804;53.3631127;2;10;11;4433091;130 - Abbey St - Castle Avenue;"";Dublin Bus;130;Abbey Street;Castle Avenue
50216532;"{\"type\":\"LineString\",\"coordinates\":[[-6.226961,53.3640516],[-6.226867,53.3640801],[-6.22678,53.3640722],[-6.226533,53.3640351],[-6.2258403,53.3639361],[-6.2255526,53.3638871]]}";2;Clontarf Road;2;50;false;true;false;false;false;false;98.0;0;0;0;0;0;false;1740;622047502;-6.226816;53.364115;1741;1517811834;-6.220804;53.3631127;0;10;11;4433091;130 - Abbey St - Castle Avenue;"";Dublin Bus;130;Abbey Street;Castle Avenue
636864258;"{\"type\":\"LineString\",\"coordinates\":[[-6.2255526,53.3638871],[-6.2252365,53.3638332],[-6.224695,53.3637446],[-6.2242754,53.3636661],[-6.2239371,53.3635921],[-6.2236901,53.3634951]]}";3;Clontarf Road;2;50;false;true;false;false;false;false;134.0;0;0;0;0;0;false;1740;622047502;-6.226816;53.364115;1741;1517811834;-6.220804;53.3631127;0;10;11;4433091;130 - Abbey St - Castle Avenue;"";Dublin Bus;130;Abbey Street;Castle Avenue
271836168;"{\"type\":\"LineString\",\"coordinates\":[[-6.2236901,53.3634951],[-6.2234273,53.3634423],[-6.2233544,53.3634287],[-6.2228681,53.3633246],[-6.2225978,53.3632698],[-6.2223376,53.3632249],[-6.2219088,53.3631714],[-6.2208255,53.3630516],[-6.2204879,53.3630159],[-6.220409,53.3630061],[-6.2200507,53.3629607],[-6.2198586,53.3629363],[-6.2195569,53.3628817],[-6.2187866,53.3627232],[-6.2185003,53.3626473],[-6.2178937,53.3624824],[-6.217693,53.3624278]]}";4;Clontarf Road;4;50;false;false;true;false;false;false;421.0;1;0;0;0;0;false;1740;622047502;-6.226816;53.364115;1741;1517811834;-6.220804;53.3631127;2;10;11;4433091;130 - Abbey St - Castle Avenue;"";Dublin Bus;130;Abbey Street;Castle Avenue
271836168;"{\"type\":\"LineString\",\"coordinates\":[[-6.2236901,53.3634951],[-6.2234273,53.3634423],[-6.2233544,53.3634287],[-6.2228681,53.3633246],[-6.2225978,53.3632698],[-6.2223376,53.3632249],[-6.2219088,53.3631714],[-6.2208255,53.3630516],[-6.2204879,53.3630159],[-6.220409,53.3630061],[-6.2200507,53.3629607],[-6.2198586,53.3629363],[-6.2195569,53.3628817],[-6.2187866,53.3627232],[-6.2185003,53.3626473],[-6.2178937,53.3624824],[-6.217693,53.3624278]]}";1;Clontarf Road;4;50;false;false;true;false;false;false;210.5;1;0;0;0;0;false;1741;1517811834;-6.220804;53.3631127;1742;1517834429;-6.2164865;53.3621068;1;11;12;4433091;130 - Abbey St - Castle Avenue;"";Dublin Bus;130;Abbey Street;Castle Avenue
368177063;"{\"type\":\"LineString\",\"coordinates\":[[-6.217693,53.3624278],[-6.2175183,53.3623763],[-6.2170189,53.3622268],[-6.2166771,53.3621115],[-6.2160663,53.3618866]]}";2;Clontarf Road;1;50;false;false;true;false;false;false;62.5;0;0;0;0;0;false;1741;1517811834;-6.220804;53.3631127;1742;1517834429;-6.2164865;53.3621068;1;11;12;4433091;130 - Abbey St - Castle Avenue;"";Dublin Bus;130;Abbey Street;Castle Avenue
368177063;"{\"type\":\"LineString\",\"coordinates\":[[-6.217693,53.3624278],[-6.2175183,53.3623763],[-6.2170189,53.3622268],[-6.2166771,53.3621115],[-6.2160663,53.3618866]]}";1;Clontarf Road;1;50;false;false;true;false;false;false;62.5;0;0;0;0;0;false;1742;1517834429;-6.2164865;53.3621068;1743;1517852066;-6.2138579;53.3610696;1;12;13;4433091;130 - Abbey St - Castle Avenue;"";Dublin Bus;130;Abbey Street;Castle Avenue
326805555;"{\"type\":\"LineString\",\"coordinates\":[[-6.2160663,53.3618866],[-6.2159371,53.3618353],[-6.2155572,53.3616656],[-6.2153237,53.3615612],[-6.2151197,53.3614684],[-6.2150636,53.3614484],[-6.2147431,53.361318],[-6.2146661,53.3612886],[-6.2144635,53.3612169],[-6.2142913,53.3611546],[-6.2140379,53.3610717],[-6.2139335,53.3610376],[-6.2137633,53.3609794],[-6.2135316,53.360912],[-6.2132385,53.3608274],[-6.2127809,53.3607071],[-6.2124158,53.36062],[-6.2121587,53.360559],[-6.2117061,53.3604804],[-6.2112645,53.3604358],[-6.2109541,53.3604182],[-6.2107902,53.3604113],[-6.2101402,53.3603647],[-6.2097168,53.3603408],[-6.209389,53.3603212],[-6.208884,53.3602915],[-6.2087322,53.3602826],[-6.2080427,53.3602407],[-6.2076489,53.3602141],[-6.2074424,53.3602112],[-6.2072335,53.3602159],[-6.2059563,53.3602631],[-6.2045373,53.3603129],[-6.2039648,53.3603261],[-6.2036765,53.3603136],[-6.203524,53.3603021],[-6.2033187,53.360284],[-6.2031092,53.3602562],[-6.2025768,53.3601778],[-6.2012602,53.3599495],[-6.2012143,53.3599415],[-6.2003276,53.359802],[-6.1996658,53.3596987],[-6.1994146,53.3596637],[-6.198543,53.3595721],[-6.1979832,53.3595009],[-6.1976247,53.3594395],[-6.1974584,53.3594067],[-6.1973092,53.3593737],[-6.197072,53.3593149],[-6.1969506,53.3592825],[-6.1968101,53.359243],[-6.1966262,53.3591861],[-6.1964865,53.3591373],[-6.1961912,53.3590227],[-6.1959631,53.3589246],[-6.1957724,53.3588387],[-6.1955227,53.3587182],[-6.1954426,53.3586786],[-6.1953481,53.3586319],[-6.1950434,53.3585037],[-6.194726,53.3583982],[-6.1943666,53.3583047],[-6.1940638,53.3582481],[-6.1938006,53.3582063],[-6.1936274,53.3581863],[-6.1935278,53.358181],[-6.1934713,53.358178],[-6.1930784,53.3581714],[-6.1926917,53.3581831],[-6.1924103,53.3582034],[-6.191737,53.3583115],[-6.1915789,53.358339],[-6.1912459,53.358397],[-6.1911703,53.3584102],[-6.1911265,53.3584178],[-6.1904519,53.3585325],[-6.190271,53.3585613],[-6.1902028,53.3585721],[-6.1899089,53.3586224],[-6.1896414,53.3586922],[-6.18958,53.3587082],[-6.1890015,53.35891],[-6.1883378,53.3591377],[-6.1877942,53.3593164],[-6.1877592,53.3593279],[-6.187207,53.3594652],[-6.1865436,53.3596062],[-6.1862673,53.3596568],[-6.1859088,53.3597268],[-6.1852808,53.3598493],[-6.1848694,53.359941],[-6.1844574,53.3600738],[-6.1834404,53.360425],[-6.1829526,53.3606109],[-6.1828521,53.3606481],[-6.1825461,53.360759],[-6.1823957,53.3608138]]}";2;Clontarf Road;3;50;false;false;true;false;false;false;1208.0;3;1;0;0;0;false;1742;1517834429;-6.2164865;53.3621068;1743;1517852066;-6.2138579;53.3610696;1;12;13;4433091;130 - Abbey St - Castle Avenue;"";Dublin Bus;130;Abbey Street;Castle Avenue
326805555;"{\"type\":\"LineString\",\"coordinates\":[[-6.2160663,53.3618866],[-6.2159371,53.3618353],[-6.2155572,53.3616656],[-6.2153237,53.3615612],[-6.2151197,53.3614684],[-6.2150636,53.3614484],[-6.2147431,53.361318],[-6.2146661,53.3612886],[-6.2144635,53.3612169],[-6.2142913,53.3611546],[-6.2140379,53.3610717],[-6.2139335,53.3610376],[-6.2137633,53.3609794],[-6.2135316,53.360912],[-6.2132385,53.3608274],[-6.2127809,53.3607071],[-6.2124158,53.36062],[-6.2121587,53.360559],[-6.2117061,53.3604804],[-6.2112645,53.3604358],[-6.2109541,53.3604182],[-6.2107902,53.3604113],[-6.2101402,53.3603647],[-6.2097168,53.3603408],[-6.209389,53.3603212],[-6.208884,53.3602915],[-6.2087322,53.3602826],[-6.2080427,53.3602407],[-6.2076489,53.3602141],[-6.2074424,53.3602112],[-6.2072335,53.3602159],[-6.2059563,53.3602631],[-6.2045373,53.3603129],[-6.2039648,53.3603261],[-6.2036765,53.3603136],[-6.203524,53.3603021],[-6.2033187,53.360284],[-6.2031092,53.3602562],[-6.2025768,53.3601778],[-6.2012602,53.3599495],[-6.2012143,53.3599415],[-6.2003276,53.359802],[-6.1996658,53.3596987],[-6.1994146,53.3596637],[-6.198543,53.3595721],[-6.1979832,53.3595009],[-6.1976247,53.3594395],[-6.1974584,53.3594067],[-6.1973092,53.3593737],[-6.197072,53.3593149],[-6.1969506,53.3592825],[-6.1968101,53.359243],[-6.1966262,53.3591861],[-6.1964865,53.3591373],[-6.1961912,53.3590227],[-6.1959631,53.3589246],[-6.1957724,53.3588387],[-6.1955227,53.3587182],[-6.1954426,53.3586786],[-6.1953481,53.3586319],[-6.1950434,53.3585037],[-6.194726,53.3583982],[-6.1943666,53.3583047],[-6.1940638,53.3582481],[-6.1938006,53.3582063],[-6.1936274,53.3581863],[-6.1935278,53.358181],[-6.1934713,53.358178],[-6.1930784,53.3581714],[-6.1926917,53.3581831],[-6.1924103,53.3582034],[-6.191737,53.3583115],[-6.1915789,53.358339],[-6.1912459,53.358397],[-6.1911703,53.3584102],[-6.1911265,53.3584178],[-6.1904519,53.3585325],[-6.190271,53.3585613],[-6.1902028,53.3585721],[-6.1899089,53.3586224],[-6.1896414,53.3586922],[-6.18958,53.3587082],[-6.1890015,53.35891],[-6.1883378,53.3591377],[-6.1877942,53.3593164],[-6.1877592,53.3593279],[-6.187207,53.3594652],[-6.1865436,53.3596062],[-6.1862673,53.3596568],[-6.1859088,53.3597268],[-6.1852808,53.3598493],[-6.1848694,53.359941],[-6.1844574,53.3600738],[-6.1834404,53.360425],[-6.1829526,53.3606109],[-6.1828521,53.3606481],[-6.1825461,53.360759],[-6.1823957,53.3608138]]}";1;Clontarf Road;3;50;false;false;true;false;false;false;1208.0;3;1;0;0;0;false;1751;3255991093;-6.1859348;53.3597723;1752;3255991095;-6.1818968;53.361072;1;19;20;4433091;130 - Abbey St - Castle Avenue;"";Dublin Bus;130;Abbey Street;Castle Avenue
359179832;"{\"type\":\"LineString\",\"coordinates\":[[-6.1823957,53.3608138],[-6.1818675,53.3610275],[-6.1813544,53.3612303],[-6.1805675,53.3615511],[-6.1803024,53.3616618],[-6.1800026,53.3618049],[-6.1797158,53.3619708],[-6.1793783,53.362194],[-6.1791537,53.3623425],[-6.1789785,53.3624633],[-6.1788506,53.3625514],[-6.1785593,53.3627499],[-6.1783681,53.3628809],[-6.177181,53.3637313],[-6.1767816,53.3640329],[-6.1763486,53.3643619],[-6.1742011,53.3659508],[-6.1738391,53.3662112],[-6.1736428,53.3663523],[-6.1731139,53.3667176],[-6.1726019,53.3670713]]}";2;Clontarf Road;2;50;false;false;false;false;false;false;483.5;2;1;0;0;0;false;1751;3255991093;-6.1859348;53.3597723;1752;3255991095;-6.1818968;53.361072;1;19;20;4433091;130 - Abbey St - Castle Avenue;"";Dublin Bus;130;Abbey Street;Castle Avenue
359179832;"{\"type\":\"LineString\",\"coordinates\":[[-6.1823957,53.3608138],[-6.1818675,53.3610275],[-6.1813544,53.3612303],[-6.1805675,53.3615511],[-6.1803024,53.3616618],[-6.1800026,53.3618049],[-6.1797158,53.3619708],[-6.1793783,53.362194],[-6.1791537,53.3623425],[-6.1789785,53.3624633],[-6.1788506,53.3625514],[-6.1785593,53.3627499],[-6.1783681,53.3628809],[-6.177181,53.3637313],[-6.1767816,53.3640329],[-6.1763486,53.3643619],[-6.1742011,53.3659508],[-6.1738391,53.3662112],[-6.1736428,53.3663523],[-6.1731139,53.3667176],[-6.1726019,53.3670713]]}";1;Clontarf Road;2;50;false;false;false;false;false;false;483.5;2;1;0;0;0;false;1759;3255991100;-6.1742538;53.3659754;1758;3255991103;-6.1754152;53.3681072;1;23;24;4433091;130 - Abbey St - Castle Avenue;"";Dublin Bus;130;Abbey Street;Castle Avenue
96699221;"{\"type\":\"LineString\",\"coordinates\":[[-6.1814731,53.3697842],[-6.1813591,53.3698101],[-6.1811895,53.369801],[-6.1808893,53.3697616],[-6.1806385,53.3697191],[-6.1803563,53.3696623],[-6.1800734,53.3695807],[-6.1794647,53.3693687],[-6.1787198,53.3690937],[-6.1784361,53.3690063],[-6.1782864,53.3689684],[-6.1781244,53.3689417],[-6.1777467,53.3688573],[-6.1772161,53.3686991],[-6.177128,53.3686697],[-6.1767663,53.3685663],[-6.175802,53.3682813],[-6.1753778,53.3681431],[-6.1750681,53.3680484],[-6.1744454,53.3678474],[-6.1740044,53.367693],[-6.1739281,53.367658],[-6.1734863,53.3674694],[-6.1733336,53.3674003],[-6.1731818,53.3673317],[-6.1726019,53.3670713]]}";2;Mount Prospect Avenue;2;30;false;false;true;false;false;false;337.5;1;0;0;0;0;false;1759;3255991100;-6.1742538;53.3659754;1758;3255991103;-6.1754152;53.3681072;1;23;24;4433091;130 - Abbey St - Castle Avenue;"";Dublin Bus;130;Abbey Street;Castle Avenue
96699221;"{\"type\":\"LineString\",\"coordinates\":[[-6.1814731,53.3697842],[-6.1813591,53.3698101],[-6.1811895,53.369801],[-6.1808893,53.3697616],[-6.1806385,53.3697191],[-6.1803563,53.3696623],[-6.1800734,53.3695807],[-6.1794647,53.3693687],[-6.1787198,53.3690937],[-6.1784361,53.3690063],[-6.1782864,53.3689684],[-6.1781244,53.3689417],[-6.1777467,53.3688573],[-6.1772161,53.3686991],[-6.177128,53.3686697],[-6.1767663,53.3685663],[-6.175802,53.3682813],[-6.1753778,53.3681431],[-6.1750681,53.3680484],[-6.1744454,53.3678474],[-6.1740044,53.367693],[-6.1739281,53.367658],[-6.1734863,53.3674694],[-6.1733336,53.3674003],[-6.1731818,53.3673317],[-6.1726019,53.3670713]]}";1;Mount Prospect Avenue;2;30;false;false;true;false;false;false;337.5;1;0;0;0;0;false;1750;3255991104;-6.1777434;53.3688129;1769;3255991106;-6.181916;53.3688473;1;25;26;4433091;130 - Abbey St - Castle Avenue;"";Dublin Bus;130;Abbey Street;Castle Avenue
548700756;"{\"type\":\"LineString\",\"coordinates\":[[-6.1822397,53.3683135],[-6.1821306,53.3685512],[-6.1821219,53.3685735],[-6.181983,53.3688696],[-6.1817171,53.3694346],[-6.1815982,53.3696769],[-6.1815449,53.3697319],[-6.1814731,53.3697842]]}";2;Mount Prospect Avenue;2;30;false;false;true;false;false;false;87.0;0;0;0;0;0;false;1750;3255991104;-6.1777434;53.3688129;1769;3255991106;-6.181916;53.3688473;1;25;26;4433091;130 - Abbey St - Castle Avenue;"";Dublin Bus;130;Abbey Street;Castle Avenue
548700756;"{\"type\":\"LineString\",\"coordinates\":[[-6.1822397,53.3683135],[-6.1821306,53.3685512],[-6.1821219,53.3685735],[-6.181983,53.3688696],[-6.1817171,53.3694346],[-6.1815982,53.3696769],[-6.1815449,53.3697319],[-6.1814731,53.3697842]]}";1;Mount Prospect Avenue;2;30;false;false;true;false;false;false;87.0;0;0;0;0;0;false;1769;3255991106;-6.181916;53.3688473;1770;3255991107;-6.1827242;53.3671293;1;26;27;4433091;130 - Abbey St - Castle Avenue;"";Dublin Bus;130;Abbey Street;Castle Avenue
548700757;"{\"type\":\"LineString\",\"coordinates\":[[-6.1877384,53.36638],[-6.1873264,53.366337],[-6.1869118,53.3662874],[-6.1851071,53.366094],[-6.1845022,53.3660257],[-6.1840327,53.3659891],[-6.18385,53.3659892],[-6.183579,53.3660471],[-6.1833853,53.3661366],[-6.1832753,53.3661931],[-6.18318,53.3663098],[-6.1829867,53.3667439],[-6.1828058,53.3671272],[-6.18271,53.3673325],[-6.1824667,53.3678325],[-6.1822729,53.3682432],[-6.1822397,53.3683135]]}";2;Mount Prospect Avenue;2;30;false;false;true;false;false;false;279.0;0;0;0;0;0;false;1769;3255991106;-6.181916;53.3688473;1770;3255991107;-6.1827242;53.3671293;1;26;27;4433091;130 - Abbey St - Castle Avenue;"";Dublin Bus;130;Abbey Street;Castle Avenue
548700757;"{\"type\":\"LineString\",\"coordinates\":[[-6.1877384,53.36638],[-6.1873264,53.366337],[-6.1869118,53.3662874],[-6.1851071,53.366094],[-6.1845022,53.3660257],[-6.1840327,53.3659891],[-6.18385,53.3659892],[-6.183579,53.3660471],[-6.1833853,53.3661366],[-6.1832753,53.3661931],[-6.18318,53.3663098],[-6.1829867,53.3667439],[-6.1828058,53.3671272],[-6.18271,53.3673325],[-6.1824667,53.3678325],[-6.1822729,53.3682432],[-6.1822397,53.3683135]]}";1;Mount Prospect Avenue;2;30;false;false;true;false;false;false;279.0;0;0;0;0;0;false;1771;3255991109;-6.1851194;53.366033;1760;3255991112;-6.1877601;53.3659209;1;28;29;4433091;130 - Abbey St - Castle Avenue;"";Dublin Bus;130;Abbey Street;Castle Avenue
129313800;"{\"type\":\"LineString\",\"coordinates\":[[-6.188161,53.3634529],[-6.1881558,53.3634813],[-6.1880882,53.3638124],[-6.1880634,53.3640309],[-6.1880071,53.3644617],[-6.1879261,53.3650496],[-6.1879142,53.3651357],[-6.1878055,53.3659031],[-6.1878022,53.3659303],[-6.187746,53.3663411],[-6.1877384,53.36638]]}";2;Seapark Road;2;30;false;false;true;false;false;false;165.0;0;0;2;0;0;false;1771;3255991109;-6.1851194;53.366033;1760;3255991112;-6.1877601;53.3659209;1;28;29;4433091;130 - Abbey St - Castle Avenue;"";Dublin Bus;130;Abbey Street;Castle Avenue
129313800;"{\"type\":\"LineString\",\"coordinates\":[[-6.188161,53.3634529],[-6.1881558,53.3634813],[-6.1880882,53.3638124],[-6.1880634,53.3640309],[-6.1880071,53.3644617],[-6.1879261,53.3650496],[-6.1879142,53.3651357],[-6.1878055,53.3659031],[-6.1878022,53.3659303],[-6.187746,53.3663411],[-6.1877384,53.36638]]}";1;Seapark Road;2;30;false;false;true;false;false;false;165.0;0;0;2;0;0;false;1761;3255991113;-6.1880028;53.3640259;1762;3255991115;-6.191306;53.3637402;1;30;31;4433091;130 - Abbey St - Castle Avenue;"";Dublin Bus;130;Abbey Street;Castle Avenue
96699222;"{\"type\":\"LineString\",\"coordinates\":[[-6.188161,53.3634529],[-6.1882763,53.3634657],[-6.1897086,53.3635837],[-6.1912932,53.3637703],[-6.191533,53.3638073]]}";2;Seafield Road East;2;50;false;false;true;false;false;false;115.0;0;0;0;0;0;false;1761;3255991113;-6.1880028;53.3640259;1762;3255991115;-6.191306;53.3637402;1;30;31;4433091;130 - Abbey St - Castle Avenue;"";Dublin Bus;130;Abbey Street;Castle Avenue
319195333;"{\"type\":\"LineString\",\"coordinates\":[[-6.191533,53.3638073],[-6.1919763,53.3638492],[-6.1925174,53.3638935],[-6.1931961,53.3639405],[-6.1934657,53.3639591],[-6.1943967,53.3639963],[-6.1950739,53.3640334],[-6.1951645,53.3640384],[-6.1953356,53.3640474]]}";1;Seafield Road East;2;50;false;false;true;false;false;false;257.0;1;0;0;0;0;false;1762;3255991115;-6.191306;53.3637402;1763;3255991117;-6.1954379;53.3643957;2;31;32;4433091;130 - Abbey St - Castle Avenue;"";Dublin Bus;130;Abbey Street;Castle Avenue
96699224;"{\"type\":\"LineString\",\"coordinates\":[[-6.1953356,53.3640474],[-6.1953248,53.3642175],[-6.1953174,53.3642786],[-6.1953107,53.3643342],[-6.1953037,53.3643926],[-6.1951817,53.3654115],[-6.1951044,53.3659058]]}";2;Vernon Avenue;2;50;false;false;true;false;false;false;209.0;2;0;0;0;0;false;1762;3255991115;-6.191306;53.3637402;1763;3255991117;-6.1954379;53.3643957;2;31;32;4433091;130 - Abbey St - Castle Avenue;"";Dublin Bus;130;Abbey Street;Castle Avenue
96699224;"{\"type\":\"LineString\",\"coordinates\":[[-6.1953356,53.3640474],[-6.1953248,53.3642175],[-6.1953174,53.3642786],[-6.1953107,53.3643342],[-6.1953037,53.3643926],[-6.1951817,53.3654115],[-6.1951044,53.3659058]]}";1;Vernon Avenue;2;50;false;false;true;false;false;false;104.5;2;0;0;0;0;false;1763;3255991117;-6.1954379;53.3643957;1765;3255991119;-6.2022799;53.3665403;1;32;33;4433091;130 - Abbey St - Castle Avenue;"";Dublin Bus;130;Abbey Street;Castle Avenue
94284950;"{\"type\":\"LineString\",\"coordinates\":[[-6.2041794,53.3668873],[-6.2035972,53.3667909],[-6.2033557,53.366751],[-6.2023217,53.3665851],[-6.2022669,53.3665743],[-6.201751,53.3664884],[-6.2014029,53.3664439],[-6.2011166,53.3664121],[-6.2010509,53.3664058],[-6.2005561,53.3663585],[-6.199447,53.366286],[-6.1987034,53.3662329],[-6.1979568,53.3661547],[-6.1973854,53.3660948],[-6.1972254,53.3660768],[-6.1970611,53.3660593],[-6.19594,53.365958],[-6.1956825,53.3659451],[-6.1952586,53.3659154],[-6.1951044,53.3659058]]}";2;Blackheath Park;2;30;false;false;true;false;false;false;310.0;2;1;0;0;0;false;1763;3255991117;-6.1954379;53.3643957;1765;3255991119;-6.2022799;53.3665403;1;32;33;4433091;130 - Abbey St - Castle Avenue;"";Dublin Bus;130;Abbey Street;Castle Avenue
94284950;"{\"type\":\"LineString\",\"coordinates\":[[-6.2041794,53.3668873],[-6.2035972,53.3667909],[-6.2033557,53.366751],[-6.2023217,53.3665851],[-6.2022669,53.3665743],[-6.201751,53.3664884],[-6.2014029,53.3664439],[-6.2011166,53.3664121],[-6.2010509,53.3664058],[-6.2005561,53.3663585],[-6.199447,53.366286],[-6.1987034,53.3662329],[-6.1979568,53.3661547],[-6.1973854,53.3660948],[-6.1972254,53.3660768],[-6.1970611,53.3660593],[-6.19594,53.365958],[-6.1956825,53.3659451],[-6.1952586,53.3659154],[-6.1951044,53.3659058]]}";1;Blackheath Park;2;30;false;false;true;false;false;false;310.0;2;1;0;0;0;false;1764;1432596716;-6.1956879;53.3659098;1772;1432780904;-6.2050563;53.3650251;1;34;35;4433091;130 - Abbey St - Castle Avenue;"";Dublin Bus;130;Abbey Street;Castle Avenue
370314498;"{\"type\":\"LineString\",\"coordinates\":[[-6.2044427,53.3662464],[-6.204366,53.3664331],[-6.2041794,53.3668873]]}";2;Castle Avenue;1;50;false;false;true;false;false;false;74.0;1;0;0;0;0;false;1764;1432596716;-6.1956879;53.3659098;1772;1432780904;-6.2050563;53.3650251;0;34;35;4433091;130 - Abbey St - Castle Avenue;"";Dublin Bus;130;Abbey Street;Castle Avenue
96699225;"{\"type\":\"LineString\",\"coordinates\":[[-6.2049825,53.3649596],[-6.2048812,53.3651997],[-6.2047386,53.3655465],[-6.2046221,53.36583],[-6.2045245,53.3660618],[-6.2044864,53.3661442],[-6.2044427,53.3662464]]}";3;Castle Avenue;2;50;false;false;true;false;false;false;74.5;0;1;0;0;0;false;1764;1432596716;-6.1956879;53.3659098;1772;1432780904;-6.2050563;53.3650251;1;34;35;4433091;130 - Abbey St - Castle Avenue;"";Dublin Bus;130;Abbey Street;Castle Avenue
529166769;"{\"type\":\"LineString\",\"coordinates\":[[-6.2050715,53.3647535],[-6.2050219,53.3648685],[-6.2049825,53.3649596]]}";1;Castle Avenue;2;50;false;false;true;false;false;false;24.0;0;0;0;0;0;false;1772;1432780904;-6.2050563;53.3650251;1767;3255991123;-6.2052494;53.3636762;2;35;36;4433091;130 - Abbey St - Castle Avenue;"";Dublin Bus;130;Abbey Street;Castle Avenue
129313711;"{\"type\":\"LineString\",\"coordinates\":[[-6.2053085,53.3636844],[-6.2052806,53.3638228],[-6.2052416,53.3640724],[-6.2052328,53.3641215],[-6.2052013,53.3642965],[-6.2051953,53.3643438],[-6.2051454,53.3645354],[-6.2050715,53.3647535]]}";2;Castle Avenue;2;50;false;false;true;false;false;false;121.0;0;0;0;0;0;false;1772;1432780904;-6.2050563;53.3650251;1767;3255991123;-6.2052494;53.3636762;0;35;36;4433091;130 - Abbey St - Castle Avenue;"";Dublin Bus;130;Abbey Street;Castle Avenue
529166762;"{\"type\":\"LineString\",\"coordinates\":[[-6.2054072,53.3634415],[-6.2053838,53.3634854],[-6.2053302,53.3635859],[-6.2053085,53.3636844]]}";3;Castle Avenue;2;50;false;false;true;false;false;false;29.0;0;0;0;0;0;false;1772;1432780904;-6.2050563;53.3650251;1767;3255991123;-6.2052494;53.3636762;1;35;36;4433091;130 - Abbey St - Castle Avenue;"";Dublin Bus;130;Abbey Street;Castle Avenue
