way_id;shape;index;name;nb_lanes;legal_speed;speed_zone_30;oneway;shares_bike;bike_box;bus_lane;dedicated_bus_lane;length;nb_traffic_signals;nb_crossings;nb_stops;nb_give_ways;nb_lvl_crossings;roundabout;stop_id_orig;node_id_orig;coord_x_orig;coord_y_orig;stop_id_dest;node_id_dest;coord_x_dest;coord_y_dest;nb_neighbouring_ways_bus_stop;ordre_orig;ordre_dest;id_line;line_name;colour;operator;ref;from;to
573205707;"{\"type\":\"LineString\",\"coordinates\":[[-73.5166644,45.393351],[-73.5169161,45.3933324],[-73.5170041,45.3933282],[-73.5171998,45.3933179],[-73.5172392,45.3933119],[-73.5172645,45.3933059],[-73.5172914,45.3932977],[-73.5173378,45.393281]]}";1;"";1;50;false;true;true;false;true;false;54.0;0;1;1;0;0;false;75645;6133322650;-73.516952;45.393403;75089;6133324585;-73.518423;45.394824;1;0;1;9510265;Bus 33 : Champlain;"";EXO;33;Stationnement incitatif Candiac;Stationnement incitatif Candiac
797742744;"{\"type\":\"LineString\",\"coordinates\":[[-73.5173845,45.3933472],[-73.5173723,45.3933308],[-73.5173378,45.393281]]}";2;Boulevard Montcalm Nord;2;50;false;false;true;false;false;false;9.0;0;1;0;0;0;false;75645;6133322650;-73.516952;45.393403;75089;6133324585;-73.518423;45.394824;0;0;1;9510265;Bus 33 : Champlain;"";EXO;33;Stationnement incitatif Candiac;Stationnement incitatif Candiac
797637577;"{\"type\":\"LineString\",\"coordinates\":[[-73.5179116,45.394042],[-73.517848,45.3939597],[-73.5178026,45.3938971],[-73.5177651,45.39385],[-73.5177058,45.3937736],[-73.5175844,45.3936103],[-73.5175537,45.3935691],[-73.5173845,45.3933472]]}";3;Boulevard Montcalm Nord;2;50;false;false;true;false;false;false;88.0;0;2;0;0;0;false;75645;6133322650;-73.516952;45.393403;75089;6133324585;-73.518423;45.394824;0;0;1;9510265;Bus 33 : Champlain;"";EXO;33;Stationnement incitatif Candiac;Stationnement incitatif Candiac
797613732;"{\"type\":\"LineString\",\"coordinates\":[[-73.5229623,45.399874],[-73.5227712,45.3997068],[-73.5225673,45.3995283],[-73.5223722,45.3993576],[-73.5219691,45.3990042],[-73.5216772,45.3987523],[-73.5215034,45.398595],[-73.5211662,45.3982887],[-73.5211063,45.398228],[-73.5210621,45.3981778],[-73.5209506,45.3980337],[-73.5207068,45.3977188],[-73.520623,45.3976099],[-73.5204866,45.3974307],[-73.520007,45.3968006],[-73.5193055,45.3958788],[-73.5190979,45.395606],[-73.5190284,45.3955147],[-73.5189439,45.3953992],[-73.5189123,45.395356],[-73.5185473,45.3948776],[-73.5185103,45.394829],[-73.5184186,45.3947046],[-73.5183573,45.3946241],[-73.5182535,45.3944878],[-73.5182122,45.3944336],[-73.5180582,45.3942313],[-73.5180539,45.3942257],[-73.5179116,45.394042]]}";4;Boulevard Montcalm Nord;2;50;false;false;true;false;false;false;762.0;0;2;0;0;0;false;75645;6133322650;-73.516952;45.393403;75089;6133324585;-73.518423;45.394824;2;0;1;9510265;Bus 33 : Champlain;"";EXO;33;Stationnement incitatif Candiac;Stationnement incitatif Candiac
797613732;"{\"type\":\"LineString\",\"coordinates\":[[-73.5229623,45.399874],[-73.5227712,45.3997068],[-73.5225673,45.3995283],[-73.5223722,45.3993576],[-73.5219691,45.3990042],[-73.5216772,45.3987523],[-73.5215034,45.398595],[-73.5211662,45.3982887],[-73.5211063,45.398228],[-73.5210621,45.3981778],[-73.5209506,45.3980337],[-73.5207068,45.3977188],[-73.520623,45.3976099],[-73.5204866,45.3974307],[-73.520007,45.3968006],[-73.5193055,45.3958788],[-73.5190979,45.395606],[-73.5190284,45.3955147],[-73.5189439,45.3953992],[-73.5189123,45.395356],[-73.5185473,45.3948776],[-73.5185103,45.394829],[-73.5184186,45.3947046],[-73.5183573,45.3946241],[-73.5182535,45.3944878],[-73.5182122,45.3944336],[-73.5180582,45.3942313],[-73.5180539,45.3942257],[-73.5179116,45.394042]]}";1;Boulevard Montcalm Nord;2;50;false;false;true;false;false;false;381.0;0;2;0;0;0;false;75091;6133323383;-73.521364;45.398579;75106;6133323374;-73.523124;45.400104;1;3;4;9510265;Bus 33 : Champlain;"";EXO;33;Stationnement incitatif Candiac;Stationnement incitatif Candiac
797613733;"{\"type\":\"LineString\",\"coordinates\":[[-73.5231262,45.4000163],[-73.5229623,45.399874]]}";2;Boulevard Montcalm Nord;3;50;false;false;true;false;false;false;21.0;0;0;0;0;0;false;75091;6133323383;-73.521364;45.398579;75106;6133323374;-73.523124;45.400104;0;3;4;9510265;Bus 33 : Champlain;"";EXO;33;Stationnement incitatif Candiac;Stationnement incitatif Candiac
685490329;"{\"type\":\"LineString\",\"coordinates\":[[-73.5234088,45.4002671],[-73.5233232,45.4001917],[-73.5232918,45.4001641],[-73.5231706,45.4000547],[-73.5231262,45.4000163]]}";3;Boulevard Montcalm Nord;3;50;false;false;true;false;false;false;18.0;1;1;0;0;0;false;75091;6133323383;-73.521364;45.398579;75106;6133323374;-73.523124;45.400104;1;3;4;9510265;Bus 33 : Champlain;"";EXO;33;Stationnement incitatif Candiac;Stationnement incitatif Candiac
797613733;"{\"type\":\"LineString\",\"coordinates\":[[-73.5231262,45.4000163],[-73.5229623,45.399874]]}";1;Boulevard Montcalm Nord;3;50;false;false;true;false;false;false;21.0;0;0;0;0;0;false;75106;6133323374;-73.523124;45.400104;75108;6133323373;-73.527275;45.398179;2;4;5;9510265;Bus 33 : Champlain;"";EXO;33;Stationnement incitatif Candiac;Stationnement incitatif Candiac
685490329;"{\"type\":\"LineString\",\"coordinates\":[[-73.5234088,45.4002671],[-73.5233232,45.4001917],[-73.5232918,45.4001641],[-73.5231706,45.4000547],[-73.5231262,45.4000163]]}";2;Boulevard Montcalm Nord;3;50;false;false;true;false;false;false;36.0;1;1;0;0;0;false;75106;6133323374;-73.523124;45.400104;75108;6133323373;-73.527275;45.398179;0;4;5;9510265;Bus 33 : Champlain;"";EXO;33;Stationnement incitatif Candiac;Stationnement incitatif Candiac
685306394;"{\"type\":\"LineString\",\"coordinates\":[[-73.5234088,45.4002671],[-73.5234972,45.4002171]]}";3;Boulevard Marie-Victorin;4;50;false;false;true;false;false;false;9.0;0;1;0;0;0;false;75106;6133323374;-73.523124;45.400104;75108;6133323373;-73.527275;45.398179;0;4;5;9510265;Bus 33 : Champlain;"";EXO;33;Stationnement incitatif Candiac;Stationnement incitatif Candiac
786243089;"{\"type\":\"LineString\",\"coordinates\":[[-73.5234972,45.4002171],[-73.5235304,45.4001984],[-73.5241612,45.3998442]]}";4;Boulevard Marie-Victorin;4;50;false;false;true;false;false;false;67.0;1;1;0;0;0;false;75106;6133323374;-73.523124;45.400104;75108;6133323373;-73.527275;45.398179;0;4;5;9510265;Bus 33 : Champlain;"";EXO;33;Stationnement incitatif Candiac;Stationnement incitatif Candiac
786231988;"{\"type\":\"LineString\",\"coordinates\":[[-73.5241612,45.3998442],[-73.5246407,45.3995749]]}";5;Boulevard Marie-Victorin;4;50;false;false;true;false;false;false;48.0;0;0;0;0;0;false;75106;6133323374;-73.523124;45.400104;75108;6133323373;-73.527275;45.398179;0;4;5;9510265;Bus 33 : Champlain;"";EXO;33;Stationnement incitatif Candiac;Stationnement incitatif Candiac
797707720;"{\"type\":\"LineString\",\"coordinates\":[[-73.5246407,45.3995749],[-73.5250824,45.3993268]]}";6;Boulevard Marie-Victorin;4;50;false;false;true;false;false;false;45.0;0;0;0;0;0;false;75106;6133323374;-73.523124;45.400104;75108;6133323373;-73.527275;45.398179;0;4;5;9510265;Bus 33 : Champlain;"";EXO;33;Stationnement incitatif Candiac;Stationnement incitatif Candiac
797707719;"{\"type\":\"LineString\",\"coordinates\":[[-73.5250824,45.3993268],[-73.5257006,45.3989787],[-73.5260993,45.3987542],[-73.5262037,45.3986955],[-73.5263422,45.3986148],[-73.5265623,45.3984866],[-73.5266896,45.3984124],[-73.5271132,45.3981656],[-73.5271388,45.3981511],[-73.5272515,45.3980886]]}";7;Boulevard Marie-Victorin;4;50;false;false;true;false;false;false;219.0;1;1;0;0;0;false;75106;6133323374;-73.523124;45.400104;75108;6133323373;-73.527275;45.398179;2;4;5;9510265;Bus 33 : Champlain;"";EXO;33;Stationnement incitatif Candiac;Stationnement incitatif Candiac
685306396;"{\"type\":\"LineString\",\"coordinates\":[[-73.5272515,45.3980886],[-73.5273647,45.398023],[-73.5273894,45.3980085],[-73.5277733,45.3977872],[-73.5280796,45.3976132],[-73.5281618,45.3975671],[-73.5285219,45.3973651],[-73.5287467,45.3972349],[-73.5295364,45.3967776],[-73.529713,45.3966755],[-73.5297515,45.3966532],[-73.5298405,45.3966044]]}";1;Chemin Saint-François-Xavier;2;50;false;false;true;false;false;false;131.0;1;3;1;0;0;false;75041;6133324623;-73.529697;45.396782;75092;6133323382;-73.528301;45.395176;1;6;7;9510265;Bus 33 : Champlain;"";EXO;33;Stationnement incitatif Candiac;Stationnement incitatif Candiac
685306395;"{\"type\":\"LineString\",\"coordinates\":[[-73.5278332,45.3923943],[-73.5278122,45.3924949],[-73.5276886,45.3930604],[-73.5276084,45.3934189],[-73.5275684,45.3936043],[-73.5275462,45.3937095],[-73.5275308,45.3937813],[-73.5275175,45.3938517],[-73.5275107,45.3939189],[-73.5275075,45.3939855],[-73.527507,45.3940764],[-73.527507,45.3941379],[-73.5275141,45.3941994],[-73.5275238,45.3942463],[-73.5275335,45.3942916],[-73.5275514,45.3943534],[-73.5275707,45.3944123],[-73.5275946,45.3944729],[-73.5276217,45.3945407],[-73.5276511,45.3945999],[-73.5276806,45.3946532],[-73.5277119,45.3947071],[-73.5277458,45.3947605],[-73.5277879,45.3948173],[-73.5278303,45.3948671],[-73.5278704,45.3949117],[-73.5279305,45.3949723],[-73.5279968,45.395036],[-73.5281267,45.3951491],[-73.5281796,45.3951962],[-73.5288807,45.3957945],[-73.5289422,45.395847],[-73.5290178,45.3959105],[-73.5297409,45.3965142],[-73.5297723,45.396543],[-73.5298405,45.3966044]]}";2;Boulevard Champlain;2;50;false;false;false;false;false;false;265.5;0;1;6;0;0;false;75041;6133324623;-73.529697;45.396782;75092;6133323382;-73.528301;45.395176;1;6;7;9510265;Bus 33 : Champlain;"";EXO;33;Stationnement incitatif Candiac;Stationnement incitatif Candiac
685306395;"{\"type\":\"LineString\",\"coordinates\":[[-73.5278332,45.3923943],[-73.5278122,45.3924949],[-73.5276886,45.3930604],[-73.5276084,45.3934189],[-73.5275684,45.3936043],[-73.5275462,45.3937095],[-73.5275308,45.3937813],[-73.5275175,45.3938517],[-73.5275107,45.3939189],[-73.5275075,45.3939855],[-73.527507,45.3940764],[-73.527507,45.3941379],[-73.5275141,45.3941994],[-73.5275238,45.3942463],[-73.5275335,45.3942916],[-73.5275514,45.3943534],[-73.5275707,45.3944123],[-73.5275946,45.3944729],[-73.5276217,45.3945407],[-73.5276511,45.3945999],[-73.5276806,45.3946532],[-73.5277119,45.3947071],[-73.5277458,45.3947605],[-73.5277879,45.3948173],[-73.5278303,45.3948671],[-73.5278704,45.3949117],[-73.5279305,45.3949723],[-73.5279968,45.395036],[-73.5281267,45.3951491],[-73.5281796,45.3951962],[-73.5288807,45.3957945],[-73.5289422,45.395847],[-73.5290178,45.3959105],[-73.5297409,45.3965142],[-73.5297723,45.396543],[-73.5298405,45.3966044]]}";1;Boulevard Champlain;2;50;false;false;false;false;false;false;265.5;0;1;6;0;0;false;75092;6133323382;-73.528301;45.395176;75045;6133324621;-73.528123;45.392471;1;7;8;9510265;Bus 33 : Champlain;"";EXO;33;Stationnement incitatif Candiac;Stationnement incitatif Candiac
798148237;"{\"type\":\"LineString\",\"coordinates\":[[-73.5283007,45.3924478],[-73.5279618,45.39241],[-73.5279273,45.3924056],[-73.5278332,45.3923943]]}";2;Avenue de Jaffa;2;40;false;false;true;false;false;false;19.0;0;1;1;0;0;false;75092;6133323382;-73.528301;45.395176;75045;6133324621;-73.528123;45.392471;1;7;8;9510265;Bus 33 : Champlain;"";EXO;33;Stationnement incitatif Candiac;Stationnement incitatif Candiac
43709180;"{\"type\":\"LineString\",\"coordinates\":[[-73.5327071,45.3922789],[-73.5326071,45.3922823],[-73.5325751,45.3922831],[-73.5319854,45.3922968],[-73.5310131,45.3923126],[-73.530937,45.3923149],[-73.5308833,45.3923191],[-73.5308349,45.3923231],[-73.5307754,45.3923299],[-73.5307197,45.392339],[-73.5300569,45.3924978],[-73.5299581,45.3925219],[-73.5298694,45.3925438],[-73.5297874,45.3925611],[-73.5297194,45.3925736],[-73.5296564,45.3925811],[-73.529596,45.3925834],[-73.5295313,45.3925819],[-73.5294582,45.3925759],[-73.5288896,45.3925135],[-73.5283007,45.3924478]]}";1;Avenue de Jaffa;2;40;false;false;true;false;false;false;175.5;0;1;3;0;0;false;75072;6133324597;-73.529816;45.3926;75046;6133324620;-73.532795;45.391856;1;9;10;9510265;Bus 33 : Champlain;"";EXO;33;Stationnement incitatif Candiac;Stationnement incitatif Candiac
43665447;"{\"type\":\"LineString\",\"coordinates\":[[-73.5327071,45.3922789],[-73.5327036,45.3921968],[-73.5326579,45.3911048],[-73.5326193,45.3902598],[-73.5325974,45.3896896]]}";2;Chemin Saint-François-Xavier;2;50;false;false;true;false;false;false;144.0;0;1;1;0;0;false;75072;6133324597;-73.529816;45.3926;75046;6133324620;-73.532795;45.391856;1;9;10;9510265;Bus 33 : Champlain;"";EXO;33;Stationnement incitatif Candiac;Stationnement incitatif Candiac
43665447;"{\"type\":\"LineString\",\"coordinates\":[[-73.5327071,45.3922789],[-73.5327036,45.3921968],[-73.5326579,45.3911048],[-73.5326193,45.3902598],[-73.5325974,45.3896896]]}";1;Chemin Saint-François-Xavier;2;50;false;false;true;false;false;false;144.0;0;1;1;0;0;false;75073;6133324596;-73.532728;45.390339;75047;6133324619;-73.532502;45.386882;1;11;12;9510265;Bus 33 : Champlain;"";EXO;33;Stationnement incitatif Candiac;Stationnement incitatif Candiac
798138682;"{\"type\":\"LineString\",\"coordinates\":[[-73.5325974,45.3896896],[-73.5325967,45.3896696],[-73.5325633,45.3886473],[-73.5325622,45.3886094],[-73.5325493,45.388199],[-73.5325492,45.3881471],[-73.5325534,45.3879557],[-73.5325599,45.3878588],[-73.5325664,45.3877726],[-73.5325783,45.3876839],[-73.5325903,45.387611],[-73.5326015,45.3875387],[-73.5326209,45.3874504],[-73.5326442,45.387353],[-73.5326939,45.3871884],[-73.53273,45.3870757],[-73.5327368,45.3870547],[-73.5327606,45.3869889]]}";2;Chemin Saint-François-Xavier;2;30;false;false;true;false;false;false;302.0;0;4;1;0;0;false;75073;6133324596;-73.532728;45.390339;75047;6133324619;-73.532502;45.386882;0;11;12;9510265;Bus 33 : Champlain;"";EXO;33;Stationnement incitatif Candiac;Stationnement incitatif Candiac
43709192;"{\"type\":\"LineString\",\"coordinates\":[[-73.5327606,45.3869889],[-73.5326522,45.3869631],[-73.5323924,45.3869183],[-73.5321972,45.3868894],[-73.5320973,45.3868749],[-73.5320113,45.3868617]]}";3;Chemin de la Gatineau;2;40;false;false;true;false;false;false;30.5;0;2;0;0;0;false;75073;6133324596;-73.532728;45.390339;75047;6133324619;-73.532502;45.386882;1;11;12;9510265;Bus 33 : Champlain;"";EXO;33;Stationnement incitatif Candiac;Stationnement incitatif Candiac
43709192;"{\"type\":\"LineString\",\"coordinates\":[[-73.5327606,45.3869889],[-73.5326522,45.3869631],[-73.5323924,45.3869183],[-73.5321972,45.3868894],[-73.5320973,45.3868749],[-73.5320113,45.3868617]]}";1;Chemin de la Gatineau;2;40;false;false;true;false;false;false;30.5;0;2;0;0;0;false;75047;6133324619;-73.532502;45.386882;75048;6133324618;-73.530187;45.386776;1;12;13;9510265;Bus 33 : Champlain;"";EXO;33;Stationnement incitatif Candiac;Stationnement incitatif Candiac
803134359;"{\"type\":\"LineString\",\"coordinates\":[[-73.5320113,45.3868617],[-73.5319495,45.3868541],[-73.5318848,45.386846],[-73.5317572,45.386834],[-73.5316308,45.3868247],[-73.531487,45.3868157],[-73.5313019,45.3868107],[-73.5311155,45.3868085],[-73.5308829,45.3868092],[-73.5305874,45.3868167],[-73.5301498,45.3868323],[-73.5300248,45.3868363]]}";2;Chemin de la Gatineau;2;40;false;false;true;false;false;false;78.0;0;1;1;0;0;false;75047;6133324619;-73.532502;45.386882;75048;6133324618;-73.530187;45.386776;1;12;13;9510265;Bus 33 : Champlain;"";EXO;33;Stationnement incitatif Candiac;Stationnement incitatif Candiac
803144776;"{\"type\":\"LineString\",\"coordinates\":[[-73.5250098,45.3840315],[-73.5249724,45.3839784],[-73.524938,45.3839391],[-73.5246621,45.3837642],[-73.5245756,45.3837139],[-73.524166,45.3835042]]}";1;Avenue des Flandres;1;40;false;true;true;false;false;false;90.0;0;0;0;0;0;false;75349;6133322988;-73.525047;45.383919;75375;6133322985;-73.521185;45.382615;2;16;17;9510265;Bus 33 : Champlain;"";EXO;33;Stationnement incitatif Candiac;Stationnement incitatif Candiac
312847937;"{\"type\":\"LineString\",\"coordinates\":[[-73.5230917,45.3828549],[-73.5232003,45.3829019],[-73.5232896,45.3829535],[-73.5234087,45.383026],[-73.5234967,45.3830836],[-73.5235729,45.3831319],[-73.5239479,45.3833654],[-73.524166,45.3835042]]}";2;Avenue des Flandres;2;40;false;false;true;false;false;false;111.0;0;1;1;0;0;false;75349;6133322988;-73.525047;45.383919;75375;6133322985;-73.521185;45.382615;0;16;17;9510265;Bus 33 : Champlain;"";EXO;33;Stationnement incitatif Candiac;Stationnement incitatif Candiac
685306389;"{\"type\":\"LineString\",\"coordinates\":[[-73.5230917,45.3828549],[-73.5229592,45.3828065],[-73.5228639,45.3827799],[-73.5227913,45.382762],[-73.5227275,45.3827502],[-73.5226573,45.3827394],[-73.5226032,45.3827327],[-73.5225316,45.3827255],[-73.5224718,45.3827214],[-73.5223951,45.3827172],[-73.5220259,45.3827053],[-73.5211776,45.3826723],[-73.5211373,45.3826709],[-73.5211099,45.3826701],[-73.5210337,45.3826674]]}";3;Avenue des Flandres;3;40;false;false;true;false;false;false;164.0;0;2;2;0;0;false;75349;6133322988;-73.525047;45.383919;75375;6133322985;-73.521185;45.382615;2;16;17;9510265;Bus 33 : Champlain;"";EXO;33;Stationnement incitatif Candiac;Stationnement incitatif Candiac
312847942;"{\"type\":\"LineString\",\"coordinates\":[[-73.5246243,45.3788997],[-73.524798,45.3788961],[-73.5248352,45.3788943],[-73.5248784,45.3788951]]}";1;Avenue des Flandres;1;40;false;true;true;false;false;false;20.0;0;1;0;0;0;false;75377;6133322883;-73.524433;45.378973;75378;6133322882;-73.525681;45.380531;2;19;20;9510265;Bus 33 : Champlain;"";EXO;33;Stationnement incitatif Candiac;Stationnement incitatif Candiac
803333204;"{\"type\":\"LineString\",\"coordinates\":[[-73.5248784,45.3788951],[-73.5249093,45.3788974],[-73.5249421,45.3789024],[-73.5249781,45.3789102],[-73.5250446,45.3789253]]}";2;Avenue des Flandres;1;40;false;true;true;false;false;false;14.0;0;1;0;0;0;false;75377;6133322883;-73.524433;45.378973;75378;6133322882;-73.525681;45.380531;0;19;20;9510265;Bus 33 : Champlain;"";EXO;33;Stationnement incitatif Candiac;Stationnement incitatif Candiac
472917417;"{\"type\":\"LineString\",\"coordinates\":[[-73.5250446,45.3789253],[-73.525092,45.3789563],[-73.5251218,45.378978],[-73.5251465,45.3789996],[-73.5251687,45.3790211],[-73.5251978,45.3790547],[-73.525245,45.3791232]]}";3;Avenue Fouquet;1;40;false;true;true;false;false;false;28.0;0;0;0;0;0;false;75377;6133322883;-73.524433;45.378973;75378;6133322882;-73.525681;45.380531;0;19;20;9510265;Bus 33 : Champlain;"";EXO;33;Stationnement incitatif Candiac;Stationnement incitatif Candiac
312847938;"{\"type\":\"LineString\",\"coordinates\":[[-73.525245,45.3791232],[-73.5252936,45.379257],[-73.5255312,45.3799334],[-73.5257752,45.3806028],[-73.525788,45.3806427],[-73.5257917,45.3806745],[-73.5257818,45.3807085],[-73.5257588,45.3807375],[-73.5257301,45.3807646],[-73.5254106,45.381004],[-73.5251778,45.3811874],[-73.5246683,45.3815874],[-73.5244372,45.381772],[-73.5239322,45.3821693],[-73.5236954,45.3823562],[-73.5233337,45.3826449],[-73.5231747,45.3827718],[-73.5231505,45.3827905],[-73.5231271,45.382812],[-73.5231062,45.3828353],[-73.5230917,45.3828549]]}";4;Avenue Fouquet;2;40;false;false;true;false;false;false;500.0;0;2;1;0;0;false;75377;6133322883;-73.524433;45.378973;75378;6133322882;-73.525681;45.380531;2;19;20;9510265;Bus 33 : Champlain;"";EXO;33;Stationnement incitatif Candiac;Stationnement incitatif Candiac
685306389;"{\"type\":\"LineString\",\"coordinates\":[[-73.5230917,45.3828549],[-73.5229592,45.3828065],[-73.5228639,45.3827799],[-73.5227913,45.382762],[-73.5227275,45.3827502],[-73.5226573,45.3827394],[-73.5226032,45.3827327],[-73.5225316,45.3827255],[-73.5224718,45.3827214],[-73.5223951,45.3827172],[-73.5220259,45.3827053],[-73.5211776,45.3826723],[-73.5211373,45.3826709],[-73.5211099,45.3826701],[-73.5210337,45.3826674]]}";1;Avenue des Flandres;3;40;false;false;true;false;false;false;164.0;0;2;2;0;0;false;75379;6133322881;-73.523128;45.38272;75076;6133324594;-73.524806;45.384102;2;21;22;9510265;Bus 33 : Champlain;"";EXO;33;Stationnement incitatif Candiac;Stationnement incitatif Candiac
312847938;"{\"type\":\"LineString\",\"coordinates\":[[-73.525245,45.3791232],[-73.5252936,45.379257],[-73.5255312,45.3799334],[-73.5257752,45.3806028],[-73.525788,45.3806427],[-73.5257917,45.3806745],[-73.5257818,45.3807085],[-73.5257588,45.3807375],[-73.5257301,45.3807646],[-73.5254106,45.381004],[-73.5251778,45.3811874],[-73.5246683,45.3815874],[-73.5244372,45.381772],[-73.5239322,45.3821693],[-73.5236954,45.3823562],[-73.5233337,45.3826449],[-73.5231747,45.3827718],[-73.5231505,45.3827905],[-73.5231271,45.382812],[-73.5231062,45.3828353],[-73.5230917,45.3828549]]}";2;Avenue Fouquet;2;40;false;false;true;false;false;false;500.0;0;2;1;0;0;false;75379;6133322881;-73.523128;45.38272;75076;6133324594;-73.524806;45.384102;0;21;22;9510265;Bus 33 : Champlain;"";EXO;33;Stationnement incitatif Candiac;Stationnement incitatif Candiac
312847937;"{\"type\":\"LineString\",\"coordinates\":[[-73.5230917,45.3828549],[-73.5232003,45.3829019],[-73.5232896,45.3829535],[-73.5234087,45.383026],[-73.5234967,45.3830836],[-73.5235729,45.3831319],[-73.5239479,45.3833654],[-73.524166,45.3835042]]}";3;Avenue des Flandres;2;40;false;false;true;false;false;false;111.0;0;1;1;0;0;false;75379;6133322881;-73.523128;45.38272;75076;6133324594;-73.524806;45.384102;0;21;22;9510265;Bus 33 : Champlain;"";EXO;33;Stationnement incitatif Candiac;Stationnement incitatif Candiac
803144776;"{\"type\":\"LineString\",\"coordinates\":[[-73.5250098,45.3840315],[-73.5249724,45.3839784],[-73.524938,45.3839391],[-73.5246621,45.3837642],[-73.5245756,45.3837139],[-73.524166,45.3835042]]}";4;Avenue des Flandres;1;40;false;true;true;false;false;false;90.0;0;0;0;0;0;false;75379;6133322881;-73.523128;45.38272;75076;6133324594;-73.524806;45.384102;0;21;22;9510265;Bus 33 : Champlain;"";EXO;33;Stationnement incitatif Candiac;Stationnement incitatif Candiac
803146849;"{\"type\":\"LineString\",\"coordinates\":[[-73.5230907,45.3854317],[-73.5234415,45.3852535],[-73.5235606,45.3851802],[-73.5239834,45.3848477],[-73.5240668,45.3847823],[-73.5242664,45.3846257],[-73.5247075,45.3842735],[-73.5248795,45.3841362],[-73.5249195,45.3841041],[-73.5250098,45.3840315],[-73.5251018,45.383958],[-73.525143,45.3839251],[-73.5254079,45.3837166],[-73.5254496,45.3836871],[-73.5254956,45.3836596],[-73.5255473,45.3836361],[-73.5258606,45.3835136],[-73.5264131,45.3833044],[-73.5264902,45.3832751],[-73.5265473,45.3832488],[-73.5265944,45.3832186],[-73.526636,45.3831872],[-73.5270526,45.3828545],[-73.5273248,45.3826404]]}";5;Chemin Haendel;2;50;false;false;true;false;false;false;459.0;0;3;2;0;0;false;75379;6133322881;-73.523128;45.38272;75076;6133324594;-73.524806;45.384102;2;21;22;9510265;Bus 33 : Champlain;"";EXO;33;Stationnement incitatif Candiac;Stationnement incitatif Candiac
803144775;"{\"type\":\"LineString\",\"coordinates\":[[-73.524166,45.3835042],[-73.5245013,45.3837599],[-73.5246286,45.3838474],[-73.5248278,45.3839777],[-73.524866,45.3839992],[-73.5249302,45.3840136],[-73.5250098,45.3840315]]}";1;Avenue des Flandres;1;40;false;true;true;false;false;false;90.0;0;1;1;0;0;false;75076;6133324594;-73.524806;45.384102;75403;6133322861;-73.521527;45.386324;2;22;23;9510265;Bus 33 : Champlain;"";EXO;33;Stationnement incitatif Candiac;Stationnement incitatif Candiac
803144776;"{\"type\":\"LineString\",\"coordinates\":[[-73.5250098,45.3840315],[-73.5249724,45.3839784],[-73.524938,45.3839391],[-73.5246621,45.3837642],[-73.5245756,45.3837139],[-73.524166,45.3835042]]}";2;Avenue des Flandres;1;40;false;true;true;false;false;false;90.0;0;0;0;0;0;false;75076;6133324594;-73.524806;45.384102;75403;6133322861;-73.521527;45.386324;0;22;23;9510265;Bus 33 : Champlain;"";EXO;33;Stationnement incitatif Candiac;Stationnement incitatif Candiac
803146849;"{\"type\":\"LineString\",\"coordinates\":[[-73.5230907,45.3854317],[-73.5234415,45.3852535],[-73.5235606,45.3851802],[-73.5239834,45.3848477],[-73.5240668,45.3847823],[-73.5242664,45.3846257],[-73.5247075,45.3842735],[-73.5248795,45.3841362],[-73.5249195,45.3841041],[-73.5250098,45.3840315],[-73.5251018,45.383958],[-73.525143,45.3839251],[-73.5254079,45.3837166],[-73.5254496,45.3836871],[-73.5254956,45.3836596],[-73.5255473,45.3836361],[-73.5258606,45.3835136],[-73.5264131,45.3833044],[-73.5264902,45.3832751],[-73.5265473,45.3832488],[-73.5265944,45.3832186],[-73.526636,45.3831872],[-73.5270526,45.3828545],[-73.5273248,45.3826404]]}";3;Chemin Haendel;2;50;false;false;true;false;false;false;459.0;0;3;2;0;0;false;75076;6133324594;-73.524806;45.384102;75403;6133322861;-73.521527;45.386324;0;22;23;9510265;Bus 33 : Champlain;"";EXO;33;Stationnement incitatif Candiac;Stationnement incitatif Candiac
803146851;"{\"type\":\"LineString\",\"coordinates\":[[-73.5230907,45.3854317],[-73.5230026,45.3854496],[-73.5229396,45.3854697],[-73.5228809,45.3854958],[-73.522805,45.385531],[-73.5227491,45.3855622],[-73.5227017,45.3855968]]}";4;"";1;50;false;true;true;false;false;false;37.0;0;0;0;0;0;false;75076;6133324594;-73.524806;45.384102;75403;6133322861;-73.521527;45.386324;0;22;23;9510265;Bus 33 : Champlain;"";EXO;33;Stationnement incitatif Candiac;Stationnement incitatif Candiac
685306390;"{\"type\":\"LineString\",\"coordinates\":[[-73.5184116,45.3892361],[-73.5184488,45.3891646],[-73.5185879,45.3888609],[-73.5186534,45.3887202],[-73.5186746,45.3886782],[-73.5186969,45.3886421],[-73.5187305,45.3886064],[-73.518774,45.3885672],[-73.5214651,45.3864607],[-73.5221012,45.3859615],[-73.5221502,45.3859239],[-73.5221973,45.3858879],[-73.5222715,45.3858333],[-73.5223339,45.3857948],[-73.5224059,45.3857531],[-73.5224895,45.3857072],[-73.5225719,45.3856653],[-73.5226443,45.3856271],[-73.5227017,45.3855968]]}";5;Chemin Haendel;2;50;false;false;false;false;false;false;532.0;0;1;1;0;0;false;75076;6133324594;-73.524806;45.384102;75403;6133322861;-73.521527;45.386324;2;22;23;9510265;Bus 33 : Champlain;"";EXO;33;Stationnement incitatif Candiac;Stationnement incitatif Candiac
798029050;"{\"type\":\"LineString\",\"coordinates\":[[-73.5176756,45.3907702],[-73.5176986,45.3907222],[-73.5177531,45.3906087],[-73.5178362,45.3904356],[-73.5179212,45.3902592],[-73.5180685,45.3899531],[-73.5181118,45.3898567],[-73.5182231,45.3896251],[-73.5183659,45.3893303],[-73.5183754,45.3893108],[-73.5184116,45.3892361]]}";1;Chemin Haendel;2;30;false;false;true;false;false;false;180.0;0;3;1;0;0;false;75060;6133324608;-73.518377;45.389156;75645;6133322650;-73.516952;45.393403;2;24;25;9510265;Bus 33 : Champlain;"";EXO;33;Stationnement incitatif Candiac;Stationnement incitatif Candiac
25656109;"{\"type\":\"LineString\",\"coordinates\":[[-73.5171683,45.3918108],[-73.5174799,45.3911687],[-73.5175052,45.3911173],[-73.5175276,45.3910668],[-73.5176406,45.3908387],[-73.5176756,45.3907702]]}";2;Chemin Haendel;2;50;false;false;false;false;false;false;123.0;0;3;0;0;0;false;75060;6133324608;-73.518377;45.389156;75645;6133322650;-73.516952;45.393403;0;24;25;9510265;Bus 33 : Champlain;"";EXO;33;Stationnement incitatif Candiac;Stationnement incitatif Candiac
798085682;"{\"type\":\"LineString\",\"coordinates\":[[-73.5166974,45.3923384],[-73.5168593,45.392231],[-73.516928,45.3921823],[-73.516989,45.3921379],[-73.5170141,45.3921146],[-73.5170397,45.3920889],[-73.5170606,45.3920649],[-73.5170874,45.3920304],[-73.5171339,45.3919626],[-73.5171448,45.3919272],[-73.5171683,45.3918108]]}";3;Chemin Haendel;1;50;false;true;true;false;false;false;72.0;0;1;0;0;0;false;75060;6133324608;-73.518377;45.389156;75645;6133322650;-73.516952;45.393403;0;24;25;9510265;Bus 33 : Champlain;"";EXO;33;Stationnement incitatif Candiac;Stationnement incitatif Candiac
798085662;"{\"type\":\"LineString\",\"coordinates\":[[-73.5166175,45.392392],[-73.5166595,45.3923633],[-73.5166974,45.3923384]]}";4;Chemin Haendel;1;50;false;true;true;false;false;false;9.0;0;2;0;0;0;false;75060;6133324608;-73.518377;45.389156;75645;6133322650;-73.516952;45.393403;0;24;25;9510265;Bus 33 : Champlain;"";EXO;33;Stationnement incitatif Candiac;Stationnement incitatif Candiac
798085661;"{\"type\":\"LineString\",\"coordinates\":[[-73.516797,45.392551],[-73.5166571,45.3924334],[-73.5166434,45.3924191],[-73.5166175,45.392392]]}";5;Boulevard Montcalm Nord;2;50;false;true;true;false;false;false;23.0;1;1;0;0;0;false;75060;6133324608;-73.518377;45.389156;75645;6133322650;-73.516952;45.393403;0;24;25;9510265;Bus 33 : Champlain;"";EXO;33;Stationnement incitatif Candiac;Stationnement incitatif Candiac
25654340;"{\"type\":\"LineString\",\"coordinates\":[[-73.5169504,45.3927919],[-73.516797,45.392551]]}";6;Boulevard Montcalm Nord;1;50;false;true;true;false;false;false;30.0;0;0;0;0;0;false;75060;6133324608;-73.518377;45.389156;75645;6133322650;-73.516952;45.393403;0;24;25;9510265;Bus 33 : Champlain;"";EXO;33;Stationnement incitatif Candiac;Stationnement incitatif Candiac
798090940;"{\"type\":\"LineString\",\"coordinates\":[[-73.517012,45.3928653],[-73.5169504,45.3927919]]}";7;Boulevard Montcalm Nord;2;50;false;false;true;false;false;false;10.0;0;0;0;0;0;false;75060;6133324608;-73.518377;45.389156;75645;6133322650;-73.516952;45.393403;0;24;25;9510265;Bus 33 : Champlain;"";EXO;33;Stationnement incitatif Candiac;Stationnement incitatif Candiac
685125003;"{\"type\":\"LineString\",\"coordinates\":[[-73.5171372,45.3930185],[-73.5170727,45.3929397],[-73.517012,45.3928653]]}";8;Boulevard Montcalm Nord;2;50;false;false;true;false;false;false;20.0;0;1;0;0;0;false;75060;6133324608;-73.518377;45.389156;75645;6133322650;-73.516952;45.393403;0;24;25;9510265;Bus 33 : Champlain;"";EXO;33;Stationnement incitatif Candiac;Stationnement incitatif Candiac
397170172;"{\"type\":\"LineString\",\"coordinates\":[[-73.5171372,45.3930185],[-73.517154,45.3930789],[-73.5171621,45.3931279],[-73.5171602,45.3931627],[-73.5171562,45.3931751],[-73.5171441,45.3931984],[-73.517116,45.3932253],[-73.517086,45.3932456],[-73.517048,45.3932638],[-73.5169849,45.3932805],[-73.5166644,45.393351]]}";9;"";1;50;false;true;true;false;true;false;63.0;0;1;0;0;0;false;75060;6133324608;-73.518377;45.389156;75645;6133322650;-73.516952;45.393403;0;24;25;9510265;Bus 33 : Champlain;"";EXO;33;Stationnement incitatif Candiac;Stationnement incitatif Candiac
573205707;"{\"type\":\"LineString\",\"coordinates\":[[-73.5166644,45.393351],[-73.5169161,45.3933324],[-73.5170041,45.3933282],[-73.5171998,45.3933179],[-73.5172392,45.3933119],[-73.5172645,45.3933059],[-73.5172914,45.3932977],[-73.5173378,45.393281]]}";10;"";1;50;false;true;true;false;true;false;54.0;0;1;1;0;0;false;75060;6133324608;-73.518377;45.389156;75645;6133322650;-73.516952;45.393403;1;24;25;9510265;Bus 33 : Champlain;"";EXO;33;Stationnement incitatif Candiac;Stationnement incitatif Candiac
