way_id;shape;index;name;nb_lanes;legal_speed;speed_zone_30;oneway;shares_bike;bike_box;bus_lane;dedicated_bus_lane;length;nb_traffic_signals;nb_crossings;nb_stops;nb_give_ways;nb_lvl_crossings;roundabout;stop_id_orig;node_id_orig;coord_x_orig;coord_y_orig;stop_id_dest;node_id_dest;coord_x_dest;coord_y_dest;nb_neighbouring_ways_bus_stop;order_orig;order_dest;id_line;line_name;colour;operator;ref;from;to
229727179;"{\"type\":\"LineString\",\"coordinates\":[[-6.2557574,53.3482121],[-6.2551721,53.3483343],[-6.2551524,53.3483442],[-6.2549481,53.3484474]]}";1;Eden Quay;2;30;false;true;true;false;false;false;62.0;0;1;0;0;0;false;300;3162754596;-6.255765;53.3482845;972;6043104814;-6.2350181;53.3969921;1;0;1;7468115;27B - Eden Quay - Harristown;"";Dublin Bus;27B;Eden Quay;Harristown
3789703;"{\"type\":\"LineString\",\"coordinates\":[[-6.2549481,53.3484474],[-6.2549494,53.3485299],[-6.2549455,53.3486352],[-6.254946,53.3486617]]}";2;Beresford Place;4;50;false;true;true;false;false;false;25.0;0;0;0;0;0;false;300;3162754596;-6.255765;53.3482845;972;6043104814;-6.2350181;53.3969921;0;0;1;7468115;27B - Eden Quay - Harristown;"";Dublin Bus;27B;Eden Quay;Harristown
41851537;"{\"type\":\"LineString\",\"coordinates\":[[-6.254946,53.3486617],[-6.2546727,53.3490413],[-6.254637,53.3490672]]}";3;Beresford Place;2;50;false;true;true;false;false;false;51.0;1;0;0;0;0;false;300;3162754596;-6.255765;53.3482845;972;6043104814;-6.2350181;53.3969921;0;0;1;7468115;27B - Eden Quay - Harristown;"";Dublin Bus;27B;Eden Quay;Harristown
768702579;"{\"type\":\"LineString\",\"coordinates\":[[-6.254637,53.3490672],[-6.2545394,53.349138],[-6.254395,53.349195]]}";4;Beresford Place;2;50;false;true;true;false;false;false;22.0;0;0;0;0;0;false;300;3162754596;-6.255765;53.3482845;972;6043104814;-6.2350181;53.3969921;0;0;1;7468115;27B - Eden Quay - Harristown;"";Dublin Bus;27B;Eden Quay;Harristown
474506101;"{\"type\":\"LineString\",\"coordinates\":[[-6.254395,53.349195],[-6.2538579,53.3493391],[-6.2535621,53.3493945],[-6.2534785,53.3494054],[-6.2533276,53.3494209]]}";5;Beresford Place;2;50;false;true;true;false;false;false;77.0;0;0;0;0;0;false;300;3162754596;-6.255765;53.3482845;972;6043104814;-6.2350181;53.3969921;0;0;1;7468115;27B - Eden Quay - Harristown;"";Dublin Bus;27B;Eden Quay;Harristown
83806415;"{\"type\":\"LineString\",\"coordinates\":[[-6.2533276,53.3494209],[-6.2532096,53.3494338],[-6.252925,53.3494562],[-6.2526505,53.3494455]]}";6;Beresford Place;4;50;false;true;true;false;false;false;46.0;0;0;0;0;0;false;300;3162754596;-6.255765;53.3482845;972;6043104814;-6.2350181;53.3969921;0;0;1;7468115;27B - Eden Quay - Harristown;"";Dublin Bus;27B;Eden Quay;Harristown
49961185;"{\"type\":\"LineString\",\"coordinates\":[[-6.2526505,53.3494455],[-6.2523082,53.3493942]]}";7;Memorial Road;4;50;false;true;true;false;false;false;24.0;0;0;0;0;0;false;300;3162754596;-6.255765;53.3482845;972;6043104814;-6.2350181;53.3969921;0;0;1;7468115;27B - Eden Quay - Harristown;"";Dublin Bus;27B;Eden Quay;Harristown
114207515;"{\"type\":\"LineString\",\"coordinates\":[[-6.2523082,53.3493942],[-6.2522257,53.3493837],[-6.2520191,53.3493614],[-6.2517991,53.3493568],[-6.2516364,53.3493856],[-6.2514792,53.3494368]]}";8;Amiens Street;2;50;false;true;true;false;false;false;58.0;0;1;0;0;0;false;300;3162754596;-6.255765;53.3482845;972;6043104814;-6.2350181;53.3969921;0;0;1;7468115;27B - Eden Quay - Harristown;"";Dublin Bus;27B;Eden Quay;Harristown
4385840;"{\"type\":\"LineString\",\"coordinates\":[[-6.2509814,53.3498562],[-6.2510383,53.3497894],[-6.2510776,53.3497433],[-6.2511441,53.3496709],[-6.2514792,53.3494368]]}";9;Amiens Street;5;50;false;false;true;false;false;false;58.0;1;0;0;0;0;false;300;3162754596;-6.255765;53.3482845;972;6043104814;-6.2350181;53.3969921;0;0;1;7468115;27B - Eden Quay - Harristown;"";Dublin Bus;27B;Eden Quay;Harristown
4263427;"{\"type\":\"LineString\",\"coordinates\":[[-6.2509814,53.3498562],[-6.250932,53.3499211],[-6.2509252,53.3499319],[-6.2509193,53.3499412],[-6.2508963,53.3499778],[-6.2508905,53.349988],[-6.2508232,53.3501058],[-6.2507515,53.3502263],[-6.250693,53.3503237],[-6.2506765,53.3503501],[-6.2506075,53.3504606],[-6.2505976,53.3504764]]}";10;Amiens Street;4;50;false;false;true;false;false;false;75.0;1;0;0;0;0;false;300;3162754596;-6.255765;53.3482845;972;6043104814;-6.2350181;53.3969921;0;0;1;7468115;27B - Eden Quay - Harristown;"";Dublin Bus;27B;Eden Quay;Harristown
627577866;"{\"type\":\"LineString\",\"coordinates\":[[-6.2505976,53.3504764],[-6.2505313,53.3505804],[-6.2504947,53.3506378],[-6.2502891,53.3509732],[-6.250277,53.350993],[-6.2501154,53.3512846],[-6.2500678,53.3513705]]}";11;Amiens Street;4;50;false;false;true;false;false;false;107.0;1;1;0;0;0;false;300;3162754596;-6.255765;53.3482845;972;6043104814;-6.2350181;53.3969921;0;0;1;7468115;27B - Eden Quay - Harristown;"";Dublin Bus;27B;Eden Quay;Harristown
37865178;"{\"type\":\"LineString\",\"coordinates\":[[-6.2500678,53.3513705],[-6.2500118,53.3514696],[-6.2498406,53.3517174],[-6.2497435,53.3518457]]}";12;Amiens Street;5;50;false;false;true;false;false;false;58.0;1;0;0;0;0;false;300;3162754596;-6.255765;53.3482845;972;6043104814;-6.2350181;53.3969921;0;0;1;7468115;27B - Eden Quay - Harristown;"";Dublin Bus;27B;Eden Quay;Harristown
37865179;"{\"type\":\"LineString\",\"coordinates\":[[-6.2497435,53.3518457],[-6.2497261,53.351872],[-6.2494985,53.3521529]]}";13;Amiens Street;4;50;false;false;true;false;false;false;39.0;0;0;0;0;0;false;300;3162754596;-6.255765;53.3482845;972;6043104814;-6.2350181;53.3969921;0;0;1;7468115;27B - Eden Quay - Harristown;"";Dublin Bus;27B;Eden Quay;Harristown
37865180;"{\"type\":\"LineString\",\"coordinates\":[[-6.2494985,53.3521529],[-6.249236,53.3524035],[-6.2489537,53.3526565],[-6.2488824,53.3527225]]}";14;Amiens Street;3;50;false;false;true;false;false;false;77.0;0;1;0;0;0;false;300;3162754596;-6.255765;53.3482845;972;6043104814;-6.2350181;53.3969921;0;0;1;7468115;27B - Eden Quay - Harristown;"";Dublin Bus;27B;Eden Quay;Harristown
520012242;"{\"type\":\"LineString\",\"coordinates\":[[-6.2488824,53.3527225],[-6.2487534,53.3528355],[-6.2486188,53.3529497]]}";15;Amiens Street;3;50;false;false;true;false;false;false;31.0;0;0;0;0;0;false;300;3162754596;-6.255765;53.3482845;972;6043104814;-6.2350181;53.3969921;0;0;1;7468115;27B - Eden Quay - Harristown;"";Dublin Bus;27B;Eden Quay;Harristown
354359922;"{\"type\":\"LineString\",\"coordinates\":[[-6.2486188,53.3529497],[-6.2482417,53.3532579]]}";16;Amiens Street;3;50;false;false;true;false;false;false;43.0;0;0;0;0;0;false;300;3162754596;-6.255765;53.3482845;972;6043104814;-6.2350181;53.3969921;0;0;1;7468115;27B - Eden Quay - Harristown;"";Dublin Bus;27B;Eden Quay;Harristown
354359921;"{\"type\":\"LineString\",\"coordinates\":[[-6.2482417,53.3532579],[-6.2480663,53.3534157],[-6.2479425,53.3535212],[-6.2477435,53.3537091],[-6.2476425,53.3538045],[-6.2474421,53.3539932],[-6.2467814,53.3546178],[-6.2466832,53.3547073]]}";17;Amiens Street;4;50;false;false;true;false;false;false;194.0;1;0;0;0;0;false;300;3162754596;-6.255765;53.3482845;972;6043104814;-6.2350181;53.3969921;0;0;1;7468115;27B - Eden Quay - Harristown;"";Dublin Bus;27B;Eden Quay;Harristown
130277328;"{\"type\":\"LineString\",\"coordinates\":[[-6.2466832,53.3547073],[-6.2464207,53.3549463],[-6.246288,53.3550671]]}";18;North Strand Road;4;50;false;false;true;false;false;false;49.0;1;0;0;0;0;false;300;3162754596;-6.255765;53.3482845;972;6043104814;-6.2350181;53.3969921;0;0;1;7468115;27B - Eden Quay - Harristown;"";Dublin Bus;27B;Eden Quay;Harristown
37866821;"{\"type\":\"LineString\",\"coordinates\":[[-6.246288,53.3550671],[-6.2461724,53.355154],[-6.2455796,53.3555999],[-6.2454208,53.3557193],[-6.2451039,53.3559576]]}";19;North Strand Road;4;50;false;false;true;false;false;false;128.0;0;0;0;0;0;false;300;3162754596;-6.255765;53.3482845;972;6043104814;-6.2350181;53.3969921;0;0;1;7468115;27B - Eden Quay - Harristown;"";Dublin Bus;27B;Eden Quay;Harristown
37720965;"{\"type\":\"LineString\",\"coordinates\":[[-6.2451039,53.3559576],[-6.2448331,53.3561421],[-6.2446829,53.3562416],[-6.244431,53.3564115]]}";20;North Strand Road;4;50;false;false;true;false;false;false;68.0;0;0;0;0;0;false;300;3162754596;-6.255765;53.3482845;972;6043104814;-6.2350181;53.3969921;0;0;1;7468115;27B - Eden Quay - Harristown;"";Dublin Bus;27B;Eden Quay;Harristown
502143950;"{\"type\":\"LineString\",\"coordinates\":[[-6.244431,53.3564115],[-6.2443719,53.3564514]]}";21;North Strand Road;4;50;false;false;true;false;false;false;6.0;0;0;0;0;0;false;300;3162754596;-6.255765;53.3482845;972;6043104814;-6.2350181;53.3969921;0;0;1;7468115;27B - Eden Quay - Harristown;"";Dublin Bus;27B;Eden Quay;Harristown
317219095;"{\"type\":\"LineString\",\"coordinates\":[[-6.2442572,53.356529],[-6.2443719,53.3564514]]}";22;Newcomen Bridge;4;50;false;false;true;false;false;false;12.0;0;0;0;0;0;false;300;3162754596;-6.255765;53.3482845;972;6043104814;-6.2350181;53.3969921;0;0;1;7468115;27B - Eden Quay - Harristown;"";Dublin Bus;27B;Eden Quay;Harristown
482926564;"{\"type\":\"LineString\",\"coordinates\":[[-6.2442545,53.3565305],[-6.2442572,53.356529]]}";23;North Strand Road;4;50;false;false;true;false;false;false;1.0;0;0;0;0;0;false;300;3162754596;-6.255765;53.3482845;972;6043104814;-6.2350181;53.3969921;0;0;1;7468115;27B - Eden Quay - Harristown;"";Dublin Bus;27B;Eden Quay;Harristown
128947808;"{\"type\":\"LineString\",\"coordinates\":[[-6.2440112,53.3566966],[-6.2441549,53.3565972],[-6.2442545,53.3565305]]}";24;North Strand Road;4;50;false;false;true;false;false;false;25.0;0;0;0;0;0;false;300;3162754596;-6.255765;53.3482845;972;6043104814;-6.2350181;53.3969921;0;0;1;7468115;27B - Eden Quay - Harristown;"";Dublin Bus;27B;Eden Quay;Harristown
4287187;"{\"type\":\"LineString\",\"coordinates\":[[-6.2440112,53.3566966],[-6.2439907,53.3567109],[-6.2439701,53.3567252],[-6.2438134,53.3568295],[-6.2433013,53.3571552],[-6.2428201,53.3574756],[-6.2427373,53.3575342],[-6.2426136,53.3576186],[-6.242318,53.3578072],[-6.242179,53.3578988],[-6.2420588,53.3579854],[-6.2416794,53.3582301],[-6.2411525,53.3586229]]}";25;North Strand Road;4;50;false;false;true;false;false;false;289.0;1;0;0;0;0;false;300;3162754596;-6.255765;53.3482845;972;6043104814;-6.2350181;53.3969921;0;0;1;7468115;27B - Eden Quay - Harristown;"";Dublin Bus;27B;Eden Quay;Harristown
375581291;"{\"type\":\"LineString\",\"coordinates\":[[-6.2411525,53.3586229],[-6.2410033,53.3587408],[-6.2407429,53.3589741],[-6.2406104,53.3591044]]}";26;North Strand Road;4;50;false;false;true;false;false;false;66.0;0;0;0;0;0;false;300;3162754596;-6.255765;53.3482845;972;6043104814;-6.2350181;53.3969921;0;0;1;7468115;27B - Eden Quay - Harristown;"";Dublin Bus;27B;Eden Quay;Harristown
375581292;"{\"type\":\"LineString\",\"coordinates\":[[-6.2406104,53.3591044],[-6.2405626,53.3591582],[-6.2403848,53.3593319]]}";27;North Strand Road;4;50;false;false;true;false;false;false;30.0;0;0;0;0;0;false;300;3162754596;-6.255765;53.3482845;972;6043104814;-6.2350181;53.3969921;0;0;1;7468115;27B - Eden Quay - Harristown;"";Dublin Bus;27B;Eden Quay;Harristown
481221022;"{\"type\":\"LineString\",\"coordinates\":[[-6.2403848,53.3593319],[-6.2402921,53.3594225]]}";28;North Strand Road;4;50;false;false;true;false;false;false;12.0;1;0;0;0;0;false;300;3162754596;-6.255765;53.3482845;972;6043104814;-6.2350181;53.3969921;0;0;1;7468115;27B - Eden Quay - Harristown;"";Dublin Bus;27B;Eden Quay;Harristown
37691265;"{\"type\":\"LineString\",\"coordinates\":[[-6.2402921,53.3594225],[-6.2401285,53.3595559],[-6.2399931,53.3596662]]}";29;North Strand Road;1;50;false;false;true;false;false;false;34.0;1;1;0;0;0;false;300;3162754596;-6.255765;53.3482845;972;6043104814;-6.2350181;53.3969921;0;0;1;7468115;27B - Eden Quay - Harristown;"";Dublin Bus;27B;Eden Quay;Harristown
37812705;"{\"type\":\"LineString\",\"coordinates\":[[-6.2399931,53.3596662],[-6.2398718,53.3597745],[-6.2397449,53.3598965],[-6.2395592,53.3600684],[-6.2393619,53.3602691]]}";30;North Strand Road;6;50;false;false;true;false;false;false;80.0;0;0;0;0;0;false;300;3162754596;-6.255765;53.3482845;972;6043104814;-6.2350181;53.3969921;0;0;1;7468115;27B - Eden Quay - Harristown;"";Dublin Bus;27B;Eden Quay;Harristown
37096954;"{\"type\":\"LineString\",\"coordinates\":[[-6.2393619,53.3602691],[-6.2393368,53.3602973],[-6.2390148,53.3606292]]}";31;North Strand Road;5;50;false;false;true;false;false;false;47.0;1;0;0;0;0;false;300;3162754596;-6.255765;53.3482845;972;6043104814;-6.2350181;53.3969921;0;0;1;7468115;27B - Eden Quay - Harristown;"";Dublin Bus;27B;Eden Quay;Harristown
4937390;"{\"type\":\"LineString\",\"coordinates\":[[-6.2390148,53.3606292],[-6.2389493,53.3606838]]}";32;Annesley Bridge Road;5;50;false;false;true;false;false;false;8.0;1;0;0;0;0;false;300;3162754596;-6.255765;53.3482845;972;6043104814;-6.2350181;53.3969921;0;0;1;7468115;27B - Eden Quay - Harristown;"";Dublin Bus;27B;Eden Quay;Harristown
4937391;"{\"type\":\"LineString\",\"coordinates\":[[-6.2389493,53.3606838],[-6.2387285,53.3608653]]}";33;Annesley Bridge;5;50;false;false;true;false;false;false;26.0;0;0;0;0;0;false;300;3162754596;-6.255765;53.3482845;972;6043104814;-6.2350181;53.3969921;0;0;1;7468115;27B - Eden Quay - Harristown;"";Dublin Bus;27B;Eden Quay;Harristown
317219085;"{\"type\":\"LineString\",\"coordinates\":[[-6.2387285,53.3608653],[-6.2386869,53.3608994]]}";34;Annesley Bridge;5;50;false;false;true;false;false;false;5.0;0;0;0;0;0;false;300;3162754596;-6.255765;53.3482845;972;6043104814;-6.2350181;53.3969921;0;0;1;7468115;27B - Eden Quay - Harristown;"";Dublin Bus;27B;Eden Quay;Harristown
379071734;"{\"type\":\"LineString\",\"coordinates\":[[-6.2386869,53.3608994],[-6.2385622,53.3610019]]}";35;Annesley Bridge;5;50;false;false;true;false;false;false;15.0;0;0;0;0;0;false;300;3162754596;-6.255765;53.3482845;972;6043104814;-6.2350181;53.3969921;0;0;1;7468115;27B - Eden Quay - Harristown;"";Dublin Bus;27B;Eden Quay;Harristown
4287188;"{\"type\":\"LineString\",\"coordinates\":[[-6.2385622,53.3610019],[-6.2384712,53.361078],[-6.2384312,53.3611116],[-6.2381319,53.3613631],[-6.2378516,53.3615991],[-6.2376588,53.3617555],[-6.2374039,53.3619789],[-6.2368792,53.3624417]]}";36;Annesley Bridge Road;5;50;false;false;true;false;false;false;197.0;0;0;0;0;0;false;300;3162754596;-6.255765;53.3482845;972;6043104814;-6.2350181;53.3969921;0;0;1;7468115;27B - Eden Quay - Harristown;"";Dublin Bus;27B;Eden Quay;Harristown
442928296;"{\"type\":\"LineString\",\"coordinates\":[[-6.2368792,53.3624417],[-6.2366371,53.362675],[-6.2364566,53.362849]]}";37;Annesley Bridge Road;4;50;false;false;true;false;false;false;54.0;1;0;0;0;0;false;300;3162754596;-6.255765;53.3482845;972;6043104814;-6.2350181;53.3969921;0;0;1;7468115;27B - Eden Quay - Harristown;"";Dublin Bus;27B;Eden Quay;Harristown
22716429;"{\"type\":\"LineString\",\"coordinates\":[[-6.2364566,53.362849],[-6.2359464,53.3630073],[-6.235517,53.36313],[-6.2351937,53.3632223],[-6.234743,53.3633522]]}";38;Fairview;5;50;false;false;true;false;false;false;128.0;1;0;0;0;0;false;300;3162754596;-6.255765;53.3482845;972;6043104814;-6.2350181;53.3969921;0;0;1;7468115;27B - Eden Quay - Harristown;"";Dublin Bus;27B;Eden Quay;Harristown
368990036;"{\"type\":\"LineString\",\"coordinates\":[[-6.234743,53.3633522],[-6.2342918,53.3634823],[-6.2335724,53.3636985],[-6.2332619,53.3637949]]}";39;Fairview;6;50;false;false;true;false;false;false;111.0;0;0;0;0;0;false;300;3162754596;-6.255765;53.3482845;972;6043104814;-6.2350181;53.3969921;0;0;1;7468115;27B - Eden Quay - Harristown;"";Dublin Bus;27B;Eden Quay;Harristown
146465050;"{\"type\":\"LineString\",\"coordinates\":[[-6.2332619,53.3637949],[-6.2329627,53.3638733]]}";40;Marino Mart;5;50;false;false;true;false;false;false;22.0;0;0;0;0;0;false;300;3162754596;-6.255765;53.3482845;972;6043104814;-6.2350181;53.3969921;0;0;1;7468115;27B - Eden Quay - Harristown;"";Dublin Bus;27B;Eden Quay;Harristown
197048019;"{\"type\":\"LineString\",\"coordinates\":[[-6.2329627,53.3638733],[-6.2327655,53.3639237],[-6.2326329,53.3639576],[-6.2318186,53.364153],[-6.2315617,53.3642009],[-6.2309918,53.3642942],[-6.2305584,53.3643355],[-6.2301531,53.3643532],[-6.2298176,53.3643593]]}";41;Marino Mart;6;50;false;false;true;false;false;false;220.0;1;0;0;0;0;false;300;3162754596;-6.255765;53.3482845;972;6043104814;-6.2350181;53.3969921;0;0;1;7468115;27B - Eden Quay - Harristown;"";Dublin Bus;27B;Eden Quay;Harristown
3818324;"{\"type\":\"LineString\",\"coordinates\":[[-6.2298176,53.3643593],[-6.22963,53.3644894],[-6.2294875,53.364615],[-6.2294597,53.3646395],[-6.2293384,53.3647896],[-6.2292855,53.3648599]]}";42;Malahide Road;4;50;false;false;true;false;false;false;67.0;2;0;0;0;0;false;300;3162754596;-6.255765;53.3482845;972;6043104814;-6.2350181;53.3969921;0;0;1;7468115;27B - Eden Quay - Harristown;"";Dublin Bus;27B;Eden Quay;Harristown
360696797;"{\"type\":\"LineString\",\"coordinates\":[[-6.2292855,53.3648599],[-6.2292127,53.3651874],[-6.2291433,53.3653726],[-6.2289794,53.3657324],[-6.2288907,53.3658899],[-6.2287939,53.3660445],[-6.2286036,53.3663091],[-6.2283054,53.3667262],[-6.2282882,53.3667522],[-6.228019,53.3671343],[-6.2278836,53.3673136],[-6.2277239,53.3674803],[-6.2275532,53.3676339],[-6.2274843,53.3676984],[-6.227407,53.3677631]]}";43;Malahide Road;3;50;false;false;false;false;false;false;352.0;1;0;0;0;0;false;300;3162754596;-6.255765;53.3482845;972;6043104814;-6.2350181;53.3969921;0;0;1;7468115;27B - Eden Quay - Harristown;"";Dublin Bus;27B;Eden Quay;Harristown
326993767;"{\"type\":\"LineString\",\"coordinates\":[[-6.227407,53.3677631],[-6.2273532,53.3678049]]}";44;Malahide Road;3;50;false;false;false;false;false;false;6.0;0;0;0;0;0;false;300;3162754596;-6.255765;53.3482845;972;6043104814;-6.2350181;53.3969921;0;0;1;7468115;27B - Eden Quay - Harristown;"";Dublin Bus;27B;Eden Quay;Harristown
56760196;"{\"type\":\"LineString\",\"coordinates\":[[-6.2273532,53.3678049],[-6.2271191,53.3680074],[-6.2269107,53.3681727],[-6.2268155,53.3682409]]}";45;Malahide Road;2;50;false;true;false;false;false;false;61.0;0;0;0;0;0;false;300;3162754596;-6.255765;53.3482845;972;6043104814;-6.2350181;53.3969921;0;0;1;7468115;27B - Eden Quay - Harristown;"";Dublin Bus;27B;Eden Quay;Harristown
378875552;"{\"type\":\"LineString\",\"coordinates\":[[-6.2268155,53.3682409],[-6.2265201,53.3684526],[-6.2263944,53.3685392]]}";46;Malahide Road;2;50;false;true;false;false;false;false;44.0;1;0;0;0;0;false;300;3162754596;-6.255765;53.3482845;972;6043104814;-6.2350181;53.3969921;0;0;1;7468115;27B - Eden Quay - Harristown;"";Dublin Bus;27B;Eden Quay;Harristown
370960886;"{\"type\":\"LineString\",\"coordinates\":[[-6.2263944,53.3685392],[-6.2262352,53.3686574],[-6.2258012,53.3690018],[-6.2257597,53.3690347],[-6.2255993,53.3691792],[-6.2249087,53.3698795],[-6.2248501,53.3699389],[-6.2248209,53.3699685],[-6.2246647,53.3701268]]}";47;Malahide Road;2;50;false;true;false;false;false;false;213.0;1;1;0;0;0;false;300;3162754596;-6.255765;53.3482845;972;6043104814;-6.2350181;53.3969921;0;0;1;7468115;27B - Eden Quay - Harristown;"";Dublin Bus;27B;Eden Quay;Harristown
368177064;"{\"type\":\"LineString\",\"coordinates\":[[-6.2246647,53.3701268],[-6.2241151,53.3706837],[-6.2240313,53.3707686],[-6.2239457,53.3708451],[-6.2233301,53.3714789],[-6.223313,53.3714962],[-6.2226467,53.3721455],[-6.2224534,53.372331]]}";48;Malahide Road;2;50;false;true;false;false;false;false;288.0;0;1;0;0;0;false;300;3162754596;-6.255765;53.3482845;972;6043104814;-6.2350181;53.3969921;0;0;1;7468115;27B - Eden Quay - Harristown;"";Dublin Bus;27B;Eden Quay;Harristown
368941619;"{\"type\":\"LineString\",\"coordinates\":[[-6.2224534,53.372331],[-6.2220222,53.3727743],[-6.2217444,53.3730258]]}";49;Malahide Road;2;50;false;true;false;false;false;false;92.0;0;1;0;0;0;false;300;3162754596;-6.255765;53.3482845;972;6043104814;-6.2350181;53.3969921;0;0;1;7468115;27B - Eden Quay - Harristown;"";Dublin Bus;27B;Eden Quay;Harristown
750263307;"{\"type\":\"LineString\",\"coordinates\":[[-6.2217444,53.3730258],[-6.2214925,53.3731575]]}";50;Malahide Road;2;50;false;true;false;false;false;false;23.0;0;1;0;0;0;false;300;3162754596;-6.255765;53.3482845;972;6043104814;-6.2350181;53.3969921;0;0;1;7468115;27B - Eden Quay - Harristown;"";Dublin Bus;27B;Eden Quay;Harristown
56722994;"{\"type\":\"LineString\",\"coordinates\":[[-6.2214925,53.3731575],[-6.2214248,53.3732001]]}";51;Malahide Road;4;50;false;false;true;false;false;false;7.0;0;0;0;0;0;false;300;3162754596;-6.255765;53.3482845;972;6043104814;-6.2350181;53.3969921;0;0;1;7468115;27B - Eden Quay - Harristown;"";Dublin Bus;27B;Eden Quay;Harristown
317675351;"{\"type\":\"LineString\",\"coordinates\":[[-6.2214248,53.3732001],[-6.2211514,53.3733719],[-6.2210749,53.3734221],[-6.2209495,53.373511],[-6.2205741,53.3737771],[-6.2203594,53.3739673],[-6.2201855,53.3741611],[-6.2200469,53.3743417],[-6.2199785,53.3744294],[-6.2198848,53.3745331]]}";52;Malahide Road;4;50;false;false;true;false;false;false;183.0;0;1;0;0;0;false;300;3162754596;-6.255765;53.3482845;972;6043104814;-6.2350181;53.3969921;0;0;1;7468115;27B - Eden Quay - Harristown;"";Dublin Bus;27B;Eden Quay;Harristown
342674852;"{\"type\":\"LineString\",\"coordinates\":[[-6.2198848,53.3745331],[-6.2198983,53.3746079],[-6.2197718,53.3747594],[-6.2197503,53.3747818],[-6.2196393,53.3748969],[-6.2195034,53.3750114],[-6.2192033,53.3752643],[-6.219073,53.3753617],[-6.2189255,53.375456],[-6.218782,53.3754956]]}";53;Malahide Road;2;50;false;true;false;false;false;false;135.0;1;1;0;0;0;false;300;3162754596;-6.255765;53.3482845;972;6043104814;-6.2350181;53.3969921;0;0;1;7468115;27B - Eden Quay - Harristown;"";Dublin Bus;27B;Eden Quay;Harristown
378875553;"{\"type\":\"LineString\",\"coordinates\":[[-6.218782,53.3754956],[-6.2185639,53.3756327],[-6.218121,53.3758694],[-6.2179832,53.3759431],[-6.217939,53.3759626]]}";54;Malahide Road;4;50;false;false;true;false;false;false;78.0;1;0;0;0;0;false;300;3162754596;-6.255765;53.3482845;972;6043104814;-6.2350181;53.3969921;0;0;1;7468115;27B - Eden Quay - Harristown;"";Dublin Bus;27B;Eden Quay;Harristown
4900226;"{\"type\":\"LineString\",\"coordinates\":[[-6.217939,53.3759626],[-6.2177354,53.3760647],[-6.2176743,53.3760958],[-6.2172619,53.3763062],[-6.2171093,53.3763819],[-6.216388,53.3767513],[-6.216217,53.3768452],[-6.2160418,53.3769407],[-6.2154624,53.3773138]]}";55;Malahide Road;4;50;false;false;true;false;false;false;225.0;0;0;0;0;0;false;300;3162754596;-6.255765;53.3482845;972;6043104814;-6.2350181;53.3969921;0;0;1;7468115;27B - Eden Quay - Harristown;"";Dublin Bus;27B;Eden Quay;Harristown
317127410;"{\"type\":\"LineString\",\"coordinates\":[[-6.2154624,53.3773138],[-6.2153418,53.3773956],[-6.2150837,53.3775704],[-6.2148518,53.3777296],[-6.2147124,53.3778155],[-6.2145596,53.3778982],[-6.2143413,53.3779918],[-6.2141135,53.3780799],[-6.2134056,53.3783374],[-6.2131872,53.3784154]]}";56;Malahide Road;4;50;false;false;true;false;false;false;198.0;1;0;0;0;0;false;300;3162754596;-6.255765;53.3482845;972;6043104814;-6.2350181;53.3969921;0;0;1;7468115;27B - Eden Quay - Harristown;"";Dublin Bus;27B;Eden Quay;Harristown
317675352;"{\"type\":\"LineString\",\"coordinates\":[[-6.2131872,53.3784154],[-6.2130144,53.3784773],[-6.2127798,53.3785797],[-6.2126384,53.3786415],[-6.2122777,53.3788273],[-6.2117732,53.3791054],[-6.2116685,53.3791624],[-6.2113685,53.3793259],[-6.2111193,53.3794637],[-6.2105571,53.3797962],[-6.2103169,53.3799382]]}";57;Malahide Road;4;50;false;false;true;false;false;false;258.0;2;0;0;0;0;false;300;3162754596;-6.255765;53.3482845;972;6043104814;-6.2350181;53.3969921;0;0;1;7468115;27B - Eden Quay - Harristown;"";Dublin Bus;27B;Eden Quay;Harristown
129313733;"{\"type\":\"LineString\",\"coordinates\":[[-6.2103169,53.3799382],[-6.2101497,53.3800278],[-6.2099629,53.3801446],[-6.2097378,53.380295],[-6.2094769,53.3804881],[-6.2092685,53.3806481],[-6.2089901,53.3808551],[-6.2086539,53.381121],[-6.2084975,53.3812475],[-6.2082938,53.3814123],[-6.2080493,53.3815844]]}";58;Malahide Road;3;50;false;false;false;false;false;false;240.0;1;1;0;0;0;false;300;3162754596;-6.255765;53.3482845;972;6043104814;-6.2350181;53.3969921;0;0;1;7468115;27B - Eden Quay - Harristown;"";Dublin Bus;27B;Eden Quay;Harristown
157072278;"{\"type\":\"LineString\",\"coordinates\":[[-6.2080493,53.3815844],[-6.2078781,53.3817176],[-6.2077128,53.3818462],[-6.2074974,53.3820156],[-6.2072642,53.3821871],[-6.2071541,53.3822582],[-6.2071179,53.3822816],[-6.2068112,53.3824344],[-6.206648,53.3825157],[-6.2062154,53.3826938],[-6.2059287,53.38279]]}";59;Malahide Road;4;50;false;false;true;false;false;false;199.0;0;0;0;0;0;false;300;3162754596;-6.255765;53.3482845;972;6043104814;-6.2350181;53.3969921;0;0;1;7468115;27B - Eden Quay - Harristown;"";Dublin Bus;27B;Eden Quay;Harristown
361316722;"{\"type\":\"LineString\",\"coordinates\":[[-6.2059287,53.38279],[-6.2057573,53.3828588],[-6.2055133,53.3829361]]}";60;Malahide Road;3;50;false;false;true;false;false;false;33.0;0;1;0;0;0;false;300;3162754596;-6.255765;53.3482845;972;6043104814;-6.2350181;53.3969921;0;0;1;7468115;27B - Eden Quay - Harristown;"";Dublin Bus;27B;Eden Quay;Harristown
317675329;"{\"type\":\"LineString\",\"coordinates\":[[-6.2055133,53.3829361],[-6.2055373,53.3829904],[-6.2055353,53.3830294],[-6.2055183,53.3830671],[-6.2054918,53.3830972],[-6.2054556,53.3831234]]}";61;Artane Roundabout;2;50;false;false;true;false;false;false;23.0;0;0;0;0;0;true;300;3162754596;-6.255765;53.3482845;972;6043104814;-6.2350181;53.3969921;0;0;1;7468115;27B - Eden Quay - Harristown;"";Dublin Bus;27B;Eden Quay;Harristown
129924262;"{\"type\":\"LineString\",\"coordinates\":[[-6.2142268,53.3868468],[-6.2137241,53.3869277],[-6.2132929,53.3870007],[-6.213155,53.3870043],[-6.2128292,53.3870128],[-6.2122234,53.3869764],[-6.211705,53.3868921],[-6.2116134,53.3868772],[-6.211247,53.3867943],[-6.2110154,53.3867427],[-6.2107066,53.3866739],[-6.210406,53.3865965],[-6.2102733,53.3865526],[-6.2101514,53.3865097],[-6.2099679,53.3863987],[-6.2096479,53.386183],[-6.2090237,53.3857218],[-6.2089524,53.3856691],[-6.2086647,53.3854653],[-6.2082528,53.3851682],[-6.2078993,53.3849133],[-6.2075172,53.3846431],[-6.2071086,53.3843542],[-6.2064667,53.3839003],[-6.2062565,53.3837402],[-6.2061888,53.3836868],[-6.2056665,53.3833091],[-6.2055753,53.3832412],[-6.2054556,53.3831234]]}";62;Ardlea Road;2;50;false;false;true;false;false;false;779.0;0;2;0;0;0;false;300;3162754596;-6.255765;53.3482845;972;6043104814;-6.2350181;53.3969921;0;0;1;7468115;27B - Eden Quay - Harristown;"";Dublin Bus;27B;Eden Quay;Harristown
19431059;"{\"type\":\"LineString\",\"coordinates\":[[-6.2151203,53.3869384],[-6.2149443,53.3868942],[-6.2147111,53.3868614],[-6.2142268,53.3868468]]}";63;Ardlea Road;2;50;false;false;true;false;false;false;62.0;1;0;0;0;0;false;300;3162754596;-6.255765;53.3482845;972;6043104814;-6.2350181;53.3969921;0;0;1;7468115;27B - Eden Quay - Harristown;"";Dublin Bus;27B;Eden Quay;Harristown
360174291;"{\"type\":\"LineString\",\"coordinates\":[[-6.2151203,53.3869384],[-6.2149382,53.3873407],[-6.2148701,53.3875194],[-6.2148341,53.3877428],[-6.2147971,53.3881938],[-6.2148033,53.3883107],[-6.2148112,53.3883871],[-6.2148519,53.3885889],[-6.2149226,53.388839],[-6.2150474,53.389291]]}";64;Kilmore Road;1;50;false;false;true;false;false;false;268.0;1;1;0;0;0;false;300;3162754596;-6.255765;53.3482845;972;6043104814;-6.2350181;53.3969921;0;0;1;7468115;27B - Eden Quay - Harristown;"";Dublin Bus;27B;Eden Quay;Harristown
360174262;"{\"type\":\"LineString\",\"coordinates\":[[-6.2150474,53.389291],[-6.2151322,53.3896584],[-6.2151469,53.3898653]]}";65;Kilmore Road;1;50;false;false;true;false;false;false;65.0;0;0;0;0;0;false;300;3162754596;-6.255765;53.3482845;972;6043104814;-6.2350181;53.3969921;0;0;1;7468115;27B - Eden Quay - Harristown;"";Dublin Bus;27B;Eden Quay;Harristown
334281817;"{\"type\":\"LineString\",\"coordinates\":[[-6.2151469,53.3898653],[-6.2151535,53.389959],[-6.2151552,53.3899984],[-6.2151678,53.3902827],[-6.2151653,53.3905105],[-6.2151541,53.3905895]]}";66;Kilmore Road;1;50;false;false;true;false;false;false;82.0;0;0;0;0;0;false;300;3162754596;-6.255765;53.3482845;972;6043104814;-6.2350181;53.3969921;0;0;1;7468115;27B - Eden Quay - Harristown;"";Dublin Bus;27B;Eden Quay;Harristown
334870618;"{\"type\":\"LineString\",\"coordinates\":[[-6.2151541,53.3905895],[-6.2151242,53.390801],[-6.2151093,53.3909086]]}";67;Kilmore Road;1;50;false;false;true;false;false;false;36.0;0;0;0;0;0;false;300;3162754596;-6.255765;53.3482845;972;6043104814;-6.2350181;53.3969921;0;0;1;7468115;27B - Eden Quay - Harristown;"";Dublin Bus;27B;Eden Quay;Harristown
360174253;"{\"type\":\"LineString\",\"coordinates\":[[-6.2151093,53.3909086],[-6.2150452,53.3912442],[-6.2149829,53.3916336],[-6.2149597,53.3917785]]}";68;Kilmore Road;2;50;false;false;true;false;false;false;98.0;0;0;0;0;0;false;300;3162754596;-6.255765;53.3482845;972;6043104814;-6.2350181;53.3969921;0;0;1;7468115;27B - Eden Quay - Harristown;"";Dublin Bus;27B;Eden Quay;Harristown
360174249;"{\"type\":\"LineString\",\"coordinates\":[[-6.2149597,53.3917785],[-6.2149488,53.3918466]]}";69;Kilmore Road;2;50;false;false;true;false;false;false;8.0;1;0;0;0;0;false;300;3162754596;-6.255765;53.3482845;972;6043104814;-6.2350181;53.3969921;0;0;1;7468115;27B - Eden Quay - Harristown;"";Dublin Bus;27B;Eden Quay;Harristown
129924301;"{\"type\":\"LineString\",\"coordinates\":[[-6.2149488,53.3918466],[-6.2151256,53.3918596],[-6.2164312,53.3920762],[-6.2171835,53.3922175],[-6.2178804,53.3923497],[-6.2183079,53.3924424],[-6.2188482,53.3925538],[-6.2193842,53.3926679],[-6.2196599,53.3927262],[-6.2199624,53.3928006],[-6.2204808,53.3929265],[-6.2210424,53.3930574],[-6.2211181,53.3930769],[-6.2212733,53.3931169],[-6.2216229,53.3932069]]}";70;Kilbarron Road;2;50;false;false;true;false;false;false;473.0;2;0;0;0;0;false;300;3162754596;-6.255765;53.3482845;972;6043104814;-6.2350181;53.3969921;0;0;1;7468115;27B - Eden Quay - Harristown;"";Dublin Bus;27B;Eden Quay;Harristown
129924299;"{\"type\":\"LineString\",\"coordinates\":[[-6.2258112,53.3945089],[-6.2256863,53.3944562],[-6.2256336,53.394434],[-6.224781,53.3941075],[-6.2244194,53.3939806],[-6.2237626,53.3937763],[-6.2231086,53.3935813],[-6.2227151,53.3934785],[-6.2216229,53.3932069]]}";71;Kilbarron Road;2;50;false;false;true;false;false;false;317.0;1;0;0;1;0;false;300;3162754596;-6.255765;53.3482845;972;6043104814;-6.2350181;53.3969921;0;0;1;7468115;27B - Eden Quay - Harristown;"";Dublin Bus;27B;Eden Quay;Harristown
334873782;"{\"type\":\"LineString\",\"coordinates\":[[-6.2266881,53.3933168],[-6.2266506,53.3933692],[-6.2265159,53.3935557],[-6.2261076,53.3941244],[-6.2258744,53.3944494],[-6.2258112,53.3945089]]}";72;Dundaniel Road;2;50;false;false;true;false;false;false;146.0;0;0;0;2;0;false;300;3162754596;-6.255765;53.3482845;972;6043104814;-6.2350181;53.3969921;0;0;1;7468115;27B - Eden Quay - Harristown;"";Dublin Bus;27B;Eden Quay;Harristown
485626565;"{\"type\":\"LineString\",\"coordinates\":[[-6.2266881,53.3933168],[-6.2272015,53.3933991],[-6.2280749,53.3935354],[-6.2282608,53.393557],[-6.2292138,53.3937178],[-6.2294633,53.3937614],[-6.2297651,53.3938145],[-6.2303114,53.393925],[-6.2308876,53.3940339],[-6.2310906,53.3940789],[-6.231411,53.3941529],[-6.2319454,53.3942615],[-6.2327169,53.3944263]]}";73;Ballyshannon Road;2;50;false;false;true;false;false;false;423.0;0;0;0;0;0;false;300;3162754596;-6.255765;53.3482845;972;6043104814;-6.2350181;53.3969921;0;0;1;7468115;27B - Eden Quay - Harristown;"";Dublin Bus;27B;Eden Quay;Harristown
485626564;"{\"type\":\"LineString\",\"coordinates\":[[-6.2327169,53.3944263],[-6.2323868,53.3949108],[-6.2320025,53.3954784],[-6.2319666,53.3955429]]}";74;Ballyshannon Avenue;2;50;false;false;true;false;false;false;135.0;0;0;0;1;0;false;300;3162754596;-6.255765;53.3482845;972;6043104814;-6.2350181;53.3969921;0;0;1;7468115;27B - Eden Quay - Harristown;"";Dublin Bus;27B;Eden Quay;Harristown
4631488;"{\"type\":\"LineString\",\"coordinates\":[[-6.2319666,53.3955429],[-6.231198,53.3953778],[-6.2309366,53.3953436],[-6.2307057,53.3953173],[-6.2306273,53.3953158],[-6.2303615,53.3953106],[-6.2299212,53.3953398],[-6.2295056,53.395393],[-6.2291985,53.3954434],[-6.2289723,53.3954801],[-6.2285244,53.3955209],[-6.2281654,53.3955275],[-6.2277049,53.3955039],[-6.2274384,53.3954644],[-6.2271784,53.3954198],[-6.2269576,53.3953707],[-6.2263092,53.3952254],[-6.2255078,53.395046],[-6.2254521,53.3950326]]}";75;Castletimon Road;2;50;false;false;true;false;false;false;452.0;0;0;0;1;0;false;300;3162754596;-6.255765;53.3482845;972;6043104814;-6.2350181;53.3969921;0;0;1;7468115;27B - Eden Quay - Harristown;"";Dublin Bus;27B;Eden Quay;Harristown
439444480;"{\"type\":\"LineString\",\"coordinates\":[[-6.2254521,53.3950326],[-6.2253835,53.395118],[-6.2252187,53.3953509]]}";76;Dundaniel Road;2;50;false;false;true;false;false;false;39.0;0;0;0;0;0;false;300;3162754596;-6.255765;53.3482845;972;6043104814;-6.2350181;53.3969921;0;0;1;7468115;27B - Eden Quay - Harristown;"";Dublin Bus;27B;Eden Quay;Harristown
116264262;"{\"type\":\"LineString\",\"coordinates\":[[-6.2252187,53.3953509],[-6.2249878,53.3956772],[-6.2246909,53.3961182],[-6.224508,53.396398],[-6.2242671,53.396892],[-6.2241021,53.3972533],[-6.2240075,53.3975209],[-6.2239721,53.3976211],[-6.2239482,53.3977343],[-6.2239303,53.3978188]]}";77;Dundaniel Road;2;50;false;false;true;false;false;false;291.0;1;1;0;0;0;false;300;3162754596;-6.255765;53.3482845;972;6043104814;-6.2350181;53.3969921;0;0;1;7468115;27B - Eden Quay - Harristown;"";Dublin Bus;27B;Eden Quay;Harristown
197053260;"{\"type\":\"LineString\",\"coordinates\":[[-6.2251297,53.3978485],[-6.2245529,53.3978413],[-6.2239303,53.3978188]]}";78;Oscar Traynor Road;4;60;false;false;true;false;false;false;81.0;1;0;0;0;0;false;300;3162754596;-6.255765;53.3482845;972;6043104814;-6.2350181;53.3969921;0;0;1;7468115;27B - Eden Quay - Harristown;"";Dublin Bus;27B;Eden Quay;Harristown
3818440;"{\"type\":\"LineString\",\"coordinates\":[[-6.2306024,53.3974752],[-6.2303358,53.3975047],[-6.2281714,53.3977036],[-6.2279002,53.3977292],[-6.2276289,53.3977548],[-6.2274695,53.3977699],[-6.2264305,53.3978166],[-6.2257499,53.3978444],[-6.2251297,53.3978485]]}";79;Coolock Lane;4;50;false;false;true;false;false;false;370.0;2;0;0;0;0;false;300;3162754596;-6.255765;53.3482845;972;6043104814;-6.2350181;53.3969921;0;0;1;7468115;27B - Eden Quay - Harristown;"";Dublin Bus;27B;Eden Quay;Harristown
729449921;"{\"type\":\"LineString\",\"coordinates\":[[-6.2306024,53.3974752],[-6.2308121,53.3974287],[-6.2329858,53.3972279],[-6.2350274,53.3970484]]}";80;Coolock Lane;2;50;false;true;true;false;false;false;301.0;1;1;0;0;0;false;300;3162754596;-6.255765;53.3482845;972;6043104814;-6.2350181;53.3969921;1;0;1;7468115;27B - Eden Quay - Harristown;"";Dublin Bus;27B;Eden Quay;Harristown
