way_id;shape;index;name;nb_lanes;legal_speed;speed_zone_30;oneway;shares_bike;bike_box;bus_lane;dedicated_bus_lane;length;nb_traffic_signals;nb_crossings;nb_stops;nb_give_ways;nb_lvl_crossings;roundabout;stop_id_orig;node_id_orig;coord_x_orig;coord_y_orig;stop_id_dest;node_id_dest;coord_x_dest;coord_y_dest;nb_neighbouring_ways_bus_stop;order_orig;order_dest;id_line;line_name;colour;operator;ref;from;to
529171742;"{\"type\":\"LineString\",\"coordinates\":[[-6.2564634,53.3455562],[-6.2566799,53.3455853]]}";1;Pearse Street;2;30;false;true;true;false;true;false;15.0;0;0;0;0;0;false;346;3209481314;-6.2566252;53.345539;7078;255018275;-6.292878;53.3478982;1;0;1;7619377;Dublin Bus route 67;"";Dublin Bus;67;Merrion Square;Maynooth
24973955;"{\"type\":\"LineString\",\"coordinates\":[[-6.2566799,53.3455853],[-6.2568119,53.3455989],[-6.2569004,53.3456001]]}";2;Pearse Street;2;30;false;true;true;false;true;false;15.0;0;0;0;0;0;false;346;3209481314;-6.2566252;53.345539;7078;255018275;-6.292878;53.3478982;0;0;1;7619377;Dublin Bus route 67;"";Dublin Bus;67;Merrion Square;Maynooth
74232837;"{\"type\":\"LineString\",\"coordinates\":[[-6.2569004,53.3456001],[-6.2569784,53.3455993],[-6.2572827,53.3455831]]}";3;College Street;2;30;false;true;true;false;true;false;26.0;1;1;0;0;0;false;346;3209481314;-6.2566252;53.345539;7078;255018275;-6.292878;53.3478982;0;0;1;7619377;Dublin Bus route 67;"";Dublin Bus;67;Merrion Square;Maynooth
575070043;"{\"type\":\"LineString\",\"coordinates\":[[-6.2572827,53.3455831],[-6.2573572,53.3455926],[-6.257516,53.3456107]]}";4;College Street;2;30;false;true;true;false;true;false;16.0;1;0;0;0;0;false;346;3209481314;-6.2566252;53.345539;7078;255018275;-6.292878;53.3478982;0;0;1;7619377;Dublin Bus route 67;"";Dublin Bus;67;Merrion Square;Maynooth
4472591;"{\"type\":\"LineString\",\"coordinates\":[[-6.257516,53.3456107],[-6.25775,53.3455594],[-6.2579,53.3455086],[-6.2584602,53.3453218]]}";5;College Street;3;30;false;true;true;false;false;false;72.0;0;0;0;0;0;false;346;3209481314;-6.2566252;53.345539;7078;255018275;-6.292878;53.3478982;0;0;1;7619377;Dublin Bus route 67;"";Dublin Bus;67;Merrion Square;Maynooth
4472592;"{\"type\":\"LineString\",\"coordinates\":[[-6.2584602,53.3453218],[-6.2586016,53.3453096],[-6.2586891,53.3453081],[-6.2587496,53.345307],[-6.2589493,53.3453175],[-6.2590306,53.3453207],[-6.2591475,53.3453253]]}";6;College Street;2;30;false;true;false;false;false;false;47.0;1;1;0;0;0;false;346;3209481314;-6.2566252;53.345539;7078;255018275;-6.292878;53.3478982;0;0;1;7619377;Dublin Bus route 67;"";Dublin Bus;67;Merrion Square;Maynooth
488735970;"{\"type\":\"LineString\",\"coordinates\":[[-6.2591475,53.3453253],[-6.2591428,53.3456406],[-6.2591418,53.3456882]]}";7;Westmoreland Street;3;30;false;true;true;false;false;false;41.0;1;0;0;0;0;false;346;3209481314;-6.2566252;53.345539;7078;255018275;-6.292878;53.3478982;0;0;1;7619377;Dublin Bus route 67;"";Dublin Bus;67;Merrion Square;Maynooth
675882488;"{\"type\":\"LineString\",\"coordinates\":[[-6.2591418,53.3456882],[-6.2591395,53.3458327],[-6.2591388,53.3458795],[-6.2591385,53.3458965],[-6.2591326,53.3462654],[-6.2591279,53.3465631],[-6.2591207,53.3468036]]}";8;Westmoreland Street;3;30;false;true;true;false;false;false;125.0;0;2;0;0;0;false;346;3209481314;-6.2566252;53.345539;7078;255018275;-6.292878;53.3478982;0;0;1;7619377;Dublin Bus route 67;"";Dublin Bus;67;Merrion Square;Maynooth
488735972;"{\"type\":\"LineString\",\"coordinates\":[[-6.2591207,53.3468036],[-6.25911,53.3469351]]}";9;Westmoreland Street;3;30;false;true;true;false;false;false;15.0;1;1;0;0;0;false;346;3209481314;-6.2566252;53.345539;7078;255018275;-6.292878;53.3478982;0;0;1;7619377;Dublin Bus route 67;"";Dublin Bus;67;Merrion Square;Maynooth
4401523;"{\"type\":\"LineString\",\"coordinates\":[[-6.25911,53.3469351],[-6.2593428,53.3468825]]}";10;Aston Quay;2;30;false;true;true;false;false;false;17.0;1;1;0;0;0;false;346;3209481314;-6.2566252;53.345539;7078;255018275;-6.292878;53.3478982;0;0;1;7619377;Dublin Bus route 67;"";Dublin Bus;67;Merrion Square;Maynooth
372838330;"{\"type\":\"LineString\",\"coordinates\":[[-6.2593428,53.3468825],[-6.2599335,53.3467444],[-6.2600776,53.3467107],[-6.2603368,53.3466501],[-6.2605934,53.3465901],[-6.2607335,53.3465574]]}";11;Aston Quay;2;30;false;true;true;false;false;false;101.0;0;1;0;0;0;false;346;3209481314;-6.2566252;53.345539;7078;255018275;-6.292878;53.3478982;0;0;1;7619377;Dublin Bus route 67;"";Dublin Bus;67;Merrion Square;Maynooth
800772121;"{\"type\":\"LineString\",\"coordinates\":[[-6.2607335,53.3465574],[-6.2609349,53.3465103],[-6.2611437,53.3464615],[-6.2617647,53.3463163],[-6.2618852,53.3462881]]}";12;Aston Quay;2;30;false;true;true;false;false;false;83.0;0;0;0;0;0;false;346;3209481314;-6.2566252;53.345539;7078;255018275;-6.292878;53.3478982;0;0;1;7619377;Dublin Bus route 67;"";Dublin Bus;67;Merrion Square;Maynooth
13907389;"{\"type\":\"LineString\",\"coordinates\":[[-6.2618852,53.3462881],[-6.2626132,53.3461284]]}";13;Crampton Quay;2;30;false;true;true;false;false;false;52.0;0;0;0;0;0;false;346;3209481314;-6.2566252;53.345539;7078;255018275;-6.292878;53.3478982;0;0;1;7619377;Dublin Bus route 67;"";Dublin Bus;67;Merrion Square;Maynooth
3791747;"{\"type\":\"LineString\",\"coordinates\":[[-6.2626132,53.3461284],[-6.2629547,53.3460565],[-6.2634732,53.3459439]]}";14;Wellington Quay;2;30;false;true;true;false;false;false;62.0;0;1;0;0;0;false;346;3209481314;-6.2566252;53.345539;7078;255018275;-6.292878;53.3478982;0;0;1;7619377;Dublin Bus route 67;"";Dublin Bus;67;Merrion Square;Maynooth
556390402;"{\"type\":\"LineString\",\"coordinates\":[[-6.2634732,53.3459439],[-6.2638974,53.345881],[-6.264978,53.3457208],[-6.2651043,53.3457055],[-6.266496,53.3455014],[-6.26763,53.3453317]]}";15;Wellington Quay;3;30;false;true;true;false;false;false;287.0;1;1;0;0;0;false;346;3209481314;-6.2566252;53.345539;7078;255018275;-6.292878;53.3478982;0;0;1;7619377;Dublin Bus route 67;"";Dublin Bus;67;Merrion Square;Maynooth
125863788;"{\"type\":\"LineString\",\"coordinates\":[[-6.26763,53.3453317],[-6.2689481,53.3452274]]}";16;Essex Quay;2;30;false;true;true;false;false;false;90.0;1;1;0;0;0;false;346;3209481314;-6.2566252;53.345539;7078;255018275;-6.292878;53.3478982;0;0;1;7619377;Dublin Bus route 67;"";Dublin Bus;67;Merrion Square;Maynooth
292236197;"{\"type\":\"LineString\",\"coordinates\":[[-6.2689481,53.3452274],[-6.2699886,53.3451298]]}";17;Essex Quay;2;50;false;true;true;false;false;false;71.0;0;1;0;0;0;false;346;3209481314;-6.2566252;53.345539;7078;255018275;-6.292878;53.3478982;0;0;1;7619377;Dublin Bus route 67;"";Dublin Bus;67;Merrion Square;Maynooth
13907388;"{\"type\":\"LineString\",\"coordinates\":[[-6.2699886,53.3451298],[-6.2702755,53.3451071],[-6.2709929,53.3450501],[-6.2721187,53.3449729]]}";18;Wood Quay;4;50;false;true;true;false;false;false;144.0;1;0;0;0;0;false;346;3209481314;-6.2566252;53.345539;7078;255018275;-6.292878;53.3478982;0;0;1;7619377;Dublin Bus route 67;"";Dublin Bus;67;Merrion Square;Maynooth
3789575;"{\"type\":\"LineString\",\"coordinates\":[[-6.2721187,53.3449729],[-6.2753843,53.3452175],[-6.2758661,53.3452765]]}";19;Merchant's Quay;3;50;false;true;true;false;false;false;254.0;2;0;0;0;0;false;346;3209481314;-6.2566252;53.345539;7078;255018275;-6.292878;53.3478982;0;0;1;7619377;Dublin Bus route 67;"";Dublin Bus;67;Merrion Square;Maynooth
529166754;"{\"type\":\"LineString\",\"coordinates\":[[-6.2758661,53.3452765],[-6.2761065,53.3453216]]}";20;Usher's Quay;1;50;false;true;true;false;false;false;17.0;1;0;0;0;0;false;346;3209481314;-6.2566252;53.345539;7078;255018275;-6.292878;53.3478982;0;0;1;7619377;Dublin Bus route 67;"";Dublin Bus;67;Merrion Square;Maynooth
4401781;"{\"type\":\"LineString\",\"coordinates\":[[-6.2761065,53.3453216],[-6.2763663,53.3453704],[-6.2769755,53.3454953],[-6.2775681,53.3456086],[-6.2779602,53.3456829],[-6.278771,53.3458231],[-6.2805357,53.3461452]]}";21;Usher's Quay;1;50;false;true;true;false;false;false;311.0;1;0;0;0;0;false;346;3209481314;-6.2566252;53.345539;7078;255018275;-6.292878;53.3478982;0;0;1;7619377;Dublin Bus route 67;"";Dublin Bus;67;Merrion Square;Maynooth
4408221;"{\"type\":\"LineString\",\"coordinates\":[[-6.2805357,53.3461452],[-6.281352,53.3462446]]}";22;Usher's Island;1;50;false;true;true;false;false;false;56.0;1;0;0;0;0;false;346;3209481314;-6.2566252;53.345539;7078;255018275;-6.292878;53.3478982;0;0;1;7619377;Dublin Bus route 67;"";Dublin Bus;67;Merrion Square;Maynooth
38587823;"{\"type\":\"LineString\",\"coordinates\":[[-6.281352,53.3462446],[-6.2826667,53.346375]]}";23;Usher's Island;3;50;false;true;true;false;false;false;90.0;1;0;0;0;0;false;346;3209481314;-6.2566252;53.345539;7078;255018275;-6.292878;53.3478982;0;0;1;7619377;Dublin Bus route 67;"";Dublin Bus;67;Merrion Square;Maynooth
37721990;"{\"type\":\"LineString\",\"coordinates\":[[-6.2826667,53.346375],[-6.2834173,53.3464728],[-6.2838122,53.3465035],[-6.2841428,53.3465111]]}";24;Usher's Island;2;50;false;true;true;false;false;false;101.0;2;0;0;0;0;false;346;3209481314;-6.2566252;53.345539;7078;255018275;-6.292878;53.3478982;0;0;1;7619377;Dublin Bus route 67;"";Dublin Bus;67;Merrion Square;Maynooth
13907386;"{\"type\":\"LineString\",\"coordinates\":[[-6.2841428,53.3465111],[-6.2852514,53.3465383],[-6.2857407,53.3465574],[-6.2891318,53.3466675],[-6.2893948,53.3466989],[-6.290175,53.3467942],[-6.2907329,53.3468813]]}";25;Victoria Quay;3;50;false;true;true;false;false;false;445.0;1;0;0;0;0;false;346;3209481314;-6.2566252;53.345539;7078;255018275;-6.292878;53.3478982;0;0;1;7619377;Dublin Bus route 67;"";Dublin Bus;67;Merrion Square;Maynooth
4401986;"{\"type\":\"LineString\",\"coordinates\":[[-6.2907329,53.3468813],[-6.2910757,53.3469529]]}";26;Victoria Quay;1;50;false;true;true;false;false;false;25.0;1;0;0;0;0;false;346;3209481314;-6.2566252;53.345539;7078;255018275;-6.292878;53.3478982;0;0;1;7619377;Dublin Bus route 67;"";Dublin Bus;67;Merrion Square;Maynooth
4401971;"{\"type\":\"LineString\",\"coordinates\":[[-6.2910757,53.3469529],[-6.2910161,53.3470043]]}";27;Frank Sherwin Bridge;1;50;false;true;true;false;false;false;8.0;1;0;0;0;0;false;346;3209481314;-6.2566252;53.345539;7078;255018275;-6.292878;53.3478982;0;0;1;7619377;Dublin Bus route 67;"";Dublin Bus;67;Merrion Square;Maynooth
27191307;"{\"type\":\"LineString\",\"coordinates\":[[-6.2910161,53.3470043],[-6.2907784,53.3474185]]}";28;Frank Sherwin Bridge;3;50;false;true;true;false;false;false;50.0;0;0;0;0;0;false;346;3209481314;-6.2566252;53.345539;7078;255018275;-6.292878;53.3478982;0;0;1;7619377;Dublin Bus route 67;"";Dublin Bus;67;Merrion Square;Maynooth
27191306;"{\"type\":\"LineString\",\"coordinates\":[[-6.2907784,53.3474185],[-6.290772,53.3474315]]}";29;Frank Sherwin Bridge;1;50;false;true;true;false;false;false;2.0;0;0;0;0;0;false;346;3209481314;-6.2566252;53.345539;7078;255018275;-6.292878;53.3478982;0;0;1;7619377;Dublin Bus route 67;"";Dublin Bus;67;Merrion Square;Maynooth
22977991;"{\"type\":\"LineString\",\"coordinates\":[[-6.290772,53.3474315],[-6.2909215,53.3475197],[-6.2910674,53.3475839]]}";30;Wolfe Tone Quay;1;50;false;true;true;false;false;false;27.0;0;0;0;0;0;false;346;3209481314;-6.2566252;53.345539;7078;255018275;-6.292878;53.3478982;0;0;1;7619377;Dublin Bus route 67;"";Dublin Bus;67;Merrion Square;Maynooth
12854625;"{\"type\":\"LineString\",\"coordinates\":[[-6.2918851,53.347781],[-6.2918271,53.3477667],[-6.2917555,53.3477491],[-6.2917066,53.3477366],[-6.2910674,53.3475839]]}";31;Wolfe Tone Quay;1;50;false;false;true;false;false;false;60.0;1;0;0;0;0;false;346;3209481314;-6.2566252;53.345539;7078;255018275;-6.292878;53.3478982;0;0;1;7619377;Dublin Bus route 67;"";Dublin Bus;67;Merrion Square;Maynooth
4571776;"{\"type\":\"LineString\",\"coordinates\":[[-6.295006,53.3481283],[-6.2948184,53.3481182],[-6.2947618,53.348115],[-6.2944669,53.348099],[-6.294304,53.3480902],[-6.2940944,53.3480788],[-6.2937491,53.34806],[-6.2935629,53.3480499],[-6.2932297,53.3480318],[-6.2931213,53.3480282],[-6.2928455,53.3479965],[-6.29272,53.3479691],[-6.2923827,53.3478951],[-6.2921079,53.3478334],[-6.291951,53.3477968],[-6.2918851,53.347781]]}";32;Parkgate Street;4;50;false;false;true;false;false;false;215.0;1;1;0;0;0;false;346;3209481314;-6.2566252;53.345539;7078;255018275;-6.292878;53.3478982;2;0;1;7619377;Dublin Bus route 67;"";Dublin Bus;67;Merrion Square;Maynooth
4571776;"{\"type\":\"LineString\",\"coordinates\":[[-6.295006,53.3481283],[-6.2948184,53.3481182],[-6.2947618,53.348115],[-6.2944669,53.348099],[-6.294304,53.3480902],[-6.2940944,53.3480788],[-6.2937491,53.34806],[-6.2935629,53.3480499],[-6.2932297,53.3480318],[-6.2931213,53.3480282],[-6.2928455,53.3479965],[-6.29272,53.3479691],[-6.2923827,53.3478951],[-6.2921079,53.3478334],[-6.291951,53.3477968],[-6.2918851,53.347781]]}";1;Parkgate Street;4;50;false;false;true;false;false;false;107.5;1;1;0;0;0;false;7078;255018275;-6.292878;53.3478982;"";254774848;-6.4233312;53.3577135;1;1;2;7619377;Dublin Bus route 67;"";Dublin Bus;67;Merrion Square;Maynooth
37721501;"{\"type\":\"LineString\",\"coordinates\":[[-6.2965334,53.3481846],[-6.2960402,53.3481769],[-6.2958945,53.3481727],[-6.295348,53.3481426],[-6.295006,53.3481283]]}";2;Conyngham Road;4;50;false;false;true;false;false;false;103.0;2;0;0;0;0;false;7078;255018275;-6.292878;53.3478982;"";254774848;-6.4233312;53.3577135;0;1;2;7619377;Dublin Bus route 67;"";Dublin Bus;67;Merrion Square;Maynooth
326874928;"{\"type\":\"LineString\",\"coordinates\":[[-6.2969893,53.3481907],[-6.2968109,53.3481876],[-6.2965334,53.3481846]]}";3;Conyngham Road;2;50;false;false;true;false;false;false;31.0;1;0;0;0;0;false;7078;255018275;-6.292878;53.3478982;"";254774848;-6.4233312;53.3577135;0;1;2;7619377;Dublin Bus route 67;"";Dublin Bus;67;Merrion Square;Maynooth
441393227;"{\"type\":\"LineString\",\"coordinates\":[[-6.3038939,53.3483112],[-6.3038725,53.3483109],[-6.3020076,53.3482782],[-6.30145,53.3482684],[-6.3011746,53.3482636],[-6.2975002,53.3481978],[-6.2969893,53.3481907]]}";4;Conyngham Road;3;50;false;false;true;false;false;false;464.0;0;1;0;0;0;false;7078;255018275;-6.292878;53.3478982;"";254774848;-6.4233312;53.3577135;0;1;2;7619377;Dublin Bus route 67;"";Dublin Bus;67;Merrion Square;Maynooth
230687464;"{\"type\":\"LineString\",\"coordinates\":[[-6.3042309,53.3483167],[-6.3038939,53.3483112]]}";5;Conyngham Road;3;50;false;false;true;false;false;false;23.0;0;0;0;0;0;false;7078;255018275;-6.292878;53.3478982;"";254774848;-6.4233312;53.3577135;0;1;2;7619377;Dublin Bus route 67;"";Dublin Bus;67;Merrion Square;Maynooth
369154715;"{\"type\":\"LineString\",\"coordinates\":[[-6.3060774,53.3483382],[-6.3058314,53.3483376],[-6.3051586,53.3483361],[-6.3042309,53.3483167]]}";6;Conyngham Road;3;50;false;false;true;false;false;false;124.0;0;0;0;0;0;false;7078;255018275;-6.292878;53.3478982;"";254774848;-6.4233312;53.3577135;0;1;2;7619377;Dublin Bus route 67;"";Dublin Bus;67;Merrion Square;Maynooth
3763683;"{\"type\":\"LineString\",\"coordinates\":[[-6.3083471,53.3482391],[-6.3080629,53.348262],[-6.3076804,53.3482841],[-6.3069316,53.3483131],[-6.3060774,53.3483382]]}";7;Conyngham Road;3;50;false;false;true;false;false;false;153.0;1;0;0;0;0;false;7078;255018275;-6.292878;53.3478982;"";254774848;-6.4233312;53.3577135;0;1;2;7619377;Dublin Bus route 67;"";Dublin Bus;67;Merrion Square;Maynooth
33924359;"{\"type\":\"LineString\",\"coordinates\":[[-6.3131315,53.347739],[-6.3116052,53.3479611],[-6.3112135,53.348007],[-6.3109896,53.3480333],[-6.3103511,53.3481023],[-6.3091247,53.3482077],[-6.3087963,53.348231],[-6.308572,53.3482331],[-6.3083471,53.3482391]]}";8;Chapelizod Road;2;50;false;false;false;false;false;false;327.0;1;0;0;0;0;false;7078;255018275;-6.292878;53.3478982;"";254774848;-6.4233312;53.3577135;0;1;2;7619377;Dublin Bus route 67;"";Dublin Bus;67;Merrion Square;Maynooth
345616201;"{\"type\":\"LineString\",\"coordinates\":[[-6.3296391,53.3463241],[-6.3292919,53.3463028],[-6.3285508,53.3462693],[-6.3277451,53.3462391],[-6.327178,53.346219],[-6.3268187,53.346224],[-6.3263583,53.3462659],[-6.3254937,53.3463514],[-6.3248368,53.3463899],[-6.3241658,53.3464101],[-6.3233657,53.3464251],[-6.3226483,53.3464438],[-6.3224618,53.3464486],[-6.321847,53.3464776],[-6.3217151,53.3464838],[-6.3211115,53.3465257],[-6.321053,53.34653],[-6.3207241,53.3465542],[-6.3202645,53.3465948],[-6.3200223,53.3466162],[-6.3196879,53.3466577],[-6.3189937,53.3467439],[-6.3182584,53.3468508],[-6.3182081,53.3468581],[-6.3163862,53.3471734],[-6.3151293,53.3474003],[-6.3145612,53.3475029],[-6.3131315,53.347739]]}";9;Chapelizod Road;2;60;false;false;false;false;false;false;1127.0;0;0;0;0;0;false;7078;255018275;-6.292878;53.3478982;"";254774848;-6.4233312;53.3577135;0;1;2;7619377;Dublin Bus route 67;"";Dublin Bus;67;Merrion Square;Maynooth
369154713;"{\"type\":\"LineString\",\"coordinates\":[[-6.3343702,53.3465644],[-6.3340057,53.3465353],[-6.3302669,53.3463627],[-6.3296391,53.3463241]]}";10;Chapelizod Road;3;60;false;false;false;false;false;false;319.0;0;0;0;0;0;false;7078;255018275;-6.292878;53.3478982;"";254774848;-6.4233312;53.3577135;0;1;2;7619377;Dublin Bus route 67;"";Dublin Bus;67;Merrion Square;Maynooth
33924360;"{\"type\":\"LineString\",\"coordinates\":[[-6.3354365,53.3466496],[-6.3343702,53.3465644]]}";11;Chapelizod Road;3;60;false;false;false;false;false;false;73.0;0;0;0;0;0;false;7078;255018275;-6.292878;53.3478982;"";254774848;-6.4233312;53.3577135;0;1;2;7619377;Dublin Bus route 67;"";Dublin Bus;67;Merrion Square;Maynooth
4278190;"{\"type\":\"LineString\",\"coordinates\":[[-6.3419873,53.3480213],[-6.3417581,53.3479229],[-6.3411131,53.347646],[-6.3408779,53.347545],[-6.3403603,53.3473297],[-6.3401702,53.3472693],[-6.3399007,53.3471836],[-6.3396851,53.3471229],[-6.3395074,53.3470774],[-6.339218,53.3470171],[-6.3389397,53.3469616],[-6.3386533,53.34692],[-6.3383521,53.3468899],[-6.3380469,53.3468613],[-6.3379321,53.3468462],[-6.3377409,53.3468289],[-6.3371012,53.3467716],[-6.3369327,53.3467565],[-6.3354365,53.3466496]]}";12;Chapelizod Road;3;50;false;false;true;false;false;false;476.0;0;2;0;0;0;false;7078;255018275;-6.292878;53.3478982;"";254774848;-6.4233312;53.3577135;0;1;2;7619377;Dublin Bus route 67;"";Dublin Bus;67;Merrion Square;Maynooth
533217887;"{\"type\":\"LineString\",\"coordinates\":[[-6.3426739,53.3482768],[-6.3426207,53.3482673],[-6.3425131,53.3482481],[-6.3419873,53.3480213]]}";13;Chapelizod Road;3;50;false;false;true;false;false;false;55.0;1;0;0;0;0;false;7078;255018275;-6.292878;53.3478982;"";254774848;-6.4233312;53.3577135;0;1;2;7619377;Dublin Bus route 67;"";Dublin Bus;67;Merrion Square;Maynooth
533217888;"{\"type\":\"LineString\",\"coordinates\":[[-6.3438937,53.3481857],[-6.3436876,53.3482031],[-6.3428668,53.3482815],[-6.3426739,53.3482768]]}";14;Chapelizod Road;2;50;false;false;true;false;false;false;83.0;1;1;0;0;0;false;7078;255018275;-6.292878;53.3478982;"";254774848;-6.4233312;53.3577135;0;1;2;7619377;Dublin Bus route 67;"";Dublin Bus;67;Merrion Square;Maynooth
563743431;"{\"type\":\"LineString\",\"coordinates\":[[-6.3444309,53.3481193],[-6.3443788,53.3481258],[-6.34403,53.3481703],[-6.3438937,53.3481857]]}";15;Chapelizod Road;2;50;false;false;true;false;false;false;37.0;0;0;0;0;0;false;7078;255018275;-6.292878;53.3478982;"";254774848;-6.4233312;53.3577135;0;1;2;7619377;Dublin Bus route 67;"";Dublin Bus;67;Merrion Square;Maynooth
563743430;"{\"type\":\"LineString\",\"coordinates\":[[-6.3447322,53.348082],[-6.3444309,53.3481193]]}";16;Chapelizod Road;2;50;false;false;true;false;false;false;21.0;0;0;0;0;0;false;7078;255018275;-6.292878;53.3478982;"";254774848;-6.4233312;53.3577135;0;1;2;7619377;Dublin Bus route 67;"";Dublin Bus;67;Merrion Square;Maynooth
11692457;"{\"type\":\"LineString\",\"coordinates\":[[-6.3453181,53.3479861],[-6.3450747,53.3480356],[-6.3448714,53.3480647],[-6.3447322,53.348082]]}";17;Chapelizod Road;2;50;false;false;true;false;false;false;41.0;0;0;0;0;0;false;7078;255018275;-6.292878;53.3478982;"";254774848;-6.4233312;53.3577135;0;1;2;7619377;Dublin Bus route 67;"";Dublin Bus;67;Merrion Square;Maynooth
11692456;"{\"type\":\"LineString\",\"coordinates\":[[-6.34582,53.3478416],[-6.3453181,53.3479861]]}";18;Anna Livia Bridge;2;50;false;false;true;false;false;false;38.0;0;0;0;0;0;false;7078;255018275;-6.292878;53.3478982;"";254774848;-6.4233312;53.3577135;0;1;2;7619377;Dublin Bus route 67;"";Dublin Bus;67;Merrion Square;Maynooth
4936935;"{\"type\":\"LineString\",\"coordinates\":[[-6.3462427,53.3478566],[-6.3461224,53.3478265],[-6.3460133,53.3478244],[-6.3459375,53.3478283],[-6.34582,53.3478416]]}";19;Chapelizod Road;2;50;false;false;true;false;false;false;30.0;1;1;0;0;0;false;7078;255018275;-6.292878;53.3478982;"";254774848;-6.4233312;53.3577135;0;1;2;7619377;Dublin Bus route 67;"";Dublin Bus;67;Merrion Square;Maynooth
4278192;"{\"type\":\"LineString\",\"coordinates\":[[-6.3527215,53.3510483],[-6.3525983,53.351023],[-6.3525008,53.3510029],[-6.3524165,53.3509855],[-6.352349,53.3509716],[-6.3521745,53.3509356],[-6.352144,53.3509293],[-6.3520247,53.3509005],[-6.3519848,53.3508908],[-6.3519148,53.3508739],[-6.3517661,53.350838],[-6.3517396,53.3508309],[-6.3516332,53.3508023],[-6.3514304,53.3507479],[-6.3513846,53.3507356],[-6.3511228,53.3506653],[-6.3506442,53.3505111],[-6.3500353,53.3503058],[-6.3496923,53.3501902],[-6.3492954,53.3500106],[-6.3492469,53.3499886],[-6.3488901,53.3497868],[-6.3484739,53.349544],[-6.3483018,53.3494325],[-6.3479252,53.3491857],[-6.3474606,53.3488823],[-6.3472763,53.3487579],[-6.347184,53.3486907],[-6.347042,53.3485593],[-6.34682,53.3483587],[-6.3463631,53.3479373],[-6.3462427,53.3478566]]}";20;Lucan Road;3;50;false;false;true;false;false;false;577.0;2;1;0;0;0;false;7078;255018275;-6.292878;53.3478982;"";254774848;-6.4233312;53.3577135;0;1;2;7619377;Dublin Bus route 67;"";Dublin Bus;67;Merrion Square;Maynooth
4402119;"{\"type\":\"LineString\",\"coordinates\":[[-6.3527215,53.3510483],[-6.3527789,53.3509536],[-6.3527986,53.350921],[-6.3532018,53.3497698]]}";21;Kylemore Road;2;50;false;false;true;false;false;false;147.0;1;0;0;0;0;false;7078;255018275;-6.292878;53.3478982;"";254774848;-6.4233312;53.3577135;0;1;2;7619377;Dublin Bus route 67;"";Dublin Bus;67;Merrion Square;Maynooth
18954968;"{\"type\":\"LineString\",\"coordinates\":[[-6.3532018,53.3497698],[-6.3531538,53.3494854],[-6.3530986,53.3491706],[-6.3530646,53.3488366]]}";22;Kylemore Road;2;50;false;true;true;false;false;false;105.0;0;0;0;0;0;false;7078;255018275;-6.292878;53.3478982;"";254774848;-6.4233312;53.3577135;0;1;2;7619377;Dublin Bus route 67;"";Dublin Bus;67;Merrion Square;Maynooth
4402109;"{\"type\":\"LineString\",\"coordinates\":[[-6.3530646,53.3488366],[-6.3531043,53.3487381],[-6.3531671,53.3486894],[-6.3532491,53.3486752],[-6.3533376,53.3486865],[-6.3534707,53.3487637]]}";23;"";2;50;false;true;true;false;false;false;43.0;1;0;0;0;0;false;7078;255018275;-6.292878;53.3478982;"";254774848;-6.4233312;53.3577135;0;1;2;7619377;Dublin Bus route 67;"";Dublin Bus;67;Merrion Square;Maynooth
4278193;"{\"type\":\"LineString\",\"coordinates\":[[-6.3534707,53.3487637],[-6.3538337,53.3491847],[-6.3540649,53.3494555],[-6.3542275,53.3496017],[-6.3545117,53.3498292],[-6.354935,53.3500654],[-6.3554017,53.3502687],[-6.3557504,53.3503856],[-6.3560683,53.3505249]]}";24;"";1;50;false;true;true;false;false;false;270.0;1;0;0;0;0;false;7078;255018275;-6.292878;53.3478982;"";254774848;-6.4233312;53.3577135;0;1;2;7619377;Dublin Bus route 67;"";Dublin Bus;67;Merrion Square;Maynooth
24954717;"{\"type\":\"LineString\",\"coordinates\":[[-6.3560683,53.3505249],[-6.3563713,53.350645],[-6.356602,53.3507531],[-6.3568783,53.3509037],[-6.3572283,53.3511357],[-6.3574831,53.3513404],[-6.3583414,53.3521323],[-6.3586807,53.3523805],[-6.3589503,53.3525334],[-6.3592252,53.3526615],[-6.3595444,53.3527831],[-6.3597394,53.3528433]]}";25;Chapelizod Bypass;3;80;false;true;true;false;false;false;363.0;0;0;0;0;0;false;7078;255018275;-6.292878;53.3478982;"";254774848;-6.4233312;53.3577135;0;1;2;7619377;Dublin Bus route 67;"";Dublin Bus;67;Merrion Square;Maynooth
319144048;"{\"type\":\"LineString\",\"coordinates\":[[-6.3597394,53.3528433],[-6.3599951,53.3529212],[-6.3602825,53.3529834],[-6.3606639,53.3530511]]}";26;Chapelizod Bypass;3;80;false;true;true;false;false;false;67.0;0;0;0;0;0;false;7078;255018275;-6.292878;53.3478982;"";254774848;-6.4233312;53.3577135;0;1;2;7619377;Dublin Bus route 67;"";Dublin Bus;67;Merrion Square;Maynooth
4413969;"{\"type\":\"LineString\",\"coordinates\":[[-6.3606639,53.3530511],[-6.3611215,53.3530901],[-6.3616776,53.3531146],[-6.3628606,53.3531613],[-6.3634034,53.3532061],[-6.3639365,53.3532578],[-6.3642432,53.3532901],[-6.3645576,53.3533232],[-6.3661099,53.3535375],[-6.3669496,53.3536964],[-6.3675052,53.3538163],[-6.3678451,53.3538897],[-6.3686116,53.3540754],[-6.3724843,53.3550115]]}";27;Palmerston Bypass;3;60;false;true;true;false;false;false;828.0;2;1;0;0;0;false;7078;255018275;-6.292878;53.3478982;"";254774848;-6.4233312;53.3577135;0;1;2;7619377;Dublin Bus route 67;"";Dublin Bus;67;Merrion Square;Maynooth
319144060;"{\"type\":\"LineString\",\"coordinates\":[[-6.3724843,53.3550115],[-6.3746661,53.3555118],[-6.3762104,53.3558839]]}";28;Palmerston Bypass;3;60;false;true;true;false;false;false;269.0;1;0;0;0;0;false;7078;255018275;-6.292878;53.3478982;"";254774848;-6.4233312;53.3577135;0;1;2;7619377;Dublin Bus route 67;"";Dublin Bus;67;Merrion Square;Maynooth
621521117;"{\"type\":\"LineString\",\"coordinates\":[[-6.3762104,53.3558839],[-6.3773413,53.3561564],[-6.3779362,53.3563155],[-6.3781255,53.3563652]]}";29;Palmerston Bypass;3;60;false;true;true;false;false;false;140.0;0;0;0;0;0;false;7078;255018275;-6.292878;53.3478982;"";254774848;-6.4233312;53.3577135;0;1;2;7619377;Dublin Bus route 67;"";Dublin Bus;67;Merrion Square;Maynooth
48290551;"{\"type\":\"LineString\",\"coordinates\":[[-6.3781255,53.3563652],[-6.3786827,53.356504],[-6.3790992,53.3565874],[-6.3795111,53.3566371],[-6.379919,53.3566689],[-6.3804935,53.3566763],[-6.3809477,53.3566471],[-6.3814488,53.3565795],[-6.3819103,53.3564804],[-6.3823633,53.3563516],[-6.382837,53.3561899],[-6.3830033,53.3561476],[-6.3832308,53.3560961],[-6.3835772,53.3560088],[-6.3839842,53.3559615]]}";30;Lucan Road;3;60;false;true;true;false;false;false;414.0;0;0;0;0;0;false;7078;255018275;-6.292878;53.3478982;"";254774848;-6.4233312;53.3577135;0;1;2;7619377;Dublin Bus route 67;"";Dublin Bus;67;Merrion Square;Maynooth
4402243;"{\"type\":\"LineString\",\"coordinates\":[[-6.3839842,53.3559615],[-6.3843303,53.3559398],[-6.3846199,53.355939],[-6.3849686,53.3559591]]}";31;Lucan Road;3;60;false;true;true;false;false;false;67.0;0;0;0;0;0;false;7078;255018275;-6.292878;53.3478982;"";254774848;-6.4233312;53.3577135;0;1;2;7619377;Dublin Bus route 67;"";Dublin Bus;67;Merrion Square;Maynooth
128189136;"{\"type\":\"LineString\",\"coordinates\":[[-6.3849686,53.3559591],[-6.3854091,53.3560148],[-6.3858831,53.3560932],[-6.3863704,53.3561716],[-6.3866615,53.3562023],[-6.3870478,53.3562331]]}";32;Lucan Road;3;60;false;true;true;false;false;false;143.0;0;0;0;0;0;false;7078;255018275;-6.292878;53.3478982;"";254774848;-6.4233312;53.3577135;0;1;2;7619377;Dublin Bus route 67;"";Dublin Bus;67;Merrion Square;Maynooth
699678424;"{\"type\":\"LineString\",\"coordinates\":[[-6.3870478,53.3562331],[-6.3873227,53.3562467],[-6.3876216,53.3562562],[-6.3879932,53.3562643],[-6.3883661,53.3562579],[-6.3886142,53.3562443],[-6.3888497,53.3562265]]}";33;Lucan Road;3;60;false;true;true;false;false;false;122.0;0;0;0;0;0;false;7078;255018275;-6.292878;53.3478982;"";254774848;-6.4233312;53.3577135;0;1;2;7619377;Dublin Bus route 67;"";Dublin Bus;67;Merrion Square;Maynooth
699678423;"{\"type\":\"LineString\",\"coordinates\":[[-6.3888497,53.3562265],[-6.3890925,53.356206],[-6.389694,53.3561342]]}";34;Lucan Road;3;80;false;true;true;false;false;false;58.0;0;0;0;0;0;false;7078;255018275;-6.292878;53.3478982;"";254774848;-6.4233312;53.3577135;0;1;2;7619377;Dublin Bus route 67;"";Dublin Bus;67;Merrion Square;Maynooth
699678422;"{\"type\":\"LineString\",\"coordinates\":[[-6.389694,53.3561342],[-6.3902883,53.3560437]]}";35;Lucan Road;3;80;false;true;true;false;false;false;42.0;0;0;0;0;0;false;7078;255018275;-6.292878;53.3478982;"";254774848;-6.4233312;53.3577135;0;1;2;7619377;Dublin Bus route 67;"";Dublin Bus;67;Merrion Square;Maynooth
699678420;"{\"type\":\"LineString\",\"coordinates\":[[-6.3902883,53.3560437],[-6.3914546,53.3558945]]}";36;Lucan Road;4;80;false;true;true;false;false;false;80.0;0;0;0;0;0;false;7078;255018275;-6.292878;53.3478982;"";254774848;-6.4233312;53.3577135;0;1;2;7619377;Dublin Bus route 67;"";Dublin Bus;67;Merrion Square;Maynooth
491989399;"{\"type\":\"LineString\",\"coordinates\":[[-6.3914546,53.3558945],[-6.3917559,53.3558522],[-6.39191,53.3558333],[-6.392057,53.3558154],[-6.3924562,53.3557665],[-6.3934194,53.3556776],[-6.3936983,53.3556496],[-6.3941368,53.355612],[-6.3945723,53.3555837],[-6.3950153,53.3555695],[-6.3953822,53.3555626],[-6.3957623,53.3555623],[-6.3962531,53.3555775],[-6.3966233,53.355596],[-6.3970712,53.3556296],[-6.3975465,53.3556768]]}";37;Lucan Road;4;80;false;true;true;false;false;false;413.0;0;0;0;0;0;false;7078;255018275;-6.292878;53.3478982;"";254774848;-6.4233312;53.3577135;0;1;2;7619377;Dublin Bus route 67;"";Dublin Bus;67;Merrion Square;Maynooth
699678411;"{\"type\":\"LineString\",\"coordinates\":[[-6.3975465,53.3556768],[-6.398183,53.35576],[-6.3985451,53.3558169]]}";38;Lucan Road;4;80;false;true;true;false;false;false;69.0;0;0;0;0;0;false;7078;255018275;-6.292878;53.3478982;"";254774848;-6.4233312;53.3577135;0;1;2;7619377;Dublin Bus route 67;"";Dublin Bus;67;Merrion Square;Maynooth
128189137;"{\"type\":\"LineString\",\"coordinates\":[[-6.3985451,53.3558169],[-6.3993216,53.3559778],[-6.3998915,53.3561114],[-6.4005442,53.3562688],[-6.4017208,53.3565573]]}";39;Lucan Road;4;80;false;true;true;false;false;false;229.0;0;0;0;0;0;false;7078;255018275;-6.292878;53.3478982;"";254774848;-6.4233312;53.3577135;0;1;2;7619377;Dublin Bus route 67;"";Dublin Bus;67;Merrion Square;Maynooth
4403329;"{\"type\":\"LineString\",\"coordinates\":[[-6.4017208,53.3565573],[-6.4023605,53.3567093]]}";40;Lucan Road;4;80;false;true;true;false;false;false;47.0;0;0;0;0;0;false;7078;255018275;-6.292878;53.3478982;"";254774848;-6.4233312;53.3577135;0;1;2;7619377;Dublin Bus route 67;"";Dublin Bus;67;Merrion Square;Maynooth
330410241;"{\"type\":\"LineString\",\"coordinates\":[[-6.4023605,53.3567093],[-6.4050302,53.3573446],[-6.406085,53.3576092],[-6.4076014,53.3579777],[-6.4083045,53.3581403],[-6.4090717,53.3583126],[-6.410161,53.3585122],[-6.4110488,53.358644],[-6.4114368,53.3586787],[-6.4122841,53.3587857]]}";41;Lucan Road;4;80;false;true;true;false;false;false;707.0;0;0;0;0;0;false;7078;255018275;-6.292878;53.3478982;"";254774848;-6.4233312;53.3577135;0;1;2;7619377;Dublin Bus route 67;"";Dublin Bus;67;Merrion Square;Maynooth
330410240;"{\"type\":\"LineString\",\"coordinates\":[[-6.4122841,53.3587857],[-6.4132262,53.3588617],[-6.4139651,53.358894],[-6.4145142,53.3589128],[-6.4153279,53.3589214],[-6.4160521,53.3589296],[-6.4171153,53.3589337],[-6.4181511,53.3589474],[-6.4187266,53.3589407]]}";42;Lucan Road;4;80;false;true;true;false;false;false;433.0;0;0;0;0;0;false;7078;255018275;-6.292878;53.3478982;"";254774848;-6.4233312;53.3577135;0;1;2;7619377;Dublin Bus route 67;"";Dublin Bus;67;Merrion Square;Maynooth
330615390;"{\"type\":\"LineString\",\"coordinates\":[[-6.4187266,53.3589407],[-6.4189683,53.3589365],[-6.4193369,53.3589219],[-6.419689,53.3588968],[-6.4202585,53.3588486]]}";43;Lucan Road;4;80;false;true;true;false;false;false;104.0;0;0;0;0;0;false;7078;255018275;-6.292878;53.3478982;"";254774848;-6.4233312;53.3577135;0;1;2;7619377;Dublin Bus route 67;"";Dublin Bus;67;Merrion Square;Maynooth
4258272;"{\"type\":\"LineString\",\"coordinates\":[[-6.4202585,53.3588486],[-6.4212354,53.3586378],[-6.4218818,53.3584247],[-6.4220195,53.3583751]]}";44;"";1;80;false;true;true;false;false;false;130.0;0;0;0;0;0;false;7078;255018275;-6.292878;53.3478982;"";254774848;-6.4233312;53.3577135;0;1;2;7619377;Dublin Bus route 67;"";Dublin Bus;67;Merrion Square;Maynooth
492224130;"{\"type\":\"LineString\",\"coordinates\":[[-6.4220195,53.3583751],[-6.4229563,53.3579974],[-6.4233875,53.35778],[-6.4236916,53.3576352],[-6.4239318,53.35753],[-6.4242004,53.3574101],[-6.4243209,53.3573514]]}";45;"";1;60;false;true;true;false;false;false;96.5;1;1;0;0;0;false;7078;255018275;-6.292878;53.3478982;"";254774848;-6.4233312;53.3577135;1;1;2;7619377;Dublin Bus route 67;"";Dublin Bus;67;Merrion Square;Maynooth
492224130;"{\"type\":\"LineString\",\"coordinates\":[[-6.4220195,53.3583751],[-6.4229563,53.3579974],[-6.4233875,53.35778],[-6.4236916,53.3576352],[-6.4239318,53.35753],[-6.4242004,53.3574101],[-6.4243209,53.3573514]]}";1;"";1;60;false;true;true;false;false;false;96.5;1;1;0;0;0;false;"";254774848;-6.4233312;53.3577135;"";536726875;-6.4653663;53.3567809;1;2;3;7619377;Dublin Bus route 67;"";Dublin Bus;67;Merrion Square;Maynooth
24954778;"{\"type\":\"LineString\",\"coordinates\":[[-6.4243209,53.3573514],[-6.4244496,53.3574701]]}";2;Grange Castle Road;4;50;false;false;false;false;false;false;16.0;1;0;0;0;0;false;"";254774848;-6.4233312;53.3577135;"";536726875;-6.4653663;53.3567809;0;2;3;7619377;Dublin Bus route 67;"";Dublin Bus;67;Merrion Square;Maynooth
18703979;"{\"type\":\"LineString\",\"coordinates\":[[-6.4244496,53.3574701],[-6.4245589,53.3575569]]}";3;Grange Castle Road;4;50;false;false;false;false;false;false;13.0;0;0;0;0;0;false;"";254774848;-6.4233312;53.3577135;"";536726875;-6.4653663;53.3567809;0;2;3;7619377;Dublin Bus route 67;"";Dublin Bus;67;Merrion Square;Maynooth
778542671;"{\"type\":\"LineString\",\"coordinates\":[[-6.4245589,53.3575569],[-6.4249129,53.3578382],[-6.4249399,53.3578603]]}";4;Grange Castle Road;4;50;false;false;true;false;false;false;43.0;0;0;0;0;0;false;"";254774848;-6.4233312;53.3577135;"";536726875;-6.4653663;53.3567809;0;2;3;7619377;Dublin Bus route 67;"";Dublin Bus;67;Merrion Square;Maynooth
18703980;"{\"type\":\"LineString\",\"coordinates\":[[-6.4249399,53.3578603],[-6.4250041,53.3579137]]}";5;Grange Castle Road;4;50;false;false;true;false;false;false;8.0;0;0;0;0;0;false;"";254774848;-6.4233312;53.3577135;"";536726875;-6.4653663;53.3567809;0;2;3;7619377;Dublin Bus route 67;"";Dublin Bus;67;Merrion Square;Maynooth
26541079;"{\"type\":\"LineString\",\"coordinates\":[[-6.4250041,53.3579137],[-6.4251573,53.3580334]]}";6;Grange Castle Road;4;50;false;false;false;false;false;false;17.0;0;0;0;0;0;false;"";254774848;-6.4233312;53.3577135;"";536726875;-6.4653663;53.3567809;0;2;3;7619377;Dublin Bus route 67;"";Dublin Bus;67;Merrion Square;Maynooth
778542672;"{\"type\":\"LineString\",\"coordinates\":[[-6.4251573,53.3580334],[-6.4254104,53.3582944],[-6.4255833,53.3585393],[-6.4256718,53.3587501],[-6.425734,53.3589241]]}";7;Grange Castle Road;4;50;false;false;false;false;false;false;108.0;0;0;0;0;0;false;"";254774848;-6.4233312;53.3577135;"";536726875;-6.4653663;53.3567809;0;2;3;7619377;Dublin Bus route 67;"";Dublin Bus;67;Merrion Square;Maynooth
450684146;"{\"type\":\"LineString\",\"coordinates\":[[-6.425734,53.3589241],[-6.4257915,53.3592239]]}";8;Grange Castle Road;2;50;false;false;false;false;false;false;34.0;0;0;0;0;0;false;"";254774848;-6.4233312;53.3577135;"";536726875;-6.4653663;53.3567809;0;2;3;7619377;Dublin Bus route 67;"";Dublin Bus;67;Merrion Square;Maynooth
778542673;"{\"type\":\"LineString\",\"coordinates\":[[-6.4257915,53.3592239],[-6.4257955,53.3593046],[-6.4257972,53.359354],[-6.4257844,53.359502]]}";9;Grange Castle Road;2;50;false;false;false;false;false;false;32.0;1;1;0;0;0;false;"";254774848;-6.4233312;53.3577135;"";536726875;-6.4653663;53.3567809;0;2;3;7619377;Dublin Bus route 67;"";Dublin Bus;67;Merrion Square;Maynooth
276455924;"{\"type\":\"LineString\",\"coordinates\":[[-6.4263983,53.3595595],[-6.4259522,53.3595182],[-6.4257844,53.359502]]}";10;Lucan Road;2;50;false;false;true;false;false;false;42.0;1;0;0;0;0;false;"";254774848;-6.4233312;53.3577135;"";536726875;-6.4653663;53.3567809;0;2;3;7619377;Dublin Bus route 67;"";Dublin Bus;67;Merrion Square;Maynooth
330615389;"{\"type\":\"LineString\",\"coordinates\":[[-6.4276689,53.3596422],[-6.4268128,53.3595882],[-6.4264844,53.3595658],[-6.4263983,53.3595595]]}";11;Lucan Road;3;50;false;false;true;false;false;false;86.0;0;0;0;0;0;false;"";254774848;-6.4233312;53.3577135;"";536726875;-6.4653663;53.3567809;0;2;3;7619377;Dublin Bus route 67;"";Dublin Bus;67;Merrion Square;Maynooth
276455923;"{\"type\":\"LineString\",\"coordinates\":[[-6.4347812,53.3599538],[-6.4340338,53.3598868],[-6.4338563,53.3598676],[-6.4333499,53.3598092],[-6.4328997,53.359765],[-6.4323209,53.3596953],[-6.4318434,53.3596673],[-6.4313133,53.3596511],[-6.4304539,53.3596639],[-6.4302049,53.3596678],[-6.4289778,53.3596965],[-6.4286995,53.3596947],[-6.4283923,53.3596791],[-6.4276689,53.3596422]]}";12;Lucan Road;1;50;false;false;true;false;false;false;480.0;0;1;0;0;0;false;"";254774848;-6.4233312;53.3577135;"";536726875;-6.4653663;53.3567809;0;2;3;7619377;Dublin Bus route 67;"";Dublin Bus;67;Merrion Square;Maynooth
276455925;"{\"type\":\"LineString\",\"coordinates\":[[-6.4362283,53.3600748],[-6.4359763,53.3600611],[-6.4347812,53.3599538]]}";13;Lucan Road;1;50;false;false;true;false;false;false;98.0;0;0;0;0;0;false;"";254774848;-6.4233312;53.3577135;"";536726875;-6.4653663;53.3567809;0;2;3;7619377;Dublin Bus route 67;"";Dublin Bus;67;Merrion Square;Maynooth
325775090;"{\"type\":\"LineString\",\"coordinates\":[[-6.4379677,53.3599985],[-6.4375533,53.3600265],[-6.4371595,53.3600537],[-6.4371288,53.3600558],[-6.4366797,53.3600773],[-6.4362688,53.360075],[-6.4362283,53.3600748]]}";14;Lucan Road;3;50;false;false;true;false;false;false;118.0;0;0;0;0;0;false;"";254774848;-6.4233312;53.3577135;"";536726875;-6.4653663;53.3567809;0;2;3;7619377;Dublin Bus route 67;"";Dublin Bus;67;Merrion Square;Maynooth
4064568;"{\"type\":\"LineString\",\"coordinates\":[[-6.4385,53.3598991],[-6.4381847,53.3599656],[-6.4379677,53.3599985]]}";15;Lucan Road;1;50;false;false;true;false;false;false;38.0;1;0;0;0;0;false;"";254774848;-6.4233312;53.3577135;"";536726875;-6.4653663;53.3567809;0;2;3;7619377;Dublin Bus route 67;"";Dublin Bus;67;Merrion Square;Maynooth
4064562;"{\"type\":\"LineString\",\"coordinates\":[[-6.4385,53.3598991],[-6.4388262,53.3597952],[-6.4392003,53.3596664],[-6.4397157,53.3594924],[-6.4398515,53.3594183],[-6.4399873,53.3593442],[-6.4401651,53.3592168],[-6.4407313,53.3587633],[-6.4408106,53.3586998],[-6.4409438,53.3585958],[-6.4411275,53.3584524],[-6.4414968,53.3581809],[-6.4418432,53.3579639],[-6.4420916,53.3578312]]}";16;Lucan Road;2;50;false;false;true;false;false;false;339.0;1;1;0;0;0;false;"";254774848;-6.4233312;53.3577135;"";536726875;-6.4653663;53.3567809;0;2;3;7619377;Dublin Bus route 67;"";Dublin Bus;67;Merrion Square;Maynooth
298141110;"{\"type\":\"LineString\",\"coordinates\":[[-6.4420916,53.3578312],[-6.4424021,53.3576554],[-6.4431891,53.3572686],[-6.4439298,53.3569336],[-6.4442394,53.3568179],[-6.4446126,53.3566987],[-6.4450537,53.3566102],[-6.4454452,53.3565689],[-6.4458397,53.3565462],[-6.4465656,53.3565192],[-6.447352,53.3565002],[-6.4484292,53.3564963],[-6.4485546,53.3564937],[-6.4488206,53.3564881],[-6.4491204,53.3564672],[-6.4496544,53.3564299]]}";17;Lucan Road;2;50;false;false;true;false;false;false;553.0;0;0;0;0;0;false;"";254774848;-6.4233312;53.3577135;"";536726875;-6.4653663;53.3567809;0;2;3;7619377;Dublin Bus route 67;"";Dublin Bus;67;Merrion Square;Maynooth
595252637;"{\"type\":\"LineString\",\"coordinates\":[[-6.4496544,53.3564299],[-6.4499412,53.3564084]]}";18;Lucan Road;2;50;false;false;true;false;false;false;20.0;1;0;0;0;0;false;"";254774848;-6.4233312;53.3577135;"";536726875;-6.4653663;53.3567809;0;2;3;7619377;Dublin Bus route 67;"";Dublin Bus;67;Merrion Square;Maynooth
4062164;"{\"type\":\"LineString\",\"coordinates\":[[-6.4499412,53.3564084],[-6.4504096,53.3563767],[-6.4506858,53.3563305]]}";19;Leixlip Road;2;50;false;false;true;false;false;false;51.0;1;0;0;0;0;false;"";254774848;-6.4233312;53.3577135;"";536726875;-6.4653663;53.3567809;0;2;3;7619377;Dublin Bus route 67;"";Dublin Bus;67;Merrion Square;Maynooth
22754325;"{\"type\":\"LineString\",\"coordinates\":[[-6.4506858,53.3563305],[-6.4508786,53.3562795],[-6.4509446,53.356262],[-6.4510673,53.3562396],[-6.4511847,53.3562246],[-6.4514644,53.3561968],[-6.4515335,53.3561916],[-6.4520422,53.3561477],[-6.4521634,53.3561259],[-6.4532528,53.3559008],[-6.4545151,53.3556322],[-6.4551874,53.3554863],[-6.4556037,53.3554008],[-6.4560287,53.3553104],[-6.4564283,53.3552593],[-6.4568757,53.3552206],[-6.457317,53.355189]]}";20;Leixlip Road;2;50;false;false;true;false;false;false;465.0;0;1;0;0;0;false;"";254774848;-6.4233312;53.3577135;"";536726875;-6.4653663;53.3567809;0;2;3;7619377;Dublin Bus route 67;"";Dublin Bus;67;Merrion Square;Maynooth
514078220;"{\"type\":\"LineString\",\"coordinates\":[[-6.457317,53.355189],[-6.4576347,53.3551763]]}";21;Leixlip Road;2;50;false;false;true;false;false;false;22.0;0;0;0;0;0;false;"";254774848;-6.4233312;53.3577135;"";536726875;-6.4653663;53.3567809;0;2;3;7619377;Dublin Bus route 67;"";Dublin Bus;67;Merrion Square;Maynooth
328547641;"{\"type\":\"LineString\",\"coordinates\":[[-6.4576347,53.3551763],[-6.4584159,53.3552402],[-6.4588622,53.3552805],[-6.4593381,53.3553252],[-6.4595349,53.355341],[-6.4598021,53.3553825],[-6.4602869,53.3554807],[-6.4606491,53.3555607],[-6.4607847,53.3555746],[-6.4609715,53.3555722]]}";22;Leixlip Road;2;50;false;false;true;false;false;false;230.0;0;0;0;0;0;false;"";254774848;-6.4233312;53.3577135;"";536726875;-6.4653663;53.3567809;0;2;3;7619377;Dublin Bus route 67;"";Dublin Bus;67;Merrion Square;Maynooth
328547649;"{\"type\":\"LineString\",\"coordinates\":[[-6.4609715,53.3555722],[-6.4612826,53.3555658]]}";23;Leixlip Road;2;50;false;false;true;false;false;false;21.0;0;0;0;0;0;false;"";254774848;-6.4233312;53.3577135;"";536726875;-6.4653663;53.3567809;0;2;3;7619377;Dublin Bus route 67;"";Dublin Bus;67;Merrion Square;Maynooth
48506822;"{\"type\":\"LineString\",\"coordinates\":[[-6.4612826,53.3555658],[-6.4614666,53.3555471]]}";24;Old Celbridge Road;2;50;false;false;true;false;false;false;13.0;0;0;0;0;0;false;"";254774848;-6.4233312;53.3577135;"";536726875;-6.4653663;53.3567809;0;2;3;7619377;Dublin Bus route 67;"";Dublin Bus;67;Merrion Square;Maynooth
4942242;"{\"type\":\"LineString\",\"coordinates\":[[-6.4614666,53.3555471],[-6.4618159,53.3554947],[-6.4621381,53.3554067]]}";25;Old Celbridge Road;2;50;false;false;true;false;false;false;48.0;0;0;0;0;0;false;"";254774848;-6.4233312;53.3577135;"";536726875;-6.4653663;53.3567809;0;2;3;7619377;Dublin Bus route 67;"";Dublin Bus;67;Merrion Square;Maynooth
4942243;"{\"type\":\"LineString\",\"coordinates\":[[-6.4621381,53.3554067],[-6.4626749,53.3552371],[-6.4628902,53.3551823]]}";26;Old Celbridge Road;2;50;false;false;true;false;false;false;57.0;0;0;0;0;0;false;"";254774848;-6.4233312;53.3577135;"";536726875;-6.4653663;53.3567809;0;2;3;7619377;Dublin Bus route 67;"";Dublin Bus;67;Merrion Square;Maynooth
328547647;"{\"type\":\"LineString\",\"coordinates\":[[-6.4628902,53.3551823],[-6.463264,53.3550657],[-6.4633699,53.3550132]]}";27;Old Celbridge Road;2;50;false;false;true;false;false;false;38.0;0;0;0;0;0;false;"";254774848;-6.4233312;53.3577135;"";536726875;-6.4653663;53.3567809;0;2;3;7619377;Dublin Bus route 67;"";Dublin Bus;67;Merrion Square;Maynooth
528957584;"{\"type\":\"LineString\",\"coordinates\":[[-6.4633699,53.3550132],[-6.4633451,53.3549912],[-6.4633417,53.3549732],[-6.4633471,53.3549552],[-6.4633578,53.3549376],[-6.4633753,53.3549236],[-6.4634081,53.354914]]}";28;Old Celbridge Road;1;50;false;false;true;false;false;false;14.0;0;0;0;0;0;true;"";254774848;-6.4233312;53.3577135;"";536726875;-6.4653663;53.3567809;0;2;3;7619377;Dublin Bus route 67;"";Dublin Bus;67;Merrion Square;Maynooth
28490176;"{\"type\":\"LineString\",\"coordinates\":[[-6.4634081,53.354914],[-6.4633837,53.3548717],[-6.4632359,53.3545281],[-6.4631665,53.3543725]]}";29;Millstream Road;2;50;false;false;true;false;false;false;63.0;0;0;0;0;0;false;"";254774848;-6.4233312;53.3577135;"";536726875;-6.4653663;53.3567809;0;2;3;7619377;Dublin Bus route 67;"";Dublin Bus;67;Merrion Square;Maynooth
22726791;"{\"type\":\"LineString\",\"coordinates\":[[-6.4631665,53.3543725],[-6.4630816,53.354386],[-6.4629789,53.3544102],[-6.462849,53.3544476],[-6.4618137,53.3550563]]}";30;Old Cornmill Road;2;50;false;false;true;false;false;false;121.0;0;0;1;0;0;false;"";254774848;-6.4233312;53.3577135;"";536726875;-6.4653663;53.3567809;0;2;3;7619377;Dublin Bus route 67;"";Dublin Bus;67;Merrion Square;Maynooth
22726794;"{\"type\":\"LineString\",\"coordinates\":[[-6.4618137,53.3550563],[-6.4617872,53.3551051],[-6.4617635,53.3551611],[-6.4617681,53.3552449],[-6.4618164,53.3553222]]}";31;Leixlip Road;1;50;false;true;true;false;false;false;31.0;0;0;0;1;0;false;"";254774848;-6.4233312;53.3577135;"";536726875;-6.4653663;53.3567809;0;2;3;7619377;Dublin Bus route 67;"";Dublin Bus;67;Merrion Square;Maynooth
48506820;"{\"type\":\"LineString\",\"coordinates\":[[-6.4618164,53.3553222],[-6.4622807,53.3555621],[-6.463036,53.3559167],[-6.4638628,53.3562765],[-6.4643586,53.3564573],[-6.4648256,53.3566329],[-6.4657016,53.3569856],[-6.4665787,53.3572971],[-6.4672001,53.3574979],[-6.4679016,53.3576999],[-6.4683559,53.3578315],[-6.4686193,53.3578925],[-6.469219,53.358018],[-6.4699947,53.3581494],[-6.4703254,53.3581866],[-6.470464,53.3582022],[-6.4709089,53.358228],[-6.4714873,53.3582405],[-6.4720874,53.3582339],[-6.4728873,53.3582178]]}";32;Leixlip Road;1;80;false;true;false;false;false;false;416.5;0;0;0;0;0;false;"";254774848;-6.4233312;53.3577135;"";536726875;-6.4653663;53.3567809;1;2;3;7619377;Dublin Bus route 67;"";Dublin Bus;67;Merrion Square;Maynooth
48506820;"{\"type\":\"LineString\",\"coordinates\":[[-6.4618164,53.3553222],[-6.4622807,53.3555621],[-6.463036,53.3559167],[-6.4638628,53.3562765],[-6.4643586,53.3564573],[-6.4648256,53.3566329],[-6.4657016,53.3569856],[-6.4665787,53.3572971],[-6.4672001,53.3574979],[-6.4679016,53.3576999],[-6.4683559,53.3578315],[-6.4686193,53.3578925],[-6.469219,53.358018],[-6.4699947,53.3581494],[-6.4703254,53.3581866],[-6.470464,53.3582022],[-6.4709089,53.358228],[-6.4714873,53.3582405],[-6.4720874,53.3582339],[-6.4728873,53.3582178]]}";1;Leixlip Road;1;80;false;true;false;false;false;false;416.5;0;0;0;0;0;false;"";803019875;-6.4677692;53.3576311;"";536726878;-6.4733245;53.3581187;1;4;5;7619377;Dublin Bus route 67;"";Dublin Bus;67;Merrion Square;Maynooth
48506821;"{\"type\":\"LineString\",\"coordinates\":[[-6.4728873,53.3582178],[-6.47321,53.3581871],[-6.4735177,53.3581451],[-6.4739128,53.3580711],[-6.4743797,53.3579645],[-6.4746332,53.357951]]}";2;"";1;60;false;true;false;false;false;false;61.0;1;0;0;0;0;false;"";803019875;-6.4677692;53.3576311;"";536726878;-6.4733245;53.3581187;1;4;5;7619377;Dublin Bus route 67;"";Dublin Bus;67;Merrion Square;Maynooth
48506821;"{\"type\":\"LineString\",\"coordinates\":[[-6.4728873,53.3582178],[-6.47321,53.3581871],[-6.4735177,53.3581451],[-6.4739128,53.3580711],[-6.4743797,53.3579645],[-6.4746332,53.357951]]}";1;"";1;60;false;true;false;false;false;false;61.0;1;0;0;0;0;false;"";536726878;-6.4733245;53.3581187;3906;312818959;-6.5392926;53.3390269;1;5;6;7619377;Dublin Bus route 67;"";Dublin Bus;67;Merrion Square;Maynooth
321455990;"{\"type\":\"LineString\",\"coordinates\":[[-6.4802773,53.3534308],[-6.47892,53.3540846],[-6.477506,53.3547658],[-6.4762292,53.355395],[-6.4758622,53.3556176],[-6.4755603,53.3558331],[-6.4752614,53.3561211],[-6.4750601,53.356356],[-6.4748796,53.3566245],[-6.47477,53.3568471],[-6.474702,53.3570414],[-6.4746487,53.3572428],[-6.474625,53.3574167],[-6.4746192,53.3576225],[-6.4746332,53.357951]]}";2;Celbridge Road;2;50;false;false;true;false;false;false;667.0;1;0;0;0;0;false;"";536726878;-6.4733245;53.3581187;3906;312818959;-6.5392926;53.3390269;0;5;6;7619377;Dublin Bus route 67;"";Dublin Bus;67;Merrion Square;Maynooth
321455991;"{\"type\":\"LineString\",\"coordinates\":[[-6.4806071,53.3532678],[-6.4802773,53.3534308]]}";3;Celbridge Road;2;50;false;false;true;false;false;false;29.0;0;0;0;0;0;false;"";536726878;-6.4733245;53.3581187;3906;312818959;-6.5392926;53.3390269;0;5;6;7619377;Dublin Bus route 67;"";Dublin Bus;67;Merrion Square;Maynooth
329693140;"{\"type\":\"LineString\",\"coordinates\":[[-6.481083,53.3530315],[-6.480721,53.3532127],[-6.4806071,53.3532678]]}";4;Celbridge Road;2;50;false;false;true;false;false;false;42.0;0;0;0;0;0;false;"";536726878;-6.4733245;53.3581187;3906;312818959;-6.5392926;53.3390269;0;5;6;7619377;Dublin Bus route 67;"";Dublin Bus;67;Merrion Square;Maynooth
321455994;"{\"type\":\"LineString\",\"coordinates\":[[-6.4915371,53.3478861],[-6.4904946,53.3483927],[-6.4898456,53.3487223],[-6.4851366,53.3510268],[-6.4837704,53.351699],[-6.4824016,53.3523653],[-6.481083,53.3530315]]}";5;Celbridge Road;2;60;false;false;true;false;false;false;908.0;0;0;0;0;0;false;"";536726878;-6.4733245;53.3581187;3906;312818959;-6.5392926;53.3390269;0;5;6;7619377;Dublin Bus route 67;"";Dublin Bus;67;Merrion Square;Maynooth
321455993;"{\"type\":\"LineString\",\"coordinates\":[[-6.4936189,53.3471573],[-6.4932116,53.3472853],[-6.4925818,53.3474948],[-6.4918151,53.3477501],[-6.4915371,53.3478861]]}";6;Celbridge Road;2;60;false;false;true;false;false;false;163.0;0;0;0;0;0;false;"";536726878;-6.4733245;53.3581187;3906;312818959;-6.5392926;53.3390269;0;5;6;7619377;Dublin Bus route 67;"";Dublin Bus;67;Merrion Square;Maynooth
321455992;"{\"type\":\"LineString\",\"coordinates\":[[-6.4987206,53.3461058],[-6.4937393,53.3471248],[-6.4936189,53.3471573]]}";7;Celbridge Road;2;60;false;false;true;false;false;false;362.0;0;0;0;0;0;false;"";536726878;-6.4733245;53.3581187;3906;312818959;-6.5392926;53.3390269;0;5;6;7619377;Dublin Bus route 67;"";Dublin Bus;67;Merrion Square;Maynooth
329964819;"{\"type\":\"LineString\",\"coordinates\":[[-6.5034416,53.3451241],[-6.5029007,53.3452367],[-6.5008768,53.3456541],[-6.4997193,53.345893],[-6.4990778,53.3460297],[-6.498809,53.346087],[-6.4987206,53.3461058]]}";8;Celbridge Road;2;50;false;false;true;false;false;false;336.0;0;0;0;0;0;false;"";536726878;-6.4733245;53.3581187;3906;312818959;-6.5392926;53.3390269;0;5;6;7619377;Dublin Bus route 67;"";Dublin Bus;67;Merrion Square;Maynooth
329964818;"{\"type\":\"LineString\",\"coordinates\":[[-6.5071209,53.3443376],[-6.5034416,53.3451241]]}";9;Celbridge Road;2;50;false;false;true;false;false;false;262.0;0;0;0;0;0;false;"";536726878;-6.4733245;53.3581187;3906;312818959;-6.5392926;53.3390269;0;5;6;7619377;Dublin Bus route 67;"";Dublin Bus;67;Merrion Square;Maynooth
329964827;"{\"type\":\"LineString\",\"coordinates\":[[-6.5073048,53.3443011],[-6.5071209,53.3443376]]}";10;Celbridge Road;2;50;false;false;true;false;false;false;13.0;1;0;0;0;0;false;"";536726878;-6.4733245;53.3581187;3906;312818959;-6.5392926;53.3390269;0;5;6;7619377;Dublin Bus route 67;"";Dublin Bus;67;Merrion Square;Maynooth
329965705;"{\"type\":\"LineString\",\"coordinates\":[[-6.5195142,53.3417882],[-6.5192058,53.3418508],[-6.5184746,53.3420011],[-6.5153939,53.3426398],[-6.5142427,53.3428814],[-6.5106682,53.3436195],[-6.5090824,53.3439588],[-6.5073048,53.3443011]]}";11;Celbridge Road;2;60;false;false;true;false;false;false;866.0;1;0;0;0;0;false;"";536726878;-6.4733245;53.3581187;3906;312818959;-6.5392926;53.3390269;0;5;6;7619377;Dublin Bus route 67;"";Dublin Bus;67;Merrion Square;Maynooth
329965706;"{\"type\":\"LineString\",\"coordinates\":[[-6.5196146,53.3417679],[-6.5195142,53.3417882]]}";12;Celbridge Road;1;50;false;false;true;false;false;false;8.0;0;0;0;0;0;false;"";536726878;-6.4733245;53.3581187;3906;312818959;-6.5392926;53.3390269;0;5;6;7619377;Dublin Bus route 67;"";Dublin Bus;67;Merrion Square;Maynooth
330594129;"{\"type\":\"LineString\",\"coordinates\":[[-6.5204298,53.3415976],[-6.5196146,53.3417679]]}";13;Celbridge Road;1;60;false;false;true;false;false;false;58.0;0;0;0;0;0;false;"";536726878;-6.4733245;53.3581187;3906;312818959;-6.5392926;53.3390269;0;5;6;7619377;Dublin Bus route 67;"";Dublin Bus;67;Merrion Square;Maynooth
4942461;"{\"type\":\"LineString\",\"coordinates\":[[-6.5386575,53.3378334],[-6.5385153,53.3378308],[-6.5383917,53.3378411],[-6.5382016,53.3378664],[-6.5380135,53.3379046],[-6.5379645,53.3379145],[-6.5370682,53.3380946],[-6.5351519,53.3385136],[-6.5343134,53.3386924],[-6.5338265,53.3387933],[-6.5336134,53.3388416],[-6.5313535,53.3393183],[-6.5292375,53.3397596],[-6.5256484,53.3405102],[-6.5250588,53.3406399],[-6.5240484,53.3408621],[-6.5224746,53.3411645],[-6.5204298,53.3415976]]}";14;Celbridge Road;2;60;false;false;true;false;false;false;1294.0;2;1;0;0;0;false;"";536726878;-6.4733245;53.3581187;3906;312818959;-6.5392926;53.3390269;0;5;6;7619377;Dublin Bus route 67;"";Dublin Bus;67;Merrion Square;Maynooth
4942412;"{\"type\":\"LineString\",\"coordinates\":[[-6.5387855,53.337897],[-6.5386575,53.3378334]]}";15;"";2;50;false;false;true;false;false;false;12.0;0;0;0;0;0;false;"";536726878;-6.4733245;53.3581187;3906;312818959;-6.5392926;53.3390269;0;5;6;7619377;Dublin Bus route 67;"";Dublin Bus;67;Merrion Square;Maynooth
4942411;"{\"type\":\"LineString\",\"coordinates\":[[-6.5391927,53.3380835],[-6.5387855,53.337897]]}";16;"";2;50;false;false;true;false;false;false;35.0;0;0;0;0;0;false;"";536726878;-6.4733245;53.3581187;3906;312818959;-6.5392926;53.3390269;0;5;6;7619377;Dublin Bus route 67;"";Dublin Bus;67;Merrion Square;Maynooth
4942369;"{\"type\":\"LineString\",\"coordinates\":[[-6.5397119,53.3382987],[-6.5396379,53.3382878],[-6.5393558,53.3381638],[-6.5391927,53.3380835]]}";17;Hazelhatch Road;1;50;false;false;true;false;false;false;43.0;0;0;0;0;0;false;"";536726878;-6.4733245;53.3581187;3906;312818959;-6.5392926;53.3390269;0;5;6;7619377;Dublin Bus route 67;"";Dublin Bus;67;Merrion Square;Maynooth
28490179;"{\"type\":\"LineString\",\"coordinates\":[[-6.5372552,53.3411347],[-6.537456,53.3409379],[-6.5381103,53.3402669],[-6.5382454,53.3401056],[-6.5384371,53.3398766],[-6.5386783,53.3395886],[-6.5387687,53.3394807],[-6.5389638,53.339251],[-6.5390545,53.3391361],[-6.5391887,53.3389895],[-6.5394047,53.3387258],[-6.5396686,53.3383898],[-6.5397119,53.3382987]]}";18;Main Street;2;50;false;false;true;false;false;false;179.5;0;0;0;1;0;false;"";536726878;-6.4733245;53.3581187;3906;312818959;-6.5392926;53.3390269;1;5;6;7619377;Dublin Bus route 67;"";Dublin Bus;67;Merrion Square;Maynooth
28490179;"{\"type\":\"LineString\",\"coordinates\":[[-6.5372552,53.3411347],[-6.537456,53.3409379],[-6.5381103,53.3402669],[-6.5382454,53.3401056],[-6.5384371,53.3398766],[-6.5386783,53.3395886],[-6.5387687,53.3394807],[-6.5389638,53.339251],[-6.5390545,53.3391361],[-6.5391887,53.3389895],[-6.5394047,53.3387258],[-6.5396686,53.3383898],[-6.5397119,53.3382987]]}";1;Main Street;2;50;false;false;true;false;false;false;179.5;0;0;0;1;0;false;"";506834806;-6.5375427;53.3410325;"";432487184;-6.5677704;53.3670151;1;7;8;7619377;Dublin Bus route 67;"";Dublin Bus;67;Merrion Square;Maynooth
40895603;"{\"type\":\"LineString\",\"coordinates\":[[-6.5423504,53.3442645],[-6.5422362,53.3441188],[-6.5419241,53.3438937],[-6.5418829,53.3438685],[-6.5416225,53.3436959],[-6.540922,53.3433001],[-6.5403372,53.3429575],[-6.5402866,53.3429318],[-6.539983,53.3428083],[-6.5395852,53.3426122],[-6.5390645,53.3423178],[-6.5388234,53.3421934],[-6.5387648,53.3421631],[-6.5386758,53.3421172],[-6.5386296,53.342086],[-6.5381942,53.3417917],[-6.5381338,53.3417556],[-6.5380348,53.3416824],[-6.5376356,53.3414127],[-6.5374223,53.3412687],[-6.5373333,53.3412376],[-6.5372948,53.3412186],[-6.5372552,53.3411347]]}";2;Big Lane;1;50;false;false;false;false;false;false;494.0;1;0;0;0;0;false;"";506834806;-6.5375427;53.3410325;"";432487184;-6.5677704;53.3670151;0;7;8;7619377;Dublin Bus route 67;"";Dublin Bus;67;Merrion Square;Maynooth
254236959;"{\"type\":\"LineString\",\"coordinates\":[[-6.5465284,53.3519363],[-6.5462719,53.3516826],[-6.5461084,53.3515318],[-6.5452115,53.3507802],[-6.5449893,53.3506086],[-6.5446051,53.3502813],[-6.5445021,53.3501936],[-6.5444391,53.3501436],[-6.5442706,53.3499863],[-6.5438486,53.3495654],[-6.543583,53.3493449],[-6.5433996,53.3492295],[-6.5431981,53.3490939],[-6.5429505,53.3489114],[-6.5428742,53.3488424],[-6.542727,53.3486357],[-6.5425244,53.3483356],[-6.542513,53.3483187],[-6.5422909,53.3479405],[-6.5421935,53.3477745],[-6.542008,53.3474799],[-6.5418914,53.3472399],[-6.541824,53.3468385],[-6.5418384,53.3464289],[-6.5418849,53.3462287],[-6.5419012,53.3461694],[-6.5419551,53.345998],[-6.5420297,53.3457888],[-6.5421199,53.3455554],[-6.5421844,53.3454373],[-6.5423072,53.3452397],[-6.5423455,53.3451782],[-6.5423928,53.3450542],[-6.5424317,53.3449236],[-6.5424391,53.3447953],[-6.5424113,53.3446227],[-6.5423504,53.3442645]]}";3;Maynooth Road;1;50;false;false;false;false;false;false;956.0;1;1;0;0;0;false;"";506834806;-6.5375427;53.3410325;"";432487184;-6.5677704;53.3670151;0;7;8;7619377;Dublin Bus route 67;"";Dublin Bus;67;Merrion Square;Maynooth
4247182;"{\"type\":\"LineString\",\"coordinates\":[[-6.5484547,53.357414],[-6.5484061,53.3573985],[-6.5483619,53.3573575],[-6.5482144,53.3572217],[-6.5476532,53.3567057],[-6.5472633,53.3561636],[-6.5471824,53.3560205],[-6.5470629,53.3556741],[-6.5470441,53.3555986],[-6.5469734,53.3553156],[-6.5469492,53.3550075],[-6.5469624,53.3547593],[-6.5470194,53.3543906],[-6.5470993,53.3538743],[-6.5471297,53.3533822],[-6.5471201,53.353119],[-6.547028,53.3527539],[-6.546833,53.3523209],[-6.5465284,53.3519363]]}";4;"";2;50;false;false;true;false;false;false;646.0;0;3;0;0;0;false;"";506834806;-6.5375427;53.3410325;"";432487184;-6.5677704;53.3670151;0;7;8;7619377;Dublin Bus route 67;"";Dublin Bus;67;Merrion Square;Maynooth
529166743;"{\"type\":\"LineString\",\"coordinates\":[[-6.5484547,53.357414],[-6.5485293,53.3573816],[-6.548617,53.3573646],[-6.5487092,53.3573647],[-6.5487968,53.3573819],[-6.5488712,53.3574145],[-6.5489249,53.3574592],[-6.5489527,53.3575117],[-6.5489519,53.3575667],[-6.5489224,53.3576189],[-6.5488673,53.357663]]}";5;"";2;50;false;false;true;false;false;false;62.0;0;0;0;0;0;true;"";506834806;-6.5375427;53.3410325;"";432487184;-6.5677704;53.3670151;0;7;8;7619377;Dublin Bus route 67;"";Dublin Bus;67;Merrion Square;Maynooth
325783346;"{\"type\":\"LineString\",\"coordinates\":[[-6.556403,53.3619917],[-6.5562335,53.3618802],[-6.5553135,53.3612974],[-6.5552201,53.3612343],[-6.5550579,53.3611248],[-6.5539206,53.3604084],[-6.5532712,53.3600057],[-6.5525872,53.3596137],[-6.5523001,53.3594681],[-6.551093,53.3588338],[-6.5509191,53.3587396],[-6.5503949,53.3584641],[-6.5493834,53.3579725],[-6.5489853,53.3577491],[-6.5488673,53.357663]]}";6;Maynooth Road;2;50;false;false;true;false;false;false;702.0;1;1;0;0;0;false;"";506834806;-6.5375427;53.3410325;"";432487184;-6.5677704;53.3670151;0;7;8;7619377;Dublin Bus route 67;"";Dublin Bus;67;Merrion Square;Maynooth
325783347;"{\"type\":\"LineString\",\"coordinates\":[[-6.5571191,53.3624544],[-6.556637,53.3621457],[-6.556403,53.3619917]]}";7;"";1;50;false;false;true;false;false;false;71.0;0;0;0;0;0;false;"";506834806;-6.5375427;53.3410325;"";432487184;-6.5677704;53.3670151;0;7;8;7619377;Dublin Bus route 67;"";Dublin Bus;67;Merrion Square;Maynooth
4247181;"{\"type\":\"LineString\",\"coordinates\":[[-6.566097,53.3644787],[-6.5660195,53.3644748],[-6.5658932,53.364464],[-6.5657772,53.3644502],[-6.5653828,53.3643948],[-6.5645143,53.3642622],[-6.5632278,53.3640724],[-6.5614201,53.3637955],[-6.5606053,53.3636683],[-6.560127,53.3635857],[-6.5596421,53.3634834],[-6.5591754,53.3633573],[-6.5587926,53.3632354],[-6.5583515,53.3630679],[-6.5578848,53.3628612],[-6.557502,53.3626697],[-6.5571191,53.3624544]]}";8;"";1;50;false;false;true;false;false;false;653.0;0;0;1;0;0;false;"";506834806;-6.5375427;53.3410325;"";432487184;-6.5677704;53.3670151;0;7;8;7619377;Dublin Bus route 67;"";Dublin Bus;67;Merrion Square;Maynooth
25646706;"{\"type\":\"LineString\",\"coordinates\":[[-6.5660752,53.364763],[-6.566097,53.3644787]]}";9;"";1;50;false;false;true;false;false;false;32.0;0;0;0;0;0;false;"";506834806;-6.5375427;53.3410325;"";432487184;-6.5677704;53.3670151;0;7;8;7619377;Dublin Bus route 67;"";Dublin Bus;67;Merrion Square;Maynooth
25646705;"{\"type\":\"LineString\",\"coordinates\":[[-6.5660478,53.3654173],[-6.5660752,53.364763]]}";10;"";1;50;false;false;true;false;false;false;74.0;0;0;0;0;0;false;"";506834806;-6.5375427;53.3410325;"";432487184;-6.5677704;53.3670151;0;7;8;7619377;Dublin Bus route 67;"";Dublin Bus;67;Merrion Square;Maynooth
109879917;"{\"type\":\"LineString\",\"coordinates\":[[-6.5660401,53.3669476],[-6.5659969,53.3668888],[-6.5659906,53.366834],[-6.5660478,53.3654173]]}";11;"";2;50;false;false;true;false;false;false;173.0;0;0;0;0;0;false;"";506834806;-6.5375427;53.3410325;"";432487184;-6.5677704;53.3670151;0;7;8;7619377;Dublin Bus route 67;"";Dublin Bus;67;Merrion Square;Maynooth
325783336;"{\"type\":\"LineString\",\"coordinates\":[[-6.5761371,53.3685641],[-6.5717547,53.3673368],[-6.5712448,53.3672064],[-6.571138,53.3671861],[-6.5708722,53.3671491],[-6.5698145,53.3671175],[-6.5687051,53.3670812],[-6.5675472,53.3670408],[-6.5670375,53.3670231],[-6.5661828,53.3669932],[-6.5661021,53.3669776],[-6.5660401,53.3669476]]}";12;Celbridge Road;2;50;false;false;true;false;false;false;356.5;0;0;0;0;0;false;"";506834806;-6.5375427;53.3410325;"";432487184;-6.5677704;53.3670151;1;7;8;7619377;Dublin Bus route 67;"";Dublin Bus;67;Merrion Square;Maynooth
325783336;"{\"type\":\"LineString\",\"coordinates\":[[-6.5761371,53.3685641],[-6.5717547,53.3673368],[-6.5712448,53.3672064],[-6.571138,53.3671861],[-6.5708722,53.3671491],[-6.5698145,53.3671175],[-6.5687051,53.3670812],[-6.5675472,53.3670408],[-6.5670375,53.3670231],[-6.5661828,53.3669932],[-6.5661021,53.3669776],[-6.5660401,53.3669476]]}";1;Celbridge Road;2;50;false;false;true;false;false;false;356.5;0;0;0;0;0;false;"";432487184;-6.5677704;53.3670151;"";432487185;-6.5797216;53.3695256;1;8;9;7619377;Dublin Bus route 67;"";Dublin Bus;67;Merrion Square;Maynooth
325783337;"{\"type\":\"LineString\",\"coordinates\":[[-6.577924,53.3690597],[-6.5775933,53.3689678],[-6.577226,53.368866],[-6.5761371,53.3685641]]}";2;Celbridge Road;2;50;false;false;true;false;false;false;132.0;0;0;0;0;0;false;"";432487184;-6.5677704;53.3670151;"";432487185;-6.5797216;53.3695256;0;8;9;7619377;Dublin Bus route 67;"";Dublin Bus;67;Merrion Square;Maynooth
326163023;"{\"type\":\"LineString\",\"coordinates\":[[-6.5825141,53.3709938],[-6.5821306,53.3707084],[-6.582006,53.3706156],[-6.5819258,53.3705531],[-6.5818816,53.3705187],[-6.5817517,53.3704175],[-6.5813835,53.37017],[-6.5813299,53.3701393],[-6.5812836,53.3701124],[-6.5811864,53.3700558],[-6.5811012,53.3700086],[-6.5809404,53.3699308],[-6.580801,53.3698762],[-6.5807245,53.3698462],[-6.580514,53.369783],[-6.5802811,53.3697131],[-6.579905,53.3696128],[-6.5797868,53.3695807],[-6.5796334,53.3695373],[-6.5794224,53.3694759],[-6.577924,53.3690597]]}";3;Celbridge Road;2;50;false;false;true;false;false;false;192.5;0;1;0;0;0;false;"";432487184;-6.5677704;53.3670151;"";432487185;-6.5797216;53.3695256;1;8;9;7619377;Dublin Bus route 67;"";Dublin Bus;67;Merrion Square;Maynooth
326163023;"{\"type\":\"LineString\",\"coordinates\":[[-6.5825141,53.3709938],[-6.5821306,53.3707084],[-6.582006,53.3706156],[-6.5819258,53.3705531],[-6.5818816,53.3705187],[-6.5817517,53.3704175],[-6.5813835,53.37017],[-6.5813299,53.3701393],[-6.5812836,53.3701124],[-6.5811864,53.3700558],[-6.5811012,53.3700086],[-6.5809404,53.3699308],[-6.580801,53.3698762],[-6.5807245,53.3698462],[-6.580514,53.369783],[-6.5802811,53.3697131],[-6.579905,53.3696128],[-6.5797868,53.3695807],[-6.5796334,53.3695373],[-6.5794224,53.3694759],[-6.577924,53.3690597]]}";1;Celbridge Road;2;50;false;false;true;false;false;false;192.5;0;1;0;0;0;false;"";432487185;-6.5797216;53.3695256;"";495559066;-6.5845901;53.3724868;1;9;10;7619377;Dublin Bus route 67;"";Dublin Bus;67;Merrion Square;Maynooth
325827352;"{\"type\":\"LineString\",\"coordinates\":[[-6.58755,53.3749134],[-6.5865285,53.3741279],[-6.5863801,53.3740137],[-6.5852322,53.3731346],[-6.5851084,53.3730328],[-6.5847892,53.37277],[-6.5843669,53.3724551],[-6.5839978,53.3721522],[-6.5836898,53.3719117],[-6.5825141,53.3709938]]}";2;Celbridge Road;2;50;false;false;true;false;false;false;277.0;0;1;0;0;0;false;"";432487185;-6.5797216;53.3695256;"";495559066;-6.5845901;53.3724868;1;9;10;7619377;Dublin Bus route 67;"";Dublin Bus;67;Merrion Square;Maynooth
325827352;"{\"type\":\"LineString\",\"coordinates\":[[-6.58755,53.3749134],[-6.5865285,53.3741279],[-6.5863801,53.3740137],[-6.5852322,53.3731346],[-6.5851084,53.3730328],[-6.5847892,53.37277],[-6.5843669,53.3724551],[-6.5839978,53.3721522],[-6.5836898,53.3719117],[-6.5825141,53.3709938]]}";1;Celbridge Road;2;50;false;false;true;false;false;false;277.0;0;1;0;0;0;false;"";354885760;-6.5863923;53.373939;"";354885759;-6.5875741;53.3764774;1;11;12;7619377;Dublin Bus route 67;"";Dublin Bus;67;Merrion Square;Maynooth
48508577;"{\"type\":\"LineString\",\"coordinates\":[[-6.5876953,53.3749932],[-6.58755,53.3749134]]}";2;Celbridge Road;2;50;false;false;true;false;false;false;14.0;0;0;0;0;0;false;"";354885760;-6.5863923;53.373939;"";354885759;-6.5875741;53.3764774;0;11;12;7619377;Dublin Bus route 67;"";Dublin Bus;67;Merrion Square;Maynooth
3818285;"{\"type\":\"LineString\",\"coordinates\":[[-6.5878945,53.3750547],[-6.5877895,53.3750287],[-6.5876953,53.3749932]]}";3;Celbridge Road;2;50;false;false;true;false;false;false;16.0;0;1;0;0;0;false;"";354885760;-6.5863923;53.373939;"";354885759;-6.5875741;53.3764774;0;11;12;7619377;Dublin Bus route 67;"";Dublin Bus;67;Merrion Square;Maynooth
32199067;"{\"type\":\"LineString\",\"coordinates\":[[-6.5878945,53.3750547],[-6.588021,53.3750752]]}";4;Celbridge Road;2;50;false;false;true;false;false;false;9.0;1;1;0;0;0;false;"";354885760;-6.5863923;53.373939;"";354885759;-6.5875741;53.3764774;0;11;12;7619377;Dublin Bus route 67;"";Dublin Bus;67;Merrion Square;Maynooth
48508576;"{\"type\":\"LineString\",\"coordinates\":[[-6.587805,53.3754518],[-6.5879036,53.3752799],[-6.588021,53.3750752]]}";5;Straffan Road;2;50;false;false;true;false;false;false;45.0;1;1;0;0;0;false;"";354885760;-6.5863923;53.373939;"";354885759;-6.5875741;53.3764774;0;11;12;7619377;Dublin Bus route 67;"";Dublin Bus;67;Merrion Square;Maynooth
325827356;"{\"type\":\"LineString\",\"coordinates\":[[-6.5877397,53.3755949],[-6.587805,53.3754518]]}";6;Straffan Road;2;50;false;false;true;false;false;false;17.0;0;0;0;0;0;false;"";354885760;-6.5863923;53.373939;"";354885759;-6.5875741;53.3764774;0;11;12;7619377;Dublin Bus route 67;"";Dublin Bus;67;Merrion Square;Maynooth
4570380;"{\"type\":\"LineString\",\"coordinates\":[[-6.5878254,53.3784196],[-6.5877802,53.3783257],[-6.5877183,53.3781759],[-6.5876627,53.3780381],[-6.5875717,53.3778071],[-6.587567,53.3777655],[-6.587515,53.3774795],[-6.5874815,53.3771234],[-6.5874503,53.3769206],[-6.5874512,53.3766577],[-6.5875545,53.3761156],[-6.5875967,53.375978],[-6.5876866,53.3757089],[-6.5877397,53.3755949]]}";7;Straffan Road;2;50;false;false;true;false;false;false;160.5;0;1;0;0;0;false;"";354885760;-6.5863923;53.373939;"";354885759;-6.5875741;53.3764774;1;11;12;7619377;Dublin Bus route 67;"";Dublin Bus;67;Merrion Square;Maynooth
4570380;"{\"type\":\"LineString\",\"coordinates\":[[-6.5878254,53.3784196],[-6.5877802,53.3783257],[-6.5877183,53.3781759],[-6.5876627,53.3780381],[-6.5875717,53.3778071],[-6.587567,53.3777655],[-6.587515,53.3774795],[-6.5874815,53.3771234],[-6.5874503,53.3769206],[-6.5874512,53.3766577],[-6.5875545,53.3761156],[-6.5875967,53.375978],[-6.5876866,53.3757089],[-6.5877397,53.3755949]]}";1;Straffan Road;2;50;false;false;true;false;false;false;160.5;0;1;0;0;0;false;"";354885759;-6.5875741;53.3764774;"";334189659;-6.5888585;53.3794942;1;12;13;7619377;Dublin Bus route 67;"";Dublin Bus;67;Merrion Square;Maynooth
325827353;"{\"type\":\"LineString\",\"coordinates\":[[-6.5879901,53.3787104],[-6.5879568,53.3786543],[-6.5878254,53.3784196]]}";2;Mullen Bridge;1;50;false;false;true;false;false;false;35.0;0;0;0;0;0;false;"";354885759;-6.5875741;53.3764774;"";334189659;-6.5888585;53.3794942;0;12;13;7619377;Dublin Bus route 67;"";Dublin Bus;67;Merrion Square;Maynooth
4942598;"{\"type\":\"LineString\",\"coordinates\":[[-6.5881589,53.3789931],[-6.5880956,53.3788837],[-6.5879901,53.3787104]]}";3;Mullen Bridge;1;50;false;false;true;false;false;false;34.0;0;1;0;0;0;false;"";354885759;-6.5875741;53.3764774;"";334189659;-6.5888585;53.3794942;0;12;13;7619377;Dublin Bus route 67;"";Dublin Bus;67;Merrion Square;Maynooth
38624989;"{\"type\":\"LineString\",\"coordinates\":[[-6.5885784,53.3794894],[-6.5884517,53.3793606],[-6.5883068,53.3791782],[-6.5881589,53.3789931]]}";4;Straffan Road;1;50;false;false;true;false;false;false;63.0;0;0;0;0;0;false;"";354885759;-6.5875741;53.3764774;"";334189659;-6.5888585;53.3794942;0;12;13;7619377;Dublin Bus route 67;"";Dublin Bus;67;Merrion Square;Maynooth
30312498;"{\"type\":\"LineString\",\"coordinates\":[[-6.5885784,53.3794894],[-6.5887169,53.3795148],[-6.588791,53.379525],[-6.5888399,53.3795333]]}";5;"";1;50;false;true;true;false;false;false;19.0;0;0;0;0;0;false;"";354885759;-6.5875741;53.3764774;"";334189659;-6.5888585;53.3794942;1;12;13;7619377;Dublin Bus route 67;"";Dublin Bus;67;Merrion Square;Maynooth
