way_id;shape;index;name;nb_lanes;legal_speed;speed_zone_30;oneway;shares_bike;bike_box;bus_lane;dedicated_bus_lane;length;nb_traffic_signals;nb_crossings;nb_stops;nb_give_ways;nb_lvl_crossings;roundabout;stop_id_orig;node_id_orig;coord_x_orig;coord_y_orig;stop_id_dest;node_id_dest;coord_x_dest;coord_y_dest;nb_neighbouring_ways_bus_stop;ordre_orig;ordre_dest;id_line;line_name;colour;operator;ref;from;to
694211672;"{\"type\":\"LineString\",\"coordinates\":[[-73.6462538,45.6183196],[-73.6463702,45.6182568]]}";1;"";1;50;false;false;true;false;false;false;12.0;0;0;0;0;0;false;"49050;42796;49058";6269507666;-73.6463;45.618363;42797;6269507677;-73.64432;45.616269;1;0;1;9312760;Bus : 50 O - Direction Terminus Le Carrefour;"";STL;50O;Montée Saint-François / Face Au Pénitencier;Terminus Le Carrefour
32644971;"{\"type\":\"LineString\",\"coordinates\":[[-73.6441136,45.6162229],[-73.6442387,45.6163356],[-73.6458794,45.6178144],[-73.6463702,45.6182568],[-73.6469178,45.6187503],[-73.6478665,45.6196053],[-73.6485997,45.6202661],[-73.6489564,45.6205876],[-73.6505457,45.6220199]]}";2;Montée Saint-François;2;70;false;false;true;false;false;false;816.0;0;0;1;0;0;false;"49050;42796;49058";6269507666;-73.6463;45.618363;42797;6269507677;-73.64432;45.616269;2;0;1;9312760;Bus : 50 O - Direction Terminus Le Carrefour;"";STL;50O;Montée Saint-François / Face Au Pénitencier;Terminus Le Carrefour
365007194;"{\"type\":\"LineString\",\"coordinates\":[[-73.6441136,45.6162229],[-73.6441432,45.616182],[-73.6444507,45.6157568]]}";1;Boulevard Lévesque Est;2;50;false;false;false;false;false;false;59.0;0;0;0;0;0;false;42797;6269507677;-73.64432;45.616269;41616;6269507702;-73.64608;45.615196;2;1;2;9312760;Bus : 50 O - Direction Terminus Le Carrefour;"";STL;50O;Montée Saint-François / Face Au Pénitencier;Terminus Le Carrefour
365007259;"{\"type\":\"LineString\",\"coordinates\":[[-73.6444507,45.6157568],[-73.64482,45.6152536],[-73.6448884,45.6151681]]}";2;Boulevard Lévesque Est;3;50;false;false;false;false;false;false;74.0;1;1;0;0;0;false;42797;6269507677;-73.64432;45.616269;41616;6269507702;-73.64608;45.615196;0;1;2;9312760;Bus : 50 O - Direction Terminus Le Carrefour;"";STL;50O;Montée Saint-François / Face Au Pénitencier;Terminus Le Carrefour
365007260;"{\"type\":\"LineString\",\"coordinates\":[[-73.6459034,45.6152479],[-73.6457348,45.6152765],[-73.6455556,45.6153068],[-73.6453509,45.6152864],[-73.6450235,45.6152149],[-73.6448884,45.6151681]]}";3;Place J.-Eudes-Blanchard;2;50;false;false;true;false;false;false;83.0;1;1;0;0;0;false;42797;6269507677;-73.64432;45.616269;41616;6269507702;-73.64608;45.615196;0;1;2;9312760;Bus : 50 O - Direction Terminus Le Carrefour;"";STL;50O;Montée Saint-François / Face Au Pénitencier;Terminus Le Carrefour
678347084;"{\"type\":\"LineString\",\"coordinates\":[[-73.6522117,45.6118148],[-73.6514889,45.6122081],[-73.6507193,45.612627],[-73.6500881,45.6129705],[-73.6491648,45.613473],[-73.6469951,45.6146538],[-73.6463894,45.6149834],[-73.6459034,45.6152479]]}";4;Rue de la Fabrique;2;50;false;false;true;false;false;false;623.0;0;0;0;0;0;false;42797;6269507677;-73.64432;45.616269;41616;6269507702;-73.64608;45.615196;2;1;2;9312760;Bus : 50 O - Direction Terminus Le Carrefour;"";STL;50O;Montée Saint-François / Face Au Pénitencier;Terminus Le Carrefour
365007260;"{\"type\":\"LineString\",\"coordinates\":[[-73.6459034,45.6152479],[-73.6457348,45.6152765],[-73.6455556,45.6153068],[-73.6453509,45.6152864],[-73.6450235,45.6152149],[-73.6448884,45.6151681]]}";1;Place J.-Eudes-Blanchard;2;50;false;false;true;false;false;false;83.0;1;1;0;0;0;false;41616;6269507702;-73.64608;45.615196;41611;6269507719;-73.64759;45.614375;2;2;3;9312760;Bus : 50 O - Direction Terminus Le Carrefour;"";STL;50O;Montée Saint-François / Face Au Pénitencier;Terminus Le Carrefour
678347084;"{\"type\":\"LineString\",\"coordinates\":[[-73.6522117,45.6118148],[-73.6514889,45.6122081],[-73.6507193,45.612627],[-73.6500881,45.6129705],[-73.6491648,45.613473],[-73.6469951,45.6146538],[-73.6463894,45.6149834],[-73.6459034,45.6152479]]}";2;Rue de la Fabrique;2;50;false;false;true;false;false;false;623.0;0;0;0;0;0;false;41616;6269507702;-73.64608;45.615196;41611;6269507719;-73.64759;45.614375;2;2;3;9312760;Bus : 50 O - Direction Terminus Le Carrefour;"";STL;50O;Montée Saint-François / Face Au Pénitencier;Terminus Le Carrefour
678347085;"{\"type\":\"LineString\",\"coordinates\":[[-73.6522117,45.6118148],[-73.6527586,45.6123136],[-73.6532859,45.6127879],[-73.653851,45.6132896],[-73.6559591,45.6152407]]}";1;Avenue Belleville;2;50;false;false;true;false;false;false;240.0;0;0;0;0;0;false;41102;6269507495;-73.65377;45.613359;41281;6269507704;-73.65637;45.615236;1;6;7;9312760;Bus : 50 O - Direction Terminus Le Carrefour;"";STL;50O;Montée Saint-François / Face Au Pénitencier;Terminus Le Carrefour
45797910;"{\"type\":\"LineString\",\"coordinates\":[[-73.6593899,45.6137913],[-73.6591691,45.6140183],[-73.659065,45.61408],[-73.6586523,45.6142421],[-73.6585912,45.6142672],[-73.657744,45.6146136],[-73.6569672,45.6149195],[-73.6568377,45.614972],[-73.656229,45.6152168],[-73.6560869,45.6152602],[-73.6559591,45.6152407]]}";2;Place Chénier;2;50;false;false;true;false;false;false;159.0;0;0;0;0;0;false;41102;6269507495;-73.65377;45.613359;41281;6269507704;-73.65637;45.615236;1;6;7;9312760;Bus : 50 O - Direction Terminus Le Carrefour;"";STL;50O;Montée Saint-François / Face Au Pénitencier;Terminus Le Carrefour
45797910;"{\"type\":\"LineString\",\"coordinates\":[[-73.6593899,45.6137913],[-73.6591691,45.6140183],[-73.659065,45.61408],[-73.6586523,45.6142421],[-73.6585912,45.6142672],[-73.657744,45.6146136],[-73.6569672,45.6149195],[-73.6568377,45.614972],[-73.656229,45.6152168],[-73.6560869,45.6152602],[-73.6559591,45.6152407]]}";1;Place Chénier;2;50;false;false;true;false;false;false;159.0;0;0;0;0;0;false;41281;6269507704;-73.65637;45.615236;41279;6269507727;-73.65988;45.614005;1;7;8;9312760;Bus : 50 O - Direction Terminus Le Carrefour;"";STL;50O;Montée Saint-François / Face Au Pénitencier;Terminus Le Carrefour
231947993;"{\"type\":\"LineString\",\"coordinates\":[[-73.6593899,45.6137913],[-73.6595193,45.6138514],[-73.6595352,45.6138574],[-73.6597423,45.613912],[-73.6598942,45.6139362],[-73.6599648,45.6139387],[-73.6601072,45.6139393],[-73.6602872,45.6139234],[-73.6604549,45.6138803],[-73.6608434,45.6137229],[-73.6612762,45.613559],[-73.6618921,45.6133121],[-73.6621293,45.6132221]]}";2;Boulevard Vanier;2;50;false;true;false;false;false;false;119.0;0;0;0;0;0;false;41281;6269507704;-73.65637;45.615236;41279;6269507727;-73.65988;45.614005;1;7;8;9312760;Bus : 50 O - Direction Terminus Le Carrefour;"";STL;50O;Montée Saint-François / Face Au Pénitencier;Terminus Le Carrefour
231947993;"{\"type\":\"LineString\",\"coordinates\":[[-73.6593899,45.6137913],[-73.6595193,45.6138514],[-73.6595352,45.6138574],[-73.6597423,45.613912],[-73.6598942,45.6139362],[-73.6599648,45.6139387],[-73.6601072,45.6139393],[-73.6602872,45.6139234],[-73.6604549,45.6138803],[-73.6608434,45.6137229],[-73.6612762,45.613559],[-73.6618921,45.6133121],[-73.6621293,45.6132221]]}";1;Boulevard Vanier;2;50;false;true;false;false;false;false;119.0;0;0;0;0;0;false;42880;6269507493;-73.66151;45.613531;42877;6269507764;-73.66395;45.612562;1;9;10;9312760;Bus : 50 O - Direction Terminus Le Carrefour;"";STL;50O;Montée Saint-François / Face Au Pénitencier;Terminus Le Carrefour
46773609;"{\"type\":\"LineString\",\"coordinates\":[[-73.6621293,45.6132221],[-73.6622607,45.6131726]]}";2;Boulevard Saint-Martin Est;2;60;false;true;false;false;false;false;12.0;0;0;0;0;0;false;42880;6269507493;-73.66151;45.613531;42877;6269507764;-73.66395;45.612562;0;9;10;9312760;Bus : 50 O - Direction Terminus Le Carrefour;"";STL;50O;Montée Saint-François / Face Au Pénitencier;Terminus Le Carrefour
617671347;"{\"type\":\"LineString\",\"coordinates\":[[-73.6622607,45.6131726],[-73.6632675,45.6127804],[-73.663397,45.6127279],[-73.6641512,45.6124366]]}";3;Boulevard Saint-Martin Est;2;60;false;true;false;false;false;false;84.5;0;0;0;0;0;false;42880;6269507493;-73.66151;45.613531;42877;6269507764;-73.66395;45.612562;1;9;10;9312760;Bus : 50 O - Direction Terminus Le Carrefour;"";STL;50O;Montée Saint-François / Face Au Pénitencier;Terminus Le Carrefour
617671347;"{\"type\":\"LineString\",\"coordinates\":[[-73.6622607,45.6131726],[-73.6632675,45.6127804],[-73.663397,45.6127279],[-73.6641512,45.6124366]]}";1;Boulevard Saint-Martin Est;2;60;false;true;false;false;false;false;84.5;0;0;0;0;0;false;42877;6269507764;-73.66395;45.612562;46114;6269507785;-73.66764;45.611072;1;10;11;9312760;Bus : 50 O - Direction Terminus Le Carrefour;"";STL;50O;Montée Saint-François / Face Au Pénitencier;Terminus Le Carrefour
666495975;"{\"type\":\"LineString\",\"coordinates\":[[-73.6641512,45.6124366],[-73.6642754,45.6123886]]}";2;Boulevard Saint-Martin Est;2;60;false;true;false;false;false;false;12.0;0;0;0;0;0;false;42877;6269507764;-73.66395;45.612562;46114;6269507785;-73.66764;45.611072;0;10;11;9312760;Bus : 50 O - Direction Terminus Le Carrefour;"";STL;50O;Montée Saint-François / Face Au Pénitencier;Terminus Le Carrefour
666495976;"{\"type\":\"LineString\",\"coordinates\":[[-73.6642754,45.6123886],[-73.6653224,45.6119841]]}";3;Boulevard Saint-Martin Est;2;60;false;true;false;false;false;false;94.0;0;0;0;0;0;false;42877;6269507764;-73.66395;45.612562;46114;6269507785;-73.66764;45.611072;0;10;11;9312760;Bus : 50 O - Direction Terminus Le Carrefour;"";STL;50O;Montée Saint-François / Face Au Pénitencier;Terminus Le Carrefour
45801417;"{\"type\":\"LineString\",\"coordinates\":[[-73.6653224,45.6119841],[-73.6659908,45.6117104]]}";4;Boulevard Saint-Martin Est;2;60;false;true;false;false;false;false;61.0;0;0;0;0;0;false;42877;6269507764;-73.66395;45.612562;46114;6269507785;-73.66764;45.611072;0;10;11;9312760;Bus : 50 O - Direction Terminus Le Carrefour;"";STL;50O;Montée Saint-François / Face Au Pénitencier;Terminus Le Carrefour
22894346;"{\"type\":\"LineString\",\"coordinates\":[[-73.6659908,45.6117104],[-73.6672038,45.611198]]}";5;Boulevard Saint-Martin Est;3;50;false;true;false;false;false;false;111.0;0;0;0;0;0;false;42877;6269507764;-73.66395;45.612562;46114;6269507785;-73.66764;45.611072;0;10;11;9312760;Bus : 50 O - Direction Terminus Le Carrefour;"";STL;50O;Montée Saint-François / Face Au Pénitencier;Terminus Le Carrefour
762938424;"{\"type\":\"LineString\",\"coordinates\":[[-73.6672038,45.611198],[-73.6677364,45.610973]]}";6;Boulevard Saint-Martin Est;3;50;false;true;false;false;false;false;24.5;0;0;0;0;0;false;42877;6269507764;-73.66395;45.612562;46114;6269507785;-73.66764;45.611072;1;10;11;9312760;Bus : 50 O - Direction Terminus Le Carrefour;"";STL;50O;Montée Saint-François / Face Au Pénitencier;Terminus Le Carrefour
100323016;"{\"type\":\"LineString\",\"coordinates\":[[-73.6870507,45.5971417],[-73.6870651,45.5971308],[-73.6877155,45.5967062],[-73.6879711,45.5965426],[-73.688002,45.5965228]]}";1;Boulevard Saint-Martin Est;3;60;false;true;true;false;false;false;102.0;0;0;0;0;0;false;42868;6269508347;-73.68698;45.597311;45032;6269508593;-73.69183;45.593901;2;17;18;9312760;Bus : 50 O - Direction Terminus Le Carrefour;"";STL;50O;Montée Saint-François / Face Au Pénitencier;Terminus Le Carrefour
185497333;"{\"type\":\"LineString\",\"coordinates\":[[-73.688002,45.5965228],[-73.6886292,45.596066]]}";2;Boulevard Saint-Martin Est;3;50;false;true;true;false;false;false;71.0;0;0;0;0;0;false;42868;6269508347;-73.68698;45.597311;45032;6269508593;-73.69183;45.593901;0;17;18;9312760;Bus : 50 O - Direction Terminus Le Carrefour;"";STL;50O;Montée Saint-François / Face Au Pénitencier;Terminus Le Carrefour
185497336;"{\"type\":\"LineString\",\"coordinates\":[[-73.6886292,45.596066],[-73.6899506,45.5951359],[-73.6909097,45.5944388]]}";3;Boulevard Saint-Martin Est;3;60;false;true;true;false;false;false;254.0;0;0;0;0;0;false;42868;6269508347;-73.68698;45.597311;45032;6269508593;-73.69183;45.593901;0;17;18;9312760;Bus : 50 O - Direction Terminus Le Carrefour;"";STL;50O;Montée Saint-François / Face Au Pénitencier;Terminus Le Carrefour
574713418;"{\"type\":\"LineString\",\"coordinates\":[[-73.6909097,45.5944388],[-73.6919695,45.5936998]]}";4;Boulevard Saint-Martin Est;3;60;false;true;true;false;false;false;117.0;1;0;0;0;0;false;42868;6269508347;-73.68698;45.597311;45032;6269508593;-73.69183;45.593901;2;17;18;9312760;Bus : 50 O - Direction Terminus Le Carrefour;"";STL;50O;Montée Saint-François / Face Au Pénitencier;Terminus Le Carrefour
574713418;"{\"type\":\"LineString\",\"coordinates\":[[-73.6909097,45.5944388],[-73.6919695,45.5936998]]}";1;Boulevard Saint-Martin Est;3;60;false;true;true;false;false;false;58.5;1;0;0;0;0;false;45032;6269508593;-73.69183;45.593901;42866;6269508659;-73.69591;45.591042;1;18;19;9312760;Bus : 50 O - Direction Terminus Le Carrefour;"";STL;50O;Montée Saint-François / Face Au Pénitencier;Terminus Le Carrefour
454894076;"{\"type\":\"LineString\",\"coordinates\":[[-73.6919695,45.5936998],[-73.6925181,45.5933593]]}";2;Boulevard Saint-Martin Est;3;60;false;true;true;false;false;false;58.0;1;0;0;0;0;false;45032;6269508593;-73.69183;45.593901;42866;6269508659;-73.69591;45.591042;0;18;19;9312760;Bus : 50 O - Direction Terminus Le Carrefour;"";STL;50O;Montée Saint-François / Face Au Pénitencier;Terminus Le Carrefour
574713694;"{\"type\":\"LineString\",\"coordinates\":[[-73.6925181,45.5933593],[-73.693178,45.5928644]]}";3;Boulevard Saint-Martin Est;3;60;false;true;true;false;false;false;76.0;0;0;0;0;0;false;45032;6269508593;-73.69183;45.593901;42866;6269508659;-73.69591;45.591042;0;18;19;9312760;Bus : 50 O - Direction Terminus Le Carrefour;"";STL;50O;Montée Saint-François / Face Au Pénitencier;Terminus Le Carrefour
454894077;"{\"type\":\"LineString\",\"coordinates\":[[-73.693178,45.5928644],[-73.6935267,45.5926028],[-73.6952452,45.5914369]]}";4;Boulevard Saint-Martin Est;3;60;false;true;true;false;false;false;227.0;1;0;0;0;0;false;45032;6269508593;-73.69183;45.593901;42866;6269508659;-73.69591;45.591042;0;18;19;9312760;Bus : 50 O - Direction Terminus Le Carrefour;"";STL;50O;Montée Saint-François / Face Au Pénitencier;Terminus Le Carrefour
23292203;"{\"type\":\"LineString\",\"coordinates\":[[-73.6952452,45.5914369],[-73.696424,45.590546],[-73.6965722,45.5904185],[-73.6971343,45.5899858],[-73.697216,45.5899214],[-73.6976955,45.5895039],[-73.6979078,45.5893191],[-73.6986875,45.5885016],[-73.6998006,45.5872528],[-73.7003657,45.5865484],[-73.700917,45.5858613],[-73.7011872,45.5855246],[-73.7019417,45.5845841],[-73.7020254,45.5844905],[-73.7024402,45.5840267],[-73.7025564,45.5838967],[-73.7030216,45.583438],[-73.7038135,45.5828609],[-73.704704,45.5823594]]}";5;Boulevard Saint-Martin Est;3;60;false;true;true;false;false;false;629.0;1;0;0;0;0;false;45032;6269508593;-73.69183;45.593901;42866;6269508659;-73.69591;45.591042;1;18;19;9312760;Bus : 50 O - Direction Terminus Le Carrefour;"";STL;50O;Montée Saint-François / Face Au Pénitencier;Terminus Le Carrefour
436680803;"{\"type\":\"LineString\",\"coordinates\":[[-73.704704,45.5823594],[-73.7049403,45.5822263]]}";1;Boulevard Saint-Martin Est;3;60;false;true;true;false;false;false;24.0;0;0;0;0;0;false;42859;6269508853;-73.70467;45.582442;42855;6269508895;-73.70677;45.58135;2;22;23;9312760;Bus : 50 O - Direction Terminus Le Carrefour;"";STL;50O;Montée Saint-François / Face Au Pénitencier;Terminus Le Carrefour
452204244;"{\"type\":\"LineString\",\"coordinates\":[[-73.7049403,45.5822263],[-73.7053864,45.5819745]]}";2;Boulevard Saint-Martin Est;3;60;false;true;true;false;false;false;45.0;0;0;0;0;0;false;42859;6269508853;-73.70467;45.582442;42855;6269508895;-73.70677;45.58135;0;22;23;9312760;Bus : 50 O - Direction Terminus Le Carrefour;"";STL;50O;Montée Saint-François / Face Au Pénitencier;Terminus Le Carrefour
436680545;"{\"type\":\"LineString\",\"coordinates\":[[-73.7053864,45.5819745],[-73.7056531,45.5818527]]}";3;Boulevard Saint-Martin Est;3;60;false;true;true;false;false;false;25.0;0;0;0;0;0;false;42859;6269508853;-73.70467;45.582442;42855;6269508895;-73.70677;45.58135;0;22;23;9312760;Bus : 50 O - Direction Terminus Le Carrefour;"";STL;50O;Montée Saint-François / Face Au Pénitencier;Terminus Le Carrefour
452204243;"{\"type\":\"LineString\",\"coordinates\":[[-73.7056531,45.5818527],[-73.7061122,45.5816159]]}";4;Boulevard Saint-Martin Ouest;3;60;false;true;false;false;false;false;45.0;0;0;0;0;0;false;42859;6269508853;-73.70467;45.582442;42855;6269508895;-73.70677;45.58135;0;22;23;9312760;Bus : 50 O - Direction Terminus Le Carrefour;"";STL;50O;Montée Saint-François / Face Au Pénitencier;Terminus Le Carrefour
37722260;"{\"type\":\"LineString\",\"coordinates\":[[-73.7061122,45.5816159],[-73.7072242,45.5810195],[-73.7074561,45.5809022],[-73.7078829,45.5806161],[-73.7082754,45.5803428],[-73.7089114,45.5798177],[-73.7105724,45.578313],[-73.7115212,45.5774628],[-73.7122636,45.5769466],[-73.7135566,45.575993],[-73.7143274,45.5753744],[-73.7146601,45.5751514],[-73.7154396,45.574629],[-73.7160986,45.574203],[-73.717021,45.5736777],[-73.7180504,45.5731185],[-73.7188649,45.5727628],[-73.7191535,45.5726367],[-73.7199208,45.5723147],[-73.7204022,45.5721202],[-73.7208176,45.5719244]]}";5;Boulevard Saint-Martin Ouest;3;60;false;true;false;false;false;false;1585.0;0;0;0;0;0;false;42859;6269508853;-73.70467;45.582442;42855;6269508895;-73.70677;45.58135;2;22;23;9312760;Bus : 50 O - Direction Terminus Le Carrefour;"";STL;50O;Montée Saint-François / Face Au Pénitencier;Terminus Le Carrefour
452095401;"{\"type\":\"LineString\",\"coordinates\":[[-73.7208176,45.5719244],[-73.7211776,45.5717275]]}";1;Boulevard Saint-Martin Ouest;3;60;false;true;false;false;false;false;36.0;1;0;0;0;0;false;42843;6269509488;-73.72075;45.572019;42840;6269509505;-73.72272;45.570918;2;28;29;9312760;Bus : 50 O - Direction Terminus Le Carrefour;"";STL;50O;Montée Saint-François / Face Au Pénitencier;Terminus Le Carrefour
452095398;"{\"type\":\"LineString\",\"coordinates\":[[-73.7211776,45.5717275],[-73.7213415,45.5716383]]}";2;Boulevard Saint-Martin Ouest;3;60;false;true;false;false;false;false;17.0;2;0;0;0;0;false;42843;6269509488;-73.72075;45.572019;42840;6269509505;-73.72272;45.570918;0;28;29;9312760;Bus : 50 O - Direction Terminus Le Carrefour;"";STL;50O;Montée Saint-François / Face Au Pénitencier;Terminus Le Carrefour
452095387;"{\"type\":\"LineString\",\"coordinates\":[[-73.7213415,45.5716383],[-73.7216134,45.5714875]]}";3;Boulevard Saint-Martin Ouest;3;60;false;true;false;false;false;false;28.0;1;0;0;0;0;false;42843;6269509488;-73.72075;45.572019;42840;6269509505;-73.72272;45.570918;0;28;29;9312760;Bus : 50 O - Direction Terminus Le Carrefour;"";STL;50O;Montée Saint-François / Face Au Pénitencier;Terminus Le Carrefour
682368060;"{\"type\":\"LineString\",\"coordinates\":[[-73.7216134,45.5714875],[-73.72167,45.5714544],[-73.7229586,45.5706926]]}";4;Boulevard Saint-Martin Ouest;3;60;false;true;false;false;false;false;138.0;1;0;0;0;0;false;42843;6269509488;-73.72075;45.572019;42840;6269509505;-73.72272;45.570918;2;28;29;9312760;Bus : 50 O - Direction Terminus Le Carrefour;"";STL;50O;Montée Saint-François / Face Au Pénitencier;Terminus Le Carrefour
682368060;"{\"type\":\"LineString\",\"coordinates\":[[-73.7216134,45.5714875],[-73.72167,45.5714544],[-73.7229586,45.5706926]]}";1;Boulevard Saint-Martin Ouest;3;60;false;true;false;false;false;false;69.0;1;0;0;0;0;false;42840;6269509505;-73.72272;45.570918;42841;6269509536;-73.72451;45.569933;1;29;30;9312760;Bus : 50 O - Direction Terminus Le Carrefour;"";STL;50O;Montée Saint-François / Face Au Pénitencier;Terminus Le Carrefour
452095379;"{\"type\":\"LineString\",\"coordinates\":[[-73.7229586,45.5706926],[-73.7230766,45.5706208],[-73.7257606,45.569147],[-73.726537,45.5687158],[-73.727548,45.5681544],[-73.7276645,45.568088],[-73.7289967,45.5673681]]}";2;Boulevard Saint-Martin Ouest;3;60;false;true;false;false;false;false;299.5;5;0;0;0;0;false;42840;6269509505;-73.72272;45.570918;42841;6269509536;-73.72451;45.569933;1;29;30;9312760;Bus : 50 O - Direction Terminus Le Carrefour;"";STL;50O;Montée Saint-François / Face Au Pénitencier;Terminus Le Carrefour
452095379;"{\"type\":\"LineString\",\"coordinates\":[[-73.7229586,45.5706926],[-73.7230766,45.5706208],[-73.7257606,45.569147],[-73.726537,45.5687158],[-73.727548,45.5681544],[-73.7276645,45.568088],[-73.7289967,45.5673681]]}";1;Boulevard Saint-Martin Ouest;3;60;false;true;false;false;false;false;299.5;5;0;0;0;0;false;45042;6269509567;-73.72648;45.568859;43248;6269510041;-73.7283;45.566587;1;31;32;9312760;Bus : 50 O - Direction Terminus Le Carrefour;"";STL;50O;Montée Saint-François / Face Au Pénitencier;Terminus Le Carrefour
29155809;"{\"type\":\"LineString\",\"coordinates\":[[-73.7289967,45.5673681],[-73.7289175,45.5671978],[-73.7284469,45.5667987],[-73.728225,45.5666105],[-73.7279861,45.5664237],[-73.7277072,45.5662483],[-73.7270212,45.5659856],[-73.7268783,45.5659309],[-73.7266578,45.5658365],[-73.7262542,45.5656048],[-73.7259589,45.5654189],[-73.7258095,45.5652984],[-73.7245744,45.5643014],[-73.7243423,45.5640764]]}";2;Boulevard de l'Avenir;3;50;false;true;false;false;false;false;261.5;2;0;0;0;0;false;45042;6269509567;-73.72648;45.568859;43248;6269510041;-73.7283;45.566587;1;31;32;9312760;Bus : 50 O - Direction Terminus Le Carrefour;"";STL;50O;Montée Saint-François / Face Au Pénitencier;Terminus Le Carrefour
29155809;"{\"type\":\"LineString\",\"coordinates\":[[-73.7289967,45.5673681],[-73.7289175,45.5671978],[-73.7284469,45.5667987],[-73.728225,45.5666105],[-73.7279861,45.5664237],[-73.7277072,45.5662483],[-73.7270212,45.5659856],[-73.7268783,45.5659309],[-73.7266578,45.5658365],[-73.7262542,45.5656048],[-73.7259589,45.5654189],[-73.7258095,45.5652984],[-73.7245744,45.5643014],[-73.7243423,45.5640764]]}";1;Boulevard de l'Avenir;3;50;false;true;false;false;false;false;261.5;2;0;0;0;0;false;43900;6269509993;-73.72668;45.56579;43372;6269510186;-73.72424;45.563728;1;33;34;9312760;Bus : 50 O - Direction Terminus Le Carrefour;"";STL;50O;Montée Saint-François / Face Au Pénitencier;Terminus Le Carrefour
100514143;"{\"type\":\"LineString\",\"coordinates\":[[-73.7243423,45.5640764],[-73.7242913,45.5640132],[-73.7242637,45.5639693],[-73.7241914,45.563854],[-73.7240704,45.5636036],[-73.723916,45.563128],[-73.7238086,45.562894],[-73.723747,45.5627892],[-73.7232977,45.5623084],[-73.7228972,45.5619121]]}";2;Boulevard de l'Avenir;3;50;false;true;false;false;false;false;134.5;1;0;0;0;0;false;43900;6269509993;-73.72668;45.56579;43372;6269510186;-73.72424;45.563728;1;33;34;9312760;Bus : 50 O - Direction Terminus Le Carrefour;"";STL;50O;Montée Saint-François / Face Au Pénitencier;Terminus Le Carrefour
29155370;"{\"type\":\"LineString\",\"coordinates\":[[-73.7228972,45.5619121],[-73.7235527,45.5617088],[-73.7240778,45.5615486],[-73.7242731,45.561489],[-73.7254238,45.5611379],[-73.7256335,45.561069]]}";1;Boulevard du Souvenir;3;50;false;true;true;false;false;false;234.0;1;0;0;0;0;false;46304;605440525;-73.72316;45.562017;"46509;43507;46443";6269510304;-73.72082;45.559592;2;35;36;9312760;Bus : 50 O - Direction Terminus Le Carrefour;"";STL;50O;Montée Saint-François / Face Au Pénitencier;Terminus Le Carrefour
680430220;"{\"type\":\"LineString\",\"coordinates\":[[-73.7228972,45.5619121],[-73.722752,45.5617595]]}";2;Boulevard de l'Avenir;3;50;false;true;false;false;false;false;21.0;2;0;0;0;0;false;46304;605440525;-73.72316;45.562017;"46509;43507;46443";6269510304;-73.72082;45.559592;0;35;36;9312760;Bus : 50 O - Direction Terminus Le Carrefour;"";STL;50O;Montée Saint-François / Face Au Pénitencier;Terminus Le Carrefour
669709379;"{\"type\":\"LineString\",\"coordinates\":[[-73.7227201,45.561963],[-73.7228972,45.5619121]]}";3;Boulevard du Souvenir;3;50;false;true;true;false;false;false;15.0;2;0;0;0;0;false;46304;605440525;-73.72316;45.562017;"46509;43507;46443";6269510304;-73.72082;45.559592;0;35;36;9312760;Bus : 50 O - Direction Terminus Le Carrefour;"";STL;50O;Montée Saint-François / Face Au Pénitencier;Terminus Le Carrefour
669709383;"{\"type\":\"LineString\",\"coordinates\":[[-73.7225737,45.5618077],[-73.7227201,45.561963]]}";4;Boulevard de l'Avenir;3;50;false;true;true;false;false;false;21.0;2;0;0;0;0;false;46304;605440525;-73.72316;45.562017;"46509;43507;46443";6269510304;-73.72082;45.559592;0;35;36;9312760;Bus : 50 O - Direction Terminus Le Carrefour;"";STL;50O;Montée Saint-François / Face Au Pénitencier;Terminus Le Carrefour
475848924;"{\"type\":\"LineString\",\"coordinates\":[[-73.7204185,45.5595948],[-73.7210127,45.5602042],[-73.7212014,45.5603978],[-73.7213245,45.560524],[-73.7225737,45.5618077]]}";5;Boulevard de l'Avenir;3;50;false;true;true;false;false;false;298.0;1;0;0;0;0;false;46304;605440525;-73.72316;45.562017;"46509;43507;46443";6269510304;-73.72082;45.559592;0;35;36;9312760;Bus : 50 O - Direction Terminus Le Carrefour;"";STL;50O;Montée Saint-François / Face Au Pénitencier;Terminus Le Carrefour
29081977;"{\"type\":\"LineString\",\"coordinates\":[[-73.7195653,45.558719],[-73.7196614,45.5588173],[-73.7199922,45.5591559],[-73.7204185,45.5595948]]}";6;Boulevard de l'Avenir;3;50;false;true;true;false;false;false;118.0;0;1;0;0;0;false;46304;605440525;-73.72316;45.562017;"46509;43507;46443";6269510304;-73.72082;45.559592;0;35;36;9312760;Bus : 50 O - Direction Terminus Le Carrefour;"";STL;50O;Montée Saint-François / Face Au Pénitencier;Terminus Le Carrefour
292607262;"{\"type\":\"LineString\",\"coordinates\":[[-73.7195653,45.558719],[-73.7197703,45.558636]]}";7;"";1;50;false;false;true;false;false;false;19.0;0;0;0;0;0;false;46304;605440525;-73.72316;45.562017;"46509;43507;46443";6269510304;-73.72082;45.559592;0;35;36;9312760;Bus : 50 O - Direction Terminus Le Carrefour;"";STL;50O;Montée Saint-François / Face Au Pénitencier;Terminus Le Carrefour
475848926;"{\"type\":\"LineString\",\"coordinates\":[[-73.7199464,45.5588146],[-73.719872,45.558742],[-73.7198603,45.5587298],[-73.7197703,45.558636]]}";8;Boulevard de l'Avenir;3;50;false;true;false;false;false;false;25.0;0;1;0;0;0;false;46304;605440525;-73.72316;45.562017;"46509;43507;46443";6269510304;-73.72082;45.559592;0;35;36;9312760;Bus : 50 O - Direction Terminus Le Carrefour;"";STL;50O;Montée Saint-François / Face Au Pénitencier;Terminus Le Carrefour
695738775;"{\"type\":\"LineString\",\"coordinates\":[[-73.7205915,45.5595102],[-73.7199464,45.5588146]]}";9;Boulevard de l'Avenir;3;50;false;true;false;false;false;false;93.0;0;0;0;0;0;false;46304;605440525;-73.72316;45.562017;"46509;43507;46443";6269510304;-73.72082;45.559592;0;35;36;9312760;Bus : 50 O - Direction Terminus Le Carrefour;"";STL;50O;Montée Saint-François / Face Au Pénitencier;Terminus Le Carrefour
29081985;"{\"type\":\"LineString\",\"coordinates\":[[-73.722752,45.5617595],[-73.7225279,45.561532],[-73.7214827,45.5604479],[-73.7211098,45.5600515],[-73.7210472,45.5599848],[-73.7205915,45.5595102]]}";10;Boulevard de l'Avenir;3;50;false;true;false;false;false;false;302.0;1;0;0;0;0;false;46304;605440525;-73.72316;45.562017;"46509;43507;46443";6269510304;-73.72082;45.559592;2;35;36;9312760;Bus : 50 O - Direction Terminus Le Carrefour;"";STL;50O;Montée Saint-François / Face Au Pénitencier;Terminus Le Carrefour
29081985;"{\"type\":\"LineString\",\"coordinates\":[[-73.722752,45.5617595],[-73.7225279,45.561532],[-73.7214827,45.5604479],[-73.7211098,45.5600515],[-73.7210472,45.5599848],[-73.7205915,45.5595102]]}";1;Boulevard de l'Avenir;3;50;false;true;false;false;false;false;151.0;1;0;0;0;0;false;"46509;43507;46443";6269510304;-73.72082;45.559592;"48150;48139;48036";6269510330;-73.72062;45.558472;1;36;37;9312760;Bus : 50 O - Direction Terminus Le Carrefour;"";STL;50O;Montée Saint-François / Face Au Pénitencier;Terminus Le Carrefour
680430220;"{\"type\":\"LineString\",\"coordinates\":[[-73.7228972,45.5619121],[-73.722752,45.5617595]]}";2;Boulevard de l'Avenir;3;50;false;true;false;false;false;false;21.0;2;0;0;0;0;false;"46509;43507;46443";6269510304;-73.72082;45.559592;"48150;48139;48036";6269510330;-73.72062;45.558472;0;36;37;9312760;Bus : 50 O - Direction Terminus Le Carrefour;"";STL;50O;Montée Saint-François / Face Au Pénitencier;Terminus Le Carrefour
100514143;"{\"type\":\"LineString\",\"coordinates\":[[-73.7243423,45.5640764],[-73.7242913,45.5640132],[-73.7242637,45.5639693],[-73.7241914,45.563854],[-73.7240704,45.5636036],[-73.723916,45.563128],[-73.7238086,45.562894],[-73.723747,45.5627892],[-73.7232977,45.5623084],[-73.7228972,45.5619121]]}";3;Boulevard de l'Avenir;3;50;false;true;false;false;false;false;269.0;1;0;0;0;0;false;"46509;43507;46443";6269510304;-73.72082;45.559592;"48150;48139;48036";6269510330;-73.72062;45.558472;0;36;37;9312760;Bus : 50 O - Direction Terminus Le Carrefour;"";STL;50O;Montée Saint-François / Face Au Pénitencier;Terminus Le Carrefour
669709379;"{\"type\":\"LineString\",\"coordinates\":[[-73.7227201,45.561963],[-73.7228972,45.5619121]]}";4;Boulevard du Souvenir;3;50;false;true;true;false;false;false;15.0;2;0;0;0;0;false;"46509;43507;46443";6269510304;-73.72082;45.559592;"48150;48139;48036";6269510330;-73.72062;45.558472;0;36;37;9312760;Bus : 50 O - Direction Terminus Le Carrefour;"";STL;50O;Montée Saint-François / Face Au Pénitencier;Terminus Le Carrefour
669709383;"{\"type\":\"LineString\",\"coordinates\":[[-73.7225737,45.5618077],[-73.7227201,45.561963]]}";5;Boulevard de l'Avenir;3;50;false;true;true;false;false;false;21.0;2;0;0;0;0;false;"46509;43507;46443";6269510304;-73.72082;45.559592;"48150;48139;48036";6269510330;-73.72062;45.558472;0;36;37;9312760;Bus : 50 O - Direction Terminus Le Carrefour;"";STL;50O;Montée Saint-François / Face Au Pénitencier;Terminus Le Carrefour
475848924;"{\"type\":\"LineString\",\"coordinates\":[[-73.7204185,45.5595948],[-73.7210127,45.5602042],[-73.7212014,45.5603978],[-73.7213245,45.560524],[-73.7225737,45.5618077]]}";6;Boulevard de l'Avenir;3;50;false;true;true;false;false;false;298.0;1;0;0;0;0;false;"46509;43507;46443";6269510304;-73.72082;45.559592;"48150;48139;48036";6269510330;-73.72062;45.558472;0;36;37;9312760;Bus : 50 O - Direction Terminus Le Carrefour;"";STL;50O;Montée Saint-François / Face Au Pénitencier;Terminus Le Carrefour
29081977;"{\"type\":\"LineString\",\"coordinates\":[[-73.7195653,45.558719],[-73.7196614,45.5588173],[-73.7199922,45.5591559],[-73.7204185,45.5595948]]}";7;Boulevard de l'Avenir;3;50;false;true;true;false;false;false;118.0;0;1;0;0;0;false;"46509;43507;46443";6269510304;-73.72082;45.559592;"48150;48139;48036";6269510330;-73.72062;45.558472;0;36;37;9312760;Bus : 50 O - Direction Terminus Le Carrefour;"";STL;50O;Montée Saint-François / Face Au Pénitencier;Terminus Le Carrefour
292607262;"{\"type\":\"LineString\",\"coordinates\":[[-73.7195653,45.558719],[-73.7197703,45.558636]]}";8;"";1;50;false;false;true;false;false;false;19.0;0;0;0;0;0;false;"46509;43507;46443";6269510304;-73.72082;45.559592;"48150;48139;48036";6269510330;-73.72062;45.558472;0;36;37;9312760;Bus : 50 O - Direction Terminus Le Carrefour;"";STL;50O;Montée Saint-François / Face Au Pénitencier;Terminus Le Carrefour
475848926;"{\"type\":\"LineString\",\"coordinates\":[[-73.7199464,45.5588146],[-73.719872,45.558742],[-73.7198603,45.5587298],[-73.7197703,45.558636]]}";9;Boulevard de l'Avenir;3;50;false;true;false;false;false;false;25.0;0;1;0;0;0;false;"46509;43507;46443";6269510304;-73.72082;45.559592;"48150;48139;48036";6269510330;-73.72062;45.558472;0;36;37;9312760;Bus : 50 O - Direction Terminus Le Carrefour;"";STL;50O;Montée Saint-François / Face Au Pénitencier;Terminus Le Carrefour
673250003;"{\"type\":\"LineString\",\"coordinates\":[[-73.7200309,45.5584789],[-73.7198217,45.5586049],[-73.7197703,45.558636]]}";10;"";1;30;false;false;false;false;false;false;27.0;0;1;0;0;0;false;"46509;43507;46443";6269510304;-73.72082;45.559592;"48150;48139;48036";6269510330;-73.72062;45.558472;0;36;37;9312760;Bus : 50 O - Direction Terminus Le Carrefour;"";STL;50O;Montée Saint-François / Face Au Pénitencier;Terminus Le Carrefour
673246437;"{\"type\":\"LineString\",\"coordinates\":[[-73.7200309,45.5584789],[-73.720124,45.5585758],[-73.7201474,45.5585648]]}";11;"";1;30;false;true;false;false;false;false;16.0;0;0;0;0;0;false;"46509;43507;46443";6269510304;-73.72082;45.559592;"48150;48139;48036";6269510330;-73.72062;45.558472;0;36;37;9312760;Bus : 50 O - Direction Terminus Le Carrefour;"";STL;50O;Montée Saint-François / Face Au Pénitencier;Terminus Le Carrefour
624217210;"{\"type\":\"LineString\",\"coordinates\":[[-73.7201474,45.5585648],[-73.720206,45.5585372],[-73.7203325,45.5584776]]}";12;"";1;30;false;true;false;false;false;false;18.0;0;0;0;0;0;false;"46509;43507;46443";6269510304;-73.72082;45.559592;"48150;48139;48036";6269510330;-73.72062;45.558472;0;36;37;9312760;Bus : 50 O - Direction Terminus Le Carrefour;"";STL;50O;Montée Saint-François / Face Au Pénitencier;Terminus Le Carrefour
673264013;"{\"type\":\"LineString\",\"coordinates\":[[-73.7203325,45.5584776],[-73.7205612,45.55837]]}";13;"";1;30;false;true;false;false;false;false;11.0;0;0;0;0;0;false;"46509;43507;46443";6269510304;-73.72082;45.559592;"48150;48139;48036";6269510330;-73.72062;45.558472;1;36;37;9312760;Bus : 50 O - Direction Terminus Le Carrefour;"";STL;50O;Montée Saint-François / Face Au Pénitencier;Terminus Le Carrefour
673264014;"{\"type\":\"LineString\",\"coordinates\":[[-73.7205612,45.55837],[-73.7207712,45.5582711]]}";1;"";1;30;false;true;false;false;false;false;20.0;0;0;0;0;0;false;"48150;48139;48036";6269510330;-73.72062;45.558472;43343;6269510224;-73.72369;45.561728;2;37;38;9312760;Bus : 50 O - Direction Terminus Le Carrefour;"";STL;50O;Montée Saint-François / Face Au Pénitencier;Terminus Le Carrefour
475848923;"{\"type\":\"LineString\",\"coordinates\":[[-73.7207712,45.5582711],[-73.7209137,45.558204]]}";2;"";1;30;false;true;true;false;false;false;14.0;0;0;0;0;0;false;"48150;48139;48036";6269510330;-73.72062;45.558472;43343;6269510224;-73.72369;45.561728;0;37;38;9312760;Bus : 50 O - Direction Terminus Le Carrefour;"";STL;50O;Montée Saint-François / Face Au Pénitencier;Terminus Le Carrefour
673264015;"{\"type\":\"LineString\",\"coordinates\":[[-73.7209137,45.558204],[-73.7207353,45.5580182]]}";3;"";1;30;false;true;true;false;false;false;25.0;0;0;0;0;0;false;"48150;48139;48036";6269510330;-73.72062;45.558472;43343;6269510224;-73.72369;45.561728;0;37;38;9312760;Bus : 50 O - Direction Terminus Le Carrefour;"";STL;50O;Montée Saint-François / Face Au Pénitencier;Terminus Le Carrefour
669689629;"{\"type\":\"LineString\",\"coordinates\":[[-73.7207353,45.5580182],[-73.720718,45.5580002],[-73.7204415,45.5581303]]}";4;"";1;30;false;true;true;false;false;false;29.0;0;0;0;0;0;false;"48150;48139;48036";6269510330;-73.72062;45.558472;43343;6269510224;-73.72369;45.561728;0;37;38;9312760;Bus : 50 O - Direction Terminus Le Carrefour;"";STL;50O;Montée Saint-François / Face Au Pénitencier;Terminus Le Carrefour
669709387;"{\"type\":\"LineString\",\"coordinates\":[[-73.7204415,45.5581303],[-73.7202192,45.558235]]}";5;"";1;30;false;true;true;false;false;false;21.0;0;0;0;0;0;false;"48150;48139;48036";6269510330;-73.72062;45.558472;43343;6269510224;-73.72369;45.561728;0;37;38;9312760;Bus : 50 O - Direction Terminus Le Carrefour;"";STL;50O;Montée Saint-François / Face Au Pénitencier;Terminus Le Carrefour
673264017;"{\"type\":\"LineString\",\"coordinates\":[[-73.7202192,45.558235],[-73.7200265,45.5583257]]}";6;"";1;30;false;true;true;false;false;false;19.0;0;0;0;0;0;false;"48150;48139;48036";6269510330;-73.72062;45.558472;43343;6269510224;-73.72369;45.561728;0;37;38;9312760;Bus : 50 O - Direction Terminus Le Carrefour;"";STL;50O;Montée Saint-François / Face Au Pénitencier;Terminus Le Carrefour
669709385;"{\"type\":\"LineString\",\"coordinates\":[[-73.7200265,45.5583257],[-73.7199282,45.558372]]}";7;"";1;30;false;true;true;false;false;false;10.0;0;0;0;0;0;false;"48150;48139;48036";6269510330;-73.72062;45.558472;43343;6269510224;-73.72369;45.561728;0;37;38;9312760;Bus : 50 O - Direction Terminus Le Carrefour;"";STL;50O;Montée Saint-François / Face Au Pénitencier;Terminus Le Carrefour
673250002;"{\"type\":\"LineString\",\"coordinates\":[[-73.7199282,45.558372],[-73.7200309,45.5584789]]}";8;"";1;30;false;true;false;false;false;false;15.0;0;0;0;0;0;false;"48150;48139;48036";6269510330;-73.72062;45.558472;43343;6269510224;-73.72369;45.561728;0;37;38;9312760;Bus : 50 O - Direction Terminus Le Carrefour;"";STL;50O;Montée Saint-François / Face Au Pénitencier;Terminus Le Carrefour
673250003;"{\"type\":\"LineString\",\"coordinates\":[[-73.7200309,45.5584789],[-73.7198217,45.5586049],[-73.7197703,45.558636]]}";9;"";1;30;false;false;false;false;false;false;27.0;0;1;0;0;0;false;"48150;48139;48036";6269510330;-73.72062;45.558472;43343;6269510224;-73.72369;45.561728;0;37;38;9312760;Bus : 50 O - Direction Terminus Le Carrefour;"";STL;50O;Montée Saint-François / Face Au Pénitencier;Terminus Le Carrefour
292607262;"{\"type\":\"LineString\",\"coordinates\":[[-73.7195653,45.558719],[-73.7197703,45.558636]]}";10;"";1;50;false;false;true;false;false;false;19.0;0;0;0;0;0;false;"48150;48139;48036";6269510330;-73.72062;45.558472;43343;6269510224;-73.72369;45.561728;0;37;38;9312760;Bus : 50 O - Direction Terminus Le Carrefour;"";STL;50O;Montée Saint-François / Face Au Pénitencier;Terminus Le Carrefour
475848926;"{\"type\":\"LineString\",\"coordinates\":[[-73.7199464,45.5588146],[-73.719872,45.558742],[-73.7198603,45.5587298],[-73.7197703,45.558636]]}";11;Boulevard de l'Avenir;3;50;false;true;false;false;false;false;25.0;0;1;0;0;0;false;"48150;48139;48036";6269510330;-73.72062;45.558472;43343;6269510224;-73.72369;45.561728;0;37;38;9312760;Bus : 50 O - Direction Terminus Le Carrefour;"";STL;50O;Montée Saint-François / Face Au Pénitencier;Terminus Le Carrefour
695738775;"{\"type\":\"LineString\",\"coordinates\":[[-73.7205915,45.5595102],[-73.7199464,45.5588146]]}";12;Boulevard de l'Avenir;3;50;false;true;false;false;false;false;93.0;0;0;0;0;0;false;"48150;48139;48036";6269510330;-73.72062;45.558472;43343;6269510224;-73.72369;45.561728;0;37;38;9312760;Bus : 50 O - Direction Terminus Le Carrefour;"";STL;50O;Montée Saint-François / Face Au Pénitencier;Terminus Le Carrefour
29081985;"{\"type\":\"LineString\",\"coordinates\":[[-73.722752,45.5617595],[-73.7225279,45.561532],[-73.7214827,45.5604479],[-73.7211098,45.5600515],[-73.7210472,45.5599848],[-73.7205915,45.5595102]]}";13;Boulevard de l'Avenir;3;50;false;true;false;false;false;false;302.0;1;0;0;0;0;false;"48150;48139;48036";6269510330;-73.72062;45.558472;43343;6269510224;-73.72369;45.561728;0;37;38;9312760;Bus : 50 O - Direction Terminus Le Carrefour;"";STL;50O;Montée Saint-François / Face Au Pénitencier;Terminus Le Carrefour
680430220;"{\"type\":\"LineString\",\"coordinates\":[[-73.7228972,45.5619121],[-73.722752,45.5617595]]}";14;Boulevard de l'Avenir;3;50;false;true;false;false;false;false;21.0;2;0;0;0;0;false;"48150;48139;48036";6269510330;-73.72062;45.558472;43343;6269510224;-73.72369;45.561728;0;37;38;9312760;Bus : 50 O - Direction Terminus Le Carrefour;"";STL;50O;Montée Saint-François / Face Au Pénitencier;Terminus Le Carrefour
100514143;"{\"type\":\"LineString\",\"coordinates\":[[-73.7243423,45.5640764],[-73.7242913,45.5640132],[-73.7242637,45.5639693],[-73.7241914,45.563854],[-73.7240704,45.5636036],[-73.723916,45.563128],[-73.7238086,45.562894],[-73.723747,45.5627892],[-73.7232977,45.5623084],[-73.7228972,45.5619121]]}";15;Boulevard de l'Avenir;3;50;false;true;false;false;false;false;269.0;1;0;0;0;0;false;"48150;48139;48036";6269510330;-73.72062;45.558472;43343;6269510224;-73.72369;45.561728;0;37;38;9312760;Bus : 50 O - Direction Terminus Le Carrefour;"";STL;50O;Montée Saint-François / Face Au Pénitencier;Terminus Le Carrefour
29155370;"{\"type\":\"LineString\",\"coordinates\":[[-73.7228972,45.5619121],[-73.7235527,45.5617088],[-73.7240778,45.5615486],[-73.7242731,45.561489],[-73.7254238,45.5611379],[-73.7256335,45.561069]]}";16;Boulevard du Souvenir;3;50;false;true;true;false;false;false;234.0;1;0;0;0;0;false;"48150;48139;48036";6269510330;-73.72062;45.558472;43343;6269510224;-73.72369;45.561728;2;37;38;9312760;Bus : 50 O - Direction Terminus Le Carrefour;"";STL;50O;Montée Saint-François / Face Au Pénitencier;Terminus Le Carrefour
29155370;"{\"type\":\"LineString\",\"coordinates\":[[-73.7228972,45.5619121],[-73.7235527,45.5617088],[-73.7240778,45.5615486],[-73.7242731,45.561489],[-73.7254238,45.5611379],[-73.7256335,45.561069]]}";1;Boulevard du Souvenir;3;50;false;true;true;false;false;false;117.0;1;0;0;0;0;false;43343;6269510224;-73.72369;45.561728;43146;6269510272;-73.72619;45.560951;1;38;39;9312760;Bus : 50 O - Direction Terminus Le Carrefour;"";STL;50O;Montée Saint-François / Face Au Pénitencier;Terminus Le Carrefour
475237533;"{\"type\":\"LineString\",\"coordinates\":[[-73.7256335,45.561069],[-73.7270604,45.5605708]]}";2;Boulevard du Souvenir;3;50;false;true;true;false;false;false;62.5;1;0;0;0;0;false;43343;6269510224;-73.72369;45.561728;43146;6269510272;-73.72619;45.560951;1;38;39;9312760;Bus : 50 O - Direction Terminus Le Carrefour;"";STL;50O;Montée Saint-François / Face Au Pénitencier;Terminus Le Carrefour
475237533;"{\"type\":\"LineString\",\"coordinates\":[[-73.7256335,45.561069],[-73.7270604,45.5605708]]}";1;Boulevard du Souvenir;3;50;false;true;true;false;false;false;62.5;1;0;0;0;0;false;43146;6269510272;-73.72619;45.560951;41957;6269510226;-73.72908;45.562299;1;39;40;9312760;Bus : 50 O - Direction Terminus Le Carrefour;"";STL;50O;Montée Saint-François / Face Au Pénitencier;Terminus Le Carrefour
673264011;"{\"type\":\"LineString\",\"coordinates\":[[-73.7270604,45.5605708],[-73.7271245,45.5605454]]}";2;Boulevard du Souvenir;3;50;false;true;true;false;false;false;6.0;1;0;0;0;0;false;43146;6269510272;-73.72619;45.560951;41957;6269510226;-73.72908;45.562299;0;39;40;9312760;Bus : 50 O - Direction Terminus Le Carrefour;"";STL;50O;Montée Saint-François / Face Au Pénitencier;Terminus Le Carrefour
672433263;"{\"type\":\"LineString\",\"coordinates\":[[-73.7271245,45.5605454],[-73.7273615,45.5607671],[-73.7274278,45.5608101],[-73.7275097,45.560869],[-73.7288457,45.5620823],[-73.7311728,45.5641376],[-73.7324492,45.5653114],[-73.7325997,45.5654018]]}";3;Voie réservée - boulevard Le Corbusier;1;50;false;true;true;false;true;false;344.5;0;0;0;0;0;false;43146;6269510272;-73.72619;45.560951;41957;6269510226;-73.72908;45.562299;1;39;40;9312760;Bus : 50 O - Direction Terminus Le Carrefour;"";STL;50O;Montée Saint-François / Face Au Pénitencier;Terminus Le Carrefour
672433263;"{\"type\":\"LineString\",\"coordinates\":[[-73.7271245,45.5605454],[-73.7273615,45.5607671],[-73.7274278,45.5608101],[-73.7275097,45.560869],[-73.7288457,45.5620823],[-73.7311728,45.5641376],[-73.7324492,45.5653114],[-73.7325997,45.5654018]]}";1;Voie réservée - boulevard Le Corbusier;1;50;false;true;true;false;true;false;344.5;0;0;0;0;0;false;41952;6269510189;-73.73143;45.564352;41942;6269509996;-73.73452;45.567098;1;41;42;9312760;Bus : 50 O - Direction Terminus Le Carrefour;"";STL;50O;Montée Saint-François / Face Au Pénitencier;Terminus Le Carrefour
679314341;"{\"type\":\"LineString\",\"coordinates\":[[-73.7325997,45.5654018],[-73.7338863,45.5665063],[-73.7343941,45.5669377],[-73.7348605,45.5673423],[-73.7350629,45.5675728]]}";2;Voie réservée - boulevard Le Corbusier;1;50;false;true;true;false;true;false;154.5;0;0;0;0;0;false;41952;6269510189;-73.73143;45.564352;41942;6269509996;-73.73452;45.567098;1;41;42;9312760;Bus : 50 O - Direction Terminus Le Carrefour;"";STL;50O;Montée Saint-François / Face Au Pénitencier;Terminus Le Carrefour
679314341;"{\"type\":\"LineString\",\"coordinates\":[[-73.7325997,45.5654018],[-73.7338863,45.5665063],[-73.7343941,45.5669377],[-73.7348605,45.5673423],[-73.7350629,45.5675728]]}";1;Voie réservée - boulevard Le Corbusier;1;50;false;true;true;false;true;false;154.5;0;0;0;0;0;false;41942;6269509996;-73.73452;45.567098;41965;6269509534;-73.73817;45.570131;1;42;43;9312760;Bus : 50 O - Direction Terminus Le Carrefour;"";STL;50O;Montée Saint-François / Face Au Pénitencier;Terminus Le Carrefour
45755903;"{\"type\":\"LineString\",\"coordinates\":[[-73.7350629,45.5675728],[-73.7354327,45.567807],[-73.7359482,45.5681334],[-73.7362641,45.5683683],[-73.7364145,45.5684806],[-73.7383828,45.5702326]]}";2;Boulevard Le Corbusier;2;60;false;true;false;false;false;false;197.0;1;0;0;0;0;false;41942;6269509996;-73.73452;45.567098;41965;6269509534;-73.73817;45.570131;1;42;43;9312760;Bus : 50 O - Direction Terminus Le Carrefour;"";STL;50O;Montée Saint-François / Face Au Pénitencier;Terminus Le Carrefour
45755903;"{\"type\":\"LineString\",\"coordinates\":[[-73.7350629,45.5675728],[-73.7354327,45.567807],[-73.7359482,45.5681334],[-73.7362641,45.5683683],[-73.7364145,45.5684806],[-73.7383828,45.5702326]]}";1;Boulevard Le Corbusier;2;60;false;true;false;false;false;false;197.0;1;0;0;0;0;false;41965;6269509534;-73.73817;45.570131;"41018;41932";6269509381;-73.74198;45.572102;1;43;44;9312760;Bus : 50 O - Direction Terminus Le Carrefour;"";STL;50O;Montée Saint-François / Face Au Pénitencier;Terminus Le Carrefour
45755730;"{\"type\":\"LineString\",\"coordinates\":[[-73.7383828,45.5702326],[-73.7391621,45.5709218],[-73.7401317,45.5717803],[-73.740957,45.5725111]]}";2;Boulevard Le Corbusier;2;60;false;true;false;false;false;false;324.0;2;0;0;0;0;false;41965;6269509534;-73.73817;45.570131;"41018;41932";6269509381;-73.74198;45.572102;0;43;44;9312760;Bus : 50 O - Direction Terminus Le Carrefour;"";STL;50O;Montée Saint-François / Face Au Pénitencier;Terminus Le Carrefour
678350784;"{\"type\":\"LineString\",\"coordinates\":[[-73.740957,45.5725111],[-73.7410251,45.5725718]]}";3;Boulevard Le Corbusier;2;60;false;true;false;false;false;false;9.0;2;0;0;0;0;false;41965;6269509534;-73.73817;45.570131;"41018;41932";6269509381;-73.74198;45.572102;0;43;44;9312760;Bus : 50 O - Direction Terminus Le Carrefour;"";STL;50O;Montée Saint-François / Face Au Pénitencier;Terminus Le Carrefour
455474953;"{\"type\":\"LineString\",\"coordinates\":[[-73.7410251,45.5725718],[-73.7411952,45.572484]]}";4;Boulevard Le Carrefour;1;50;false;true;false;false;false;false;17.0;2;0;0;0;0;false;41965;6269509534;-73.73817;45.570131;"41018;41932";6269509381;-73.74198;45.572102;0;43;44;9312760;Bus : 50 O - Direction Terminus Le Carrefour;"";STL;50O;Montée Saint-François / Face Au Pénitencier;Terminus Le Carrefour
455474952;"{\"type\":\"LineString\",\"coordinates\":[[-73.7411952,45.572484],[-73.7413653,45.5723882]]}";5;Boulevard Le Carrefour;1;50;false;true;false;false;false;false;18.0;1;0;0;0;0;false;41965;6269509534;-73.73817;45.570131;"41018;41932";6269509381;-73.74198;45.572102;0;43;44;9312760;Bus : 50 O - Direction Terminus Le Carrefour;"";STL;50O;Montée Saint-François / Face Au Pénitencier;Terminus Le Carrefour
165086150;"{\"type\":\"LineString\",\"coordinates\":[[-73.7413653,45.5723882],[-73.7414679,45.5723304],[-73.7430271,45.5714652],[-73.7435379,45.5712004],[-73.7438052,45.5710788],[-73.7441104,45.5709491],[-73.7444843,45.5708292]]}";6;Boulevard Le Carrefour;1;50;false;true;false;false;false;false;150.0;0;0;0;0;0;false;41965;6269509534;-73.73817;45.570131;"41018;41932";6269509381;-73.74198;45.572102;1;43;44;9312760;Bus : 50 O - Direction Terminus Le Carrefour;"";STL;50O;Montée Saint-François / Face Au Pénitencier;Terminus Le Carrefour
165086150;"{\"type\":\"LineString\",\"coordinates\":[[-73.7413653,45.5723882],[-73.7414679,45.5723304],[-73.7430271,45.5714652],[-73.7435379,45.5712004],[-73.7438052,45.5710788],[-73.7441104,45.5709491],[-73.7444843,45.5708292]]}";1;Boulevard Le Carrefour;1;50;false;true;false;false;false;false;150.0;0;0;0;0;0;false;"41018;41932";6269509381;-73.74198;45.572102;"44150;44360;44039";6269509575;-73.7484;45.568901;1;44;45;9312760;Bus : 50 O - Direction Terminus Le Carrefour;"";STL;50O;Montée Saint-François / Face Au Pénitencier;Terminus Le Carrefour
38192513;"{\"type\":\"LineString\",\"coordinates\":[[-73.7444843,45.5708292],[-73.7461679,45.5701988]]}";2;Boulevard Le Carrefour;1;50;false;true;false;false;false;false;149.0;0;0;0;0;0;false;"41018;41932";6269509381;-73.74198;45.572102;"44150;44360;44039";6269509575;-73.7484;45.568901;0;44;45;9312760;Bus : 50 O - Direction Terminus Le Carrefour;"";STL;50O;Montée Saint-François / Face Au Pénitencier;Terminus Le Carrefour
678350783;"{\"type\":\"LineString\",\"coordinates\":[[-73.7461679,45.5701988],[-73.7474876,45.5696846],[-73.7480831,45.5694338]]}";3;Boulevard Le Carrefour;3;50;false;true;false;false;false;false;172.0;1;0;0;0;0;false;"41018;41932";6269509381;-73.74198;45.572102;"44150;44360;44039";6269509575;-73.7484;45.568901;0;44;45;9312760;Bus : 50 O - Direction Terminus Le Carrefour;"";STL;50O;Montée Saint-François / Face Au Pénitencier;Terminus Le Carrefour
678350782;"{\"type\":\"LineString\",\"coordinates\":[[-73.7480831,45.5694338],[-73.7482256,45.5693738]]}";4;Boulevard Le Carrefour;3;50;false;true;false;false;false;false;13.0;2;0;0;0;0;false;"41018;41932";6269509381;-73.74198;45.572102;"44150;44360;44039";6269509575;-73.7484;45.568901;0;44;45;9312760;Bus : 50 O - Direction Terminus Le Carrefour;"";STL;50O;Montée Saint-François / Face Au Pénitencier;Terminus Le Carrefour
678350781;"{\"type\":\"LineString\",\"coordinates\":[[-73.7482256,45.5693738],[-73.7480536,45.5693169]]}";5;"";1;50;false;true;false;false;false;false;15.0;2;0;0;0;0;false;"41018;41932";6269509381;-73.74198;45.572102;"44150;44360;44039";6269509575;-73.7484;45.568901;0;44;45;9312760;Bus : 50 O - Direction Terminus Le Carrefour;"";STL;50O;Montée Saint-François / Face Au Pénitencier;Terminus Le Carrefour
45760900;"{\"type\":\"LineString\",\"coordinates\":[[-73.7480536,45.5693169],[-73.7477738,45.569102],[-73.7477012,45.5690397],[-73.7476345,45.569001],[-73.747466,45.5689034],[-73.7473901,45.5688594],[-73.7472267,45.5687802],[-73.7470932,45.5687155]]}";6;Avenue Terry Fox;2;50;false;false;false;false;false;false;101.0;1;0;0;0;0;false;"41018;41932";6269509381;-73.74198;45.572102;"44150;44360;44039";6269509575;-73.7484;45.568901;0;44;45;9312760;Bus : 50 O - Direction Terminus Le Carrefour;"";STL;50O;Montée Saint-François / Face Au Pénitencier;Terminus Le Carrefour
662152608;"{\"type\":\"LineString\",\"coordinates\":[[-73.7475508,45.5684635],[-73.7470932,45.5687155]]}";7;"";1;50;false;false;true;false;false;false;46.0;0;0;0;0;0;false;"41018;41932";6269509381;-73.74198;45.572102;"44150;44360;44039";6269509575;-73.7484;45.568901;0;44;45;9312760;Bus : 50 O - Direction Terminus Le Carrefour;"";STL;50O;Montée Saint-François / Face Au Pénitencier;Terminus Le Carrefour
694409796;"{\"type\":\"LineString\",\"coordinates\":[[-73.7475508,45.5684635],[-73.7478552,45.5687373]]}";8;"";1;50;false;true;true;false;false;false;39.0;0;0;0;0;0;false;"41018;41932";6269509381;-73.74198;45.572102;"44150;44360;44039";6269509575;-73.7484;45.568901;0;44;45;9312760;Bus : 50 O - Direction Terminus Le Carrefour;"";STL;50O;Montée Saint-François / Face Au Pénitencier;Terminus Le Carrefour
695760828;"{\"type\":\"LineString\",\"coordinates\":[[-73.7478552,45.5687373],[-73.7480061,45.5688715]]}";9;"";1;50;false;true;true;false;false;false;19.0;0;0;0;0;0;false;"41018;41932";6269509381;-73.74198;45.572102;"44150;44360;44039";6269509575;-73.7484;45.568901;1;44;45;9312760;Bus : 50 O - Direction Terminus Le Carrefour;"";STL;50O;Montée Saint-François / Face Au Pénitencier;Terminus Le Carrefour
