way_id;shape;index;name;nb_lanes;legal_speed;speed_zone_30;oneway;shares_bike;bike_box;bus_lane;dedicated_bus_lane;length;nb_traffic_signals;nb_crossings;nb_stops;nb_give_ways;nb_lvl_crossings;roundabout;stop_id_orig;node_id_orig;coord_x_orig;coord_y_orig;stop_id_dest;node_id_dest;coord_x_dest;coord_y_dest;nb_neighbouring_ways_bus_stop;ordre_orig;ordre_dest;id_line;line_name;colour;operator;ref;from;to
607207178;"{\"type\":\"LineString\",\"coordinates\":[[-73.5349823,45.5964653],[-73.5343249,45.5962651]]}";1;Rue Honoré-Beaugrand;2;50;false;false;true;false;false;false;56.0;1;0;0;0;0;false;53275;5756974209;-73.534267;45.596528;53303;5756974208;-73.539855;45.594232;1;0;1;8443641;Bus 18 : Beaubien Ouest;"";STM;18-O;Station Honoré-Beaugrand / Terminus Sud;Saint-Laurent / Saint-Zotique
475769587;"{\"type\":\"LineString\",\"coordinates\":[[-73.5351548,45.5965148],[-73.5349823,45.5964653]]}";2;Rue Honoré-Beaugrand;2;50;false;false;true;false;false;false;15.0;2;0;0;0;0;false;53275;5756974209;-73.534267;45.596528;53303;5756974208;-73.539855;45.594232;0;0;1;8443641;Bus 18 : Beaubien Ouest;"";STM;18-O;Station Honoré-Beaugrand / Terminus Sud;Saint-Laurent / Saint-Zotique
452652540;"{\"type\":\"LineString\",\"coordinates\":[[-73.5351548,45.5965148],[-73.5354812,45.5959845]]}";3;Rue Sherbrooke Est;2;50;false;true;true;false;false;false;65.0;1;0;0;0;0;false;53275;5756974209;-73.534267;45.596528;53303;5756974208;-73.539855;45.594232;0;0;1;8443641;Bus 18 : Beaubien Ouest;"";STM;18-O;Station Honoré-Beaugrand / Terminus Sud;Saint-Laurent / Saint-Zotique
452652546;"{\"type\":\"LineString\",\"coordinates\":[[-73.5354812,45.5959845],[-73.5358085,45.5954308]]}";4;Rue Sherbrooke Est;2;50;false;true;true;false;false;false;67.0;0;0;0;0;0;false;53275;5756974209;-73.534267;45.596528;53303;5756974208;-73.539855;45.594232;0;0;1;8443641;Bus 18 : Beaubien Ouest;"";STM;18-O;Station Honoré-Beaugrand / Terminus Sud;Saint-Laurent / Saint-Zotique
455478688;"{\"type\":\"LineString\",\"coordinates\":[[-73.5358085,45.5954308],[-73.5358557,45.5953589]]}";5;Rue Sherbrooke Est;2;50;false;true;true;false;false;false;9.0;1;0;0;0;0;false;53275;5756974209;-73.534267;45.596528;53303;5756974208;-73.539855;45.594232;0;0;1;8443641;Bus 18 : Beaubien Ouest;"";STM;18-O;Station Honoré-Beaugrand / Terminus Sud;Saint-Laurent / Saint-Zotique
452652536;"{\"type\":\"LineString\",\"coordinates\":[[-73.5358557,45.5953589],[-73.5361342,45.5948815]]}";6;Rue Sherbrooke Est;2;50;false;true;true;false;false;false;58.0;2;0;0;0;0;false;53275;5756974209;-73.534267;45.596528;53303;5756974208;-73.539855;45.594232;0;0;1;8443641;Bus 18 : Beaubien Ouest;"";STM;18-O;Station Honoré-Beaugrand / Terminus Sud;Saint-Laurent / Saint-Zotique
393698268;"{\"type\":\"LineString\",\"coordinates\":[[-73.5361342,45.5948815],[-73.5363621,45.5944918],[-73.5364829,45.5942947]]}";7;Rue Sherbrooke Est;2;50;false;true;true;false;false;false;71.0;1;0;0;0;0;false;53275;5756974209;-73.534267;45.596528;53303;5756974208;-73.539855;45.594232;0;0;1;8443641;Bus 18 : Beaubien Ouest;"";STM;18-O;Station Honoré-Beaugrand / Terminus Sud;Saint-Laurent / Saint-Zotique
455314972;"{\"type\":\"LineString\",\"coordinates\":[[-73.5364829,45.5942947],[-73.5365547,45.5941627]]}";8;Rue Sherbrooke Est;2;50;false;true;true;false;false;false;16.0;1;0;0;0;0;false;53275;5756974209;-73.534267;45.596528;53303;5756974208;-73.539855;45.594232;0;0;1;8443641;Bus 18 : Beaubien Ouest;"";STM;18-O;Station Honoré-Beaugrand / Terminus Sud;Saint-Laurent / Saint-Zotique
27439877;"{\"type\":\"LineString\",\"coordinates\":[[-73.5365547,45.5941627],[-73.5363896,45.5941133]]}";9;"";1;50;false;true;true;false;false;false;14.0;2;0;0;0;0;false;53275;5756974209;-73.534267;45.596528;53303;5756974208;-73.539855;45.594232;0;0;1;8443641;Bus 18 : Beaubien Ouest;"";STM;18-O;Station Honoré-Beaugrand / Terminus Sud;Saint-Laurent / Saint-Zotique
680923343;"{\"type\":\"LineString\",\"coordinates\":[[-73.5363896,45.5941133],[-73.535955,45.5939837]]}";10;"";1;50;false;true;true;false;false;false;37.0;1;0;0;0;0;false;53275;5756974209;-73.534267;45.596528;53303;5756974208;-73.539855;45.594232;0;0;1;8443641;Bus 18 : Beaubien Ouest;"";STM;18-O;Station Honoré-Beaugrand / Terminus Sud;Saint-Laurent / Saint-Zotique
366056242;"{\"type\":\"LineString\",\"coordinates\":[[-73.535955,45.5939837],[-73.5342934,45.5934782],[-73.5340824,45.5934018],[-73.5339845,45.593294],[-73.5339944,45.5931999],[-73.5340557,45.5931307],[-73.5341684,45.5930844],[-73.5343414,45.593085],[-73.5350823,45.5931586]]}";11;"";1;50;false;true;true;false;false;false;276.0;0;0;0;0;0;false;53275;5756974209;-73.534267;45.596528;53303;5756974208;-73.539855;45.594232;0;0;1;8443641;Bus 18 : Beaubien Ouest;"";STM;18-O;Station Honoré-Beaugrand / Terminus Sud;Saint-Laurent / Saint-Zotique
607207177;"{\"type\":\"LineString\",\"coordinates\":[[-73.5350823,45.5931586],[-73.5360938,45.5932965]]}";12;Rue De Boucherville;1;50;false;true;true;false;false;false;81.0;0;0;0;0;0;false;53275;5756974209;-73.534267;45.596528;53303;5756974208;-73.539855;45.594232;0;0;1;8443641;Bus 18 : Beaubien Ouest;"";STM;18-O;Station Honoré-Beaugrand / Terminus Sud;Saint-Laurent / Saint-Zotique
528139661;"{\"type\":\"LineString\",\"coordinates\":[[-73.5360938,45.5932965],[-73.5372743,45.5935282],[-73.5378439,45.5936624],[-73.5389398,45.5939496],[-73.5397035,45.5941205],[-73.5400861,45.5942175]]}";13;Rue De Boucherville;3;50;false;true;true;false;false;false;164.0;0;0;0;0;0;false;53275;5756974209;-73.534267;45.596528;53303;5756974208;-73.539855;45.594232;1;0;1;8443641;Bus 18 : Beaubien Ouest;"";STM;18-O;Station Honoré-Beaugrand / Terminus Sud;Saint-Laurent / Saint-Zotique
683259147;"{\"type\":\"LineString\",\"coordinates\":[[-73.5400861,45.5942175],[-73.5401961,45.5942452]]}";1;Rue De Boucherville;3;50;false;true;true;false;false;false;10.0;0;0;0;0;0;false;53303;5756974208;-73.539855;45.594232;50109;5756974207;-73.544053;45.595424;2;1;2;8443641;Bus 18 : Beaubien Ouest;"";STM;18-O;Station Honoré-Beaugrand / Terminus Sud;Saint-Laurent / Saint-Zotique
366056227;"{\"type\":\"LineString\",\"coordinates\":[[-73.5401961,45.5942452],[-73.5402763,45.594275],[-73.5404699,45.5943215],[-73.5410508,45.5944504],[-73.5418234,45.5946531],[-73.5427962,45.5949055],[-73.5433687,45.5951317],[-73.5442338,45.5954735],[-73.5452697,45.5959455]]}";2;Rue De Boucherville;3;50;false;true;true;false;false;false;441.0;0;0;0;0;0;false;53303;5756974208;-73.539855;45.594232;50109;5756974207;-73.544053;45.595424;2;1;2;8443641;Bus 18 : Beaubien Ouest;"";STM;18-O;Station Honoré-Beaugrand / Terminus Sud;Saint-Laurent / Saint-Zotique
366056227;"{\"type\":\"LineString\",\"coordinates\":[[-73.5401961,45.5942452],[-73.5402763,45.594275],[-73.5404699,45.5943215],[-73.5410508,45.5944504],[-73.5418234,45.5946531],[-73.5427962,45.5949055],[-73.5433687,45.5951317],[-73.5442338,45.5954735],[-73.5452697,45.5959455]]}";1;Rue De Boucherville;3;50;false;true;true;false;false;false;220.5;0;0;0;0;0;false;50109;5756974207;-73.544053;45.595424;53849;5756974206;-73.545809;45.596172;1;2;3;8443641;Bus 18 : Beaubien Ouest;"";STM;18-O;Station Honoré-Beaugrand / Terminus Sud;Saint-Laurent / Saint-Zotique
607207176;"{\"type\":\"LineString\",\"coordinates\":[[-73.5452697,45.5959455],[-73.546818,45.5965593],[-73.5476046,45.5968843],[-73.5483909,45.5972183],[-73.5491841,45.5975594],[-73.5493201,45.5976092]]}";2;Boulevard Louis-H.-La Fontaine;3;50;false;true;true;false;false;false;183.0;2;0;0;0;0;false;50109;5756974207;-73.544053;45.595424;53849;5756974206;-73.545809;45.596172;1;2;3;8443641;Bus 18 : Beaubien Ouest;"";STM;18-O;Station Honoré-Beaugrand / Terminus Sud;Saint-Laurent / Saint-Zotique
607207176;"{\"type\":\"LineString\",\"coordinates\":[[-73.5452697,45.5959455],[-73.546818,45.5965593],[-73.5476046,45.5968843],[-73.5483909,45.5972183],[-73.5491841,45.5975594],[-73.5493201,45.5976092]]}";1;Boulevard Louis-H.-La Fontaine;3;50;false;true;true;false;false;false;183.0;2;0;0;0;0;false;53849;5756974206;-73.545809;45.596172;54694;5756974205;-73.550896;45.596944;1;3;4;8443641;Bus 18 : Beaubien Ouest;"";STM;18-O;Station Honoré-Beaugrand / Terminus Sud;Saint-Laurent / Saint-Zotique
617518803;"{\"type\":\"LineString\",\"coordinates\":[[-73.5493201,45.5976092],[-73.549396,45.5975284]]}";2;Boulevard Yves-Prévost;2;50;false;true;false;false;false;false;11.0;1;0;0;0;0;false;53849;5756974206;-73.545809;45.596172;54694;5756974205;-73.550896;45.596944;0;3;4;8443641;Bus 18 : Beaubien Ouest;"";STM;18-O;Station Honoré-Beaugrand / Terminus Sud;Saint-Laurent / Saint-Zotique
46688924;"{\"type\":\"LineString\",\"coordinates\":[[-73.549396,45.5975284],[-73.5496852,45.5972208]]}";3;Boulevard Yves-Prévost;2;50;false;true;false;false;false;false;41.0;0;0;0;0;0;false;53849;5756974206;-73.545809;45.596172;54694;5756974205;-73.550896;45.596944;0;3;4;8443641;Bus 18 : Beaubien Ouest;"";STM;18-O;Station Honoré-Beaugrand / Terminus Sud;Saint-Laurent / Saint-Zotique
617518801;"{\"type\":\"LineString\",\"coordinates\":[[-73.5496852,45.5972208],[-73.5497554,45.5971462]]}";4;Boulevard Yves-Prévost;2;50;false;true;false;false;false;false;10.0;1;0;0;0;0;false;53849;5756974206;-73.545809;45.596172;54694;5756974205;-73.550896;45.596944;0;3;4;8443641;Bus 18 : Beaubien Ouest;"";STM;18-O;Station Honoré-Beaugrand / Terminus Sud;Saint-Laurent / Saint-Zotique
59434220;"{\"type\":\"LineString\",\"coordinates\":[[-73.5497554,45.5971462],[-73.5498479,45.5970782],[-73.5502352,45.5966262]]}";5;Boulevard des Roseraies;2;50;false;true;false;false;false;false;70.0;1;0;0;0;0;false;53849;5756974206;-73.545809;45.596172;54694;5756974205;-73.550896;45.596944;0;3;4;8443641;Bus 18 : Beaubien Ouest;"";STM;18-O;Station Honoré-Beaugrand / Terminus Sud;Saint-Laurent / Saint-Zotique
59434218;"{\"type\":\"LineString\",\"coordinates\":[[-73.5529444,45.5976782],[-73.5521077,45.5973533],[-73.5518272,45.5972444],[-73.5511159,45.5969682],[-73.5502352,45.5966262]]}";6;Rue du Val-d'Anjou;1;50;false;false;true;false;false;false;121.0;0;0;0;0;0;false;53849;5756974206;-73.545809;45.596172;54694;5756974205;-73.550896;45.596944;1;3;4;8443641;Bus 18 : Beaubien Ouest;"";STM;18-O;Station Honoré-Beaugrand / Terminus Sud;Saint-Laurent / Saint-Zotique
59434218;"{\"type\":\"LineString\",\"coordinates\":[[-73.5529444,45.5976782],[-73.5521077,45.5973533],[-73.5518272,45.5972444],[-73.5511159,45.5969682],[-73.5502352,45.5966262]]}";1;Rue du Val-d'Anjou;1;50;false;false;true;false;false;false;121.0;0;0;0;0;0;false;54694;5756974205;-73.550896;45.596944;54633;303687941;-73.553458;45.597947;1;4;5;8443641;Bus 18 : Beaubien Ouest;"";STM;18-O;Station Honoré-Beaugrand / Terminus Sud;Saint-Laurent / Saint-Zotique
607207183;"{\"type\":\"LineString\",\"coordinates\":[[-73.5538397,45.5979914],[-73.5529444,45.5976782]]}";2;Rue du Val-d'Anjou;1;50;false;false;true;false;false;false;39.0;0;0;0;0;0;false;54694;5756974205;-73.550896;45.596944;54633;303687941;-73.553458;45.597947;1;4;5;8443641;Bus 18 : Beaubien Ouest;"";STM;18-O;Station Honoré-Beaugrand / Terminus Sud;Saint-Laurent / Saint-Zotique
607207183;"{\"type\":\"LineString\",\"coordinates\":[[-73.5538397,45.5979914],[-73.5529444,45.5976782]]}";1;Rue du Val-d'Anjou;1;50;false;false;true;false;false;false;39.0;0;0;0;0;0;false;54633;303687941;-73.553458;45.597947;54625;5756974204;-73.555063;45.596917;1;5;6;8443641;Bus 18 : Beaubien Ouest;"";STM;18-O;Station Honoré-Beaugrand / Terminus Sud;Saint-Laurent / Saint-Zotique
22909971;"{\"type\":\"LineString\",\"coordinates\":[[-73.5540039,45.5980488],[-73.5538397,45.5979914]]}";2;Rue du Val-d'Anjou;1;50;false;false;true;false;false;false;15.0;0;0;0;0;0;false;54633;303687941;-73.553458;45.597947;54625;5756974204;-73.555063;45.596917;0;5;6;8443641;Bus 18 : Beaubien Ouest;"";STM;18-O;Station Honoré-Beaugrand / Terminus Sud;Saint-Laurent / Saint-Zotique
22909936;"{\"type\":\"LineString\",\"coordinates\":[[-73.5540039,45.5980488],[-73.5551014,45.596794]]}";3;Rue Beaubien Est;1;50;false;true;true;false;false;false;82.0;1;0;0;0;0;false;54633;303687941;-73.553458;45.597947;54625;5756974204;-73.555063;45.596917;1;5;6;8443641;Bus 18 : Beaubien Ouest;"";STM;18-O;Station Honoré-Beaugrand / Terminus Sud;Saint-Laurent / Saint-Zotique
617504967;"{\"type\":\"LineString\",\"coordinates\":[[-73.5551014,45.596794],[-73.555173,45.5967151]]}";1;Rue Beaubien Est;1;50;false;true;true;false;false;false;11.0;2;0;0;0;0;false;54625;5756974204;-73.555063;45.596917;54616;5756974203;-73.556279;45.59548;2;6;7;8443641;Bus 18 : Beaubien Ouest;"";STM;18-O;Station Honoré-Beaugrand / Terminus Sud;Saint-Laurent / Saint-Zotique
617504966;"{\"type\":\"LineString\",\"coordinates\":[[-73.555173,45.5967151],[-73.5565267,45.5952261]]}";2;Rue Beaubien Est;1;50;false;true;true;false;false;false;197.0;2;0;0;0;0;false;54625;5756974204;-73.555063;45.596917;54616;5756974203;-73.556279;45.59548;2;6;7;8443641;Bus 18 : Beaubien Ouest;"";STM;18-O;Station Honoré-Beaugrand / Terminus Sud;Saint-Laurent / Saint-Zotique
617504966;"{\"type\":\"LineString\",\"coordinates\":[[-73.555173,45.5967151],[-73.5565267,45.5952261]]}";1;Rue Beaubien Est;1;50;false;true;true;false;false;false;98.5;2;0;0;0;0;false;54616;5756974203;-73.556279;45.59548;52839;5756974202;-73.557899;45.593029;1;7;8;8443641;Bus 18 : Beaubien Ouest;"";STM;18-O;Station Honoré-Beaugrand / Terminus Sud;Saint-Laurent / Saint-Zotique
635298379;"{\"type\":\"LineString\",\"coordinates\":[[-73.5565267,45.5952261],[-73.5566183,45.5951282]]}";2;Rue Beaubien Est;1;50;false;true;true;false;false;false;14.0;2;0;0;0;0;false;54616;5756974203;-73.556279;45.59548;52839;5756974202;-73.557899;45.593029;0;7;8;8443641;Bus 18 : Beaubien Ouest;"";STM;18-O;Station Honoré-Beaugrand / Terminus Sud;Saint-Laurent / Saint-Zotique
564272759;"{\"type\":\"LineString\",\"coordinates\":[[-73.5566183,45.5951282],[-73.556873,45.594727],[-73.557125,45.5943441],[-73.5572674,45.5940746]]}";3;Rue Beaubien Est;1;50;false;true;true;false;false;false;128.0;1;0;0;0;0;false;54616;5756974203;-73.556279;45.59548;52839;5756974202;-73.557899;45.593029;0;7;8;8443641;Bus 18 : Beaubien Ouest;"";STM;18-O;Station Honoré-Beaugrand / Terminus Sud;Saint-Laurent / Saint-Zotique
564272758;"{\"type\":\"LineString\",\"coordinates\":[[-73.5572674,45.5940746],[-73.5578912,45.5928937]]}";4;Rue Beaubien Est;1;50;false;true;true;false;false;false;70.0;0;0;0;0;0;false;54616;5756974203;-73.556279;45.59548;52839;5756974202;-73.557899;45.593029;1;7;8;8443641;Bus 18 : Beaubien Ouest;"";STM;18-O;Station Honoré-Beaugrand / Terminus Sud;Saint-Laurent / Saint-Zotique
455303019;"{\"type\":\"LineString\",\"coordinates\":[[-73.5578912,45.5928937],[-73.5583041,45.5922178]]}";1;Rue Beaubien Est;1;50;false;true;true;false;false;false;82.0;0;0;0;0;0;false;52839;5756974202;-73.557899;45.593029;52794;5756974201;-73.559412;45.590535;2;8;9;8443641;Bus 18 : Beaubien Ouest;"";STM;18-O;Station Honoré-Beaugrand / Terminus Sud;Saint-Laurent / Saint-Zotique
455303020;"{\"type\":\"LineString\",\"coordinates\":[[-73.5583041,45.5922178],[-73.559408,45.5904107]]}";2;Rue Beaubien Est;1;50;false;true;true;false;false;false;219.0;0;0;0;0;0;false;52839;5756974202;-73.557899;45.593029;52794;5756974201;-73.559412;45.590535;2;8;9;8443641;Bus 18 : Beaubien Ouest;"";STM;18-O;Station Honoré-Beaugrand / Terminus Sud;Saint-Laurent / Saint-Zotique
455303024;"{\"type\":\"LineString\",\"coordinates\":[[-73.559408,45.5904107],[-73.5598818,45.5896407],[-73.5601321,45.5892285],[-73.5601729,45.5891586]]}";1;Rue Beaubien Est;1;50;false;true;true;false;false;false;152.0;0;0;0;0;0;false;52794;5756974201;-73.559412;45.590535;52749;5756974200;-73.560554;45.588647;2;9;10;8443641;Bus 18 : Beaubien Ouest;"";STM;18-O;Station Honoré-Beaugrand / Terminus Sud;Saint-Laurent / Saint-Zotique
455303018;"{\"type\":\"LineString\",\"coordinates\":[[-73.5601729,45.5891586],[-73.5605553,45.5885266]]}";2;Rue Beaubien Est;1;50;false;true;true;false;false;false;77.0;0;0;0;0;0;false;52794;5756974201;-73.559412;45.590535;52749;5756974200;-73.560554;45.588647;2;9;10;8443641;Bus 18 : Beaubien Ouest;"";STM;18-O;Station Honoré-Beaugrand / Terminus Sud;Saint-Laurent / Saint-Zotique
455303026;"{\"type\":\"LineString\",\"coordinates\":[[-73.5605553,45.5885266],[-73.5606043,45.5884507],[-73.5612479,45.58736],[-73.5616149,45.5867376],[-73.5618664,45.5863112]]}";1;Rue Beaubien Est;1;50;false;true;true;false;false;false;133.5;0;0;0;0;0;false;52721;5756974199;-73.561739;45.586657;52672;5756974198;-73.562823;45.584607;1;11;12;8443641;Bus 18 : Beaubien Ouest;"";STM;18-O;Station Honoré-Beaugrand / Terminus Sud;Saint-Laurent / Saint-Zotique
471808390;"{\"type\":\"LineString\",\"coordinates\":[[-73.5618664,45.5863112],[-73.5619666,45.5861438],[-73.5620176,45.5860521]]}";2;Rue Beaubien Est;1;50;false;true;true;false;false;false;32.0;0;0;0;0;0;false;52721;5756974199;-73.561739;45.586657;52672;5756974198;-73.562823;45.584607;0;11;12;8443641;Bus 18 : Beaubien Ouest;"";STM;18-O;Station Honoré-Beaugrand / Terminus Sud;Saint-Laurent / Saint-Zotique
475825213;"{\"type\":\"LineString\",\"coordinates\":[[-73.5620176,45.5860521],[-73.562195,45.5857335]]}";3;Rue Beaubien Est;1;50;false;true;true;false;false;false;38.0;0;0;0;0;0;false;52721;5756974199;-73.561739;45.586657;52672;5756974198;-73.562823;45.584607;0;11;12;8443641;Bus 18 : Beaubien Ouest;"";STM;18-O;Station Honoré-Beaugrand / Terminus Sud;Saint-Laurent / Saint-Zotique
22909933;"{\"type\":\"LineString\",\"coordinates\":[[-73.562195,45.5857335],[-73.5623452,45.5854292],[-73.5624287,45.5851465]]}";4;Rue Beaubien Est;1;50;false;true;true;false;false;false;68.0;0;0;0;0;0;false;52721;5756974199;-73.561739;45.586657;52672;5756974198;-73.562823;45.584607;0;11;12;8443641;Bus 18 : Beaubien Ouest;"";STM;18-O;Station Honoré-Beaugrand / Terminus Sud;Saint-Laurent / Saint-Zotique
358966518;"{\"type\":\"LineString\",\"coordinates\":[[-73.5652795,45.5803057],[-73.5652215,45.580415],[-73.5648764,45.580978],[-73.5642191,45.5820866],[-73.5638193,45.5827608],[-73.5636843,45.5829884],[-73.5630183,45.5841169],[-73.5628193,45.5844541],[-73.5624704,45.5850625],[-73.5624287,45.5851465]]}";5;Rue Beaubien Est;2;50;false;false;true;false;false;false;291.0;0;0;0;0;0;false;52721;5756974199;-73.561739;45.586657;52672;5756974198;-73.562823;45.584607;1;11;12;8443641;Bus 18 : Beaubien Ouest;"";STM;18-O;Station Honoré-Beaugrand / Terminus Sud;Saint-Laurent / Saint-Zotique
358966518;"{\"type\":\"LineString\",\"coordinates\":[[-73.5652795,45.5803057],[-73.5652215,45.580415],[-73.5648764,45.580978],[-73.5642191,45.5820866],[-73.5638193,45.5827608],[-73.5636843,45.5829884],[-73.5630183,45.5841169],[-73.5628193,45.5844541],[-73.5624704,45.5850625],[-73.5624287,45.5851465]]}";1;Rue Beaubien Est;2;50;false;false;true;false;false;false;291.0;0;0;0;0;0;false;52601;5756974196;-73.565248;45.580531;52575;5756974195;-73.566239;45.578816;1;14;15;8443641;Bus 18 : Beaubien Ouest;"";STM;18-O;Station Honoré-Beaugrand / Terminus Sud;Saint-Laurent / Saint-Zotique
455264705;"{\"type\":\"LineString\",\"coordinates\":[[-73.5659304,45.5791821],[-73.5652795,45.5803057]]}";2;Rue Beaubien Est;2;50;false;false;true;false;false;false;135.0;0;0;0;0;0;false;52601;5756974196;-73.565248;45.580531;52575;5756974195;-73.566239;45.578816;0;14;15;8443641;Bus 18 : Beaubien Ouest;"";STM;18-O;Station Honoré-Beaugrand / Terminus Sud;Saint-Laurent / Saint-Zotique
455264706;"{\"type\":\"LineString\",\"coordinates\":[[-73.5670223,45.5773546],[-73.5665467,45.5781505],[-73.5661984,45.5787336],[-73.5659304,45.5791821]]}";3;Rue Beaubien Est;2;50;false;false;true;false;false;false;110.5;0;0;0;0;0;false;52601;5756974196;-73.565248;45.580531;52575;5756974195;-73.566239;45.578816;1;14;15;8443641;Bus 18 : Beaubien Ouest;"";STM;18-O;Station Honoré-Beaugrand / Terminus Sud;Saint-Laurent / Saint-Zotique
455264706;"{\"type\":\"LineString\",\"coordinates\":[[-73.5670223,45.5773546],[-73.5665467,45.5781505],[-73.5661984,45.5787336],[-73.5659304,45.5791821]]}";1;Rue Beaubien Est;2;50;false;false;true;false;false;false;110.5;0;0;0;0;0;false;52538;5756974194;-73.567007;45.577538;52513;5756974193;-73.567815;45.576376;1;16;17;8443641;Bus 18 : Beaubien Ouest;"";STM;18-O;Station Honoré-Beaugrand / Terminus Sud;Saint-Laurent / Saint-Zotique
455264708;"{\"type\":\"LineString\",\"coordinates\":[[-73.5695812,45.5741895],[-73.5689266,45.5748809],[-73.5683813,45.575565],[-73.5678154,45.5762397],[-73.5674034,45.5768134],[-73.5670223,45.5773546]]}";2;Rue Beaubien Est;2;50;false;false;true;false;false;false;202.5;0;0;0;0;0;false;52538;5756974194;-73.567007;45.577538;52513;5756974193;-73.567815;45.576376;1;16;17;8443641;Bus 18 : Beaubien Ouest;"";STM;18-O;Station Honoré-Beaugrand / Terminus Sud;Saint-Laurent / Saint-Zotique
460914560;"{\"type\":\"LineString\",\"coordinates\":[[-73.5701026,45.5735847],[-73.5695812,45.5741895]]}";1;Rue Beaubien Est;2;50;false;false;true;false;false;false;79.0;0;0;0;0;0;false;54129;5756974192;-73.569569;45.574326;52396;5756974191;-73.571153;45.572506;2;18;19;8443641;Bus 18 : Beaubien Ouest;"";STM;18-O;Station Honoré-Beaugrand / Terminus Sud;Saint-Laurent / Saint-Zotique
460914561;"{\"type\":\"LineString\",\"coordinates\":[[-73.5706613,45.5729743],[-73.5701026,45.5735847]]}";2;Rue Beaubien Est;2;50;false;false;true;false;false;false;81.0;0;0;0;0;0;false;54129;5756974192;-73.569569;45.574326;52396;5756974191;-73.571153;45.572506;0;18;19;8443641;Bus 18 : Beaubien Ouest;"";STM;18-O;Station Honoré-Beaugrand / Terminus Sud;Saint-Laurent / Saint-Zotique
460914398;"{\"type\":\"LineString\",\"coordinates\":[[-73.5711575,45.5723923],[-73.5706613,45.5729743]]}";3;Rue Beaubien Est;2;50;false;false;true;false;false;false;76.0;0;0;0;0;0;false;54129;5756974192;-73.569569;45.574326;52396;5756974191;-73.571153;45.572506;2;18;19;8443641;Bus 18 : Beaubien Ouest;"";STM;18-O;Station Honoré-Beaugrand / Terminus Sud;Saint-Laurent / Saint-Zotique
460914395;"{\"type\":\"LineString\",\"coordinates\":[[-73.5716731,45.5717775],[-73.5713877,45.5721178],[-73.5711575,45.5723923]]}";1;Rue Beaubien Est;2;50;false;false;true;false;false;false;80.0;0;0;0;0;0;false;52396;5756974191;-73.571153;45.572506;52358;5756974190;-73.572275;45.571254;2;19;20;8443641;Bus 18 : Beaubien Ouest;"";STM;18-O;Station Honoré-Beaugrand / Terminus Sud;Saint-Laurent / Saint-Zotique
455264707;"{\"type\":\"LineString\",\"coordinates\":[[-73.5752028,45.5677311],[-73.5742578,45.5688144],[-73.5742172,45.568861],[-73.5741501,45.5689379],[-73.5731842,45.5700453],[-73.5727786,45.5705102],[-73.5722414,45.571126],[-73.5716731,45.5717775]]}";2;Rue Beaubien Est;2;50;false;false;true;false;false;false;527.0;0;0;0;0;0;false;52396;5756974191;-73.571153;45.572506;52358;5756974190;-73.572275;45.571254;2;19;20;8443641;Bus 18 : Beaubien Ouest;"";STM;18-O;Station Honoré-Beaugrand / Terminus Sud;Saint-Laurent / Saint-Zotique
455264704;"{\"type\":\"LineString\",\"coordinates\":[[-73.5756967,45.5671688],[-73.5752028,45.5677311]]}";1;Rue Beaubien Est;2;50;false;false;true;false;false;false;74.0;0;0;0;0;0;false;52262;5756974187;-73.575212;45.567877;52215;5756974186;-73.57622;45.56672;2;23;24;8443641;Bus 18 : Beaubien Ouest;"";STM;18-O;Station Honoré-Beaugrand / Terminus Sud;Saint-Laurent / Saint-Zotique
460907342;"{\"type\":\"LineString\",\"coordinates\":[[-73.5771786,45.5654837],[-73.5766867,45.566049],[-73.5761612,45.5666034],[-73.5756967,45.5671688]]}";2;Rue Beaubien Est;2;50;false;false;true;false;false;false;221.0;0;0;0;0;0;false;52262;5756974187;-73.575212;45.567877;52215;5756974186;-73.57622;45.56672;2;23;24;8443641;Bus 18 : Beaubien Ouest;"";STM;18-O;Station Honoré-Beaugrand / Terminus Sud;Saint-Laurent / Saint-Zotique
460907342;"{\"type\":\"LineString\",\"coordinates\":[[-73.5771786,45.5654837],[-73.5766867,45.566049],[-73.5761612,45.5666034],[-73.5756967,45.5671688]]}";1;Rue Beaubien Est;2;50;false;false;true;false;false;false;110.5;0;0;0;0;0;false;52215;5756974186;-73.57622;45.56672;52168;5756974185;-73.57818;45.564471;1;24;25;8443641;Bus 18 : Beaubien Ouest;"";STM;18-O;Station Honoré-Beaugrand / Terminus Sud;Saint-Laurent / Saint-Zotique
460907343;"{\"type\":\"LineString\",\"coordinates\":[[-73.577667,45.5648758],[-73.5771786,45.5654837]]}";2;Rue Beaubien Est;2;50;false;false;true;false;false;false;78.0;0;0;0;0;0;false;52215;5756974186;-73.57622;45.56672;52168;5756974185;-73.57818;45.564471;0;24;25;8443641;Bus 18 : Beaubien Ouest;"";STM;18-O;Station Honoré-Beaugrand / Terminus Sud;Saint-Laurent / Saint-Zotique
460907344;"{\"type\":\"LineString\",\"coordinates\":[[-73.5781555,45.5643114],[-73.577667,45.5648758]]}";3;Rue Beaubien Est;2;50;false;false;true;false;false;false;37.0;0;0;0;0;0;false;52215;5756974186;-73.57622;45.56672;52168;5756974185;-73.57818;45.564471;1;24;25;8443641;Bus 18 : Beaubien Ouest;"";STM;18-O;Station Honoré-Beaugrand / Terminus Sud;Saint-Laurent / Saint-Zotique
437093188;"{\"type\":\"LineString\",\"coordinates\":[[-73.5797704,45.5624915],[-73.5796976,45.562573],[-73.5796366,45.5626506]]}";1;Rue Beaubien Est;2;50;false;false;true;false;false;false;21.0;2;0;0;0;0;false;52127;281870483;-73.579644;45.562791;60635;281870476;-73.58094;45.561275;2;26;27;8443641;Bus 18 : Beaubien Ouest;"";STM;18-O;Station Honoré-Beaugrand / Terminus Sud;Saint-Laurent / Saint-Zotique
437093187;"{\"type\":\"LineString\",\"coordinates\":[[-73.5821848,45.559774],[-73.5819427,45.5600534],[-73.5818326,45.5601805],[-73.581569,45.5604766],[-73.5812344,45.560842],[-73.5809259,45.5611797],[-73.5802978,45.561869],[-73.579806,45.5624495],[-73.5797704,45.5624915]]}";2;Rue Beaubien Est;2;50;false;false;true;false;false;false;356.0;1;1;0;0;0;false;52127;281870483;-73.579644;45.562791;60635;281870476;-73.58094;45.561275;2;26;27;8443641;Bus 18 : Beaubien Ouest;"";STM;18-O;Station Honoré-Beaugrand / Terminus Sud;Saint-Laurent / Saint-Zotique
437093187;"{\"type\":\"LineString\",\"coordinates\":[[-73.5821848,45.559774],[-73.5819427,45.5600534],[-73.5818326,45.5601805],[-73.581569,45.5604766],[-73.5812344,45.560842],[-73.5809259,45.5611797],[-73.5802978,45.561869],[-73.579806,45.5624495],[-73.5797704,45.5624915]]}";1;Rue Beaubien Est;2;50;false;false;true;false;false;false;178.0;1;1;0;0;0;false;52074;281870473;-73.581537;45.560591;52020;281870470;-73.583306;45.558564;1;28;29;8443641;Bus 18 : Beaubien Ouest;"";STM;18-O;Station Honoré-Beaugrand / Terminus Sud;Saint-Laurent / Saint-Zotique
460737244;"{\"type\":\"LineString\",\"coordinates\":[[-73.5833563,45.5584046],[-73.5821848,45.559774]]}";2;Rue Beaubien Est;2;50;false;false;true;false;false;false;89.0;0;0;0;0;0;false;52074;281870473;-73.581537;45.560591;52020;281870470;-73.583306;45.558564;1;28;29;8443641;Bus 18 : Beaubien Ouest;"";STM;18-O;Station Honoré-Beaugrand / Terminus Sud;Saint-Laurent / Saint-Zotique
460737245;"{\"type\":\"LineString\",\"coordinates\":[[-73.5839537,45.5577273],[-73.5833563,45.5584046]]}";1;Rue Beaubien Est;2;50;false;false;true;false;false;false;89.0;0;0;0;0;0;false;52020;281870470;-73.583306;45.558564;51982;5756974184;-73.58513;45.556491;2;29;30;8443641;Bus 18 : Beaubien Ouest;"";STM;18-O;Station Honoré-Beaugrand / Terminus Sud;Saint-Laurent / Saint-Zotique
460737246;"{\"type\":\"LineString\",\"coordinates\":[[-73.5850165,45.5565232],[-73.5845227,45.5570718],[-73.5845177,45.557077],[-73.5839537,45.5577273]]}";2;Rue Beaubien Est;2;50;false;false;true;false;false;false;158.0;0;0;0;0;0;false;52020;281870470;-73.583306;45.558564;51982;5756974184;-73.58513;45.556491;0;29;30;8443641;Bus 18 : Beaubien Ouest;"";STM;18-O;Station Honoré-Beaugrand / Terminus Sud;Saint-Laurent / Saint-Zotique
460737789;"{\"type\":\"LineString\",\"coordinates\":[[-73.5851361,45.5563897],[-73.5850165,45.5565232]]}";3;Rue Beaubien Est;2;50;false;false;true;false;false;false;18.0;0;0;0;0;0;false;52020;281870470;-73.583306;45.558564;51982;5756974184;-73.58513;45.556491;2;29;30;8443641;Bus 18 : Beaubien Ouest;"";STM;18-O;Station Honoré-Beaugrand / Terminus Sud;Saint-Laurent / Saint-Zotique
460737246;"{\"type\":\"LineString\",\"coordinates\":[[-73.5850165,45.5565232],[-73.5845227,45.5570718],[-73.5845177,45.557077],[-73.5839537,45.5577273]]}";1;Rue Beaubien Est;2;50;false;false;true;false;false;false;158.0;0;0;0;0;0;false;51982;5756974184;-73.58513;45.556491;51944;281870463;-73.586253;45.555208;2;30;31;8443641;Bus 18 : Beaubien Ouest;"";STM;18-O;Station Honoré-Beaugrand / Terminus Sud;Saint-Laurent / Saint-Zotique
460737789;"{\"type\":\"LineString\",\"coordinates\":[[-73.5851361,45.5563897],[-73.5850165,45.5565232]]}";2;Rue Beaubien Est;2;50;false;false;true;false;false;false;18.0;0;0;0;0;0;false;51982;5756974184;-73.58513;45.556491;51944;281870463;-73.586253;45.555208;0;30;31;8443641;Bus 18 : Beaubien Ouest;"";STM;18-O;Station Honoré-Beaugrand / Terminus Sud;Saint-Laurent / Saint-Zotique
460737790;"{\"type\":\"LineString\",\"coordinates\":[[-73.5856601,45.5557781],[-73.5851361,45.5563897]]}";3;Rue Beaubien Est;2;50;false;false;true;false;false;false;80.0;0;0;0;0;0;false;51982;5756974184;-73.58513;45.556491;51944;281870463;-73.586253;45.555208;0;30;31;8443641;Bus 18 : Beaubien Ouest;"";STM;18-O;Station Honoré-Beaugrand / Terminus Sud;Saint-Laurent / Saint-Zotique
453533087;"{\"type\":\"LineString\",\"coordinates\":[[-73.5862661,45.5550867],[-73.5856601,45.5557781]]}";4;Rue Beaubien Est;2;50;false;false;true;false;false;false;91.0;0;0;0;0;0;false;51982;5756974184;-73.58513;45.556491;51944;281870463;-73.586253;45.555208;2;30;31;8443641;Bus 18 : Beaubien Ouest;"";STM;18-O;Station Honoré-Beaugrand / Terminus Sud;Saint-Laurent / Saint-Zotique
460738650;"{\"type\":\"LineString\",\"coordinates\":[[-73.5869092,45.5543379],[-73.5862661,45.5550867]]}";1;Rue Beaubien Est;2;50;false;false;true;false;false;false;98.0;0;0;0;0;0;false;51944;281870463;-73.586253;45.555208;51914;281870444;-73.587392;45.553892;2;31;32;8443641;Bus 18 : Beaubien Ouest;"";STM;18-O;Station Honoré-Beaugrand / Terminus Sud;Saint-Laurent / Saint-Zotique
460738651;"{\"type\":\"LineString\",\"coordinates\":[[-73.5873911,45.5537899],[-73.5869092,45.5543379]]}";2;Rue Beaubien Est;2;50;false;false;true;false;false;false;72.0;0;0;0;0;0;false;51944;281870463;-73.586253;45.555208;51914;281870444;-73.587392;45.553892;2;31;32;8443641;Bus 18 : Beaubien Ouest;"";STM;18-O;Station Honoré-Beaugrand / Terminus Sud;Saint-Laurent / Saint-Zotique
460738652;"{\"type\":\"LineString\",\"coordinates\":[[-73.5878137,45.5532832],[-73.5873911,45.5537899]]}";1;Rue Beaubien Est;2;50;false;false;true;false;false;false;66.0;0;0;0;0;0;false;51914;281870444;-73.587392;45.553892;51868;5756974183;-73.588697;45.552379;2;32;33;8443641;Bus 18 : Beaubien Ouest;"";STM;18-O;Station Honoré-Beaugrand / Terminus Sud;Saint-Laurent / Saint-Zotique
464121414;"{\"type\":\"LineString\",\"coordinates\":[[-73.589778,45.551037],[-73.5894861,45.5513725],[-73.5891741,45.551716],[-73.5888823,45.5520546],[-73.588696,45.5522699],[-73.5879271,45.5531598],[-73.5878576,45.5532306],[-73.5878137,45.5532832]]}";2;Rue Beaubien Est;2;50;false;false;true;false;false;false;293.0;0;0;0;0;0;false;51914;281870444;-73.587392;45.553892;51868;5756974183;-73.588697;45.552379;2;32;33;8443641;Bus 18 : Beaubien Ouest;"";STM;18-O;Station Honoré-Beaugrand / Terminus Sud;Saint-Laurent / Saint-Zotique
464121414;"{\"type\":\"LineString\",\"coordinates\":[[-73.589778,45.551037],[-73.5894861,45.5513725],[-73.5891741,45.551716],[-73.5888823,45.5520546],[-73.588696,45.5522699],[-73.5879271,45.5531598],[-73.5878576,45.5532306],[-73.5878137,45.5532832]]}";1;Rue Beaubien Est;2;50;false;false;true;false;false;false;146.5;0;0;0;0;0;false;51868;5756974183;-73.588697;45.552379;51835;5756974182;-73.590372;45.550462;1;33;34;8443641;Bus 18 : Beaubien Ouest;"";STM;18-O;Station Honoré-Beaugrand / Terminus Sud;Saint-Laurent / Saint-Zotique
464121412;"{\"type\":\"LineString\",\"coordinates\":[[-73.5903567,45.5503421],[-73.5900685,45.550689],[-73.589778,45.551037]]}";2;Rue Beaubien Est;2;50;false;false;true;false;false;false;45.0;1;0;0;0;0;false;51868;5756974183;-73.588697;45.552379;51835;5756974182;-73.590372;45.550462;1;33;34;8443641;Bus 18 : Beaubien Ouest;"";STM;18-O;Station Honoré-Beaugrand / Terminus Sud;Saint-Laurent / Saint-Zotique
464121413;"{\"type\":\"LineString\",\"coordinates\":[[-73.5909789,45.5496231],[-73.5906447,45.5500044],[-73.5903567,45.5503421]]}";1;Rue Beaubien Est;2;50;false;false;true;false;false;false;94.0;1;0;0;0;0;false;51835;5756974182;-73.590372;45.550462;51803;281865774;-73.591548;45.549103;2;34;35;8443641;Bus 18 : Beaubien Ouest;"";STM;18-O;Station Honoré-Beaugrand / Terminus Sud;Saint-Laurent / Saint-Zotique
464121409;"{\"type\":\"LineString\",\"coordinates\":[[-73.5915469,45.5489602],[-73.591239,45.5493191],[-73.5909969,45.5496013],[-73.5909789,45.5496231]]}";2;Rue Beaubien Est;2;50;false;false;true;false;false;false;86.0;1;0;0;0;0;false;51835;5756974182;-73.590372;45.550462;51803;281865774;-73.591548;45.549103;2;34;35;8443641;Bus 18 : Beaubien Ouest;"";STM;18-O;Station Honoré-Beaugrand / Terminus Sud;Saint-Laurent / Saint-Zotique
464121408;"{\"type\":\"LineString\",\"coordinates\":[[-73.5921819,45.5482891],[-73.5918518,45.5486374],[-73.5915653,45.5489398],[-73.5915469,45.5489602]]}";1;Rue Beaubien Est;2;50;false;false;true;false;false;false;90.0;1;0;0;0;0;false;51803;281865774;-73.591548;45.549103;61826;7431218641;-73.593046;45.547385;2;35;36;8443641;Bus 18 : Beaubien Ouest;"";STM;18-O;Station Honoré-Beaugrand / Terminus Sud;Saint-Laurent / Saint-Zotique
475308597;"{\"type\":\"LineString\",\"coordinates\":[[-73.5924571,45.5479596],[-73.5921819,45.5482891]]}";2;Rue Beaubien Est;2;50;false;false;true;false;false;false;43.0;0;0;0;0;0;false;51803;281865774;-73.591548;45.549103;61826;7431218641;-73.593046;45.547385;0;35;36;8443641;Bus 18 : Beaubien Ouest;"";STM;18-O;Station Honoré-Beaugrand / Terminus Sud;Saint-Laurent / Saint-Zotique
464696734;"{\"type\":\"LineString\",\"coordinates\":[[-73.5927482,45.5476197],[-73.5924571,45.5479596]]}";3;Rue Beaubien Est;2;50;false;false;true;false;false;false;45.0;0;0;0;0;0;false;51803;281865774;-73.591548;45.549103;61826;7431218641;-73.593046;45.547385;0;35;36;8443641;Bus 18 : Beaubien Ouest;"";STM;18-O;Station Honoré-Beaugrand / Terminus Sud;Saint-Laurent / Saint-Zotique
475308600;"{\"type\":\"LineString\",\"coordinates\":[[-73.5930498,45.5472939],[-73.5927482,45.5476197]]}";4;Rue Beaubien Est;2;50;false;false;true;false;false;false;44.0;0;0;0;0;0;false;51803;281865774;-73.591548;45.549103;61826;7431218641;-73.593046;45.547385;2;35;36;8443641;Bus 18 : Beaubien Ouest;"";STM;18-O;Station Honoré-Beaugrand / Terminus Sud;Saint-Laurent / Saint-Zotique
464696733;"{\"type\":\"LineString\",\"coordinates\":[[-73.5933817,45.5469354],[-73.5930498,45.5472939]]}";1;Rue Beaubien Est;2;50;false;false;true;false;false;false;48.0;0;0;0;0;0;false;61826;7431218641;-73.593046;45.547385;51739;5756974180;-73.594556;45.545649;2;36;37;8443641;Bus 18 : Beaubien Ouest;"";STM;18-O;Station Honoré-Beaugrand / Terminus Sud;Saint-Laurent / Saint-Zotique
475308627;"{\"type\":\"LineString\",\"coordinates\":[[-73.5939511,45.54625],[-73.5936628,45.5465971],[-73.5933817,45.5469354]]}";2;Rue Beaubien Est;2;50;false;false;true;false;false;false;89.0;0;0;0;0;0;false;61826;7431218641;-73.593046;45.547385;51739;5756974180;-73.594556;45.545649;0;36;37;8443641;Bus 18 : Beaubien Ouest;"";STM;18-O;Station Honoré-Beaugrand / Terminus Sud;Saint-Laurent / Saint-Zotique
341093411;"{\"type\":\"LineString\",\"coordinates\":[[-73.594564,45.5455384],[-73.594255,45.5458944],[-73.5939511,45.54625]]}";3;Rue Beaubien Est;2;50;false;false;true;false;false;false;93.0;0;0;0;0;0;false;61826;7431218641;-73.593046;45.547385;51739;5756974180;-73.594556;45.545649;2;36;37;8443641;Bus 18 : Beaubien Ouest;"";STM;18-O;Station Honoré-Beaugrand / Terminus Sud;Saint-Laurent / Saint-Zotique
464696717;"{\"type\":\"LineString\",\"coordinates\":[[-73.5961413,45.5437625],[-73.5958714,45.5440449],[-73.595629,45.5442918]]}";1;Rue Beaubien Est;2;50;false;false;true;false;false;false;72.0;0;0;0;0;0;false;51694;5756974179;-73.595555;45.54443;51677;5756974178;-73.59661;45.543306;2;38;39;8443641;Bus 18 : Beaubien Ouest;"";STM;18-O;Station Honoré-Beaugrand / Terminus Sud;Saint-Laurent / Saint-Zotique
464696718;"{\"type\":\"LineString\",\"coordinates\":[[-73.5963729,45.5434901],[-73.5961413,45.5437625]]}";2;Rue Beaubien Est;2;50;false;false;true;false;false;false;36.0;0;0;0;0;0;false;51694;5756974179;-73.595555;45.54443;51677;5756974178;-73.59661;45.543306;0;38;39;8443641;Bus 18 : Beaubien Ouest;"";STM;18-O;Station Honoré-Beaugrand / Terminus Sud;Saint-Laurent / Saint-Zotique
451899723;"{\"type\":\"LineString\",\"coordinates\":[[-73.5966555,45.5431728],[-73.5963729,45.5434901]]}";3;Rue Beaubien Est;2;50;false;false;true;false;false;false;42.0;1;0;0;0;0;false;51694;5756974179;-73.595555;45.54443;51677;5756974178;-73.59661;45.543306;2;38;39;8443641;Bus 18 : Beaubien Ouest;"";STM;18-O;Station Honoré-Beaugrand / Terminus Sud;Saint-Laurent / Saint-Zotique
464696708;"{\"type\":\"LineString\",\"coordinates\":[[-73.598321,45.541389],[-73.5980522,45.54168],[-73.5977757,45.541973]]}";1;Rue Beaubien Est;2;50;false;false;true;false;false;false;78.0;0;0;0;0;0;false;51654;281754806;-73.597754;45.54209;51628;281754811;-73.598908;45.540839;2;40;41;8443641;Bus 18 : Beaubien Ouest;"";STM;18-O;Station Honoré-Beaugrand / Terminus Sud;Saint-Laurent / Saint-Zotique
464696706;"{\"type\":\"LineString\",\"coordinates\":[[-73.5989152,45.5407314],[-73.598321,45.541389]]}";2;Rue Beaubien Est;2;50;false;false;true;false;false;false;87.0;1;0;0;0;0;false;51654;281754806;-73.597754;45.54209;51628;281754811;-73.598908;45.540839;2;40;41;8443641;Bus 18 : Beaubien Ouest;"";STM;18-O;Station Honoré-Beaugrand / Terminus Sud;Saint-Laurent / Saint-Zotique
464720644;"{\"type\":\"LineString\",\"coordinates\":[[-73.5995776,45.5400041],[-73.5989152,45.5407314]]}";1;Rue Beaubien Est;2;50;false;false;true;false;false;false;96.0;1;0;0;0;0;false;51628;281754811;-73.598908;45.540839;53850;281754815;-73.600213;45.539379;2;41;42;8443641;Bus 18 : Beaubien Ouest;"";STM;18-O;Station Honoré-Beaugrand / Terminus Sud;Saint-Laurent / Saint-Zotique
464720641;"{\"type\":\"LineString\",\"coordinates\":[[-73.6002297,45.539276],[-73.5995776,45.5400041]]}";2;Rue Beaubien Est;2;50;false;false;true;false;false;false;96.0;1;0;0;0;0;false;51628;281754811;-73.598908;45.540839;53850;281754815;-73.600213;45.539379;2;41;42;8443641;Bus 18 : Beaubien Ouest;"";STM;18-O;Station Honoré-Beaugrand / Terminus Sud;Saint-Laurent / Saint-Zotique
480194793;"{\"type\":\"LineString\",\"coordinates\":[[-73.6005275,45.5389376],[-73.6002297,45.539276]]}";1;Rue Beaubien Est;2;50;false;false;true;false;false;false;45.0;1;0;0;0;0;false;53850;281754815;-73.600213;45.539379;51584;281754818;-73.601488;45.537982;2;42;43;8443641;Bus 18 : Beaubien Ouest;"";STM;18-O;Station Honoré-Beaugrand / Terminus Sud;Saint-Laurent / Saint-Zotique
354345386;"{\"type\":\"LineString\",\"coordinates\":[[-73.6008415,45.5386016],[-73.6005275,45.5389376]]}";2;Rue Beaubien Est;2;50;false;false;true;false;false;false;45.0;0;0;0;0;0;false;53850;281754815;-73.600213;45.539379;51584;281754818;-73.601488;45.537982;0;42;43;8443641;Bus 18 : Beaubien Ouest;"";STM;18-O;Station Honoré-Beaugrand / Terminus Sud;Saint-Laurent / Saint-Zotique
464720640;"{\"type\":\"LineString\",\"coordinates\":[[-73.6011625,45.5382485],[-73.6008415,45.5386016]]}";3;Rue Beaubien Est;2;50;false;false;true;false;false;false;47.0;0;0;0;0;0;false;53850;281754815;-73.600213;45.539379;51584;281754818;-73.601488;45.537982;0;42;43;8443641;Bus 18 : Beaubien Ouest;"";STM;18-O;Station Honoré-Beaugrand / Terminus Sud;Saint-Laurent / Saint-Zotique
451896528;"{\"type\":\"LineString\",\"coordinates\":[[-73.6015425,45.5378308],[-73.6011625,45.5382485]]}";4;Rue Beaubien Est;2;50;false;false;true;false;false;false;56.0;1;0;0;0;0;false;53850;281754815;-73.600213;45.539379;51584;281754818;-73.601488;45.537982;2;42;43;8443641;Bus 18 : Beaubien Ouest;"";STM;18-O;Station Honoré-Beaugrand / Terminus Sud;Saint-Laurent / Saint-Zotique
451896407;"{\"type\":\"LineString\",\"coordinates\":[[-73.6019005,45.5374141],[-73.6015425,45.5378308]]}";1;Rue Beaubien Est;2;50;false;false;true;false;false;false;55.0;1;0;0;0;0;false;51584;281754818;-73.601488;45.537982;51550;286300120;-73.603049;45.536243;2;43;44;8443641;Bus 18 : Beaubien Ouest;"";STM;18-O;Station Honoré-Beaugrand / Terminus Sud;Saint-Laurent / Saint-Zotique
464735545;"{\"type\":\"LineString\",\"coordinates\":[[-73.6022224,45.5370498],[-73.6021826,45.5371],[-73.6019005,45.5374141]]}";2;Rue Beaubien Est;2;50;false;false;true;false;false;false;48.0;1;0;0;0;0;false;51584;281754818;-73.601488;45.537982;51550;286300120;-73.603049;45.536243;0;43;44;8443641;Bus 18 : Beaubien Ouest;"";STM;18-O;Station Honoré-Beaugrand / Terminus Sud;Saint-Laurent / Saint-Zotique
464735544;"{\"type\":\"LineString\",\"coordinates\":[[-73.6025284,45.5367275],[-73.6022224,45.5370498]]}";3;Rue Beaubien Est;2;50;false;false;true;false;false;false;44.0;1;0;0;0;0;false;51584;281754818;-73.601488;45.537982;51550;286300120;-73.603049;45.536243;0;43;44;8443641;Bus 18 : Beaubien Ouest;"";STM;18-O;Station Honoré-Beaugrand / Terminus Sud;Saint-Laurent / Saint-Zotique
475308569;"{\"type\":\"LineString\",\"coordinates\":[[-73.6027212,45.5365213],[-73.6025284,45.5367275]]}";4;Rue Beaubien Est;2;50;false;false;true;false;false;false;28.0;0;0;0;0;0;false;51584;281754818;-73.601488;45.537982;51550;286300120;-73.603049;45.536243;0;43;44;8443641;Bus 18 : Beaubien Ouest;"";STM;18-O;Station Honoré-Beaugrand / Terminus Sud;Saint-Laurent / Saint-Zotique
464735543;"{\"type\":\"LineString\",\"coordinates\":[[-73.6030732,45.5361334],[-73.6028042,45.5364285],[-73.6027212,45.5365213]]}";5;Rue Beaubien Est;2;50;false;false;true;false;false;false;52.0;1;0;0;0;0;false;51584;281754818;-73.601488;45.537982;51550;286300120;-73.603049;45.536243;2;43;44;8443641;Bus 18 : Beaubien Ouest;"";STM;18-O;Station Honoré-Beaugrand / Terminus Sud;Saint-Laurent / Saint-Zotique
475308568;"{\"type\":\"LineString\",\"coordinates\":[[-73.6034222,45.53575],[-73.6030732,45.5361334]]}";1;Rue Beaubien Est;2;50;false;false;true;false;false;false;51.0;1;0;0;0;0;false;51550;286300120;-73.603049;45.536243;51522;286300156;-73.604154;45.535053;2;44;45;8443641;Bus 18 : Beaubien Ouest;"";STM;18-O;Station Honoré-Beaugrand / Terminus Sud;Saint-Laurent / Saint-Zotique
464735542;"{\"type\":\"LineString\",\"coordinates\":[[-73.6037107,45.535442],[-73.6034222,45.53575]]}";2;Rue Beaubien Est;2;50;false;false;true;false;false;false;41.0;1;0;0;0;0;false;51550;286300120;-73.603049;45.536243;51522;286300156;-73.604154;45.535053;0;44;45;8443641;Bus 18 : Beaubien Ouest;"";STM;18-O;Station Honoré-Beaugrand / Terminus Sud;Saint-Laurent / Saint-Zotique
361482372;"{\"type\":\"LineString\",\"coordinates\":[[-73.6043224,45.5347399],[-73.604014,45.5350942],[-73.6037107,45.535442]]}";3;Rue Beaubien Est;2;50;false;false;true;false;false;false;92.0;1;0;1;0;0;false;51550;286300120;-73.603049;45.536243;51522;286300156;-73.604154;45.535053;2;44;45;8443641;Bus 18 : Beaubien Ouest;"";STM;18-O;Station Honoré-Beaugrand / Terminus Sud;Saint-Laurent / Saint-Zotique
361482372;"{\"type\":\"LineString\",\"coordinates\":[[-73.6043224,45.5347399],[-73.604014,45.5350942],[-73.6037107,45.535442]]}";1;Rue Beaubien Est;2;50;false;false;true;false;false;false;46.0;1;0;1;0;0;false;51522;286300156;-73.604154;45.535053;51509;286300171;-73.60499;45.534149;1;45;46;8443641;Bus 18 : Beaubien Ouest;"";STM;18-O;Station Honoré-Beaugrand / Terminus Sud;Saint-Laurent / Saint-Zotique
464735539;"{\"type\":\"LineString\",\"coordinates\":[[-73.6046166,45.5344221],[-73.6043224,45.5347399]]}";2;Rue Beaubien Est;2;50;false;false;true;false;false;false;43.0;0;0;1;0;0;false;51522;286300156;-73.604154;45.535053;51509;286300171;-73.60499;45.534149;0;45;46;8443641;Bus 18 : Beaubien Ouest;"";STM;18-O;Station Honoré-Beaugrand / Terminus Sud;Saint-Laurent / Saint-Zotique
454867298;"{\"type\":\"LineString\",\"coordinates\":[[-73.6050243,45.5339825],[-73.6046166,45.5344221]]}";3;Rue Beaubien Est;2;50;false;false;true;false;false;false;29.5;1;0;0;0;0;false;51522;286300156;-73.604154;45.535053;51509;286300171;-73.60499;45.534149;1;45;46;8443641;Bus 18 : Beaubien Ouest;"";STM;18-O;Station Honoré-Beaugrand / Terminus Sud;Saint-Laurent / Saint-Zotique
456591587;"{\"type\":\"LineString\",\"coordinates\":[[-73.6053768,45.533601],[-73.6050243,45.5339825]]}";1;Rue Beaubien Est;2;50;false;false;true;false;false;false;51.0;1;0;0;0;0;false;51509;286300171;-73.60499;45.534149;51481;5756974177;-73.606453;45.532512;2;46;47;8443641;Bus 18 : Beaubien Ouest;"";STM;18-O;Station Honoré-Beaugrand / Terminus Sud;Saint-Laurent / Saint-Zotique
464735535;"{\"type\":\"LineString\",\"coordinates\":[[-73.6057376,45.5332113],[-73.6053768,45.533601]]}";2;Rue Beaubien Est;2;50;false;false;true;false;false;false;52.0;0;0;0;0;0;false;51509;286300171;-73.60499;45.534149;51481;5756974177;-73.606453;45.532512;0;46;47;8443641;Bus 18 : Beaubien Ouest;"";STM;18-O;Station Honoré-Beaugrand / Terminus Sud;Saint-Laurent / Saint-Zotique
20226982;"{\"type\":\"LineString\",\"coordinates\":[[-73.6069477,45.5319042],[-73.6065169,45.5323696],[-73.6060718,45.5328503],[-73.6057376,45.5332113]]}";3;Rue Beaubien Est;2;50;false;false;true;false;false;false;174.0;1;0;0;0;0;false;51509;286300171;-73.60499;45.534149;51481;5756974177;-73.606453;45.532512;2;46;47;8443641;Bus 18 : Beaubien Ouest;"";STM;18-O;Station Honoré-Beaugrand / Terminus Sud;Saint-Laurent / Saint-Zotique
20226982;"{\"type\":\"LineString\",\"coordinates\":[[-73.6069477,45.5319042],[-73.6065169,45.5323696],[-73.6060718,45.5328503],[-73.6057376,45.5332113]]}";1;Rue Beaubien Est;2;50;false;false;true;false;false;false;87.0;1;0;0;0;0;false;51481;5756974177;-73.606453;45.532512;51441;5756974176;-73.608414;45.530407;1;47;48;8443641;Bus 18 : Beaubien Ouest;"";STM;18-O;Station Honoré-Beaugrand / Terminus Sud;Saint-Laurent / Saint-Zotique
464912859;"{\"type\":\"LineString\",\"coordinates\":[[-73.6073952,45.5314209],[-73.6069477,45.5319042]]}";2;Rue Beaubien Est;2;50;false;false;true;false;false;false;65.0;1;0;0;0;0;false;51481;5756974177;-73.606453;45.532512;51441;5756974176;-73.608414;45.530407;0;47;48;8443641;Bus 18 : Beaubien Ouest;"";STM;18-O;Station Honoré-Beaugrand / Terminus Sud;Saint-Laurent / Saint-Zotique
464735537;"{\"type\":\"LineString\",\"coordinates\":[[-73.6079064,45.530869],[-73.6073952,45.5314209]]}";3;Rue Beaubien Est;2;50;false;false;true;false;false;false;74.0;1;0;0;0;0;false;51481;5756974177;-73.606453;45.532512;51441;5756974176;-73.608414;45.530407;0;47;48;8443641;Bus 18 : Beaubien Ouest;"";STM;18-O;Station Honoré-Beaugrand / Terminus Sud;Saint-Laurent / Saint-Zotique
464735536;"{\"type\":\"LineString\",\"coordinates\":[[-73.6081693,45.5305849],[-73.6079064,45.530869]]}";4;Rue Beaubien Est;2;50;false;false;true;false;false;false;38.0;1;0;0;0;0;false;51481;5756974177;-73.606453;45.532512;51441;5756974176;-73.608414;45.530407;0;47;48;8443641;Bus 18 : Beaubien Ouest;"";STM;18-O;Station Honoré-Beaugrand / Terminus Sud;Saint-Laurent / Saint-Zotique
463454911;"{\"type\":\"LineString\",\"coordinates\":[[-73.6085192,45.5302067],[-73.6081693,45.5305849]]}";5;Rue Beaubien Est;2;50;false;false;true;false;false;false;25.5;1;0;0;0;0;false;51481;5756974177;-73.606453;45.532512;51441;5756974176;-73.608414;45.530407;1;47;48;8443641;Bus 18 : Beaubien Ouest;"";STM;18-O;Station Honoré-Beaugrand / Terminus Sud;Saint-Laurent / Saint-Zotique
463454911;"{\"type\":\"LineString\",\"coordinates\":[[-73.6085192,45.5302067],[-73.6081693,45.5305849]]}";1;Rue Beaubien Est;2;50;false;false;true;false;false;false;25.5;1;0;0;0;0;false;51441;5756974176;-73.608414;45.530407;54398;1743940560;-73.611216;45.53152;1;48;49;8443641;Bus 18 : Beaubien Ouest;"";STM;18-O;Station Honoré-Beaugrand / Terminus Sud;Saint-Laurent / Saint-Zotique
607207189;"{\"type\":\"LineString\",\"coordinates\":[[-73.6085192,45.5302067],[-73.6089947,45.530418],[-73.6094084,45.5306018],[-73.6107646,45.5312438],[-73.6111328,45.5314181]]}";2;Boulevard Saint-Laurent;1;50;false;true;true;false;false;false;245.0;2;0;0;0;0;false;51441;5756974176;-73.608414;45.530407;54398;1743940560;-73.611216;45.53152;1;48;49;8443641;Bus 18 : Beaubien Ouest;"";STM;18-O;Station Honoré-Beaugrand / Terminus Sud;Saint-Laurent / Saint-Zotique
