way_id;shape;index;name;nb_lanes;legal_speed;speed_zone_30;oneway;shares_bike;bike_box;bus_lane;dedicated_bus_lane;length;nb_traffic_signals;nb_crossings;nb_stops;nb_give_ways;nb_lvl_crossings;roundabout;stop_id_orig;node_id_orig;coord_x_orig;coord_y_orig;stop_id_dest;node_id_dest;coord_x_dest;coord_y_dest;nb_neighbouring_ways_bus_stop;ordre_orig;ordre_dest;id_line;line_name;colour;operator;ref;from;to
28471185;"{\"type\":\"LineString\",\"coordinates\":[[3.0404063,36.7472832],[3.0402236,36.7474455],[3.0401684,36.7475467],[3.040078,36.7477122],[3.0400037,36.7478263]]}";1;"";1;50;false;true;true;false;false;false;72.0;0;1;0;0;0;false;Place El Qos;991957515;3.0402566;36.7475776;COLONNE VOIROLE;3156575567;3.0433445;36.7538438;1;1;2;7996003;Bus: Hydra -> 1er Mai;"";ETUSA;88;Hydra;1er Mai
28471244;"{\"type\":\"LineString\",\"coordinates\":[[3.0400037,36.7478263],[3.0400015,36.7478303],[3.0399647,36.7478963],[3.0393389,36.7489493],[3.0391404,36.7492995],[3.0390514,36.7494907],[3.0390312,36.7495341]]}";2;Boulevard Hamedine Mohamed Saïd;1;50;false;false;true;false;false;false;212.0;0;1;0;0;0;false;Place El Qos;991957515;3.0402566;36.7475776;COLONNE VOIROLE;3156575567;3.0433445;36.7538438;0;1;2;7996003;Bus: Hydra -> 1er Mai;"";ETUSA;88;Hydra;1er Mai
29197333;"{\"type\":\"LineString\",\"coordinates\":[[3.0390312,36.7495341],[3.0388971,36.7498795]]}";3;"";1;50;false;false;true;false;false;false;41.0;0;0;0;0;0;false;Place El Qos;991957515;3.0402566;36.7475776;COLONNE VOIROLE;3156575567;3.0433445;36.7538438;0;1;2;7996003;Bus: Hydra -> 1er Mai;"";ETUSA;88;Hydra;1er Mai
29197334;"{\"type\":\"LineString\",\"coordinates\":[[3.0388971,36.7498795],[3.0388895,36.7499495],[3.0388848,36.7499939],[3.0388935,36.7500911]]}";4;"";1;50;false;false;true;false;false;false;24.0;0;0;0;0;0;false;Place El Qos;991957515;3.0402566;36.7475776;COLONNE VOIROLE;3156575567;3.0433445;36.7538438;0;1;2;7996003;Bus: Hydra -> 1er Mai;"";ETUSA;88;Hydra;1er Mai
26250556;"{\"type\":\"LineString\",\"coordinates\":[[3.0388935,36.7500911],[3.0389714,36.7501973],[3.0390343,36.7502898]]}";5;"";1;50;false;true;true;false;false;false;26.0;0;0;0;0;0;false;Place El Qos;991957515;3.0402566;36.7475776;COLONNE VOIROLE;3156575567;3.0433445;36.7538438;0;1;2;7996003;Bus: Hydra -> 1er Mai;"";ETUSA;88;Hydra;1er Mai
26250476;"{\"type\":\"LineString\",\"coordinates\":[[3.0390343,36.7502898],[3.0391905,36.7502492],[3.0395279,36.7501649],[3.0398401,36.750077],[3.0399528,36.7500546],[3.0400276,36.7500627],[3.0401193,36.7500845],[3.0402153,36.750137],[3.040312,36.7502644],[3.0403473,36.7504336],[3.0403421,36.7505858],[3.0402738,36.750752],[3.0401818,36.7509336]]}";6;Avenue Larbi Allik;1;50;false;true;true;false;false;false;209.0;0;0;0;0;0;false;Place El Qos;991957515;3.0402566;36.7475776;COLONNE VOIROLE;3156575567;3.0433445;36.7538438;0;1;2;7996003;Bus: Hydra -> 1er Mai;"";ETUSA;88;Hydra;1er Mai
26250206;"{\"type\":\"LineString\",\"coordinates\":[[3.0401818,36.7509336],[3.0402083,36.7510237],[3.0402532,36.7511464]]}";7;"";1;50;false;true;true;false;false;false;25.0;0;0;0;0;0;false;Place El Qos;991957515;3.0402566;36.7475776;COLONNE VOIROLE;3156575567;3.0433445;36.7538438;0;1;2;7996003;Bus: Hydra -> 1er Mai;"";ETUSA;88;Hydra;1er Mai
579414010;"{\"type\":\"LineString\",\"coordinates\":[[3.0402532,36.7511464],[3.0409226,36.7517091]]}";8;"";2;40;false;true;true;false;false;false;88.0;0;0;0;0;0;false;Place El Qos;991957515;3.0402566;36.7475776;COLONNE VOIROLE;3156575567;3.0433445;36.7538438;0;1;2;7996003;Bus: Hydra -> 1er Mai;"";ETUSA;88;Hydra;1er Mai
579414009;"{\"type\":\"LineString\",\"coordinates\":[[3.0409226,36.7517091],[3.0409488,36.7517278]]}";9;"";2;40;false;true;true;false;false;false;4.0;0;0;0;0;0;false;Place El Qos;991957515;3.0402566;36.7475776;COLONNE VOIROLE;3156575567;3.0433445;36.7538438;0;1;2;7996003;Bus: Hydra -> 1er Mai;"";ETUSA;88;Hydra;1er Mai
26250359;"{\"type\":\"LineString\",\"coordinates\":[[3.0409488,36.7517278],[3.0410102,36.7517856],[3.0410652,36.7518589],[3.0411963,36.7520743]]}";10;Avenue Merabet Athmane;1;40;false;true;true;false;false;false;46.0;0;0;0;0;0;false;Place El Qos;991957515;3.0402566;36.7475776;COLONNE VOIROLE;3156575567;3.0433445;36.7538438;0;1;2;7996003;Bus: Hydra -> 1er Mai;"";ETUSA;88;Hydra;1er Mai
263622777;"{\"type\":\"LineString\",\"coordinates\":[[3.0411963,36.7520743],[3.0412913,36.752228],[3.041622,36.7526944],[3.0417422,36.7528434]]}";11;Avenue Merabet Athmane;1;50;false;true;true;false;false;false;100.0;0;0;0;0;0;false;Place El Qos;991957515;3.0402566;36.7475776;COLONNE VOIROLE;3156575567;3.0433445;36.7538438;0;1;2;7996003;Bus: Hydra -> 1er Mai;"";ETUSA;88;Hydra;1er Mai
26227478;"{\"type\":\"LineString\",\"coordinates\":[[3.0417422,36.7528434],[3.0417824,36.7528901],[3.0418704,36.7529922],[3.0420039,36.7531357],[3.0421551,36.7532891]]}";12;Avenue Merabet Athmane;1;50;false;true;true;false;false;false;63.0;0;0;0;0;0;false;Place El Qos;991957515;3.0402566;36.7475776;COLONNE VOIROLE;3156575567;3.0433445;36.7538438;0;1;2;7996003;Bus: Hydra -> 1er Mai;"";ETUSA;88;Hydra;1er Mai
579414013;"{\"type\":\"LineString\",\"coordinates\":[[3.0421551,36.7532891],[3.0423959,36.7534512],[3.0425301,36.7535456],[3.0427946,36.75368],[3.0431191,36.7537829],[3.0433421,36.7538587],[3.0436525,36.7539496],[3.0438182,36.7539866],[3.0439549,36.7539888],[3.0440973,36.7539823],[3.044233,36.7539551],[3.0444816,36.7539257]]}";13;Ave Souidani Boudjemaa;2;50;false;true;true;false;false;false;116.5;0;0;0;0;0;false;Place El Qos;991957515;3.0402566;36.7475776;COLONNE VOIROLE;3156575567;3.0433445;36.7538438;1;1;2;7996003;Bus: Hydra -> 1er Mai;"";ETUSA;88;Hydra;1er Mai
579414013;"{\"type\":\"LineString\",\"coordinates\":[[3.0421551,36.7532891],[3.0423959,36.7534512],[3.0425301,36.7535456],[3.0427946,36.75368],[3.0431191,36.7537829],[3.0433421,36.7538587],[3.0436525,36.7539496],[3.0438182,36.7539866],[3.0439549,36.7539888],[3.0440973,36.7539823],[3.044233,36.7539551],[3.0444816,36.7539257]]}";1;Ave Souidani Boudjemaa;2;50;false;true;true;false;false;false;116.5;0;0;0;0;0;false;COLONNE VOIROLE;3156575567;3.0433445;36.7538438;Varrefour Souidani Boudjemaa;3130910490;3.0487601;36.7524992;1;2;3;7996003;Bus: Hydra -> 1er Mai;"";ETUSA;88;Hydra;1er Mai
26250375;"{\"type\":\"LineString\",\"coordinates\":[[3.0444816,36.7539257],[3.0447644,36.7538395],[3.0449798,36.7537677],[3.0451005,36.7537236],[3.0456752,36.7534961],[3.0461559,36.7533083],[3.0468415,36.7530306],[3.047741,36.7526541],[3.0478134,36.7526158],[3.0479044,36.7525677],[3.048091,36.7524495],[3.0482388,36.7523377],[3.0483401,36.7522546],[3.0484486,36.7521582]]}";2;Ave Souidani Boudjemaa;3;50;false;false;true;false;false;false;414.0;0;0;0;0;0;false;COLONNE VOIROLE;3156575567;3.0433445;36.7538438;Varrefour Souidani Boudjemaa;3130910490;3.0487601;36.7524992;0;2;3;7996003;Bus: Hydra -> 1er Mai;"";ETUSA;88;Hydra;1er Mai
26227494;"{\"type\":\"LineString\",\"coordinates\":[[3.0484486,36.7521582],[3.0485848,36.7520464],[3.0486744,36.7520105],[3.0487497,36.751997],[3.0488346,36.7520053],[3.0489253,36.7520348]]}";3;"";1;50;false;true;true;false;false;false;51.0;0;0;0;0;0;false;COLONNE VOIROLE;3156575567;3.0433445;36.7538438;Varrefour Souidani Boudjemaa;3130910490;3.0487601;36.7524992;0;2;3;7996003;Bus: Hydra -> 1er Mai;"";ETUSA;88;Hydra;1er Mai
26227498;"{\"type\":\"LineString\",\"coordinates\":[[3.0489253,36.7520348],[3.0489508,36.7520336],[3.0489752,36.7520395],[3.0490015,36.7520574],[3.0490128,36.7520757],[3.0490155,36.752096],[3.0490083,36.7521219]]}";4;"";1;50;false;true;true;false;false;false;16.0;0;0;0;0;0;false;COLONNE VOIROLE;3156575567;3.0433445;36.7538438;Varrefour Souidani Boudjemaa;3130910490;3.0487601;36.7524992;0;2;3;7996003;Bus: Hydra -> 1er Mai;"";ETUSA;88;Hydra;1er Mai
26227500;"{\"type\":\"LineString\",\"coordinates\":[[3.0490103,36.7522385],[3.0490083,36.7521219]]}";5;"";1;50;false;false;true;false;false;false;14.0;0;0;0;0;0;false;COLONNE VOIROLE;3156575567;3.0433445;36.7538438;Varrefour Souidani Boudjemaa;3130910490;3.0487601;36.7524992;0;2;3;7996003;Bus: Hydra -> 1er Mai;"";ETUSA;88;Hydra;1er Mai
231800331;"{\"type\":\"LineString\",\"coordinates\":[[3.0490103,36.7522385],[3.0489628,36.752318],[3.0488992,36.7523896],[3.0488215,36.7524502],[3.048749,36.7524839],[3.0487221,36.7524964],[3.0486143,36.7525317]]}";6;"";1;50;false;true;true;false;false;false;25.5;0;0;0;0;0;false;COLONNE VOIROLE;3156575567;3.0433445;36.7538438;Varrefour Souidani Boudjemaa;3130910490;3.0487601;36.7524992;1;2;3;7996003;Bus: Hydra -> 1er Mai;"";ETUSA;88;Hydra;1er Mai
375804045;"{\"type\":\"LineString\",\"coordinates\":[[3.0485332,36.7563172],[3.0490468,36.7562114],[3.049658,36.7560762],[3.0504704,36.7559415],[3.0507728,36.7559002],[3.0510197,36.7559175],[3.0512209,36.7559572],[3.0514236,36.7560309],[3.0515955,36.7561446],[3.0517629,36.7562591],[3.0519123,36.7564322],[3.0520087,36.7565982],[3.0520499,36.756759],[3.0520651,36.7569202],[3.0520455,36.7570925],[3.0519875,36.7572562],[3.0518756,36.757439],[3.0517551,36.7575661],[3.0516993,36.7576118],[3.0515641,36.7577223],[3.0513772,36.757882],[3.0512704,36.7579846],[3.0512169,36.7580619],[3.0511914,36.7580987],[3.0511376,36.7581783],[3.0510806,36.7583133]]}";1;Avenue de l'Indépendance;2;60;false;true;true;false;false;false;287.5;0;0;0;0;0;false;LA PERINE;3125562005;3.0512699;36.7580854;1er Mai;287469933;3.0567062;36.7600878;1;4;5;7996003;Bus: Hydra -> 1er Mai;"";ETUSA;88;Hydra;1er Mai
316770307;"{\"type\":\"LineString\",\"coordinates\":[[3.0510806,36.7583133],[3.0510379,36.7585062],[3.0510435,36.758674],[3.0511331,36.7589961],[3.0512208,36.7592014],[3.0513553,36.7594091],[3.0515136,36.7595729],[3.0517216,36.7597319],[3.0519139,36.7598408],[3.0521412,36.759933],[3.0526813,36.7601095],[3.0528912,36.7601781],[3.0533626,36.760332],[3.0538077,36.7604751],[3.0541457,36.7605766]]}";2;Avenue Colonel Ali Mellah;2;60;false;true;true;false;false;false;418.0;0;0;0;0;0;false;LA PERINE;3125562005;3.0512699;36.7580854;1er Mai;287469933;3.0567062;36.7600878;0;4;5;7996003;Bus: Hydra -> 1er Mai;"";ETUSA;88;Hydra;1er Mai
26227592;"{\"type\":\"LineString\",\"coordinates\":[[3.0541457,36.7605766],[3.0551326,36.7609556],[3.0558144,36.7612163],[3.05621,36.7613391],[3.0563427,36.761356],[3.0564601,36.7613421],[3.0565246,36.7613297],[3.0566017,36.7613054]]}";3;"";2;50;false;true;true;false;false;false;242.0;0;1;0;0;0;false;LA PERINE;3125562005;3.0512699;36.7580854;1er Mai;287469933;3.0567062;36.7600878;0;4;5;7996003;Bus: Hydra -> 1er Mai;"";ETUSA;88;Hydra;1er Mai
231160923;"{\"type\":\"LineString\",\"coordinates\":[[3.0566017,36.7613054],[3.056508,36.7611003],[3.0563954,36.7608424]]}";4;Rue Belouizdad Mohamed;3;50;false;true;true;false;false;false;56.0;0;0;0;0;0;false;LA PERINE;3125562005;3.0512699;36.7580854;1er Mai;287469933;3.0567062;36.7600878;0;4;5;7996003;Bus: Hydra -> 1er Mai;"";ETUSA;88;Hydra;1er Mai
26249431;"{\"type\":\"LineString\",\"coordinates\":[[3.0563954,36.7608424],[3.0564756,36.7607987],[3.0565333,36.7607673],[3.0566551,36.7607561],[3.0570434,36.7608912]]}";5;Avenue Askri Ahcène;2;50;false;true;true;false;false;false;65.0;0;0;0;0;0;false;LA PERINE;3125562005;3.0512699;36.7580854;1er Mai;287469933;3.0567062;36.7600878;0;4;5;7996003;Bus: Hydra -> 1er Mai;"";ETUSA;88;Hydra;1er Mai
26249563;"{\"type\":\"LineString\",\"coordinates\":[[3.0570434,36.7608912],[3.0572495,36.760374],[3.0573063,36.7602818]]}";6;"";2;50;false;true;true;false;false;false;73.0;0;0;0;0;0;false;LA PERINE;3125562005;3.0512699;36.7580854;1er Mai;287469933;3.0567062;36.7600878;0;4;5;7996003;Bus: Hydra -> 1er Mai;"";ETUSA;88;Hydra;1er Mai
231160540;"{\"type\":\"LineString\",\"coordinates\":[[3.0573063,36.7602818],[3.0571675,36.7602694],[3.0570797,36.7601904],[3.0570329,36.7601542],[3.0569994,36.7601578],[3.0569704,36.7600603],[3.0569491,36.7600025],[3.0569475,36.7599996],[3.0569268,36.7599463]]}";7;"";1;50;false;false;true;false;false;false;59.0;0;0;0;0;0;false;LA PERINE;3125562005;3.0512699;36.7580854;1er Mai;287469933;3.0567062;36.7600878;1;4;5;7996003;Bus: Hydra -> 1er Mai;"";ETUSA;88;Hydra;1er Mai
