way_id;shape;index;name;nb_lanes;legal_speed;speed_zone_30;oneway;shares_bike;bike_box;bus_lane;dedicated_bus_lane;length;nb_traffic_signals;nb_crossings;nb_stops;nb_give_ways;nb_lvl_crossings;roundabout;stop_id_orig;node_id_orig;coord_x_orig;coord_y_orig;stop_id_dest;node_id_dest;coord_x_dest;coord_y_dest;nb_neighbouring_ways_bus_stop;ordre_orig;ordre_dest;id_line;line_name;colour;operator;ref;from;to
465653668;"{\"type\":\"LineString\",\"coordinates\":[[-73.5647776,45.4985685],[-73.5651977,45.4982305]]}";1;Rue Saint-Antoine Ouest;4;50;false;false;true;false;false;false;50.0;1;0;0;0;0;false;76288;6133353670;-73.564773;45.498408;76253;6133353892;-73.538899;45.390686;1;0;1;9517801;Bus 115 : Direction Delson;"";EXO;115 S;Terminus Mansfield;Stationnement Incitatif Georges-Gagné
114875712;"{\"type\":\"LineString\",\"coordinates\":[[-73.5646367,45.4986819],[-73.5647776,45.4985685]]}";2;Rue Saint-Antoine Ouest;4;50;false;false;true;false;false;false;17.0;0;0;0;0;0;false;76288;6133353670;-73.564773;45.498408;76253;6133353892;-73.538899;45.390686;0;0;1;9517801;Bus 115 : Direction Delson;"";EXO;115 S;Terminus Mansfield;Stationnement Incitatif Georges-Gagné
114875727;"{\"type\":\"LineString\",\"coordinates\":[[-73.5638176,45.4993408],[-73.5646367,45.4986819]]}";3;Rue Saint-Antoine Ouest;1;50;false;false;true;false;false;false;98.0;0;0;0;0;0;false;76288;6133353670;-73.564773;45.498408;76253;6133353892;-73.538899;45.390686;0;0;1;9517801;Bus 115 : Direction Delson;"";EXO;115 S;Terminus Mansfield;Stationnement Incitatif Georges-Gagné
456318009;"{\"type\":\"LineString\",\"coordinates\":[[-73.5635034,45.4995899],[-73.5638176,45.4993408]]}";4;Rue Saint-Antoine Ouest;1;50;false;false;true;false;false;false;37.0;1;0;0;0;0;false;76288;6133353670;-73.564773;45.498408;76253;6133353892;-73.538899;45.390686;0;0;1;9517801;Bus 115 : Direction Delson;"";EXO;115 S;Terminus Mansfield;Stationnement Incitatif Georges-Gagné
456321034;"{\"type\":\"LineString\",\"coordinates\":[[-73.5635034,45.4995899],[-73.5626665,45.4990006]]}";5;Boulevard Robert-Bourassa;4;50;false;true;true;false;false;false;93.0;2;0;0;0;0;false;76288;6133353670;-73.564773;45.498408;76253;6133353892;-73.538899;45.390686;0;0;1;9517801;Bus 115 : Direction Delson;"";EXO;115 S;Terminus Mansfield;Stationnement Incitatif Georges-Gagné
300627773;"{\"type\":\"LineString\",\"coordinates\":[[-73.5626665,45.4990006],[-73.5623547,45.4987872],[-73.5621626,45.4986172],[-73.5620042,45.4984483],[-73.5618002,45.4982427],[-73.5616856,45.4981447],[-73.5616582,45.4981239],[-73.5615338,45.4980295]]}";6;Boulevard Robert-Bourassa;4;50;false;true;true;false;false;false;140.0;2;0;0;0;0;false;76288;6133353670;-73.564773;45.498408;76253;6133353892;-73.538899;45.390686;0;0;1;9517801;Bus 115 : Direction Delson;"";EXO;115 S;Terminus Mansfield;Stationnement Incitatif Georges-Gagné
352392847;"{\"type\":\"LineString\",\"coordinates\":[[-73.5615338,45.4980295],[-73.5614113,45.4979602],[-73.5610365,45.4977732],[-73.5606297,45.4975779],[-73.5601383,45.4973487],[-73.5594743,45.4970519],[-73.5591756,45.4969344]]}";7;Boulevard Robert-Bourassa;3;50;false;true;true;false;false;false;221.0;2;0;0;0;0;false;76288;6133353670;-73.564773;45.498408;76253;6133353892;-73.538899;45.390686;0;0;1;9517801;Bus 115 : Direction Delson;"";EXO;115 S;Terminus Mansfield;Stationnement Incitatif Georges-Gagné
664696778;"{\"type\":\"LineString\",\"coordinates\":[[-73.5591756,45.4969344],[-73.5576146,45.4963618],[-73.5566334,45.4960019],[-73.5557327,45.4956715]]}";8;Boulevard Robert-Bourassa;5;50;false;true;true;false;false;false;304.0;3;0;0;0;0;false;76288;6133353670;-73.564773;45.498408;76253;6133353892;-73.538899;45.390686;0;0;1;9517801;Bus 115 : Direction Delson;"";EXO;115 S;Terminus Mansfield;Stationnement Incitatif Georges-Gagné
428978765;"{\"type\":\"LineString\",\"coordinates\":[[-73.5557327,45.4956715],[-73.5554185,45.4955444],[-73.5552568,45.4954742],[-73.5551287,45.4953983],[-73.5549327,45.4952567],[-73.5548013,45.4951309],[-73.5547029,45.495014],[-73.5546166,45.494885],[-73.554546,45.494732],[-73.5544449,45.4944655],[-73.5543449,45.4942123],[-73.5542567,45.4939794],[-73.5541868,45.4937959],[-73.5541179,45.4936077],[-73.5540485,45.4934289],[-73.5539834,45.4932646]]}";9;Autoroute Bonaventure Expressway;3;50;false;true;false;false;false;false;314.0;1;0;0;0;0;false;76288;6133353670;-73.564773;45.498408;76253;6133353892;-73.538899;45.390686;0;0;1;9517801;Bus 115 : Direction Delson;"";EXO;115 S;Terminus Mansfield;Stationnement Incitatif Georges-Gagné
428978767;"{\"type\":\"LineString\",\"coordinates\":[[-73.5539834,45.4932646],[-73.5538717,45.4930299],[-73.5537919,45.4928613],[-73.5537005,45.492684],[-73.5536109,45.492534],[-73.55351,45.4923856],[-73.5533999,45.4922211],[-73.5532714,45.4920547],[-73.5531387,45.4919071],[-73.5529876,45.4917566],[-73.5528396,45.4916157]]}";10;Autoroute Bonaventure Expressway;3;50;false;true;false;false;false;false;206.0;0;0;0;0;0;false;76288;6133353670;-73.564773;45.498408;76253;6133353892;-73.538899;45.390686;0;0;1;9517801;Bus 115 : Direction Delson;"";EXO;115 S;Terminus Mansfield;Stationnement Incitatif Georges-Gagné
385754237;"{\"type\":\"LineString\",\"coordinates\":[[-73.5528396,45.4916157],[-73.5526701,45.4914689],[-73.5524864,45.4913215],[-73.5523393,45.4912103],[-73.5521897,45.4911082],[-73.5520308,45.4910079],[-73.5518578,45.4909001],[-73.5516631,45.4907954],[-73.5514593,45.4906906]]}";11;Autoroute Bonaventure Expressway;4;50;false;true;false;false;false;false;150.0;0;0;0;0;0;false;76288;6133353670;-73.564773;45.498408;76253;6133353892;-73.538899;45.390686;0;0;1;9517801;Bus 115 : Direction Delson;"";EXO;115 S;Terminus Mansfield;Stationnement Incitatif Georges-Gagné
361815169;"{\"type\":\"LineString\",\"coordinates\":[[-73.5514593,45.4906906],[-73.5512408,45.4905856],[-73.5509789,45.4904728],[-73.5507265,45.4903708]]}";12;Autoroute Bonaventure Expressway;4;50;false;true;false;false;false;false;68.0;0;0;0;0;0;false;76288;6133353670;-73.564773;45.498408;76253;6133353892;-73.538899;45.390686;0;0;1;9517801;Bus 115 : Direction Delson;"";EXO;115 S;Terminus Mansfield;Stationnement Incitatif Georges-Gagné
385754241;"{\"type\":\"LineString\",\"coordinates\":[[-73.5507265,45.4903708],[-73.5505125,45.4902942],[-73.5503197,45.4902333],[-73.5500927,45.4901664],[-73.5498345,45.4901],[-73.5495773,45.4900379],[-73.5492978,45.489978],[-73.5490171,45.4899238],[-73.5461765,45.4893863]]}";13;Autoroute Bonaventure Expressway;3;50;false;true;false;false;false;false;373.0;0;0;0;0;0;false;76288;6133353670;-73.564773;45.498408;76253;6133353892;-73.538899;45.390686;0;0;1;9517801;Bus 115 : Direction Delson;"";EXO;115 S;Terminus Mansfield;Stationnement Incitatif Georges-Gagné
567717687;"{\"type\":\"LineString\",\"coordinates\":[[-73.5461765,45.4893863],[-73.5427334,45.4887242]]}";14;Autoroute Bonaventure Expressway;3;70;false;true;false;false;false;false;279.0;0;0;0;0;0;false;76288;6133353670;-73.564773;45.498408;76253;6133353892;-73.538899;45.390686;0;0;1;9517801;Bus 115 : Direction Delson;"";EXO;115 S;Terminus Mansfield;Stationnement Incitatif Georges-Gagné
48666271;"{\"type\":\"LineString\",\"coordinates\":[[-73.5427334,45.4887242],[-73.5422116,45.488558],[-73.542016,45.4884998]]}";15;"";1;50;false;true;true;false;false;false;62.0;0;0;0;0;0;false;76288;6133353670;-73.564773;45.498408;76253;6133353892;-73.538899;45.390686;0;0;1;9517801;Bus 115 : Direction Delson;"";EXO;115 S;Terminus Mansfield;Stationnement Incitatif Georges-Gagné
48666298;"{\"type\":\"LineString\",\"coordinates\":[[-73.542016,45.4884998],[-73.5418275,45.4884538]]}";16;"";1;50;false;true;true;false;false;false;16.0;0;0;0;0;0;false;76288;6133353670;-73.564773;45.498408;76253;6133353892;-73.538899;45.390686;0;0;1;9517801;Bus 115 : Direction Delson;"";EXO;115 S;Terminus Mansfield;Stationnement Incitatif Georges-Gagné
48666297;"{\"type\":\"LineString\",\"coordinates\":[[-73.5418275,45.4884538],[-73.5415554,45.488395],[-73.5411811,45.4883256],[-73.5409718,45.488284],[-73.5407814,45.4882388],[-73.54059,45.4881754],[-73.5404113,45.4881063]]}";17;"";1;50;false;true;true;false;false;false;118.0;0;0;0;0;0;false;76288;6133353670;-73.564773;45.498408;76253;6133353892;-73.538899;45.390686;0;0;1;9517801;Bus 115 : Direction Delson;"";EXO;115 S;Terminus Mansfield;Stationnement Incitatif Georges-Gagné
23027190;"{\"type\":\"LineString\",\"coordinates\":[[-73.5404113,45.4881063],[-73.5402157,45.48804],[-73.5400108,45.4879566],[-73.5398209,45.4878687],[-73.5396416,45.4877795],[-73.5394706,45.4876852],[-73.539289,45.4875746],[-73.5391318,45.4874685],[-73.5389634,45.4873398],[-73.5388076,45.4872055],[-73.5386646,45.4870673],[-73.5385313,45.4869226],[-73.5384158,45.4867854],[-73.5383118,45.4866546],[-73.5382178,45.4865288],[-73.5381429,45.4864193],[-73.5380756,45.4863127],[-73.5380134,45.4861965],[-73.5379497,45.4860576],[-73.5378929,45.4859065],[-73.5378527,45.4857565],[-73.5378202,45.4856055],[-73.5377921,45.4854451],[-73.5377756,45.4852961],[-73.5377689,45.4851382],[-73.5377729,45.4849658],[-73.5377873,45.4847776],[-73.5378115,45.4846227],[-73.5378426,45.4844612],[-73.5380341,45.4836661]]}";18;"";1;50;false;true;false;false;false;false;575.0;0;0;0;0;0;false;76288;6133353670;-73.564773;45.498408;76253;6133353892;-73.538899;45.390686;0;0;1;9517801;Bus 115 : Direction Delson;"";EXO;115 S;Terminus Mansfield;Stationnement Incitatif Georges-Gagné
685468121;"{\"type\":\"LineString\",\"coordinates\":[[-73.5380341,45.4836661],[-73.5382816,45.4829689],[-73.5384797,45.4824157],[-73.5387112,45.481754],[-73.5389705,45.4810329],[-73.5392547,45.4801208],[-73.5397419,45.478817],[-73.5400333,45.4781293],[-73.5404144,45.4773194]]}";19;Autoroute Bonaventure Expressway;1;70;false;true;false;false;false;false;730.0;0;0;0;0;0;false;76288;6133353670;-73.564773;45.498408;76253;6133353892;-73.538899;45.390686;0;0;1;9517801;Bus 115 : Direction Delson;"";EXO;115 S;Terminus Mansfield;Stationnement Incitatif Georges-Gagné
677782935;"{\"type\":\"LineString\",\"coordinates\":[[-73.5404144,45.4773194],[-73.5406017,45.4769354],[-73.5411113,45.4759718],[-73.5413755,45.4754887],[-73.5416588,45.4750109]]}";20;Pont Clément Bridge;2;70;false;true;false;false;false;false;275.0;0;0;0;0;0;false;76288;6133353670;-73.564773;45.498408;76253;6133353892;-73.538899;45.390686;0;0;1;9517801;Bus 115 : Direction Delson;"";EXO;115 S;Terminus Mansfield;Stationnement Incitatif Georges-Gagné
567717682;"{\"type\":\"LineString\",\"coordinates\":[[-73.5416588,45.4750109],[-73.5420724,45.4743571]]}";21;Pont Clément Bridge;2;50;false;true;false;false;false;false;80.0;0;0;0;0;0;false;76288;6133353670;-73.564773;45.498408;76253;6133353892;-73.538899;45.390686;0;0;1;9517801;Bus 115 : Direction Delson;"";EXO;115 S;Terminus Mansfield;Stationnement Incitatif Georges-Gagné
39180623;"{\"type\":\"LineString\",\"coordinates\":[[-73.5420724,45.4743571],[-73.5422524,45.4740884],[-73.5424157,45.4738315],[-73.5425961,45.4735652],[-73.5430496,45.4729449]]}";22;Autoroute Bonaventure;2;50;false;true;true;false;false;false;175.0;0;0;0;0;0;false;76288;6133353670;-73.564773;45.498408;76253;6133353892;-73.538899;45.390686;0;0;1;9517801;Bus 115 : Direction Delson;"";EXO;115 S;Terminus Mansfield;Stationnement Incitatif Georges-Gagné
43068386;"{\"type\":\"LineString\",\"coordinates\":[[-73.5430496,45.4729449],[-73.5432928,45.4726092]]}";23;Autoroute Bonaventure;2;50;false;true;true;false;false;false;42.0;0;0;0;0;0;false;76288;6133353670;-73.564773;45.498408;76253;6133353892;-73.538899;45.390686;0;0;1;9517801;Bus 115 : Direction Delson;"";EXO;115 S;Terminus Mansfield;Stationnement Incitatif Georges-Gagné
43068385;"{\"type\":\"LineString\",\"coordinates\":[[-73.5432928,45.4726092],[-73.5436727,45.4721223],[-73.5442333,45.4714332],[-73.5445429,45.4710827],[-73.5450373,45.4705371],[-73.5451519,45.470368],[-73.5451963,45.4702037],[-73.5451777,45.4700648],[-73.5451347,45.4699397],[-73.5450208,45.4697568],[-73.544847,45.4696114],[-73.5446799,45.4695157],[-73.5445055,45.4694536],[-73.5443311,45.4694183],[-73.5441751,45.4694066],[-73.5439949,45.4694138],[-73.5437722,45.4694511],[-73.5436193,45.4694983],[-73.54315,45.469709],[-73.5426519,45.4698258],[-73.542304,45.4699265],[-73.5418403,45.4699973],[-73.541601,45.4700149],[-73.540742,45.4700409],[-73.5400245,45.4700565]]}";24;Autoroute Bonaventure;3;50;false;true;true;false;false;false;777.0;0;0;0;0;0;false;76288;6133353670;-73.564773;45.498408;76253;6133353892;-73.538899;45.390686;0;0;1;9517801;Bus 115 : Direction Delson;"";EXO;115 S;Terminus Mansfield;Stationnement Incitatif Georges-Gagné
728797117;"{\"type\":\"LineString\",\"coordinates\":[[-73.5400245,45.4700565],[-73.5382768,45.4700942]]}";25;Autoroute Bonaventure;2;50;false;true;true;false;false;false;137.0;0;0;0;0;0;false;76288;6133353670;-73.564773;45.498408;76253;6133353892;-73.538899;45.390686;0;0;1;9517801;Bus 115 : Direction Delson;"";EXO;115 S;Terminus Mansfield;Stationnement Incitatif Georges-Gagné
728797118;"{\"type\":\"LineString\",\"coordinates\":[[-73.5382768,45.4700942],[-73.5378255,45.4701167]]}";26;Autoroute Bonaventure;2;50;false;true;true;false;false;false;36.0;0;0;0;0;0;false;76288;6133353670;-73.564773;45.498408;76253;6133353892;-73.538899;45.390686;0;0;1;9517801;Bus 115 : Direction Delson;"";EXO;115 S;Terminus Mansfield;Stationnement Incitatif Georges-Gagné
708682529;"{\"type\":\"LineString\",\"coordinates\":[[-73.5378255,45.4701167],[-73.536113,45.4701171]]}";27;Autoroute 15;5;80;false;true;true;false;false;false;134.0;0;0;0;0;0;false;76288;6133353670;-73.564773;45.498408;76253;6133353892;-73.538899;45.390686;0;0;1;9517801;Bus 115 : Direction Delson;"";EXO;115 S;Terminus Mansfield;Stationnement Incitatif Georges-Gagné
364775281;"{\"type\":\"LineString\",\"coordinates\":[[-73.536113,45.4701171],[-73.5335206,45.4700904],[-73.5293215,45.4699928],[-73.5256685,45.4698606],[-73.5246415,45.4698106],[-73.5211502,45.4696112],[-73.5196763,45.4695143],[-73.5181633,45.4694048],[-73.5163826,45.4692646],[-73.5145853,45.4691035],[-73.5082364,45.4684851]]}";28;Pont Samuel-De Champlain;3;80;false;true;true;false;false;false;2188.0;0;0;0;0;0;false;76288;6133353670;-73.564773;45.498408;76253;6133353892;-73.538899;45.390686;0;0;1;9517801;Bus 115 : Direction Delson;"";EXO;115 S;Terminus Mansfield;Stationnement Incitatif Georges-Gagné
646417293;"{\"type\":\"LineString\",\"coordinates\":[[-73.5082364,45.4684851],[-73.5072787,45.4683745],[-73.5044923,45.4680805],[-73.5015577,45.4677715]]}";29;Pont Samuel-De Champlain;3;80;false;true;true;false;false;false;528.0;0;0;0;0;0;false;76288;6133353670;-73.564773;45.498408;76253;6133353892;-73.538899;45.390686;0;0;1;9517801;Bus 115 : Direction Delson;"";EXO;115 S;Terminus Mansfield;Stationnement Incitatif Georges-Gagné
646417307;"{\"type\":\"LineString\",\"coordinates\":[[-73.5015577,45.4677715],[-73.4986974,45.4674663],[-73.4969674,45.4672651],[-73.4952108,45.4670394],[-73.4920054,45.4666495]]}";30;Pont Samuel-De Champlain;4;80;false;true;true;false;false;false;757.0;0;0;0;0;0;false;76288;6133353670;-73.564773;45.498408;76253;6133353892;-73.538899;45.390686;0;0;1;9517801;Bus 115 : Direction Delson;"";EXO;115 S;Terminus Mansfield;Stationnement Incitatif Georges-Gagné
698922475;"{\"type\":\"LineString\",\"coordinates\":[[-73.4920054,45.4666495],[-73.4890674,45.4662312]]}";31;Autoroute des Cantons-de-l'Est;4;80;false;true;true;false;false;false;235.0;0;0;0;0;0;false;76288;6133353670;-73.564773;45.498408;76253;6133353892;-73.538899;45.390686;0;0;1;9517801;Bus 115 : Direction Delson;"";EXO;115 S;Terminus Mansfield;Stationnement Incitatif Georges-Gagné
724437661;"{\"type\":\"LineString\",\"coordinates\":[[-73.4890674,45.4662312],[-73.4873281,45.4659783],[-73.4856025,45.4657592],[-73.4848513,45.4656558],[-73.4833534,45.4654796]]}";32;Autoroute des Cantons-de-l'Est;3;80;false;true;true;false;false;false;455.0;0;0;0;0;0;false;76288;6133353670;-73.564773;45.498408;76253;6133353892;-73.538899;45.390686;0;0;1;9517801;Bus 115 : Direction Delson;"";EXO;115 S;Terminus Mansfield;Stationnement Incitatif Georges-Gagné
699232599;"{\"type\":\"LineString\",\"coordinates\":[[-73.4833534,45.4654796],[-73.482022,45.4653559],[-73.4802248,45.4652297],[-73.4791933,45.4651729],[-73.4781865,45.4651216],[-73.474282,45.4649227],[-73.4725575,45.4648665]]}";33;Autoroute des Cantons-de-l'Est;1;80;false;true;true;false;false;false;847.0;0;0;0;0;0;false;76288;6133353670;-73.564773;45.498408;76253;6133353892;-73.538899;45.390686;0;0;1;9517801;Bus 115 : Direction Delson;"";EXO;115 S;Terminus Mansfield;Stationnement Incitatif Georges-Gagné
8289420;"{\"type\":\"LineString\",\"coordinates\":[[-73.4725575,45.4648665],[-73.4719735,45.4648082],[-73.4712459,45.46474],[-73.4703174,45.4646608],[-73.4692837,45.4645546],[-73.4687007,45.4644601],[-73.4682854,45.4643283],[-73.4677692,45.4640481],[-73.4674681,45.4638296],[-73.4671112,45.4636309],[-73.4668634,45.4635538],[-73.4665806,45.4635239]]}";34;"";1;50;false;true;true;false;false;false;505.0;0;0;0;0;0;false;76288;6133353670;-73.564773;45.498408;76253;6133353892;-73.538899;45.390686;0;0;1;9517801;Bus 115 : Direction Delson;"";EXO;115 S;Terminus Mansfield;Stationnement Incitatif Georges-Gagné
458455128;"{\"type\":\"LineString\",\"coordinates\":[[-73.4665806,45.4635239],[-73.4660691,45.4636232],[-73.4658502,45.4636921],[-73.465718,45.4637337]]}";35;"";1;50;false;true;true;false;false;false;72.0;1;0;0;0;0;false;76288;6133353670;-73.564773;45.498408;76253;6133353892;-73.538899;45.390686;0;0;1;9517801;Bus 115 : Direction Delson;"";EXO;115 S;Terminus Mansfield;Stationnement Incitatif Georges-Gagné
39239388;"{\"type\":\"LineString\",\"coordinates\":[[-73.465718,45.4637337],[-73.4655435,45.4637896]]}";36;"";1;50;false;true;true;false;false;false;15.0;0;0;0;0;0;false;76288;6133353670;-73.564773;45.498408;76253;6133353892;-73.538899;45.390686;0;0;1;9517801;Bus 115 : Direction Delson;"";EXO;115 S;Terminus Mansfield;Stationnement Incitatif Georges-Gagné
39239394;"{\"type\":\"LineString\",\"coordinates\":[[-73.4655435,45.4637896],[-73.4655823,45.4639539],[-73.4656533,45.46418],[-73.4660166,45.4650769]]}";37;Boulevard Taschereau;1;50;false;true;false;false;true;false;148.0;0;0;0;0;0;false;76288;6133353670;-73.564773;45.498408;76253;6133353892;-73.538899;45.390686;0;0;1;9517801;Bus 115 : Direction Delson;"";EXO;115 S;Terminus Mansfield;Stationnement Incitatif Georges-Gagné
476012636;"{\"type\":\"LineString\",\"coordinates\":[[-73.4660166,45.4650769],[-73.4662107,45.4654681],[-73.4662619,45.4655763],[-73.4663131,45.4656845]]}";38;Boulevard Taschereau;1;50;false;true;false;false;true;false;72.0;1;0;0;0;0;false;76288;6133353670;-73.564773;45.498408;76253;6133353892;-73.538899;45.390686;0;0;1;9517801;Bus 115 : Direction Delson;"";EXO;115 S;Terminus Mansfield;Stationnement Incitatif Georges-Gagné
473778377;"{\"type\":\"LineString\",\"coordinates\":[[-73.4663131,45.4656845],[-73.4665181,45.4656358]]}";39;"";1;50;false;false;true;false;false;false;17.0;0;0;0;0;0;false;76288;6133353670;-73.564773;45.498408;76253;6133353892;-73.538899;45.390686;0;0;1;9517801;Bus 115 : Direction Delson;"";EXO;115 S;Terminus Mansfield;Stationnement Incitatif Georges-Gagné
476012634;"{\"type\":\"LineString\",\"coordinates\":[[-73.466996,45.4655796],[-73.4667315,45.4656026],[-73.4667003,45.4656075],[-73.4665181,45.4656358]]}";40;"";1;50;false;false;false;false;true;false;38.0;1;0;0;0;0;false;76288;6133353670;-73.564773;45.498408;76253;6133353892;-73.538899;45.390686;0;0;1;9517801;Bus 115 : Direction Delson;"";EXO;115 S;Terminus Mansfield;Stationnement Incitatif Georges-Gagné
37637927;"{\"type\":\"LineString\",\"coordinates\":[[-73.468025,45.4659377],[-73.4677887,45.4657888],[-73.4677335,45.4657546],[-73.4676442,45.4657151],[-73.4674983,45.4656589],[-73.4673546,45.4656184],[-73.4671835,45.4655895],[-73.466996,45.4655796]]}";41;"";1;50;false;false;false;false;true;false;93.0;0;0;0;0;0;false;76288;6133353670;-73.564773;45.498408;76253;6133353892;-73.538899;45.390686;0;0;1;9517801;Bus 115 : Direction Delson;"";EXO;115 S;Terminus Mansfield;Stationnement Incitatif Georges-Gagné
703233488;"{\"type\":\"LineString\",\"coordinates\":[[-73.4733357,45.4656186],[-73.4699508,45.4656907],[-73.4695234,45.4656998],[-73.4691508,45.4657186],[-73.4688021,45.4657429],[-73.4685139,45.465784],[-73.4682324,45.4658535],[-73.468025,45.4659377]]}";42;"";1;50;false;false;true;false;true;false;420.0;0;0;0;0;0;false;76288;6133353670;-73.564773;45.498408;76253;6133353892;-73.538899;45.390686;0;0;1;9517801;Bus 115 : Direction Delson;"";EXO;115 S;Terminus Mansfield;Stationnement Incitatif Georges-Gagné
684189916;"{\"type\":\"LineString\",\"coordinates\":[[-73.4733357,45.4656186],[-73.4735794,45.4655613],[-73.4739808,45.4655103],[-73.4741277,45.4654925],[-73.4747925,45.4654563],[-73.4752773,45.4654395],[-73.4757455,45.4654647],[-73.4762138,45.465479],[-73.4767771,45.4654808],[-73.4776483,45.4653783]]}";43;"";1;50;false;true;true;false;true;false;341.0;0;0;0;0;0;false;76288;6133353670;-73.564773;45.498408;76253;6133353892;-73.538899;45.390686;0;0;1;9517801;Bus 115 : Direction Delson;"";EXO;115 S;Terminus Mansfield;Stationnement Incitatif Georges-Gagné
596245859;"{\"type\":\"LineString\",\"coordinates\":[[-73.4776483,45.4653783],[-73.47817,45.4654129],[-73.4791657,45.4654646],[-73.480342,45.4655445],[-73.4815645,45.4656424],[-73.4827092,45.4657465],[-73.483758,45.4658456]]}";44;Autoroute des Cantons-de-l'Est;4;80;false;true;true;false;false;false;481.0;0;0;0;0;0;false;76288;6133353670;-73.564773;45.498408;76253;6133353892;-73.538899;45.390686;0;0;1;9517801;Bus 115 : Direction Delson;"";EXO;115 S;Terminus Mansfield;Stationnement Incitatif Georges-Gagné
24202953;"{\"type\":\"LineString\",\"coordinates\":[[-73.483758,45.4658456],[-73.4845839,45.4660258],[-73.4853256,45.4662198],[-73.4855651,45.4663443],[-73.485677,45.4664187],[-73.4857946,45.4665365],[-73.4860208,45.4668293],[-73.4862134,45.46713],[-73.4862903,45.4672259],[-73.4863887,45.4673197],[-73.4865657,45.467447],[-73.4868062,45.4675538],[-73.4871637,45.4676167],[-73.4873984,45.4676437],[-73.4913533,45.4679597]]}";45;"";1;50;false;true;true;false;false;false;680.0;0;0;0;0;0;false;76288;6133353670;-73.564773;45.498408;76253;6133353892;-73.538899;45.390686;0;0;1;9517801;Bus 115 : Direction Delson;"";EXO;115 S;Terminus Mansfield;Stationnement Incitatif Georges-Gagné
40662133;"{\"type\":\"LineString\",\"coordinates\":[[-73.4913533,45.4679597],[-73.4923325,45.4680326],[-73.4942598,45.4681927]]}";46;"";1;50;false;true;true;false;false;false;229.0;0;0;0;0;0;false;76288;6133353670;-73.564773;45.498408;76253;6133353892;-73.538899;45.390686;0;0;1;9517801;Bus 115 : Direction Delson;"";EXO;115 S;Terminus Mansfield;Stationnement Incitatif Georges-Gagné
40662045;"{\"type\":\"LineString\",\"coordinates\":[[-73.4942598,45.4681927],[-73.4953817,45.4682869]]}";47;"";1;50;false;true;true;false;false;false;89.0;0;0;0;0;0;false;76288;6133353670;-73.564773;45.498408;76253;6133353892;-73.538899;45.390686;0;0;1;9517801;Bus 115 : Direction Delson;"";EXO;115 S;Terminus Mansfield;Stationnement Incitatif Georges-Gagné
40662044;"{\"type\":\"LineString\",\"coordinates\":[[-73.4953817,45.4682869],[-73.4960865,45.4683472],[-73.496344,45.4683874],[-73.4965798,45.4684553],[-73.4967904,45.4685664],[-73.496938,45.4687121],[-73.4970395,45.4688771],[-73.497079,45.4690667],[-73.4970109,45.4692555],[-73.4968623,45.4694095],[-73.4966766,45.469497],[-73.4964206,45.4695453],[-73.4961627,45.4695317],[-73.4959295,45.4694518],[-73.495793,45.4693173],[-73.4955175,45.4688872]]}";48;"";1;50;false;true;true;false;false;false;370.0;0;0;0;0;0;false;76288;6133353670;-73.564773;45.498408;76253;6133353892;-73.538899;45.390686;0;0;1;9517801;Bus 115 : Direction Delson;"";EXO;115 S;Terminus Mansfield;Stationnement Incitatif Georges-Gagné
548146997;"{\"type\":\"LineString\",\"coordinates\":[[-73.4955175,45.4688872],[-73.4950264,45.4675448]]}";49;"";1;50;false;true;false;false;false;false;154.0;0;0;0;0;0;false;76288;6133353670;-73.564773;45.498408;76253;6133353892;-73.538899;45.390686;0;0;1;9517801;Bus 115 : Direction Delson;"";EXO;115 S;Terminus Mansfield;Stationnement Incitatif Georges-Gagné
458294572;"{\"type\":\"LineString\",\"coordinates\":[[-73.4950264,45.4675448],[-73.4946279,45.4665455],[-73.4943882,45.4658376],[-73.4941082,45.4650141]]}";50;"";1;50;false;true;false;false;false;false;291.0;0;0;0;0;0;false;76288;6133353670;-73.564773;45.498408;76253;6133353892;-73.538899;45.390686;0;0;1;9517801;Bus 115 : Direction Delson;"";EXO;115 S;Terminus Mansfield;Stationnement Incitatif Georges-Gagné
357283846;"{\"type\":\"LineString\",\"coordinates\":[[-73.4941082,45.4650141],[-73.4938388,45.4642216],[-73.4936624,45.4636499],[-73.4935138,45.4632189],[-73.4934836,45.4630971]]}";51;Boulevard Marie-Victorin;2;70;false;true;false;false;false;false;219.0;0;0;0;0;0;false;76288;6133353670;-73.564773;45.498408;76253;6133353892;-73.538899;45.390686;0;0;1;9517801;Bus 115 : Direction Delson;"";EXO;115 S;Terminus Mansfield;Stationnement Incitatif Georges-Gagné
749923831;"{\"type\":\"LineString\",\"coordinates\":[[-73.4934836,45.4630971],[-73.4934194,45.46278],[-73.4933713,45.4624871]]}";52;Boulevard Marie-Victorin;3;70;false;true;false;false;false;false;69.0;0;0;0;0;0;false;76288;6133353670;-73.564773;45.498408;76253;6133353892;-73.538899;45.390686;0;0;1;9517801;Bus 115 : Direction Delson;"";EXO;115 S;Terminus Mansfield;Stationnement Incitatif Georges-Gagné
560560319;"{\"type\":\"LineString\",\"coordinates\":[[-73.4933713,45.4624871],[-73.4933019,45.4624145],[-73.4932419,45.4622418],[-73.4931801,45.4618868],[-73.4929245,45.4599321]]}";53;"";1;50;false;true;true;false;false;false;288.0;0;0;0;0;0;false;76288;6133353670;-73.564773;45.498408;76253;6133353892;-73.538899;45.390686;0;0;1;9517801;Bus 115 : Direction Delson;"";EXO;115 S;Terminus Mansfield;Stationnement Incitatif Georges-Gagné
39180615;"{\"type\":\"LineString\",\"coordinates\":[[-73.4929245,45.4599321],[-73.4927255,45.457448]]}";54;Autoroute René-Levesque;3;100;false;true;true;false;false;false;277.0;0;0;0;0;0;false;76288;6133353670;-73.564773;45.498408;76253;6133353892;-73.538899;45.390686;0;0;1;9517801;Bus 115 : Direction Delson;"";EXO;115 S;Terminus Mansfield;Stationnement Incitatif Georges-Gagné
24554942;"{\"type\":\"LineString\",\"coordinates\":[[-73.4927255,45.457448],[-73.4926621,45.4566531]]}";55;Autoroute René-Levesque;3;100;false;true;true;false;false;false;89.0;0;0;0;0;0;false;76288;6133353670;-73.564773;45.498408;76253;6133353892;-73.538899;45.390686;0;0;1;9517801;Bus 115 : Direction Delson;"";EXO;115 S;Terminus Mansfield;Stationnement Incitatif Georges-Gagné
24554944;"{\"type\":\"LineString\",\"coordinates\":[[-73.4926621,45.4566531],[-73.4924915,45.4545157]]}";56;Autoroute René-Levesque;3;100;false;true;true;false;false;false;238.0;0;0;0;0;0;false;76288;6133353670;-73.564773;45.498408;76253;6133353892;-73.538899;45.390686;0;0;1;9517801;Bus 115 : Direction Delson;"";EXO;115 S;Terminus Mansfield;Stationnement Incitatif Georges-Gagné
800146076;"{\"type\":\"LineString\",\"coordinates\":[[-73.4924915,45.4545157],[-73.4924235,45.4535918],[-73.4923893,45.4527641],[-73.4924082,45.4522522],[-73.4924962,45.4511447],[-73.4925549,45.4504782],[-73.4926634,45.4492725],[-73.4928608,45.4470506],[-73.4929654,45.4459444],[-73.4930668,45.4447443]]}";57;Autoroute René-Levesque;3;100;false;true;true;false;false;false;1087.0;0;0;0;0;0;false;76288;6133353670;-73.564773;45.498408;76253;6133353892;-73.538899;45.390686;0;0;1;9517801;Bus 115 : Direction Delson;"";EXO;115 S;Terminus Mansfield;Stationnement Incitatif Georges-Gagné
800146075;"{\"type\":\"LineString\",\"coordinates\":[[-73.4930668,45.4447443],[-73.4932857,45.4424508],[-73.4932942,45.4420927],[-73.493279,45.4417346],[-73.4932392,45.4413342],[-73.4931526,45.4407637],[-73.4929911,45.4402604],[-73.492732,45.4396251],[-73.4923683,45.4388743],[-73.4922265,45.4385936],[-73.492097,45.4383042],[-73.4920028,45.4380745],[-73.491884,45.4377502],[-73.4917975,45.4374846],[-73.4917208,45.4372128],[-73.4916486,45.4369119],[-73.4916033,45.4366833],[-73.4915624,45.4364578],[-73.4915118,45.436116],[-73.4914274,45.4355241]]}";58;Autoroute René-Levesque;3;100;false;true;true;false;false;false;1043.0;0;0;0;0;0;false;76288;6133353670;-73.564773;45.498408;76253;6133353892;-73.538899;45.390686;0;0;1;9517801;Bus 115 : Direction Delson;"";EXO;115 S;Terminus Mansfield;Stationnement Incitatif Georges-Gagné
34395765;"{\"type\":\"LineString\",\"coordinates\":[[-73.4914274,45.4355241],[-73.4913492,45.4349669]]}";59;Autoroute René-Levesque;3;100;false;true;true;false;false;false;63.0;0;0;0;0;0;false;76288;6133353670;-73.564773;45.498408;76253;6133353892;-73.538899;45.390686;0;0;1;9517801;Bus 115 : Direction Delson;"";EXO;115 S;Terminus Mansfield;Stationnement Incitatif Georges-Gagné
34395766;"{\"type\":\"LineString\",\"coordinates\":[[-73.4913492,45.4349669],[-73.4912152,45.4340087],[-73.4911346,45.4334275],[-73.4909583,45.4321926],[-73.4908908,45.431756]]}";60;Autoroute René-Levesque;3;100;false;true;true;false;false;false;359.0;0;0;0;0;0;false;76288;6133353670;-73.564773;45.498408;76253;6133353892;-73.538899;45.390686;0;0;1;9517801;Bus 115 : Direction Delson;"";EXO;115 S;Terminus Mansfield;Stationnement Incitatif Georges-Gagné
13511249;"{\"type\":\"LineString\",\"coordinates\":[[-73.4908908,45.431756],[-73.4908483,45.4314654]]}";61;Autoroute René-Levesque;3;100;false;true;true;false;false;false;33.0;0;0;0;0;0;false;76288;6133353670;-73.564773;45.498408;76253;6133353892;-73.538899;45.390686;0;0;1;9517801;Bus 115 : Direction Delson;"";EXO;115 S;Terminus Mansfield;Stationnement Incitatif Georges-Gagné
685495610;"{\"type\":\"LineString\",\"coordinates\":[[-73.4908483,45.4314654],[-73.4907887,45.4310777],[-73.4907346,45.4306734],[-73.4907182,45.430535],[-73.4907071,45.4304232],[-73.4906981,45.430309],[-73.4906912,45.4301743],[-73.4906899,45.4300238],[-73.4906954,45.4298224],[-73.4907042,45.4295976]]}";62;Autoroute René-Levesque;3;100;false;true;true;false;false;false;209.0;0;0;0;0;0;false;76288;6133353670;-73.564773;45.498408;76253;6133353892;-73.538899;45.390686;0;0;1;9517801;Bus 115 : Direction Delson;"";EXO;115 S;Terminus Mansfield;Stationnement Incitatif Georges-Gagné
13511250;"{\"type\":\"LineString\",\"coordinates\":[[-73.4907042,45.4295976],[-73.4907159,45.4294696],[-73.4907325,45.4293173],[-73.4907543,45.429176],[-73.4907932,45.4289653],[-73.4908414,45.4287416],[-73.4908962,45.4285468],[-73.4909584,45.4283457],[-73.4910317,45.4281458],[-73.4910934,45.4279931],[-73.4911698,45.4278108],[-73.4912637,45.4276162],[-73.4913816,45.42739],[-73.4914855,45.4272115],[-73.4915933,45.4270385],[-73.4916972,45.4268827],[-73.4918373,45.4266838],[-73.4919801,45.426498],[-73.4921056,45.4263428],[-73.492252,45.4261773],[-73.4923593,45.4260603],[-73.4924942,45.4259184],[-73.4926208,45.4257946],[-73.4927942,45.4256294],[-73.492961,45.4254788],[-73.4930792,45.4253813],[-73.4932886,45.4252119],[-73.4938419,45.4247857],[-73.4945819,45.4242095],[-73.4948498,45.4239914],[-73.4950456,45.4238263],[-73.4952036,45.4236904],[-73.4954983,45.4234241]]}";63;Autoroute René-Levesque;3;100;false;true;true;false;false;false;801.0;0;0;0;0;0;false;76288;6133353670;-73.564773;45.498408;76253;6133353892;-73.538899;45.390686;0;0;1;9517801;Bus 115 : Direction Delson;"";EXO;115 S;Terminus Mansfield;Stationnement Incitatif Georges-Gagné
800146073;"{\"type\":\"LineString\",\"coordinates\":[[-73.4954983,45.4234241],[-73.4959169,45.4230327],[-73.4962695,45.4226778],[-73.4964583,45.4224811],[-73.4968249,45.422074],[-73.4971408,45.4216995],[-73.4974,45.4213777],[-73.4976032,45.4211087],[-73.4977741,45.4208694],[-73.4979737,45.4205847],[-73.4981175,45.4203698],[-73.498257,45.4201474],[-73.4984084,45.4198946],[-73.4985968,45.4195686],[-73.498685,45.4194095],[-73.4987977,45.4191968],[-73.4998854,45.4169966],[-73.500022,45.4167161],[-73.500251,45.4162527],[-73.5004272,45.4158945],[-73.5005974,45.4155613],[-73.500777,45.4151976],[-73.5009105,45.4149411],[-73.501016,45.4147568],[-73.5011274,45.4145886],[-73.5012502,45.4144124],[-73.5013956,45.4142223],[-73.5015364,45.4140513],[-73.5017,45.4138688],[-73.5018777,45.4136831],[-73.5020738,45.4134938],[-73.5022541,45.4133336],[-73.502453,45.413167]]}";64;Autoroute René-Levesque;3;100;false;true;true;false;false;false;1271.0;0;0;0;0;0;false;76288;6133353670;-73.564773;45.498408;76253;6133353892;-73.538899;45.390686;0;0;1;9517801;Bus 115 : Direction Delson;"";EXO;115 S;Terminus Mansfield;Stationnement Incitatif Georges-Gagné
685495609;"{\"type\":\"LineString\",\"coordinates\":[[-73.502453,45.413167],[-73.5027962,45.4128742],[-73.5030904,45.4126289],[-73.5032614,45.412485],[-73.5034066,45.4123586],[-73.5035707,45.4122228],[-73.5037445,45.4120688],[-73.5038898,45.4119267],[-73.5040172,45.4117998],[-73.5041283,45.4116787],[-73.5042703,45.4115199],[-73.5043935,45.4113669],[-73.5045166,45.4112139],[-73.5046593,45.4110203],[-73.5048138,45.410785],[-73.5049457,45.4105659],[-73.5050473,45.4103657],[-73.5051708,45.4101021],[-73.505316,45.409786],[-73.5055102,45.4093582],[-73.505747,45.408845],[-73.5059109,45.4084922]]}";65;Autoroute René-Levesque;3;100;false;true;true;false;false;false;593.0;0;0;0;0;0;false;76288;6133353670;-73.564773;45.498408;76253;6133353892;-73.538899;45.390686;0;0;1;9517801;Bus 115 : Direction Delson;"";EXO;115 S;Terminus Mansfield;Stationnement Incitatif Georges-Gagné
45342074;"{\"type\":\"LineString\",\"coordinates\":[[-73.5059109,45.4084922],[-73.506087,45.408112]]}";66;Autoroute René-Levesque;3;100;false;true;true;false;false;false;45.0;0;0;0;0;0;false;76288;6133353670;-73.564773;45.498408;76253;6133353892;-73.538899;45.390686;0;0;1;9517801;Bus 115 : Direction Delson;"";EXO;115 S;Terminus Mansfield;Stationnement Incitatif Georges-Gagné
45342072;"{\"type\":\"LineString\",\"coordinates\":[[-73.506087,45.408112],[-73.5066276,45.4069653],[-73.5069749,45.4062525],[-73.5071653,45.40581],[-73.5073142,45.4053759],[-73.5074419,45.4050044],[-73.5075545,45.4046027],[-73.5076544,45.4039951]]}";67;Autoroute René-Levesque;3;100;false;true;true;false;false;false;475.0;0;0;0;0;0;false;76288;6133353670;-73.564773;45.498408;76253;6133353892;-73.538899;45.390686;0;0;1;9517801;Bus 115 : Direction Delson;"";EXO;115 S;Terminus Mansfield;Stationnement Incitatif Georges-Gagné
48682015;"{\"type\":\"LineString\",\"coordinates\":[[-73.5076544,45.4039951],[-73.5080457,45.4019208],[-73.5081864,45.4010555],[-73.5083841,45.3998782],[-73.5085201,45.3990469],[-73.5085587,45.3988425],[-73.5085984,45.3986747],[-73.508633,45.3985548],[-73.5086815,45.3984238],[-73.508726,45.3983053],[-73.5087835,45.3981538],[-73.5088586,45.3979693],[-73.5089414,45.3977742],[-73.50905,45.3975415],[-73.509148,45.3973353],[-73.5092869,45.3970479],[-73.5093384,45.3969447],[-73.509419,45.3967805],[-73.5094947,45.3966309],[-73.5095715,45.3964879],[-73.5096573,45.3963447],[-73.5097393,45.3962086],[-73.509805,45.3961057],[-73.5098611,45.3960176],[-73.5100341,45.3957489],[-73.5102799,45.3953441]]}";68;"";1;65;false;true;true;false;false;false;989.0;0;0;0;0;0;false;76288;6133353670;-73.564773;45.498408;76253;6133353892;-73.538899;45.390686;0;0;1;9517801;Bus 115 : Direction Delson;"";EXO;115 S;Terminus Mansfield;Stationnement Incitatif Georges-Gagné
24294959;"{\"type\":\"LineString\",\"coordinates\":[[-73.5102799,45.3953441],[-73.5104031,45.3951761],[-73.510479,45.3950824],[-73.510534,45.3950224],[-73.5106232,45.3949296],[-73.510739,45.3948221],[-73.5108243,45.3947413],[-73.5109415,45.3946484],[-73.5110458,45.3945618],[-73.5111806,45.3944609],[-73.5113676,45.3943269],[-73.511561,45.3941891],[-73.5117775,45.3940528],[-73.5120836,45.3938651],[-73.5125672,45.3935648],[-73.5128295,45.393406],[-73.5130403,45.39328],[-73.5131238,45.3932255],[-73.5134106,45.3930496],[-73.5136475,45.3928946],[-73.5138983,45.3927102]]}";69;"";1;65;false;true;false;false;false;false;410.0;0;0;0;0;0;false;76288;6133353670;-73.564773;45.498408;76253;6133353892;-73.538899;45.390686;0;0;1;9517801;Bus 115 : Direction Delson;"";EXO;115 S;Terminus Mansfield;Stationnement Incitatif Georges-Gagné
210992556;"{\"type\":\"LineString\",\"coordinates\":[[-73.5138983,45.3927102],[-73.5140992,45.3925663],[-73.5142778,45.3924356],[-73.5144443,45.3922993],[-73.5146144,45.3921543],[-73.5147761,45.3919974],[-73.5149377,45.3918321]]}";70;Autoroute René-Levesque;3;100;false;true;true;false;false;false;128.0;0;0;0;0;0;false;76288;6133353670;-73.564773;45.498408;76253;6133353892;-73.538899;45.390686;0;0;1;9517801;Bus 115 : Direction Delson;"";EXO;115 S;Terminus Mansfield;Stationnement Incitatif Georges-Gagné
45326633;"{\"type\":\"LineString\",\"coordinates\":[[-73.5149377,45.3918321],[-73.5150292,45.3917367],[-73.5151314,45.3916188],[-73.5152593,45.3914617]]}";71;Autoroute René-Levesque;3;100;false;true;true;false;false;false;49.0;0;0;0;0;0;false;76288;6133353670;-73.564773;45.498408;76253;6133353892;-73.538899;45.390686;0;0;1;9517801;Bus 115 : Direction Delson;"";EXO;115 S;Terminus Mansfield;Stationnement Incitatif Georges-Gagné
45326632;"{\"type\":\"LineString\",\"coordinates\":[[-73.5152593,45.3914617],[-73.5153531,45.3913358],[-73.5154398,45.3912171],[-73.5155104,45.3911096],[-73.5156061,45.3909613],[-73.5156988,45.3907977],[-73.5157778,45.3906486],[-73.5158597,45.390474],[-73.515913,45.3903536],[-73.5159706,45.3902054],[-73.5160223,45.3900613],[-73.5160675,45.3898978],[-73.5161143,45.3897241],[-73.5162187,45.3893196],[-73.5163998,45.3886081]]}";72;Autoroute René-Levesque;3;100;false;true;true;false;false;false;332.0;0;0;0;0;0;false;76288;6133353670;-73.564773;45.498408;76253;6133353892;-73.538899;45.390686;0;0;1;9517801;Bus 115 : Direction Delson;"";EXO;115 S;Terminus Mansfield;Stationnement Incitatif Georges-Gagné
17058722;"{\"type\":\"LineString\",\"coordinates\":[[-73.5163998,45.3886081],[-73.5173654,45.3850424],[-73.518002,45.3824558],[-73.5181552,45.3818653],[-73.5182483,45.3815342],[-73.5183413,45.3812302],[-73.5184722,45.3808104],[-73.5185779,45.3804763],[-73.5186447,45.3802577],[-73.5187022,45.3800193],[-73.5189236,45.3791242]]}";73;"";1;70;false;true;true;false;false;false;1072.0;0;0;0;0;0;false;76288;6133353670;-73.564773;45.498408;76253;6133353892;-73.538899;45.390686;0;0;1;9517801;Bus 115 : Direction Delson;"";EXO;115 S;Terminus Mansfield;Stationnement Incitatif Georges-Gagné
419586839;"{\"type\":\"LineString\",\"coordinates\":[[-73.5189236,45.3791242],[-73.5190012,45.3789031],[-73.5190586,45.3787552],[-73.5191311,45.3786102],[-73.5192007,45.3784834],[-73.5192905,45.378347],[-73.5193956,45.3782227],[-73.5195081,45.3781122],[-73.5196089,45.3780257],[-73.5197245,45.3779427],[-73.5198313,45.377877],[-73.5199528,45.3778183],[-73.5200872,45.3777634],[-73.5209478,45.377457],[-73.5218209,45.377142],[-73.5220392,45.3770654],[-73.5222365,45.3769981],[-73.5224363,45.3769325],[-73.5226095,45.3768785],[-73.5227968,45.376829],[-73.5229573,45.3767916],[-73.5231325,45.3767607],[-73.5233053,45.3767368],[-73.5235188,45.3767126],[-73.5237152,45.376704],[-73.5239314,45.3767022],[-73.5240936,45.3767068],[-73.5243077,45.3767217],[-73.5245481,45.3767517],[-73.5247496,45.3767899],[-73.5249659,45.376842],[-73.5251487,45.3768922],[-73.5253058,45.3769425],[-73.5255128,45.377015],[-73.5257295,45.3770999],[-73.5264381,45.3773933]]}";74;"";1;65;false;true;true;false;false;false;723.0;0;0;0;0;0;false;76288;6133353670;-73.564773;45.498408;76253;6133353892;-73.538899;45.390686;0;0;1;9517801;Bus 115 : Direction Delson;"";EXO;115 S;Terminus Mansfield;Stationnement Incitatif Georges-Gagné
567458999;"{\"type\":\"LineString\",\"coordinates\":[[-73.5264381,45.3773933],[-73.5277289,45.3780079],[-73.5284808,45.378369],[-73.5298617,45.379026]]}";75;Route 132;3;90;false;true;false;false;false;false;324.0;0;0;0;0;0;false;76288;6133353670;-73.564773;45.498408;76253;6133353892;-73.538899;45.390686;0;0;1;9517801;Bus 115 : Direction Delson;"";EXO;115 S;Terminus Mansfield;Stationnement Incitatif Georges-Gagné
419586844;"{\"type\":\"LineString\",\"coordinates\":[[-73.5298617,45.379026],[-73.5309759,45.3796464],[-73.5312136,45.3797799],[-73.5313592,45.3798624],[-73.5315033,45.3799438],[-73.5317851,45.3801089],[-73.532264,45.3804036],[-73.5327575,45.3806914]]}";76;"";1;65;false;true;false;false;false;false;293.0;0;0;0;0;0;false;76288;6133353670;-73.564773;45.498408;76253;6133353892;-73.538899;45.390686;0;0;1;9517801;Bus 115 : Direction Delson;"";EXO;115 S;Terminus Mansfield;Stationnement Incitatif Georges-Gagné
719455495;"{\"type\":\"LineString\",\"coordinates\":[[-73.5327575,45.3806914],[-73.5330474,45.3808491],[-73.5332249,45.380943],[-73.5338811,45.3812794]]}";77;"";2;50;false;true;true;false;false;false;110.0;0;0;0;0;0;false;76288;6133353670;-73.564773;45.498408;76253;6133353892;-73.538899;45.390686;0;0;1;9517801;Bus 115 : Direction Delson;"";EXO;115 S;Terminus Mansfield;Stationnement Incitatif Georges-Gagné
800715971;"{\"type\":\"LineString\",\"coordinates\":[[-73.5338811,45.3812794],[-73.5345035,45.3815946],[-73.5351196,45.3818987],[-73.5351434,45.3819139],[-73.5352164,45.3819571],[-73.5353204,45.3820212]]}";78;"";3;50;false;true;true;false;false;false;140.0;1;1;0;0;0;false;76288;6133353670;-73.564773;45.498408;76253;6133353892;-73.538899;45.390686;0;0;1;9517801;Bus 115 : Direction Delson;"";EXO;115 S;Terminus Mansfield;Stationnement Incitatif Georges-Gagné
719455494;"{\"type\":\"LineString\",\"coordinates\":[[-73.5353204,45.3820212],[-73.535578,45.3821367],[-73.5357105,45.3821962]]}";79;"";2;50;false;true;true;false;false;false;37.0;0;0;0;0;0;false;76288;6133353670;-73.564773;45.498408;76253;6133353892;-73.538899;45.390686;0;0;1;9517801;Bus 115 : Direction Delson;"";EXO;115 S;Terminus Mansfield;Stationnement Incitatif Georges-Gagné
419586845;"{\"type\":\"LineString\",\"coordinates\":[[-73.5357105,45.3821962],[-73.5358524,45.3822633],[-73.5360476,45.3823508],[-73.5361589,45.3823981],[-73.5362839,45.3824498],[-73.5363959,45.3824938],[-73.5365038,45.3825348],[-73.5366166,45.3825759],[-73.5367547,45.3826266],[-73.5368677,45.3826652],[-73.5370206,45.3827148],[-73.5371638,45.3827598],[-73.5374435,45.3828416],[-73.5377597,45.3829385],[-73.5379576,45.3830024],[-73.5380775,45.3830447]]}";80;"";1;50;false;true;true;false;false;false;209.0;0;0;0;0;0;false;76288;6133353670;-73.564773;45.498408;76253;6133353892;-73.538899;45.390686;0;0;1;9517801;Bus 115 : Direction Delson;"";EXO;115 S;Terminus Mansfield;Stationnement Incitatif Georges-Gagné
312847945;"{\"type\":\"LineString\",\"coordinates\":[[-73.5380775,45.3830447],[-73.5385174,45.3831993]]}";81;"";1;50;false;true;true;false;false;false;39.0;0;0;0;0;0;false;76288;6133353670;-73.564773;45.498408;76253;6133353892;-73.538899;45.390686;0;0;1;9517801;Bus 115 : Direction Delson;"";EXO;115 S;Terminus Mansfield;Stationnement Incitatif Georges-Gagné
419586847;"{\"type\":\"LineString\",\"coordinates\":[[-73.5385174,45.3831993],[-73.5388474,45.383317],[-73.5391137,45.3834104],[-73.5394165,45.3835173],[-73.5396602,45.3836023],[-73.5398543,45.3836696],[-73.539955,45.3837059],[-73.5400362,45.38374],[-73.5401142,45.383785],[-73.540166,45.383826],[-73.5402008,45.383863],[-73.5402299,45.3839041],[-73.5402498,45.3839442],[-73.5402632,45.3839844],[-73.5402694,45.3840183],[-73.5402715,45.384058],[-73.5402656,45.3841085],[-73.5402508,45.3841591],[-73.5402284,45.3842164],[-73.5401137,45.3844563],[-73.5400418,45.3846116],[-73.5400172,45.384671],[-73.5400015,45.3847212],[-73.5399936,45.3847609],[-73.5399937,45.384808],[-73.5400038,45.3848545],[-73.5400145,45.3848908],[-73.5400415,45.384942],[-73.5400792,45.3849954],[-73.5401135,45.385034],[-73.5401648,45.3850755],[-73.5402074,45.385105],[-73.5402685,45.3851346],[-73.5403418,45.3851608]]}";82;"";1;50;false;true;true;false;false;false;312.0;0;0;0;0;0;false;76288;6133353670;-73.564773;45.498408;76253;6133353892;-73.538899;45.390686;0;0;1;9517801;Bus 115 : Direction Delson;"";EXO;115 S;Terminus Mansfield;Stationnement Incitatif Georges-Gagné
800715970;"{\"type\":\"LineString\",\"coordinates\":[[-73.5403418,45.3851608],[-73.5410637,45.3853917],[-73.5411069,45.3854038],[-73.5411534,45.3854125],[-73.541196,45.3854177]]}";83;"";2;50;false;true;true;false;false;false;73.0;0;0;1;0;0;false;76288;6133353670;-73.564773;45.498408;76253;6133353892;-73.538899;45.390686;0;0;1;9517801;Bus 115 : Direction Delson;"";EXO;115 S;Terminus Mansfield;Stationnement Incitatif Georges-Gagné
786214937;"{\"type\":\"LineString\",\"coordinates\":[[-73.5411372,45.385638],[-73.5411577,45.3855615],[-73.5411812,45.3854741],[-73.541196,45.3854177]]}";84;Rue Principale Nord;2;50;false;false;true;false;false;false;25.0;0;0;0;0;0;false;76288;6133353670;-73.564773;45.498408;76253;6133353892;-73.538899;45.390686;0;0;1;9517801;Bus 115 : Direction Delson;"";EXO;115 S;Terminus Mansfield;Stationnement Incitatif Georges-Gagné
798429071;"{\"type\":\"LineString\",\"coordinates\":[[-73.5405496,45.3872318],[-73.5405772,45.3871666],[-73.5407852,45.3866293],[-73.5409038,45.3863126],[-73.5410087,45.3860225],[-73.5410177,45.3859963],[-73.5410534,45.3858921],[-73.5410697,45.3858417],[-73.5410926,45.3857708],[-73.5411372,45.385638]]}";85;Rue Principale Nord;2;50;false;false;false;false;false;false;183.0;0;0;0;0;0;false;76288;6133353670;-73.564773;45.498408;76253;6133353892;-73.538899;45.390686;0;0;1;9517801;Bus 115 : Direction Delson;"";EXO;115 S;Terminus Mansfield;Stationnement Incitatif Georges-Gagné
685884551;"{\"type\":\"LineString\",\"coordinates\":[[-73.5389993,45.3908359],[-73.5390227,45.3906201],[-73.5390328,45.3905356],[-73.539046,45.3904669],[-73.5390571,45.3904149],[-73.5390667,45.3903753],[-73.5390865,45.3903026],[-73.53911,45.3902134],[-73.5391268,45.3901583],[-73.5391442,45.3900974],[-73.5391528,45.3900681],[-73.5391645,45.3900282],[-73.53919,45.3899384],[-73.5392322,45.3898173],[-73.5392975,45.3896439],[-73.5393565,45.3895105],[-73.539405,45.3894093],[-73.5394821,45.3892628],[-73.5395887,45.3890601],[-73.539787,45.3886883],[-73.5399671,45.38835],[-73.5400283,45.3882351],[-73.5400929,45.3881139],[-73.5401364,45.3880323],[-73.5403805,45.3875743],[-73.5404878,45.3873629],[-73.5405496,45.3872318]]}";86;Rue Principale Nord;2;50;false;false;false;false;false;false;420.0;0;0;0;0;0;false;76288;6133353670;-73.564773;45.498408;76253;6133353892;-73.538899;45.390686;2;0;1;9517801;Bus 115 : Direction Delson;"";EXO;115 S;Terminus Mansfield;Stationnement Incitatif Georges-Gagné
17059171;"{\"type\":\"LineString\",\"coordinates\":[[-73.5378171,45.400679],[-73.5378063,45.4006456],[-73.5377981,45.4006059],[-73.5377963,45.4005908],[-73.5377967,45.4004963],[-73.5377961,45.400402],[-73.5377949,45.4002014],[-73.5377939,45.4000452],[-73.5377959,45.3995468],[-73.5377946,45.3994455],[-73.537795,45.3991828],[-73.5378017,45.3987695],[-73.5378187,45.3983629],[-73.5378234,45.3981494],[-73.5378273,45.3980588],[-73.5378334,45.3979627],[-73.5378438,45.3978487],[-73.5378589,45.3977317],[-73.5378642,45.3976976],[-73.5378767,45.3976165],[-73.5378912,45.3975398],[-73.5379022,45.3974818],[-73.537927,45.3973747],[-73.5379518,45.397289],[-73.5379635,45.3972538],[-73.5379704,45.3972331],[-73.5380502,45.3969918],[-73.5380783,45.3969068],[-73.5381264,45.3967673],[-73.5381558,45.3966821],[-73.5381868,45.3965923],[-73.5382303,45.3964721],[-73.5383042,45.3962676],[-73.5383373,45.3961762],[-73.5384505,45.3958754],[-73.5384729,45.3958158],[-73.5385908,45.3955025],[-73.5386682,45.3952967],[-73.5386754,45.3952776],[-73.5386914,45.3952308],[-73.5387523,45.3950523],[-73.5388013,45.3949095],[-73.538855,45.3947552],[-73.5388835,45.3946647],[-73.5389059,45.3945933],[-73.5389522,45.3944306],[-73.5389903,45.3943025],[-73.5390228,45.3941581],[-73.5390483,45.394028],[-73.5390667,45.3938995],[-73.5390822,45.393768],[-73.5390941,45.3935311],[-73.5390946,45.3933751],[-73.5390882,45.3931468],[-73.5390793,45.3929656],[-73.5390751,45.392855],[-73.5390739,45.3928366],[-73.5390726,45.392818],[-73.5390679,45.3927478],[-73.5390634,45.3926705],[-73.5390624,45.3926544],[-73.539038,45.3922718],[-73.5390108,45.3918453],[-73.5390101,45.3918284],[-73.5390062,45.3917407],[-73.5390027,45.3916599],[-73.5390018,45.3916388],[-73.5389843,45.3913405],[-73.5389797,45.3912429],[-73.5389784,45.3911692],[-73.5389793,45.3910896],[-73.5389818,45.3910129],[-73.5389856,45.3909674],[-73.5389993,45.3908359]]}";1;Rue Principale Nord;2;50;false;false;false;false;false;false;552.5;0;3;5;0;0;false;76257;6133353891;-73.537693;45.400473;76364;6133353635;-73.544174;45.401332;1;5;6;9517801;Bus 115 : Direction Delson;"";EXO;115 S;Terminus Mansfield;Stationnement Incitatif Georges-Gagné
773623732;"{\"type\":\"LineString\",\"coordinates\":[[-73.5418725,45.4011843],[-73.5416848,45.4011573],[-73.5413933,45.4011088],[-73.5412959,45.4010926],[-73.5407497,45.4009885],[-73.5406024,45.4009596],[-73.5404546,45.4009306],[-73.5402595,45.4008896],[-73.5400769,45.400849],[-73.5399484,45.400821],[-73.5399089,45.4008124],[-73.5398898,45.4008082],[-73.5396798,45.4007653],[-73.5395123,45.4007344],[-73.5393345,45.4007062],[-73.5391604,45.4006839],[-73.539058,45.400673],[-73.5389694,45.4006651],[-73.538941,45.4006632],[-73.5387852,45.4006527],[-73.5386184,45.4006473],[-73.5384576,45.4006468],[-73.5384241,45.4006467],[-73.5382616,45.4006487],[-73.5381987,45.4006522],[-73.538109,45.4006573],[-73.5379502,45.4006693],[-73.5379235,45.4006718],[-73.5378171,45.400679]]}";2;Boulevard Marie-Victorin;2;50;false;false;true;false;false;false;325.0;0;2;0;0;0;false;76257;6133353891;-73.537693;45.400473;76364;6133353635;-73.544174;45.401332;0;5;6;9517801;Bus 115 : Direction Delson;"";EXO;115 S;Terminus Mansfield;Stationnement Incitatif Georges-Gagné
684453413;"{\"type\":\"LineString\",\"coordinates\":[[-73.5444123,45.4012297],[-73.5443136,45.4012399],[-73.5442732,45.4012435],[-73.5441013,45.4012586],[-73.5439151,45.4012742],[-73.543732,45.4012853],[-73.5435561,45.4012927],[-73.5433533,45.4012954],[-73.5431928,45.4012927],[-73.5431322,45.4012906],[-73.5430508,45.4012877],[-73.5429643,45.4012846],[-73.5428208,45.4012779],[-73.5427104,45.4012719],[-73.5425747,45.4012631],[-73.5423778,45.4012467],[-73.5422033,45.4012273],[-73.5420365,45.4012076],[-73.5418725,45.4011843]]}";3;Boulevard Marie-Victorin;2;50;false;false;true;false;false;false;100.0;0;2;1;0;0;false;76257;6133353891;-73.537693;45.400473;76364;6133353635;-73.544174;45.401332;1;5;6;9517801;Bus 115 : Direction Delson;"";EXO;115 S;Terminus Mansfield;Stationnement Incitatif Georges-Gagné
684453413;"{\"type\":\"LineString\",\"coordinates\":[[-73.5444123,45.4012297],[-73.5443136,45.4012399],[-73.5442732,45.4012435],[-73.5441013,45.4012586],[-73.5439151,45.4012742],[-73.543732,45.4012853],[-73.5435561,45.4012927],[-73.5433533,45.4012954],[-73.5431928,45.4012927],[-73.5431322,45.4012906],[-73.5430508,45.4012877],[-73.5429643,45.4012846],[-73.5428208,45.4012779],[-73.5427104,45.4012719],[-73.5425747,45.4012631],[-73.5423778,45.4012467],[-73.5422033,45.4012273],[-73.5420365,45.4012076],[-73.5418725,45.4011843]]}";1;Boulevard Marie-Victorin;2;50;false;false;true;false;false;false;100.0;0;2;1;0;0;false;76364;6133353635;-73.544174;45.401332;76407;6133353616;-73.547079;45.401022;1;6;7;9517801;Bus 115 : Direction Delson;"";EXO;115 S;Terminus Mansfield;Stationnement Incitatif Georges-Gagné
684608131;"{\"type\":\"LineString\",\"coordinates\":[[-73.5503511,45.4007917],[-73.5502551,45.4007819],[-73.5500248,45.4007628],[-73.5499846,45.4007595],[-73.5498039,45.4007475],[-73.5497442,45.4007441],[-73.5496244,45.4007374],[-73.5494301,45.4007289],[-73.5492883,45.400725],[-73.5491622,45.400724],[-73.5490035,45.4007249],[-73.54885,45.4007277],[-73.5486862,45.4007336],[-73.5486174,45.4007373],[-73.5485294,45.4007421],[-73.5483689,45.4007551],[-73.5482059,45.4007723],[-73.5480601,45.4007906],[-73.5478895,45.4008133],[-73.5475967,45.4008567],[-73.5475582,45.4008621],[-73.5473798,45.4008873],[-73.5472115,45.4009121],[-73.5471719,45.4009179],[-73.5471449,45.4009219],[-73.5470386,45.400938],[-73.546914,45.4009542],[-73.5467367,45.4009782],[-73.5465699,45.4009978],[-73.5462961,45.4010294],[-73.5461487,45.401047],[-73.5456711,45.4010982],[-73.5451002,45.4011595],[-73.5448654,45.4011833],[-73.5448429,45.4011856],[-73.5445913,45.4012114],[-73.5444123,45.4012297]]}";2;Boulevard Marie-Victorin;2;50;false;false;true;false;false;false;235.0;0;1;4;0;0;false;76364;6133353635;-73.544174;45.401332;76407;6133353616;-73.547079;45.401022;1;6;7;9517801;Bus 115 : Direction Delson;"";EXO;115 S;Terminus Mansfield;Stationnement Incitatif Georges-Gagné
684608131;"{\"type\":\"LineString\",\"coordinates\":[[-73.5503511,45.4007917],[-73.5502551,45.4007819],[-73.5500248,45.4007628],[-73.5499846,45.4007595],[-73.5498039,45.4007475],[-73.5497442,45.4007441],[-73.5496244,45.4007374],[-73.5494301,45.4007289],[-73.5492883,45.400725],[-73.5491622,45.400724],[-73.5490035,45.4007249],[-73.54885,45.4007277],[-73.5486862,45.4007336],[-73.5486174,45.4007373],[-73.5485294,45.4007421],[-73.5483689,45.4007551],[-73.5482059,45.4007723],[-73.5480601,45.4007906],[-73.5478895,45.4008133],[-73.5475967,45.4008567],[-73.5475582,45.4008621],[-73.5473798,45.4008873],[-73.5472115,45.4009121],[-73.5471719,45.4009179],[-73.5471449,45.4009219],[-73.5470386,45.400938],[-73.546914,45.4009542],[-73.5467367,45.4009782],[-73.5465699,45.4009978],[-73.5462961,45.4010294],[-73.5461487,45.401047],[-73.5456711,45.4010982],[-73.5451002,45.4011595],[-73.5448654,45.4011833],[-73.5448429,45.4011856],[-73.5445913,45.4012114],[-73.5444123,45.4012297]]}";1;Boulevard Marie-Victorin;2;50;false;false;true;false;false;false;235.0;0;1;4;0;0;false;76407;6133353616;-73.547079;45.401022;76180;6133353952;-73.550613;45.40051;1;7;8;9517801;Bus 115 : Direction Delson;"";EXO;115 S;Terminus Mansfield;Stationnement Incitatif Georges-Gagné
798546585;"{\"type\":\"LineString\",\"coordinates\":[[-73.5534672,45.3954145],[-73.5533892,45.3954563],[-73.5528672,45.3957364],[-73.5528063,45.3957737],[-73.5527561,45.3958073],[-73.5527066,45.3958441],[-73.5526574,45.3958819],[-73.5526151,45.39592],[-73.5525583,45.3959769],[-73.5523337,45.3962089],[-73.552242,45.3963087],[-73.552209,45.3963473],[-73.5521721,45.3963951],[-73.5521445,45.3964324],[-73.5521134,45.3964804],[-73.5520882,45.3965229],[-73.5520648,45.3965655],[-73.5520256,45.3966429],[-73.5519845,45.3967274],[-73.5518904,45.3969268],[-73.5517376,45.3972379],[-73.551503,45.3977205],[-73.5512562,45.3982646],[-73.5512516,45.3982746],[-73.5512145,45.3983546],[-73.5511876,45.3984114],[-73.5511839,45.3984192],[-73.5511227,45.3985348],[-73.5510011,45.3987645],[-73.5509815,45.3988037],[-73.5509614,45.3988499],[-73.55095,45.3988853],[-73.5509413,45.398922],[-73.5509357,45.3989509],[-73.5509326,45.398967],[-73.5509263,45.3990227],[-73.5509214,45.3990888],[-73.5509167,45.3991915],[-73.550903,45.3994091],[-73.5508962,45.3995172],[-73.5508938,45.399532],[-73.5508855,45.3995833],[-73.5508778,45.3996259],[-73.5508719,45.399658],[-73.5508548,45.3997171],[-73.5508385,45.3997686],[-73.5508266,45.3997995],[-73.5508192,45.3998187],[-73.5507932,45.3998794],[-73.5507617,45.3999451],[-73.5507207,45.4000279],[-73.5506815,45.400107],[-73.550639,45.4001928],[-73.5505883,45.4002951],[-73.5504464,45.4005815],[-73.5503847,45.4007062],[-73.5503727,45.4007292],[-73.5503621,45.4007562],[-73.5503511,45.4007917]]}";2;Rue des Cascades;2;30;false;false;false;false;false;false;331.0;0;5;5;0;0;false;76407;6133353616;-73.547079;45.401022;76180;6133353952;-73.550613;45.40051;1;7;8;9517801;Bus 115 : Direction Delson;"";EXO;115 S;Terminus Mansfield;Stationnement Incitatif Georges-Gagné
798546585;"{\"type\":\"LineString\",\"coordinates\":[[-73.5534672,45.3954145],[-73.5533892,45.3954563],[-73.5528672,45.3957364],[-73.5528063,45.3957737],[-73.5527561,45.3958073],[-73.5527066,45.3958441],[-73.5526574,45.3958819],[-73.5526151,45.39592],[-73.5525583,45.3959769],[-73.5523337,45.3962089],[-73.552242,45.3963087],[-73.552209,45.3963473],[-73.5521721,45.3963951],[-73.5521445,45.3964324],[-73.5521134,45.3964804],[-73.5520882,45.3965229],[-73.5520648,45.3965655],[-73.5520256,45.3966429],[-73.5519845,45.3967274],[-73.5518904,45.3969268],[-73.5517376,45.3972379],[-73.551503,45.3977205],[-73.5512562,45.3982646],[-73.5512516,45.3982746],[-73.5512145,45.3983546],[-73.5511876,45.3984114],[-73.5511839,45.3984192],[-73.5511227,45.3985348],[-73.5510011,45.3987645],[-73.5509815,45.3988037],[-73.5509614,45.3988499],[-73.55095,45.3988853],[-73.5509413,45.398922],[-73.5509357,45.3989509],[-73.5509326,45.398967],[-73.5509263,45.3990227],[-73.5509214,45.3990888],[-73.5509167,45.3991915],[-73.550903,45.3994091],[-73.5508962,45.3995172],[-73.5508938,45.399532],[-73.5508855,45.3995833],[-73.5508778,45.3996259],[-73.5508719,45.399658],[-73.5508548,45.3997171],[-73.5508385,45.3997686],[-73.5508266,45.3997995],[-73.5508192,45.3998187],[-73.5507932,45.3998794],[-73.5507617,45.3999451],[-73.5507207,45.4000279],[-73.5506815,45.400107],[-73.550639,45.4001928],[-73.5505883,45.4002951],[-73.5504464,45.4005815],[-73.5503847,45.4007062],[-73.5503727,45.4007292],[-73.5503621,45.4007562],[-73.5503511,45.4007917]]}";1;Rue des Cascades;2;30;false;false;false;false;false;false;331.0;0;5;5;0;0;false;76417;6133353607;-73.552106;45.396839;76184;6133353949;-73.553903;45.395289;1;10;11;9517801;Bus 115 : Direction Delson;"";EXO;115 S;Terminus Mansfield;Stationnement Incitatif Georges-Gagné
43659180;"{\"type\":\"LineString\",\"coordinates\":[[-73.5539787,45.395153],[-73.5539233,45.3951817],[-73.5538932,45.3951972],[-73.5537811,45.3952551],[-73.5535496,45.3953727],[-73.5534672,45.3954145]]}";2;Rue des Cascades;2;30;false;false;false;false;false;false;25.0;0;2;1;0;0;false;76417;6133353607;-73.552106;45.396839;76184;6133353949;-73.553903;45.395289;1;10;11;9517801;Bus 115 : Direction Delson;"";EXO;115 S;Terminus Mansfield;Stationnement Incitatif Georges-Gagné
798546556;"{\"type\":\"LineString\",\"coordinates\":[[-73.5539453,45.3948363],[-73.5539479,45.3951034],[-73.5539509,45.3951213],[-73.5539611,45.3951367],[-73.5539787,45.395153]]}";1;Rue du Chalutier;2;30;false;false;false;false;false;false;36.0;0;0;1;0;0;false;76184;6133353949;-73.553903;45.395289;76183;6133353950;-73.554097;45.394251;2;11;12;9517801;Bus 115 : Direction Delson;"";EXO;115 S;Terminus Mansfield;Stationnement Incitatif Georges-Gagné
798546565;"{\"type\":\"LineString\",\"coordinates\":[[-73.5539405,45.3945947],[-73.5539453,45.3948363]]}";2;Rue du Chalutier;2;30;false;false;false;false;false;false;27.0;0;1;0;0;0;false;76184;6133353949;-73.553903;45.395289;76183;6133353950;-73.554097;45.394251;0;11;12;9517801;Bus 115 : Direction Delson;"";EXO;115 S;Terminus Mansfield;Stationnement Incitatif Georges-Gagné
43659179;"{\"type\":\"LineString\",\"coordinates\":[[-73.5539333,45.3941283],[-73.5539332,45.3941999],[-73.5539332,45.3942232],[-73.5539395,45.3945442],[-73.5539401,45.3945724],[-73.5539405,45.3945947]]}";3;Rue du Chalutier;2;30;false;false;false;false;false;false;52.0;0;2;1;0;0;false;76184;6133353949;-73.553903;45.395289;76183;6133353950;-73.554097;45.394251;2;11;12;9517801;Bus 115 : Direction Delson;"";EXO;115 S;Terminus Mansfield;Stationnement Incitatif Georges-Gagné
786332815;"{\"type\":\"LineString\",\"coordinates\":[[-73.5556224,45.3941017],[-73.5555073,45.394106],[-73.5553928,45.3941089],[-73.5553021,45.3941111],[-73.5551788,45.394113],[-73.5551504,45.3941134],[-73.5550374,45.3941151],[-73.5549496,45.3941162],[-73.5540594,45.3941265],[-73.554031,45.3941269],[-73.5539333,45.3941283]]}";1;Boulevard Saint-Laurent;2;50;false;false;false;false;false;false;133.0;0;3;1;0;0;false;76183;6133353950;-73.554097;45.394251;76054;6133354145;-73.55656;45.394193;2;12;13;9517801;Bus 115 : Direction Delson;"";EXO;115 S;Terminus Mansfield;Stationnement Incitatif Georges-Gagné
786332814;"{\"type\":\"LineString\",\"coordinates\":[[-73.5556224,45.3941017],[-73.5558646,45.3941051],[-73.5559559,45.3941027],[-73.5560227,45.3941016],[-73.5561696,45.3940965],[-73.5562537,45.3940902]]}";2;Boulevard Saint-Laurent;1;50;false;true;true;false;false;false;50.0;0;0;0;0;0;false;76183;6133353950;-73.554097;45.394251;76054;6133354145;-73.55656;45.394193;0;12;13;9517801;Bus 115 : Direction Delson;"";EXO;115 S;Terminus Mansfield;Stationnement Incitatif Georges-Gagné
786332830;"{\"type\":\"LineString\",\"coordinates\":[[-73.5562537,45.3940902],[-73.5565194,45.3940652],[-73.5565565,45.3940627],[-73.5566583,45.3940558]]}";3;Boulevard Saint-Laurent;2;50;false;true;true;false;false;false;32.0;0;1;1;0;0;false;76183;6133353950;-73.554097;45.394251;76054;6133354145;-73.55656;45.394193;2;12;13;9517801;Bus 115 : Direction Delson;"";EXO;115 S;Terminus Mansfield;Stationnement Incitatif Georges-Gagné
786332819;"{\"type\":\"LineString\",\"coordinates\":[[-73.5566583,45.3940558],[-73.5568033,45.3940439]]}";1;Boulevard Saint-Laurent;1;50;false;true;true;false;false;false;12.0;0;0;0;0;0;false;76054;6133354145;-73.55656;45.394193;76185;6133353948;-73.555867;45.391619;2;13;14;9517801;Bus 115 : Direction Delson;"";EXO;115 S;Terminus Mansfield;Stationnement Incitatif Georges-Gagné
684453411;"{\"type\":\"LineString\",\"coordinates\":[[-73.5568033,45.3940439],[-73.5567635,45.3939723]]}";2;Boulevard des Écluses;2;50;false;true;true;false;false;false;9.0;0;0;0;0;0;false;76054;6133354145;-73.55656;45.394193;76185;6133353948;-73.555867;45.391619;0;13;14;9517801;Bus 115 : Direction Delson;"";EXO;115 S;Terminus Mansfield;Stationnement Incitatif Georges-Gagné
786332817;"{\"type\":\"LineString\",\"coordinates\":[[-73.5567635,45.3939723],[-73.5567287,45.3939099],[-73.5567114,45.3938829],[-73.5566977,45.3938576],[-73.5566298,45.3937119],[-73.5564573,45.3933278],[-73.5563056,45.3929877],[-73.5562594,45.3928853],[-73.5561832,45.3927156],[-73.5560244,45.392358],[-73.5558668,45.3919929],[-73.5558409,45.3919347],[-73.5557404,45.391696],[-73.5557258,45.391649],[-73.5557136,45.3915948],[-73.5557049,45.3915413],[-73.5556993,45.3914974],[-73.5556957,45.3914485],[-73.5556948,45.3914095],[-73.555697,45.3913714],[-73.5557011,45.3913307],[-73.555708,45.3912897],[-73.5557192,45.3912358],[-73.5557369,45.391181],[-73.5557568,45.3911292],[-73.5557843,45.3910669],[-73.5558186,45.390991],[-73.5558567,45.3909103],[-73.5558973,45.3908259],[-73.5560551,45.3905099],[-73.5561057,45.3904085],[-73.5561549,45.3903101],[-73.5561806,45.3902586],[-73.5564541,45.3897065]]}";3;Boulevard des Écluses;1;50;false;true;true;false;false;false;497.0;0;6;1;0;0;false;76054;6133354145;-73.55656;45.394193;76185;6133353948;-73.555867;45.391619;2;13;14;9517801;Bus 115 : Direction Delson;"";EXO;115 S;Terminus Mansfield;Stationnement Incitatif Georges-Gagné
786332817;"{\"type\":\"LineString\",\"coordinates\":[[-73.5567635,45.3939723],[-73.5567287,45.3939099],[-73.5567114,45.3938829],[-73.5566977,45.3938576],[-73.5566298,45.3937119],[-73.5564573,45.3933278],[-73.5563056,45.3929877],[-73.5562594,45.3928853],[-73.5561832,45.3927156],[-73.5560244,45.392358],[-73.5558668,45.3919929],[-73.5558409,45.3919347],[-73.5557404,45.391696],[-73.5557258,45.391649],[-73.5557136,45.3915948],[-73.5557049,45.3915413],[-73.5556993,45.3914974],[-73.5556957,45.3914485],[-73.5556948,45.3914095],[-73.555697,45.3913714],[-73.5557011,45.3913307],[-73.555708,45.3912897],[-73.5557192,45.3912358],[-73.5557369,45.391181],[-73.5557568,45.3911292],[-73.5557843,45.3910669],[-73.5558186,45.390991],[-73.5558567,45.3909103],[-73.5558973,45.3908259],[-73.5560551,45.3905099],[-73.5561057,45.3904085],[-73.5561549,45.3903101],[-73.5561806,45.3902586],[-73.5564541,45.3897065]]}";1;Boulevard des Écluses;1;50;false;true;true;false;false;false;248.5;0;6;1;0;0;false;76185;6133353948;-73.555867;45.391619;76186;6133353947;-73.557008;45.389252;1;14;15;9517801;Bus 115 : Direction Delson;"";EXO;115 S;Terminus Mansfield;Stationnement Incitatif Georges-Gagné
786332835;"{\"type\":\"LineString\",\"coordinates\":[[-73.5564541,45.3897065],[-73.5565211,45.389569]]}";2;Boulevard des Écluses;1;50;false;true;true;false;false;false;17.0;0;0;0;0;0;false;76185;6133353948;-73.555867;45.391619;76186;6133353947;-73.557008;45.389252;0;14;15;9517801;Bus 115 : Direction Delson;"";EXO;115 S;Terminus Mansfield;Stationnement Incitatif Georges-Gagné
786332834;"{\"type\":\"LineString\",\"coordinates\":[[-73.5565211,45.389569],[-73.5566635,45.3892815],[-73.5567715,45.3890635],[-73.556813,45.3889799],[-73.5569842,45.3886343],[-73.5570098,45.3885826],[-73.5571368,45.3883262],[-73.5571504,45.3882989],[-73.5573646,45.3878664],[-73.557389,45.3878171],[-73.557471,45.3876517],[-73.5576298,45.3872419]]}";3;Boulevard des Écluses;1;50;false;true;true;false;false;false;136.5;0;5;0;0;0;false;76185;6133353948;-73.555867;45.391619;76186;6133353947;-73.557008;45.389252;1;14;15;9517801;Bus 115 : Direction Delson;"";EXO;115 S;Terminus Mansfield;Stationnement Incitatif Georges-Gagné
786332834;"{\"type\":\"LineString\",\"coordinates\":[[-73.5565211,45.389569],[-73.5566635,45.3892815],[-73.5567715,45.3890635],[-73.556813,45.3889799],[-73.5569842,45.3886343],[-73.5570098,45.3885826],[-73.5571368,45.3883262],[-73.5571504,45.3882989],[-73.5573646,45.3878664],[-73.557389,45.3878171],[-73.557471,45.3876517],[-73.5576298,45.3872419]]}";1;Boulevard des Écluses;1;50;false;true;true;false;false;false;136.5;0;5;0;0;0;false;76186;6133353947;-73.557008;45.389252;76080;6133354127;-73.5478906;45.3844531;1;15;16;9517801;Bus 115 : Direction Delson;"";EXO;115 S;Terminus Mansfield;Stationnement Incitatif Georges-Gagné
462489321;"{\"type\":\"LineString\",\"coordinates\":[[-73.5577454,45.3870329],[-73.5577062,45.3871057],[-73.5577002,45.3871169],[-73.5576298,45.3872419]]}";2;Chemin des Écluses;4;50;false;false;true;false;false;false;25.0;1;1;0;0;0;false;76186;6133353947;-73.557008;45.389252;76080;6133354127;-73.5478906;45.3844531;0;15;16;9517801;Bus 115 : Direction Delson;"";EXO;115 S;Terminus Mansfield;Stationnement Incitatif Georges-Gagné
761308033;"{\"type\":\"LineString\",\"coordinates\":[[-73.5577454,45.3870329],[-73.5578056,45.3869268]]}";3;Rue Saint-Pierre;4;50;false;false;true;false;false;false;13.0;0;0;0;0;0;false;76186;6133353947;-73.557008;45.389252;76080;6133354127;-73.5478906;45.3844531;0;15;16;9517801;Bus 115 : Direction Delson;"";EXO;115 S;Terminus Mansfield;Stationnement Incitatif Georges-Gagné
545442535;"{\"type\":\"LineString\",\"coordinates\":[[-73.5578056,45.3869268],[-73.5575927,45.3868965],[-73.5573565,45.3868754],[-73.5565968,45.3868124],[-73.5565316,45.3868228]]}";4;Route 132;2;70;false;true;true;false;false;false;101.0;0;0;0;0;0;false;76186;6133353947;-73.557008;45.389252;76080;6133354127;-73.5478906;45.3844531;0;15;16;9517801;Bus 115 : Direction Delson;"";EXO;115 S;Terminus Mansfield;Stationnement Incitatif Georges-Gagné
801354423;"{\"type\":\"LineString\",\"coordinates\":[[-73.5565316,45.3868228],[-73.5563281,45.3868549]]}";5;Route 132;2;70;false;true;true;false;false;false;17.0;0;0;0;0;0;false;76186;6133353947;-73.557008;45.389252;76080;6133354127;-73.5478906;45.3844531;0;15;16;9517801;Bus 115 : Direction Delson;"";EXO;115 S;Terminus Mansfield;Stationnement Incitatif Georges-Gagné
349638352;"{\"type\":\"LineString\",\"coordinates\":[[-73.5563281,45.3868549],[-73.5561538,45.3868432]]}";6;Route 132;4;70;false;false;true;false;false;false;14.0;0;0;0;0;0;false;76186;6133353947;-73.557008;45.389252;76080;6133354127;-73.5478906;45.3844531;0;15;16;9517801;Bus 115 : Direction Delson;"";EXO;115 S;Terminus Mansfield;Stationnement Incitatif Georges-Gagné
801354424;"{\"type\":\"LineString\",\"coordinates\":[[-73.5561538,45.3868432],[-73.5557361,45.3868119]]}";7;Route 132;4;70;false;false;true;false;false;false;33.0;0;0;0;0;0;false;76186;6133353947;-73.557008;45.389252;76080;6133354127;-73.5478906;45.3844531;0;15;16;9517801;Bus 115 : Direction Delson;"";EXO;115 S;Terminus Mansfield;Stationnement Incitatif Georges-Gagné
798957406;"{\"type\":\"LineString\",\"coordinates\":[[-73.5557361,45.3868119],[-73.5556658,45.3868062],[-73.5553093,45.386776],[-73.5549002,45.3867431],[-73.5544429,45.3867064],[-73.5542414,45.3866903],[-73.5540569,45.3866756]]}";8;Route 132;5;70;false;false;true;false;false;false;133.0;0;0;0;0;0;false;76186;6133353947;-73.557008;45.389252;76080;6133354127;-73.5478906;45.3844531;0;15;16;9517801;Bus 115 : Direction Delson;"";EXO;115 S;Terminus Mansfield;Stationnement Incitatif Georges-Gagné
760831496;"{\"type\":\"LineString\",\"coordinates\":[[-73.5540569,45.3866756],[-73.5538837,45.3866621]]}";9;Route 132;5;70;false;false;true;false;false;false;14.0;0;0;0;0;0;false;76186;6133353947;-73.557008;45.389252;76080;6133354127;-73.5478906;45.3844531;0;15;16;9517801;Bus 115 : Direction Delson;"";EXO;115 S;Terminus Mansfield;Stationnement Incitatif Georges-Gagné
760831495;"{\"type\":\"LineString\",\"coordinates\":[[-73.5538837,45.3866621],[-73.5533491,45.3866188]]}";10;Route 132;5;70;false;false;true;false;false;false;43.0;0;0;0;0;0;false;76186;6133353947;-73.557008;45.389252;76080;6133354127;-73.5478906;45.3844531;0;15;16;9517801;Bus 115 : Direction Delson;"";EXO;115 S;Terminus Mansfield;Stationnement Incitatif Georges-Gagné
474749543;"{\"type\":\"LineString\",\"coordinates\":[[-73.5533491,45.3866188],[-73.5530226,45.3865422]]}";11;Route 132;2;70;false;true;true;false;false;false;27.0;0;0;0;0;0;false;76186;6133353947;-73.557008;45.389252;76080;6133354127;-73.5478906;45.3844531;0;15;16;9517801;Bus 115 : Direction Delson;"";EXO;115 S;Terminus Mansfield;Stationnement Incitatif Georges-Gagné
801354425;"{\"type\":\"LineString\",\"coordinates\":[[-73.5530226,45.3865422],[-73.5525616,45.3864994]]}";12;Route 132;2;70;false;true;true;false;false;false;37.0;0;0;0;0;0;false;76186;6133353947;-73.557008;45.389252;76080;6133354127;-73.5478906;45.3844531;0;15;16;9517801;Bus 115 : Direction Delson;"";EXO;115 S;Terminus Mansfield;Stationnement Incitatif Georges-Gagné
798950923;"{\"type\":\"LineString\",\"coordinates\":[[-73.5525616,45.3864994],[-73.5521023,45.386444],[-73.5519021,45.3864207]]}";13;Route 132;3;70;false;true;true;false;false;false;53.0;1;0;0;0;0;false;76186;6133353947;-73.557008;45.389252;76080;6133354127;-73.5478906;45.3844531;0;15;16;9517801;Bus 115 : Direction Delson;"";EXO;115 S;Terminus Mansfield;Stationnement Incitatif Georges-Gagné
474749542;"{\"type\":\"LineString\",\"coordinates\":[[-73.5519021,45.3864207],[-73.5518327,45.3864091],[-73.5517439,45.386394],[-73.5515609,45.3863633],[-73.5508086,45.386233],[-73.5505762,45.386188],[-73.5503506,45.3861388],[-73.5500854,45.3860778],[-73.5493973,45.3859107],[-73.5487077,45.3857344]]}";14;Route 132;2;70;false;true;true;false;false;false;262.0;0;1;0;0;0;false;76186;6133353947;-73.557008;45.389252;76080;6133354127;-73.5478906;45.3844531;0;15;16;9517801;Bus 115 : Direction Delson;"";EXO;115 S;Terminus Mansfield;Stationnement Incitatif Georges-Gagné
349640916;"{\"type\":\"LineString\",\"coordinates\":[[-73.5487077,45.3857344],[-73.5478879,45.3854761],[-73.5476794,45.3854223],[-73.5475711,45.3853911],[-73.5474867,45.3853605],[-73.5474113,45.3853229],[-73.5473658,45.3852946],[-73.5473284,45.3852675],[-73.5472971,45.3852405],[-73.5472771,45.3852214],[-73.5472642,45.3851941],[-73.5472591,45.3851635],[-73.5472583,45.3851395],[-73.5472818,45.3848615]]}";15;"";1;50;false;true;true;false;false;false;168.0;0;1;0;0;0;false;76186;6133353947;-73.557008;45.389252;76080;6133354127;-73.5478906;45.3844531;0;15;16;9517801;Bus 115 : Direction Delson;"";EXO;115 S;Terminus Mansfield;Stationnement Incitatif Georges-Gagné
801354426;"{\"type\":\"LineString\",\"coordinates\":[[-73.5474046,45.3846145],[-73.5473662,45.3846918],[-73.5472818,45.3848615]]}";16;Boulevard Georges-Gagné Sud;4;50;false;false;true;false;false;false;30.0;0;0;0;0;0;false;76186;6133353947;-73.557008;45.389252;76080;6133354127;-73.5478906;45.3844531;0;15;16;9517801;Bus 115 : Direction Delson;"";EXO;115 S;Terminus Mansfield;Stationnement Incitatif Georges-Gagné
798994210;"{\"type\":\"LineString\",\"coordinates\":[[-73.5474325,45.3845584],[-73.5474046,45.3846145]]}";17;Boulevard Georges-Gagné Sud;4;50;false;false;true;false;false;false;7.0;0;0;0;0;0;false;76186;6133353947;-73.557008;45.389252;76080;6133354127;-73.5478906;45.3844531;0;15;16;9517801;Bus 115 : Direction Delson;"";EXO;115 S;Terminus Mansfield;Stationnement Incitatif Georges-Gagné
798994211;"{\"type\":\"LineString\",\"coordinates\":[[-73.5474325,45.3845584],[-73.5475239,45.3845788],[-73.5475804,45.3845909],[-73.5476084,45.3845958],[-73.5476404,45.3845958],[-73.5476745,45.3845888],[-73.5477025,45.3845733],[-73.5477205,45.3845536],[-73.5478647,45.3842618],[-73.5478777,45.3842309],[-73.5478807,45.384214],[-73.5478777,45.3841957],[-73.5478607,45.3841732],[-73.5478316,45.3841557],[-73.5477946,45.3841409],[-73.5477804,45.3841368],[-73.5477512,45.3841289],[-73.5477025,45.384117],[-73.5476571,45.3841066]]}";18;"";1;50;false;true;true;false;false;false;88.0;0;2;1;0;0;false;76186;6133353947;-73.557008;45.389252;76080;6133354127;-73.5478906;45.3844531;1;15;16;9517801;Bus 115 : Direction Delson;"";EXO;115 S;Terminus Mansfield;Stationnement Incitatif Georges-Gagné
