way_id;shape;index;name;nb_lanes;legal_speed;speed_zone_30;oneway;shares_bike;bike_box;bus_lane;dedicated_bus_lane;length;nb_traffic_signals;nb_crossings;nb_stops;nb_give_ways;nb_lvl_crossings;roundabout;stop_id_orig;node_id_orig;coord_x_orig;coord_y_orig;stop_id_dest;node_id_dest;coord_x_dest;coord_y_dest;nb_neighbouring_ways_bus_stop;order_orig;order_dest;id_line;line_name;colour;operator;ref;from;to
110468435;"{\"type\":\"LineString\",\"coordinates\":[[-6.363729,53.3753134],[-6.3636884,53.3752472],[-6.3636468,53.3751558],[-6.3636278,53.3751141],[-6.3636161,53.3750882],[-6.3635844,53.3749606],[-6.3635526,53.3748328],[-6.3635432,53.3747924],[-6.3634936,53.3745784],[-6.3634595,53.3744334],[-6.3634298,53.3743069],[-6.3634138,53.3742536],[-6.3633824,53.3741587],[-6.3633497,53.3740835],[-6.3633072,53.3739919],[-6.3632274,53.3738648],[-6.3631575,53.3737691],[-6.3630718,53.373658],[-6.3630363,53.3736101],[-6.3629802,53.3735367],[-6.3629672,53.3735196],[-6.3629367,53.373473],[-6.3627877,53.3732455],[-6.3626637,53.3731164],[-6.3625456,53.3730416],[-6.3623888,53.3729748],[-6.3621571,53.3729113],[-6.362021,53.372866],[-6.3618781,53.3728185],[-6.3617747,53.3727732],[-6.3615303,53.3726798],[-6.3613184,53.372587],[-6.3610281,53.3724613],[-6.360908,53.3724093],[-6.3607712,53.3723437],[-6.3606478,53.3722957],[-6.3605137,53.3722525],[-6.3603715,53.3722045],[-6.3600195,53.3721352],[-6.3598031,53.3721036],[-6.359523,53.3720628],[-6.3592808,53.3720275],[-6.3590019,53.3719868],[-6.3589664,53.3719816],[-6.3586301,53.3719325],[-6.3585157,53.3719158]]}";1;Castleknock Road;2;50;false;false;true;false;false;false;573.0;4;1;0;0;0;false;1689;651346646;-6.3613995;53.3726804;1688;983631059;-6.3644477;53.3762457;1;0;1;1252258;37 - Blanchardstown Centre - Baggot Street;"";Dublin Bus;37;Blanchardstown Centre;Baggot Street
361248899;"{\"type\":\"LineString\",\"coordinates\":[[-6.3665717,53.3780203],[-6.3665013,53.3778905],[-6.3664459,53.3777927],[-6.3663871,53.3777115],[-6.3662644,53.3776016],[-6.3661168,53.3774762],[-6.365744,53.3772258],[-6.3651524,53.3768327],[-6.3650051,53.3767237],[-6.3647741,53.3765169],[-6.3645523,53.3762842],[-6.3643527,53.3760795],[-6.3641565,53.3758393],[-6.3640392,53.3756895],[-6.3640306,53.3756785],[-6.3638314,53.3754239],[-6.363729,53.3753134]]}";2;Castleknock Road;2;50;false;false;true;false;false;false;181.0;1;0;0;0;0;false;1689;651346646;-6.3613995;53.3726804;1688;983631059;-6.3644477;53.3762457;1;0;1;1252258;37 - Blanchardstown Centre - Baggot Street;"";Dublin Bus;37;Blanchardstown Centre;Baggot Street
361248899;"{\"type\":\"LineString\",\"coordinates\":[[-6.3665717,53.3780203],[-6.3665013,53.3778905],[-6.3664459,53.3777927],[-6.3663871,53.3777115],[-6.3662644,53.3776016],[-6.3661168,53.3774762],[-6.365744,53.3772258],[-6.3651524,53.3768327],[-6.3650051,53.3767237],[-6.3647741,53.3765169],[-6.3645523,53.3762842],[-6.3643527,53.3760795],[-6.3641565,53.3758393],[-6.3640392,53.3756895],[-6.3640306,53.3756785],[-6.3638314,53.3754239],[-6.363729,53.3753134]]}";1;Castleknock Road;2;50;false;false;true;false;false;false;181.0;1;0;0;0;0;false;1688;983631059;-6.3644477;53.3762457;1687;651346642;-6.367735;53.379587;1;1;2;1252258;37 - Blanchardstown Centre - Baggot Street;"";Dublin Bus;37;Blanchardstown Centre;Baggot Street
3729033;"{\"type\":\"LineString\",\"coordinates\":[[-6.3666101,53.3780767],[-6.36657,53.3780216],[-6.3665717,53.3780203]]}";2;Castleknock Road;2;50;false;false;true;false;false;false;7.0;0;0;0;0;0;false;1688;983631059;-6.3644477;53.3762457;1687;651346642;-6.367735;53.379587;0;1;2;1252258;37 - Blanchardstown Centre - Baggot Street;"";Dublin Bus;37;Blanchardstown Centre;Baggot Street
2745729;"{\"type\":\"LineString\",\"coordinates\":[[-6.3667243,53.3783114],[-6.3666463,53.3783146],[-6.366572,53.3783001],[-6.3665122,53.3782702],[-6.3664755,53.378229],[-6.3664675,53.3781818],[-6.3664902,53.3781363],[-6.3665403,53.3780994],[-6.3666101,53.3780767]]}";3;"";1;50;false;false;true;false;false;false;43.0;0;0;0;0;0;true;1688;983631059;-6.3644477;53.3762457;1687;651346642;-6.367735;53.379587;0;1;2;1252258;37 - Blanchardstown Centre - Baggot Street;"";Dublin Bus;37;Blanchardstown Centre;Baggot Street
4684259;"{\"type\":\"LineString\",\"coordinates\":[[-6.3668639,53.3786241],[-6.3668015,53.3785466],[-6.3667944,53.3785377],[-6.3667715,53.3784961],[-6.3667612,53.3784481],[-6.3667582,53.3784191],[-6.3667528,53.378398],[-6.3667243,53.3783114]]}";4;Castleknock Road;2;50;false;false;true;false;false;false;37.0;0;0;0;0;0;false;1688;983631059;-6.3644477;53.3762457;1687;651346642;-6.367735;53.379587;0;1;2;1252258;37 - Blanchardstown Centre - Baggot Street;"";Dublin Bus;37;Blanchardstown Centre;Baggot Street
4684258;"{\"type\":\"LineString\",\"coordinates\":[[-6.3673641,53.3792002],[-6.3668639,53.3786241]]}";5;Castleknock Road;2;50;false;false;true;false;false;false;73.0;0;0;0;0;0;false;1688;983631059;-6.3644477;53.3762457;1687;651346642;-6.367735;53.379587;0;1;2;1252258;37 - Blanchardstown Centre - Baggot Street;"";Dublin Bus;37;Blanchardstown Centre;Baggot Street
81982575;"{\"type\":\"LineString\",\"coordinates\":[[-6.3692711,53.3805426],[-6.3691209,53.3804402],[-6.3689574,53.3803326],[-6.3687768,53.380214],[-6.3685768,53.3800777],[-6.3683542,53.3799526],[-6.3683201,53.3799349],[-6.3681426,53.3798242],[-6.3679407,53.379701],[-6.3677154,53.3795266],[-6.3673641,53.3792002]]}";6;Castleknock Road;2;50;false;false;true;false;false;false;99.0;1;0;0;0;0;false;1688;983631059;-6.3644477;53.3762457;1687;651346642;-6.367735;53.379587;1;1;2;1252258;37 - Blanchardstown Centre - Baggot Street;"";Dublin Bus;37;Blanchardstown Centre;Baggot Street
81982575;"{\"type\":\"LineString\",\"coordinates\":[[-6.3692711,53.3805426],[-6.3691209,53.3804402],[-6.3689574,53.3803326],[-6.3687768,53.380214],[-6.3685768,53.3800777],[-6.3683542,53.3799526],[-6.3683201,53.3799349],[-6.3681426,53.3798242],[-6.3679407,53.379701],[-6.3677154,53.3795266],[-6.3673641,53.3792002]]}";1;Castleknock Road;2;50;false;false;true;false;false;false;99.0;1;0;0;0;0;false;1687;651346642;-6.367735;53.379587;404;1589739787;-6.2563741;53.3426523;1;2;3;1252258;37 - Blanchardstown Centre - Baggot Street;"";Dublin Bus;37;Blanchardstown Centre;Baggot Street
4684258;"{\"type\":\"LineString\",\"coordinates\":[[-6.3673641,53.3792002],[-6.3668639,53.3786241]]}";2;Castleknock Road;2;50;false;false;true;false;false;false;73.0;0;0;0;0;0;false;1687;651346642;-6.367735;53.379587;404;1589739787;-6.2563741;53.3426523;0;2;3;1252258;37 - Blanchardstown Centre - Baggot Street;"";Dublin Bus;37;Blanchardstown Centre;Baggot Street
4684259;"{\"type\":\"LineString\",\"coordinates\":[[-6.3668639,53.3786241],[-6.3668015,53.3785466],[-6.3667944,53.3785377],[-6.3667715,53.3784961],[-6.3667612,53.3784481],[-6.3667582,53.3784191],[-6.3667528,53.378398],[-6.3667243,53.3783114]]}";3;Castleknock Road;2;50;false;false;true;false;false;false;37.0;0;0;0;0;0;false;1687;651346642;-6.367735;53.379587;404;1589739787;-6.2563741;53.3426523;0;2;3;1252258;37 - Blanchardstown Centre - Baggot Street;"";Dublin Bus;37;Blanchardstown Centre;Baggot Street
2745729;"{\"type\":\"LineString\",\"coordinates\":[[-6.3667243,53.3783114],[-6.3666463,53.3783146],[-6.366572,53.3783001],[-6.3665122,53.3782702],[-6.3664755,53.378229],[-6.3664675,53.3781818],[-6.3664902,53.3781363],[-6.3665403,53.3780994],[-6.3666101,53.3780767]]}";4;"";1;50;false;false;true;false;false;false;43.0;0;0;0;0;0;true;1687;651346642;-6.367735;53.379587;404;1589739787;-6.2563741;53.3426523;0;2;3;1252258;37 - Blanchardstown Centre - Baggot Street;"";Dublin Bus;37;Blanchardstown Centre;Baggot Street
3729033;"{\"type\":\"LineString\",\"coordinates\":[[-6.3666101,53.3780767],[-6.36657,53.3780216],[-6.3665717,53.3780203]]}";5;Castleknock Road;2;50;false;false;true;false;false;false;7.0;0;0;0;0;0;false;1687;651346642;-6.367735;53.379587;404;1589739787;-6.2563741;53.3426523;0;2;3;1252258;37 - Blanchardstown Centre - Baggot Street;"";Dublin Bus;37;Blanchardstown Centre;Baggot Street
361248899;"{\"type\":\"LineString\",\"coordinates\":[[-6.3665717,53.3780203],[-6.3665013,53.3778905],[-6.3664459,53.3777927],[-6.3663871,53.3777115],[-6.3662644,53.3776016],[-6.3661168,53.3774762],[-6.365744,53.3772258],[-6.3651524,53.3768327],[-6.3650051,53.3767237],[-6.3647741,53.3765169],[-6.3645523,53.3762842],[-6.3643527,53.3760795],[-6.3641565,53.3758393],[-6.3640392,53.3756895],[-6.3640306,53.3756785],[-6.3638314,53.3754239],[-6.363729,53.3753134]]}";6;Castleknock Road;2;50;false;false;true;false;false;false;362.0;1;0;0;0;0;false;1687;651346642;-6.367735;53.379587;404;1589739787;-6.2563741;53.3426523;0;2;3;1252258;37 - Blanchardstown Centre - Baggot Street;"";Dublin Bus;37;Blanchardstown Centre;Baggot Street
110468435;"{\"type\":\"LineString\",\"coordinates\":[[-6.363729,53.3753134],[-6.3636884,53.3752472],[-6.3636468,53.3751558],[-6.3636278,53.3751141],[-6.3636161,53.3750882],[-6.3635844,53.3749606],[-6.3635526,53.3748328],[-6.3635432,53.3747924],[-6.3634936,53.3745784],[-6.3634595,53.3744334],[-6.3634298,53.3743069],[-6.3634138,53.3742536],[-6.3633824,53.3741587],[-6.3633497,53.3740835],[-6.3633072,53.3739919],[-6.3632274,53.3738648],[-6.3631575,53.3737691],[-6.3630718,53.373658],[-6.3630363,53.3736101],[-6.3629802,53.3735367],[-6.3629672,53.3735196],[-6.3629367,53.373473],[-6.3627877,53.3732455],[-6.3626637,53.3731164],[-6.3625456,53.3730416],[-6.3623888,53.3729748],[-6.3621571,53.3729113],[-6.362021,53.372866],[-6.3618781,53.3728185],[-6.3617747,53.3727732],[-6.3615303,53.3726798],[-6.3613184,53.372587],[-6.3610281,53.3724613],[-6.360908,53.3724093],[-6.3607712,53.3723437],[-6.3606478,53.3722957],[-6.3605137,53.3722525],[-6.3603715,53.3722045],[-6.3600195,53.3721352],[-6.3598031,53.3721036],[-6.359523,53.3720628],[-6.3592808,53.3720275],[-6.3590019,53.3719868],[-6.3589664,53.3719816],[-6.3586301,53.3719325],[-6.3585157,53.3719158]]}";7;Castleknock Road;2;50;false;false;true;false;false;false;573.0;4;1;0;0;0;false;1687;651346642;-6.367735;53.379587;404;1589739787;-6.2563741;53.3426523;0;2;3;1252258;37 - Blanchardstown Centre - Baggot Street;"";Dublin Bus;37;Blanchardstown Centre;Baggot Street
84678065;"{\"type\":\"LineString\",\"coordinates\":[[-6.3585157,53.3719158],[-6.358167,53.3718468],[-6.3578952,53.3717787],[-6.3576582,53.3717066],[-6.3572863,53.3715845],[-6.3569898,53.3714983],[-6.3568754,53.371465],[-6.3564766,53.3713626],[-6.3564324,53.3713512],[-6.3561679,53.3713015],[-6.3559078,53.3712521],[-6.3556886,53.3712235],[-6.3555618,53.3712091],[-6.3554671,53.3711983],[-6.3550944,53.3711787],[-6.3547875,53.3711824],[-6.3546405,53.3711841],[-6.3543039,53.3711876],[-6.3540193,53.3711827],[-6.3538693,53.3711724],[-6.3536573,53.371147],[-6.3533865,53.3710981],[-6.3529002,53.370979],[-6.352353,53.3708336],[-6.3514277,53.3705634],[-6.3511896,53.3704939],[-6.3509181,53.3704146],[-6.3505751,53.3703145],[-6.3497558,53.3700753],[-6.3494152,53.3699842],[-6.3489131,53.3698499],[-6.3487698,53.3698043]]}";8;Castleknock Road;3;50;false;false;true;false;false;false;703.0;2;0;0;0;0;false;1687;651346642;-6.367735;53.379587;404;1589739787;-6.2563741;53.3426523;0;2;3;1252258;37 - Blanchardstown Centre - Baggot Street;"";Dublin Bus;37;Blanchardstown Centre;Baggot Street
3729034;"{\"type\":\"LineString\",\"coordinates\":[[-6.3487698,53.3698043],[-6.3485655,53.3697762],[-6.3484085,53.3697889],[-6.347231,53.3699432],[-6.3469262,53.3699839],[-6.3445472,53.3703018],[-6.3432822,53.3704712],[-6.3421407,53.3706241],[-6.3406168,53.3708301],[-6.3403638,53.3708562],[-6.3386494,53.3710809],[-6.3378471,53.3711905],[-6.3375966,53.3712351],[-6.3374183,53.3712788],[-6.3372237,53.371337]]}";9;Castleknock Road;2;60;false;false;true;false;false;false;795.0;1;1;0;0;0;false;1687;651346642;-6.367735;53.379587;404;1589739787;-6.2563741;53.3426523;0;2;3;1252258;37 - Blanchardstown Centre - Baggot Street;"";Dublin Bus;37;Blanchardstown Centre;Baggot Street
32111862;"{\"type\":\"LineString\",\"coordinates\":[[-6.3368469,53.3714516],[-6.336838,53.3714119],[-6.3368501,53.3713726],[-6.3368811,53.3713379],[-6.3369282,53.3713105],[-6.336987,53.3712929],[-6.337052,53.3712867],[-6.3371171,53.3712925],[-6.3371762,53.3713098],[-6.3372237,53.371337],[-6.3372565,53.3713734],[-6.3372681,53.3714142],[-6.3372574,53.371455],[-6.3372255,53.3714917],[-6.3371757,53.3715204],[-6.3371132,53.3715382],[-6.3370467,53.3715433],[-6.3369808,53.3715359],[-6.3369219,53.3715167],[-6.3368758,53.3714877],[-6.3368469,53.3714516]]}";10;"";1;60;false;false;true;false;false;false;91.0;0;0;0;0;0;true;1687;651346642;-6.367735;53.379587;404;1589739787;-6.2563741;53.3426523;0;2;3;1252258;37 - Blanchardstown Centre - Baggot Street;"";Dublin Bus;37;Blanchardstown Centre;Baggot Street
32111861;"{\"type\":\"LineString\",\"coordinates\":[[-6.3368501,53.3713726],[-6.3364168,53.3712409],[-6.3362519,53.3712036],[-6.3360188,53.3711664],[-6.3356698,53.3711184],[-6.3352265,53.3710619],[-6.3342919,53.3709466],[-6.3338936,53.3709028],[-6.333784,53.3708997],[-6.3336141,53.3709289]]}";11;Castleknock Road;2;60;false;false;true;false;false;false;226.0;0;0;0;0;0;false;1687;651346642;-6.367735;53.379587;404;1589739787;-6.2563741;53.3426523;0;2;3;1252258;37 - Blanchardstown Centre - Baggot Street;"";Dublin Bus;37;Blanchardstown Centre;Baggot Street
4675060;"{\"type\":\"LineString\",\"coordinates\":[[-6.3336141,53.3709289],[-6.3333844,53.3710337],[-6.3331901,53.3711665],[-6.3329274,53.3713798],[-6.3326042,53.371597],[-6.332486,53.371682],[-6.3321687,53.3718431],[-6.3321497,53.3718552]]}";12;"";2;60;false;false;true;false;false;false;144.0;0;1;0;0;0;false;1687;651346642;-6.367735;53.379587;404;1589739787;-6.2563741;53.3426523;0;2;3;1252258;37 - Blanchardstown Centre - Baggot Street;"";Dublin Bus;37;Blanchardstown Centre;Baggot Street
298356702;"{\"type\":\"LineString\",\"coordinates\":[[-6.3321497,53.3718552],[-6.3320908,53.3719282],[-6.3320601,53.3720035]]}";13;"";1;60;false;true;true;false;false;false;18.0;0;0;0;0;0;false;1687;651346642;-6.367735;53.379587;404;1589739787;-6.2563741;53.3426523;0;2;3;1252258;37 - Blanchardstown Centre - Baggot Street;"";Dublin Bus;37;Blanchardstown Centre;Baggot Street
509936188;"{\"type\":\"LineString\",\"coordinates\":[[-6.3320601,53.3720035],[-6.3320938,53.3720364],[-6.3321143,53.3720749]]}";14;Ashtown Roundabout;2;50;false;false;true;false;false;false;9.0;0;0;0;0;0;true;1687;651346642;-6.367735;53.379587;404;1589739787;-6.2563741;53.3426523;0;2;3;1252258;37 - Blanchardstown Centre - Baggot Street;"";Dublin Bus;37;Blanchardstown Centre;Baggot Street
2684136;"{\"type\":\"LineString\",\"coordinates\":[[-6.3321143,53.3720749],[-6.3321189,53.3721117],[-6.3321096,53.3721482],[-6.332088,53.3721814],[-6.3320576,53.3722091],[-6.3320182,53.3722329],[-6.3319752,53.3722502]]}";15;Ashtown Roundabout;2;50;false;false;true;false;false;false;24.0;0;0;0;0;0;true;1687;651346642;-6.367735;53.379587;404;1589739787;-6.2563741;53.3426523;0;2;3;1252258;37 - Blanchardstown Centre - Baggot Street;"";Dublin Bus;37;Blanchardstown Centre;Baggot Street
548954807;"{\"type\":\"LineString\",\"coordinates\":[[-6.3319752,53.3722502],[-6.3319262,53.3722627]]}";16;Ashtown Roundabout;2;50;false;false;true;false;false;false;4.0;0;0;0;0;0;true;1687;651346642;-6.367735;53.379587;404;1589739787;-6.2563741;53.3426523;0;2;3;1252258;37 - Blanchardstown Centre - Baggot Street;"";Dublin Bus;37;Blanchardstown Centre;Baggot Street
509936182;"{\"type\":\"LineString\",\"coordinates\":[[-6.3319262,53.3722627],[-6.3318408,53.3722704],[-6.3317801,53.3722662],[-6.3317212,53.3722538],[-6.3316684,53.3722337],[-6.3316077,53.3721928]]}";17;Ashtown Roundabout;2;50;false;false;true;false;false;false;25.0;0;0;0;0;0;true;1687;651346642;-6.367735;53.379587;404;1589739787;-6.2563741;53.3426523;0;2;3;1252258;37 - Blanchardstown Centre - Baggot Street;"";Dublin Bus;37;Blanchardstown Centre;Baggot Street
361450281;"{\"type\":\"LineString\",\"coordinates\":[[-6.3316077,53.3721928],[-6.3315816,53.3721604],[-6.3315678,53.3721255]]}";18;Ashtown Roundabout;2;50;false;false;true;false;false;false;9.0;0;0;0;0;0;true;1687;651346642;-6.367735;53.379587;404;1589739787;-6.2563741;53.3426523;0;2;3;1252258;37 - Blanchardstown Centre - Baggot Street;"";Dublin Bus;37;Blanchardstown Centre;Baggot Street
298356699;"{\"type\":\"LineString\",\"coordinates\":[[-6.3315678,53.3721255],[-6.3314277,53.3720271],[-6.3313182,53.371958],[-6.3310912,53.3718544]]}";19;Navan Road;1;50;false;true;true;false;false;false;45.0;0;0;0;0;0;false;1687;651346642;-6.367735;53.379587;404;1589739787;-6.2563741;53.3426523;0;2;3;1252258;37 - Blanchardstown Centre - Baggot Street;"";Dublin Bus;37;Blanchardstown Centre;Baggot Street
26578115;"{\"type\":\"LineString\",\"coordinates\":[[-6.3295037,53.3713224],[-6.3299276,53.3714655],[-6.3304593,53.3716389],[-6.3306141,53.3716901],[-6.3310912,53.3718544]]}";20;Navan Road;4;50;false;false;false;false;false;false;122.0;0;0;0;0;0;false;1687;651346642;-6.367735;53.379587;404;1589739787;-6.2563741;53.3426523;0;2;3;1252258;37 - Blanchardstown Centre - Baggot Street;"";Dublin Bus;37;Blanchardstown Centre;Baggot Street
361450283;"{\"type\":\"LineString\",\"coordinates\":[[-6.3288184,53.3710898],[-6.3288993,53.3711176],[-6.3291263,53.3711945],[-6.3291824,53.3712135],[-6.3292302,53.3712313],[-6.3295037,53.3713224]]}";21;Navan Road;1;50;false;false;false;false;false;false;53.0;1;1;0;0;0;false;1687;651346642;-6.367735;53.379587;404;1589739787;-6.2563741;53.3426523;0;2;3;1252258;37 - Blanchardstown Centre - Baggot Street;"";Dublin Bus;37;Blanchardstown Centre;Baggot Street
292300701;"{\"type\":\"LineString\",\"coordinates\":[[-6.3241932,53.3696104],[-6.3242409,53.3696237],[-6.3243353,53.3696569],[-6.3243847,53.3696732],[-6.3246009,53.3697395],[-6.3252661,53.3699463],[-6.3261137,53.3702098],[-6.3276647,53.3707014],[-6.3277218,53.3707203],[-6.3281362,53.3708589],[-6.3284611,53.3709694],[-6.3288184,53.3710898]]}";22;Navan Road;3;50;false;false;false;false;false;false;352.0;1;0;0;0;0;false;1687;651346642;-6.367735;53.379587;404;1589739787;-6.2563741;53.3426523;0;2;3;1252258;37 - Blanchardstown Centre - Baggot Street;"";Dublin Bus;37;Blanchardstown Centre;Baggot Street
200170064;"{\"type\":\"LineString\",\"coordinates\":[[-6.3181143,53.3677898],[-6.318511,53.3678729],[-6.3195089,53.3680953],[-6.3199679,53.3682162],[-6.3203347,53.3683204],[-6.3204162,53.3683478],[-6.3212977,53.3686447],[-6.3219073,53.36885],[-6.3223942,53.369014],[-6.3225479,53.3690658],[-6.3236154,53.3694233],[-6.3237367,53.3694615],[-6.3237874,53.3694768],[-6.3241932,53.3696104]]}";23;Navan Road;3;50;false;false;false;false;false;false;457.0;1;0;0;0;0;false;1687;651346642;-6.367735;53.379587;404;1589739787;-6.2563741;53.3426523;0;2;3;1252258;37 - Blanchardstown Centre - Baggot Street;"";Dublin Bus;37;Blanchardstown Centre;Baggot Street
4253693;"{\"type\":\"LineString\",\"coordinates\":[[-6.3082836,53.3649239],[-6.3084887,53.3649816],[-6.3085744,53.3650096],[-6.309231,53.3652238],[-6.3096409,53.3653566],[-6.3102151,53.3655577],[-6.3104373,53.3656316],[-6.3109708,53.3658052],[-6.3113683,53.3659413],[-6.3116609,53.3660415],[-6.3119681,53.3661467],[-6.3122773,53.3662525],[-6.3125257,53.3663376],[-6.3125855,53.3663536],[-6.3129526,53.3664727],[-6.3130209,53.3664952],[-6.3131299,53.3665302],[-6.3134558,53.3666405],[-6.3137726,53.3667502],[-6.3143289,53.3669184],[-6.3147455,53.3670247],[-6.3149653,53.3670808],[-6.3154472,53.3671937],[-6.3174968,53.3676544],[-6.3175271,53.3676614],[-6.317638,53.3676854],[-6.3178501,53.3677292],[-6.3179092,53.3677414],[-6.3181143,53.3677898]]}";24;Navan Road;1;50;false;false;false;false;false;false;735.0;2;1;0;0;0;false;1687;651346642;-6.367735;53.379587;404;1589739787;-6.2563741;53.3426523;0;2;3;1252258;37 - Blanchardstown Centre - Baggot Street;"";Dublin Bus;37;Blanchardstown Centre;Baggot Street
4253696;"{\"type\":\"LineString\",\"coordinates\":[[-6.3082836,53.3649239],[-6.3080565,53.3648476],[-6.3078718,53.364793],[-6.3073849,53.3646366],[-6.3049246,53.3638234],[-6.3041491,53.3635601],[-6.3039383,53.3634886]]}";25;Navan Road;2;50;false;false;false;false;false;false;333.0;1;1;0;0;0;false;1687;651346642;-6.367735;53.379587;404;1589739787;-6.2563741;53.3426523;0;2;3;1252258;37 - Blanchardstown Centre - Baggot Street;"";Dublin Bus;37;Blanchardstown Centre;Baggot Street
3191573;"{\"type\":\"LineString\",\"coordinates\":[[-6.3039383,53.3634886],[-6.3040154,53.3634208],[-6.3040987,53.3633726],[-6.3044325,53.363284],[-6.3056407,53.3629468],[-6.3058738,53.3628782],[-6.3065728,53.3626839],[-6.30708,53.3625455],[-6.3078225,53.3623439],[-6.3079256,53.3623181],[-6.3080395,53.3622937],[-6.3088214,53.362095],[-6.3089529,53.3620542],[-6.3090833,53.3620325],[-6.3094331,53.361925],[-6.3099042,53.3617523]]}";26;Skreen Road;2;50;false;false;true;false;false;false;447.0;0;0;0;0;0;false;1687;651346642;-6.367735;53.379587;404;1589739787;-6.2563741;53.3426523;0;2;3;1252258;37 - Blanchardstown Centre - Baggot Street;"";Dublin Bus;37;Blanchardstown Centre;Baggot Street
81982578;"{\"type\":\"LineString\",\"coordinates\":[[-6.3099042,53.3617523],[-6.3097106,53.3614902],[-6.3095976,53.3613376],[-6.3095008,53.3612587],[-6.3093941,53.3611878],[-6.3093514,53.3611654],[-6.3087379,53.3608432],[-6.3076731,53.3602405],[-6.3066874,53.3596683],[-6.3064148,53.3595147],[-6.3062562,53.3594283],[-6.3061826,53.3593995],[-6.3060779,53.3593586],[-6.3057885,53.3592698],[-6.3052276,53.3591338],[-6.3043971,53.3589235],[-6.3041185,53.3588349],[-6.3037555,53.3586964],[-6.3034173,53.3585853],[-6.3030527,53.3584798],[-6.3028859,53.3584384],[-6.302078,53.3582378],[-6.30133,53.3580521],[-6.3008626,53.3579146],[-6.3004464,53.3577757],[-6.2992796,53.3574429],[-6.298044,53.3571152],[-6.2977036,53.3570073],[-6.2964916,53.3566231],[-6.29638,53.3565877],[-6.2960883,53.3564849],[-6.2959222,53.3564234],[-6.295765,53.3563669]]}";27;Blackhorse Avenue;2;50;false;false;true;false;false;false;1145.0;0;1;0;0;0;false;1687;651346642;-6.367735;53.379587;404;1589739787;-6.2563741;53.3426523;0;2;3;1252258;37 - Blanchardstown Centre - Baggot Street;"";Dublin Bus;37;Blanchardstown Centre;Baggot Street
5825859;"{\"type\":\"LineString\",\"coordinates\":[[-6.295765,53.3563669],[-6.2954494,53.3562937]]}";28;Blackhorse Avenue;2;50;false;false;true;false;false;false;23.0;0;0;0;0;0;false;1687;651346642;-6.367735;53.379587;404;1589739787;-6.2563741;53.3426523;0;2;3;1252258;37 - Blanchardstown Centre - Baggot Street;"";Dublin Bus;37;Blanchardstown Centre;Baggot Street
5825858;"{\"type\":\"LineString\",\"coordinates\":[[-6.2954494,53.3562937],[-6.2952647,53.3562698],[-6.2946502,53.3562057],[-6.2944328,53.3561772],[-6.294101,53.356135],[-6.2935444,53.3560537],[-6.2932479,53.3559937],[-6.2929305,53.3559174],[-6.2928298,53.3558912],[-6.2926115,53.3558343],[-6.292507,53.3558075],[-6.2924127,53.3557795]]}";29;Blackhorse Avenue;2;50;false;false;true;false;false;false;213.0;1;0;0;0;0;false;1687;651346642;-6.367735;53.379587;404;1589739787;-6.2563741;53.3426523;0;2;3;1252258;37 - Blanchardstown Centre - Baggot Street;"";Dublin Bus;37;Blanchardstown Centre;Baggot Street
81982579;"{\"type\":\"LineString\",\"coordinates\":[[-6.2924127,53.3557795],[-6.2922715,53.3558704],[-6.2922342,53.3558944],[-6.2917367,53.3562361],[-6.2912598,53.356563],[-6.291003,53.3567329],[-6.2907885,53.3568484],[-6.2906769,53.3568869]]}";30;North Circular Road;2;50;false;false;false;false;false;false;171.0;1;0;0;0;0;false;1687;651346642;-6.367735;53.379587;404;1589739787;-6.2563741;53.3426523;0;2;3;1252258;37 - Blanchardstown Centre - Baggot Street;"";Dublin Bus;37;Blanchardstown Centre;Baggot Street
563891696;"{\"type\":\"LineString\",\"coordinates\":[[-6.2906769,53.3568869],[-6.2905375,53.3569245],[-6.2903843,53.3569566],[-6.2899682,53.3570298]]}";31;North Circular Road;2;50;false;false;false;false;false;false;51.0;0;0;0;0;0;false;1687;651346642;-6.367735;53.379587;404;1589739787;-6.2563741;53.3426523;0;2;3;1252258;37 - Blanchardstown Centre - Baggot Street;"";Dublin Bus;37;Blanchardstown Centre;Baggot Street
367873916;"{\"type\":\"LineString\",\"coordinates\":[[-6.2899682,53.3570298],[-6.2895471,53.3570959],[-6.28914,53.3571592],[-6.2889547,53.3571869],[-6.288812,53.3572173]]}";32;North Circular Road;2;50;false;false;false;false;false;false;81.0;1;0;0;0;0;false;1687;651346642;-6.367735;53.379587;404;1589739787;-6.2563741;53.3426523;0;2;3;1252258;37 - Blanchardstown Centre - Baggot Street;"";Dublin Bus;37;Blanchardstown Centre;Baggot Street
563891689;"{\"type\":\"LineString\",\"coordinates\":[[-6.2881429,53.3564753],[-6.2881808,53.3565272],[-6.2883716,53.3567647],[-6.2886219,53.3570686],[-6.288812,53.3572173]]}";33;Prussia Street;2;50;false;false;true;false;false;false;95.0;1;0;0;0;0;false;1687;651346642;-6.367735;53.379587;404;1589739787;-6.2563741;53.3426523;0;2;3;1252258;37 - Blanchardstown Centre - Baggot Street;"";Dublin Bus;37;Blanchardstown Centre;Baggot Street
3708464;"{\"type\":\"LineString\",\"coordinates\":[[-6.2856104,53.3535551],[-6.2857655,53.3536727],[-6.2859506,53.3538038],[-6.2860595,53.3538799],[-6.2861787,53.3539614],[-6.286589,53.3542806],[-6.2868433,53.3544914],[-6.2869486,53.3545924],[-6.2872141,53.3548829],[-6.287273,53.3549524],[-6.2873895,53.3551068],[-6.2874903,53.3552447],[-6.2876574,53.3555511],[-6.2876763,53.3555922],[-6.2879671,53.3562047],[-6.2880297,53.3563172],[-6.2880917,53.3564054],[-6.2881429,53.3564753]]}";34;Prussia Street;2;50;false;false;true;false;false;false;374.0;0;0;0;0;0;false;1687;651346642;-6.367735;53.379587;404;1589739787;-6.2563741;53.3426523;0;2;3;1252258;37 - Blanchardstown Centre - Baggot Street;"";Dublin Bus;37;Blanchardstown Centre;Baggot Street
563891690;"{\"type\":\"LineString\",\"coordinates\":[[-6.2852891,53.3533073],[-6.285446,53.3534234],[-6.2856104,53.3535551]]}";35;Prussia Street;2;50;false;false;false;false;false;false;36.0;1;0;0;0;0;false;1687;651346642;-6.367735;53.379587;404;1589739787;-6.2563741;53.3426523;0;2;3;1252258;37 - Blanchardstown Centre - Baggot Street;"";Dublin Bus;37;Blanchardstown Centre;Baggot Street
563891691;"{\"type\":\"LineString\",\"coordinates\":[[-6.2848424,53.3530223],[-6.2849544,53.3530905],[-6.2851172,53.3531884],[-6.2852891,53.3533073]]}";36;Manor Street;1;50;false;false;true;false;false;false;44.0;0;0;0;0;0;false;1687;651346642;-6.367735;53.379587;404;1589739787;-6.2563741;53.3426523;0;2;3;1252258;37 - Blanchardstown Centre - Baggot Street;"";Dublin Bus;37;Blanchardstown Centre;Baggot Street
3708463;"{\"type\":\"LineString\",\"coordinates\":[[-6.2827967,53.3512117],[-6.2828962,53.3513085],[-6.283045,53.3514549],[-6.2832422,53.351665],[-6.2834093,53.3518549],[-6.2836662,53.3521088],[-6.2839247,53.3523587],[-6.283967,53.3524013],[-6.284001,53.3524355],[-6.2841676,53.3525907],[-6.2843366,53.3527175],[-6.284565,53.3528726],[-6.2848424,53.3530223]]}";37;Manor Street;1;50;false;false;true;false;false;false;247.0;0;0;0;0;0;false;1687;651346642;-6.367735;53.379587;404;1589739787;-6.2563741;53.3426523;0;2;3;1252258;37 - Blanchardstown Centre - Baggot Street;"";Dublin Bus;37;Blanchardstown Centre;Baggot Street
563891693;"{\"type\":\"LineString\",\"coordinates\":[[-6.2827638,53.351185],[-6.2827967,53.3512117]]}";38;Stoneybatter;1;50;false;false;true;false;false;false;4.0;0;0;0;0;0;false;1687;651346642;-6.367735;53.379587;404;1589739787;-6.2563741;53.3426523;0;2;3;1252258;37 - Blanchardstown Centre - Baggot Street;"";Dublin Bus;37;Blanchardstown Centre;Baggot Street
125814738;"{\"type\":\"LineString\",\"coordinates\":[[-6.2818471,53.3503863],[-6.2818632,53.3504312],[-6.2819195,53.3505285],[-6.2819851,53.3506209],[-6.2820499,53.3506833],[-6.2821163,53.3507358],[-6.2824459,53.3509467],[-6.2825766,53.3510429],[-6.2826775,53.351115],[-6.2827638,53.351185]]}";39;Stoneybatter;2;50;false;false;true;false;false;false;111.0;0;0;0;0;0;false;1687;651346642;-6.367735;53.379587;404;1589739787;-6.2563741;53.3426523;0;2;3;1252258;37 - Blanchardstown Centre - Baggot Street;"";Dublin Bus;37;Blanchardstown Centre;Baggot Street
125814598;"{\"type\":\"LineString\",\"coordinates\":[[-6.2817224,53.3500292],[-6.2817388,53.3500821],[-6.2818471,53.3503863]]}";40;Stoneybatter;1;50;false;false;true;false;false;false;41.0;1;0;0;0;0;false;1687;651346642;-6.367735;53.379587;404;1589739787;-6.2563741;53.3426523;0;2;3;1252258;37 - Blanchardstown Centre - Baggot Street;"";Dublin Bus;37;Blanchardstown Centre;Baggot Street
52822147;"{\"type\":\"LineString\",\"coordinates\":[[-6.28196,53.3487434],[-6.2819408,53.3488344],[-6.2818598,53.3492189],[-6.2817434,53.349731],[-6.2817224,53.3500292]]}";41;Blackhall Place;1;30;false;true;true;false;false;false;146.0;2;0;0;0;0;false;1687;651346642;-6.367735;53.379587;404;1589739787;-6.2563741;53.3426523;0;2;3;1252258;37 - Blanchardstown Centre - Baggot Street;"";Dublin Bus;37;Blanchardstown Centre;Baggot Street
377949389;"{\"type\":\"LineString\",\"coordinates\":[[-6.2820062,53.3485659],[-6.28196,53.3487434]]}";42;Blackhall Place;1;30;false;true;true;false;false;false;21.0;1;0;0;0;0;false;1687;651346642;-6.367735;53.379587;404;1589739787;-6.2563741;53.3426523;0;2;3;1252258;37 - Blanchardstown Centre - Baggot Street;"";Dublin Bus;37;Blanchardstown Centre;Baggot Street
3708465;"{\"type\":\"LineString\",\"coordinates\":[[-6.282517,53.3468647],[-6.2823541,53.3473978],[-6.2823498,53.3474117],[-6.2823444,53.3474277],[-6.2821655,53.3479323],[-6.282077,53.3482789],[-6.2820062,53.3485659]]}";43;Blackhall Place;3;30;false;false;true;false;false;false;194.0;3;0;0;0;0;false;1687;651346642;-6.367735;53.379587;404;1589739787;-6.2563741;53.3426523;0;2;3;1252258;37 - Blanchardstown Centre - Baggot Street;"";Dublin Bus;37;Blanchardstown Centre;Baggot Street
38587899;"{\"type\":\"LineString\",\"coordinates\":[[-6.282517,53.3468647],[-6.281881,53.3467915],[-6.2811074,53.3467152],[-6.2803141,53.3466332]]}";44;Ellis Quay;2;50;false;true;true;false;false;false;150.0;2;0;0;0;0;false;1687;651346642;-6.367735;53.379587;404;1589739787;-6.2563741;53.3426523;0;2;3;1252258;37 - Blanchardstown Centre - Baggot Street;"";Dublin Bus;37;Blanchardstown Centre;Baggot Street
3789572;"{\"type\":\"LineString\",\"coordinates\":[[-6.2803141,53.3466332],[-6.2801401,53.3465999]]}";45;Arran Quay;2;50;false;true;true;false;false;false;13.0;1;0;0;0;0;false;1687;651346642;-6.367735;53.379587;404;1589739787;-6.2563741;53.3426523;0;2;3;1252258;37 - Blanchardstown Centre - Baggot Street;"";Dublin Bus;37;Blanchardstown Centre;Baggot Street
361409607;"{\"type\":\"LineString\",\"coordinates\":[[-6.2801401,53.3465999],[-6.2799588,53.3465651]]}";46;Arran Quay;2;50;false;true;true;false;false;false;13.0;0;0;0;0;0;false;1687;651346642;-6.367735;53.379587;404;1589739787;-6.2563741;53.3426523;0;2;3;1252258;37 - Blanchardstown Centre - Baggot Street;"";Dublin Bus;37;Blanchardstown Centre;Baggot Street
361409608;"{\"type\":\"LineString\",\"coordinates\":[[-6.2799588,53.3465651],[-6.2790093,53.3463833],[-6.2782047,53.3462246],[-6.2774435,53.3460737],[-6.2765851,53.3459106],[-6.2758069,53.3458056],[-6.275638,53.3457828]]}";47;Arran Quay;2;50;false;true;false;false;false;false;303.0;1;1;0;0;0;false;1687;651346642;-6.367735;53.379587;404;1589739787;-6.2563741;53.3426523;0;2;3;1252258;37 - Blanchardstown Centre - Baggot Street;"";Dublin Bus;37;Blanchardstown Centre;Baggot Street
4408238;"{\"type\":\"LineString\",\"coordinates\":[[-6.275638,53.3457828],[-6.2746763,53.3456937],[-6.2734115,53.3455743],[-6.272854,53.3455452],[-6.2722129,53.3455433],[-6.271696,53.3455718]]}";48;Inns Quay;3;50;false;true;true;false;false;false;267.0;1;0;0;0;0;false;1687;651346642;-6.367735;53.379587;404;1589739787;-6.2563741;53.3426523;0;2;3;1252258;37 - Blanchardstown Centre - Baggot Street;"";Dublin Bus;37;Blanchardstown Centre;Baggot Street
12854626;"{\"type\":\"LineString\",\"coordinates\":[[-6.271696,53.3455718],[-6.2712295,53.3456239],[-6.2708075,53.3456822],[-6.270177,53.3457653],[-6.2698239,53.3458121],[-6.2678683,53.3460647]]}";49;Ormond Quay Upper;1;50;false;true;true;false;false;false;263.0;1;0;0;0;0;false;1687;651346642;-6.367735;53.379587;404;1589739787;-6.2563741;53.3426523;0;2;3;1252258;37 - Blanchardstown Centre - Baggot Street;"";Dublin Bus;37;Blanchardstown Centre;Baggot Street
3791905;"{\"type\":\"LineString\",\"coordinates\":[[-6.2678683,53.3460647],[-6.2668564,53.3461447],[-6.2657034,53.3462557],[-6.2651481,53.3463085],[-6.2650563,53.346319],[-6.264668,53.3463571],[-6.2643329,53.3463946],[-6.2641007,53.3464292],[-6.2638655,53.346473],[-6.2634147,53.346576],[-6.26322,53.3466205]]}";50;Ormond Quay Lower;3;30;false;true;true;false;false;false;319.0;1;2;0;0;0;false;1687;651346642;-6.367735;53.379587;404;1589739787;-6.2563741;53.3426523;0;2;3;1252258;37 - Blanchardstown Centre - Baggot Street;"";Dublin Bus;37;Blanchardstown Centre;Baggot Street
3790724;"{\"type\":\"LineString\",\"coordinates\":[[-6.26322,53.3466205],[-6.2615964,53.346997],[-6.2610263,53.3471233]]}";51;Bachelors Walk;3;30;false;true;true;false;false;false;158.0;0;0;0;0;0;false;1687;651346642;-6.367735;53.379587;404;1589739787;-6.2563741;53.3426523;0;2;3;1252258;37 - Blanchardstown Centre - Baggot Street;"";Dublin Bus;37;Blanchardstown Centre;Baggot Street
25094727;"{\"type\":\"LineString\",\"coordinates\":[[-6.2610263,53.3471233],[-6.2606582,53.3472135],[-6.2600576,53.3473624],[-6.2595524,53.3474831],[-6.2593766,53.3475251]]}";52;Bachelors Walk;1;30;false;true;true;false;false;false;120.0;0;1;0;0;0;false;1687;651346642;-6.367735;53.379587;404;1589739787;-6.2563741;53.3426523;0;2;3;1252258;37 - Blanchardstown Centre - Baggot Street;"";Dublin Bus;37;Blanchardstown Centre;Baggot Street
585508291;"{\"type\":\"LineString\",\"coordinates\":[[-6.2593766,53.3475251],[-6.2593657,53.3475277],[-6.2593198,53.3475387]]}";53;Bachelors Walk;1;30;false;true;true;false;false;false;5.0;1;0;0;0;0;false;1687;651346642;-6.367735;53.379587;404;1589739787;-6.2563741;53.3426523;0;2;3;1252258;37 - Blanchardstown Centre - Baggot Street;"";Dublin Bus;37;Blanchardstown Centre;Baggot Street
4401701;"{\"type\":\"LineString\",\"coordinates\":[[-6.2593198,53.3475387],[-6.2592619,53.3475525]]}";54;Bachelor's Walk;1;30;false;true;true;false;false;false;5.0;1;0;0;0;0;false;1687;651346642;-6.367735;53.379587;404;1589739787;-6.2563741;53.3426523;0;2;3;1252258;37 - Blanchardstown Centre - Baggot Street;"";Dublin Bus;37;Blanchardstown Centre;Baggot Street
717426630;"{\"type\":\"LineString\",\"coordinates\":[[-6.2592619,53.3475525],[-6.2591013,53.3475905]]}";55;Bachelor's Walk;1;30;false;true;true;false;false;false;12.0;1;0;0;0;0;false;1687;651346642;-6.367735;53.379587;404;1589739787;-6.2563741;53.3426523;0;2;3;1252258;37 - Blanchardstown Centre - Baggot Street;"";Dublin Bus;37;Blanchardstown Centre;Baggot Street
3787954;"{\"type\":\"LineString\",\"coordinates\":[[-6.2591013,53.3475905],[-6.2590532,53.3475]]}";56;O'Connell Bridge;1;30;false;true;true;false;false;false;11.0;1;0;0;0;0;false;1687;651346642;-6.367735;53.379587;404;1589739787;-6.2563741;53.3426523;0;2;3;1252258;37 - Blanchardstown Centre - Baggot Street;"";Dublin Bus;37;Blanchardstown Centre;Baggot Street
4414300;"{\"type\":\"LineString\",\"coordinates\":[[-6.2590532,53.3475],[-6.2590471,53.3474886],[-6.2589617,53.3473272]]}";57;O'Connell Bridge;4;30;false;true;true;false;false;false;21.0;0;0;0;0;0;false;1687;651346642;-6.367735;53.379587;404;1589739787;-6.2563741;53.3426523;0;2;3;1252258;37 - Blanchardstown Centre - Baggot Street;"";Dublin Bus;37;Blanchardstown Centre;Baggot Street
632640318;"{\"type\":\"LineString\",\"coordinates\":[[-6.2589617,53.3473272],[-6.2589448,53.3472978]]}";58;O'Connell Bridge;4;30;false;true;true;false;false;false;4.0;0;0;0;0;0;false;1687;651346642;-6.367735;53.379587;404;1589739787;-6.2563741;53.3426523;0;2;3;1252258;37 - Blanchardstown Centre - Baggot Street;"";Dublin Bus;37;Blanchardstown Centre;Baggot Street
369897003;"{\"type\":\"LineString\",\"coordinates\":[[-6.2589448,53.3472978],[-6.2589186,53.347248],[-6.2588438,53.3471061],[-6.2588369,53.3470931]]}";59;O'Connell Bridge;4;30;false;true;true;false;false;false;25.0;0;1;0;0;0;false;1687;651346642;-6.367735;53.379587;404;1589739787;-6.2563741;53.3426523;0;2;3;1252258;37 - Blanchardstown Centre - Baggot Street;"";Dublin Bus;37;Blanchardstown Centre;Baggot Street
23920383;"{\"type\":\"LineString\",\"coordinates\":[[-6.2588369,53.3470931],[-6.258792,53.3470086]]}";60;O'Connell Bridge;1;30;false;true;true;false;false;false;10.0;1;1;0;0;0;false;1687;651346642;-6.367735;53.379587;404;1589739787;-6.2563741;53.3426523;0;2;3;1252258;37 - Blanchardstown Centre - Baggot Street;"";Dublin Bus;37;Blanchardstown Centre;Baggot Street
4074523;"{\"type\":\"LineString\",\"coordinates\":[[-6.258792,53.3470086],[-6.2587358,53.3469124],[-6.2586477,53.3467807]]}";61;D'Olier Street;4;30;false;true;true;false;false;false;28.0;1;1;0;0;0;false;1687;651346642;-6.367735;53.379587;404;1589739787;-6.2563741;53.3426523;0;2;3;1252258;37 - Blanchardstown Centre - Baggot Street;"";Dublin Bus;37;Blanchardstown Centre;Baggot Street
514848250;"{\"type\":\"LineString\",\"coordinates\":[[-6.2586477,53.3467807],[-6.2585335,53.3467035]]}";62;D'Olier Street;3;30;false;true;true;false;false;false;12.0;0;0;0;0;0;false;1687;651346642;-6.367735;53.379587;404;1589739787;-6.2563741;53.3426523;0;2;3;1252258;37 - Blanchardstown Centre - Baggot Street;"";Dublin Bus;37;Blanchardstown Centre;Baggot Street
375737373;"{\"type\":\"LineString\",\"coordinates\":[[-6.2585335,53.3467035],[-6.2584476,53.3466455],[-6.2583354,53.3465697],[-6.2582454,53.3465089],[-6.258029,53.3463627],[-6.2579451,53.346306]]}";63;D'Olier Street;3;30;false;true;true;false;false;false;60.0;0;0;0;0;0;false;1687;651346642;-6.367735;53.379587;404;1589739787;-6.2563741;53.3426523;0;2;3;1252258;37 - Blanchardstown Centre - Baggot Street;"";Dublin Bus;37;Blanchardstown Centre;Baggot Street
24960743;"{\"type\":\"LineString\",\"coordinates\":[[-6.2579451,53.346306],[-6.2578166,53.3462191],[-6.2575509,53.3460397],[-6.2573464,53.3459015]]}";64;D'Olier Street;3;30;false;true;true;false;false;false;61.0;1;0;0;0;0;false;1687;651346642;-6.367735;53.379587;404;1589739787;-6.2563741;53.3426523;0;2;3;1252258;37 - Blanchardstown Centre - Baggot Street;"";Dublin Bus;37;Blanchardstown Centre;Baggot Street
24953717;"{\"type\":\"LineString\",\"coordinates\":[[-6.2573464,53.3459015],[-6.2572963,53.3458532],[-6.2572785,53.3458214],[-6.2572721,53.3457912],[-6.257284,53.3457487],[-6.2573108,53.3457101],[-6.2573757,53.3456588],[-6.257516,53.3456107]]}";65;College Street;3;30;false;true;true;false;false;false;42.0;1;0;0;0;0;false;1687;651346642;-6.367735;53.379587;404;1589739787;-6.2563741;53.3426523;0;2;3;1252258;37 - Blanchardstown Centre - Baggot Street;"";Dublin Bus;37;Blanchardstown Centre;Baggot Street
4472591;"{\"type\":\"LineString\",\"coordinates\":[[-6.257516,53.3456107],[-6.25775,53.3455594],[-6.2579,53.3455086],[-6.2584602,53.3453218]]}";66;College Street;3;30;false;true;true;false;false;false;72.0;0;0;0;0;0;false;1687;651346642;-6.367735;53.379587;404;1589739787;-6.2563741;53.3426523;0;2;3;1252258;37 - Blanchardstown Centre - Baggot Street;"";Dublin Bus;37;Blanchardstown Centre;Baggot Street
24973956;"{\"type\":\"LineString\",\"coordinates\":[[-6.2584602,53.3453218],[-6.2586704,53.3452032],[-6.2589964,53.3450327],[-6.2590981,53.3449653],[-6.259227,53.3448434]]}";67;College Street;1;30;false;true;true;false;false;false;75.0;1;0;0;0;0;false;1687;651346642;-6.367735;53.379587;404;1589739787;-6.2563741;53.3426523;0;2;3;1252258;37 - Blanchardstown Centre - Baggot Street;"";Dublin Bus;37;Blanchardstown Centre;Baggot Street
4475677;"{\"type\":\"LineString\",\"coordinates\":[[-6.2593771,53.344684],[-6.2592915,53.3447707],[-6.259227,53.3448434]]}";68;College Green;3;30;false;false;true;false;false;false;21.0;0;0;0;0;0;false;1687;651346642;-6.367735;53.379587;404;1589739787;-6.2563741;53.3426523;0;2;3;1252258;37 - Blanchardstown Centre - Baggot Street;"";Dublin Bus;37;Blanchardstown Centre;Baggot Street
68748138;"{\"type\":\"LineString\",\"coordinates\":[[-6.2593771,53.344684],[-6.2594288,53.3446069],[-6.2594528,53.3445365],[-6.2594674,53.3444768]]}";69;College Green;2;30;false;false;true;false;false;false;25.0;0;0;0;0;0;false;1687;651346642;-6.367735;53.379587;404;1589739787;-6.2563741;53.3426523;0;2;3;1252258;37 - Blanchardstown Centre - Baggot Street;"";Dublin Bus;37;Blanchardstown Centre;Baggot Street
769021487;"{\"type\":\"LineString\",\"coordinates\":[[-6.2594674,53.3444768],[-6.2594708,53.3444255]]}";70;College Green;2;30;false;false;true;false;false;false;6.0;0;0;0;0;0;false;1687;651346642;-6.367735;53.379587;404;1589739787;-6.2563741;53.3426523;0;2;3;1252258;37 - Blanchardstown Centre - Baggot Street;"";Dublin Bus;37;Blanchardstown Centre;Baggot Street
74233405;"{\"type\":\"LineString\",\"coordinates\":[[-6.2594708,53.3444255],[-6.2594622,53.3443713],[-6.2594495,53.3443477],[-6.2594358,53.3443214],[-6.2594148,53.3442819],[-6.2593849,53.344236],[-6.2592979,53.3441267],[-6.2592302,53.3440132],[-6.2592087,53.3439527],[-6.2592082,53.3438614],[-6.2592171,53.3437577],[-6.2592509,53.3436072],[-6.2593002,53.3434023]]}";71;Grafton Street;2;30;false;true;true;false;false;false;119.0;0;1;0;0;0;false;1687;651346642;-6.367735;53.379587;404;1589739787;-6.2563741;53.3426523;0;2;3;1252258;37 - Blanchardstown Centre - Baggot Street;"";Dublin Bus;37;Blanchardstown Centre;Baggot Street
553868718;"{\"type\":\"LineString\",\"coordinates\":[[-6.2593002,53.3434023],[-6.2592844,53.3433468],[-6.2592723,53.3433073],[-6.2592521,53.3432709],[-6.2592135,53.3432353],[-6.2591587,53.3432047],[-6.2590985,53.3431789]]}";72;Nassau Street;2;30;false;true;true;false;false;false;30.0;0;1;0;0;0;false;1687;651346642;-6.367735;53.379587;404;1589739787;-6.2563741;53.3426523;0;2;3;1252258;37 - Blanchardstown Centre - Baggot Street;"";Dublin Bus;37;Blanchardstown Centre;Baggot Street
553868720;"{\"type\":\"LineString\",\"coordinates\":[[-6.2590985,53.3431789],[-6.2579192,53.3429401],[-6.2578287,53.3429228]]}";73;Nassau Street;2;30;false;true;true;false;false;false;90.0;0;0;0;0;0;false;1687;651346642;-6.367735;53.379587;404;1589739787;-6.2563741;53.3426523;0;2;3;1252258;37 - Blanchardstown Centre - Baggot Street;"";Dublin Bus;37;Blanchardstown Centre;Baggot Street
3790875;"{\"type\":\"LineString\",\"coordinates\":[[-6.2578287,53.3429228],[-6.257691,53.3429276],[-6.2575097,53.3428856],[-6.25721,53.3427769],[-6.2563329,53.3425769],[-6.2558051,53.3424572],[-6.2556448,53.3424209],[-6.2551166,53.3423104],[-6.2546421,53.3422084],[-6.2545465,53.3421878]]}";74;Nassau Street;2;30;false;true;true;false;false;false;237.0;1;1;0;0;0;false;1687;651346642;-6.367735;53.379587;404;1589739787;-6.2563741;53.3426523;1;2;3;1252258;37 - Blanchardstown Centre - Baggot Street;"";Dublin Bus;37;Blanchardstown Centre;Baggot Street
