way_id;shape;index;name;nb_lanes;legal_speed;speed_zone_30;oneway;shares_bike;bike_box;bus_lane;dedicated_bus_lane;length;nb_traffic_signals;nb_crossings;nb_stops;nb_give_ways;nb_lvl_crossings;roundabout;stop_id_orig;node_id_orig;coord_x_orig;coord_y_orig;stop_id_dest;node_id_dest;coord_x_dest;coord_y_dest;nb_neighbouring_ways_bus_stop;ordre_orig;ordre_dest;id_line;line_name;colour;operator;ref;from;to
784908367;"{\"type\":\"LineString\",\"coordinates\":[[-73.480997,45.4257361],[-73.4809463,45.4258147],[-73.4808705,45.4259261],[-73.4808586,45.4259515],[-73.4808595,45.4259725],[-73.4808768,45.426001],[-73.4809072,45.4260255],[-73.4809417,45.4260433],[-73.4812639,45.4261534],[-73.4813112,45.4261641],[-73.4813493,45.4261674],[-73.4813912,45.4261595],[-73.4814235,45.4261424],[-73.4814474,45.4261216],[-73.4814672,45.4260993],[-73.4815293,45.4260122],[-73.481586,45.4259272]]}";1;"";1;50;false;true;true;false;true;false;108.0;0;0;1;0;0;false;75140;6133323347;-73.481053;45.426171;75180;6133323320;-73.48628;45.420216;1;0;1;9506806;Bus 22 : La Magdelaine;"";EXO;22;Stationnement incitatif La Prairie;Stationnement incitatif La Prairie
487216955;"{\"type\":\"LineString\",\"coordinates\":[[-73.481586,45.4259272],[-73.4817445,45.4259779]]}";2;"";2;50;false;true;true;false;false;false;14.0;0;0;0;0;0;false;75140;6133323347;-73.481053;45.426171;75180;6133323320;-73.48628;45.420216;0;0;1;9506806;Bus 22 : La Magdelaine;"";EXO;22;Stationnement incitatif La Prairie;Stationnement incitatif La Prairie
784908374;"{\"type\":\"LineString\",\"coordinates\":[[-73.4817445,45.4259779],[-73.4819456,45.426046],[-73.481975,45.4260559],[-73.4821227,45.4261076]]}";3;Avenue du Golf;2;50;false;true;true;false;false;false;33.0;1;1;0;0;0;false;75140;6133323347;-73.481053;45.426171;75180;6133323320;-73.48628;45.420216;0;0;1;9506806;Bus 22 : La Magdelaine;"";EXO;22;Stationnement incitatif La Prairie;Stationnement incitatif La Prairie
496614176;"{\"type\":\"LineString\",\"coordinates\":[[-73.4821227,45.4261076],[-73.4822982,45.426172]]}";4;Avenue du Golf;2;50;false;true;true;false;false;false;16.0;0;0;0;0;0;false;75140;6133323347;-73.481053;45.426171;75180;6133323320;-73.48628;45.420216;0;0;1;9506806;Bus 22 : La Magdelaine;"";EXO;22;Stationnement incitatif La Prairie;Stationnement incitatif La Prairie
474399824;"{\"type\":\"LineString\",\"coordinates\":[[-73.4822982,45.426172],[-73.4823466,45.4261092]]}";5;Boulevard Taschereau;4;70;false;true;true;false;false;false;8.0;0;0;0;0;0;false;75140;6133323347;-73.481053;45.426171;75180;6133323320;-73.48628;45.420216;0;0;1;9506806;Bus 22 : La Magdelaine;"";EXO;22;Stationnement incitatif La Prairie;Stationnement incitatif La Prairie
496614181;"{\"type\":\"LineString\",\"coordinates\":[[-73.4823466,45.4261092],[-73.4824159,45.4260155],[-73.4827127,45.4255638]]}";6;Boulevard Taschereau;3;70;false;true;true;false;false;false;68.0;0;0;0;0;0;false;75140;6133323347;-73.481053;45.426171;75180;6133323320;-73.48628;45.420216;0;0;1;9506806;Bus 22 : La Magdelaine;"";EXO;22;Stationnement incitatif La Prairie;Stationnement incitatif La Prairie
474398810;"{\"type\":\"LineString\",\"coordinates\":[[-73.4827127,45.4255638],[-73.4831452,45.4249018],[-73.483278,45.4246965],[-73.4840155,45.4235684],[-73.4842291,45.4232405],[-73.4846316,45.4226287],[-73.4849579,45.4221267],[-73.48534,45.4215442]]}";7;Boulevard Taschereau;3;70;false;true;true;false;false;false;492.0;0;0;0;0;0;false;75140;6133323347;-73.481053;45.426171;75180;6133323320;-73.48628;45.420216;0;0;1;9506806;Bus 22 : La Magdelaine;"";EXO;22;Stationnement incitatif La Prairie;Stationnement incitatif La Prairie
496611266;"{\"type\":\"LineString\",\"coordinates\":[[-73.48534,45.4215442],[-73.4857859,45.4208595],[-73.4858254,45.4207994]]}";8;Boulevard Taschereau;3;70;false;true;true;false;false;false;92.0;1;0;0;0;0;false;75140;6133323347;-73.481053;45.426171;75180;6133323320;-73.48628;45.420216;0;0;1;9506806;Bus 22 : La Magdelaine;"";EXO;22;Stationnement incitatif La Prairie;Stationnement incitatif La Prairie
496611265;"{\"type\":\"LineString\",\"coordinates\":[[-73.4858254,45.4207994],[-73.4858757,45.4207256]]}";9;Boulevard Taschereau;3;70;false;true;true;false;false;false;10.0;0;0;0;0;0;false;75140;6133323347;-73.481053;45.426171;75180;6133323320;-73.48628;45.420216;0;0;1;9506806;Bus 22 : La Magdelaine;"";EXO;22;Stationnement incitatif La Prairie;Stationnement incitatif La Prairie
474398809;"{\"type\":\"LineString\",\"coordinates\":[[-73.4858757,45.4207256],[-73.4859057,45.4206822],[-73.4861457,45.4203138]]}";10;Boulevard Taschereau;3;70;false;true;true;false;false;false;51.0;0;1;0;0;0;false;75140;6133323347;-73.481053;45.426171;75180;6133323320;-73.48628;45.420216;0;0;1;9506806;Bus 22 : La Magdelaine;"";EXO;22;Stationnement incitatif La Prairie;Stationnement incitatif La Prairie
501634653;"{\"type\":\"LineString\",\"coordinates\":[[-73.4861457,45.4203138],[-73.4861688,45.4202781],[-73.4864781,45.4198003],[-73.4865596,45.4196791]]}";11;Boulevard Taschereau;3;50;false;true;true;false;false;false;39.0;0;0;0;0;0;false;75140;6133323347;-73.481053;45.426171;75180;6133323320;-73.48628;45.420216;1;0;1;9506806;Bus 22 : La Magdelaine;"";EXO;22;Stationnement incitatif La Prairie;Stationnement incitatif La Prairie
474398809;"{\"type\":\"LineString\",\"coordinates\":[[-73.4858757,45.4207256],[-73.4859057,45.4206822],[-73.4861457,45.4203138]]}";1;Boulevard Taschereau;3;70;false;true;true;false;false;false;51.0;0;1;0;0;0;false;75180;6133323320;-73.48628;45.420216;75172;6133323324;-73.488465;45.416268;2;1;2;9506806;Bus 22 : La Magdelaine;"";EXO;22;Stationnement incitatif La Prairie;Stationnement incitatif La Prairie
501634653;"{\"type\":\"LineString\",\"coordinates\":[[-73.4861457,45.4203138],[-73.4861688,45.4202781],[-73.4864781,45.4198003],[-73.4865596,45.4196791]]}";2;Boulevard Taschereau;3;50;false;true;true;false;false;false;78.0;0;0;0;0;0;false;75180;6133323320;-73.48628;45.420216;75172;6133323324;-73.488465;45.416268;0;1;2;9506806;Bus 22 : La Magdelaine;"";EXO;22;Stationnement incitatif La Prairie;Stationnement incitatif La Prairie
795243472;"{\"type\":\"LineString\",\"coordinates\":[[-73.4865596,45.4196791],[-73.486916,45.4191412]]}";3;Boulevard Taschereau;3;50;false;true;true;false;false;false;66.0;0;0;0;0;0;false;75180;6133323320;-73.48628;45.420216;75172;6133323324;-73.488465;45.416268;0;1;2;9506806;Bus 22 : La Magdelaine;"";EXO;22;Stationnement incitatif La Prairie;Stationnement incitatif La Prairie
795243474;"{\"type\":\"LineString\",\"coordinates\":[[-73.486916,45.4191412],[-73.4870348,45.4189562],[-73.4871306,45.4188125]]}";4;Boulevard Taschereau;4;50;false;true;true;false;false;false;41.0;0;0;0;0;0;false;75180;6133323320;-73.48628;45.420216;75172;6133323324;-73.488465;45.416268;0;1;2;9506806;Bus 22 : La Magdelaine;"";EXO;22;Stationnement incitatif La Prairie;Stationnement incitatif La Prairie
795243475;"{\"type\":\"LineString\",\"coordinates\":[[-73.4871306,45.4188125],[-73.4872307,45.4186582],[-73.4874678,45.4182958],[-73.4875731,45.4181399],[-73.4876769,45.4179906],[-73.4878299,45.4177794],[-73.4879748,45.4175846],[-73.4881061,45.4174156],[-73.4882396,45.4172469],[-73.4884118,45.4170344],[-73.4885584,45.4168594]]}";5;Boulevard Taschereau;5;50;false;true;true;false;false;false;245.0;0;0;0;0;0;false;75180;6133323320;-73.48628;45.420216;75172;6133323324;-73.488465;45.416268;0;1;2;9506806;Bus 22 : La Magdelaine;"";EXO;22;Stationnement incitatif La Prairie;Stationnement incitatif La Prairie
795243476;"{\"type\":\"LineString\",\"coordinates\":[[-73.4885584,45.4168594],[-73.488786,45.4165936],[-73.488815,45.4165646],[-73.4888748,45.416505]]}";6;Boulevard Taschereau;5;50;false;true;true;false;false;false;47.0;1;1;0;0;0;false;75180;6133323320;-73.48628;45.420216;75172;6133323324;-73.488465;45.416268;0;1;2;9506806;Bus 22 : La Magdelaine;"";EXO;22;Stationnement incitatif La Prairie;Stationnement incitatif La Prairie
462484301;"{\"type\":\"LineString\",\"coordinates\":[[-73.4888748,45.416505],[-73.4887143,45.4164503]]}";7;Chemin de Saint-Jean;4;50;false;false;true;false;false;false;14.0;0;0;0;0;0;false;75180;6133323320;-73.48628;45.420216;75172;6133323324;-73.488465;45.416268;0;1;2;9506806;Bus 22 : La Magdelaine;"";EXO;22;Stationnement incitatif La Prairie;Stationnement incitatif La Prairie
462484300;"{\"type\":\"LineString\",\"coordinates\":[[-73.4887143,45.4164503],[-73.4886378,45.416422],[-73.4886029,45.4164099],[-73.4883216,45.4162819]]}";8;Chemin de Saint-Jean;4;50;false;false;true;false;false;false;36.0;1;1;0;0;0;false;75180;6133323320;-73.48628;45.420216;75172;6133323324;-73.488465;45.416268;2;1;2;9506806;Bus 22 : La Magdelaine;"";EXO;22;Stationnement incitatif La Prairie;Stationnement incitatif La Prairie
685483165;"{\"type\":\"LineString\",\"coordinates\":[[-73.4883216,45.4162819],[-73.4880611,45.416161],[-73.4878538,45.4160644]]}";1;Chemin de Saint-Jean;4;50;false;false;true;false;false;false;44.0;0;0;0;0;0;false;75172;6133323324;-73.488465;45.416268;75134;6133323352;-73.485502;45.414871;2;2;3;9506806;Bus 22 : La Magdelaine;"";EXO;22;Stationnement incitatif La Prairie;Stationnement incitatif La Prairie
19883983;"{\"type\":\"LineString\",\"coordinates\":[[-73.4878538,45.4160644],[-73.4875266,45.4159093],[-73.4874684,45.4158823],[-73.4871968,45.4157562],[-73.4869262,45.4156273],[-73.4868684,45.4156006],[-73.4867836,45.4155607],[-73.4861077,45.4152423]]}";2;Chemin de Saint-Jean;4;50;false;false;true;false;false;false;165.0;0;2;0;0;0;false;75172;6133323324;-73.488465;45.416268;75134;6133323352;-73.485502;45.414871;0;2;3;9506806;Bus 22 : La Magdelaine;"";EXO;22;Stationnement incitatif La Prairie;Stationnement incitatif La Prairie
795838958;"{\"type\":\"LineString\",\"coordinates\":[[-73.4861077,45.4152423],[-73.4857499,45.4150738],[-73.4855201,45.414964],[-73.4853987,45.4149038],[-73.4852915,45.4148507]]}";3;Chemin de Saint-Jean;4;50;false;false;true;false;false;false;78.0;1;1;0;0;0;false;75172;6133323324;-73.488465;45.416268;75134;6133323352;-73.485502;45.414871;2;2;3;9506806;Bus 22 : La Magdelaine;"";EXO;22;Stationnement incitatif La Prairie;Stationnement incitatif La Prairie
685129133;"{\"type\":\"LineString\",\"coordinates\":[[-73.4852915,45.4148507],[-73.4851866,45.4148001],[-73.4850603,45.4147385],[-73.4850398,45.4147283],[-73.4847828,45.414604],[-73.4845173,45.4144756],[-73.4844168,45.414427],[-73.484265,45.4143548],[-73.4840787,45.4142661],[-73.4840392,45.4142466],[-73.4837909,45.4141242]]}";1;Chemin de Saint-Jean;4;50;false;false;true;false;false;false;143.0;1;1;0;0;0;false;75134;6133323352;-73.485502;45.414871;75132;6133323354;-73.482659;45.413502;3;3;4;9506806;Bus 22 : La Magdelaine;"";EXO;22;Stationnement incitatif La Prairie;Stationnement incitatif La Prairie
795838956;"{\"type\":\"LineString\",\"coordinates\":[[-73.4837909,45.4141242],[-73.483033,45.4137558],[-73.482826,45.4136594]]}";2;Chemin de Saint-Jean;4;50;false;false;true;false;false;false;92.0;1;0;0;0;0;false;75134;6133323352;-73.485502;45.414871;75132;6133323354;-73.482659;45.413502;0;3;4;9506806;Bus 22 : La Magdelaine;"";EXO;22;Stationnement incitatif La Prairie;Stationnement incitatif La Prairie
795838955;"{\"type\":\"LineString\",\"coordinates\":[[-73.482826,45.4136594],[-73.4827491,45.4136239],[-73.4827311,45.4136156],[-73.4826768,45.4135903],[-73.4826232,45.4135654],[-73.4824777,45.4134978],[-73.4819048,45.4132315]]}";3;Chemin de Saint-Jean;4;50;false;false;true;false;false;false;87.0;1;2;0;0;0;false;75134;6133323352;-73.485502;45.414871;75132;6133323354;-73.482659;45.413502;3;3;4;9506806;Bus 22 : La Magdelaine;"";EXO;22;Stationnement incitatif La Prairie;Stationnement incitatif La Prairie
795838955;"{\"type\":\"LineString\",\"coordinates\":[[-73.482826,45.4136594],[-73.4827491,45.4136239],[-73.4827311,45.4136156],[-73.4826768,45.4135903],[-73.4826232,45.4135654],[-73.4824777,45.4134978],[-73.4819048,45.4132315]]}";1;Chemin de Saint-Jean;4;50;false;false;true;false;false;false;43.5;1;2;0;0;0;false;75132;6133323354;-73.482659;45.413502;75207;6133323299;-73.4795385;45.4119947;1;4;5;9506806;Bus 22 : La Magdelaine;"";EXO;22;Stationnement incitatif La Prairie;Stationnement incitatif La Prairie
795838957;"{\"type\":\"LineString\",\"coordinates\":[[-73.4819048,45.4132315],[-73.4814503,45.4130213],[-73.4812455,45.4129265],[-73.4811564,45.4128852],[-73.4810241,45.4128238],[-73.4808283,45.412733],[-73.4805547,45.4126062],[-73.480413,45.4125405],[-73.4803269,45.4125006],[-73.4801912,45.4124377],[-73.4799797,45.4123396],[-73.4797846,45.4122492],[-73.4795913,45.4121596],[-73.4793463,45.412046],[-73.4793112,45.4120297],[-73.4792456,45.4119988]]}";2;Chemin de Saint-Jean;4;50;false;false;true;false;false;false;125.0;1;1;0;0;0;false;75132;6133323354;-73.482659;45.413502;75207;6133323299;-73.4795385;45.4119947;1;4;5;9506806;Bus 22 : La Magdelaine;"";EXO;22;Stationnement incitatif La Prairie;Stationnement incitatif La Prairie
795838957;"{\"type\":\"LineString\",\"coordinates\":[[-73.4819048,45.4132315],[-73.4814503,45.4130213],[-73.4812455,45.4129265],[-73.4811564,45.4128852],[-73.4810241,45.4128238],[-73.4808283,45.412733],[-73.4805547,45.4126062],[-73.480413,45.4125405],[-73.4803269,45.4125006],[-73.4801912,45.4124377],[-73.4799797,45.4123396],[-73.4797846,45.4122492],[-73.4795913,45.4121596],[-73.4793463,45.412046],[-73.4793112,45.4120297],[-73.4792456,45.4119988]]}";1;Chemin de Saint-Jean;4;50;false;false;true;false;false;false;125.0;1;1;0;0;0;false;75207;6133323299;-73.4795385;45.4119947;75227;6133323285;-73.47641;45.4106;1;5;6;9506806;Bus 22 : La Magdelaine;"";EXO;22;Stationnement incitatif La Prairie;Stationnement incitatif La Prairie
685129137;"{\"type\":\"LineString\",\"coordinates\":[[-73.4792456,45.4119988],[-73.4791432,45.411951]]}";2;Chemin de Saint-Jean;4;50;false;false;true;false;false;false;10.0;0;0;0;0;0;false;75207;6133323299;-73.4795385;45.4119947;75227;6133323285;-73.47641;45.4106;0;5;6;9506806;Bus 22 : La Magdelaine;"";EXO;22;Stationnement incitatif La Prairie;Stationnement incitatif La Prairie
795837697;"{\"type\":\"LineString\",\"coordinates\":[[-73.4791432,45.411951],[-73.4790311,45.4119],[-73.47869,45.4117419],[-73.4785681,45.4116851]]}";3;Chemin de Saint-Jean;4;50;false;false;true;false;false;false;54.0;1;0;0;0;0;false;75207;6133323299;-73.4795385;45.4119947;75227;6133323285;-73.47641;45.4106;0;5;6;9506806;Bus 22 : La Magdelaine;"";EXO;22;Stationnement incitatif La Prairie;Stationnement incitatif La Prairie
795962116;"{\"type\":\"LineString\",\"coordinates\":[[-73.4785681,45.4116851],[-73.4784696,45.4116397],[-73.4779759,45.4114108],[-73.4772652,45.4110816],[-73.4769835,45.4109507],[-73.476766,45.4108499],[-73.4767449,45.4108401],[-73.4764946,45.4107241],[-73.4763901,45.4106757],[-73.476289,45.4106288]]}";4;Chemin de Saint-Jean;4;50;false;false;true;false;false;false;107.0;0;1;0;0;0;false;75207;6133323299;-73.4795385;45.4119947;75227;6133323285;-73.47641;45.4106;1;5;6;9506806;Bus 22 : La Magdelaine;"";EXO;22;Stationnement incitatif La Prairie;Stationnement incitatif La Prairie
791915769;"{\"type\":\"LineString\",\"coordinates\":[[-73.476289,45.4106288],[-73.476194,45.410585],[-73.4758135,45.4104093],[-73.4755413,45.4102825],[-73.4753995,45.4102163],[-73.4752315,45.4101381],[-73.4752097,45.4101279],[-73.4750799,45.4100653],[-73.4746907,45.4098774],[-73.4746417,45.4098537]]}";1;Chemin de Saint-Jean;4;50;false;false;true;false;false;false;155.0;0;1;0;0;0;false;75227;6133323285;-73.47641;45.4106;75186;5175613157;-73.472056;45.409381;2;6;7;9506806;Bus 22 : La Magdelaine;"";EXO;22;Stationnement incitatif La Prairie;Stationnement incitatif La Prairie
791915744;"{\"type\":\"LineString\",\"coordinates\":[[-73.4746417,45.4098537],[-73.4742477,45.4096673],[-73.4741133,45.4096037],[-73.4740448,45.4095713],[-73.4737674,45.4094517],[-73.4735888,45.4093748],[-73.4733973,45.409287],[-73.4732022,45.4091967],[-73.4731956,45.4091936],[-73.4730319,45.4091168],[-73.4729213,45.4090649],[-73.4728069,45.4090114],[-73.4727773,45.4089949],[-73.4727635,45.4089874],[-73.4727014,45.4089536]]}";2;Chemin de Saint-Jean;4;50;false;false;true;false;false;false;182.0;1;1;0;0;0;false;75227;6133323285;-73.47641;45.4106;75186;5175613157;-73.472056;45.409381;0;6;7;9506806;Bus 22 : La Magdelaine;"";EXO;22;Stationnement incitatif La Prairie;Stationnement incitatif La Prairie
685298028;"{\"type\":\"LineString\",\"coordinates\":[[-73.4727014,45.4089536],[-73.4725996,45.4088978]]}";3;Chemin de Saint-Jean;4;50;false;false;true;false;false;false;11.0;0;0;0;0;0;false;75227;6133323285;-73.47641;45.4106;75186;5175613157;-73.472056;45.409381;0;6;7;9506806;Bus 22 : La Magdelaine;"";EXO;22;Stationnement incitatif La Prairie;Stationnement incitatif La Prairie
685462397;"{\"type\":\"LineString\",\"coordinates\":[[-73.4725996,45.4088978],[-73.4725201,45.4090006],[-73.4723019,45.4092321],[-73.4722174,45.409324],[-73.4721453,45.4094103],[-73.4721131,45.4094493]]}";4;Boulevard des Champs-Fleuris;1;50;false;true;true;false;false;false;73.0;0;1;1;0;0;false;75227;6133323285;-73.47641;45.4106;75186;5175613157;-73.472056;45.409381;2;6;7;9506806;Bus 22 : La Magdelaine;"";EXO;22;Stationnement incitatif La Prairie;Stationnement incitatif La Prairie
785656673;"{\"type\":\"LineString\",\"coordinates\":[[-73.4697805,45.4126284],[-73.4696964,45.412683]]}";1;Boulevard des Champs-Fleuris;1;50;false;true;true;false;false;false;9.0;0;0;0;0;0;false;75211;6133323297;-73.469809;45.412533;75116;6133323368;-73.467787;45.413461;2;8;9;9506806;Bus 22 : La Magdelaine;"";EXO;22;Stationnement incitatif La Prairie;Stationnement incitatif La Prairie
785656671;"{\"type\":\"LineString\",\"coordinates\":[[-73.4696964,45.412683],[-73.4696291,45.4127228],[-73.4695439,45.41277],[-73.4694711,45.4128072],[-73.4693787,45.4128487],[-73.4692857,45.4128859],[-73.4691886,45.4129207],[-73.4687763,45.4130555],[-73.4686456,45.4130984]]}";2;Boulevard des Champs-Fleuris;1;50;false;true;true;false;false;false;95.0;0;1;0;0;0;false;75211;6133323297;-73.469809;45.412533;75116;6133323368;-73.467787;45.413461;0;8;9;9506806;Bus 22 : La Magdelaine;"";EXO;22;Stationnement incitatif La Prairie;Stationnement incitatif La Prairie
792738658;"{\"type\":\"LineString\",\"coordinates\":[[-73.4686456,45.4130984],[-73.4685326,45.4131378],[-73.4684949,45.4131627],[-73.4683916,45.4132504]]}";3;Boulevard des Champs-Fleuris;1;50;false;true;true;false;false;false;27.0;0;1;0;0;0;false;75211;6133323297;-73.469809;45.412533;75116;6133323368;-73.467787;45.413461;0;8;9;9506806;Bus 22 : La Magdelaine;"";EXO;22;Stationnement incitatif La Prairie;Stationnement incitatif La Prairie
11648791;"{\"type\":\"LineString\",\"coordinates\":[[-73.4683916,45.4132504],[-73.4682759,45.4133001],[-73.467851,45.4134826],[-73.4678309,45.4134915],[-73.467733,45.4135348],[-73.4676677,45.4135627],[-73.4676535,45.4135688],[-73.4675154,45.4136288],[-73.4673964,45.4136766],[-73.4673192,45.4137046],[-73.4669987,45.4138093],[-73.4661959,45.4140774],[-73.465918,45.4141702],[-73.4658036,45.414206],[-73.4657166,45.4142331],[-73.4650443,45.4144604],[-73.464921,45.4145024],[-73.4648185,45.4145369],[-73.4641729,45.4147546],[-73.4641508,45.4147622],[-73.4640514,45.4147963]]}";4;Boulevard des Champs-Fleuris;2;50;false;false;true;false;false;false;381.0;0;9;3;0;0;false;75211;6133323297;-73.469809;45.412533;75116;6133323368;-73.467787;45.413461;2;8;9;9506806;Bus 22 : La Magdelaine;"";EXO;22;Stationnement incitatif La Prairie;Stationnement incitatif La Prairie
685298032;"{\"type\":\"LineString\",\"coordinates\":[[-73.4640514,45.4147963],[-73.4639494,45.4148302]]}";1;Boulevard des Champs-Fleuris;2;50;false;false;true;false;false;false;9.0;0;0;0;0;0;false;75120;6133323364;-73.464174;45.414676;75121;6133323363;-73.466339;45.417026;2;11;12;9506806;Bus 22 : La Magdelaine;"";EXO;22;Stationnement incitatif La Prairie;Stationnement incitatif La Prairie
459379688;"{\"type\":\"LineString\",\"coordinates\":[[-73.4639494,45.4148302],[-73.4639839,45.4148835],[-73.4640066,45.414918],[-73.4643157,45.4153728],[-73.4643628,45.4154421],[-73.4644109,45.4155137],[-73.4647947,45.4160851],[-73.4648326,45.4161384],[-73.4648882,45.4162163],[-73.4649319,45.4162758],[-73.4649638,45.4163177],[-73.4649784,45.4163344],[-73.4650002,45.4163592],[-73.4650469,45.4164044],[-73.4650837,45.4164374],[-73.465121,45.416469],[-73.4651997,45.4165282],[-73.4652673,45.416578],[-73.465327,45.4166194],[-73.465386,45.4166554],[-73.4654551,45.4166946],[-73.4655259,45.4167308],[-73.465602,45.4167657],[-73.4656774,45.4167976],[-73.4657629,45.4168292],[-73.4658373,45.4168529],[-73.4658981,45.4168707],[-73.4659659,45.4168899],[-73.4660467,45.4169092],[-73.4661318,45.4169259],[-73.4662147,45.4169394],[-73.4662902,45.4169493],[-73.4663467,45.4169549],[-73.4664025,45.4169596],[-73.4664915,45.4169644],[-73.4665274,45.4169658],[-73.466554,45.4169668],[-73.4666075,45.4169678],[-73.4666912,45.416968],[-73.4667712,45.4169654],[-73.4668396,45.4169602],[-73.4669272,45.4169521],[-73.4670122,45.4169409],[-73.4671046,45.4169261],[-73.4672013,45.4169067],[-73.4672896,45.4168848],[-73.4673838,45.416858],[-73.4674634,45.4168334],[-73.4677753,45.4167296],[-73.4678912,45.416691],[-73.4680051,45.4166527],[-73.4688451,45.41637],[-73.4688646,45.4163635],[-73.4689725,45.4163282],[-73.4690954,45.4162887],[-73.4700727,45.415962],[-73.4701977,45.4159202],[-73.4703083,45.4158828],[-73.4711853,45.4155861],[-73.4719105,45.415348],[-73.4719596,45.4153319],[-73.4720303,45.4153087]]}";2;Boulevard de La Magdeleine;1;50;false;true;false;false;false;false;802.0;0;14;3;0;0;false;75120;6133323364;-73.464174;45.414676;75121;6133323363;-73.466339;45.417026;2;11;12;9506806;Bus 22 : La Magdelaine;"";EXO;22;Stationnement incitatif La Prairie;Stationnement incitatif La Prairie
785657441;"{\"type\":\"LineString\",\"coordinates\":[[-73.4720303,45.4153087],[-73.4721315,45.4152756]]}";1;Boulevard de La Magdeleine;1;50;false;true;true;false;false;false;9.0;0;0;0;0;0;false;75125;6133323359;-73.471982;45.415409;75129;6133323357;-73.474882;45.414429;2;14;15;9506806;Bus 22 : La Magdelaine;"";EXO;22;Stationnement incitatif La Prairie;Stationnement incitatif La Prairie
459379690;"{\"type\":\"LineString\",\"coordinates\":[[-73.4721315,45.4152756],[-73.4721951,45.4152541],[-73.4729684,45.4149976],[-73.4730771,45.4149616],[-73.4731956,45.4149217],[-73.4741858,45.4145904]]}";2;Boulevard de La Magdeleine;1;50;false;true;true;false;false;false;178.0;0;3;0;0;0;false;75125;6133323359;-73.471982;45.415409;75129;6133323357;-73.474882;45.414429;0;14;15;9506806;Bus 22 : La Magdelaine;"";EXO;22;Stationnement incitatif La Prairie;Stationnement incitatif La Prairie
795841638;"{\"type\":\"LineString\",\"coordinates\":[[-73.4741858,45.4145904],[-73.4748139,45.4143811],[-73.4749219,45.4143452],[-73.4750051,45.4143172],[-73.4753958,45.4141861]]}";3;Boulevard de La Magdeleine;1;30;false;true;true;false;false;false;105.0;0;2;1;0;0;false;75125;6133323359;-73.471982;45.415409;75129;6133323357;-73.474882;45.414429;2;14;15;9506806;Bus 22 : La Magdelaine;"";EXO;22;Stationnement incitatif La Prairie;Stationnement incitatif La Prairie
795841638;"{\"type\":\"LineString\",\"coordinates\":[[-73.4741858,45.4145904],[-73.4748139,45.4143811],[-73.4749219,45.4143452],[-73.4750051,45.4143172],[-73.4753958,45.4141861]]}";1;Boulevard de La Magdeleine;1;30;false;true;true;false;false;false;52.5;0;2;1;0;0;false;75129;6133323357;-73.474882;45.414429;75206;6133323300;-73.479178;45.412264;1;15;16;9506806;Bus 22 : La Magdelaine;"";EXO;22;Stationnement incitatif La Prairie;Stationnement incitatif La Prairie
795841639;"{\"type\":\"LineString\",\"coordinates\":[[-73.4753958,45.4141861],[-73.4756767,45.414091],[-73.4757792,45.4140593],[-73.4758557,45.4140365],[-73.4759333,45.4140174],[-73.4760378,45.4139932],[-73.4761456,45.413972],[-73.4762498,45.4139549],[-73.4763576,45.4139399],[-73.4764436,45.4139286],[-73.4765319,45.4139193],[-73.4765933,45.4139141],[-73.4767061,45.4139077],[-73.476782,45.413907],[-73.4768216,45.4139064],[-73.4768554,45.413906],[-73.4769314,45.4139039],[-73.4770242,45.4138982],[-73.4771187,45.4138885],[-73.4772185,45.4138741],[-73.477314,45.4138557],[-73.4774084,45.4138337],[-73.4774958,45.4138094],[-73.4775637,45.4137872],[-73.4776469,45.4137582],[-73.4777172,45.4137297],[-73.4777937,45.4136942],[-73.4778657,45.4136594],[-73.4779312,45.4136237],[-73.4780057,45.4135773],[-73.4780735,45.413531],[-73.4781458,45.4134737],[-73.4782121,45.4134185],[-73.478265,45.413367],[-73.4783157,45.4133099],[-73.4783676,45.4132486],[-73.4784228,45.4131724],[-73.4784589,45.4131185],[-73.4787218,45.4127308],[-73.4787606,45.4126736],[-73.4788107,45.4126028],[-73.4788674,45.4125226]]}";2;Boulevard de La Magdeleine;1;50;false;true;true;false;false;false;355.0;0;2;0;0;0;false;75129;6133323357;-73.474882;45.414429;75206;6133323300;-73.479178;45.412264;0;15;16;9506806;Bus 22 : La Magdelaine;"";EXO;22;Stationnement incitatif La Prairie;Stationnement incitatif La Prairie
795837692;"{\"type\":\"LineString\",\"coordinates\":[[-73.4788674,45.4125226],[-73.4790184,45.4123048],[-73.4791429,45.4121166],[-73.4791572,45.4120964],[-73.4791729,45.4120767],[-73.4792456,45.4119988]]}";3;Boulevard de La Magdeleine;2;50;false;true;true;false;false;false;33.0;1;1;0;0;0;false;75129;6133323357;-73.474882;45.414429;75206;6133323300;-73.479178;45.412264;1;15;16;9506806;Bus 22 : La Magdelaine;"";EXO;22;Stationnement incitatif La Prairie;Stationnement incitatif La Prairie
795837692;"{\"type\":\"LineString\",\"coordinates\":[[-73.4788674,45.4125226],[-73.4790184,45.4123048],[-73.4791429,45.4121166],[-73.4791572,45.4120964],[-73.4791729,45.4120767],[-73.4792456,45.4119988]]}";1;Boulevard de La Magdeleine;2;50;false;true;true;false;false;false;33.0;1;1;0;0;0;false;75206;6133323300;-73.479178;45.412264;75131;6133323355;-73.482865;45.413765;1;16;17;9506806;Bus 22 : La Magdelaine;"";EXO;22;Stationnement incitatif La Prairie;Stationnement incitatif La Prairie
795838957;"{\"type\":\"LineString\",\"coordinates\":[[-73.4819048,45.4132315],[-73.4814503,45.4130213],[-73.4812455,45.4129265],[-73.4811564,45.4128852],[-73.4810241,45.4128238],[-73.4808283,45.412733],[-73.4805547,45.4126062],[-73.480413,45.4125405],[-73.4803269,45.4125006],[-73.4801912,45.4124377],[-73.4799797,45.4123396],[-73.4797846,45.4122492],[-73.4795913,45.4121596],[-73.4793463,45.412046],[-73.4793112,45.4120297],[-73.4792456,45.4119988]]}";2;Chemin de Saint-Jean;4;50;false;false;true;false;false;false;250.0;1;1;0;0;0;false;75206;6133323300;-73.479178;45.412264;75131;6133323355;-73.482865;45.413765;0;16;17;9506806;Bus 22 : La Magdelaine;"";EXO;22;Stationnement incitatif La Prairie;Stationnement incitatif La Prairie
795838955;"{\"type\":\"LineString\",\"coordinates\":[[-73.482826,45.4136594],[-73.4827491,45.4136239],[-73.4827311,45.4136156],[-73.4826768,45.4135903],[-73.4826232,45.4135654],[-73.4824777,45.4134978],[-73.4819048,45.4132315]]}";3;Chemin de Saint-Jean;4;50;false;false;true;false;false;false;87.0;1;2;0;0;0;false;75206;6133323300;-73.479178;45.412264;75131;6133323355;-73.482865;45.413765;0;16;17;9506806;Bus 22 : La Magdelaine;"";EXO;22;Stationnement incitatif La Prairie;Stationnement incitatif La Prairie
795838956;"{\"type\":\"LineString\",\"coordinates\":[[-73.4837909,45.4141242],[-73.483033,45.4137558],[-73.482826,45.4136594]]}";4;Chemin de Saint-Jean;4;50;false;false;true;false;false;false;46.0;1;0;0;0;0;false;75206;6133323300;-73.479178;45.412264;75131;6133323355;-73.482865;45.413765;1;16;17;9506806;Bus 22 : La Magdelaine;"";EXO;22;Stationnement incitatif La Prairie;Stationnement incitatif La Prairie
795838955;"{\"type\":\"LineString\",\"coordinates\":[[-73.482826,45.4136594],[-73.4827491,45.4136239],[-73.4827311,45.4136156],[-73.4826768,45.4135903],[-73.4826232,45.4135654],[-73.4824777,45.4134978],[-73.4819048,45.4132315]]}";1;Chemin de Saint-Jean;4;50;false;false;true;false;false;false;87.0;1;2;0;0;0;false;75131;6133323355;-73.482865;45.413765;75133;6133323353;-73.484935;45.414783;2;17;18;9506806;Bus 22 : La Magdelaine;"";EXO;22;Stationnement incitatif La Prairie;Stationnement incitatif La Prairie
795838956;"{\"type\":\"LineString\",\"coordinates\":[[-73.4837909,45.4141242],[-73.483033,45.4137558],[-73.482826,45.4136594]]}";2;Chemin de Saint-Jean;4;50;false;false;true;false;false;false;92.0;1;0;0;0;0;false;75131;6133323355;-73.482865;45.413765;75133;6133323353;-73.484935;45.414783;0;17;18;9506806;Bus 22 : La Magdelaine;"";EXO;22;Stationnement incitatif La Prairie;Stationnement incitatif La Prairie
685129133;"{\"type\":\"LineString\",\"coordinates\":[[-73.4852915,45.4148507],[-73.4851866,45.4148001],[-73.4850603,45.4147385],[-73.4850398,45.4147283],[-73.4847828,45.414604],[-73.4845173,45.4144756],[-73.4844168,45.414427],[-73.484265,45.4143548],[-73.4840787,45.4142661],[-73.4840392,45.4142466],[-73.4837909,45.4141242]]}";3;Chemin de Saint-Jean;4;50;false;false;true;false;false;false;143.0;1;1;0;0;0;false;75131;6133323355;-73.482865;45.413765;75133;6133323353;-73.484935;45.414783;2;17;18;9506806;Bus 22 : La Magdelaine;"";EXO;22;Stationnement incitatif La Prairie;Stationnement incitatif La Prairie
685129133;"{\"type\":\"LineString\",\"coordinates\":[[-73.4852915,45.4148507],[-73.4851866,45.4148001],[-73.4850603,45.4147385],[-73.4850398,45.4147283],[-73.4847828,45.414604],[-73.4845173,45.4144756],[-73.4844168,45.414427],[-73.484265,45.4143548],[-73.4840787,45.4142661],[-73.4840392,45.4142466],[-73.4837909,45.4141242]]}";1;Chemin de Saint-Jean;4;50;false;false;true;false;false;false;71.5;1;1;0;0;0;false;75133;6133323353;-73.484935;45.414783;75185;6133323315;-73.479488;45.416043;1;18;19;9506806;Bus 22 : La Magdelaine;"";EXO;22;Stationnement incitatif La Prairie;Stationnement incitatif La Prairie
685298034;"{\"type\":\"LineString\",\"coordinates\":[[-73.4848002,45.4152519],[-73.4848397,45.4152408],[-73.4848781,45.4152266],[-73.484925,45.4152069],[-73.4849513,45.4151938],[-73.4849735,45.4151816],[-73.4850044,45.4151577],[-73.4850419,45.4151232],[-73.4850984,45.4150646],[-73.4851873,45.4149724],[-73.4852216,45.4149365],[-73.4852915,45.4148507]]}";2;Avenue du Maire;3;50;false;false;true;false;false;false;61.0;1;2;0;0;0;false;75133;6133323353;-73.484935;45.414783;75185;6133323315;-73.479488;45.416043;0;18;19;9506806;Bus 22 : La Magdelaine;"";EXO;22;Stationnement incitatif La Prairie;Stationnement incitatif La Prairie
795426421;"{\"type\":\"LineString\",\"coordinates\":[[-73.4846539,45.4152624],[-73.4846856,45.4152634],[-73.4847186,45.4152619],[-73.4847539,45.4152583],[-73.4848002,45.4152519]]}";3;Avenue du Maire;2;50;false;false;false;false;false;false;12.0;0;0;0;0;0;false;75133;6133323353;-73.484935;45.414783;75185;6133323315;-73.479488;45.416043;0;18;19;9506806;Bus 22 : La Magdelaine;"";EXO;22;Stationnement incitatif La Prairie;Stationnement incitatif La Prairie
24217845;"{\"type\":\"LineString\",\"coordinates\":[[-73.4752036,45.4171145],[-73.4753441,45.4170811],[-73.4765651,45.4167928],[-73.476638,45.4167755],[-73.4793444,45.4161417],[-73.4794386,45.4161203],[-73.4795463,45.4160948],[-73.4829994,45.415285],[-73.4830989,45.4152648],[-73.4831762,45.4152522],[-73.4832632,45.4152417],[-73.4833559,45.4152347],[-73.4834789,45.4152281],[-73.4836289,45.4152224],[-73.4840984,45.415211],[-73.4841906,45.4152111],[-73.4842453,45.4152142],[-73.4842894,45.4152171],[-73.4843561,45.4152235],[-73.4844381,45.4152346],[-73.4845234,45.4152485],[-73.4845945,45.4152578],[-73.4846539,45.4152624]]}";4;Avenue du Maire;2;50;false;false;false;false;false;false;387.0;0;4;0;0;0;false;75133;6133323353;-73.484935;45.414783;75185;6133323315;-73.479488;45.416043;1;18;19;9506806;Bus 22 : La Magdelaine;"";EXO;22;Stationnement incitatif La Prairie;Stationnement incitatif La Prairie
13512718;"{\"type\":\"LineString\",\"coordinates\":[[-73.4752036,45.4171145],[-73.4752391,45.4171949],[-73.4752494,45.4172188],[-73.4753519,45.4174468],[-73.4753758,45.417479],[-73.4754032,45.4175019],[-73.4754453,45.417523],[-73.4754939,45.417541],[-73.4775585,45.4181555],[-73.4782957,45.4183724],[-73.4784428,45.4184168],[-73.4785543,45.4184495],[-73.4785851,45.4184583],[-73.4789004,45.4185514]]}";1;Avenue Ernest-Rochette;2;30;false;false;false;false;false;false;172.0;0;1;3;0;0;false;75136;6133323350;-73.4784;45.418458;75137;6133323349;-73.482044;45.417108;1;21;22;9506806;Bus 22 : La Magdelaine;"";EXO;22;Stationnement incitatif La Prairie;Stationnement incitatif La Prairie
795621920;"{\"type\":\"LineString\",\"coordinates\":[[-73.4789004,45.4185514],[-73.4789686,45.4185699],[-73.4790456,45.4185883],[-73.4791064,45.4186015],[-73.4791696,45.4186144],[-73.4792349,45.4186218],[-73.479304,45.4186232],[-73.4793752,45.4186167],[-73.4794368,45.4186028],[-73.479498,45.4185792],[-73.4795514,45.4185528],[-73.479604,45.4185242],[-73.4796442,45.4184952],[-73.4796747,45.4184644],[-73.4797108,45.4184181]]}";2;Avenue Ernest-Rochette;2;30;false;false;true;false;false;false;74.0;0;0;0;0;0;false;75136;6133323350;-73.4784;45.418458;75137;6133323349;-73.482044;45.417108;0;21;22;9506806;Bus 22 : La Magdelaine;"";EXO;22;Stationnement incitatif La Prairie;Stationnement incitatif La Prairie
795621921;"{\"type\":\"LineString\",\"coordinates\":[[-73.4797108,45.4184181],[-73.4800256,45.4179494],[-73.4802688,45.4175828],[-73.4803019,45.4175361],[-73.4803349,45.4174997],[-73.4803744,45.417466],[-73.4804114,45.4174405],[-73.4804484,45.4174161],[-73.480496,45.4173913],[-73.4805351,45.417374],[-73.4805789,45.4173585],[-73.480624,45.4173451],[-73.4806663,45.417334],[-73.4810802,45.4172393],[-73.4819212,45.4170423],[-73.4820634,45.4170091],[-73.4821498,45.4169895],[-73.4824855,45.4169083],[-73.4825526,45.4168962],[-73.4826266,45.4168848],[-73.4827128,45.4168738],[-73.4827947,45.4168689],[-73.4828769,45.4168664],[-73.4829634,45.4168675],[-73.4830458,45.4168709],[-73.4831186,45.4168788],[-73.4831999,45.4168907],[-73.4832674,45.4169033],[-73.4833356,45.416917],[-73.4834089,45.4169347],[-73.4835896,45.4169852],[-73.483746,45.4170308],[-73.4838462,45.4170548]]}";3;Avenue Ernest-Rochette;2;50;false;false;false;false;false;false;203.0;0;0;3;0;0;false;75136;6133323350;-73.4784;45.418458;75137;6133323349;-73.482044;45.417108;1;21;22;9506806;Bus 22 : La Magdelaine;"";EXO;22;Stationnement incitatif La Prairie;Stationnement incitatif La Prairie
795621921;"{\"type\":\"LineString\",\"coordinates\":[[-73.4797108,45.4184181],[-73.4800256,45.4179494],[-73.4802688,45.4175828],[-73.4803019,45.4175361],[-73.4803349,45.4174997],[-73.4803744,45.417466],[-73.4804114,45.4174405],[-73.4804484,45.4174161],[-73.480496,45.4173913],[-73.4805351,45.417374],[-73.4805789,45.4173585],[-73.480624,45.4173451],[-73.4806663,45.417334],[-73.4810802,45.4172393],[-73.4819212,45.4170423],[-73.4820634,45.4170091],[-73.4821498,45.4169895],[-73.4824855,45.4169083],[-73.4825526,45.4168962],[-73.4826266,45.4168848],[-73.4827128,45.4168738],[-73.4827947,45.4168689],[-73.4828769,45.4168664],[-73.4829634,45.4168675],[-73.4830458,45.4168709],[-73.4831186,45.4168788],[-73.4831999,45.4168907],[-73.4832674,45.4169033],[-73.4833356,45.416917],[-73.4834089,45.4169347],[-73.4835896,45.4169852],[-73.483746,45.4170308],[-73.4838462,45.4170548]]}";1;Avenue Ernest-Rochette;2;50;false;false;false;false;false;false;203.0;0;0;3;0;0;false;75137;6133323349;-73.482044;45.417108;75138;6133323348;-73.485595;45.417653;1;22;23;9506806;Bus 22 : La Magdelaine;"";EXO;22;Stationnement incitatif La Prairie;Stationnement incitatif La Prairie
24922773;"{\"type\":\"LineString\",\"coordinates\":[[-73.4838462,45.4170548],[-73.4839872,45.4170932],[-73.4846898,45.4172986],[-73.4853858,45.4175036]]}";2;Avenue Ernest-Rochette;2;50;false;false;true;false;false;false;131.0;0;1;1;0;0;false;75137;6133323349;-73.482044;45.417108;75138;6133323348;-73.485595;45.417653;0;22;23;9506806;Bus 22 : La Magdelaine;"";EXO;22;Stationnement incitatif La Prairie;Stationnement incitatif La Prairie
795243487;"{\"type\":\"LineString\",\"coordinates\":[[-73.4853858,45.4175036],[-73.4855637,45.4175549],[-73.4856565,45.4175813],[-73.485761,45.417611],[-73.4858531,45.4176379],[-73.486368,45.4177892],[-73.4864669,45.4178179],[-73.4869961,45.4179732]]}";3;Avenue Ernest-Rochette;2;50;false;false;true;false;false;false;68.5;0;3;0;0;0;false;75137;6133323349;-73.482044;45.417108;75138;6133323348;-73.485595;45.417653;1;22;23;9506806;Bus 22 : La Magdelaine;"";EXO;22;Stationnement incitatif La Prairie;Stationnement incitatif La Prairie
795243487;"{\"type\":\"LineString\",\"coordinates\":[[-73.4853858,45.4175036],[-73.4855637,45.4175549],[-73.4856565,45.4175813],[-73.485761,45.417611],[-73.4858531,45.4176379],[-73.486368,45.4177892],[-73.4864669,45.4178179],[-73.4869961,45.4179732]]}";1;Avenue Ernest-Rochette;2;50;false;false;true;false;false;false;68.5;0;3;0;0;0;false;75138;6133323348;-73.485595;45.417653;75181;6133323319;-73.485604;45.420532;1;23;24;9506806;Bus 22 : La Magdelaine;"";EXO;22;Stationnement incitatif La Prairie;Stationnement incitatif La Prairie
793938199;"{\"type\":\"LineString\",\"coordinates\":[[-73.4869961,45.4179732],[-73.4871319,45.4180347],[-73.487167,45.4180535],[-73.487189,45.4180685],[-73.4872065,45.4180862],[-73.4872185,45.4181065],[-73.4872279,45.4181225],[-73.4872328,45.4181448],[-73.4872329,45.4181737],[-73.4872219,45.4182005],[-73.4871942,45.4182437],[-73.4871617,45.4182923],[-73.4869541,45.418673],[-73.4868078,45.4189549]]}";2;Avenue Ernest-Rochette;1;50;false;true;true;false;false;false;124.0;0;1;0;0;0;false;75138;6133323348;-73.485595;45.417653;75181;6133323319;-73.485604;45.420532;0;23;24;9506806;Bus 22 : La Magdelaine;"";EXO;22;Stationnement incitatif La Prairie;Stationnement incitatif La Prairie
478233565;"{\"type\":\"LineString\",\"coordinates\":[[-73.4868078,45.4189549],[-73.4863444,45.4196545]]}";3;Boulevard Taschereau;3;50;false;true;true;false;false;false;86.0;0;0;0;0;0;false;75138;6133323348;-73.485595;45.417653;75181;6133323319;-73.485604;45.420532;0;23;24;9506806;Bus 22 : La Magdelaine;"";EXO;22;Stationnement incitatif La Prairie;Stationnement incitatif La Prairie
795243473;"{\"type\":\"LineString\",\"coordinates\":[[-73.4863444,45.4196545],[-73.4857294,45.4206014],[-73.4857169,45.42062],[-73.4856865,45.4206645]]}";4;Boulevard Taschereau;4;50;false;true;true;false;false;false;62.0;1;1;0;0;0;false;75138;6133323348;-73.485595;45.417653;75181;6133323319;-73.485604;45.420532;1;23;24;9506806;Bus 22 : La Magdelaine;"";EXO;22;Stationnement incitatif La Prairie;Stationnement incitatif La Prairie
681104231;"{\"type\":\"LineString\",\"coordinates\":[[-73.4856865,45.4206645],[-73.4856375,45.4207375]]}";1;Boulevard Taschereau;3;70;false;true;true;false;false;false;9.0;0;0;0;0;0;false;75181;6133323319;-73.485604;45.420532;75140;6133323347;-73.481053;45.426171;2;24;25;9506806;Bus 22 : La Magdelaine;"";EXO;22;Stationnement incitatif La Prairie;Stationnement incitatif La Prairie
793957977;"{\"type\":\"LineString\",\"coordinates\":[[-73.4856375,45.4207375],[-73.4825524,45.4254526]]}";2;Boulevard Taschereau;3;70;false;true;true;false;false;false;577.0;0;0;0;0;0;false;75181;6133323319;-73.485604;45.420532;75140;6133323347;-73.481053;45.426171;0;24;25;9506806;Bus 22 : La Magdelaine;"";EXO;22;Stationnement incitatif La Prairie;Stationnement incitatif La Prairie
795788183;"{\"type\":\"LineString\",\"coordinates\":[[-73.4825524,45.4254526],[-73.4824289,45.4255537],[-73.4822637,45.4257559],[-73.4822179,45.425806],[-73.4821886,45.4258345],[-73.4821072,45.4258769],[-73.4820478,45.4258994],[-73.4820047,45.4259103]]}";3;"";1;50;false;true;true;false;false;false;69.0;0;1;0;0;0;false;75181;6133323319;-73.485604;45.420532;75140;6133323347;-73.481053;45.426171;0;24;25;9506806;Bus 22 : La Magdelaine;"";EXO;22;Stationnement incitatif La Prairie;Stationnement incitatif La Prairie
784914821;"{\"type\":\"LineString\",\"coordinates\":[[-73.4820047,45.4259103],[-73.4819523,45.4259197],[-73.4818936,45.4259203],[-73.4818202,45.4259115],[-73.4817042,45.4258857]]}";4;"";1;50;false;true;true;false;false;false;25.0;0;1;0;0;0;false;75181;6133323319;-73.485604;45.420532;75140;6133323347;-73.481053;45.426171;0;24;25;9506806;Bus 22 : La Magdelaine;"";EXO;22;Stationnement incitatif La Prairie;Stationnement incitatif La Prairie
784908371;"{\"type\":\"LineString\",\"coordinates\":[[-73.4817042,45.4258857],[-73.4811571,45.4257067],[-73.4810372,45.4256675]]}";5;Avenue du Golf;2;50;false;true;true;false;false;false;58.0;0;0;1;0;0;false;75181;6133323319;-73.485604;45.420532;75140;6133323347;-73.481053;45.426171;0;24;25;9506806;Bus 22 : La Magdelaine;"";EXO;22;Stationnement incitatif La Prairie;Stationnement incitatif La Prairie
24262980;"{\"type\":\"LineString\",\"coordinates\":[[-73.4810372,45.4256675],[-73.480997,45.4257361]]}";6;"";2;50;false;false;true;false;true;false;9.0;0;0;0;0;0;false;75181;6133323319;-73.485604;45.420532;75140;6133323347;-73.481053;45.426171;0;24;25;9506806;Bus 22 : La Magdelaine;"";EXO;22;Stationnement incitatif La Prairie;Stationnement incitatif La Prairie
784908367;"{\"type\":\"LineString\",\"coordinates\":[[-73.480997,45.4257361],[-73.4809463,45.4258147],[-73.4808705,45.4259261],[-73.4808586,45.4259515],[-73.4808595,45.4259725],[-73.4808768,45.426001],[-73.4809072,45.4260255],[-73.4809417,45.4260433],[-73.4812639,45.4261534],[-73.4813112,45.4261641],[-73.4813493,45.4261674],[-73.4813912,45.4261595],[-73.4814235,45.4261424],[-73.4814474,45.4261216],[-73.4814672,45.4260993],[-73.4815293,45.4260122],[-73.481586,45.4259272]]}";7;"";1;50;false;true;true;false;true;false;108.0;0;0;1;0;0;false;75181;6133323319;-73.485604;45.420532;75140;6133323347;-73.481053;45.426171;1;24;25;9506806;Bus 22 : La Magdelaine;"";EXO;22;Stationnement incitatif La Prairie;Stationnement incitatif La Prairie
