way_id;shape;index;name;nb_lanes;legal_speed;speed_zone_30;oneway;shares_bike;bike_box;bus_lane;dedicated_bus_lane;length;nb_traffic_signals;nb_crossings;nb_stops;nb_give_ways;nb_lvl_crossings;roundabout;stop_id_orig;node_id_orig;coord_x_orig;coord_y_orig;stop_id_dest;node_id_dest;coord_x_dest;coord_y_dest;nb_neighbouring_ways_bus_stop;ordre_orig;ordre_dest;id_line;line_name;colour;operator;ref;from;to
44334288;"{\"type\":\"LineString\",\"coordinates\":[[-74.0107969,45.3836519],[-74.0111361,45.3839185],[-74.0113048,45.3841017],[-74.0113721,45.3841747],[-74.0114196,45.3842297],[-74.0115049,45.3842759],[-74.0115779,45.3842985],[-74.0116941,45.384318],[-74.01182,45.3843025],[-74.0119379,45.3842705],[-74.0123549,45.384015]]}";1;Avenue de la Fabrique;2;50;false;false;true;false;false;false;168.0;1;0;0;0;0;false;72917;6133272240;-74.01226;45.383959;72738;6133272917;-74.013363;45.382529;1;0;1;9492812;Bus 115 : Direction gare Vaudreuil;"";EXO;115 O;avenue de la Fabrique / École du Papillon-Bleu;rue de la Gare / face au Walmart
452011810;"{\"type\":\"LineString\",\"coordinates\":[[-74.0107969,45.3836519],[-74.0120775,45.382996],[-74.0134632,45.3823005]]}";2;Boulevard Harwood;2;50;false;true;true;false;false;false;129.0;1;0;0;0;0;false;72917;6133272240;-74.01226;45.383959;72738;6133272917;-74.013363;45.382529;1;0;1;9492812;Bus 115 : Direction gare Vaudreuil;"";EXO;115 O;avenue de la Fabrique / École du Papillon-Bleu;rue de la Gare / face au Walmart
452011810;"{\"type\":\"LineString\",\"coordinates\":[[-74.0107969,45.3836519],[-74.0120775,45.382996],[-74.0134632,45.3823005]]}";1;Boulevard Harwood;2;50;false;true;true;false;false;false;129.0;1;0;0;0;0;false;72738;6133272917;-74.013363;45.382529;72613;6133273240;-74.01714;45.379205;1;1;2;9492812;Bus 115 : Direction gare Vaudreuil;"";EXO;115 O;avenue de la Fabrique / École du Papillon-Bleu;rue de la Gare / face au Walmart
452010954;"{\"type\":\"LineString\",\"coordinates\":[[-74.0134632,45.3823005],[-74.0143613,45.3818576],[-74.0145198,45.3817795]]}";2;Boulevard Harwood;2;50;false;true;true;false;false;false;101.0;1;0;0;0;0;false;72738;6133272917;-74.013363;45.382529;72613;6133273240;-74.01714;45.379205;0;1;2;9492812;Bus 115 : Direction gare Vaudreuil;"";EXO;115 O;avenue de la Fabrique / École du Papillon-Bleu;rue de la Gare / face au Walmart
452010758;"{\"type\":\"LineString\",\"coordinates\":[[-74.0145198,45.3817795],[-74.0156248,45.3812007]]}";3;Boulevard Harwood;2;50;false;true;true;false;false;false;108.0;1;0;0;0;0;false;72738;6133272917;-74.013363;45.382529;72613;6133273240;-74.01714;45.379205;0;1;2;9492812;Bus 115 : Direction gare Vaudreuil;"";EXO;115 O;avenue de la Fabrique / École du Papillon-Bleu;rue de la Gare / face au Walmart
452010757;"{\"type\":\"LineString\",\"coordinates\":[[-74.0156248,45.3812007],[-74.0167656,45.3806402]]}";4;Boulevard Harwood;2;50;false;true;true;false;false;false;109.0;0;0;0;0;0;false;72738;6133272917;-74.013363;45.382529;72613;6133273240;-74.01714;45.379205;0;1;2;9492812;Bus 115 : Direction gare Vaudreuil;"";EXO;115 O;avenue de la Fabrique / École du Papillon-Bleu;rue de la Gare / face au Walmart
451875658;"{\"type\":\"LineString\",\"coordinates\":[[-74.0167656,45.3806402],[-74.0171637,45.3804446],[-74.0177746,45.3801445],[-74.0178501,45.3801087]]}";5;Boulevard Harwood;2;50;false;true;true;false;false;false;104.0;1;1;0;0;0;false;72738;6133272917;-74.013363;45.382529;72613;6133273240;-74.01714;45.379205;0;1;2;9492812;Bus 115 : Direction gare Vaudreuil;"";EXO;115 O;avenue de la Fabrique / École du Papillon-Bleu;rue de la Gare / face au Walmart
451875656;"{\"type\":\"LineString\",\"coordinates\":[[-74.0178501,45.3801087],[-74.0177673,45.3800269]]}";6;Avenue Ranger;2;50;false;false;true;false;false;false;12.0;1;0;0;0;0;false;72738;6133272917;-74.013363;45.382529;72613;6133273240;-74.01714;45.379205;0;1;2;9492812;Bus 115 : Direction gare Vaudreuil;"";EXO;115 O;avenue de la Fabrique / École du Papillon-Bleu;rue de la Gare / face au Walmart
682307705;"{\"type\":\"LineString\",\"coordinates\":[[-74.0177673,45.3800269],[-74.0173163,45.3795405],[-74.0169538,45.3791496]]}";7;Avenue Ranger;2;50;false;false;true;false;false;false;58.5;0;0;1;0;0;false;72738;6133272917;-74.013363;45.382529;72613;6133273240;-74.01714;45.379205;1;1;2;9492812;Bus 115 : Direction gare Vaudreuil;"";EXO;115 O;avenue de la Fabrique / École du Papillon-Bleu;rue de la Gare / face au Walmart
682297480;"{\"type\":\"LineString\",\"coordinates\":[[-74.0169538,45.3791496],[-74.0221674,45.3766422],[-74.0222066,45.3766234],[-74.0232216,45.3761237],[-74.02455,45.3754698]]}";1;Rue Chicoine;2;50;false;false;true;false;false;false;361.0;0;0;1;0;0;false;72610;6133273243;-74.022157;45.376706;72639;6133273214;-74.024061;45.37477;1;4;5;9492812;Bus 115 : Direction gare Vaudreuil;"";EXO;115 O;avenue de la Fabrique / École du Papillon-Bleu;rue de la Gare / face au Walmart
682297482;"{\"type\":\"LineString\",\"coordinates\":[[-74.02455,45.3754698],[-74.0239293,45.3746914]]}";2;Avenue Brown;2;50;false;false;true;false;false;false;50.0;0;0;0;0;0;false;72610;6133273243;-74.022157;45.376706;72639;6133273214;-74.024061;45.37477;1;4;5;9492812;Bus 115 : Direction gare Vaudreuil;"";EXO;115 O;avenue de la Fabrique / École du Papillon-Bleu;rue de la Gare / face au Walmart
682126574;"{\"type\":\"LineString\",\"coordinates\":[[-74.0287755,45.3785956],[-74.0291477,45.3784135],[-74.0292698,45.3783538],[-74.0294951,45.3782436],[-74.0301272,45.3779344],[-74.0307516,45.3776289],[-74.0313896,45.3773168],[-74.0320035,45.3770165],[-74.0324213,45.3768121],[-74.0327722,45.3766833],[-74.0330678,45.37661]]}";1;Rue Valois;2;40;false;false;true;false;false;false;403.0;0;0;0;0;0;false;72614;6133273239;-74.028769;45.378499;72922;6133272235;-74.024549;45.380504;2;18;19;9492812;Bus 115 : Direction gare Vaudreuil;"";EXO;115 O;avenue de la Fabrique / École du Papillon-Bleu;rue de la Gare / face au Walmart
682126572;"{\"type\":\"LineString\",\"coordinates\":[[-74.024606,45.3806001],[-74.0249936,45.3804138],[-74.0254245,45.3802066],[-74.0260007,45.3799296],[-74.0262249,45.3798218],[-74.0270406,45.3794296],[-74.0279183,45.3790077],[-74.0287755,45.3785956]]}";2;Rue Valois;2;40;false;false;true;false;false;false;396.0;0;0;0;0;0;false;72614;6133273239;-74.028769;45.378499;72922;6133272235;-74.024549;45.380504;2;18;19;9492812;Bus 115 : Direction gare Vaudreuil;"";EXO;115 O;avenue de la Fabrique / École du Papillon-Bleu;rue de la Gare / face au Walmart
682126571;"{\"type\":\"LineString\",\"coordinates\":[[-74.0237543,45.381013],[-74.0244995,45.3806517],[-74.024606,45.3806001]]}";1;Rue Valois;2;40;false;false;true;false;false;false;81.0;0;0;0;0;0;false;72922;6133272235;-74.024549;45.380504;72933;6133272224;-74.021456;45.382042;2;19;20;9492812;Bus 115 : Direction gare Vaudreuil;"";EXO;115 O;avenue de la Fabrique / École du Papillon-Bleu;rue de la Gare / face au Walmart
682126567;"{\"type\":\"LineString\",\"coordinates\":[[-74.0214646,45.3821185],[-74.0223138,45.3817085],[-74.0227807,45.3814831],[-74.0237543,45.381013]]}";2;Rue Valois;2;40;false;false;true;false;false;false;218.0;0;0;0;0;0;false;72922;6133272235;-74.024549;45.380504;72933;6133272224;-74.021456;45.382042;2;19;20;9492812;Bus 115 : Direction gare Vaudreuil;"";EXO;115 O;avenue de la Fabrique / École du Papillon-Bleu;rue de la Gare / face au Walmart
690197287;"{\"type\":\"LineString\",\"coordinates\":[[-74.0176075,45.3839644],[-74.0180612,45.3837494],[-74.0190234,45.3832934],[-74.0192122,45.3832012],[-74.0201984,45.3827247],[-74.0214646,45.3821185]]}";1;Rue Valois;2;40;false;false;true;false;false;false;182.5;0;0;0;0;0;false;72552;6133273501;-74.019128;45.383161;72833;2070698436;-74.0113861;45.3855673;1;21;22;9492812;Bus 115 : Direction gare Vaudreuil;"";EXO;115 O;avenue de la Fabrique / École du Papillon-Bleu;rue de la Gare / face au Walmart
198485237;"{\"type\":\"LineString\",\"coordinates\":[[-74.0141512,45.3856377],[-74.0146768,45.3853832],[-74.0150179,45.3852181],[-74.0159419,45.3847708],[-74.0173984,45.3840656],[-74.0176075,45.3839644]]}";2;Rue Valois;2;40;false;false;true;false;false;false;329.0;0;0;0;0;0;false;72552;6133273501;-74.019128;45.383161;72833;2070698436;-74.0113861;45.3855673;0;21;22;9492812;Bus 115 : Direction gare Vaudreuil;"";EXO;115 O;avenue de la Fabrique / École du Papillon-Bleu;rue de la Gare / face au Walmart
44334264;"{\"type\":\"LineString\",\"coordinates\":[[-74.0141512,45.3856377],[-74.0137121,45.3851715],[-74.0135083,45.3850763],[-74.0133579,45.385063],[-74.0124992,45.3853411],[-74.0114356,45.3856246],[-74.0113678,45.3856427]]}";3;Avenue Charbonneau;2;50;false;true;false;false;false;false;131.0;0;0;0;0;0;false;72552;6133273501;-74.019128;45.383161;72833;2070698436;-74.0113861;45.3855673;1;21;22;9492812;Bus 115 : Direction gare Vaudreuil;"";EXO;115 O;avenue de la Fabrique / École du Papillon-Bleu;rue de la Gare / face au Walmart
44334263;"{\"type\":\"LineString\",\"coordinates\":[[-74.0104732,45.3858744],[-74.0107399,45.3857784],[-74.0111776,45.3856163],[-74.011261,45.3856122],[-74.0113144,45.3856203],[-74.0113678,45.3856427]]}";1;Rue Valois;2;50;false;false;true;false;false;false;78.0;1;0;0;0;0;false;72833;2070698436;-74.0113861;45.3855673;72587;6133273266;-74.012608;45.387031;2;22;23;9492812;Bus 115 : Direction gare Vaudreuil;"";EXO;115 O;avenue de la Fabrique / École du Papillon-Bleu;rue de la Gare / face au Walmart
682126583;"{\"type\":\"LineString\",\"coordinates\":[[-74.0103659,45.3859143],[-74.0104732,45.3858744]]}";2;Rue Valois;2;50;false;false;true;false;false;false;10.0;2;0;0;0;0;false;72833;2070698436;-74.0113861;45.3855673;72587;6133273266;-74.012608;45.387031;0;22;23;9492812;Bus 115 : Direction gare Vaudreuil;"";EXO;115 O;avenue de la Fabrique / École du Papillon-Bleu;rue de la Gare / face au Walmart
387944983;"{\"type\":\"LineString\",\"coordinates\":[[-74.0103659,45.3859143],[-74.0104279,45.385992],[-74.0107292,45.3863772],[-74.0109227,45.3866488],[-74.0109765,45.386714]]}";3;Avenue Saint-Henri;2;50;false;true;true;false;false;false;101.0;1;0;0;0;0;false;72833;2070698436;-74.0113861;45.3855673;72587;6133273266;-74.012608;45.387031;0;22;23;9492812;Bus 115 : Direction gare Vaudreuil;"";EXO;115 O;avenue de la Fabrique / École du Papillon-Bleu;rue de la Gare / face au Walmart
456611437;"{\"type\":\"LineString\",\"coordinates\":[[-74.0109765,45.386714],[-74.0112805,45.3870161],[-74.0115155,45.3872347],[-74.0116172,45.3872748],[-74.0117061,45.3872926],[-74.0118141,45.3872926],[-74.0119411,45.3872748]]}";4;Avenue Saint-Henri;2;50;false;true;true;false;false;false;107.0;0;0;0;0;0;false;72833;2070698436;-74.0113861;45.3855673;72587;6133273266;-74.012608;45.387031;0;22;23;9492812;Bus 115 : Direction gare Vaudreuil;"";EXO;115 O;avenue de la Fabrique / École du Papillon-Bleu;rue de la Gare / face au Walmart
196778892;"{\"type\":\"LineString\",\"coordinates\":[[-74.0119411,45.3872748],[-74.012677,45.3869375]]}";5;Rue Adèle;2;50;false;true;true;false;false;false;69.0;0;0;0;0;0;false;72833;2070698436;-74.0113861;45.3855673;72587;6133273266;-74.012608;45.387031;2;22;23;9492812;Bus 115 : Direction gare Vaudreuil;"";EXO;115 O;avenue de la Fabrique / École du Papillon-Bleu;rue de la Gare / face au Walmart
44334218;"{\"type\":\"LineString\",\"coordinates\":[[-74.0218237,45.3899851],[-74.0220668,45.3899126],[-74.0225563,45.3896884],[-74.0236475,45.3891616]]}";1;Rue Lefebvre;2;50;false;false;true;false;false;false;170.0;0;0;0;0;0;false;72557;6133273496;-74.021753;45.389933;72683;6133272970;-74.023829;45.389428;2;29;30;9492812;Bus 115 : Direction gare Vaudreuil;"";EXO;115 O;avenue de la Fabrique / École du Papillon-Bleu;rue de la Gare / face au Walmart
44334207;"{\"type\":\"LineString\",\"coordinates\":[[-74.0248687,45.3916394],[-74.0241213,45.3912978],[-74.0238064,45.3911949],[-74.0237316,45.3911423],[-74.0237017,45.3910617],[-74.0237103,45.3909773],[-74.0237639,45.3906283],[-74.0239736,45.3895573],[-74.0239373,45.3894589],[-74.0236475,45.3891616]]}";2;Rue du Bicentenaire;2;50;false;false;true;false;false;false;335.0;0;0;0;0;0;false;72557;6133273496;-74.021753;45.389933;72683;6133272970;-74.023829;45.389428;2;29;30;9492812;Bus 115 : Direction gare Vaudreuil;"";EXO;115 O;avenue de la Fabrique / École du Papillon-Bleu;rue de la Gare / face au Walmart
416486437;"{\"type\":\"LineString\",\"coordinates\":[[-74.0324062,45.3963449],[-74.0321652,45.3963387],[-74.0320951,45.3963387],[-74.0319971,45.3963551],[-74.0319037,45.3963945],[-74.0315487,45.396624],[-74.031446,45.3966896],[-74.0313666,45.3967322],[-74.030686,45.3970462],[-74.0301188,45.397288],[-74.0298406,45.3974066],[-74.029793,45.3974269],[-74.0294297,45.3975987],[-74.0290034,45.3978004],[-74.0286026,45.39799],[-74.0285072,45.3980352],[-74.0282068,45.3981773],[-74.027439,45.3985405],[-74.0264398,45.3990318]]}";1;Rue Jeannotte;1;50;false;false;true;false;false;false;280.0;1;0;1;0;0;false;72865;6133272591;-74.028974;45.397663;72906;6133272251;-74.0272549;45.3999788;1;35;36;9492812;Bus 115 : Direction gare Vaudreuil;"";EXO;115 O;avenue de la Fabrique / École du Papillon-Bleu;rue de la Gare / face au Walmart
682131490;"{\"type\":\"LineString\",\"coordinates\":[[-74.0284928,45.4011535],[-74.0281457,45.4008248],[-74.0276984,45.4003466],[-74.0271883,45.3998139],[-74.0267233,45.3993225],[-74.0264398,45.3990318]]}";2;Avenue Saint-Charles;1;50;false;false;true;false;false;false;143.0;1;0;0;0;0;false;72865;6133272591;-74.028974;45.397663;72906;6133272251;-74.0272549;45.3999788;1;35;36;9492812;Bus 115 : Direction gare Vaudreuil;"";EXO;115 O;avenue de la Fabrique / École du Papillon-Bleu;rue de la Gare / face au Walmart
