way_id;shape;index;name;nb_lanes;legal_speed;speed_zone_30;oneway;shares_bike;bike_box;bus_lane;dedicated_bus_lane;length;nb_traffic_signals;nb_crossings;nb_stops;nb_give_ways;nb_lvl_crossings;roundabout;stop_id_orig;node_id_orig;coord_x_orig;coord_y_orig;stop_id_dest;node_id_dest;coord_x_dest;coord_y_dest;nb_neighbouring_ways_bus_stop;ordre_orig;ordre_dest;id_line;line_name;colour;operator;ref;from;to
473786461;"{\"type\":\"LineString\",\"coordinates\":[[-73.5100767,45.7286061],[-73.5092738,45.728305],[-73.5087601,45.7281022],[-73.5085319,45.7279807],[-73.5083789,45.7278639],[-73.5082286,45.7276882],[-73.5081002,45.7275129],[-73.5079927,45.7273011],[-73.5079467,45.7271275],[-73.5079217,45.7270646],[-73.5079012,45.7268404],[-73.5078695,45.7264927],[-73.5078886,45.7258455],[-73.5078976,45.7256029],[-73.5078985,45.725579],[-73.5079006,45.7255023],[-73.5079027,45.725436]]}";1;Montée des Pionniers;1;50;false;true;true;false;false;false;435.0;1;1;0;0;0;false;85087;6127178740;-73.508003;45.726046;85086;6127178741;-73.5080861;45.7236325;1;3;4;9452583;Bus 140 : LACHENAIE;"";EXO;140 E;Terminus Radisson;montée Dumais / des Rives
473786462;"{\"type\":\"LineString\",\"coordinates\":[[-73.5079027,45.725436],[-73.5079056,45.7253636],[-73.5079338,45.724654],[-73.5079554,45.7241112],[-73.5079604,45.7239874]]}";2;Montée des Pionniers;1;50;false;true;true;false;false;false;161.0;1;1;0;0;0;false;85087;6127178740;-73.508003;45.726046;85086;6127178741;-73.5080861;45.7236325;0;3;4;9452583;Bus 140 : LACHENAIE;"";EXO;140 E;Terminus Radisson;montée Dumais / des Rives
681719386;"{\"type\":\"LineString\",\"coordinates\":[[-73.5079604,45.7239874],[-73.508022,45.7224383],[-73.5080276,45.7222977]]}";3;Montée des Pionniers;1;50;false;true;true;false;false;false;94.0;1;0;0;0;0;false;85087;6127178740;-73.508003;45.726046;85086;6127178741;-73.5080861;45.7236325;1;3;4;9452583;Bus 140 : LACHENAIE;"";EXO;140 E;Terminus Radisson;montée Dumais / des Rives
681719386;"{\"type\":\"LineString\",\"coordinates\":[[-73.5079604,45.7239874],[-73.508022,45.7224383],[-73.5080276,45.7222977]]}";1;Montée des Pionniers;1;50;false;true;true;false;false;false;94.0;1;0;0;0;0;false;85086;6127178741;-73.5080861;45.7236325;85112;6129481652;-73.510369;45.722466;1;4;5;9452583;Bus 140 : LACHENAIE;"";EXO;140 E;Terminus Radisson;montée Dumais / des Rives
45178153;"{\"type\":\"LineString\",\"coordinates\":[[-73.5080276,45.7222977],[-73.5081377,45.7222997],[-73.5088839,45.7223135],[-73.5103577,45.7223407],[-73.5115106,45.722362],[-73.513404,45.7223969],[-73.5135759,45.7224001]]}";2;Rue de la Soeur-Marie-Rose;1;50;false;false;true;false;false;false;216.0;1;0;0;0;0;false;85086;6127178741;-73.5080861;45.7236325;85112;6129481652;-73.510369;45.722466;1;4;5;9452583;Bus 140 : LACHENAIE;"";EXO;140 E;Terminus Radisson;montée Dumais / des Rives
45178153;"{\"type\":\"LineString\",\"coordinates\":[[-73.5080276,45.7222977],[-73.5081377,45.7222997],[-73.5088839,45.7223135],[-73.5103577,45.7223407],[-73.5115106,45.722362],[-73.513404,45.7223969],[-73.5135759,45.7224001]]}";1;Rue de la Soeur-Marie-Rose;1;50;false;false;true;false;false;false;216.0;1;0;0;0;0;false;85112;6129481652;-73.510369;45.722466;85245;6129481618;-73.513778;45.720116;1;5;6;9452583;Bus 140 : LACHENAIE;"";EXO;140 E;Terminus Radisson;montée Dumais / des Rives
679842976;"{\"type\":\"LineString\",\"coordinates\":[[-73.5135759,45.7224001],[-73.5136832,45.7207303],[-73.5137046,45.7200337],[-73.5137154,45.7199288],[-73.5141016,45.7193595],[-73.5141552,45.7192322],[-73.5141903,45.7189664],[-73.5141983,45.7182316]]}";2;Rue De la Chesnaye;1;50;false;false;false;false;false;false;235.5;0;0;0;0;0;false;85112;6129481652;-73.510369;45.722466;85245;6129481618;-73.513778;45.720116;1;5;6;9452583;Bus 140 : LACHENAIE;"";EXO;140 E;Terminus Radisson;montée Dumais / des Rives
241034320;"{\"type\":\"LineString\",\"coordinates\":[[-73.5122502,45.7099165],[-73.5122791,45.708671]]}";1;Montée des Pionniers;2;50;false;true;false;false;false;false;139.0;0;0;0;0;0;false;85089;6127178739;-73.5123473;45.7100381;84830;6127178745;-73.503607;45.716615;2;17;18;9452583;Bus 140 : LACHENAIE;"";EXO;140 E;Terminus Radisson;montée Dumais / des Rives
49009250;"{\"type\":\"LineString\",\"coordinates\":[[-73.5122791,45.708671],[-73.5122334,45.7085287],[-73.5121811,45.7084566],[-73.5120878,45.7083817]]}";2;Montée des Pionniers;2;50;false;true;false;false;false;false;37.0;1;0;0;0;0;false;85089;6127178739;-73.5123473;45.7100381;84830;6127178745;-73.503607;45.716615;0;17;18;9452583;Bus 140 : LACHENAIE;"";EXO;140 E;Terminus Radisson;montée Dumais / des Rives
453680864;"{\"type\":\"LineString\",\"coordinates\":[[-73.5120878,45.7083817],[-73.5123163,45.7082382]]}";3;Chemin Saint-Charles;2;50;false;false;false;false;false;false;24.0;1;0;0;0;0;false;85089;6127178739;-73.5123473;45.7100381;84830;6127178745;-73.503607;45.716615;0;17;18;9452583;Bus 140 : LACHENAIE;"";EXO;140 E;Terminus Radisson;montée Dumais / des Rives
49009272;"{\"type\":\"LineString\",\"coordinates\":[[-73.5119652,45.7084594],[-73.5120878,45.7083817]]}";4;Chemin Saint-Charles;2;50;false;false;true;false;false;false;13.0;2;0;0;0;0;false;85089;6127178739;-73.5123473;45.7100381;84830;6127178745;-73.503607;45.716615;0;17;18;9452583;Bus 140 : LACHENAIE;"";EXO;140 E;Terminus Radisson;montée Dumais / des Rives
49009283;"{\"type\":\"LineString\",\"coordinates\":[[-73.5091957,45.7099494],[-73.5103532,45.7092727],[-73.5105182,45.7091594],[-73.5106496,45.7090461],[-73.5108856,45.7088354],[-73.5110962,45.7086087],[-73.51117,45.708546],[-73.5113067,45.7084411],[-73.5113778,45.7084046],[-73.5114717,45.7083774],[-73.5115515,45.7083695],[-73.5116655,45.7083741],[-73.5117507,45.7083887],[-73.5118606,45.7084158],[-73.5119652,45.7084594]]}";5;Chemin Saint-Charles;2;50;false;true;true;false;false;false;292.0;1;0;0;0;0;false;85089;6127178739;-73.5123473;45.7100381;84830;6127178745;-73.503607;45.716615;0;17;18;9452583;Bus 140 : LACHENAIE;"";EXO;140 E;Terminus Radisson;montée Dumais / des Rives
49009282;"{\"type\":\"LineString\",\"coordinates\":[[-73.5078798,45.7106791],[-73.5091957,45.7099494]]}";6;Chemin Saint-Charles;2;50;false;true;true;false;false;false;131.0;0;0;0;0;0;false;85089;6127178739;-73.5123473;45.7100381;84830;6127178745;-73.503607;45.716615;0;17;18;9452583;Bus 140 : LACHENAIE;"";EXO;140 E;Terminus Radisson;montée Dumais / des Rives
163649770;"{\"type\":\"LineString\",\"coordinates\":[[-73.5055194,45.711918],[-73.50597,45.7117255],[-73.5078798,45.7106791]]}";7;Chemin Saint-Charles;2;50;false;true;true;false;false;false;230.0;0;0;0;0;0;false;85089;6127178739;-73.5123473;45.7100381;84830;6127178745;-73.503607;45.716615;0;17;18;9452583;Bus 140 : LACHENAIE;"";EXO;140 E;Terminus Radisson;montée Dumais / des Rives
163649786;"{\"type\":\"LineString\",\"coordinates\":[[-73.5078361,45.7105075],[-73.505901,45.7116509],[-73.5055194,45.711918]]}";8;Chemin Saint-Charles;2;50;false;true;false;false;false;false;239.0;0;0;0;0;0;false;85089;6127178739;-73.5123473;45.7100381;84830;6127178745;-73.503607;45.716615;0;17;18;9452583;Bus 140 : LACHENAIE;"";EXO;140 E;Terminus Radisson;montée Dumais / des Rives
163649774;"{\"type\":\"LineString\",\"coordinates\":[[-73.505166,45.7120855],[-73.5052939,45.7120279],[-73.5055194,45.711918]]}";9;Chemin Saint-Charles;4;50;false;false;true;false;false;false;34.0;1;0;0;0;0;false;85089;6127178739;-73.5123473;45.7100381;84830;6127178745;-73.503607;45.716615;0;17;18;9452583;Bus 140 : LACHENAIE;"";EXO;140 E;Terminus Radisson;montée Dumais / des Rives
163649772;"{\"type\":\"LineString\",\"coordinates\":[[-73.5049666,45.7121523],[-73.505166,45.7120855]]}";10;Chemin Saint-Charles;4;50;false;false;true;false;false;false;18.0;0;0;0;0;0;false;85089;6127178739;-73.5123473;45.7100381;84830;6127178745;-73.503607;45.716615;0;17;18;9452583;Bus 140 : LACHENAIE;"";EXO;140 E;Terminus Radisson;montée Dumais / des Rives
163649768;"{\"type\":\"LineString\",\"coordinates\":[[-73.5041371,45.7124126],[-73.5048155,45.7122039],[-73.5048781,45.7121831],[-73.5049666,45.7121523]]}";11;Chemin Saint-Charles;3;50;false;false;true;false;false;false;71.0;1;1;0;0;0;false;85089;6127178739;-73.5123473;45.7100381;84830;6127178745;-73.503607;45.716615;0;17;18;9452583;Bus 140 : LACHENAIE;"";EXO;140 E;Terminus Radisson;montée Dumais / des Rives
32797988;"{\"type\":\"LineString\",\"coordinates\":[[-73.5049666,45.7121523],[-73.5049627,45.7126054]]}";12;Rue des Migrateurs;1;50;false;true;true;false;false;false;51.0;0;0;0;0;0;false;85089;6127178739;-73.5123473;45.7100381;84830;6127178745;-73.503607;45.716615;0;17;18;9452583;Bus 140 : LACHENAIE;"";EXO;140 E;Terminus Radisson;montée Dumais / des Rives
680965930;"{\"type\":\"LineString\",\"coordinates\":[[-73.5049627,45.7126054],[-73.5049514,45.7139379]]}";13;Rue des Migrateurs;1;50;false;true;true;false;false;false;148.0;1;0;0;0;0;false;85089;6127178739;-73.5123473;45.7100381;84830;6127178745;-73.503607;45.716615;0;17;18;9452583;Bus 140 : LACHENAIE;"";EXO;140 E;Terminus Radisson;montée Dumais / des Rives
163649781;"{\"type\":\"LineString\",\"coordinates\":[[-73.5049514,45.7139379],[-73.5049509,45.7140329],[-73.5049456,45.7147873],[-73.5048546,45.7151342],[-73.5046559,45.7156001],[-73.5045245,45.7157932],[-73.5043071,45.7160112],[-73.5035804,45.7166742]]}";14;Rue des Migrateurs;1;50;false;true;true;false;false;false;334.0;2;0;0;0;0;false;85089;6127178739;-73.5123473;45.7100381;84830;6127178745;-73.503607;45.716615;2;17;18;9452583;Bus 140 : LACHENAIE;"";EXO;140 E;Terminus Radisson;montée Dumais / des Rives
177365959;"{\"type\":\"LineString\",\"coordinates\":[[-73.5035804,45.7166742],[-73.5029292,45.7163377],[-73.5021185,45.7158764],[-73.5017605,45.7156939],[-73.5016605,45.7156665],[-73.5015508,45.7156561],[-73.5014591,45.7156511],[-73.5013462,45.7156597],[-73.4999259,45.7160611]]}";1;Rue du Bruant;1;50;false;false;true;false;false;false;165.5;0;0;0;0;0;false;85013;6129482221;-73.500133;45.715909;84796;6127178746;-73.498242;45.713891;1;19;20;9452583;Bus 140 : LACHENAIE;"";EXO;140 E;Terminus Radisson;montée Dumais / des Rives
177365956;"{\"type\":\"LineString\",\"coordinates\":[[-73.4999259,45.7160611],[-73.4994471,45.7152691]]}";2;Rue du Chène Blanc;1;50;false;false;true;false;false;false;96.0;0;0;0;0;0;false;85013;6129482221;-73.500133;45.715909;84796;6127178746;-73.498242;45.713891;0;19;20;9452583;Bus 140 : LACHENAIE;"";EXO;140 E;Terminus Radisson;montée Dumais / des Rives
679842987;"{\"type\":\"LineString\",\"coordinates\":[[-73.4990409,45.7153836],[-73.4990852,45.7153714],[-73.4994471,45.7152691]]}";3;Rue du Campagnol;1;50;false;false;true;false;false;false;35.0;0;0;0;0;0;false;85013;6129482221;-73.500133;45.715909;84796;6127178746;-73.498242;45.713891;0;19;20;9452583;Bus 140 : LACHENAIE;"";EXO;140 E;Terminus Radisson;montée Dumais / des Rives
177365965;"{\"type\":\"LineString\",\"coordinates\":[[-73.4990409,45.7153836],[-73.4986289,45.714683],[-73.4983143,45.714148],[-73.4981606,45.7138865]]}";4;Allée du Grand-Pic;1;50;false;false;true;false;false;false;90.0;0;0;0;0;0;false;85013;6129482221;-73.500133;45.715909;84796;6127178746;-73.498242;45.713891;1;19;20;9452583;Bus 140 : LACHENAIE;"";EXO;140 E;Terminus Radisson;montée Dumais / des Rives
474826047;"{\"type\":\"LineString\",\"coordinates\":[[-73.4981606,45.7138865],[-73.4981487,45.7137881],[-73.4980872,45.7136585],[-73.4980964,45.7135668]]}";1;Allée du Grand-Pic;1;50;false;true;true;false;false;false;37.0;0;0;0;0;0;false;84796;6127178746;-73.498242;45.713891;85500;6129481075;-73.518756;45.70626;2;20;21;9452583;Bus 140 : LACHENAIE;"";EXO;140 E;Terminus Radisson;montée Dumais / des Rives
679842986;"{\"type\":\"LineString\",\"coordinates\":[[-73.4980964,45.7135668],[-73.498109,45.7135448],[-73.4981147,45.7135214]]}";2;"";1;50;false;false;true;false;false;false;6.0;0;0;0;0;0;true;84796;6127178746;-73.498242;45.713891;85500;6129481075;-73.518756;45.70626;0;20;21;9452583;Bus 140 : LACHENAIE;"";EXO;140 E;Terminus Radisson;montée Dumais / des Rives
474826052;"{\"type\":\"LineString\",\"coordinates\":[[-73.4981147,45.7135214],[-73.4982288,45.7134654],[-73.498431,45.7133924],[-73.4985568,45.7133442]]}";3;Chemin Saint-Charles;1;50;false;true;true;false;false;false;40.0;0;0;0;0;0;false;84796;6127178746;-73.498242;45.713891;85500;6129481075;-73.518756;45.70626;0;20;21;9452583;Bus 140 : LACHENAIE;"";EXO;140 E;Terminus Radisson;montée Dumais / des Rives
241805717;"{\"type\":\"LineString\",\"coordinates\":[[-73.4985568,45.7133442],[-73.4992076,45.7131492],[-73.5000104,45.7129536],[-73.5007783,45.7127945],[-73.5019699,45.7126269],[-73.5025357,45.712569],[-73.503028,45.7125328],[-73.5036063,45.712503],[-73.5038546,45.7124718],[-73.504045,45.7124332],[-73.5041371,45.7124126]]}";4;Chemin Saint-Charles;2;50;false;false;true;false;false;false;449.0;0;0;0;0;0;false;84796;6127178746;-73.498242;45.713891;85500;6129481075;-73.518756;45.70626;0;20;21;9452583;Bus 140 : LACHENAIE;"";EXO;140 E;Terminus Radisson;montée Dumais / des Rives
163649768;"{\"type\":\"LineString\",\"coordinates\":[[-73.5041371,45.7124126],[-73.5048155,45.7122039],[-73.5048781,45.7121831],[-73.5049666,45.7121523]]}";5;Chemin Saint-Charles;3;50;false;false;true;false;false;false;71.0;1;1;0;0;0;false;84796;6127178746;-73.498242;45.713891;85500;6129481075;-73.518756;45.70626;0;20;21;9452583;Bus 140 : LACHENAIE;"";EXO;140 E;Terminus Radisson;montée Dumais / des Rives
163649772;"{\"type\":\"LineString\",\"coordinates\":[[-73.5049666,45.7121523],[-73.505166,45.7120855]]}";6;Chemin Saint-Charles;4;50;false;false;true;false;false;false;18.0;0;0;0;0;0;false;84796;6127178746;-73.498242;45.713891;85500;6129481075;-73.518756;45.70626;0;20;21;9452583;Bus 140 : LACHENAIE;"";EXO;140 E;Terminus Radisson;montée Dumais / des Rives
163649774;"{\"type\":\"LineString\",\"coordinates\":[[-73.505166,45.7120855],[-73.5052939,45.7120279],[-73.5055194,45.711918]]}";7;Chemin Saint-Charles;4;50;false;false;true;false;false;false;34.0;1;0;0;0;0;false;84796;6127178746;-73.498242;45.713891;85500;6129481075;-73.518756;45.70626;0;20;21;9452583;Bus 140 : LACHENAIE;"";EXO;140 E;Terminus Radisson;montée Dumais / des Rives
163649786;"{\"type\":\"LineString\",\"coordinates\":[[-73.5078361,45.7105075],[-73.505901,45.7116509],[-73.5055194,45.711918]]}";8;Chemin Saint-Charles;2;50;false;true;false;false;false;false;239.0;0;0;0;0;0;false;84796;6127178746;-73.498242;45.713891;85500;6129481075;-73.518756;45.70626;0;20;21;9452583;Bus 140 : LACHENAIE;"";EXO;140 E;Terminus Radisson;montée Dumais / des Rives
163649770;"{\"type\":\"LineString\",\"coordinates\":[[-73.5055194,45.711918],[-73.50597,45.7117255],[-73.5078798,45.7106791]]}";9;Chemin Saint-Charles;2;50;false;true;true;false;false;false;230.0;0;0;0;0;0;false;84796;6127178746;-73.498242;45.713891;85500;6129481075;-73.518756;45.70626;0;20;21;9452583;Bus 140 : LACHENAIE;"";EXO;140 E;Terminus Radisson;montée Dumais / des Rives
49009282;"{\"type\":\"LineString\",\"coordinates\":[[-73.5078798,45.7106791],[-73.5091957,45.7099494]]}";10;Chemin Saint-Charles;2;50;false;true;true;false;false;false;131.0;0;0;0;0;0;false;84796;6127178746;-73.498242;45.713891;85500;6129481075;-73.518756;45.70626;0;20;21;9452583;Bus 140 : LACHENAIE;"";EXO;140 E;Terminus Radisson;montée Dumais / des Rives
49009283;"{\"type\":\"LineString\",\"coordinates\":[[-73.5091957,45.7099494],[-73.5103532,45.7092727],[-73.5105182,45.7091594],[-73.5106496,45.7090461],[-73.5108856,45.7088354],[-73.5110962,45.7086087],[-73.51117,45.708546],[-73.5113067,45.7084411],[-73.5113778,45.7084046],[-73.5114717,45.7083774],[-73.5115515,45.7083695],[-73.5116655,45.7083741],[-73.5117507,45.7083887],[-73.5118606,45.7084158],[-73.5119652,45.7084594]]}";11;Chemin Saint-Charles;2;50;false;true;true;false;false;false;292.0;1;0;0;0;0;false;84796;6127178746;-73.498242;45.713891;85500;6129481075;-73.518756;45.70626;0;20;21;9452583;Bus 140 : LACHENAIE;"";EXO;140 E;Terminus Radisson;montée Dumais / des Rives
49009272;"{\"type\":\"LineString\",\"coordinates\":[[-73.5119652,45.7084594],[-73.5120878,45.7083817]]}";12;Chemin Saint-Charles;2;50;false;false;true;false;false;false;13.0;2;0;0;0;0;false;84796;6127178746;-73.498242;45.713891;85500;6129481075;-73.518756;45.70626;0;20;21;9452583;Bus 140 : LACHENAIE;"";EXO;140 E;Terminus Radisson;montée Dumais / des Rives
453680864;"{\"type\":\"LineString\",\"coordinates\":[[-73.5120878,45.7083817],[-73.5123163,45.7082382]]}";13;Chemin Saint-Charles;2;50;false;false;false;false;false;false;24.0;1;0;0;0;0;false;84796;6127178746;-73.498242;45.713891;85500;6129481075;-73.518756;45.70626;0;20;21;9452583;Bus 140 : LACHENAIE;"";EXO;140 E;Terminus Radisson;montée Dumais / des Rives
49009262;"{\"type\":\"LineString\",\"coordinates\":[[-73.5123163,45.7082382],[-73.5131179,45.707817],[-73.5135083,45.707651],[-73.5137199,45.7075771],[-73.5141275,45.7074871],[-73.5157543,45.7070622],[-73.5159176,45.7070195],[-73.5164836,45.706865],[-73.5170592,45.7067078],[-73.5174759,45.7065708],[-73.5184208,45.7062603],[-73.5186642,45.7061803],[-73.5189799,45.7060855]]}";14;Chemin Saint-Charles;2;50;false;false;false;false;false;false;574.0;0;0;1;0;0;false;84796;6127178746;-73.498242;45.713891;85500;6129481075;-73.518756;45.70626;2;20;21;9452583;Bus 140 : LACHENAIE;"";EXO;140 E;Terminus Radisson;montée Dumais / des Rives
49009262;"{\"type\":\"LineString\",\"coordinates\":[[-73.5123163,45.7082382],[-73.5131179,45.707817],[-73.5135083,45.707651],[-73.5137199,45.7075771],[-73.5141275,45.7074871],[-73.5157543,45.7070622],[-73.5159176,45.7070195],[-73.5164836,45.706865],[-73.5170592,45.7067078],[-73.5174759,45.7065708],[-73.5184208,45.7062603],[-73.5186642,45.7061803],[-73.5189799,45.7060855]]}";1;Chemin Saint-Charles;2;50;false;false;false;false;false;false;287.0;0;0;1;0;0;false;85500;6129481075;-73.518756;45.70626;84171;6129484928;-73.522699;45.705843;1;21;22;9452583;Bus 140 : LACHENAIE;"";EXO;140 E;Terminus Radisson;montée Dumais / des Rives
104524663;"{\"type\":\"LineString\",\"coordinates\":[[-73.5189799,45.7060855],[-73.5197783,45.7058376],[-73.5200776,45.7057426],[-73.5203585,45.7056747],[-73.5210005,45.7055873],[-73.5214544,45.7055668],[-73.5215625,45.7055666],[-73.5219463,45.7056068],[-73.5224245,45.7057047],[-73.5225569,45.7057318],[-73.5228828,45.7058041],[-73.5229368,45.7058188],[-73.5230348,45.705841],[-73.5234006,45.7059221],[-73.5237599,45.7059621],[-73.5241388,45.7059672],[-73.5244993,45.7059375],[-73.5249265,45.7058698],[-73.525302,45.7057728],[-73.5257454,45.7056026],[-73.5281231,45.7044988],[-73.5284696,45.7043379],[-73.5293822,45.7039727],[-73.5326245,45.702764],[-73.535246,45.7017665],[-73.5359805,45.7015268],[-73.5362062,45.7014642],[-73.537032,45.7012352],[-73.5387638,45.7009003],[-73.5397551,45.7007207],[-73.5420778,45.7002998],[-73.5431338,45.7001799],[-73.5439662,45.7001515],[-73.5450224,45.7001695],[-73.5459076,45.7002449],[-73.5466808,45.7003516],[-73.5484904,45.7006357],[-73.5502499,45.7009774],[-73.5543762,45.7019033],[-73.5545243,45.7019365],[-73.5547609,45.7020016],[-73.555058,45.7020785],[-73.5552608,45.7021141],[-73.5554427,45.7021163],[-73.5557365,45.7020945],[-73.5566104,45.7019779],[-73.5569018,45.7019365],[-73.5575799,45.7018766],[-73.5592234,45.7018138],[-73.5610303,45.7017447],[-73.5619229,45.7016967],[-73.5627019,45.7017177],[-73.563382,45.7017192],[-73.5635664,45.7017057],[-73.5641717,45.7016368],[-73.5657252,45.701439],[-73.5672616,45.7012292],[-73.5678339,45.7011179],[-73.5684323,45.70098],[-73.5685576,45.7009534],[-73.5690468,45.7008276],[-73.569579,45.7006657],[-73.5699309,45.7005398],[-73.569998,45.7005201],[-73.5701122,45.7004866],[-73.5707897,45.7002786],[-73.5723835,45.6999148],[-73.5724028,45.6999104],[-73.5728921,45.6997665],[-73.572935,45.69976],[-73.5734242,45.6996227],[-73.5748232,45.699227],[-73.5756042,45.6991431],[-73.5763157,45.6990667],[-73.5764969,45.6990472],[-73.5777782,45.6989271],[-73.5778952,45.6989078]]}";2;Chemin Saint-Charles;2;50;false;false;false;false;false;false;2416.5;0;0;1;0;0;false;85500;6129481075;-73.518756;45.70626;84171;6129484928;-73.522699;45.705843;1;21;22;9452583;Bus 140 : LACHENAIE;"";EXO;140 E;Terminus Radisson;montée Dumais / des Rives
104524663;"{\"type\":\"LineString\",\"coordinates\":[[-73.5189799,45.7060855],[-73.5197783,45.7058376],[-73.5200776,45.7057426],[-73.5203585,45.7056747],[-73.5210005,45.7055873],[-73.5214544,45.7055668],[-73.5215625,45.7055666],[-73.5219463,45.7056068],[-73.5224245,45.7057047],[-73.5225569,45.7057318],[-73.5228828,45.7058041],[-73.5229368,45.7058188],[-73.5230348,45.705841],[-73.5234006,45.7059221],[-73.5237599,45.7059621],[-73.5241388,45.7059672],[-73.5244993,45.7059375],[-73.5249265,45.7058698],[-73.525302,45.7057728],[-73.5257454,45.7056026],[-73.5281231,45.7044988],[-73.5284696,45.7043379],[-73.5293822,45.7039727],[-73.5326245,45.702764],[-73.535246,45.7017665],[-73.5359805,45.7015268],[-73.5362062,45.7014642],[-73.537032,45.7012352],[-73.5387638,45.7009003],[-73.5397551,45.7007207],[-73.5420778,45.7002998],[-73.5431338,45.7001799],[-73.5439662,45.7001515],[-73.5450224,45.7001695],[-73.5459076,45.7002449],[-73.5466808,45.7003516],[-73.5484904,45.7006357],[-73.5502499,45.7009774],[-73.5543762,45.7019033],[-73.5545243,45.7019365],[-73.5547609,45.7020016],[-73.555058,45.7020785],[-73.5552608,45.7021141],[-73.5554427,45.7021163],[-73.5557365,45.7020945],[-73.5566104,45.7019779],[-73.5569018,45.7019365],[-73.5575799,45.7018766],[-73.5592234,45.7018138],[-73.5610303,45.7017447],[-73.5619229,45.7016967],[-73.5627019,45.7017177],[-73.563382,45.7017192],[-73.5635664,45.7017057],[-73.5641717,45.7016368],[-73.5657252,45.701439],[-73.5672616,45.7012292],[-73.5678339,45.7011179],[-73.5684323,45.70098],[-73.5685576,45.7009534],[-73.5690468,45.7008276],[-73.569579,45.7006657],[-73.5699309,45.7005398],[-73.569998,45.7005201],[-73.5701122,45.7004866],[-73.5707897,45.7002786],[-73.5723835,45.6999148],[-73.5724028,45.6999104],[-73.5728921,45.6997665],[-73.572935,45.69976],[-73.5734242,45.6996227],[-73.5748232,45.699227],[-73.5756042,45.6991431],[-73.5763157,45.6990667],[-73.5764969,45.6990472],[-73.5777782,45.6989271],[-73.5778952,45.6989078]]}";1;Chemin Saint-Charles;2;50;false;false;false;false;false;false;2416.5;0;0;1;0;0;false;84167;6129484932;-73.577589;45.699032;85495;6129481079;-73.577027;45.706591;1;27;28;9452583;Bus 140 : LACHENAIE;"";EXO;140 E;Terminus Radisson;montée Dumais / des Rives
26143574;"{\"type\":\"LineString\",\"coordinates\":[[-73.5778952,45.6989078],[-73.5777508,45.7006776],[-73.5776506,45.7019044],[-73.5775243,45.7034522],[-73.5774997,45.7037526],[-73.577405,45.7049136],[-73.5773978,45.7050013],[-73.5773348,45.7057726],[-73.5772951,45.7062592],[-73.5772737,45.706521]]}";2;Montée Dumais;1;50;false;false;false;false;false;false;847.0;0;0;0;0;0;false;84167;6129484932;-73.577589;45.699032;85495;6129481079;-73.577027;45.706591;1;27;28;9452583;Bus 140 : LACHENAIE;"";EXO;140 E;Terminus Radisson;montée Dumais / des Rives
