way_id;shape;index;name;nb_lanes;legal_speed;speed_zone_30;oneway;shares_bike;bike_box;bus_lane;dedicated_bus_lane;length;nb_traffic_signals;nb_crossings;nb_stops;nb_give_ways;nb_lvl_crossings;roundabout;stop_id_orig;node_id_orig;coord_x_orig;coord_y_orig;stop_id_dest;node_id_dest;coord_x_dest;coord_y_dest;nb_neighbouring_ways_bus_stop;ordre_orig;ordre_dest;id_line;line_name;colour;operator;ref;from;to
296062479;"{\"type\":\"LineString\",\"coordinates\":[[135.7723653,35.0091057],[135.7724839,35.0091117],[135.7725695,35.0091177],[135.7732178,35.0091656],[135.7734642,35.009204]]}";1;"三条通;京都府道37号二条停車場東山三条線";2;50;false;false;true;false;false;false;103.0;2;1;0;0;0;false;三条京阪前;1854284608;135.7729578;35.00905;河原町三条;1854284678;135.7691271;35.0081322;1;0;1;2335210;バス: 5: 岩倉操車場前 => 京都駅前;"";京都市交通局;5;岩倉操車場前;京都駅前
753466518;"{\"type\":\"LineString\",\"coordinates\":[[135.7722651,35.009098],[135.7723653,35.0091057]]}";2;"三条通;京都府道37号二条停車場東山三条線";2;50;false;false;true;false;false;false;10.0;2;0;0;0;0;false;三条京阪前;1854284608;135.7729578;35.00905;河原町三条;1854284678;135.7691271;35.0081322;0;0;1;2335210;バス: 5: 岩倉操車場前 => 京都駅前;"";京都市交通局;5;岩倉操車場前;京都駅前
27794392;"{\"type\":\"LineString\",\"coordinates\":[[135.7721258,35.0090842],[135.7721535,35.0090873],[135.7722651,35.009098]]}";3;三条通(Sanjo-dori);2;50;false;false;true;false;false;false;14.0;1;1;0;0;0;false;三条京阪前;1854284608;135.7729578;35.00905;河原町三条;1854284678;135.7691271;35.0081322;0;0;1;2335210;バス: 5: 岩倉操車場前 => 京都駅前;"";京都市交通局;5;岩倉操車場前;京都駅前
27794399;"{\"type\":\"LineString\",\"coordinates\":[[135.7713158,35.0090019],[135.771904,35.0090617],[135.7721258,35.0090842]]}";4;三条大橋;2;50;false;false;true;false;false;false;76.0;0;0;0;0;0;false;三条京阪前;1854284608;135.7729578;35.00905;河原町三条;1854284678;135.7691271;35.0081322;0;0;1;2335210;バス: 5: 岩倉操車場前 => 京都駅前;"";京都市交通局;5;岩倉操車場前;京都駅前
361084556;"{\"type\":\"LineString\",\"coordinates\":[[135.7704115,35.0089174],[135.7704786,35.0089237],[135.7706485,35.0089396],[135.7712636,35.008997],[135.7713158,35.0090019]]}";5;三条通(Sanjo-dori);2;50;false;false;true;false;false;false;85.0;1;1;0;0;0;false;三条京阪前;1854284608;135.7729578;35.00905;河原町三条;1854284678;135.7691271;35.0081322;0;0;1;2335210;バス: 5: 岩倉操車場前 => 京都駅前;"";京都市交通局;5;岩倉操車場前;京都駅前
198690090;"{\"type\":\"LineString\",\"coordinates\":[[135.7703281,35.0089096],[135.7703848,35.0089149],[135.7704115,35.0089174]]}";6;"三条通(Sanjo-dori);三条小橋 (Sanjo Kobashi)";2;50;false;false;true;false;false;false;8.0;0;1;0;0;0;false;三条京阪前;1854284608;135.7729578;35.00905;河原町三条;1854284678;135.7691271;35.0081322;0;0;1;2335210;バス: 5: 岩倉操車場前 => 京都駅前;"";京都市交通局;5;岩倉操車場前;京都駅前
27015120;"{\"type\":\"LineString\",\"coordinates\":[[135.7689914,35.0087848],[135.769228,35.0088069],[135.7693083,35.0088144],[135.769331,35.0088165],[135.7693533,35.0088186],[135.7703281,35.0089096]]}";7;三条通;2;50;false;false;true;false;false;false;126.0;1;1;0;0;0;false;三条京阪前;1854284608;135.7729578;35.00905;河原町三条;1854284678;135.7691271;35.0081322;0;0;1;2335210;バス: 5: 岩倉操車場前 => 京都駅前;"";京都市交通局;5;岩倉操車場前;京都駅前
174762071;"{\"type\":\"LineString\",\"coordinates\":[[135.7689914,35.0087848],[135.7689984,35.0086263],[135.7690002,35.0085879],[135.7690013,35.0085659],[135.7690022,35.0085445],[135.7690264,35.0083509],[135.7690373,35.00814],[135.7690449,35.0079943],[135.7690517,35.0078805],[135.7690606,35.0077433],[135.7690668,35.0076542],[135.7690741,35.0075374],[135.7690803,35.0074483],[135.7691096,35.0070966],[135.7691539,35.0064692],[135.7691749,35.0062522],[135.7691829,35.0061692],[135.7692023,35.0058593],[135.7692081,35.0057869],[135.7692516,35.0052505],[135.7692835,35.0047248],[135.7692852,35.004634],[135.7693002,35.0042852],[135.7693087,35.0040551],[135.76932,35.0037796]]}";8;河原町通;4;40;false;false;true;false;false;false;283.5;4;2;0;0;0;false;三条京阪前;1854284608;135.7729578;35.00905;河原町三条;1854284678;135.7691271;35.0081322;1;0;1;2335210;バス: 5: 岩倉操車場前 => 京都駅前;"";京都市交通局;5;岩倉操車場前;京都駅前
174762071;"{\"type\":\"LineString\",\"coordinates\":[[135.7689914,35.0087848],[135.7689984,35.0086263],[135.7690002,35.0085879],[135.7690013,35.0085659],[135.7690022,35.0085445],[135.7690264,35.0083509],[135.7690373,35.00814],[135.7690449,35.0079943],[135.7690517,35.0078805],[135.7690606,35.0077433],[135.7690668,35.0076542],[135.7690741,35.0075374],[135.7690803,35.0074483],[135.7691096,35.0070966],[135.7691539,35.0064692],[135.7691749,35.0062522],[135.7691829,35.0061692],[135.7692023,35.0058593],[135.7692081,35.0057869],[135.7692516,35.0052505],[135.7692835,35.0047248],[135.7692852,35.004634],[135.7693002,35.0042852],[135.7693087,35.0040551],[135.76932,35.0037796]]}";1;河原町通;4;40;false;false;true;false;false;false;283.5;4;2;0;0;0;false;河原町三条;1854284678;135.7691271;35.0081322;四条河原町;1854284663;135.7674408;35.0036419;1;1;2;2335210;バス: 5: 岩倉操車場前 => 京都駅前;"";京都市交通局;5;岩倉操車場前;京都駅前
465069439;"{\"type\":\"LineString\",\"coordinates\":[[135.7668702,35.003748],[135.7671114,35.0037507],[135.7672048,35.0037534],[135.7678236,35.0037716],[135.7688212,35.0037985],[135.7689301,35.0038004],[135.76932,35.0037796]]}";2;"四条通;京都市道186号嵐山祇園線";1;50;false;true;true;false;false;false;114.0;2;2;0;0;0;false;河原町三条;1854284678;135.7691271;35.0081322;四条河原町;1854284663;135.7674408;35.0036419;1;1;2;2335210;バス: 5: 岩倉操車場前 => 京都駅前;"";京都市交通局;5;岩倉操車場前;京都駅前
465069439;"{\"type\":\"LineString\",\"coordinates\":[[135.7668702,35.003748],[135.7671114,35.0037507],[135.7672048,35.0037534],[135.7678236,35.0037716],[135.7688212,35.0037985],[135.7689301,35.0038004],[135.76932,35.0037796]]}";1;"四条通;京都市道186号嵐山祇園線";1;50;false;true;true;false;false;false;114.0;2;2;0;0;0;false;四条河原町;1854284663;135.7674408;35.0036419;四条高倉;1854284671;135.7629391;35.0036046;1;2;3;2335210;バス: 5: 岩倉操車場前 => 京都駅前;"";京都市交通局;5;岩倉操車場前;京都駅前
465069433;"{\"type\":\"LineString\",\"coordinates\":[[135.7663492,35.0037432],[135.7667085,35.0037441],[135.7668702,35.003748]]}";2;"四条通;京都市道186号嵐山祇園線";1;50;false;true;true;false;false;false;49.0;2;1;0;0;0;false;四条河原町;1854284663;135.7674408;35.0036419;四条高倉;1854284671;135.7629391;35.0036046;0;2;3;2335210;バス: 5: 岩倉操車場前 => 京都駅前;"";京都市交通局;5;岩倉操車場前;京都駅前
465069434;"{\"type\":\"LineString\",\"coordinates\":[[135.761096,35.0037018],[135.7611746,35.0037024],[135.7625057,35.0037129],[135.7625924,35.0037136],[135.7626836,35.0037143],[135.7632069,35.0037184],[135.7632718,35.003719],[135.7633538,35.0037196],[135.7639208,35.0037241],[135.7639957,35.0037247],[135.7641027,35.0037255],[135.7648469,35.0037314],[135.7649212,35.003732],[135.7650041,35.0037326],[135.7654867,35.0037364],[135.7655962,35.0037373],[135.7656928,35.003738],[135.7662746,35.0037426],[135.7663492,35.0037432]]}";3;"四条通;京都市道186号嵐山祇園線";1;50;false;true;true;false;false;false;244.5;7;12;0;0;0;false;四条河原町;1854284663;135.7674408;35.0036419;四条高倉;1854284671;135.7629391;35.0036046;1;2;3;2335210;バス: 5: 岩倉操車場前 => 京都駅前;"";京都市交通局;5;岩倉操車場前;京都駅前
465069434;"{\"type\":\"LineString\",\"coordinates\":[[135.761096,35.0037018],[135.7611746,35.0037024],[135.7625057,35.0037129],[135.7625924,35.0037136],[135.7626836,35.0037143],[135.7632069,35.0037184],[135.7632718,35.003719],[135.7633538,35.0037196],[135.7639208,35.0037241],[135.7639957,35.0037247],[135.7641027,35.0037255],[135.7648469,35.0037314],[135.7649212,35.003732],[135.7650041,35.0037326],[135.7654867,35.0037364],[135.7655962,35.0037373],[135.7656928,35.003738],[135.7662746,35.0037426],[135.7663492,35.0037432]]}";1;"四条通;京都市道186号嵐山祇園線";1;50;false;true;true;false;false;false;244.5;7;12;0;0;0;false;四条高倉;1854284671;135.7629391;35.0036046;四条烏丸;2787253079;135.7597575;35.0031558;1;3;4;2335210;バス: 5: 岩倉操車場前 => 京都駅前;"";京都市交通局;5;岩倉操車場前;京都駅前
174762072;"{\"type\":\"LineString\",\"coordinates\":[[135.7597145,35.0037086],[135.7599456,35.0037075],[135.7609878,35.0037023],[135.761096,35.0037018]]}";2;"四条通;京都市道186号嵐山祇園線";1;50;false;true;true;false;false;false;129.0;2;2;0;0;0;false;四条高倉;1854284671;135.7629391;35.0036046;四条烏丸;2787253079;135.7597575;35.0031558;0;3;4;2335210;バス: 5: 岩倉操車場前 => 京都駅前;"";京都市交通局;5;岩倉操車場前;京都駅前
174762085;"{\"type\":\"LineString\",\"coordinates\":[[135.7597145,35.0037086],[135.7597145,35.0036376],[135.7597145,35.0034566],[135.7597117,35.0031337],[135.7597152,35.0029307],[135.7597381,35.0024918],[135.7597621,35.001324],[135.7597428,35.0001799],[135.7597404,34.9996764],[135.7597496,34.9988734],[135.7597529,34.9984236],[135.7597759,34.9976648],[135.7597643,34.9965072],[135.7597648,34.9964849],[135.7597646,34.9963182]]}";3;烏丸通;2;50;false;true;true;false;false;false;417.5;8;2;0;0;0;false;四条高倉;1854284671;135.7629391;35.0036046;四条烏丸;2787253079;135.7597575;35.0031558;1;3;4;2335210;バス: 5: 岩倉操車場前 => 京都駅前;"";京都市交通局;5;岩倉操車場前;京都駅前
174762085;"{\"type\":\"LineString\",\"coordinates\":[[135.7597145,35.0037086],[135.7597145,35.0036376],[135.7597145,35.0034566],[135.7597117,35.0031337],[135.7597152,35.0029307],[135.7597381,35.0024918],[135.7597621,35.001324],[135.7597428,35.0001799],[135.7597404,34.9996764],[135.7597496,34.9988734],[135.7597529,34.9984236],[135.7597759,34.9976648],[135.7597643,34.9965072],[135.7597648,34.9964849],[135.7597646,34.9963182]]}";1;烏丸通;2;50;false;true;true;false;false;false;417.5;8;2;0;0;0;false;烏丸松原;1854284712;135.7598025;34.9990725;烏丸五条;810669908;135.759864;34.995788;1;5;6;2335210;バス: 5: 岩倉操車場前 => 京都駅前;"";京都市交通局;5;岩倉操車場前;京都駅前
795257402;"{\"type\":\"LineString\",\"coordinates\":[[135.7597646,34.9963182],[135.7597811,34.9961077]]}";2;烏丸通;2;50;false;true;true;false;false;false;24.0;2;0;0;0;0;false;烏丸松原;1854284712;135.7598025;34.9990725;烏丸五条;810669908;135.759864;34.995788;0;5;6;2335210;バス: 5: 岩倉操車場前 => 京都駅前;"";京都市交通局;5;岩倉操車場前;京都駅前
46699200;"{\"type\":\"LineString\",\"coordinates\":[[135.7597811,34.9961077],[135.7597858,34.9958948],[135.7597863,34.9958668],[135.7597921,34.9955068],[135.7598011,34.9949508],[135.7598051,34.9944423],[135.7598072,34.9940235],[135.7598081,34.9939371],[135.759808,34.993794],[135.7598117,34.9934218],[135.7598099,34.9932979],[135.7598085,34.9931904],[135.7598199,34.9929595],[135.7598502,34.9928024],[135.7599057,34.9926507],[135.7600503,34.9922847],[135.7601033,34.9921375],[135.7602267,34.9918391],[135.7602473,34.9917577],[135.7602619,34.9916811],[135.7602625,34.9913345],[135.7602572,34.9906296],[135.7602516,34.9904311],[135.760238,34.9903759],[135.7601266,34.9901487],[135.7599149,34.9898162],[135.7598531,34.9897106],[135.7598165,34.989576],[135.7598213,34.9892404]]}";3;烏丸通;2;50;false;true;true;false;false;false;395.5;5;5;0;0;0;false;烏丸松原;1854284712;135.7598025;34.9990725;烏丸五条;810669908;135.759864;34.995788;1;5;6;2335210;バス: 5: 岩倉操車場前 => 京都駅前;"";京都市交通局;5;岩倉操車場前;京都駅前
