way_id;shape;index;name;nb_lanes;legal_speed;speed_zone_30;oneway;shares_bike;bike_box;bus_lane;dedicated_bus_lane;length;nb_traffic_signals;nb_crossings;nb_stops;nb_give_ways;nb_lvl_crossings;roundabout;stop_id_orig;node_id_orig;coord_x_orig;coord_y_orig;stop_id_dest;node_id_dest;coord_x_dest;coord_y_dest;nb_neighbouring_ways_bus_stop;ordre_orig;ordre_dest;id_line;line_name;colour;operator;ref;from;to
194266528;"{\"type\":\"LineString\",\"coordinates\":[[-73.7805376,45.6784427],[-73.7802913,45.6786255],[-73.7801489,45.678678],[-73.7795305,45.6787704],[-73.779336,45.6788583],[-73.778944,45.6791692],[-73.7782933,45.6795673],[-73.7775447,45.6800853],[-73.7772837,45.6802891],[-73.777214,45.6803566],[-73.7771711,45.6804484],[-73.7771416,45.6805327],[-73.7770853,45.6806058],[-73.7770209,45.6806595],[-73.7770021,45.6806751],[-73.7763307,45.6811382]]}";1;Avenue de l'Érablière;2;50;false;false;false;false;false;false;456.0;0;0;0;0;0;false;80039;6119527366;-73.778967;45.67922;82134;6119525224;-73.781525;45.679186;1;1;2;9372988;Bus 12 : GARE ROSEMÈRE;"";EXO;12 S;de L'Érabliere / des Peupliers;Gare Rosemère
674530010;"{\"type\":\"LineString\",\"coordinates\":[[-73.7805376,45.6784427],[-73.7808674,45.6786599],[-73.7816208,45.6791561]]}";2;Montée Gagnon;2;50;false;false;false;false;false;false;58.0;0;0;0;0;0;false;80039;6119527366;-73.778967;45.67922;82134;6119525224;-73.781525;45.679186;1;1;2;9372988;Bus 12 : GARE ROSEMÈRE;"";EXO;12 S;de L'Érabliere / des Peupliers;Gare Rosemère
674530008;"{\"type\":\"LineString\",\"coordinates\":[[-73.7816208,45.6791561],[-73.7816898,45.6792015]]}";1;Montée Gagnon;2;50;false;false;false;false;false;false;8.0;0;0;0;0;0;false;82134;6119525224;-73.781525;45.679186;82425;6119524289;-73.782211;45.679004;2;2;3;9372988;Bus 12 : GARE ROSEMÈRE;"";EXO;12 S;de L'Érabliere / des Peupliers;Gare Rosemère
635238621;"{\"type\":\"LineString\",\"coordinates\":[[-73.7816898,45.6792015],[-73.7822804,45.6787614],[-73.7828011,45.6783734],[-73.7835729,45.6777983],[-73.7838907,45.677542],[-73.7841845,45.6772697],[-73.7844379,45.6770017],[-73.7846502,45.6767032],[-73.7847408,45.6764923],[-73.784813,45.6762548],[-73.7848245,45.6762256],[-73.7848401,45.6760997],[-73.7848476,45.6760065],[-73.7848341,45.6756944],[-73.7847488,45.6752251]]}";2;Boulevard Vignory;1;50;false;true;true;false;false;false;529.0;0;0;0;0;0;false;82134;6119525224;-73.781525;45.679186;82425;6119524289;-73.782211;45.679004;2;2;3;9372988;Bus 12 : GARE ROSEMÈRE;"";EXO;12 S;de L'Érabliere / des Peupliers;Gare Rosemère
635238621;"{\"type\":\"LineString\",\"coordinates\":[[-73.7816898,45.6792015],[-73.7822804,45.6787614],[-73.7828011,45.6783734],[-73.7835729,45.6777983],[-73.7838907,45.677542],[-73.7841845,45.6772697],[-73.7844379,45.6770017],[-73.7846502,45.6767032],[-73.7847408,45.6764923],[-73.784813,45.6762548],[-73.7848245,45.6762256],[-73.7848401,45.6760997],[-73.7848476,45.6760065],[-73.7848341,45.6756944],[-73.7847488,45.6752251]]}";1;Boulevard Vignory;1;50;false;true;true;false;false;false;264.5;0;0;0;0;0;false;82427;6119524287;-73.784952;45.676326;82428;6119524286;-73.784792;45.675013;1;5;6;9372988;Bus 12 : GARE ROSEMÈRE;"";EXO;12 S;de L'Érabliere / des Peupliers;Gare Rosemère
635238618;"{\"type\":\"LineString\",\"coordinates\":[[-73.7847488,45.6752251],[-73.7847271,45.6751447]]}";2;Boulevard Vignory;1;50;false;true;true;false;false;false;10.0;0;0;0;0;0;false;82427;6119524287;-73.784952;45.676326;82428;6119524286;-73.784792;45.675013;0;5;6;9372988;Bus 12 : GARE ROSEMÈRE;"";EXO;12 S;de L'Érabliere / des Peupliers;Gare Rosemère
42353525;"{\"type\":\"LineString\",\"coordinates\":[[-73.7847271,45.6751447],[-73.7846019,45.6745625],[-73.7845499,45.6743208],[-73.7845638,45.6741555],[-73.7845853,45.6740597],[-73.7846089,45.6739546],[-73.7846904,45.6737618],[-73.7847895,45.6735949],[-73.7849823,45.6733488],[-73.7851817,45.6731574],[-73.7856135,45.6728393],[-73.7856868,45.672781]]}";3;Boulevard Vignory;1;50;false;true;true;false;false;false;145.5;0;0;0;0;0;false;82427;6119524287;-73.784952;45.676326;82428;6119524286;-73.784792;45.675013;1;5;6;9372988;Bus 12 : GARE ROSEMÈRE;"";EXO;12 S;de L'Érabliere / des Peupliers;Gare Rosemère
635238618;"{\"type\":\"LineString\",\"coordinates\":[[-73.7847488,45.6752251],[-73.7847271,45.6751447]]}";1;Boulevard Vignory;1;50;false;true;true;false;false;false;10.0;0;0;0;0;0;false;82428;6119524286;-73.784792;45.675013;82429;6119524285;-73.785604;45.672834;2;6;7;9372988;Bus 12 : GARE ROSEMÈRE;"";EXO;12 S;de L'Érabliere / des Peupliers;Gare Rosemère
42353525;"{\"type\":\"LineString\",\"coordinates\":[[-73.7847271,45.6751447],[-73.7846019,45.6745625],[-73.7845499,45.6743208],[-73.7845638,45.6741555],[-73.7845853,45.6740597],[-73.7846089,45.6739546],[-73.7846904,45.6737618],[-73.7847895,45.6735949],[-73.7849823,45.6733488],[-73.7851817,45.6731574],[-73.7856135,45.6728393],[-73.7856868,45.672781]]}";2;Boulevard Vignory;1;50;false;true;true;false;false;false;291.0;0;0;0;0;0;false;82428;6119524286;-73.784792;45.675013;82429;6119524285;-73.785604;45.672834;2;6;7;9372988;Bus 12 : GARE ROSEMÈRE;"";EXO;12 S;de L'Érabliere / des Peupliers;Gare Rosemère
45771162;"{\"type\":\"LineString\",\"coordinates\":[[-73.7856868,45.672781],[-73.7856136,45.6727383],[-73.7846572,45.6720924],[-73.7839306,45.6716379],[-73.7822778,45.6705099],[-73.7818884,45.669975],[-73.7817999,45.6696603],[-73.7817478,45.6692475],[-73.7819664,45.6687066],[-73.7821676,45.6683973],[-73.7826566,45.6679192],[-73.7830962,45.6676588],[-73.7835554,45.6673867],[-73.7836755,45.6673253]]}";1;Boulevard de Reims;1;50;false;true;true;false;false;false;392.0;0;0;0;0;0;false;83143;6119522999;-73.783447;45.66754;82433;6119524181;-73.783406;45.666576;1;10;11;9372988;Bus 12 : GARE ROSEMÈRE;"";EXO;12 S;de L'Érabliere / des Peupliers;Gare Rosemère
674530006;"{\"type\":\"LineString\",\"coordinates\":[[-73.7836755,45.6673253],[-73.7836274,45.6672584],[-73.7834317,45.6669801],[-73.7832125,45.6664784],[-73.7831758,45.666397],[-73.7827274,45.6654493],[-73.7827093,45.665411],[-73.7826921,45.6653751],[-73.7822432,45.6644396]]}";2;Boulevard de Gaulle;1;50;false;true;true;false;false;false;170.0;0;0;0;0;0;false;83143;6119522999;-73.783447;45.66754;82433;6119524181;-73.783406;45.666576;1;10;11;9372988;Bus 12 : GARE ROSEMÈRE;"";EXO;12 S;de L'Érabliere / des Peupliers;Gare Rosemère
674530006;"{\"type\":\"LineString\",\"coordinates\":[[-73.7836755,45.6673253],[-73.7836274,45.6672584],[-73.7834317,45.6669801],[-73.7832125,45.6664784],[-73.7831758,45.666397],[-73.7827274,45.6654493],[-73.7827093,45.665411],[-73.7826921,45.6653751],[-73.7822432,45.6644396]]}";1;Boulevard de Gaulle;1;50;false;true;true;false;false;false;170.0;0;0;0;0;0;false;82434;6119524180;-73.782878;45.665527;82620;6119523905;-73.802921;45.65167;1;12;13;9372988;Bus 12 : GARE ROSEMÈRE;"";EXO;12 S;de L'Érabliere / des Peupliers;Gare Rosemère
23592005;"{\"type\":\"LineString\",\"coordinates\":[[-73.7822432,45.6644396],[-73.7829467,45.664082],[-73.783602,45.663697],[-73.78569,45.662363],[-73.7858758,45.6622237]]}";2;"";1;50;false;true;true;false;false;false;376.0;0;0;0;0;0;false;82434;6119524180;-73.782878;45.665527;82620;6119523905;-73.802921;45.65167;0;12;13;9372988;Bus 12 : GARE ROSEMÈRE;"";EXO;12 S;de L'Érabliere / des Peupliers;Gare Rosemère
674530003;"{\"type\":\"LineString\",\"coordinates\":[[-73.7858758,45.6622237],[-73.7865873,45.6618504],[-73.7904411,45.6599608],[-73.7921062,45.6592709],[-73.7952476,45.6581071],[-73.7962003,45.6576632],[-73.7971788,45.6571533],[-73.7981573,45.6564274],[-73.799007,45.6556475],[-73.7996078,45.6549815],[-73.8001571,45.6542076],[-73.8006386,45.6533871]]}";3;Autoroute de la Rive-Nord;2;100;false;true;false;false;false;false;1549.0;0;0;0;0;0;false;82434;6119524180;-73.782878;45.665527;82620;6119523905;-73.802921;45.65167;0;12;13;9372988;Bus 12 : GARE ROSEMÈRE;"";EXO;12 S;de L'Érabliere / des Peupliers;Gare Rosemère
23592046;"{\"type\":\"LineString\",\"coordinates\":[[-73.8006386,45.6533871],[-73.801025,45.65307],[-73.801142,45.652962],[-73.8013082,45.6528555],[-73.8015114,45.6527779],[-73.801799,45.6527582],[-73.8025116,45.6528224],[-73.802687,45.6528354]]}";4;"";1;50;false;true;true;false;false;false;190.0;0;0;0;0;0;false;82434;6119524180;-73.782878;45.665527;82620;6119523905;-73.802921;45.65167;0;12;13;9372988;Bus 12 : GARE ROSEMÈRE;"";EXO;12 S;de L'Érabliere / des Peupliers;Gare Rosemère
674530001;"{\"type\":\"LineString\",\"coordinates\":[[-73.802687,45.6528354],[-73.8027014,45.6527312]]}";5;Boulevard des Châteaux;2;50;false;true;false;false;false;false;12.0;0;0;0;0;0;false;82434;6119524180;-73.782878;45.665527;82620;6119523905;-73.802921;45.65167;0;12;13;9372988;Bus 12 : GARE ROSEMÈRE;"";EXO;12 S;de L'Érabliere / des Peupliers;Gare Rosemère
627294993;"{\"type\":\"LineString\",\"coordinates\":[[-73.8027014,45.6527312],[-73.8028565,45.651729],[-73.8028802,45.6515471]]}";6;Boulevard des Châteaux;2;50;false;true;false;false;false;false;66.5;0;0;0;0;0;false;82434;6119524180;-73.782878;45.665527;82620;6119523905;-73.802921;45.65167;1;12;13;9372988;Bus 12 : GARE ROSEMÈRE;"";EXO;12 S;de L'Érabliere / des Peupliers;Gare Rosemère
243187045;"{\"type\":\"LineString\",\"coordinates\":[[-73.8028802,45.6515471],[-73.8027928,45.6515417]]}";1;Chemin du Bas-de-Sainte-Thérèse;1;50;false;false;true;false;false;false;7.0;0;0;0;0;0;false;82620;6119523905;-73.802921;45.65167;83154;6119522990;-73.799011;45.65188;2;13;14;9372988;Bus 12 : GARE ROSEMÈRE;"";EXO;12 S;de L'Érabliere / des Peupliers;Gare Rosemère
700589745;"{\"type\":\"LineString\",\"coordinates\":[[-73.8027928,45.6515417],[-73.8027096,45.6515366]]}";2;Chemin du Bas-de-Sainte-Thérèse;1;50;false;false;true;false;false;false;7.0;0;0;0;0;0;false;82620;6119523905;-73.802921;45.65167;83154;6119522990;-73.799011;45.65188;0;13;14;9372988;Bus 12 : GARE ROSEMÈRE;"";EXO;12 S;de L'Érabliere / des Peupliers;Gare Rosemère
455502221;"{\"type\":\"LineString\",\"coordinates\":[[-73.8027096,45.6515366],[-73.8023228,45.6515035]]}";3;Chemin du Bas-de-Sainte-Thérèse;1;50;false;false;true;false;false;false;31.0;0;0;0;0;0;false;82620;6119523905;-73.802921;45.65167;83154;6119522990;-73.799011;45.65188;0;13;14;9372988;Bus 12 : GARE ROSEMÈRE;"";EXO;12 S;de L'Érabliere / des Peupliers;Gare Rosemère
674530019;"{\"type\":\"LineString\",\"coordinates\":[[-73.8023228,45.6515035],[-73.8014942,45.651449],[-73.8007732,45.651425],[-73.800462,45.6514501],[-73.8001382,45.6514996],[-73.7998313,45.6516031],[-73.7995819,45.6517072],[-73.799034,45.6519959]]}";4;Chemin du Bas-de-Sainte-Thérèse;1;50;false;false;true;false;false;false;274.0;0;0;0;0;0;false;82620;6119523905;-73.802921;45.65167;83154;6119522990;-73.799011;45.65188;2;13;14;9372988;Bus 12 : GARE ROSEMÈRE;"";EXO;12 S;de L'Érabliere / des Peupliers;Gare Rosemère
676575967;"{\"type\":\"LineString\",\"coordinates\":[[-73.799034,45.6519959],[-73.7989046,45.652076]]}";1;Chemin du Bas-de-Sainte-Thérèse;1;50;false;false;true;false;false;false;14.0;0;0;0;0;0;false;83154;6119522990;-73.799011;45.65188;80864;6119526273;-73.794451;45.652884;2;14;15;9372988;Bus 12 : GARE ROSEMÈRE;"";EXO;12 S;de L'Érabliere / des Peupliers;Gare Rosemère
42867141;"{\"type\":\"LineString\",\"coordinates\":[[-73.7989046,45.652076],[-73.7984054,45.6523561],[-73.7976742,45.6525736],[-73.7973341,45.6526287],[-73.7968434,45.6527082],[-73.7962633,45.6527754],[-73.7952161,45.6528967],[-73.7943071,45.653002],[-73.7938283,45.6530495],[-73.7927755,45.653154]]}";2;Chemin du Bas-de-Sainte-Thérèse;1;50;false;false;true;false;false;false;499.0;0;0;0;0;0;false;83154;6119522990;-73.799011;45.65188;80864;6119526273;-73.794451;45.652884;2;14;15;9372988;Bus 12 : GARE ROSEMÈRE;"";EXO;12 S;de L'Érabliere / des Peupliers;Gare Rosemère
42867141;"{\"type\":\"LineString\",\"coordinates\":[[-73.7989046,45.652076],[-73.7984054,45.6523561],[-73.7976742,45.6525736],[-73.7973341,45.6526287],[-73.7968434,45.6527082],[-73.7962633,45.6527754],[-73.7952161,45.6528967],[-73.7943071,45.653002],[-73.7938283,45.6530495],[-73.7927755,45.653154]]}";1;Chemin du Bas-de-Sainte-Thérèse;1;50;false;false;true;false;false;false;249.5;0;0;0;0;0;false;80864;6119526273;-73.794451;45.652884;82628;6119523904;-73.790632;45.652413;1;15;16;9372988;Bus 12 : GARE ROSEMÈRE;"";EXO;12 S;de L'Érabliere / des Peupliers;Gare Rosemère
40863581;"{\"type\":\"LineString\",\"coordinates\":[[-73.7927755,45.653154],[-73.7923361,45.6531349],[-73.7921009,45.6531057],[-73.7919498,45.6530869],[-73.7916237,45.6530089],[-73.7912998,45.6528882],[-73.79104,45.6527629],[-73.7907458,45.6525828],[-73.7906248,45.6525087]]}";2;Montée Lesage;1;50;false;false;true;false;false;false;188.0;0;0;0;0;0;false;80864;6119526273;-73.794451;45.652884;82628;6119523904;-73.790632;45.652413;0;15;16;9372988;Bus 12 : GARE ROSEMÈRE;"";EXO;12 S;de L'Érabliere / des Peupliers;Gare Rosemère
310490055;"{\"type\":\"LineString\",\"coordinates\":[[-73.7906248,45.6525087],[-73.7906009,45.6524969],[-73.7895036,45.651779],[-73.7883449,45.651029]]}";3;Montée Lesage;2;50;false;false;true;false;false;false;121.0;0;0;0;0;0;false;80864;6119526273;-73.794451;45.652884;82628;6119523904;-73.790632;45.652413;1;15;16;9372988;Bus 12 : GARE ROSEMÈRE;"";EXO;12 S;de L'Érabliere / des Peupliers;Gare Rosemère
40863581;"{\"type\":\"LineString\",\"coordinates\":[[-73.7927755,45.653154],[-73.7923361,45.6531349],[-73.7921009,45.6531057],[-73.7919498,45.6530869],[-73.7916237,45.6530089],[-73.7912998,45.6528882],[-73.79104,45.6527629],[-73.7907458,45.6525828],[-73.7906248,45.6525087]]}";1;Montée Lesage;1;50;false;false;true;false;false;false;188.0;0;0;0;0;0;false;82628;6119523904;-73.790632;45.652413;82629;6119523903;-73.788464;45.650981;2;16;17;9372988;Bus 12 : GARE ROSEMÈRE;"";EXO;12 S;de L'Érabliere / des Peupliers;Gare Rosemère
310490055;"{\"type\":\"LineString\",\"coordinates\":[[-73.7906248,45.6525087],[-73.7906009,45.6524969],[-73.7895036,45.651779],[-73.7883449,45.651029]]}";2;Montée Lesage;2;50;false;false;true;false;false;false;242.0;0;0;0;0;0;false;82628;6119523904;-73.790632;45.652413;82629;6119523903;-73.788464;45.650981;2;16;17;9372988;Bus 12 : GARE ROSEMÈRE;"";EXO;12 S;de L'Érabliere / des Peupliers;Gare Rosemère
676044665;"{\"type\":\"LineString\",\"coordinates\":[[-73.7883449,45.651029],[-73.7878173,45.650676],[-73.7871433,45.650225],[-73.7869251,45.6500727]]}";1;Montée Lesage;2;50;false;false;true;false;false;false;154.0;0;0;0;0;0;false;82629;6119523903;-73.788464;45.650981;82630;6119523902;-73.78732;45.650037;2;17;18;9372988;Bus 12 : GARE ROSEMÈRE;"";EXO;12 S;de L'Érabliere / des Peupliers;Gare Rosemère
128322002;"{\"type\":\"LineString\",\"coordinates\":[[-73.7869251,45.6500727],[-73.787213,45.649858],[-73.7874288,45.6497481],[-73.78771,45.649693],[-73.788275,45.649675],[-73.7900304,45.6497495],[-73.7914923,45.6497723],[-73.7935797,45.6498828],[-73.7940422,45.6498679],[-73.7944515,45.6498099],[-73.7949504,45.6497013],[-73.7969318,45.6492009],[-73.7976392,45.6490222],[-73.797818,45.648977],[-73.7982148,45.6488434],[-73.798578,45.648677],[-73.799096,45.6483728],[-73.8003707,45.6474226],[-73.8018546,45.6463072],[-73.8025913,45.6457534],[-73.8033363,45.6451934],[-73.803543,45.645038],[-73.8036143,45.6449941],[-73.8040555,45.644722],[-73.804915,45.644192],[-73.8061477,45.643266],[-73.8068012,45.6427675],[-73.807487,45.64226],[-73.8076695,45.6421656],[-73.8085585,45.6417056],[-73.809037,45.641458],[-73.8094123,45.6411886]]}";2;Boulevard Roland-Durand;2;50;false;false;false;false;false;false;2137.0;0;0;0;0;0;false;82629;6119523903;-73.788464;45.650981;82630;6119523902;-73.78732;45.650037;2;17;18;9372988;Bus 12 : GARE ROSEMÈRE;"";EXO;12 S;de L'Érabliere / des Peupliers;Gare Rosemère
128322002;"{\"type\":\"LineString\",\"coordinates\":[[-73.7869251,45.6500727],[-73.787213,45.649858],[-73.7874288,45.6497481],[-73.78771,45.649693],[-73.788275,45.649675],[-73.7900304,45.6497495],[-73.7914923,45.6497723],[-73.7935797,45.6498828],[-73.7940422,45.6498679],[-73.7944515,45.6498099],[-73.7949504,45.6497013],[-73.7969318,45.6492009],[-73.7976392,45.6490222],[-73.797818,45.648977],[-73.7982148,45.6488434],[-73.798578,45.648677],[-73.799096,45.6483728],[-73.8003707,45.6474226],[-73.8018546,45.6463072],[-73.8025913,45.6457534],[-73.8033363,45.6451934],[-73.803543,45.645038],[-73.8036143,45.6449941],[-73.8040555,45.644722],[-73.804915,45.644192],[-73.8061477,45.643266],[-73.8068012,45.6427675],[-73.807487,45.64226],[-73.8076695,45.6421656],[-73.8085585,45.6417056],[-73.809037,45.641458],[-73.8094123,45.6411886]]}";1;Boulevard Roland-Durand;2;50;false;false;false;false;false;false;1068.5;0;0;0;0;0;false;82451;6119524163;-73.808731;45.641679;80877;6119526270;-73.808375;45.640413;1;25;26;9372988;Bus 12 : GARE ROSEMÈRE;"";EXO;12 S;de L'Érabliere / des Peupliers;Gare Rosemère
25228255;"{\"type\":\"LineString\",\"coordinates\":[[-73.8094123,45.6411886],[-73.808234,45.6404023],[-73.8077017,45.6400466],[-73.8058369,45.6388232],[-73.8056028,45.6386984],[-73.8053308,45.638635],[-73.8042675,45.6384284],[-73.8032082,45.6382221]]}";2;Rue de Rosemère;2;50;false;false;false;false;false;false;300.0;0;0;0;0;0;false;82451;6119524163;-73.808731;45.641679;80877;6119526270;-73.808375;45.640413;1;25;26;9372988;Bus 12 : GARE ROSEMÈRE;"";EXO;12 S;de L'Érabliere / des Peupliers;Gare Rosemère
40405128;"{\"type\":\"LineString\",\"coordinates\":[[-73.8032556,45.6368333],[-73.8032176,45.6370299],[-73.8032194,45.6371349],[-73.8032587,45.637268],[-73.8033788,45.6374],[-73.8036191,45.6375801],[-73.803767,45.6377136],[-73.8037271,45.6378263],[-73.8033578,45.6380902],[-73.8032082,45.6382221]]}";1;Rue Lacas;1;50;false;false;true;false;false;false;93.0;0;0;0;0;0;false;80946;6119526209;-73.803324;45.637206;80947;6119526208;-73.804346;45.636942;1;29;30;9372988;Bus 12 : GARE ROSEMÈRE;"";EXO;12 S;de L'Érabliere / des Peupliers;Gare Rosemère
674530022;"{\"type\":\"LineString\",\"coordinates\":[[-73.8032556,45.6368333],[-73.8039336,45.6368933],[-73.8044212,45.6369062],[-73.8054222,45.6368913],[-73.8055816,45.6368453]]}";2;Rue Pacific;1;50;false;false;true;false;false;false;91.5;0;0;0;0;0;false;80946;6119526209;-73.803324;45.637206;80947;6119526208;-73.804346;45.636942;1;29;30;9372988;Bus 12 : GARE ROSEMÈRE;"";EXO;12 S;de L'Érabliere / des Peupliers;Gare Rosemère
674530022;"{\"type\":\"LineString\",\"coordinates\":[[-73.8032556,45.6368333],[-73.8039336,45.6368933],[-73.8044212,45.6369062],[-73.8054222,45.6368913],[-73.8055816,45.6368453]]}";1;Rue Pacific;1;50;false;false;true;false;false;false;91.5;0;0;0;0;0;false;80947;6119526208;-73.804346;45.636942;80862;6119526274;-73.803946;45.635369;1;30;31;9372988;Bus 12 : GARE ROSEMÈRE;"";EXO;12 S;de L'Érabliere / des Peupliers;Gare Rosemère
26296310;"{\"type\":\"LineString\",\"coordinates\":[[-73.8055816,45.6368453],[-73.805692,45.636785],[-73.80566,45.636692],[-73.8050156,45.6362642],[-73.8049588,45.6362264],[-73.80408,45.635643],[-73.803881,45.6354516],[-73.8037924,45.6352726],[-73.803055,45.634753],[-73.8010893,45.6334726],[-73.799092,45.6321818]]}";2;Rue Florian;1;50;false;false;true;false;false;false;370.5;0;0;0;0;0;false;80947;6119526208;-73.804346;45.636942;80862;6119526274;-73.803946;45.635369;1;30;31;9372988;Bus 12 : GARE ROSEMÈRE;"";EXO;12 S;de L'Érabliere / des Peupliers;Gare Rosemère
674529999;"{\"type\":\"LineString\",\"coordinates\":[[-73.799092,45.6321818],[-73.7983734,45.6327578]]}";1;Rue Willowdale;1;50;false;false;true;false;false;false;86.0;0;0;0;0;0;false;83011;6119523065;-73.799194;45.632182;83018;6301958137;-73.795893;45.631072;2;33;34;9372988;Bus 12 : GARE ROSEMÈRE;"";EXO;12 S;de L'Érabliere / des Peupliers;Gare Rosemère
233964215;"{\"type\":\"LineString\",\"coordinates\":[[-73.7983734,45.6327578],[-73.7971848,45.6320136],[-73.7957612,45.631079]]}";2;Rue Corona;1;50;false;false;true;false;false;false;277.0;0;0;0;0;0;false;83011;6119523065;-73.799194;45.632182;83018;6301958137;-73.795893;45.631072;2;33;34;9372988;Bus 12 : GARE ROSEMÈRE;"";EXO;12 S;de L'Érabliere / des Peupliers;Gare Rosemère
672535506;"{\"type\":\"LineString\",\"coordinates\":[[-73.7946234,45.6329899],[-73.7948064,45.6325294],[-73.7949563,45.6322699],[-73.794995,45.632192],[-73.7952568,45.6318],[-73.7953186,45.6317105],[-73.7957612,45.631079]]}";1;Chemin de la Grande-Côte;1;50;false;false;true;false;false;false;231.0;1;0;0;0;0;false;83018;6301958137;-73.795893;45.631072;82617;6119523908;-73.7950279;45.633562;2;34;35;9372988;Bus 12 : GARE ROSEMÈRE;"";EXO;12 S;de L'Érabliere / des Peupliers;Gare Rosemère
40400911;"{\"type\":\"LineString\",\"coordinates\":[[-73.7946234,45.6329899],[-73.7950412,45.6331818]]}";2;"";1;50;false;false;true;false;false;false;39.0;1;0;0;0;0;false;83018;6301958137;-73.795893;45.631072;82617;6119523908;-73.7950279;45.633562;0;34;35;9372988;Bus 12 : GARE ROSEMÈRE;"";EXO;12 S;de L'Érabliere / des Peupliers;Gare Rosemère
672535504;"{\"type\":\"LineString\",\"coordinates\":[[-73.7950412,45.6331818],[-73.7951204,45.6332279],[-73.7952464,45.6333011]]}";3;"";1;50;false;false;true;false;false;false;21.0;0;0;0;0;0;false;83018;6301958137;-73.795893;45.631072;82617;6119523908;-73.7950279;45.633562;0;34;35;9372988;Bus 12 : GARE ROSEMÈRE;"";EXO;12 S;de L'Érabliere / des Peupliers;Gare Rosemère
672535505;"{\"type\":\"LineString\",\"coordinates\":[[-73.7952212,45.6337583],[-73.7952464,45.6333011]]}";4;"";1;50;false;false;true;false;false;false;51.0;0;0;0;0;0;false;83018;6301958137;-73.795893;45.631072;82617;6119523908;-73.7950279;45.633562;1;34;35;9372988;Bus 12 : GARE ROSEMÈRE;"";EXO;12 S;de L'Érabliere / des Peupliers;Gare Rosemère
