way_id;shape;index;name;nb_lanes;legal_speed;speed_zone_30;oneway;shares_bike;bike_box;bus_lane;dedicated_bus_lane;length;nb_traffic_signals;nb_crossings;nb_stops;nb_give_ways;nb_lvl_crossings;roundabout;stop_id_orig;node_id_orig;coord_x_orig;coord_y_orig;stop_id_dest;node_id_dest;coord_x_dest;coord_y_dest;nb_neighbouring_ways_bus_stop;ordre_orig;ordre_dest;id_line;line_name;colour;operator;ref;from;to
676619309;"{\"type\":\"LineString\",\"coordinates\":[[-73.6832245,45.5594238],[-73.6831224,45.5594735]]}";1;"";1;50;false;false;true;false;false;false;10.0;0;0;0;0;0;false;"47901;47060";6269510291;-73.68315;45.559524;41842;6269510244;-73.68204;45.56156;1;0;1;9312750;Bus : 60 O - Direction Chomedey;"";STL;60O;Métro Cartier Quai:6;Alton-Goldbloom / Face à L'hôpital
242652093;"{\"type\":\"LineString\",\"coordinates\":[[-73.6835499,45.5592626],[-73.6832245,45.5594238]]}";2;"";1;50;false;false;true;false;false;false;32.0;0;0;0;0;0;false;"47901;47060";6269510291;-73.68315;45.559524;41842;6269510244;-73.68204;45.56156;0;0;1;9312750;Bus : 60 O - Direction Chomedey;"";STL;60O;Métro Cartier Quai:6;Alton-Goldbloom / Face à L'hôpital
258700561;"{\"type\":\"LineString\",\"coordinates\":[[-73.6835499,45.5592626],[-73.6836785,45.5593759],[-73.683829,45.5595086],[-73.6840984,45.5597503]]}";3;Montée Major;1;50;false;false;true;false;false;false;70.0;1;0;0;0;0;false;"47901;47060";6269510291;-73.68315;45.559524;41842;6269510244;-73.68204;45.56156;0;0;1;9312750;Bus : 60 O - Direction Chomedey;"";STL;60O;Métro Cartier Quai:6;Alton-Goldbloom / Face à L'hôpital
669902218;"{\"type\":\"LineString\",\"coordinates\":[[-73.6840984,45.5597503],[-73.6835265,45.5600532],[-73.6830194,45.5603075]]}";4;Boulevard Cartier Ouest;2;50;false;true;true;false;false;false;105.0;2;0;0;0;0;false;"47901;47060";6269510291;-73.68315;45.559524;41842;6269510244;-73.68204;45.56156;0;0;1;9312750;Bus : 60 O - Direction Chomedey;"";STL;60O;Métro Cartier Quai:6;Alton-Goldbloom / Face à L'hôpital
258700554;"{\"type\":\"LineString\",\"coordinates\":[[-73.6830194,45.5603075],[-73.6827075,45.5604638],[-73.6824175,45.5606264],[-73.6822665,45.5607085]]}";5;Boulevard Cartier Ouest;2;50;false;true;true;false;false;false;74.0;1;0;0;0;0;false;"47901;47060";6269510291;-73.68315;45.559524;41842;6269510244;-73.68204;45.56156;0;0;1;9312750;Bus : 60 O - Direction Chomedey;"";STL;60O;Métro Cartier Quai:6;Alton-Goldbloom / Face à L'hôpital
455492089;"{\"type\":\"LineString\",\"coordinates\":[[-73.6822665,45.5607085],[-73.6819634,45.5608959],[-73.6817505,45.5610049]]}";6;Boulevard Cartier Ouest;2;50;false;true;true;false;false;false;53.0;1;0;0;0;0;false;"47901;47060";6269510291;-73.68315;45.559524;41842;6269510244;-73.68204;45.56156;0;0;1;9312750;Bus : 60 O - Direction Chomedey;"";STL;60O;Métro Cartier Quai:6;Alton-Goldbloom / Face à L'hôpital
292641472;"{\"type\":\"LineString\",\"coordinates\":[[-73.6817505,45.5610049],[-73.6816926,45.5610324],[-73.6815922,45.5610802]]}";7;Boulevard Cartier Ouest;2;50;false;true;true;false;false;false;15.0;2;0;0;0;0;false;"47901;47060";6269510291;-73.68315;45.559524;41842;6269510244;-73.68204;45.56156;0;0;1;9312750;Bus : 60 O - Direction Chomedey;"";STL;60O;Métro Cartier Quai:6;Alton-Goldbloom / Face à L'hôpital
258700557;"{\"type\":\"LineString\",\"coordinates\":[[-73.6815922,45.5610802],[-73.68169,45.5611749],[-73.6819137,45.5613673],[-73.6823486,45.5617409],[-73.6823502,45.5617422],[-73.6826844,45.5619598]]}";8;Boulevard des Laurentides;2;50;false;true;true;false;false;false;130.0;2;0;0;0;0;false;"47901;47060";6269510291;-73.68315;45.559524;41842;6269510244;-73.68204;45.56156;2;0;1;9312750;Bus : 60 O - Direction Chomedey;"";STL;60O;Métro Cartier Quai:6;Alton-Goldbloom / Face à L'hôpital
258700557;"{\"type\":\"LineString\",\"coordinates\":[[-73.6815922,45.5610802],[-73.68169,45.5611749],[-73.6819137,45.5613673],[-73.6823486,45.5617409],[-73.6823502,45.5617422],[-73.6826844,45.5619598]]}";1;Boulevard des Laurentides;2;50;false;true;true;false;false;false;65.0;2;0;0;0;0;false;41842;6269510244;-73.68204;45.56156;41865;6269510199;-73.68424;45.563491;1;1;2;9312750;Bus : 60 O - Direction Chomedey;"";STL;60O;Métro Cartier Quai:6;Alton-Goldbloom / Face à L'hôpital
452227549;"{\"type\":\"LineString\",\"coordinates\":[[-73.6826844,45.5619598],[-73.684522,45.5635813]]}";2;Boulevard des Laurentides;4;50;false;false;true;false;false;false;115.5;0;0;0;0;0;false;41842;6269510244;-73.68204;45.56156;41865;6269510199;-73.68424;45.563491;1;1;2;9312750;Bus : 60 O - Direction Chomedey;"";STL;60O;Métro Cartier Quai:6;Alton-Goldbloom / Face à L'hôpital
452227549;"{\"type\":\"LineString\",\"coordinates\":[[-73.6826844,45.5619598],[-73.684522,45.5635813]]}";1;Boulevard des Laurentides;4;50;false;false;true;false;false;false;115.5;0;0;0;0;0;false;41865;6269510199;-73.68424;45.563491;41887;6269510068;-73.68568;45.564778;1;2;3;9312750;Bus : 60 O - Direction Chomedey;"";STL;60O;Métro Cartier Quai:6;Alton-Goldbloom / Face à L'hôpital
452227544;"{\"type\":\"LineString\",\"coordinates\":[[-73.684522,45.5635813],[-73.6864142,45.565271]]}";2;Boulevard des Laurentides;4;50;false;false;true;false;false;false;119.5;0;0;0;0;0;false;41865;6269510199;-73.68424;45.563491;41887;6269510068;-73.68568;45.564778;1;2;3;9312750;Bus : 60 O - Direction Chomedey;"";STL;60O;Métro Cartier Quai:6;Alton-Goldbloom / Face à L'hôpital
452227544;"{\"type\":\"LineString\",\"coordinates\":[[-73.684522,45.5635813],[-73.6864142,45.565271]]}";1;Boulevard des Laurentides;4;50;false;false;true;false;false;false;119.5;0;0;0;0;0;false;41887;6269510068;-73.68568;45.564778;41796;6269510010;-73.68855;45.567342;1;3;4;9312750;Bus : 60 O - Direction Chomedey;"";STL;60O;Métro Cartier Quai:6;Alton-Goldbloom / Face à L'hôpital
46086120;"{\"type\":\"LineString\",\"coordinates\":[[-73.6864142,45.565271],[-73.68769,45.5664197]]}";2;Boulevard des Laurentides;4;50;false;false;true;false;false;false;162.0;0;0;0;0;0;false;41887;6269510068;-73.68568;45.564778;41796;6269510010;-73.68855;45.567342;0;3;4;9312750;Bus : 60 O - Direction Chomedey;"";STL;60O;Métro Cartier Quai:6;Alton-Goldbloom / Face à L'hôpital
452227546;"{\"type\":\"LineString\",\"coordinates\":[[-73.68769,45.5664197],[-73.6883244,45.5669908]]}";3;Boulevard des Laurentides;4;50;false;false;true;false;false;false;81.0;0;0;0;0;0;false;41887;6269510068;-73.68568;45.564778;41796;6269510010;-73.68855;45.567342;0;3;4;9312750;Bus : 60 O - Direction Chomedey;"";STL;60O;Métro Cartier Quai:6;Alton-Goldbloom / Face à L'hôpital
452227547;"{\"type\":\"LineString\",\"coordinates\":[[-73.6883244,45.5669908],[-73.6901977,45.568689]]}";4;Boulevard des Laurentides;4;50;false;false;true;false;false;false;119.5;0;0;0;0;0;false;41887;6269510068;-73.68568;45.564778;41796;6269510010;-73.68855;45.567342;1;3;4;9312750;Bus : 60 O - Direction Chomedey;"";STL;60O;Métro Cartier Quai:6;Alton-Goldbloom / Face à L'hôpital
452227548;"{\"type\":\"LineString\",\"coordinates\":[[-73.6901977,45.568689],[-73.6920842,45.5703911]]}";1;Boulevard des Laurentides;4;50;false;false;true;false;false;false;120.0;1;0;0;0;0;false;41800;6269509527;-73.69171;45.5702;41802;6269509352;-73.69434;45.572586;1;6;7;9312750;Bus : 60 O - Direction Chomedey;"";STL;60O;Métro Cartier Quai:6;Alton-Goldbloom / Face à L'hôpital
258700555;"{\"type\":\"LineString\",\"coordinates\":[[-73.6920842,45.5703911],[-73.6921816,45.5704852]]}";2;Boulevard des Laurentides;4;50;false;false;true;false;false;false;13.0;2;0;0;0;0;false;41800;6269509527;-73.69171;45.5702;41802;6269509352;-73.69434;45.572586;0;6;7;9312750;Bus : 60 O - Direction Chomedey;"";STL;60O;Métro Cartier Quai:6;Alton-Goldbloom / Face à L'hôpital
452227545;"{\"type\":\"LineString\",\"coordinates\":[[-73.6921816,45.5704852],[-73.6923511,45.5706606]]}";3;Boulevard des Laurentides;4;50;false;false;true;false;false;false;24.0;1;0;0;0;0;false;41800;6269509527;-73.69171;45.5702;41802;6269509352;-73.69434;45.572586;0;6;7;9312750;Bus : 60 O - Direction Chomedey;"";STL;60O;Métro Cartier Quai:6;Alton-Goldbloom / Face à L'hôpital
259643627;"{\"type\":\"LineString\",\"coordinates\":[[-73.6923511,45.5706606],[-73.6935441,45.5717052],[-73.6938656,45.5719868],[-73.6941278,45.5722163],[-73.694173,45.572256],[-73.6948715,45.5728676],[-73.6960798,45.5739255],[-73.6961954,45.5740268],[-73.6975572,45.5752191],[-73.6982178,45.5757768],[-73.6987252,45.5762051],[-73.6991329,45.5765493],[-73.6998396,45.5771459],[-73.699969,45.5772551],[-73.700393,45.577613],[-73.7010736,45.5781875]]}";4;Boulevard des Laurentides;4;50;false;false;true;false;false;false;539.0;2;0;0;0;0;false;41800;6269509527;-73.69171;45.5702;41802;6269509352;-73.69434;45.572586;1;6;7;9312750;Bus : 60 O - Direction Chomedey;"";STL;60O;Métro Cartier Quai:6;Alton-Goldbloom / Face à L'hôpital
259643627;"{\"type\":\"LineString\",\"coordinates\":[[-73.6923511,45.5706606],[-73.6935441,45.5717052],[-73.6938656,45.5719868],[-73.6941278,45.5722163],[-73.694173,45.572256],[-73.6948715,45.5728676],[-73.6960798,45.5739255],[-73.6961954,45.5740268],[-73.6975572,45.5752191],[-73.6982178,45.5757768],[-73.6987252,45.5762051],[-73.6991329,45.5765493],[-73.6998396,45.5771459],[-73.699969,45.5772551],[-73.700393,45.577613],[-73.7010736,45.5781875]]}";1;Boulevard des Laurentides;4;50;false;false;true;false;false;false;539.0;2;0;0;0;0;false;41809;6269508951;-73.70058;45.577941;41811;6269508920;-73.70172;45.57892;1;10;11;9312750;Bus : 60 O - Direction Chomedey;"";STL;60O;Métro Cartier Quai:6;Alton-Goldbloom / Face à L'hôpital
23292050;"{\"type\":\"LineString\",\"coordinates\":[[-73.7010736,45.5781875],[-73.7011251,45.5783016],[-73.7018661,45.5789226],[-73.7029382,45.5798378],[-73.704628,45.5813139],[-73.7048961,45.5815481],[-73.7051422,45.581755],[-73.7052532,45.5818483]]}";2;Boulevard des Laurentides;1;50;false;true;true;false;false;false;261.5;0;1;0;0;0;false;41809;6269508951;-73.70058;45.577941;41811;6269508920;-73.70172;45.57892;1;10;11;9312750;Bus : 60 O - Direction Chomedey;"";STL;60O;Métro Cartier Quai:6;Alton-Goldbloom / Face à L'hôpital
23292050;"{\"type\":\"LineString\",\"coordinates\":[[-73.7010736,45.5781875],[-73.7011251,45.5783016],[-73.7018661,45.5789226],[-73.7029382,45.5798378],[-73.704628,45.5813139],[-73.7048961,45.5815481],[-73.7051422,45.581755],[-73.7052532,45.5818483]]}";1;Boulevard des Laurentides;1;50;false;true;true;false;false;false;261.5;0;1;0;0;0;false;41811;6269508920;-73.70172;45.57892;42855;6269508895;-73.70677;45.58135;1;11;12;9312750;Bus : 60 O - Direction Chomedey;"";STL;60O;Métro Cartier Quai:6;Alton-Goldbloom / Face à L'hôpital
436680546;"{\"type\":\"LineString\",\"coordinates\":[[-73.7052532,45.5818483],[-73.7053864,45.5819745]]}";2;Boulevard des Laurentides;1;50;false;true;true;false;false;false;18.0;0;0;0;0;0;false;41811;6269508920;-73.70172;45.57892;42855;6269508895;-73.70677;45.58135;0;11;12;9312750;Bus : 60 O - Direction Chomedey;"";STL;60O;Métro Cartier Quai:6;Alton-Goldbloom / Face à L'hôpital
436680545;"{\"type\":\"LineString\",\"coordinates\":[[-73.7053864,45.5819745],[-73.7056531,45.5818527]]}";3;Boulevard Saint-Martin Est;3;60;false;true;true;false;false;false;25.0;0;0;0;0;0;false;41811;6269508920;-73.70172;45.57892;42855;6269508895;-73.70677;45.58135;0;11;12;9312750;Bus : 60 O - Direction Chomedey;"";STL;60O;Métro Cartier Quai:6;Alton-Goldbloom / Face à L'hôpital
452204243;"{\"type\":\"LineString\",\"coordinates\":[[-73.7056531,45.5818527],[-73.7061122,45.5816159]]}";4;Boulevard Saint-Martin Ouest;3;60;false;true;false;false;false;false;45.0;0;0;0;0;0;false;41811;6269508920;-73.70172;45.57892;42855;6269508895;-73.70677;45.58135;0;11;12;9312750;Bus : 60 O - Direction Chomedey;"";STL;60O;Métro Cartier Quai:6;Alton-Goldbloom / Face à L'hôpital
37722260;"{\"type\":\"LineString\",\"coordinates\":[[-73.7061122,45.5816159],[-73.7072242,45.5810195],[-73.7074561,45.5809022],[-73.7078829,45.5806161],[-73.7082754,45.5803428],[-73.7089114,45.5798177],[-73.7105724,45.578313],[-73.7115212,45.5774628],[-73.7122636,45.5769466],[-73.7135566,45.575993],[-73.7143274,45.5753744],[-73.7146601,45.5751514],[-73.7154396,45.574629],[-73.7160986,45.574203],[-73.717021,45.5736777],[-73.7180504,45.5731185],[-73.7188649,45.5727628],[-73.7191535,45.5726367],[-73.7199208,45.5723147],[-73.7204022,45.5721202],[-73.7208176,45.5719244]]}";5;Boulevard Saint-Martin Ouest;3;60;false;true;false;false;false;false;792.5;0;0;0;0;0;false;41811;6269508920;-73.70172;45.57892;42855;6269508895;-73.70677;45.58135;1;11;12;9312750;Bus : 60 O - Direction Chomedey;"";STL;60O;Métro Cartier Quai:6;Alton-Goldbloom / Face à L'hôpital
452095401;"{\"type\":\"LineString\",\"coordinates\":[[-73.7208176,45.5719244],[-73.7211776,45.5717275]]}";1;Boulevard Saint-Martin Ouest;3;60;false;true;false;false;false;false;36.0;1;0;0;0;0;false;42843;6269509488;-73.72075;45.572019;42840;6269509505;-73.72272;45.570918;2;17;18;9312750;Bus : 60 O - Direction Chomedey;"";STL;60O;Métro Cartier Quai:6;Alton-Goldbloom / Face à L'hôpital
452095398;"{\"type\":\"LineString\",\"coordinates\":[[-73.7211776,45.5717275],[-73.7213415,45.5716383]]}";2;Boulevard Saint-Martin Ouest;3;60;false;true;false;false;false;false;17.0;2;0;0;0;0;false;42843;6269509488;-73.72075;45.572019;42840;6269509505;-73.72272;45.570918;0;17;18;9312750;Bus : 60 O - Direction Chomedey;"";STL;60O;Métro Cartier Quai:6;Alton-Goldbloom / Face à L'hôpital
452095387;"{\"type\":\"LineString\",\"coordinates\":[[-73.7213415,45.5716383],[-73.7216134,45.5714875]]}";3;Boulevard Saint-Martin Ouest;3;60;false;true;false;false;false;false;28.0;1;0;0;0;0;false;42843;6269509488;-73.72075;45.572019;42840;6269509505;-73.72272;45.570918;0;17;18;9312750;Bus : 60 O - Direction Chomedey;"";STL;60O;Métro Cartier Quai:6;Alton-Goldbloom / Face à L'hôpital
682368060;"{\"type\":\"LineString\",\"coordinates\":[[-73.7216134,45.5714875],[-73.72167,45.5714544],[-73.7229586,45.5706926]]}";4;Boulevard Saint-Martin Ouest;3;60;false;true;false;false;false;false;138.0;1;0;0;0;0;false;42843;6269509488;-73.72075;45.572019;42840;6269509505;-73.72272;45.570918;2;17;18;9312750;Bus : 60 O - Direction Chomedey;"";STL;60O;Métro Cartier Quai:6;Alton-Goldbloom / Face à L'hôpital
682368060;"{\"type\":\"LineString\",\"coordinates\":[[-73.7216134,45.5714875],[-73.72167,45.5714544],[-73.7229586,45.5706926]]}";1;Boulevard Saint-Martin Ouest;3;60;false;true;false;false;false;false;69.0;1;0;0;0;0;false;42840;6269509505;-73.72272;45.570918;42841;6269509536;-73.72451;45.569933;1;18;19;9312750;Bus : 60 O - Direction Chomedey;"";STL;60O;Métro Cartier Quai:6;Alton-Goldbloom / Face à L'hôpital
452095379;"{\"type\":\"LineString\",\"coordinates\":[[-73.7229586,45.5706926],[-73.7230766,45.5706208],[-73.7257606,45.569147],[-73.726537,45.5687158],[-73.727548,45.5681544],[-73.7276645,45.568088],[-73.7289967,45.5673681]]}";2;Boulevard Saint-Martin Ouest;3;60;false;true;false;false;false;false;299.5;5;0;0;0;0;false;42840;6269509505;-73.72272;45.570918;42841;6269509536;-73.72451;45.569933;1;18;19;9312750;Bus : 60 O - Direction Chomedey;"";STL;60O;Métro Cartier Quai:6;Alton-Goldbloom / Face à L'hôpital
452095379;"{\"type\":\"LineString\",\"coordinates\":[[-73.7229586,45.5706926],[-73.7230766,45.5706208],[-73.7257606,45.569147],[-73.726537,45.5687158],[-73.727548,45.5681544],[-73.7276645,45.568088],[-73.7289967,45.5673681]]}";1;Boulevard Saint-Martin Ouest;3;60;false;true;false;false;false;false;299.5;5;0;0;0;0;false;45042;6269509567;-73.72648;45.568859;43248;6269510041;-73.7283;45.566587;1;20;21;9312750;Bus : 60 O - Direction Chomedey;"";STL;60O;Métro Cartier Quai:6;Alton-Goldbloom / Face à L'hôpital
29155809;"{\"type\":\"LineString\",\"coordinates\":[[-73.7289967,45.5673681],[-73.7289175,45.5671978],[-73.7284469,45.5667987],[-73.728225,45.5666105],[-73.7279861,45.5664237],[-73.7277072,45.5662483],[-73.7270212,45.5659856],[-73.7268783,45.5659309],[-73.7266578,45.5658365],[-73.7262542,45.5656048],[-73.7259589,45.5654189],[-73.7258095,45.5652984],[-73.7245744,45.5643014],[-73.7243423,45.5640764]]}";2;Boulevard de l'Avenir;3;50;false;true;false;false;false;false;261.5;2;0;0;0;0;false;45042;6269509567;-73.72648;45.568859;43248;6269510041;-73.7283;45.566587;1;20;21;9312750;Bus : 60 O - Direction Chomedey;"";STL;60O;Métro Cartier Quai:6;Alton-Goldbloom / Face à L'hôpital
29155809;"{\"type\":\"LineString\",\"coordinates\":[[-73.7289967,45.5673681],[-73.7289175,45.5671978],[-73.7284469,45.5667987],[-73.728225,45.5666105],[-73.7279861,45.5664237],[-73.7277072,45.5662483],[-73.7270212,45.5659856],[-73.7268783,45.5659309],[-73.7266578,45.5658365],[-73.7262542,45.5656048],[-73.7259589,45.5654189],[-73.7258095,45.5652984],[-73.7245744,45.5643014],[-73.7243423,45.5640764]]}";1;Boulevard de l'Avenir;3;50;false;true;false;false;false;false;261.5;2;0;0;0;0;false;43900;6269509993;-73.72668;45.56579;43372;6269510186;-73.72424;45.563728;1;22;23;9312750;Bus : 60 O - Direction Chomedey;"";STL;60O;Métro Cartier Quai:6;Alton-Goldbloom / Face à L'hôpital
100514143;"{\"type\":\"LineString\",\"coordinates\":[[-73.7243423,45.5640764],[-73.7242913,45.5640132],[-73.7242637,45.5639693],[-73.7241914,45.563854],[-73.7240704,45.5636036],[-73.723916,45.563128],[-73.7238086,45.562894],[-73.723747,45.5627892],[-73.7232977,45.5623084],[-73.7228972,45.5619121]]}";2;Boulevard de l'Avenir;3;50;false;true;false;false;false;false;134.5;1;0;0;0;0;false;43900;6269509993;-73.72668;45.56579;43372;6269510186;-73.72424;45.563728;1;22;23;9312750;Bus : 60 O - Direction Chomedey;"";STL;60O;Métro Cartier Quai:6;Alton-Goldbloom / Face à L'hôpital
100514143;"{\"type\":\"LineString\",\"coordinates\":[[-73.7243423,45.5640764],[-73.7242913,45.5640132],[-73.7242637,45.5639693],[-73.7241914,45.563854],[-73.7240704,45.5636036],[-73.723916,45.563128],[-73.7238086,45.562894],[-73.723747,45.5627892],[-73.7232977,45.5623084],[-73.7228972,45.5619121]]}";1;Boulevard de l'Avenir;3;50;false;true;false;false;false;false;134.5;1;0;0;0;0;false;43372;6269510186;-73.72424;45.563728;43343;6269510224;-73.72369;45.561728;1;23;24;9312750;Bus : 60 O - Direction Chomedey;"";STL;60O;Métro Cartier Quai:6;Alton-Goldbloom / Face à L'hôpital
29155370;"{\"type\":\"LineString\",\"coordinates\":[[-73.7228972,45.5619121],[-73.7235527,45.5617088],[-73.7240778,45.5615486],[-73.7242731,45.561489],[-73.7254238,45.5611379],[-73.7256335,45.561069]]}";2;Boulevard du Souvenir;3;50;false;true;true;false;false;false;117.0;1;0;0;0;0;false;43372;6269510186;-73.72424;45.563728;43343;6269510224;-73.72369;45.561728;1;23;24;9312750;Bus : 60 O - Direction Chomedey;"";STL;60O;Métro Cartier Quai:6;Alton-Goldbloom / Face à L'hôpital
29155370;"{\"type\":\"LineString\",\"coordinates\":[[-73.7228972,45.5619121],[-73.7235527,45.5617088],[-73.7240778,45.5615486],[-73.7242731,45.561489],[-73.7254238,45.5611379],[-73.7256335,45.561069]]}";1;Boulevard du Souvenir;3;50;false;true;true;false;false;false;117.0;1;0;0;0;0;false;43343;6269510224;-73.72369;45.561728;43146;6269510272;-73.72619;45.560951;1;24;25;9312750;Bus : 60 O - Direction Chomedey;"";STL;60O;Métro Cartier Quai:6;Alton-Goldbloom / Face à L'hôpital
475237533;"{\"type\":\"LineString\",\"coordinates\":[[-73.7256335,45.561069],[-73.7270604,45.5605708]]}";2;Boulevard du Souvenir;3;50;false;true;true;false;false;false;62.5;1;0;0;0;0;false;43343;6269510224;-73.72369;45.561728;43146;6269510272;-73.72619;45.560951;1;24;25;9312750;Bus : 60 O - Direction Chomedey;"";STL;60O;Métro Cartier Quai:6;Alton-Goldbloom / Face à L'hôpital
475237533;"{\"type\":\"LineString\",\"coordinates\":[[-73.7256335,45.561069],[-73.7270604,45.5605708]]}";1;Boulevard du Souvenir;3;50;false;true;true;false;false;false;62.5;1;0;0;0;0;false;43146;6269510272;-73.72619;45.560951;41957;6269510226;-73.72908;45.562299;1;25;26;9312750;Bus : 60 O - Direction Chomedey;"";STL;60O;Métro Cartier Quai:6;Alton-Goldbloom / Face à L'hôpital
673264011;"{\"type\":\"LineString\",\"coordinates\":[[-73.7270604,45.5605708],[-73.7271245,45.5605454]]}";2;Boulevard du Souvenir;3;50;false;true;true;false;false;false;6.0;1;0;0;0;0;false;43146;6269510272;-73.72619;45.560951;41957;6269510226;-73.72908;45.562299;0;25;26;9312750;Bus : 60 O - Direction Chomedey;"";STL;60O;Métro Cartier Quai:6;Alton-Goldbloom / Face à L'hôpital
672433263;"{\"type\":\"LineString\",\"coordinates\":[[-73.7271245,45.5605454],[-73.7273615,45.5607671],[-73.7274278,45.5608101],[-73.7275097,45.560869],[-73.7288457,45.5620823],[-73.7311728,45.5641376],[-73.7324492,45.5653114],[-73.7325997,45.5654018]]}";3;Voie réservée - boulevard Le Corbusier;1;50;false;true;true;false;true;false;344.5;0;0;0;0;0;false;43146;6269510272;-73.72619;45.560951;41957;6269510226;-73.72908;45.562299;1;25;26;9312750;Bus : 60 O - Direction Chomedey;"";STL;60O;Métro Cartier Quai:6;Alton-Goldbloom / Face à L'hôpital
672433263;"{\"type\":\"LineString\",\"coordinates\":[[-73.7271245,45.5605454],[-73.7273615,45.5607671],[-73.7274278,45.5608101],[-73.7275097,45.560869],[-73.7288457,45.5620823],[-73.7311728,45.5641376],[-73.7324492,45.5653114],[-73.7325997,45.5654018]]}";1;Voie réservée - boulevard Le Corbusier;1;50;false;true;true;false;true;false;344.5;0;0;0;0;0;false;41952;6269510189;-73.73143;45.564352;41942;6269509996;-73.73452;45.567098;1;27;28;9312750;Bus : 60 O - Direction Chomedey;"";STL;60O;Métro Cartier Quai:6;Alton-Goldbloom / Face à L'hôpital
679314341;"{\"type\":\"LineString\",\"coordinates\":[[-73.7325997,45.5654018],[-73.7338863,45.5665063],[-73.7343941,45.5669377],[-73.7348605,45.5673423],[-73.7350629,45.5675728]]}";2;Voie réservée - boulevard Le Corbusier;1;50;false;true;true;false;true;false;154.5;0;0;0;0;0;false;41952;6269510189;-73.73143;45.564352;41942;6269509996;-73.73452;45.567098;1;27;28;9312750;Bus : 60 O - Direction Chomedey;"";STL;60O;Métro Cartier Quai:6;Alton-Goldbloom / Face à L'hôpital
679314341;"{\"type\":\"LineString\",\"coordinates\":[[-73.7325997,45.5654018],[-73.7338863,45.5665063],[-73.7343941,45.5669377],[-73.7348605,45.5673423],[-73.7350629,45.5675728]]}";1;Voie réservée - boulevard Le Corbusier;1;50;false;true;true;false;true;false;154.5;0;0;0;0;0;false;41942;6269509996;-73.73452;45.567098;41965;6269509534;-73.73817;45.570131;1;28;29;9312750;Bus : 60 O - Direction Chomedey;"";STL;60O;Métro Cartier Quai:6;Alton-Goldbloom / Face à L'hôpital
45755903;"{\"type\":\"LineString\",\"coordinates\":[[-73.7350629,45.5675728],[-73.7354327,45.567807],[-73.7359482,45.5681334],[-73.7362641,45.5683683],[-73.7364145,45.5684806],[-73.7383828,45.5702326]]}";2;Boulevard Le Corbusier;2;60;false;true;false;false;false;false;197.0;1;0;0;0;0;false;41942;6269509996;-73.73452;45.567098;41965;6269509534;-73.73817;45.570131;1;28;29;9312750;Bus : 60 O - Direction Chomedey;"";STL;60O;Métro Cartier Quai:6;Alton-Goldbloom / Face à L'hôpital
45755903;"{\"type\":\"LineString\",\"coordinates\":[[-73.7350629,45.5675728],[-73.7354327,45.567807],[-73.7359482,45.5681334],[-73.7362641,45.5683683],[-73.7364145,45.5684806],[-73.7383828,45.5702326]]}";1;Boulevard Le Corbusier;2;60;false;true;false;false;false;false;197.0;1;0;0;0;0;false;41965;6269509534;-73.73817;45.570131;"41018;41932";6269509381;-73.74198;45.572102;1;29;30;9312750;Bus : 60 O - Direction Chomedey;"";STL;60O;Métro Cartier Quai:6;Alton-Goldbloom / Face à L'hôpital
45755730;"{\"type\":\"LineString\",\"coordinates\":[[-73.7383828,45.5702326],[-73.7391621,45.5709218],[-73.7401317,45.5717803],[-73.740957,45.5725111]]}";2;Boulevard Le Corbusier;2;60;false;true;false;false;false;false;324.0;2;0;0;0;0;false;41965;6269509534;-73.73817;45.570131;"41018;41932";6269509381;-73.74198;45.572102;0;29;30;9312750;Bus : 60 O - Direction Chomedey;"";STL;60O;Métro Cartier Quai:6;Alton-Goldbloom / Face à L'hôpital
678350784;"{\"type\":\"LineString\",\"coordinates\":[[-73.740957,45.5725111],[-73.7410251,45.5725718]]}";3;Boulevard Le Corbusier;2;60;false;true;false;false;false;false;9.0;2;0;0;0;0;false;41965;6269509534;-73.73817;45.570131;"41018;41932";6269509381;-73.74198;45.572102;0;29;30;9312750;Bus : 60 O - Direction Chomedey;"";STL;60O;Métro Cartier Quai:6;Alton-Goldbloom / Face à L'hôpital
455474953;"{\"type\":\"LineString\",\"coordinates\":[[-73.7410251,45.5725718],[-73.7411952,45.572484]]}";4;Boulevard Le Carrefour;1;50;false;true;false;false;false;false;17.0;2;0;0;0;0;false;41965;6269509534;-73.73817;45.570131;"41018;41932";6269509381;-73.74198;45.572102;0;29;30;9312750;Bus : 60 O - Direction Chomedey;"";STL;60O;Métro Cartier Quai:6;Alton-Goldbloom / Face à L'hôpital
455474952;"{\"type\":\"LineString\",\"coordinates\":[[-73.7411952,45.572484],[-73.7413653,45.5723882]]}";5;Boulevard Le Carrefour;1;50;false;true;false;false;false;false;18.0;1;0;0;0;0;false;41965;6269509534;-73.73817;45.570131;"41018;41932";6269509381;-73.74198;45.572102;0;29;30;9312750;Bus : 60 O - Direction Chomedey;"";STL;60O;Métro Cartier Quai:6;Alton-Goldbloom / Face à L'hôpital
165086150;"{\"type\":\"LineString\",\"coordinates\":[[-73.7413653,45.5723882],[-73.7414679,45.5723304],[-73.7430271,45.5714652],[-73.7435379,45.5712004],[-73.7438052,45.5710788],[-73.7441104,45.5709491],[-73.7444843,45.5708292]]}";6;Boulevard Le Carrefour;1;50;false;true;false;false;false;false;150.0;0;0;0;0;0;false;41965;6269509534;-73.73817;45.570131;"41018;41932";6269509381;-73.74198;45.572102;1;29;30;9312750;Bus : 60 O - Direction Chomedey;"";STL;60O;Métro Cartier Quai:6;Alton-Goldbloom / Face à L'hôpital
165086150;"{\"type\":\"LineString\",\"coordinates\":[[-73.7413653,45.5723882],[-73.7414679,45.5723304],[-73.7430271,45.5714652],[-73.7435379,45.5712004],[-73.7438052,45.5710788],[-73.7441104,45.5709491],[-73.7444843,45.5708292]]}";1;Boulevard Le Carrefour;1;50;false;true;false;false;false;false;150.0;0;0;0;0;0;false;"41018;41932";6269509381;-73.74198;45.572102;"44912;44066;44060;44166;44142";6269509578;-73.74861;45.568569;1;30;31;9312750;Bus : 60 O - Direction Chomedey;"";STL;60O;Métro Cartier Quai:6;Alton-Goldbloom / Face à L'hôpital
38192513;"{\"type\":\"LineString\",\"coordinates\":[[-73.7444843,45.5708292],[-73.7461679,45.5701988]]}";2;Boulevard Le Carrefour;1;50;false;true;false;false;false;false;149.0;0;0;0;0;0;false;"41018;41932";6269509381;-73.74198;45.572102;"44912;44066;44060;44166;44142";6269509578;-73.74861;45.568569;0;30;31;9312750;Bus : 60 O - Direction Chomedey;"";STL;60O;Métro Cartier Quai:6;Alton-Goldbloom / Face à L'hôpital
678350783;"{\"type\":\"LineString\",\"coordinates\":[[-73.7461679,45.5701988],[-73.7474876,45.5696846],[-73.7480831,45.5694338]]}";3;Boulevard Le Carrefour;3;50;false;true;false;false;false;false;172.0;1;0;0;0;0;false;"41018;41932";6269509381;-73.74198;45.572102;"44912;44066;44060;44166;44142";6269509578;-73.74861;45.568569;0;30;31;9312750;Bus : 60 O - Direction Chomedey;"";STL;60O;Métro Cartier Quai:6;Alton-Goldbloom / Face à L'hôpital
678350782;"{\"type\":\"LineString\",\"coordinates\":[[-73.7480831,45.5694338],[-73.7482256,45.5693738]]}";4;Boulevard Le Carrefour;3;50;false;true;false;false;false;false;13.0;2;0;0;0;0;false;"41018;41932";6269509381;-73.74198;45.572102;"44912;44066;44060;44166;44142";6269509578;-73.74861;45.568569;0;30;31;9312750;Bus : 60 O - Direction Chomedey;"";STL;60O;Métro Cartier Quai:6;Alton-Goldbloom / Face à L'hôpital
38192514;"{\"type\":\"LineString\",\"coordinates\":[[-73.7482256,45.5693738],[-73.7482597,45.5693595],[-73.7483029,45.5693413],[-73.7483478,45.5693161],[-73.7488219,45.5690501],[-73.7495894,45.5685459],[-73.749708,45.568468]]}";5;Boulevard Le Carrefour;3;50;false;true;true;false;false;false;154.0;2;3;0;0;0;false;"41018;41932";6269509381;-73.74198;45.572102;"44912;44066;44060;44166;44142";6269509578;-73.74861;45.568569;0;30;31;9312750;Bus : 60 O - Direction Chomedey;"";STL;60O;Métro Cartier Quai:6;Alton-Goldbloom / Face à L'hôpital
684308380;"{\"type\":\"LineString\",\"coordinates\":[[-73.749708,45.568468],[-73.749603,45.5683977]]}";6;"";1;50;false;false;true;false;false;false;12.0;2;0;0;0;0;false;"41018;41932";6269509381;-73.74198;45.572102;"44912;44066;44060;44166;44142";6269509578;-73.74861;45.568569;0;30;31;9312750;Bus : 60 O - Direction Chomedey;"";STL;60O;Métro Cartier Quai:6;Alton-Goldbloom / Face à L'hôpital
292376885;"{\"type\":\"LineString\",\"coordinates\":[[-73.749603,45.5683977],[-73.7495387,45.5683559],[-73.7489277,45.5679595],[-73.7487689,45.5678968],[-73.7485697,45.5679009],[-73.7483699,45.5680109]]}";7;"";1;50;false;false;true;false;false;false;122.0;1;1;0;0;0;false;"41018;41932";6269509381;-73.74198;45.572102;"44912;44066;44060;44166;44142";6269509578;-73.74861;45.568569;0;30;31;9312750;Bus : 60 O - Direction Chomedey;"";STL;60O;Métro Cartier Quai:6;Alton-Goldbloom / Face à L'hôpital
694409797;"{\"type\":\"LineString\",\"coordinates\":[[-73.7490096,45.5684673],[-73.7490126,45.5684462],[-73.7489983,45.5683885],[-73.7489373,45.5683504],[-73.7483699,45.5680109]]}";8;"";1;50;false;true;true;false;false;false;74.0;0;0;0;0;0;false;"41018;41932";6269509381;-73.74198;45.572102;"44912;44066;44060;44166;44142";6269509578;-73.74861;45.568569;0;30;31;9312750;Bus : 60 O - Direction Chomedey;"";STL;60O;Métro Cartier Quai:6;Alton-Goldbloom / Face à L'hôpital
292376887;"{\"type\":\"LineString\",\"coordinates\":[[-73.748733,45.5685229],[-73.7487585,45.5685426],[-73.7488697,45.5685562],[-73.7489565,45.5685213],[-73.7489952,45.5684881],[-73.7490096,45.5684673]]}";9;"";1;50;false;true;true;false;false;false;27.0;0;0;0;0;0;false;"41018;41932";6269509381;-73.74198;45.572102;"44912;44066;44060;44166;44142";6269509578;-73.74861;45.568569;0;30;31;9312750;Bus : 60 O - Direction Chomedey;"";STL;60O;Métro Cartier Quai:6;Alton-Goldbloom / Face à L'hôpital
694203856;"{\"type\":\"LineString\",\"coordinates\":[[-73.7485476,45.5683807],[-73.748733,45.5685229]]}";10;"";1;50;false;true;true;false;false;false;11.0;0;0;0;0;0;false;"41018;41932";6269509381;-73.74198;45.572102;"44912;44066;44060;44166;44142";6269509578;-73.74861;45.568569;1;30;31;9312750;Bus : 60 O - Direction Chomedey;"";STL;60O;Métro Cartier Quai:6;Alton-Goldbloom / Face à L'hôpital
292376887;"{\"type\":\"LineString\",\"coordinates\":[[-73.748733,45.5685229],[-73.7487585,45.5685426],[-73.7488697,45.5685562],[-73.7489565,45.5685213],[-73.7489952,45.5684881],[-73.7490096,45.5684673]]}";1;"";1;50;false;true;true;false;false;false;27.0;0;0;0;0;0;false;"44912;44066;44060;44166;44142";6269509578;-73.74861;45.568569;43295;6269510013;-73.75101;45.567611;2;31;32;9312750;Bus : 60 O - Direction Chomedey;"";STL;60O;Métro Cartier Quai:6;Alton-Goldbloom / Face à L'hôpital
694203856;"{\"type\":\"LineString\",\"coordinates\":[[-73.7485476,45.5683807],[-73.748733,45.5685229]]}";2;"";1;50;false;true;true;false;false;false;22.0;0;0;0;0;0;false;"44912;44066;44060;44166;44142";6269509578;-73.74861;45.568569;43295;6269510013;-73.75101;45.567611;0;31;32;9312750;Bus : 60 O - Direction Chomedey;"";STL;60O;Métro Cartier Quai:6;Alton-Goldbloom / Face à L'hôpital
684761987;"{\"type\":\"LineString\",\"coordinates\":[[-73.7483782,45.5682363],[-73.7485476,45.5683807]]}";3;"";1;50;false;true;true;false;false;false;21.0;0;0;0;0;0;false;"44912;44066;44060;44166;44142";6269509578;-73.74861;45.568569;43295;6269510013;-73.75101;45.567611;0;31;32;9312750;Bus : 60 O - Direction Chomedey;"";STL;60O;Métro Cartier Quai:6;Alton-Goldbloom / Face à L'hôpital
694203857;"{\"type\":\"LineString\",\"coordinates\":[[-73.7482206,45.5680963],[-73.7483782,45.5682363]]}";4;"";1;50;false;true;true;false;false;false;20.0;0;0;0;0;0;false;"44912;44066;44060;44166;44142";6269509578;-73.74861;45.568569;43295;6269510013;-73.75101;45.567611;0;31;32;9312750;Bus : 60 O - Direction Chomedey;"";STL;60O;Métro Cartier Quai:6;Alton-Goldbloom / Face à L'hôpital
684308399;"{\"type\":\"LineString\",\"coordinates\":[[-73.7483699,45.5680109],[-73.7482206,45.5680963]]}";5;"";1;50;false;false;true;false;false;false;16.0;0;0;0;0;0;false;"44912;44066;44060;44166;44142";6269509578;-73.74861;45.568569;43295;6269510013;-73.75101;45.567611;0;31;32;9312750;Bus : 60 O - Direction Chomedey;"";STL;60O;Métro Cartier Quai:6;Alton-Goldbloom / Face à L'hôpital
292376885;"{\"type\":\"LineString\",\"coordinates\":[[-73.749603,45.5683977],[-73.7495387,45.5683559],[-73.7489277,45.5679595],[-73.7487689,45.5678968],[-73.7485697,45.5679009],[-73.7483699,45.5680109]]}";6;"";1;50;false;false;true;false;false;false;122.0;1;1;0;0;0;false;"44912;44066;44060;44166;44142";6269509578;-73.74861;45.568569;43295;6269510013;-73.75101;45.567611;0;31;32;9312750;Bus : 60 O - Direction Chomedey;"";STL;60O;Métro Cartier Quai:6;Alton-Goldbloom / Face à L'hôpital
684308380;"{\"type\":\"LineString\",\"coordinates\":[[-73.749708,45.568468],[-73.749603,45.5683977]]}";7;"";1;50;false;false;true;false;false;false;12.0;2;0;0;0;0;false;"44912;44066;44060;44166;44142";6269509578;-73.74861;45.568569;43295;6269510013;-73.75101;45.567611;0;31;32;9312750;Bus : 60 O - Direction Chomedey;"";STL;60O;Métro Cartier Quai:6;Alton-Goldbloom / Face à L'hôpital
653195069;"{\"type\":\"LineString\",\"coordinates\":[[-73.749708,45.568468],[-73.7498081,45.5684023],[-73.7513352,45.5673155],[-73.7520954,45.566766],[-73.7521982,45.5666917],[-73.7532667,45.565918]]}";8;Boulevard Le Carrefour;3;50;false;true;true;false;false;false;397.0;3;1;0;0;0;false;"44912;44066;44060;44166;44142";6269509578;-73.74861;45.568569;43295;6269510013;-73.75101;45.567611;2;31;32;9312750;Bus : 60 O - Direction Chomedey;"";STL;60O;Métro Cartier Quai:6;Alton-Goldbloom / Face à L'hôpital
653195069;"{\"type\":\"LineString\",\"coordinates\":[[-73.749708,45.568468],[-73.7498081,45.5684023],[-73.7513352,45.5673155],[-73.7520954,45.566766],[-73.7521982,45.5666917],[-73.7532667,45.565918]]}";1;Boulevard Le Carrefour;3;50;false;true;true;false;false;false;198.5;3;1;0;0;0;false;43295;6269510013;-73.75101;45.567611;41505;6269510072;-73.75327;45.56508;1;32;33;9312750;Bus : 60 O - Direction Chomedey;"";STL;60O;Métro Cartier Quai:6;Alton-Goldbloom / Face à L'hôpital
455472713;"{\"type\":\"LineString\",\"coordinates\":[[-73.7532667,45.565918],[-73.7535397,45.5657204]]}";2;Boulevard Le Carrefour;3;50;false;true;true;false;false;false;31.0;1;0;0;0;0;false;43295;6269510013;-73.75101;45.567611;41505;6269510072;-73.75327;45.56508;0;32;33;9312750;Bus : 60 O - Direction Chomedey;"";STL;60O;Métro Cartier Quai:6;Alton-Goldbloom / Face à L'hôpital
455472712;"{\"type\":\"LineString\",\"coordinates\":[[-73.7535397,45.5657204],[-73.7537138,45.5655915]]}";3;Boulevard Le Carrefour;3;50;false;true;true;false;false;false;20.0;2;0;0;0;0;false;43295;6269510013;-73.75101;45.567611;41505;6269510072;-73.75327;45.56508;0;32;33;9312750;Bus : 60 O - Direction Chomedey;"";STL;60O;Métro Cartier Quai:6;Alton-Goldbloom / Face à L'hôpital
684308398;"{\"type\":\"LineString\",\"coordinates\":[[-73.7537138,45.5655915],[-73.7535894,45.5654874]]}";4;Boulevard Daniel-Johnson;2;60;false;true;false;false;false;false;16.0;2;0;0;0;0;false;43295;6269510013;-73.75101;45.567611;41505;6269510072;-73.75327;45.56508;0;32;33;9312750;Bus : 60 O - Direction Chomedey;"";STL;60O;Métro Cartier Quai:6;Alton-Goldbloom / Face à L'hôpital
455472705;"{\"type\":\"LineString\",\"coordinates\":[[-73.7535894,45.5654874],[-73.7532623,45.5652009]]}";5;Boulevard Daniel-Johnson;2;60;false;true;false;false;false;false;41.0;1;0;0;0;0;false;43295;6269510013;-73.75101;45.567611;41505;6269510072;-73.75327;45.56508;0;32;33;9312750;Bus : 60 O - Direction Chomedey;"";STL;60O;Métro Cartier Quai:6;Alton-Goldbloom / Face à L'hôpital
455472702;"{\"type\":\"LineString\",\"coordinates\":[[-73.7532623,45.5652009],[-73.753183,45.5651319],[-73.7522221,45.5642835],[-73.7512843,45.5634556]]}";6;Boulevard Daniel-Johnson;2;60;false;true;false;false;false;false;124.0;0;0;0;0;0;false;43295;6269510013;-73.75101;45.567611;41505;6269510072;-73.75327;45.56508;1;32;33;9312750;Bus : 60 O - Direction Chomedey;"";STL;60O;Métro Cartier Quai:6;Alton-Goldbloom / Face à L'hôpital
455472705;"{\"type\":\"LineString\",\"coordinates\":[[-73.7535894,45.5654874],[-73.7532623,45.5652009]]}";1;Boulevard Daniel-Johnson;2;60;false;true;false;false;false;false;41.0;1;0;0;0;0;false;41505;6269510072;-73.75327;45.56508;41502;6269508869;-73.75111;45.56317;2;33;34;9312750;Bus : 60 O - Direction Chomedey;"";STL;60O;Métro Cartier Quai:6;Alton-Goldbloom / Face à L'hôpital
455472702;"{\"type\":\"LineString\",\"coordinates\":[[-73.7532623,45.5652009],[-73.753183,45.5651319],[-73.7522221,45.5642835],[-73.7512843,45.5634556]]}";2;Boulevard Daniel-Johnson;2;60;false;true;false;false;false;false;248.0;0;0;0;0;0;false;41505;6269510072;-73.75327;45.56508;41502;6269508869;-73.75111;45.56317;0;33;34;9312750;Bus : 60 O - Direction Chomedey;"";STL;60O;Métro Cartier Quai:6;Alton-Goldbloom / Face à L'hôpital
45827990;"{\"type\":\"LineString\",\"coordinates\":[[-73.7512843,45.5634556],[-73.7500053,45.5623481],[-73.7499326,45.5622851],[-73.7487521,45.5612647]]}";3;Boulevard Daniel-Johnson;2;60;false;true;false;false;false;false;314.0;1;0;0;0;0;false;41505;6269510072;-73.75327;45.56508;41502;6269508869;-73.75111;45.56317;2;33;34;9312750;Bus : 60 O - Direction Chomedey;"";STL;60O;Métro Cartier Quai:6;Alton-Goldbloom / Face à L'hôpital
45827990;"{\"type\":\"LineString\",\"coordinates\":[[-73.7512843,45.5634556],[-73.7500053,45.5623481],[-73.7499326,45.5622851],[-73.7487521,45.5612647]]}";1;Boulevard Daniel-Johnson;2;60;false;true;false;false;false;false;157.0;1;0;0;0;0;false;41502;6269508869;-73.75111;45.56317;45058;6269510279;-73.74861;45.560958;1;34;35;9312750;Bus : 60 O - Direction Chomedey;"";STL;60O;Métro Cartier Quai:6;Alton-Goldbloom / Face à L'hôpital
45755835;"{\"type\":\"LineString\",\"coordinates\":[[-73.7487521,45.5612647],[-73.7469082,45.5596365],[-73.7457327,45.5585996]]}";2;Boulevard Daniel-Johnson;2;60;false;true;false;false;false;false;189.5;2;0;0;0;0;false;41502;6269508869;-73.75111;45.56317;45058;6269510279;-73.74861;45.560958;1;34;35;9312750;Bus : 60 O - Direction Chomedey;"";STL;60O;Métro Cartier Quai:6;Alton-Goldbloom / Face à L'hôpital
45755835;"{\"type\":\"LineString\",\"coordinates\":[[-73.7487521,45.5612647],[-73.7469082,45.5596365],[-73.7457327,45.5585996]]}";1;Boulevard Daniel-Johnson;2;60;false;true;false;false;false;false;189.5;2;0;0;0;0;false;41508;6269510318;-73.74674;45.559357;46328;6269510339;-73.74508;45.557878;1;36;37;9312750;Bus : 60 O - Direction Chomedey;"";STL;60O;Métro Cartier Quai:6;Alton-Goldbloom / Face à L'hôpital
684761982;"{\"type\":\"LineString\",\"coordinates\":[[-73.7457327,45.5585996],[-73.745495,45.55839]]}";2;Boulevard Daniel-Johnson;2;60;false;true;false;false;false;false;30.0;1;0;0;0;0;false;41508;6269510318;-73.74674;45.559357;46328;6269510339;-73.74508;45.557878;0;36;37;9312750;Bus : 60 O - Direction Chomedey;"";STL;60O;Métro Cartier Quai:6;Alton-Goldbloom / Face à L'hôpital
465362406;"{\"type\":\"LineString\",\"coordinates\":[[-73.745495,45.55839],[-73.7453439,45.5582511]]}";3;Boulevard Daniel-Johnson;2;60;false;true;false;false;false;false;20.0;2;0;0;0;0;false;41508;6269510318;-73.74674;45.559357;46328;6269510339;-73.74508;45.557878;0;36;37;9312750;Bus : 60 O - Direction Chomedey;"";STL;60O;Métro Cartier Quai:6;Alton-Goldbloom / Face à L'hôpital
684308397;"{\"type\":\"LineString\",\"coordinates\":[[-73.7453439,45.5582511],[-73.7443165,45.5573468],[-73.7432029,45.5563779]]}";4;Boulevard Daniel-Johnson;2;60;false;true;false;false;false;false;133.5;1;0;0;0;0;false;41508;6269510318;-73.74674;45.559357;46328;6269510339;-73.74508;45.557878;1;36;37;9312750;Bus : 60 O - Direction Chomedey;"";STL;60O;Métro Cartier Quai:6;Alton-Goldbloom / Face à L'hôpital
684308397;"{\"type\":\"LineString\",\"coordinates\":[[-73.7453439,45.5582511],[-73.7443165,45.5573468],[-73.7432029,45.5563779]]}";1;Boulevard Daniel-Johnson;2;60;false;true;false;false;false;false;133.5;1;0;0;0;0;false;46328;6269510339;-73.74508;45.557878;41278;6269510357;-73.74377;45.556144;1;37;38;9312750;Bus : 60 O - Direction Chomedey;"";STL;60O;Métro Cartier Quai:6;Alton-Goldbloom / Face à L'hôpital
45755785;"{\"type\":\"LineString\",\"coordinates\":[[-73.7485601,45.5536275],[-73.7477192,45.5540049],[-73.7467569,45.5544368],[-73.7462695,45.5546555],[-73.7461056,45.5547459],[-73.7458036,45.5549125],[-73.7454692,45.5550969],[-73.7440773,45.5558646],[-73.7432029,45.5563779]]}";2;Rue des Châteaux;2;50;false;false;true;false;false;false;259.5;1;0;0;0;0;false;46328;6269510339;-73.74508;45.557878;41278;6269510357;-73.74377;45.556144;1;37;38;9312750;Bus : 60 O - Direction Chomedey;"";STL;60O;Métro Cartier Quai:6;Alton-Goldbloom / Face à L'hôpital
45755785;"{\"type\":\"LineString\",\"coordinates\":[[-73.7485601,45.5536275],[-73.7477192,45.5540049],[-73.7467569,45.5544368],[-73.7462695,45.5546555],[-73.7461056,45.5547459],[-73.7458036,45.5549125],[-73.7454692,45.5550969],[-73.7440773,45.5558646],[-73.7432029,45.5563779]]}";1;Rue des Châteaux;2;50;false;false;true;false;false;false;259.5;1;0;0;0;0;false;41274;6269510549;-73.74808;45.553949;42820;6269510502;-73.7525;45.555154;1;40;41;9312750;Bus : 60 O - Direction Chomedey;"";STL;60O;Métro Cartier Quai:6;Alton-Goldbloom / Face à L'hôpital
45755788;"{\"type\":\"LineString\",\"coordinates\":[[-73.7485601,45.5536275],[-73.7497811,45.5546484],[-73.75046,45.5552961]]}";2;Boulevard Chomedey;2;60;false;true;false;false;false;false;238.0;2;0;0;0;0;false;41274;6269510549;-73.74808;45.553949;42820;6269510502;-73.7525;45.555154;0;40;41;9312750;Bus : 60 O - Direction Chomedey;"";STL;60O;Métro Cartier Quai:6;Alton-Goldbloom / Face à L'hôpital
684761994;"{\"type\":\"LineString\",\"coordinates\":[[-73.75046,45.5552961],[-73.7506404,45.5554682]]}";3;Boulevard Chomedey;2;60;false;true;false;false;false;false;24.0;0;0;0;0;0;false;41274;6269510549;-73.74808;45.553949;42820;6269510502;-73.7525;45.555154;0;40;41;9312750;Bus : 60 O - Direction Chomedey;"";STL;60O;Métro Cartier Quai:6;Alton-Goldbloom / Face à L'hôpital
45755831;"{\"type\":\"LineString\",\"coordinates\":[[-73.7506404,45.5554682],[-73.7508248,45.5556608]]}";4;Boulevard Chomedey;2;60;false;true;false;false;false;false;26.0;1;0;0;0;0;false;41274;6269510549;-73.74808;45.553949;42820;6269510502;-73.7525;45.555154;0;40;41;9312750;Bus : 60 O - Direction Chomedey;"";STL;60O;Métro Cartier Quai:6;Alton-Goldbloom / Face à L'hôpital
45755834;"{\"type\":\"LineString\",\"coordinates\":[[-73.7508248,45.5556608],[-73.7509394,45.5557775]]}";5;Boulevard Chomedey;2;60;false;false;false;false;false;false;16.0;2;0;0;0;0;false;41274;6269510549;-73.74808;45.553949;42820;6269510502;-73.7525;45.555154;0;40;41;9312750;Bus : 60 O - Direction Chomedey;"";STL;60O;Métro Cartier Quai:6;Alton-Goldbloom / Face à L'hôpital
452029943;"{\"type\":\"LineString\",\"coordinates\":[[-73.7509394,45.5557775],[-73.7510888,45.5557212]]}";6;Boulevard Saint-Martin Ouest;3;60;false;true;false;false;false;false;14.0;2;0;0;0;0;false;41274;6269510549;-73.74808;45.553949;42820;6269510502;-73.7525;45.555154;0;40;41;9312750;Bus : 60 O - Direction Chomedey;"";STL;60O;Métro Cartier Quai:6;Alton-Goldbloom / Face à L'hôpital
452029944;"{\"type\":\"LineString\",\"coordinates\":[[-73.7510888,45.5557212],[-73.7515698,45.5554892]]}";7;Boulevard Saint-Martin Ouest;3;60;false;true;false;false;false;false;46.0;1;0;0;0;0;false;41274;6269510549;-73.74808;45.553949;42820;6269510502;-73.7525;45.555154;0;40;41;9312750;Bus : 60 O - Direction Chomedey;"";STL;60O;Métro Cartier Quai:6;Alton-Goldbloom / Face à L'hôpital
466390831;"{\"type\":\"LineString\",\"coordinates\":[[-73.7515698,45.5554892],[-73.7517263,45.5553688]]}";8;Boulevard Saint-Martin Ouest;3;60;false;true;false;false;false;false;19.0;0;0;0;0;0;false;41274;6269510549;-73.74808;45.553949;42820;6269510502;-73.7525;45.555154;0;40;41;9312750;Bus : 60 O - Direction Chomedey;"";STL;60O;Métro Cartier Quai:6;Alton-Goldbloom / Face à L'hôpital
45799042;"{\"type\":\"LineString\",\"coordinates\":[[-73.7596927,45.5518084],[-73.7590255,45.5521066],[-73.7577994,45.5526546],[-73.7570883,45.5529724],[-73.7563335,45.5533097],[-73.7560129,45.5534531],[-73.7558758,45.5535143],[-73.7554532,45.5537032],[-73.7547657,45.5540105],[-73.7540012,45.5543521],[-73.7532629,45.5546821],[-73.7530264,45.5547878],[-73.7528725,45.5548566],[-73.7527105,45.554929],[-73.7517263,45.5553688]]}";9;Boulevard Saint-Martin Ouest;6;60;false;false;false;false;false;false;368.5;0;0;0;0;0;false;41274;6269510549;-73.74808;45.553949;42820;6269510502;-73.7525;45.555154;1;40;41;9312750;Bus : 60 O - Direction Chomedey;"";STL;60O;Métro Cartier Quai:6;Alton-Goldbloom / Face à L'hôpital
45799042;"{\"type\":\"LineString\",\"coordinates\":[[-73.7596927,45.5518084],[-73.7590255,45.5521066],[-73.7577994,45.5526546],[-73.7570883,45.5529724],[-73.7563335,45.5533097],[-73.7560129,45.5534531],[-73.7558758,45.5535143],[-73.7554532,45.5537032],[-73.7547657,45.5540105],[-73.7540012,45.5543521],[-73.7532629,45.5546821],[-73.7530264,45.5547878],[-73.7528725,45.5548566],[-73.7527105,45.554929],[-73.7517263,45.5553688]]}";1;Boulevard Saint-Martin Ouest;6;60;false;false;false;false;false;false;368.5;0;0;0;0;0;false;42812;6269510570;-73.75774;45.552802;41423;5894580466;-73.75878;45.55055;1;43;44;9312750;Bus : 60 O - Direction Chomedey;"";STL;60O;Métro Cartier Quai:6;Alton-Goldbloom / Face à L'hôpital
669689627;"{\"type\":\"LineString\",\"coordinates\":[[-73.7598339,45.5517453],[-73.7596927,45.5518084]]}";2;Boulevard Saint-Martin Ouest;6;60;false;false;false;false;false;false;14.0;0;0;0;0;0;false;42812;6269510570;-73.75774;45.552802;41423;5894580466;-73.75878;45.55055;0;43;44;9312750;Bus : 60 O - Direction Chomedey;"";STL;60O;Métro Cartier Quai:6;Alton-Goldbloom / Face à L'hôpital
391452461;"{\"type\":\"LineString\",\"coordinates\":[[-73.7598339,45.5517453],[-73.7595239,45.5514428],[-73.7584553,45.5502554],[-73.758155,45.5499926]]}";3;Boulevard Curé-Labelle;2;50;false;true;true;false;false;false;117.5;0;0;0;0;0;false;42812;6269510570;-73.75774;45.552802;41423;5894580466;-73.75878;45.55055;1;43;44;9312750;Bus : 60 O - Direction Chomedey;"";STL;60O;Métro Cartier Quai:6;Alton-Goldbloom / Face à L'hôpital
391452461;"{\"type\":\"LineString\",\"coordinates\":[[-73.7598339,45.5517453],[-73.7595239,45.5514428],[-73.7584553,45.5502554],[-73.758155,45.5499926]]}";1;Boulevard Curé-Labelle;2;50;false;true;true;false;false;false;117.5;0;0;0;0;0;false;41423;5894580466;-73.75878;45.55055;41425;5894581095;-73.75742;45.549078;1;44;45;9312750;Bus : 60 O - Direction Chomedey;"";STL;60O;Métro Cartier Quai:6;Alton-Goldbloom / Face à L'hôpital
45828315;"{\"type\":\"LineString\",\"coordinates\":[[-73.7578057,45.5496495],[-73.758155,45.5499926]]}";2;Boulevard Curé-Labelle;4;50;false;false;true;false;false;false;47.0;0;0;0;0;0;false;41423;5894580466;-73.75878;45.55055;41425;5894581095;-73.75742;45.549078;0;44;45;9312750;Bus : 60 O - Direction Chomedey;"";STL;60O;Métro Cartier Quai:6;Alton-Goldbloom / Face à L'hôpital
45592672;"{\"type\":\"LineString\",\"coordinates\":[[-73.7571942,45.5490409],[-73.7578057,45.5496495]]}";3;Boulevard Curé-Labelle;4;50;false;false;true;false;false;false;41.5;0;0;0;0;0;false;41423;5894580466;-73.75878;45.55055;41425;5894581095;-73.75742;45.549078;1;44;45;9312750;Bus : 60 O - Direction Chomedey;"";STL;60O;Métro Cartier Quai:6;Alton-Goldbloom / Face à L'hôpital
58939608;"{\"type\":\"LineString\",\"coordinates\":[[-73.7498771,45.5423837],[-73.7506758,45.543113],[-73.7527936,45.5450467],[-73.7536215,45.5458026],[-73.7542611,45.5463629],[-73.7555498,45.547535],[-73.7560614,45.5480035],[-73.7571942,45.5490409]]}";1;Boulevard Curé-Labelle;4;50;false;false;true;false;false;false;467.5;0;0;0;0;0;false;41418;5894580444;-73.75093;45.543207;42481;5894580470;-73.74784;45.541144;1;48;49;9312750;Bus : 60 O - Direction Chomedey;"";STL;60O;Métro Cartier Quai:6;Alton-Goldbloom / Face à L'hôpital
624217208;"{\"type\":\"LineString\",\"coordinates\":[[-73.7498771,45.5423837],[-73.7497698,45.5422033],[-73.7485747,45.5410328]]}";2;Boulevard Curé-Labelle;2;50;false;true;true;false;false;false;182.0;1;0;0;0;0;false;41418;5894580444;-73.75093;45.543207;42481;5894580470;-73.74784;45.541144;0;48;49;9312750;Bus : 60 O - Direction Chomedey;"";STL;60O;Métro Cartier Quai:6;Alton-Goldbloom / Face à L'hôpital
669689625;"{\"type\":\"LineString\",\"coordinates\":[[-73.7485747,45.5410328],[-73.7484502,45.5410837]]}";3;Boulevard Notre-Dame;2;50;false;false;true;false;false;false;12.0;2;0;0;0;0;false;41418;5894580444;-73.75093;45.543207;42481;5894580470;-73.74784;45.541144;0;48;49;9312750;Bus : 60 O - Direction Chomedey;"";STL;60O;Métro Cartier Quai:6;Alton-Goldbloom / Face à L'hôpital
45601040;"{\"type\":\"LineString\",\"coordinates\":[[-73.7484502,45.5410837],[-73.7477636,45.5412816],[-73.7468845,45.541535]]}";4;Boulevard Notre-Dame;2;50;false;false;true;false;false;false;66.5;1;0;0;0;0;false;41418;5894580444;-73.75093;45.543207;42481;5894580470;-73.74784;45.541144;1;48;49;9312750;Bus : 60 O - Direction Chomedey;"";STL;60O;Métro Cartier Quai:6;Alton-Goldbloom / Face à L'hôpital
45601040;"{\"type\":\"LineString\",\"coordinates\":[[-73.7484502,45.5410837],[-73.7477636,45.5412816],[-73.7468845,45.541535]]}";1;Boulevard Notre-Dame;2;50;false;false;true;false;false;false;66.5;1;0;0;0;0;false;42481;5894580470;-73.74784;45.541144;42514;5894581086;-73.74583;45.541748;1;49;50;9312750;Bus : 60 O - Direction Chomedey;"";STL;60O;Métro Cartier Quai:6;Alton-Goldbloom / Face à L'hôpital
45600849;"{\"type\":\"LineString\",\"coordinates\":[[-73.7468845,45.541535],[-73.7467528,45.541573]]}";2;Boulevard Notre-Dame;2;50;false;false;true;false;false;false;12.0;0;0;0;0;0;false;42481;5894580470;-73.74784;45.541144;42514;5894581086;-73.74583;45.541748;0;49;50;9312750;Bus : 60 O - Direction Chomedey;"";STL;60O;Métro Cartier Quai:6;Alton-Goldbloom / Face à L'hôpital
45600868;"{\"type\":\"LineString\",\"coordinates\":[[-73.7467528,45.541573],[-73.7463569,45.5417017],[-73.7457905,45.5418859]]}";3;Boulevard Notre-Dame;2;50;false;false;true;false;false;false;41.5;0;0;0;0;0;false;42481;5894580470;-73.74784;45.541144;42514;5894581086;-73.74583;45.541748;1;49;50;9312750;Bus : 60 O - Direction Chomedey;"";STL;60O;Métro Cartier Quai:6;Alton-Goldbloom / Face à L'hôpital
45601067;"{\"type\":\"LineString\",\"coordinates\":[[-73.7457905,45.5418859],[-73.7454527,45.5419958]]}";1;Boulevard Notre-Dame;2;50;false;false;true;false;false;false;30.0;0;0;0;0;0;false;42514;5894581086;-73.74583;45.541748;42512;5894581090;-73.7434;45.542559;2;50;51;9312750;Bus : 60 O - Direction Chomedey;"";STL;60O;Métro Cartier Quai:6;Alton-Goldbloom / Face à L'hôpital
45600969;"{\"type\":\"LineString\",\"coordinates\":[[-73.7454527,45.5419958],[-73.745002,45.5421423],[-73.7446208,45.5422663]]}";2;Boulevard Notre-Dame;2;50;false;false;true;false;false;false;72.0;0;0;0;0;0;false;42514;5894581086;-73.74583;45.541748;42512;5894581090;-73.7434;45.542559;0;50;51;9312750;Bus : 60 O - Direction Chomedey;"";STL;60O;Métro Cartier Quai:6;Alton-Goldbloom / Face à L'hôpital
45601058;"{\"type\":\"LineString\",\"coordinates\":[[-73.7446208,45.5422663],[-73.7440281,45.542459]]}";3;Boulevard Notre-Dame;2;50;false;false;true;false;false;false;51.0;0;0;0;0;0;false;42514;5894581086;-73.74583;45.541748;42512;5894581090;-73.7434;45.542559;0;50;51;9312750;Bus : 60 O - Direction Chomedey;"";STL;60O;Métro Cartier Quai:6;Alton-Goldbloom / Face à L'hôpital
45600905;"{\"type\":\"LineString\",\"coordinates\":[[-73.7440281,45.542459],[-73.7430333,45.5427825],[-73.7427076,45.5428884]]}";4;Boulevard Notre-Dame;2;50;false;false;true;false;false;false;114.0;0;0;0;0;0;false;42514;5894581086;-73.74583;45.541748;42512;5894581090;-73.7434;45.542559;2;50;51;9312750;Bus : 60 O - Direction Chomedey;"";STL;60O;Métro Cartier Quai:6;Alton-Goldbloom / Face à L'hôpital
45600905;"{\"type\":\"LineString\",\"coordinates\":[[-73.7440281,45.542459],[-73.7430333,45.5427825],[-73.7427076,45.5428884]]}";1;Boulevard Notre-Dame;2;50;false;false;true;false;false;false;57.0;0;0;0;0;0;false;42512;5894581090;-73.7434;45.542559;42510;5894580436;-73.74191;45.543056;1;51;52;9312750;Bus : 60 O - Direction Chomedey;"";STL;60O;Métro Cartier Quai:6;Alton-Goldbloom / Face à L'hôpital
45600901;"{\"type\":\"LineString\",\"coordinates\":[[-73.7427076,45.5428884],[-73.7416907,45.5432191]]}";2;Boulevard Notre-Dame;2;50;false;false;true;false;false;false;44.0;0;0;0;0;0;false;42512;5894581090;-73.7434;45.542559;42510;5894580436;-73.74191;45.543056;1;51;52;9312750;Bus : 60 O - Direction Chomedey;"";STL;60O;Métro Cartier Quai:6;Alton-Goldbloom / Face à L'hôpital
45600901;"{\"type\":\"LineString\",\"coordinates\":[[-73.7427076,45.5428884],[-73.7416907,45.5432191]]}";1;Boulevard Notre-Dame;2;50;false;false;true;false;false;false;44.0;0;0;0;0;0;false;42510;5894580436;-73.74191;45.543056;41620;6269510690;-73.7377;45.545041;1;52;53;9312750;Bus : 60 O - Direction Chomedey;"";STL;60O;Métro Cartier Quai:6;Alton-Goldbloom / Face à L'hôpital
45601028;"{\"type\":\"LineString\",\"coordinates\":[[-73.7416907,45.5432191],[-73.7415212,45.5432408],[-73.74052,45.5435731]]}";2;Boulevard Notre-Dame;2;50;false;true;true;false;false;false;100.0;0;0;0;0;0;false;42510;5894580436;-73.74191;45.543056;41620;6269510690;-73.7377;45.545041;0;52;53;9312750;Bus : 60 O - Direction Chomedey;"";STL;60O;Métro Cartier Quai:6;Alton-Goldbloom / Face à L'hôpital
45601068;"{\"type\":\"LineString\",\"coordinates\":[[-73.74052,45.5435731],[-73.7397587,45.5438636]]}";3;Boulevard Notre-Dame;2;50;false;true;true;false;false;false;68.0;0;0;0;0;0;false;42510;5894580436;-73.74191;45.543056;41620;6269510690;-73.7377;45.545041;0;52;53;9312750;Bus : 60 O - Direction Chomedey;"";STL;60O;Métro Cartier Quai:6;Alton-Goldbloom / Face à L'hôpital
45601045;"{\"type\":\"LineString\",\"coordinates\":[[-73.7397587,45.5438636],[-73.7391262,45.5440816]]}";4;Boulevard Notre-Dame;2;50;false;true;true;false;false;false;55.0;1;0;0;0;0;false;42510;5894580436;-73.74191;45.543056;41620;6269510690;-73.7377;45.545041;0;52;53;9312750;Bus : 60 O - Direction Chomedey;"";STL;60O;Métro Cartier Quai:6;Alton-Goldbloom / Face à L'hôpital
45600866;"{\"type\":\"LineString\",\"coordinates\":[[-73.7391262,45.5440816],[-73.7389841,45.544134]]}";5;Boulevard Notre-Dame;2;60;false;true;true;false;false;false;13.0;2;0;0;0;0;false;42510;5894580436;-73.74191;45.543056;41620;6269510690;-73.7377;45.545041;0;52;53;9312750;Bus : 60 O - Direction Chomedey;"";STL;60O;Métro Cartier Quai:6;Alton-Goldbloom / Face à L'hôpital
45600994;"{\"type\":\"LineString\",\"coordinates\":[[-73.7389841,45.544134],[-73.7384806,45.5443085]]}";6;Boulevard Notre-Dame;2;60;false;true;true;false;false;false;44.0;1;0;0;0;0;false;42510;5894580436;-73.74191;45.543056;41620;6269510690;-73.7377;45.545041;0;52;53;9312750;Bus : 60 O - Direction Chomedey;"";STL;60O;Métro Cartier Quai:6;Alton-Goldbloom / Face à L'hôpital
45601119;"{\"type\":\"LineString\",\"coordinates\":[[-73.7384806,45.5443085],[-73.7374807,45.5446785]]}";7;Boulevard Notre-Dame;2;60;false;true;true;false;false;false;89.0;1;0;0;0;0;false;42510;5894580436;-73.74191;45.543056;41620;6269510690;-73.7377;45.545041;0;52;53;9312750;Bus : 60 O - Direction Chomedey;"";STL;60O;Métro Cartier Quai:6;Alton-Goldbloom / Face à L'hôpital
45601014;"{\"type\":\"LineString\",\"coordinates\":[[-73.7374807,45.5446785],[-73.7375735,45.5447755]]}";8;Place Alton Goldbloom;2;50;false;false;true;false;false;false;13.0;2;0;0;0;0;false;42510;5894580436;-73.74191;45.543056;41620;6269510690;-73.7377;45.545041;0;52;53;9312750;Bus : 60 O - Direction Chomedey;"";STL;60O;Métro Cartier Quai:6;Alton-Goldbloom / Face à L'hôpital
45601104;"{\"type\":\"LineString\",\"coordinates\":[[-73.7375735,45.5447755],[-73.7383216,45.5455957],[-73.7385473,45.5458431],[-73.7385855,45.5459209],[-73.7385662,45.5459902],[-73.7383402,45.5463337],[-73.738253,45.5464663]]}";9;Place Alton Goldbloom;2;50;false;false;true;false;false;false;108.5;1;0;0;0;0;false;42510;5894580436;-73.74191;45.543056;41620;6269510690;-73.7377;45.545041;1;52;53;9312750;Bus : 60 O - Direction Chomedey;"";STL;60O;Métro Cartier Quai:6;Alton-Goldbloom / Face à L'hôpital
45601011;"{\"type\":\"LineString\",\"coordinates\":[[-73.738253,45.5464663],[-73.7379346,45.5469578],[-73.7377416,45.5472081],[-73.7376497,45.5473272],[-73.7374596,45.5475736],[-73.7373568,45.5476712],[-73.7370685,45.5478753]]}";1;Place Alton Goldbloom;2;50;false;false;true;false;false;false;184.0;0;0;0;0;0;false;41619;6269510676;-73.73819;45.546313;"49060;41022";6269510648;-73.73698;45.54842;2;54;55;9312750;Bus : 60 O - Direction Chomedey;"";STL;60O;Métro Cartier Quai:6;Alton-Goldbloom / Face à L'hôpital
45601103;"{\"type\":\"LineString\",\"coordinates\":[[-73.7370685,45.5478753],[-73.7367137,45.5480706]]}";2;Place Alton Goldbloom;2;50;false;false;true;false;false;false;36.0;0;0;0;0;0;false;41619;6269510676;-73.73819;45.546313;"49060;41022";6269510648;-73.73698;45.54842;0;54;55;9312750;Bus : 60 O - Direction Chomedey;"";STL;60O;Métro Cartier Quai:6;Alton-Goldbloom / Face à L'hôpital
45600927;"{\"type\":\"LineString\",\"coordinates\":[[-73.7367137,45.5480706],[-73.7370301,45.5483764]]}";3;"";1;50;false;false;true;false;false;false;42.0;0;0;0;0;0;false;41619;6269510676;-73.73819;45.546313;"49060;41022";6269510648;-73.73698;45.54842;1;54;55;9312750;Bus : 60 O - Direction Chomedey;"";STL;60O;Métro Cartier Quai:6;Alton-Goldbloom / Face à L'hôpital
