way_id;shape;index;name;nb_lanes;legal_speed;speed_zone_30;oneway;shares_bike;bike_box;bus_lane;dedicated_bus_lane;length;nb_traffic_signals;nb_crossings;nb_stops;nb_give_ways;nb_lvl_crossings;roundabout;stop_id_orig;node_id_orig;coord_x_orig;coord_y_orig;stop_id_dest;node_id_dest;coord_x_dest;coord_y_dest;nb_neighbouring_ways_bus_stop;ordre_orig;ordre_dest;id_line;line_name;colour;operator;ref;from;to
653256416;"{\"type\":\"LineString\",\"coordinates\":[[-73.834757,45.6358805],[-73.8342691,45.6358967],[-73.8341807,45.6358659],[-73.8339481,45.6356843]]}";1;"";1;50;false;true;true;false;false;false;73.0;0;0;0;0;0;false;82035;6119525317;-73.834747;45.635784;82843;6119523786;-73.829656;45.634673;1;0;1;9391234;Bus 22 : BOIS-DES-FILION / VIA GEORGES IV;"";EXO;22 E;Gare Sainte-Thérèse;Côte Terrebonne / rue Georges-VI
529203724;"{\"type\":\"LineString\",\"coordinates\":[[-73.8339481,45.6356843],[-73.8337953,45.6356449],[-73.8337255,45.6356355],[-73.8335183,45.6356418],[-73.8331872,45.6356518],[-73.8329976,45.6355146]]}";2;"";1;50;false;false;true;false;false;false;82.0;0;0;0;0;0;false;82035;6119525317;-73.834747;45.635784;82843;6119523786;-73.829656;45.634673;0;0;1;9391234;Bus 22 : BOIS-DES-FILION / VIA GEORGES IV;"";EXO;22 E;Gare Sainte-Thérèse;Côte Terrebonne / rue Georges-VI
653256415;"{\"type\":\"LineString\",\"coordinates\":[[-73.8312914,45.6343832],[-73.8319665,45.6348309],[-73.8321067,45.6349239],[-73.8322795,45.6350385],[-73.8326436,45.6352799],[-73.8329976,45.6355146]]}";3;Rue Saint-Alphonse;1;50;false;false;true;false;false;false;183.0;0;0;0;0;0;false;82035;6119525317;-73.834747;45.635784;82843;6119523786;-73.829656;45.634673;0;0;1;9391234;Bus 22 : BOIS-DES-FILION / VIA GEORGES IV;"";EXO;22 E;Gare Sainte-Thérèse;Côte Terrebonne / rue Georges-VI
42904463;"{\"type\":\"LineString\",\"coordinates\":[[-73.8312133,45.6343318],[-73.8312914,45.6343832]]}";4;Rue Saint-Alphonse;1;50;false;false;true;false;false;false;9.0;0;0;0;0;0;false;82035;6119525317;-73.834747;45.635784;82843;6119523786;-73.829656;45.634673;0;0;1;9391234;Bus 22 : BOIS-DES-FILION / VIA GEORGES IV;"";EXO;22 E;Gare Sainte-Thérèse;Côte Terrebonne / rue Georges-VI
653254442;"{\"type\":\"LineString\",\"coordinates\":[[-73.8312133,45.6343318],[-73.8310774,45.6344094],[-73.8306085,45.6346142],[-73.8303329,45.6347019],[-73.8299105,45.6348048],[-73.8298803,45.6348098],[-73.8296492,45.6348481],[-73.8293823,45.6348668],[-73.8286284,45.6348731],[-73.8285388,45.634874],[-73.8282829,45.634875],[-73.8280665,45.6348758],[-73.827908,45.6348787],[-73.8266672,45.6348759],[-73.8265576,45.6348756],[-73.8263185,45.634875],[-73.8260891,45.6348617]]}";5;Boulevard Desjardins Est;2;40;false;true;true;false;false;false;207.0;0;0;0;0;0;false;82035;6119525317;-73.834747;45.635784;82843;6119523786;-73.829656;45.634673;1;0;1;9391234;Bus 22 : BOIS-DES-FILION / VIA GEORGES IV;"";EXO;22 E;Gare Sainte-Thérèse;Côte Terrebonne / rue Georges-VI
519985186;"{\"type\":\"LineString\",\"coordinates\":[[-73.8260891,45.6348617],[-73.824991,45.6348491],[-73.8242915,45.6348411],[-73.8237806,45.6347432],[-73.8232529,45.634571],[-73.8228896,45.6344524],[-73.8224992,45.6343731],[-73.8222707,45.6343692],[-73.8220321,45.6344084],[-73.8219021,45.6344515],[-73.8218515,45.6344683],[-73.8216794,45.6345581],[-73.8214734,45.6346842]]}";1;Boulevard Desjardins Est;2;40;false;true;false;false;false;false;190.5;0;0;0;0;0;false;82037;6119525315;-73.823082;45.634429;82038;6119525314;-73.81567;45.632109;1;3;4;9391234;Bus 22 : BOIS-DES-FILION / VIA GEORGES IV;"";EXO;22 E;Gare Sainte-Thérèse;Côte Terrebonne / rue Georges-VI
519985188;"{\"type\":\"LineString\",\"coordinates\":[[-73.8214734,45.6346842],[-73.8213132,45.6348362]]}";2;Boulevard Desjardins Est;2;50;false;true;true;false;false;false;21.0;1;0;0;0;0;false;82037;6119525315;-73.823082;45.634429;82038;6119525314;-73.81567;45.632109;0;3;4;9391234;Bus 22 : BOIS-DES-FILION / VIA GEORGES IV;"";EXO;22 E;Gare Sainte-Thérèse;Côte Terrebonne / rue Georges-VI
500685367;"{\"type\":\"LineString\",\"coordinates\":[[-73.8213132,45.6348362],[-73.8209998,45.6346679],[-73.8199812,45.6341938],[-73.8194268,45.6339614]]}";3;Boulevard Curé-Labelle;2;60;false;true;true;false;false;false;177.0;1;0;0;0;0;false;82037;6119525315;-73.823082;45.634429;82038;6119525314;-73.81567;45.632109;0;3;4;9391234;Bus 22 : BOIS-DES-FILION / VIA GEORGES IV;"";EXO;22 E;Gare Sainte-Thérèse;Côte Terrebonne / rue Georges-VI
455097998;"{\"type\":\"LineString\",\"coordinates\":[[-73.8194268,45.6339614],[-73.8183998,45.6335307],[-73.817817,45.6332863],[-73.8175487,45.6331738],[-73.8174692,45.6331387],[-73.8170374,45.6329559]]}";4;Boulevard Curé-Labelle;2;60;false;true;true;false;false;false;218.0;0;0;0;0;0;false;82037;6119525315;-73.823082;45.634429;82038;6119525314;-73.81567;45.632109;0;3;4;9391234;Bus 22 : BOIS-DES-FILION / VIA GEORGES IV;"";EXO;22 E;Gare Sainte-Thérèse;Côte Terrebonne / rue Georges-VI
455097996;"{\"type\":\"LineString\",\"coordinates\":[[-73.8170374,45.6329559],[-73.8164988,45.6327108]]}";5;Boulevard Curé-Labelle;2;60;false;true;true;false;false;false;51.0;1;0;0;0;0;false;82037;6119525315;-73.823082;45.634429;82038;6119525314;-73.81567;45.632109;0;3;4;9391234;Bus 22 : BOIS-DES-FILION / VIA GEORGES IV;"";EXO;22 E;Gare Sainte-Thérèse;Côte Terrebonne / rue Georges-VI
455316734;"{\"type\":\"LineString\",\"coordinates\":[[-73.8164988,45.6327108],[-73.8163819,45.632666]]}";6;Boulevard Curé-Labelle;2;60;false;true;true;false;false;false;11.0;2;0;0;0;0;false;82037;6119525315;-73.823082;45.634429;82038;6119525314;-73.81567;45.632109;0;3;4;9391234;Bus 22 : BOIS-DES-FILION / VIA GEORGES IV;"";EXO;22 E;Gare Sainte-Thérèse;Côte Terrebonne / rue Georges-VI
247447837;"{\"type\":\"LineString\",\"coordinates\":[[-73.8163819,45.632666],[-73.8152548,45.6321845],[-73.8149018,45.6320047],[-73.8146417,45.6318687]]}";7;Boulevard Curé-Labelle;2;60;false;true;true;false;false;false;81.5;1;0;0;0;0;false;82037;6119525315;-73.823082;45.634429;82038;6119525314;-73.81567;45.632109;1;3;4;9391234;Bus 22 : BOIS-DES-FILION / VIA GEORGES IV;"";EXO;22 E;Gare Sainte-Thérèse;Côte Terrebonne / rue Georges-VI
247447837;"{\"type\":\"LineString\",\"coordinates\":[[-73.8163819,45.632666],[-73.8152548,45.6321845],[-73.8149018,45.6320047],[-73.8146417,45.6318687]]}";1;Boulevard Curé-Labelle;2;60;false;true;true;false;false;false;81.5;1;0;0;0;0;false;82038;6119525314;-73.81567;45.632109;82039;6119525313;-73.812467;45.630359;1;4;5;9391234;Bus 22 : BOIS-DES-FILION / VIA GEORGES IV;"";EXO;22 E;Gare Sainte-Thérèse;Côte Terrebonne / rue Georges-VI
455451815;"{\"type\":\"LineString\",\"coordinates\":[[-73.8146417,45.6318687],[-73.8139963,45.6314839]]}";2;Boulevard Curé-Labelle;2;60;false;true;true;false;false;false;66.0;0;0;0;0;0;false;82038;6119525314;-73.81567;45.632109;82039;6119525313;-73.812467;45.630359;0;4;5;9391234;Bus 22 : BOIS-DES-FILION / VIA GEORGES IV;"";EXO;22 E;Gare Sainte-Thérèse;Côte Terrebonne / rue Georges-VI
455451812;"{\"type\":\"LineString\",\"coordinates\":[[-73.8139963,45.6314839],[-73.8138639,45.6314076]]}";3;Boulevard Curé-Labelle;2;60;false;true;true;false;false;false;14.0;1;0;0;0;0;false;82038;6119525314;-73.81567;45.632109;82039;6119525313;-73.812467;45.630359;0;4;5;9391234;Bus 22 : BOIS-DES-FILION / VIA GEORGES IV;"";EXO;22 E;Gare Sainte-Thérèse;Côte Terrebonne / rue Georges-VI
455451818;"{\"type\":\"LineString\",\"coordinates\":[[-73.8138639,45.6314076],[-73.8123612,45.630431]]}";4;Boulevard Curé-Labelle;2;60;false;true;true;false;false;false;80.0;1;0;0;0;0;false;82038;6119525314;-73.81567;45.632109;82039;6119525313;-73.812467;45.630359;1;4;5;9391234;Bus 22 : BOIS-DES-FILION / VIA GEORGES IV;"";EXO;22 E;Gare Sainte-Thérèse;Côte Terrebonne / rue Georges-VI
545998054;"{\"type\":\"LineString\",\"coordinates\":[[-73.8123612,45.630431],[-73.8114277,45.6298039]]}";1;Boulevard Curé-Labelle;2;60;false;true;true;false;false;false;101.0;0;0;0;0;0;false;82039;6119525313;-73.812467;45.630359;82040;6119525312;-73.80926;45.628279;2;5;6;9391234;Bus 22 : BOIS-DES-FILION / VIA GEORGES IV;"";EXO;22 E;Gare Sainte-Thérèse;Côte Terrebonne / rue Georges-VI
545998053;"{\"type\":\"LineString\",\"coordinates\":[[-73.8114277,45.6298039],[-73.8105611,45.6292097],[-73.8091689,45.628255]]}";2;Boulevard Curé-Labelle;2;60;false;true;true;false;false;false;247.0;1;0;0;0;0;false;82039;6119525313;-73.812467;45.630359;82040;6119525312;-73.80926;45.628279;2;5;6;9391234;Bus 22 : BOIS-DES-FILION / VIA GEORGES IV;"";EXO;22 E;Gare Sainte-Thérèse;Côte Terrebonne / rue Georges-VI
455100377;"{\"type\":\"LineString\",\"coordinates\":[[-73.8091689,45.628255],[-73.8089578,45.6281176]]}";1;Boulevard Curé-Labelle;2;60;false;true;true;false;false;false;23.0;1;0;0;0;0;false;82040;6119525312;-73.80926;45.628279;82041;6119525311;-73.803708;45.624723;2;6;7;9391234;Bus 22 : BOIS-DES-FILION / VIA GEORGES IV;"";EXO;22 E;Gare Sainte-Thérèse;Côte Terrebonne / rue Georges-VI
233925636;"{\"type\":\"LineString\",\"coordinates\":[[-73.8089578,45.6281176],[-73.8087668,45.6279864],[-73.8086385,45.6278961]]}";2;Boulevard Curé-Labelle;2;60;false;true;true;false;false;false;35.0;0;0;0;0;0;false;82040;6119525312;-73.80926;45.628279;82041;6119525311;-73.803708;45.624723;0;6;7;9391234;Bus 22 : BOIS-DES-FILION / VIA GEORGES IV;"";EXO;22 E;Gare Sainte-Thérèse;Côte Terrebonne / rue Georges-VI
233925635;"{\"type\":\"LineString\",\"coordinates\":[[-73.8086385,45.6278961],[-73.8082597,45.6276403],[-73.8079945,45.62747],[-73.8050622,45.6255878],[-73.8046964,45.625353],[-73.8042522,45.6250679],[-73.8039777,45.6248917],[-73.803727,45.6247307],[-73.8031595,45.6243665]]}";3;Boulevard Curé-Labelle;2;60;false;true;true;false;false;false;580.0;0;0;0;0;0;false;82040;6119525312;-73.80926;45.628279;82041;6119525311;-73.803708;45.624723;2;6;7;9391234;Bus 22 : BOIS-DES-FILION / VIA GEORGES IV;"";EXO;22 E;Gare Sainte-Thérèse;Côte Terrebonne / rue Georges-VI
233925635;"{\"type\":\"LineString\",\"coordinates\":[[-73.8086385,45.6278961],[-73.8082597,45.6276403],[-73.8079945,45.62747],[-73.8050622,45.6255878],[-73.8046964,45.625353],[-73.8042522,45.6250679],[-73.8039777,45.6248917],[-73.803727,45.6247307],[-73.8031595,45.6243665]]}";1;Boulevard Curé-Labelle;2;60;false;true;true;false;false;false;290.0;0;0;0;0;0;false;82041;6119525311;-73.803708;45.624723;82042;6119525310;-73.801878;45.624885;1;7;8;9391234;Bus 22 : BOIS-DES-FILION / VIA GEORGES IV;"";EXO;22 E;Gare Sainte-Thérèse;Côte Terrebonne / rue Georges-VI
455283562;"{\"type\":\"LineString\",\"coordinates\":[[-73.8031595,45.6243665],[-73.8027447,45.6241047]]}";2;Boulevard Curé-Labelle;2;60;false;true;true;false;false;false;44.0;1;0;0;0;0;false;82041;6119525311;-73.803708;45.624723;82042;6119525310;-73.801878;45.624885;0;7;8;9391234;Bus 22 : BOIS-DES-FILION / VIA GEORGES IV;"";EXO;22 E;Gare Sainte-Thérèse;Côte Terrebonne / rue Georges-VI
455283558;"{\"type\":\"LineString\",\"coordinates\":[[-73.8026784,45.6241811],[-73.8027447,45.6241047]]}";3;Chemin de la Grande-Côte;1;50;false;false;true;false;false;false;10.0;2;0;0;0;0;false;82041;6119525311;-73.803708;45.624723;82042;6119525310;-73.801878;45.624885;0;7;8;9391234;Bus 22 : BOIS-DES-FILION / VIA GEORGES IV;"";EXO;22 E;Gare Sainte-Thérèse;Côte Terrebonne / rue Georges-VI
455283544;"{\"type\":\"LineString\",\"coordinates\":[[-73.8024601,45.6244661],[-73.8026784,45.6241811]]}";4;Chemin de la Grande-Côte;1;50;false;false;true;false;false;false;36.0;1;0;0;0;0;false;82041;6119525311;-73.803708;45.624723;82042;6119525310;-73.801878;45.624885;0;7;8;9391234;Bus 22 : BOIS-DES-FILION / VIA GEORGES IV;"";EXO;22 E;Gare Sainte-Thérèse;Côte Terrebonne / rue Georges-VI
233961918;"{\"type\":\"LineString\",\"coordinates\":[[-73.8009241,45.6263062],[-73.8019652,45.6250676],[-73.8022745,45.6247216],[-73.8024601,45.6244661]]}";5;Chemin de la Grande-Côte;1;50;false;false;true;false;false;false;118.5;0;0;0;0;0;false;82041;6119525311;-73.803708;45.624723;82042;6119525310;-73.801878;45.624885;1;7;8;9391234;Bus 22 : BOIS-DES-FILION / VIA GEORGES IV;"";EXO;22 E;Gare Sainte-Thérèse;Côte Terrebonne / rue Georges-VI
233961917;"{\"type\":\"LineString\",\"coordinates\":[[-73.8005921,45.6266618],[-73.8009241,45.6263062]]}";1;Chemin de la Grande-Côte;1;50;false;false;true;false;false;false;48.0;0;0;0;0;0;false;83106;6119523015;-73.80088;45.626135;82043;6119525309;-73.798641;45.628226;2;9;10;9391234;Bus 22 : BOIS-DES-FILION / VIA GEORGES IV;"";EXO;22 E;Gare Sainte-Thérèse;Côte Terrebonne / rue Georges-VI
429298858;"{\"type\":\"LineString\",\"coordinates\":[[-73.7981683,45.6287654],[-73.7986712,45.6283655],[-73.7990183,45.6280895],[-73.7991991,45.6279574],[-73.7997257,45.6275228],[-73.8003185,45.6269363],[-73.8005921,45.6266618]]}";2;Chemin de la Grande-Côte;1;50;false;false;true;false;false;false;301.0;0;0;0;0;0;false;83106;6119523015;-73.80088;45.626135;82043;6119525309;-73.798641;45.628226;2;9;10;9391234;Bus 22 : BOIS-DES-FILION / VIA GEORGES IV;"";EXO;22 E;Gare Sainte-Thérèse;Côte Terrebonne / rue Georges-VI
429298858;"{\"type\":\"LineString\",\"coordinates\":[[-73.7981683,45.6287654],[-73.7986712,45.6283655],[-73.7990183,45.6280895],[-73.7991991,45.6279574],[-73.7997257,45.6275228],[-73.8003185,45.6269363],[-73.8005921,45.6266618]]}";1;Chemin de la Grande-Côte;1;50;false;false;true;false;false;false;150.5;0;0;0;0;0;false;82043;6119525309;-73.798641;45.628226;82044;6119525308;-73.797037;45.629623;1;10;11;9391234;Bus 22 : BOIS-DES-FILION / VIA GEORGES IV;"";EXO;22 E;Gare Sainte-Thérèse;Côte Terrebonne / rue Georges-VI
233963080;"{\"type\":\"LineString\",\"coordinates\":[[-73.7970317,45.6296964],[-73.7981,45.628817],[-73.7981683,45.6287654]]}";2;Chemin de la Grande-Côte;1;50;false;false;true;false;false;false;68.5;0;0;0;0;0;false;82043;6119525309;-73.798641;45.628226;82044;6119525308;-73.797037;45.629623;1;10;11;9391234;Bus 22 : BOIS-DES-FILION / VIA GEORGES IV;"";EXO;22 E;Gare Sainte-Thérèse;Côte Terrebonne / rue Georges-VI
674530023;"{\"type\":\"LineString\",\"coordinates\":[[-73.796317,45.630393],[-73.796805,45.629883],[-73.7970317,45.6296964]]}";1;Chemin de la Grande-Côte;1;50;false;false;true;false;false;false;96.0;0;0;0;0;0;false;82044;6119525308;-73.797037;45.629623;82045;6119525307;-73.795717;45.630922;2;11;12;9391234;Bus 22 : BOIS-DES-FILION / VIA GEORGES IV;"";EXO;22 E;Gare Sainte-Thérèse;Côte Terrebonne / rue Georges-VI
674529998;"{\"type\":\"LineString\",\"coordinates\":[[-73.7957612,45.631079],[-73.79601,45.630723],[-73.7962914,45.6304257],[-73.796317,45.630393]]}";2;Chemin de la Grande-Côte;1;50;false;false;true;false;false;false;88.0;0;0;0;0;0;false;82044;6119525308;-73.797037;45.629623;82045;6119525307;-73.795717;45.630922;2;11;12;9391234;Bus 22 : BOIS-DES-FILION / VIA GEORGES IV;"";EXO;22 E;Gare Sainte-Thérèse;Côte Terrebonne / rue Georges-VI
672535506;"{\"type\":\"LineString\",\"coordinates\":[[-73.7946234,45.6329899],[-73.7948064,45.6325294],[-73.7949563,45.6322699],[-73.794995,45.632192],[-73.7952568,45.6318],[-73.7953186,45.6317105],[-73.7957612,45.631079]]}";1;Chemin de la Grande-Côte;1;50;false;false;true;false;false;false;231.0;1;0;0;0;0;false;82045;6119525307;-73.795717;45.630922;82046;6119525306;-73.794314;45.633882;2;12;13;9391234;Bus 22 : BOIS-DES-FILION / VIA GEORGES IV;"";EXO;22 E;Gare Sainte-Thérèse;Côte Terrebonne / rue Georges-VI
676044667;"{\"type\":\"LineString\",\"coordinates\":[[-73.7944986,45.6344297],[-73.7945365,45.6341827],[-73.7945553,45.633982],[-73.7945569,45.633927],[-73.7945676,45.6338169],[-73.7945749,45.6337153],[-73.7946234,45.6329899]]}";2;Chemin de la Grande-Côte;1;50;false;false;true;false;false;false;161.0;3;0;0;0;0;false;82045;6119525307;-73.795717;45.630922;82046;6119525306;-73.794314;45.633882;2;12;13;9391234;Bus 22 : BOIS-DES-FILION / VIA GEORGES IV;"";EXO;22 E;Gare Sainte-Thérèse;Côte Terrebonne / rue Georges-VI
676044667;"{\"type\":\"LineString\",\"coordinates\":[[-73.7944986,45.6344297],[-73.7945365,45.6341827],[-73.7945553,45.633982],[-73.7945569,45.633927],[-73.7945676,45.6338169],[-73.7945749,45.6337153],[-73.7946234,45.6329899]]}";1;Chemin de la Grande-Côte;1;50;false;false;true;false;false;false;80.5;3;0;0;0;0;false;82046;6119525306;-73.794314;45.633882;82047;6119525305;-73.793851;45.635389;1;13;14;9391234;Bus 22 : BOIS-DES-FILION / VIA GEORGES IV;"";EXO;22 E;Gare Sainte-Thérèse;Côte Terrebonne / rue Georges-VI
676044664;"{\"type\":\"LineString\",\"coordinates\":[[-73.7943202,45.6349699],[-73.7943629,45.6348775],[-73.7944134,45.6347539],[-73.7944586,45.6345671],[-73.7944986,45.6344297]]}";2;Chemin de la Grande-Côte;1;50;false;false;true;false;false;false;62.0;0;0;0;0;0;false;82046;6119525306;-73.794314;45.633882;82047;6119525305;-73.793851;45.635389;0;13;14;9391234;Bus 22 : BOIS-DES-FILION / VIA GEORGES IV;"";EXO;22 E;Gare Sainte-Thérèse;Côte Terrebonne / rue Georges-VI
242287921;"{\"type\":\"LineString\",\"coordinates\":[[-73.7874745,45.639801],[-73.788283,45.63899],[-73.7886571,45.6387111],[-73.788833,45.63858],[-73.7896171,45.6381408],[-73.7906318,45.637603],[-73.7916365,45.6370573],[-73.7923418,45.6366545],[-73.7927565,45.6364177],[-73.7930781,45.636234],[-73.7932277,45.6361488],[-73.7935918,45.6359297],[-73.7938865,45.6356319],[-73.7940888,45.6353885],[-73.7943202,45.6349699]]}";3;Chemin de la Grande-Côte;1;50;false;false;true;false;false;false;384.0;0;0;0;0;0;false;82046;6119525306;-73.794314;45.633882;82047;6119525305;-73.793851;45.635389;1;13;14;9391234;Bus 22 : BOIS-DES-FILION / VIA GEORGES IV;"";EXO;22 E;Gare Sainte-Thérèse;Côte Terrebonne / rue Georges-VI
242287921;"{\"type\":\"LineString\",\"coordinates\":[[-73.7874745,45.639801],[-73.788283,45.63899],[-73.7886571,45.6387111],[-73.788833,45.63858],[-73.7896171,45.6381408],[-73.7906318,45.637603],[-73.7916365,45.6370573],[-73.7923418,45.6366545],[-73.7927565,45.6364177],[-73.7930781,45.636234],[-73.7932277,45.6361488],[-73.7935918,45.6359297],[-73.7938865,45.6356319],[-73.7940888,45.6353885],[-73.7943202,45.6349699]]}";1;Chemin de la Grande-Côte;1;50;false;false;true;false;false;false;384.0;0;0;0;0;0;false;82050;6119525302;-73.78748;45.639531;82051;6119525301;-73.785438;45.641121;1;17;18;9391234;Bus 22 : BOIS-DES-FILION / VIA GEORGES IV;"";EXO;22 E;Gare Sainte-Thérèse;Côte Terrebonne / rue Georges-VI
483202443;"{\"type\":\"LineString\",\"coordinates\":[[-73.7871641,45.6399495],[-73.7874083,45.6398327],[-73.7874745,45.639801]]}";2;Chemin de la Grande-Côte;1;50;false;false;true;false;false;false;30.0;0;0;0;0;0;false;82050;6119525302;-73.78748;45.639531;82051;6119525301;-73.785438;45.641121;0;17;18;9391234;Bus 22 : BOIS-DES-FILION / VIA GEORGES IV;"";EXO;22 E;Gare Sainte-Thérèse;Côte Terrebonne / rue Georges-VI
483202444;"{\"type\":\"LineString\",\"coordinates\":[[-73.7807874,45.6460303],[-73.7817712,45.6450052],[-73.7827587,45.6440705],[-73.783072,45.643725],[-73.7831515,45.643645],[-73.7836041,45.643197],[-73.7839779,45.6428386],[-73.7839797,45.6428281],[-73.7844544,45.642353],[-73.7848704,45.6419502],[-73.7852,45.641613],[-73.7854971,45.6413096],[-73.7858659,45.6408849],[-73.786363,45.640353],[-73.786474,45.6402813],[-73.786592,45.640205],[-73.7871641,45.6399495]]}";3;Chemin de la Grande-Côte;1;50;false;false;true;false;false;false;422.0;0;0;1;0;0;false;82050;6119525302;-73.78748;45.639531;82051;6119525301;-73.785438;45.641121;1;17;18;9391234;Bus 22 : BOIS-DES-FILION / VIA GEORGES IV;"";EXO;22 E;Gare Sainte-Thérèse;Côte Terrebonne / rue Georges-VI
483202444;"{\"type\":\"LineString\",\"coordinates\":[[-73.7807874,45.6460303],[-73.7817712,45.6450052],[-73.7827587,45.6440705],[-73.783072,45.643725],[-73.7831515,45.643645],[-73.7836041,45.643197],[-73.7839779,45.6428386],[-73.7839797,45.6428281],[-73.7844544,45.642353],[-73.7848704,45.6419502],[-73.7852,45.641613],[-73.7854971,45.6413096],[-73.7858659,45.6408849],[-73.786363,45.640353],[-73.786474,45.6402813],[-73.786592,45.640205],[-73.7871641,45.6399495]]}";1;Chemin de la Grande-Côte;1;50;false;false;true;false;false;false;422.0;0;0;1;0;0;false;82055;6119525297;-73.7808;45.645829;82056;6119525296;-73.778633;45.648343;1;22;23;9391234;Bus 22 : BOIS-DES-FILION / VIA GEORGES IV;"";EXO;22 E;Gare Sainte-Thérèse;Côte Terrebonne / rue Georges-VI
128322005;"{\"type\":\"LineString\",\"coordinates\":[[-73.7779984,45.6492486],[-73.7782397,45.6489796],[-73.7786071,45.6485459],[-73.779131,45.6479208],[-73.7799574,45.6469463],[-73.7802617,45.646612],[-73.7804429,45.6464129],[-73.7807874,45.6460303]]}";2;Chemin de la Grande-Côte;1;50;false;false;true;false;false;false;209.5;0;0;1;0;0;false;82055;6119525297;-73.7808;45.645829;82056;6119525296;-73.778633;45.648343;1;22;23;9391234;Bus 22 : BOIS-DES-FILION / VIA GEORGES IV;"";EXO;22 E;Gare Sainte-Thérèse;Côte Terrebonne / rue Georges-VI
128322005;"{\"type\":\"LineString\",\"coordinates\":[[-73.7779984,45.6492486],[-73.7782397,45.6489796],[-73.7786071,45.6485459],[-73.779131,45.6479208],[-73.7799574,45.6469463],[-73.7802617,45.646612],[-73.7804429,45.6464129],[-73.7807874,45.6460303]]}";1;Chemin de la Grande-Côte;1;50;false;false;true;false;false;false;209.5;0;0;1;0;0;false;82056;6119525296;-73.778633;45.648343;82057;6119525295;-73.775571;45.65098;1;23;24;9391234;Bus 22 : BOIS-DES-FILION / VIA GEORGES IV;"";EXO;22 E;Gare Sainte-Thérèse;Côte Terrebonne / rue Georges-VI
455285362;"{\"type\":\"LineString\",\"coordinates\":[[-73.7777258,45.6495237],[-73.7779984,45.6492486]]}";2;Chemin de la Grande-Côte;1;50;false;false;true;false;false;false;38.0;1;0;0;0;0;false;82056;6119525296;-73.778633;45.648343;82057;6119525295;-73.775571;45.65098;0;23;24;9391234;Bus 22 : BOIS-DES-FILION / VIA GEORGES IV;"";EXO;22 E;Gare Sainte-Thérèse;Côte Terrebonne / rue Georges-VI
455285363;"{\"type\":\"LineString\",\"coordinates\":[[-73.7773296,45.649829],[-73.7777258,45.6495237]]}";3;Chemin de la Grande-Côte;1;50;false;false;true;false;false;false;46.0;1;0;0;0;0;false;82056;6119525296;-73.778633;45.648343;82057;6119525295;-73.775571;45.65098;0;23;24;9391234;Bus 22 : BOIS-DES-FILION / VIA GEORGES IV;"";EXO;22 E;Gare Sainte-Thérèse;Côte Terrebonne / rue Georges-VI
455285361;"{\"type\":\"LineString\",\"coordinates\":[[-73.775853,45.6510155],[-73.7773296,45.649829]]}";4;Chemin de la Grande-Côte;1;50;false;false;true;false;false;false;175.0;0;0;0;0;0;false;82056;6119525296;-73.778633;45.648343;82057;6119525295;-73.775571;45.65098;0;23;24;9391234;Bus 22 : BOIS-DES-FILION / VIA GEORGES IV;"";EXO;22 E;Gare Sainte-Thérèse;Côte Terrebonne / rue Georges-VI
128322011;"{\"type\":\"LineString\",\"coordinates\":[[-73.7742017,45.6523018],[-73.7747783,45.6519167],[-73.775252,45.6515051],[-73.775853,45.6510155]]}";5;Chemin de la Grande-Côte;2;50;false;false;true;false;false;false;96.5;0;0;0;0;0;false;82056;6119525296;-73.778633;45.648343;82057;6119525295;-73.775571;45.65098;1;23;24;9391234;Bus 22 : BOIS-DES-FILION / VIA GEORGES IV;"";EXO;22 E;Gare Sainte-Thérèse;Côte Terrebonne / rue Georges-VI
209050638;"{\"type\":\"LineString\",\"coordinates\":[[-73.7718618,45.6552908],[-73.7720294,45.6551162],[-73.772197,45.6548947],[-73.7724059,45.6545723],[-73.7725835,45.6542647],[-73.7726111,45.6542093],[-73.7727437,45.6539167],[-73.773015,45.6533282],[-73.7731286,45.6531378],[-73.7733481,45.652886],[-73.7737444,45.652567],[-73.7742017,45.6523018]]}";1;Chemin de la Grande-Côte;1;50;false;false;false;false;false;false;193.0;0;0;0;0;0;false;82440;6119524174;-73.772546;45.654038;82058;6119525294;-73.771401;45.655496;1;26;27;9391234;Bus 22 : BOIS-DES-FILION / VIA GEORGES IV;"";EXO;22 E;Gare Sainte-Thérèse;Côte Terrebonne / rue Georges-VI
209050637;"{\"type\":\"LineString\",\"coordinates\":[[-73.7715861,45.655525],[-73.7718618,45.6552908]]}";2;Chemin de la Grande-Côte;2;50;false;false;false;false;false;false;34.0;0;0;0;0;0;false;82440;6119524174;-73.772546;45.654038;82058;6119525294;-73.771401;45.655496;0;26;27;9391234;Bus 22 : BOIS-DES-FILION / VIA GEORGES IV;"";EXO;22 E;Gare Sainte-Thérèse;Côte Terrebonne / rue Georges-VI
40778179;"{\"type\":\"LineString\",\"coordinates\":[[-73.7713577,45.655725],[-73.7715861,45.655525]]}";3;Chemin de la Grande-Côte;1;50;false;false;false;false;false;false;14.5;0;0;1;0;0;false;82440;6119524174;-73.772546;45.654038;82058;6119525294;-73.771401;45.655496;1;26;27;9391234;Bus 22 : BOIS-DES-FILION / VIA GEORGES IV;"";EXO;22 E;Gare Sainte-Thérèse;Côte Terrebonne / rue Georges-VI
209050637;"{\"type\":\"LineString\",\"coordinates\":[[-73.7715861,45.655525],[-73.7718618,45.6552908]]}";1;Chemin de la Grande-Côte;2;50;false;false;false;false;false;false;34.0;0;0;0;0;0;false;82058;6119525294;-73.771401;45.655496;82059;6119525293;-73.769049;45.657529;2;27;28;9391234;Bus 22 : BOIS-DES-FILION / VIA GEORGES IV;"";EXO;22 E;Gare Sainte-Thérèse;Côte Terrebonne / rue Georges-VI
40778179;"{\"type\":\"LineString\",\"coordinates\":[[-73.7713577,45.655725],[-73.7715861,45.655525]]}";2;Chemin de la Grande-Côte;1;50;false;false;false;false;false;false;29.0;0;0;1;0;0;false;82058;6119525294;-73.771401;45.655496;82059;6119525293;-73.769049;45.657529;0;27;28;9391234;Bus 22 : BOIS-DES-FILION / VIA GEORGES IV;"";EXO;22 E;Gare Sainte-Thérèse;Côte Terrebonne / rue Georges-VI
128322018;"{\"type\":\"LineString\",\"coordinates\":[[-73.7712727,45.6558361],[-73.7713577,45.655725]]}";3;Boulevard Adolphe-Chapleau;1;50;false;false;false;false;false;false;15.0;0;0;2;0;0;false;82058;6119525294;-73.771401;45.655496;82059;6119525293;-73.769049;45.657529;0;27;28;9391234;Bus 22 : BOIS-DES-FILION / VIA GEORGES IV;"";EXO;22 E;Gare Sainte-Thérèse;Côte Terrebonne / rue Georges-VI
810096319;"{\"type\":\"LineString\",\"coordinates\":[[-73.7608808,45.6641709],[-73.7609481,45.6641164],[-73.7615148,45.663662],[-73.7618251,45.6634158],[-73.7620432,45.6631667],[-73.762261,45.6628607],[-73.7624776,45.6625038],[-73.7625818,45.6622974],[-73.7627151,45.6620701],[-73.7628931,45.6618576],[-73.7631112,45.6617038],[-73.7632485,45.6616069],[-73.7636328,45.6613357],[-73.7641244,45.6610057],[-73.7642708,45.6609481],[-73.764436,45.6609034],[-73.7649547,45.6607649],[-73.7652647,45.6606783],[-73.76566,45.6604922],[-73.7665113,45.6599845],[-73.766903,45.6597039],[-73.7671726,45.659463],[-73.7675075,45.6590823],[-73.767974,45.6585183],[-73.7681207,45.6583506],[-73.7684524,45.6579711],[-73.768573,45.6578851],[-73.7688836,45.6577132],[-73.7690151,45.6576494],[-73.7698605,45.6572692],[-73.7702211,45.6570359],[-73.770485,45.6568045],[-73.7709834,45.6561898],[-73.7712727,45.6558361]]}";4;Boulevard Adolphe-Chapleau;1;50;false;false;false;false;false;false;1260.0;0;0;1;0;0;false;82058;6119525294;-73.771401;45.655496;82059;6119525293;-73.769049;45.657529;2;27;28;9391234;Bus 22 : BOIS-DES-FILION / VIA GEORGES IV;"";EXO;22 E;Gare Sainte-Thérèse;Côte Terrebonne / rue Georges-VI
810096319;"{\"type\":\"LineString\",\"coordinates\":[[-73.7608808,45.6641709],[-73.7609481,45.6641164],[-73.7615148,45.663662],[-73.7618251,45.6634158],[-73.7620432,45.6631667],[-73.762261,45.6628607],[-73.7624776,45.6625038],[-73.7625818,45.6622974],[-73.7627151,45.6620701],[-73.7628931,45.6618576],[-73.7631112,45.6617038],[-73.7632485,45.6616069],[-73.7636328,45.6613357],[-73.7641244,45.6610057],[-73.7642708,45.6609481],[-73.764436,45.6609034],[-73.7649547,45.6607649],[-73.7652647,45.6606783],[-73.76566,45.6604922],[-73.7665113,45.6599845],[-73.766903,45.6597039],[-73.7671726,45.659463],[-73.7675075,45.6590823],[-73.767974,45.6585183],[-73.7681207,45.6583506],[-73.7684524,45.6579711],[-73.768573,45.6578851],[-73.7688836,45.6577132],[-73.7690151,45.6576494],[-73.7698605,45.6572692],[-73.7702211,45.6570359],[-73.770485,45.6568045],[-73.7709834,45.6561898],[-73.7712727,45.6558361]]}";1;Boulevard Adolphe-Chapleau;1;50;false;false;false;false;false;false;630.0;0;0;1;0;0;false;82062;6119525290;-73.760847;45.663983;82007;6119525345;-73.758325;45.666272;1;31;32;9391234;Bus 22 : BOIS-DES-FILION / VIA GEORGES IV;"";EXO;22 E;Gare Sainte-Thérèse;Côte Terrebonne / rue Georges-VI
135457792;"{\"type\":\"LineString\",\"coordinates\":[[-73.7602989,45.6646385],[-73.7608808,45.6641709]]}";2;Boulevard Adolphe-Chapleau;1;50;false;false;true;false;false;false;69.0;1;0;0;0;0;false;82062;6119525290;-73.760847;45.663983;82007;6119525345;-73.758325;45.666272;0;31;32;9391234;Bus 22 : BOIS-DES-FILION / VIA GEORGES IV;"";EXO;22 E;Gare Sainte-Thérèse;Côte Terrebonne / rue Georges-VI
455285367;"{\"type\":\"LineString\",\"coordinates\":[[-73.7602989,45.6646385],[-73.7598273,45.6650229]]}";3;Grande-Côte;1;50;false;true;true;false;false;false;57.0;1;0;0;0;0;false;82062;6119525290;-73.760847;45.663983;82007;6119525345;-73.758325;45.666272;0;31;32;9391234;Bus 22 : BOIS-DES-FILION / VIA GEORGES IV;"";EXO;22 E;Gare Sainte-Thérèse;Côte Terrebonne / rue Georges-VI
455285366;"{\"type\":\"LineString\",\"coordinates\":[[-73.7598273,45.6650229],[-73.7595361,45.6652846]]}";4;Grande-Côte;1;50;false;true;true;false;false;false;37.0;1;0;0;0;0;false;82062;6119525290;-73.760847;45.663983;82007;6119525345;-73.758325;45.666272;0;31;32;9391234;Bus 22 : BOIS-DES-FILION / VIA GEORGES IV;"";EXO;22 E;Gare Sainte-Thérèse;Côte Terrebonne / rue Georges-VI
455285364;"{\"type\":\"LineString\",\"coordinates\":[[-73.7595361,45.6652846],[-73.759437,45.6653737]]}";5;Grande-Côte;1;50;false;true;true;false;false;false;13.0;2;0;0;0;0;false;82062;6119525290;-73.760847;45.663983;82007;6119525345;-73.758325;45.666272;0;31;32;9391234;Bus 22 : BOIS-DES-FILION / VIA GEORGES IV;"";EXO;22 E;Gare Sainte-Thérèse;Côte Terrebonne / rue Georges-VI
455285365;"{\"type\":\"LineString\",\"coordinates\":[[-73.759437,45.6653737],[-73.7590709,45.6657027]]}";6;Boulevard Adolphe-Chapleau;1;50;false;true;true;false;false;false;47.0;1;0;0;0;0;false;82062;6119525290;-73.760847;45.663983;82007;6119525345;-73.758325;45.666272;0;31;32;9391234;Bus 22 : BOIS-DES-FILION / VIA GEORGES IV;"";EXO;22 E;Gare Sainte-Thérèse;Côte Terrebonne / rue Georges-VI
32640731;"{\"type\":\"LineString\",\"coordinates\":[[-73.7590709,45.6657027],[-73.7588911,45.6658932],[-73.7587361,45.6660575],[-73.7583516,45.6664649]]}";7;Boulevard Adolphe-Chapleau;1;50;false;true;true;false;false;false;51.0;0;0;0;0;0;false;82062;6119525290;-73.760847;45.663983;82007;6119525345;-73.758325;45.666272;1;31;32;9391234;Bus 22 : BOIS-DES-FILION / VIA GEORGES IV;"";EXO;22 E;Gare Sainte-Thérèse;Côte Terrebonne / rue Georges-VI
32640731;"{\"type\":\"LineString\",\"coordinates\":[[-73.7590709,45.6657027],[-73.7588911,45.6658932],[-73.7587361,45.6660575],[-73.7583516,45.6664649]]}";1;Boulevard Adolphe-Chapleau;1;50;false;true;true;false;false;false;51.0;0;0;0;0;0;false;82007;6119525345;-73.758325;45.666272;82065;6119525287;-73.755964;45.668512;1;32;33;9391234;Bus 22 : BOIS-DES-FILION / VIA GEORGES IV;"";EXO;22 E;Gare Sainte-Thérèse;Côte Terrebonne / rue Georges-VI
135457795;"{\"type\":\"LineString\",\"coordinates\":[[-73.7583516,45.6664649],[-73.7579637,45.666819],[-73.7577684,45.6669972],[-73.7572579,45.6674477],[-73.7566786,45.6679732],[-73.7559467,45.6686943],[-73.7554041,45.6691914],[-73.7552876,45.6693225],[-73.7548943,45.6699407],[-73.7544956,45.6706148],[-73.7544176,45.670742],[-73.7542929,45.6709506],[-73.7539362,45.6714833],[-73.7537696,45.671718],[-73.753609,45.6718802],[-73.7533971,45.6720067],[-73.7531632,45.672095],[-73.7528545,45.6722143],[-73.7523737,45.6723718],[-73.7520119,45.6724875],[-73.7513934,45.6727334],[-73.7513141,45.6727642],[-73.7512608,45.6727902],[-73.7502594,45.6733504],[-73.7501693,45.6734055],[-73.7501292,45.67343]]}";2;Boulevard Adolphe-Chapleau;2;50;false;false;true;false;false;false;516.5;1;0;0;0;0;false;82007;6119525345;-73.758325;45.666272;82065;6119525287;-73.755964;45.668512;1;32;33;9391234;Bus 22 : BOIS-DES-FILION / VIA GEORGES IV;"";EXO;22 E;Gare Sainte-Thérèse;Côte Terrebonne / rue Georges-VI
135457795;"{\"type\":\"LineString\",\"coordinates\":[[-73.7583516,45.6664649],[-73.7579637,45.666819],[-73.7577684,45.6669972],[-73.7572579,45.6674477],[-73.7566786,45.6679732],[-73.7559467,45.6686943],[-73.7554041,45.6691914],[-73.7552876,45.6693225],[-73.7548943,45.6699407],[-73.7544956,45.6706148],[-73.7544176,45.670742],[-73.7542929,45.6709506],[-73.7539362,45.6714833],[-73.7537696,45.671718],[-73.753609,45.6718802],[-73.7533971,45.6720067],[-73.7531632,45.672095],[-73.7528545,45.6722143],[-73.7523737,45.6723718],[-73.7520119,45.6724875],[-73.7513934,45.6727334],[-73.7513141,45.6727642],[-73.7512608,45.6727902],[-73.7502594,45.6733504],[-73.7501693,45.6734055],[-73.7501292,45.67343]]}";1;Boulevard Adolphe-Chapleau;2;50;false;false;true;false;false;false;516.5;1;0;0;0;0;false;82069;6119525283;-73.750168;45.673205;82854;6119523275;-73.74919;45.673866;1;37;38;9391234;Bus 22 : BOIS-DES-FILION / VIA GEORGES IV;"";EXO;22 E;Gare Sainte-Thérèse;Côte Terrebonne / rue Georges-VI
104530242;"{\"type\":\"LineString\",\"coordinates\":[[-73.7501292,45.67343],[-73.7498188,45.6736269],[-73.7496517,45.6737328],[-73.7495432,45.6738016],[-73.7492286,45.6740025],[-73.7491808,45.674033]]}";2;Boulevard Adolphe-Chapleau;2;50;false;false;false;false;false;false;50.0;0;0;0;0;0;false;82069;6119525283;-73.750168;45.673205;82854;6119523275;-73.74919;45.673866;1;37;38;9391234;Bus 22 : BOIS-DES-FILION / VIA GEORGES IV;"";EXO;22 E;Gare Sainte-Thérèse;Côte Terrebonne / rue Georges-VI
