way_id;shape;index;name;nb_lanes;legal_speed;speed_zone_30;oneway;shares_bike;bike_box;bus_lane;dedicated_bus_lane;length;nb_traffic_signals;nb_crossings;nb_stops;nb_give_ways;nb_lvl_crossings;roundabout;stop_id_orig;node_id_orig;coord_x_orig;coord_y_orig;stop_id_dest;node_id_dest;coord_x_dest;coord_y_dest;nb_neighbouring_ways_bus_stop;ordre_orig;ordre_dest;id_line;line_name;colour;operator;ref;from;to
453994595;"{\"type\":\"LineString\",\"coordinates\":[[-73.6187354,45.4787699],[-73.6190038,45.4789002]]}";1;Boulevard Décarie;1;50;false;false;true;false;false;false;26.0;0;0;0;0;0;false;51242;7431218640;-73.618842;45.478888;51327;6010976732;-73.615492;45.476966;1;0;1;4588171;Bus 24 : Sherbrooke Est;"";STM;24-E;Décarie / Brillon;Montgomery / Sherbrooke
453994596;"{\"type\":\"LineString\",\"coordinates\":[[-73.6178842,45.4783813],[-73.6187354,45.4787699]]}";2;Boulevard Décarie;1;50;false;false;true;false;false;false;80.0;0;0;0;0;0;false;51242;7431218640;-73.618842;45.478888;51327;6010976732;-73.615492;45.476966;0;0;1;4588171;Bus 24 : Sherbrooke Est;"";STM;24-E;Décarie / Brillon;Montgomery / Sherbrooke
463869045;"{\"type\":\"LineString\",\"coordinates\":[[-73.615331,45.4772288],[-73.6158594,45.477468],[-73.6169708,45.4779714],[-73.6178842,45.4783813]]}";3;Boulevard Décarie;1;50;false;false;true;false;false;false;238.0;1;0;0;0;0;false;51242;7431218640;-73.618842;45.478888;51327;6010976732;-73.615492;45.476966;0;0;1;4588171;Bus 24 : Sherbrooke Est;"";STM;24-E;Décarie / Brillon;Montgomery / Sherbrooke
463869046;"{\"type\":\"LineString\",\"coordinates\":[[-73.613275,45.4762967],[-73.6139753,45.4766151],[-73.614462,45.4768354],[-73.6149261,45.4770455],[-73.615331,45.4772288]]}";4;Boulevard Décarie;1;50;false;false;true;false;false;false;192.0;1;0;0;0;0;false;51242;7431218640;-73.618842;45.478888;51327;6010976732;-73.615492;45.476966;2;0;1;4588171;Bus 24 : Sherbrooke Est;"";STM;24-E;Décarie / Brillon;Montgomery / Sherbrooke
329067232;"{\"type\":\"LineString\",\"coordinates\":[[-73.6088458,45.4742976],[-73.6092907,45.4744984],[-73.6096245,45.4746491],[-73.6102297,45.4749222],[-73.6107464,45.4751554],[-73.6124789,45.4759374],[-73.613275,45.4762967]]}";1;Boulevard Décarie;1;50;false;false;true;false;false;false;206.0;1;0;0;0;0;false;51462;6010974533;-73.60949;45.474535;51496;6010972702;-73.607041;45.47573;1;3;4;4588171;Bus 24 : Sherbrooke Est;"";STM;24-E;Décarie / Brillon;Montgomery / Sherbrooke
454309327;"{\"type\":\"LineString\",\"coordinates\":[[-73.6088458,45.4742976],[-73.6087563,45.4743734],[-73.6082816,45.4747756]]}";2;Rue Sherbrooke Ouest;4;50;false;false;true;false;false;false;70.0;1;0;0;0;0;false;51462;6010974533;-73.60949;45.474535;51496;6010972702;-73.607041;45.47573;0;3;4;4588171;Bus 24 : Sherbrooke Est;"";STM;24-E;Décarie / Brillon;Montgomery / Sherbrooke
453725263;"{\"type\":\"LineString\",\"coordinates\":[[-73.6082816,45.4747756],[-73.6077553,45.4752452],[-73.6076805,45.4753119],[-73.60705,45.4758725],[-73.606409,45.4764062],[-73.6063094,45.4764931]]}";3;Rue Sherbrooke Ouest;4;50;false;false;true;false;false;false;123.0;0;0;0;0;0;false;51462;6010974533;-73.60949;45.474535;51496;6010972702;-73.607041;45.47573;1;3;4;4588171;Bus 24 : Sherbrooke Est;"";STM;24-E;Décarie / Brillon;Montgomery / Sherbrooke
453725263;"{\"type\":\"LineString\",\"coordinates\":[[-73.6082816,45.4747756],[-73.6077553,45.4752452],[-73.6076805,45.4753119],[-73.60705,45.4758725],[-73.606409,45.4764062],[-73.6063094,45.4764931]]}";1;Rue Sherbrooke Ouest;4;50;false;false;true;false;false;false;123.0;0;0;0;0;0;false;51496;6010972702;-73.607041;45.47573;56253;6010977374;-73.605422;45.477129;1;4;5;4588171;Bus 24 : Sherbrooke Est;"";STM;24-E;Décarie / Brillon;Montgomery / Sherbrooke
463622073;"{\"type\":\"LineString\",\"coordinates\":[[-73.6063094,45.4764931],[-73.6054104,45.4772807]]}";2;Rue Sherbrooke Ouest;4;50;false;false;true;false;false;false;56.5;1;0;0;0;0;false;51496;6010972702;-73.607041;45.47573;56253;6010977374;-73.605422;45.477129;1;4;5;4588171;Bus 24 : Sherbrooke Est;"";STM;24-E;Décarie / Brillon;Montgomery / Sherbrooke
463622074;"{\"type\":\"LineString\",\"coordinates\":[[-73.6054104,45.4772807],[-73.6042695,45.4782699],[-73.6034403,45.4789837]]}";1;Rue Sherbrooke Ouest;4;50;false;false;true;false;false;false;244.0;2;0;0;0;0;false;56253;6010977374;-73.605422;45.477129;56258;6010971332;-73.602705;45.479493;2;5;6;4588171;Bus 24 : Sherbrooke Est;"";STM;24-E;Décarie / Brillon;Montgomery / Sherbrooke
453725261;"{\"type\":\"LineString\",\"coordinates\":[[-73.6034403,45.4789837],[-73.6026784,45.4796284]]}";2;Rue Sherbrooke Ouest;4;50;false;false;true;false;false;false;94.0;2;0;0;0;0;false;56253;6010977374;-73.605422;45.477129;56258;6010971332;-73.602705;45.479493;2;5;6;4588171;Bus 24 : Sherbrooke Est;"";STM;24-E;Décarie / Brillon;Montgomery / Sherbrooke
453727319;"{\"type\":\"LineString\",\"coordinates\":[[-73.6026784,45.4796284],[-73.6019729,45.4802363],[-73.6012667,45.4808637],[-73.6012265,45.4808994],[-73.6011672,45.4809517],[-73.6004615,45.4815823],[-73.6004234,45.4816163],[-73.6003705,45.4816508],[-73.5997177,45.4822178],[-73.5996824,45.482243],[-73.5996299,45.4822946],[-73.5989021,45.4829293]]}";1;Rue Sherbrooke Ouest;4;50;false;false;true;false;false;false;235.5;3;6;0;0;0;false;56267;6010975909;-73.599712;45.4821;56274;1071760806;-73.5974996;45.4839786;1;8;9;4588171;Bus 24 : Sherbrooke Est;"";STM;24-E;Décarie / Brillon;Montgomery / Sherbrooke
468774195;"{\"type\":\"LineString\",\"coordinates\":[[-73.5989021,45.4829293],[-73.5984693,45.4832922]]}";2;Rue Sherbrooke Ouest;4;50;false;false;true;false;false;false;53.0;0;0;0;0;0;false;56267;6010975909;-73.599712;45.4821;56274;1071760806;-73.5974996;45.4839786;0;8;9;4588171;Bus 24 : Sherbrooke Est;"";STM;24-E;Décarie / Brillon;Montgomery / Sherbrooke
453727318;"{\"type\":\"LineString\",\"coordinates\":[[-73.5984693,45.4832922],[-73.5975921,45.4840559],[-73.5975398,45.4841015]]}";3;Rue Sherbrooke Ouest;4;50;false;false;true;false;false;false;58.0;1;1;0;0;0;false;56267;6010975909;-73.599712;45.4821;56274;1071760806;-73.5974996;45.4839786;1;8;9;4588171;Bus 24 : Sherbrooke Est;"";STM;24-E;Décarie / Brillon;Montgomery / Sherbrooke
453729929;"{\"type\":\"LineString\",\"coordinates\":[[-73.5975398,45.4841015],[-73.5974837,45.4841471],[-73.597236,45.4843704]]}";1;Rue Sherbrooke Ouest;4;50;false;false;true;false;false;false;39.0;1;1;0;0;0;false;56274;1071760806;-73.5974996;45.4839786;56278;6010969607;-73.595998;45.485321;2;9;10;4588171;Bus 24 : Sherbrooke Est;"";STM;24-E;Décarie / Brillon;Montgomery / Sherbrooke
453741481;"{\"type\":\"LineString\",\"coordinates\":[[-73.597236,45.4843704],[-73.5968117,45.484753],[-73.596764,45.4847925]]}";2;Rue Sherbrooke Ouest;4;50;false;false;true;false;false;false;60.0;1;1;0;0;0;false;56274;1071760806;-73.5974996;45.4839786;56278;6010969607;-73.595998;45.485321;0;9;10;4588171;Bus 24 : Sherbrooke Est;"";STM;24-E;Décarie / Brillon;Montgomery / Sherbrooke
474838163;"{\"type\":\"LineString\",\"coordinates\":[[-73.596764,45.4847925],[-73.5967124,45.4848382],[-73.5963656,45.485136],[-73.5960318,45.4854244],[-73.595994,45.4854589],[-73.5959416,45.485505],[-73.5956028,45.4858014]]}";3;Rue Sherbrooke Ouest;4;50;false;false;true;false;false;false;145.0;2;3;0;0;0;false;56274;1071760806;-73.5974996;45.4839786;56278;6010969607;-73.595998;45.485321;2;9;10;4588171;Bus 24 : Sherbrooke Est;"";STM;24-E;Décarie / Brillon;Montgomery / Sherbrooke
474838163;"{\"type\":\"LineString\",\"coordinates\":[[-73.596764,45.4847925],[-73.5967124,45.4848382],[-73.5963656,45.485136],[-73.5960318,45.4854244],[-73.595994,45.4854589],[-73.5959416,45.485505],[-73.5956028,45.4858014]]}";1;Rue Sherbrooke Ouest;4;50;false;false;true;false;false;false;72.5;2;3;0;0;0;false;56278;6010969607;-73.595998;45.485321;56281;6010967048;-73.594441;45.486672;1;10;11;4588171;Bus 24 : Sherbrooke Est;"";STM;24-E;Décarie / Brillon;Montgomery / Sherbrooke
474838162;"{\"type\":\"LineString\",\"coordinates\":[[-73.5956028,45.4858014],[-73.595306,45.4860487],[-73.5951607,45.4861698]]}";2;Rue Sherbrooke Ouest;4;50;false;false;true;false;false;false;54.0;0;0;0;0;0;false;56278;6010969607;-73.595998;45.485321;56281;6010967048;-73.594441;45.486672;0;10;11;4588171;Bus 24 : Sherbrooke Est;"";STM;24-E;Décarie / Brillon;Montgomery / Sherbrooke
474838161;"{\"type\":\"LineString\",\"coordinates\":[[-73.5951607,45.4861698],[-73.5944111,45.4868367]]}";3;Rue Sherbrooke Ouest;4;50;false;false;true;false;false;false;47.5;1;0;0;0;0;false;56278;6010969607;-73.595998;45.485321;56281;6010967048;-73.594441;45.486672;1;10;11;4588171;Bus 24 : Sherbrooke Est;"";STM;24-E;Décarie / Brillon;Montgomery / Sherbrooke
475308535;"{\"type\":\"LineString\",\"coordinates\":[[-73.5944111,45.4868367],[-73.59378,45.4871077]]}";1;Rue Sherbrooke Ouest;4;50;false;false;true;false;false;false;58.0;1;0;0;0;0;false;56281;6010967048;-73.594441;45.486672;56286;6010979321;-73.591902;45.487726;2;11;12;4588171;Bus 24 : Sherbrooke Est;"";STM;24-E;Décarie / Brillon;Montgomery / Sherbrooke
329067231;"{\"type\":\"LineString\",\"coordinates\":[[-73.59378,45.4871077],[-73.593288,45.487265],[-73.5930106,45.4873617],[-73.5925487,45.4875303],[-73.5920063,45.4878106],[-73.5918534,45.487888],[-73.5915448,45.4881152],[-73.5910554,45.4884716],[-73.5903445,45.4890987],[-73.5896015,45.4897439],[-73.588876,45.490426],[-73.5881902,45.4910927]]}";2;Rue Sherbrooke Ouest;4;50;false;false;true;false;false;false;632.0;2;0;0;0;0;false;56281;6010967048;-73.594441;45.486672;56286;6010979321;-73.591902;45.487726;2;11;12;4588171;Bus 24 : Sherbrooke Est;"";STM;24-E;Décarie / Brillon;Montgomery / Sherbrooke
329067231;"{\"type\":\"LineString\",\"coordinates\":[[-73.59378,45.4871077],[-73.593288,45.487265],[-73.5930106,45.4873617],[-73.5925487,45.4875303],[-73.5920063,45.4878106],[-73.5918534,45.487888],[-73.5915448,45.4881152],[-73.5910554,45.4884716],[-73.5903445,45.4890987],[-73.5896015,45.4897439],[-73.588876,45.490426],[-73.5881902,45.4910927]]}";1;Rue Sherbrooke Ouest;4;50;false;false;true;false;false;false;316.0;2;0;0;0;0;false;56290;6010974573;-73.590331;45.488951;51951;6010981247;-73.588043;45.491066;1;13;14;4588171;Bus 24 : Sherbrooke Est;"";STM;24-E;Décarie / Brillon;Montgomery / Sherbrooke
561490751;"{\"type\":\"LineString\",\"coordinates\":[[-73.5881902,45.4910927],[-73.5880713,45.4911233],[-73.5880163,45.4911666],[-73.5879609,45.4912192]]}";2;Rue Sherbrooke Ouest;2;50;false;true;true;false;false;false;12.0;1;0;0;0;0;false;56290;6010974573;-73.590331;45.488951;51951;6010981247;-73.588043;45.491066;1;13;14;4588171;Bus 24 : Sherbrooke Est;"";STM;24-E;Décarie / Brillon;Montgomery / Sherbrooke
329067231;"{\"type\":\"LineString\",\"coordinates\":[[-73.59378,45.4871077],[-73.593288,45.487265],[-73.5930106,45.4873617],[-73.5925487,45.4875303],[-73.5920063,45.4878106],[-73.5918534,45.487888],[-73.5915448,45.4881152],[-73.5910554,45.4884716],[-73.5903445,45.4890987],[-73.5896015,45.4897439],[-73.588876,45.490426],[-73.5881902,45.4910927]]}";1;Rue Sherbrooke Ouest;4;50;false;false;true;false;false;false;632.0;2;0;0;0;0;false;51951;6010981247;-73.588043;45.491066;52009;6010979145;-73.585807;45.492614;2;14;15;4588171;Bus 24 : Sherbrooke Est;"";STM;24-E;Décarie / Brillon;Montgomery / Sherbrooke
561490751;"{\"type\":\"LineString\",\"coordinates\":[[-73.5881902,45.4910927],[-73.5880713,45.4911233],[-73.5880163,45.4911666],[-73.5879609,45.4912192]]}";2;Rue Sherbrooke Ouest;2;50;false;true;true;false;false;false;24.0;1;0;0;0;0;false;51951;6010981247;-73.588043;45.491066;52009;6010979145;-73.585807;45.492614;0;14;15;4588171;Bus 24 : Sherbrooke Est;"";STM;24-E;Décarie / Brillon;Montgomery / Sherbrooke
561490749;"{\"type\":\"LineString\",\"coordinates\":[[-73.5879609,45.4912192],[-73.5878503,45.4913056]]}";3;Rue Sherbrooke Ouest;2;50;false;true;true;false;false;false;13.0;0;0;0;0;0;false;51951;6010981247;-73.588043;45.491066;52009;6010979145;-73.585807;45.492614;0;14;15;4588171;Bus 24 : Sherbrooke Est;"";STM;24-E;Décarie / Brillon;Montgomery / Sherbrooke
561490748;"{\"type\":\"LineString\",\"coordinates\":[[-73.5878503,45.4913056],[-73.5876937,45.4914354],[-73.5876779,45.4915044]]}";4;Rue Sherbrooke Ouest;2;50;false;true;true;false;false;false;27.0;0;0;0;0;0;false;51951;6010981247;-73.588043;45.491066;52009;6010979145;-73.585807;45.492614;0;14;15;4588171;Bus 24 : Sherbrooke Est;"";STM;24-E;Décarie / Brillon;Montgomery / Sherbrooke
465408864;"{\"type\":\"LineString\",\"coordinates\":[[-73.5876779,45.4915044],[-73.5873547,45.491772],[-73.5870793,45.4919447],[-73.5868951,45.4920602],[-73.5868418,45.492093],[-73.5857658,45.4927542]]}";5;Rue Sherbrooke Ouest;1;50;false;false;true;false;false;false;205.0;1;0;0;0;0;false;51951;6010981247;-73.588043;45.491066;52009;6010979145;-73.585807;45.492614;2;14;15;4588171;Bus 24 : Sherbrooke Est;"";STM;24-E;Décarie / Brillon;Montgomery / Sherbrooke
465408857;"{\"type\":\"LineString\",\"coordinates\":[[-73.5857658,45.4927542],[-73.5848669,45.4932925],[-73.5844071,45.4935679]]}";1;Rue Sherbrooke Ouest;1;50;false;false;true;false;false;false;140.0;1;0;0;0;0;false;52009;6010979145;-73.585807;45.492614;52066;6010971302;-73.583478;45.494448;2;15;16;4588171;Bus 24 : Sherbrooke Est;"";STM;24-E;Décarie / Brillon;Montgomery / Sherbrooke
465408862;"{\"type\":\"LineString\",\"coordinates\":[[-73.5844071,45.4935679],[-73.5843928,45.4935836],[-73.5841626,45.4938355],[-73.5839676,45.4940488],[-73.5835362,45.4945299],[-73.5834553,45.4946093]]}";2;Rue Sherbrooke Ouest;1;50;false;false;true;false;false;false;138.0;1;1;0;0;0;false;52009;6010979145;-73.585807;45.492614;52066;6010971302;-73.583478;45.494448;2;15;16;4588171;Bus 24 : Sherbrooke Est;"";STM;24-E;Décarie / Brillon;Montgomery / Sherbrooke
465411711;"{\"type\":\"LineString\",\"coordinates\":[[-73.5834553,45.4946093],[-73.5827578,45.4953775]]}";1;Rue Sherbrooke Ouest;1;50;false;false;true;false;false;false;102.0;1;0;0;0;0;false;52066;6010971302;-73.583478;45.494448;52097;6010965396;-73.582497;45.495555;2;16;17;4588171;Bus 24 : Sherbrooke Est;"";STM;24-E;Décarie / Brillon;Montgomery / Sherbrooke
465411712;"{\"type\":\"LineString\",\"coordinates\":[[-73.5827578,45.4953775],[-73.5825298,45.4956286],[-73.5824487,45.4957179]]}";2;Rue Sherbrooke Ouest;1;50;false;false;true;false;false;false;45.0;1;0;0;0;0;false;52066;6010971302;-73.583478;45.494448;52097;6010965396;-73.582497;45.495555;2;16;17;4588171;Bus 24 : Sherbrooke Est;"";STM;24-E;Décarie / Brillon;Montgomery / Sherbrooke
465408860;"{\"type\":\"LineString\",\"coordinates\":[[-73.5817392,45.4965571],[-73.5816637,45.4966338],[-73.5811465,45.4971593],[-73.5811045,45.497202]]}";1;Rue Sherbrooke Ouest;1;50;false;false;true;false;false;false;88.0;2;2;0;0;0;false;52115;6010964910;-73.581755;45.496397;52167;5019241521;-73.5799549;45.4981896;2;18;19;4588171;Bus 24 : Sherbrooke Est;"";STM;24-E;Décarie / Brillon;Montgomery / Sherbrooke
465408858;"{\"type\":\"LineString\",\"coordinates\":[[-73.5811045,45.497202],[-73.5810492,45.4972583],[-73.5807079,45.497605]]}";2;Rue Sherbrooke Ouest;1;50;false;false;true;false;false;false;55.0;1;1;0;0;0;false;52115;6010964910;-73.581755;45.496397;52167;5019241521;-73.5799549;45.4981896;0;18;19;4588171;Bus 24 : Sherbrooke Est;"";STM;24-E;Décarie / Brillon;Montgomery / Sherbrooke
465411709;"{\"type\":\"LineString\",\"coordinates\":[[-73.5807079,45.497605],[-73.5803602,45.4979583]]}";3;Rue Sherbrooke Ouest;1;50;false;false;true;false;false;false;48.0;0;0;0;0;0;false;52115;6010964910;-73.581755;45.496397;52167;5019241521;-73.5799549;45.4981896;0;18;19;4588171;Bus 24 : Sherbrooke Est;"";STM;24-E;Décarie / Brillon;Montgomery / Sherbrooke
465411713;"{\"type\":\"LineString\",\"coordinates\":[[-73.5803602,45.4979583],[-73.5800486,45.4982749],[-73.5800002,45.4983241]]}";4;Rue Sherbrooke Ouest;1;50;false;false;true;false;false;false;50.0;1;1;0;0;0;false;52115;6010964910;-73.581755;45.496397;52167;5019241521;-73.5799549;45.4981896;2;18;19;4588171;Bus 24 : Sherbrooke Est;"";STM;24-E;Décarie / Brillon;Montgomery / Sherbrooke
465411715;"{\"type\":\"LineString\",\"coordinates\":[[-73.5800002,45.4983241],[-73.5799522,45.4983734],[-73.5795741,45.4987618],[-73.5795171,45.4988203]]}";1;Rue Sherbrooke Ouest;1;50;false;false;true;false;false;false;67.0;2;1;0;0;0;false;52167;5019241521;-73.5799549;45.4981896;52204;6010976705;-73.578711;45.499516;2;19;20;4588171;Bus 24 : Sherbrooke Est;"";STM;24-E;Décarie / Brillon;Montgomery / Sherbrooke
465411714;"{\"type\":\"LineString\",\"coordinates\":[[-73.5795171,45.4988203],[-73.5795004,45.4988375],[-73.5793764,45.4989657]]}";2;Rue Sherbrooke Ouest;1;50;false;false;true;false;false;false;20.0;2;1;0;0;0;false;52167;5019241521;-73.5799549;45.4981896;52204;6010976705;-73.578711;45.499516;0;19;20;4588171;Bus 24 : Sherbrooke Est;"";STM;24-E;Décarie / Brillon;Montgomery / Sherbrooke
191563437;"{\"type\":\"LineString\",\"coordinates\":[[-73.5793764,45.4989657],[-73.5793199,45.4990229],[-73.5792928,45.4990508],[-73.5792271,45.4991182],[-73.5792132,45.4991325]]}";3;Rue Sherbrooke Ouest;1;50;false;false;true;false;false;false;23.0;2;1;0;0;0;false;52167;5019241521;-73.5799549;45.4981896;52204;6010976705;-73.578711;45.499516;0;19;20;4588171;Bus 24 : Sherbrooke Est;"";STM;24-E;Décarie / Brillon;Montgomery / Sherbrooke
465411710;"{\"type\":\"LineString\",\"coordinates\":[[-73.5792132,45.4991325],[-73.5787592,45.4996038],[-73.5787396,45.4996829]]}";4;Rue Sherbrooke Ouest;1;50;false;false;true;false;false;false;73.0;1;1;0;0;0;false;52167;5019241521;-73.5799549;45.4981896;52204;6010976705;-73.578711;45.499516;2;19;20;4588171;Bus 24 : Sherbrooke Est;"";STM;24-E;Décarie / Brillon;Montgomery / Sherbrooke
461254935;"{\"type\":\"LineString\",\"coordinates\":[[-73.5787396,45.4996829],[-73.5786811,45.4997431],[-73.5783184,45.5001162],[-73.5780623,45.5003797],[-73.5780041,45.5004396]]}";1;Rue Sherbrooke Ouest;1;50;false;false;true;false;false;false;102.0;2;2;0;0;0;false;52204;6010976705;-73.578711;45.499516;52277;6010980846;-73.576634;45.501628;2;20;21;4588171;Bus 24 : Sherbrooke Est;"";STM;24-E;Décarie / Brillon;Montgomery / Sherbrooke
455083999;"{\"type\":\"LineString\",\"coordinates\":[[-73.5780041,45.5004396],[-73.5779424,45.5004992],[-73.5773437,45.5010767],[-73.5772965,45.5011223]]}";2;Rue Sherbrooke Ouest;4;50;false;false;true;false;false;false;94.0;2;2;0;0;0;false;52204;6010976705;-73.578711;45.499516;52277;6010980846;-73.576634;45.501628;0;20;21;4588171;Bus 24 : Sherbrooke Est;"";STM;24-E;Décarie / Brillon;Montgomery / Sherbrooke
165257881;"{\"type\":\"LineString\",\"coordinates\":[[-73.5772965,45.5011223],[-73.5772462,45.5011676],[-73.5767703,45.5016428],[-73.5766404,45.5017759],[-73.5766344,45.5018459]]}";3;Rue Sherbrooke Ouest;4;50;false;false;true;false;false;false;97.0;2;2;0;0;0;false;52204;6010976705;-73.578711;45.499516;52277;6010980846;-73.576634;45.501628;2;20;21;4588171;Bus 24 : Sherbrooke Est;"";STM;24-E;Décarie / Brillon;Montgomery / Sherbrooke
165257881;"{\"type\":\"LineString\",\"coordinates\":[[-73.5772965,45.5011223],[-73.5772462,45.5011676],[-73.5767703,45.5016428],[-73.5766404,45.5017759],[-73.5766344,45.5018459]]}";1;Rue Sherbrooke Ouest;4;50;false;false;true;false;false;false;48.5;2;2;0;0;0;false;52277;6010980846;-73.576634;45.501628;52335;6010976750;-73.574773;45.503519;1;21;22;4588171;Bus 24 : Sherbrooke Est;"";STM;24-E;Décarie / Brillon;Montgomery / Sherbrooke
465413243;"{\"type\":\"LineString\",\"coordinates\":[[-73.5766344,45.5018459],[-73.576544,45.5019359],[-73.5759595,45.502518]]}";2;Rue Sherbrooke Ouest;4;50;false;false;true;false;false;false;92.0;2;1;0;0;0;false;52277;6010980846;-73.576634;45.501628;52335;6010976750;-73.574773;45.503519;0;21;22;4588171;Bus 24 : Sherbrooke Est;"";STM;24-E;Décarie / Brillon;Montgomery / Sherbrooke
465413237;"{\"type\":\"LineString\",\"coordinates\":[[-73.5759595,45.502518],[-73.5758009,45.5026822]]}";3;Rue Sherbrooke Ouest;4;50;false;false;true;false;false;false;23.0;1;0;0;0;0;false;52277;6010980846;-73.576634;45.501628;52335;6010976750;-73.574773;45.503519;0;21;22;4588171;Bus 24 : Sherbrooke Est;"";STM;24-E;Décarie / Brillon;Montgomery / Sherbrooke
465413240;"{\"type\":\"LineString\",\"coordinates\":[[-73.5758009,45.5026822],[-73.5757662,45.5027162],[-73.575337,45.5031547]]}";4;Rue Sherbrooke Ouest;4;50;false;false;true;false;false;false;64.0;2;0;0;0;0;false;52277;6010980846;-73.576634;45.501628;52335;6010976750;-73.574773;45.503519;0;21;22;4588171;Bus 24 : Sherbrooke Est;"";STM;24-E;Décarie / Brillon;Montgomery / Sherbrooke
465413238;"{\"type\":\"LineString\",\"coordinates\":[[-73.575337,45.5031547],[-73.574717,45.503766]]}";5;Rue Sherbrooke Ouest;4;50;false;false;true;false;false;false;42.0;2;0;0;0;0;false;52277;6010980846;-73.576634;45.501628;52335;6010976750;-73.574773;45.503519;1;21;22;4588171;Bus 24 : Sherbrooke Est;"";STM;24-E;Décarie / Brillon;Montgomery / Sherbrooke
465413238;"{\"type\":\"LineString\",\"coordinates\":[[-73.575337,45.5031547],[-73.574717,45.503766]]}";1;Rue Sherbrooke Ouest;4;50;false;false;true;false;false;false;42.0;2;0;0;0;0;false;52335;6010976750;-73.574773;45.503519;52369;6010973640;-73.573484;45.50483;1;22;23;4588171;Bus 24 : Sherbrooke Est;"";STM;24-E;Décarie / Brillon;Montgomery / Sherbrooke
134811809;"{\"type\":\"LineString\",\"coordinates\":[[-73.574717,45.503766],[-73.5741067,45.5043709],[-73.5735706,45.5049023]]}";2;Rue Sherbrooke Ouest;4;50;false;false;true;false;false;false;77.5;1;0;0;0;0;false;52335;6010976750;-73.574773;45.503519;52369;6010973640;-73.573484;45.50483;1;22;23;4588171;Bus 24 : Sherbrooke Est;"";STM;24-E;Décarie / Brillon;Montgomery / Sherbrooke
111771059;"{\"type\":\"LineString\",\"coordinates\":[[-73.5735706,45.5049023],[-73.5735585,45.504914],[-73.5735,45.5049722]]}";1;Rue Sherbrooke Ouest;2;50;false;false;true;false;false;false;10.0;1;1;0;0;0;false;52369;6010973640;-73.573484;45.50483;52409;6010968265;-73.572572;45.505995;2;23;24;4588171;Bus 24 : Sherbrooke Est;"";STM;24-E;Décarie / Brillon;Montgomery / Sherbrooke
465413249;"{\"type\":\"LineString\",\"coordinates\":[[-73.5735,45.5049722],[-73.5734348,45.5050363],[-73.5732307,45.5052378],[-73.5732139,45.5052544],[-73.5730923,45.5054067],[-73.5729766,45.5055649]]}";2;Rue Sherbrooke Ouest;2;50;false;false;true;false;false;false;78.0;1;1;0;0;0;false;52369;6010973640;-73.573484;45.50483;52409;6010968265;-73.572572;45.505995;0;23;24;4588171;Bus 24 : Sherbrooke Est;"";STM;24-E;Décarie / Brillon;Montgomery / Sherbrooke
465413246;"{\"type\":\"LineString\",\"coordinates\":[[-73.5729766,45.5055649],[-73.5729482,45.5056093],[-73.5727521,45.5059162],[-73.5726531,45.5060713],[-73.572618,45.5061262]]}";3;Rue Sherbrooke Ouest;2;50;false;false;true;false;false;false;69.0;1;0;0;0;0;false;52369;6010973640;-73.573484;45.50483;52409;6010968265;-73.572572;45.505995;2;23;24;4588171;Bus 24 : Sherbrooke Est;"";STM;24-E;Décarie / Brillon;Montgomery / Sherbrooke
465413236;"{\"type\":\"LineString\",\"coordinates\":[[-73.572618,45.5061262],[-73.5725409,45.5062462]]}";1;Rue Sherbrooke Ouest;2;50;false;false;true;false;false;false;15.0;0;0;0;0;0;false;52409;6010968265;-73.572572;45.505995;52444;6010980865;-73.571251;45.508188;2;24;25;4588171;Bus 24 : Sherbrooke Est;"";STM;24-E;Décarie / Brillon;Montgomery / Sherbrooke
465585477;"{\"type\":\"LineString\",\"coordinates\":[[-73.5725409,45.5062462],[-73.5725103,45.5062989],[-73.5723037,45.5066547]]}";2;Rue Sherbrooke Ouest;2;50;false;false;true;false;false;false;50.0;1;0;0;0;0;false;52409;6010968265;-73.572572;45.505995;52444;6010980865;-73.571251;45.508188;0;24;25;4588171;Bus 24 : Sherbrooke Est;"";STM;24-E;Décarie / Brillon;Montgomery / Sherbrooke
184205746;"{\"type\":\"LineString\",\"coordinates\":[[-73.5723037,45.5066547],[-73.5721141,45.5069907]]}";3;Rue Sherbrooke Ouest;2;50;false;false;true;false;false;false;41.0;1;0;0;0;0;false;52409;6010968265;-73.572572;45.505995;52444;6010980865;-73.571251;45.508188;0;24;25;4588171;Bus 24 : Sherbrooke Est;"";STM;24-E;Décarie / Brillon;Montgomery / Sherbrooke
465585476;"{\"type\":\"LineString\",\"coordinates\":[[-73.5721141,45.5069907],[-73.5716819,45.5076857]]}";4;Rue Sherbrooke Ouest;2;50;false;false;true;false;false;false;85.0;2;0;0;0;0;false;52409;6010968265;-73.572572;45.505995;52444;6010980865;-73.571251;45.508188;0;24;25;4588171;Bus 24 : Sherbrooke Est;"";STM;24-E;Décarie / Brillon;Montgomery / Sherbrooke
465585475;"{\"type\":\"LineString\",\"coordinates\":[[-73.5716819,45.5076857],[-73.5712786,45.508374]]}";5;Rue Sherbrooke Ouest;2;50;false;false;true;false;false;false;83.0;2;0;0;0;0;false;52409;6010968265;-73.572572;45.505995;52444;6010980865;-73.571251;45.508188;2;24;25;4588171;Bus 24 : Sherbrooke Est;"";STM;24-E;Décarie / Brillon;Montgomery / Sherbrooke
465585475;"{\"type\":\"LineString\",\"coordinates\":[[-73.5716819,45.5076857],[-73.5712786,45.508374]]}";1;Rue Sherbrooke Ouest;2;50;false;false;true;false;false;false;41.5;2;0;0;0;0;false;52444;6010980865;-73.571251;45.508188;52459;6010979299;-73.570755;45.509167;1;25;26;4588171;Bus 24 : Sherbrooke Est;"";STM;24-E;Décarie / Brillon;Montgomery / Sherbrooke
41258631;"{\"type\":\"LineString\",\"coordinates\":[[-73.5712786,45.508374],[-73.5708138,45.5093327]]}";2;Rue Sherbrooke Ouest;2;50;false;false;true;false;false;false;56.5;2;0;0;0;0;false;52444;6010980865;-73.571251;45.508188;52459;6010979299;-73.570755;45.509167;1;25;26;4588171;Bus 24 : Sherbrooke Est;"";STM;24-E;Décarie / Brillon;Montgomery / Sherbrooke
465586024;"{\"type\":\"LineString\",\"coordinates\":[[-73.5708138,45.5093327],[-73.5705686,45.5099301]]}";1;Rue Sherbrooke Ouest;6;50;false;false;true;false;false;false;70.0;1;0;0;0;0;false;52459;6010979299;-73.570755;45.509167;52488;6010975378;-73.569989;45.510933;2;26;27;4588171;Bus 24 : Sherbrooke Est;"";STM;24-E;Décarie / Brillon;Montgomery / Sherbrooke
465586406;"{\"type\":\"LineString\",\"coordinates\":[[-73.5705686,45.5099301],[-73.5704703,45.5101761],[-73.5703798,45.5103827],[-73.5703565,45.5104359]]}";2;Rue Sherbrooke Ouest;6;50;false;false;true;false;false;false;59.0;0;0;0;0;0;false;52459;6010979299;-73.570755;45.509167;52488;6010975378;-73.569989;45.510933;0;26;27;4588171;Bus 24 : Sherbrooke Est;"";STM;24-E;Décarie / Brillon;Montgomery / Sherbrooke
41258632;"{\"type\":\"LineString\",\"coordinates\":[[-73.5703565,45.5104359],[-73.5703354,45.5104787],[-73.5701129,45.5109609],[-73.5700748,45.5110427],[-73.5700462,45.5111045]]}";3;Rue Sherbrooke Ouest;6;50;false;false;true;false;false;false;79.0;1;1;0;0;0;false;52459;6010979299;-73.570755;45.509167;52488;6010975378;-73.569989;45.510933;2;26;27;4588171;Bus 24 : Sherbrooke Est;"";STM;24-E;Décarie / Brillon;Montgomery / Sherbrooke
329384208;"{\"type\":\"LineString\",\"coordinates\":[[-73.5700462,45.5111045],[-73.5700131,45.5111819],[-73.5697293,45.5118455],[-73.5696646,45.5119968]]}";1;Rue Sherbrooke Ouest;6;50;false;false;true;false;false;false;104.0;1;1;0;0;0;false;52488;6010975378;-73.569989;45.510933;52510;6010977498;-73.569396;45.51234;2;27;28;4588171;Bus 24 : Sherbrooke Est;"";STM;24-E;Décarie / Brillon;Montgomery / Sherbrooke
453989328;"{\"type\":\"LineString\",\"coordinates\":[[-73.5696646,45.5119968],[-73.569556,45.5122554],[-73.5694577,45.5125052]]}";2;Rue Sherbrooke Ouest;6;50;false;false;true;false;false;false;59.0;1;0;0;0;0;false;52488;6010975378;-73.569989;45.510933;52510;6010977498;-73.569396;45.51234;2;27;28;4588171;Bus 24 : Sherbrooke Est;"";STM;24-E;Décarie / Brillon;Montgomery / Sherbrooke
465381659;"{\"type\":\"LineString\",\"coordinates\":[[-73.5694577,45.5125052],[-73.5692268,45.5130391]]}";1;Rue Sherbrooke Est;6;50;false;false;true;false;false;false;62.0;1;0;0;0;0;false;52510;6010977498;-73.569396;45.51234;52543;6010981011;-73.56848;45.514367;2;28;29;4588171;Bus 24 : Sherbrooke Est;"";STM;24-E;Décarie / Brillon;Montgomery / Sherbrooke
465414953;"{\"type\":\"LineString\",\"coordinates\":[[-73.5692268,45.5130391],[-73.5690003,45.513544]]}";2;Rue Sherbrooke Est;6;50;false;false;true;false;false;false;59.0;1;0;0;0;0;false;52510;6010977498;-73.569396;45.51234;52543;6010981011;-73.56848;45.514367;0;28;29;4588171;Bus 24 : Sherbrooke Est;"";STM;24-E;Décarie / Brillon;Montgomery / Sherbrooke
465414952;"{\"type\":\"LineString\",\"coordinates\":[[-73.5690003,45.513544],[-73.5688064,45.5139739]]}";3;Rue Sherbrooke Est;6;50;false;false;true;false;false;false;51.0;1;0;0;0;0;false;52510;6010977498;-73.569396;45.51234;52543;6010981011;-73.56848;45.514367;0;28;29;4588171;Bus 24 : Sherbrooke Est;"";STM;24-E;Décarie / Brillon;Montgomery / Sherbrooke
465381658;"{\"type\":\"LineString\",\"coordinates\":[[-73.5688064,45.5139739],[-73.5686873,45.5142472],[-73.5685302,45.5145955]]}";4;Rue Sherbrooke Est;6;50;false;false;true;false;false;false;73.0;1;0;0;0;0;false;52510;6010977498;-73.569396;45.51234;52543;6010981011;-73.56848;45.514367;2;28;29;4588171;Bus 24 : Sherbrooke Est;"";STM;24-E;Décarie / Brillon;Montgomery / Sherbrooke
465381658;"{\"type\":\"LineString\",\"coordinates\":[[-73.5688064,45.5139739],[-73.5686873,45.5142472],[-73.5685302,45.5145955]]}";1;Rue Sherbrooke Est;6;50;false;false;true;false;false;false;36.5;1;0;0;0;0;false;52543;6010981011;-73.56848;45.514367;52570;6010975297;-73.567441;45.516694;1;29;30;4588171;Bus 24 : Sherbrooke Est;"";STM;24-E;Décarie / Brillon;Montgomery / Sherbrooke
465381657;"{\"type\":\"LineString\",\"coordinates\":[[-73.5685302,45.5145955],[-73.5682912,45.5151561]]}";2;Rue Sherbrooke Est;6;50;false;false;true;false;false;false;65.0;1;0;0;0;0;false;52543;6010981011;-73.56848;45.514367;52570;6010975297;-73.567441;45.516694;0;29;30;4588171;Bus 24 : Sherbrooke Est;"";STM;24-E;Décarie / Brillon;Montgomery / Sherbrooke
26699202;"{\"type\":\"LineString\",\"coordinates\":[[-73.5682912,45.5151561],[-73.568104,45.5155393],[-73.5679651,45.5158237],[-73.5678759,45.5160219],[-73.5675917,45.5166529],[-73.567518,45.5168341],[-73.5674816,45.5169235]]}";3;Rue Sherbrooke Est;6;50;false;false;true;false;false;false;103.5;2;1;0;0;0;false;52543;6010981011;-73.56848;45.514367;52570;6010975297;-73.567441;45.516694;1;29;30;4588171;Bus 24 : Sherbrooke Est;"";STM;24-E;Décarie / Brillon;Montgomery / Sherbrooke
26699202;"{\"type\":\"LineString\",\"coordinates\":[[-73.5682912,45.5151561],[-73.568104,45.5155393],[-73.5679651,45.5158237],[-73.5678759,45.5160219],[-73.5675917,45.5166529],[-73.567518,45.5168341],[-73.5674816,45.5169235]]}";1;Rue Sherbrooke Est;6;50;false;false;true;false;false;false;103.5;2;1;0;0;0;false;52570;6010975297;-73.567441;45.516694;52508;1445209681;-73.568641;45.518966;1;30;31;4588171;Bus 24 : Sherbrooke Est;"";STM;24-E;Décarie / Brillon;Montgomery / Sherbrooke
215446977;"{\"type\":\"LineString\",\"coordinates\":[[-73.5674816,45.5169235],[-73.5674379,45.5170123],[-73.5670269,45.5178473]]}";2;Rue Sherbrooke Est;6;50;false;false;true;false;false;false;109.0;2;1;0;0;0;false;52570;6010975297;-73.567441;45.516694;52508;1445209681;-73.568641;45.518966;0;30;31;4588171;Bus 24 : Sherbrooke Est;"";STM;24-E;Décarie / Brillon;Montgomery / Sherbrooke
36675277;"{\"type\":\"LineString\",\"coordinates\":[[-73.5670269,45.5178473],[-73.5668922,45.5181482]]}";3;Rue Sherbrooke Est;6;50;false;false;true;false;false;false;36.0;2;0;0;0;0;false;52570;6010975297;-73.567441;45.516694;52508;1445209681;-73.568641;45.518966;0;30;31;4588171;Bus 24 : Sherbrooke Est;"";STM;24-E;Décarie / Brillon;Montgomery / Sherbrooke
27208094;"{\"type\":\"LineString\",\"coordinates\":[[-73.5668922,45.5181482],[-73.5686124,45.5189115],[-73.5690399,45.5191012],[-73.5691592,45.5191026]]}";4;Rue Berri;1;50;false;true;true;false;false;false;104.0;2;0;0;0;0;false;52570;6010975297;-73.567441;45.516694;52508;1445209681;-73.568641;45.518966;1;30;31;4588171;Bus 24 : Sherbrooke Est;"";STM;24-E;Décarie / Brillon;Montgomery / Sherbrooke
27208094;"{\"type\":\"LineString\",\"coordinates\":[[-73.5668922,45.5181482],[-73.5686124,45.5189115],[-73.5690399,45.5191012],[-73.5691592,45.5191026]]}";1;Rue Berri;1;50;false;true;true;false;false;false;104.0;2;0;0;0;0;false;52508;1445209681;-73.568641;45.518966;52532;6010965450;-73.568557;45.5197;1;31;32;4588171;Bus 24 : Sherbrooke Est;"";STM;24-E;Décarie / Brillon;Montgomery / Sherbrooke
727578894;"{\"type\":\"LineString\",\"coordinates\":[[-73.5691592,45.5191026],[-73.5691959,45.5191198]]}";2;Rue Berri;2;50;false;true;true;false;false;false;4.0;1;0;0;0;0;false;52508;1445209681;-73.568641;45.518966;52532;6010965450;-73.568557;45.5197;0;31;32;4588171;Bus 24 : Sherbrooke Est;"";STM;24-E;Décarie / Brillon;Montgomery / Sherbrooke
329065109;"{\"type\":\"LineString\",\"coordinates\":[[-73.5691959,45.5191198],[-73.5691837,45.5191329],[-73.568518,45.5198504],[-73.5681237,45.5202756],[-73.5681122,45.5202878],[-73.5678238,45.5205988],[-73.5672828,45.5211819],[-73.5666477,45.5218667],[-73.5665228,45.5220084]]}";3;Rue Cherrier;1;50;false;false;true;false;false;false;191.5;4;0;0;0;0;false;52508;1445209681;-73.568641;45.518966;52532;6010965450;-73.568557;45.5197;1;31;32;4588171;Bus 24 : Sherbrooke Est;"";STM;24-E;Décarie / Brillon;Montgomery / Sherbrooke
329065109;"{\"type\":\"LineString\",\"coordinates\":[[-73.5691959,45.5191198],[-73.5691837,45.5191329],[-73.568518,45.5198504],[-73.5681237,45.5202756],[-73.5681122,45.5202878],[-73.5678238,45.5205988],[-73.5672828,45.5211819],[-73.5666477,45.5218667],[-73.5665228,45.5220084]]}";1;Rue Cherrier;1;50;false;false;true;false;false;false;191.5;4;0;0;0;0;false;52592;1445209673;-73.566678;45.521721;52647;5045487925;-73.5648877;45.5245012;1;33;34;4588171;Bus 24 : Sherbrooke Est;"";STM;24-E;Décarie / Brillon;Montgomery / Sherbrooke
556601073;"{\"type\":\"LineString\",\"coordinates\":[[-73.5665228,45.5220084],[-73.5660213,45.5225403]]}";2;Rue Cherrier;1;50;false;false;false;false;false;false;71.0;1;0;0;0;0;false;52592;1445209673;-73.566678;45.521721;52647;5045487925;-73.5648877;45.5245012;0;33;34;4588171;Bus 24 : Sherbrooke Est;"";STM;24-E;Décarie / Brillon;Montgomery / Sherbrooke
107237431;"{\"type\":\"LineString\",\"coordinates\":[[-73.5654409,45.5231997],[-73.5657175,45.5229051],[-73.5659103,45.5227091],[-73.5660213,45.5225403]]}";3;Rue Cherrier;1;50;false;true;true;false;false;false;87.0;0;0;0;0;0;false;52592;1445209673;-73.566678;45.521721;52647;5045487925;-73.5648877;45.5245012;0;33;34;4588171;Bus 24 : Sherbrooke Est;"";STM;24-E;Décarie / Brillon;Montgomery / Sherbrooke
360141653;"{\"type\":\"LineString\",\"coordinates\":[[-73.5654409,45.5231997],[-73.5652334,45.523796]]}";4;Rue Sherbrooke Est;6;50;false;false;true;false;false;false;69.0;0;0;0;0;0;false;52592;1445209673;-73.566678;45.521721;52647;5045487925;-73.5648877;45.5245012;0;33;34;4588171;Bus 24 : Sherbrooke Est;"";STM;24-E;Décarie / Brillon;Montgomery / Sherbrooke
463886955;"{\"type\":\"LineString\",\"coordinates\":[[-73.5652334,45.523796],[-73.5649515,45.5246454]]}";5;Rue Sherbrooke Est;6;50;false;false;true;false;false;false;48.5;1;0;0;0;0;false;52592;1445209673;-73.566678;45.521721;52647;5045487925;-73.5648877;45.5245012;1;33;34;4588171;Bus 24 : Sherbrooke Est;"";STM;24-E;Décarie / Brillon;Montgomery / Sherbrooke
455449062;"{\"type\":\"LineString\",\"coordinates\":[[-73.564715,45.5253582],[-73.5644833,45.5260561],[-73.5644374,45.5261945],[-73.5641956,45.5269283],[-73.564167,45.5270152]]}";1;Rue Sherbrooke Est;6;50;false;false;true;false;false;false;94.5;2;0;0;0;0;false;54019;6010972706;-73.564249;45.526576;52683;6010975924;-73.563716;45.528239;1;36;37;4588171;Bus 24 : Sherbrooke Est;"";STM;24-E;Décarie / Brillon;Montgomery / Sherbrooke
455449061;"{\"type\":\"LineString\",\"coordinates\":[[-73.564167,45.5270152],[-73.5641531,45.527064],[-73.5639033,45.5279407]]}";2;Rue Sherbrooke Est;6;50;false;false;true;false;false;false;105.0;2;0;0;0;0;false;54019;6010972706;-73.564249;45.526576;52683;6010975924;-73.563716;45.528239;0;36;37;4588171;Bus 24 : Sherbrooke Est;"";STM;24-E;Décarie / Brillon;Montgomery / Sherbrooke
20418390;"{\"type\":\"LineString\",\"coordinates\":[[-73.5639033,45.5279407],[-73.5636559,45.5288269]]}";3;Rue Sherbrooke Est;6;50;false;false;true;false;false;false;50.5;1;0;0;0;0;false;54019;6010972706;-73.564249;45.526576;52683;6010975924;-73.563716;45.528239;1;36;37;4588171;Bus 24 : Sherbrooke Est;"";STM;24-E;Décarie / Brillon;Montgomery / Sherbrooke
20418390;"{\"type\":\"LineString\",\"coordinates\":[[-73.5639033,45.5279407],[-73.5636559,45.5288269]]}";1;Rue Sherbrooke Est;6;50;false;false;true;false;false;false;50.5;1;0;0;0;0;false;52683;6010975924;-73.563716;45.528239;52701;6010969622;-73.563413;45.529175;1;37;38;4588171;Bus 24 : Sherbrooke Est;"";STM;24-E;Décarie / Brillon;Montgomery / Sherbrooke
453266467;"{\"type\":\"LineString\",\"coordinates\":[[-73.5636559,45.5288269],[-73.5634829,45.5293853]]}";2;Rue Sherbrooke Est;6;50;false;false;true;false;false;false;32.0;1;0;0;0;0;false;52683;6010975924;-73.563716;45.528239;52701;6010969622;-73.563413;45.529175;1;37;38;4588171;Bus 24 : Sherbrooke Est;"";STM;24-E;Décarie / Brillon;Montgomery / Sherbrooke
453266467;"{\"type\":\"LineString\",\"coordinates\":[[-73.5636559,45.5288269],[-73.5634829,45.5293853]]}";1;Rue Sherbrooke Est;6;50;false;false;true;false;false;false;32.0;1;0;0;0;0;false;52701;6010969622;-73.563413;45.529175;52720;5043793021;-73.5630412;45.530407;1;38;39;4588171;Bus 24 : Sherbrooke Est;"";STM;24-E;Décarie / Brillon;Montgomery / Sherbrooke
453266466;"{\"type\":\"LineString\",\"coordinates\":[[-73.5634829,45.5293853],[-73.5632871,45.5299978]]}";2;Rue Sherbrooke Est;6;50;false;false;true;false;false;false;70.0;2;0;0;0;0;false;52701;6010969622;-73.563413;45.529175;52720;5043793021;-73.5630412;45.530407;0;38;39;4588171;Bus 24 : Sherbrooke Est;"";STM;24-E;Décarie / Brillon;Montgomery / Sherbrooke
453266468;"{\"type\":\"LineString\",\"coordinates\":[[-73.5632871,45.5299978],[-73.5630515,45.5307624]]}";3;Rue Sherbrooke Est;6;50;false;false;true;false;false;false;43.5;2;0;0;0;0;false;52701;6010969622;-73.563413;45.529175;52720;5043793021;-73.5630412;45.530407;1;38;39;4588171;Bus 24 : Sherbrooke Est;"";STM;24-E;Décarie / Brillon;Montgomery / Sherbrooke
453266468;"{\"type\":\"LineString\",\"coordinates\":[[-73.5632871,45.5299978],[-73.5630515,45.5307624]]}";1;Rue Sherbrooke Est;6;50;false;false;true;false;false;false;43.5;2;0;0;0;0;false;52720;5043793021;-73.5630412;45.530407;52737;6010965897;-73.562432;45.532278;1;39;40;4588171;Bus 24 : Sherbrooke Est;"";STM;24-E;Décarie / Brillon;Montgomery / Sherbrooke
463440566;"{\"type\":\"LineString\",\"coordinates\":[[-73.5630515,45.5307624],[-73.5628128,45.5315314]]}";2;Rue Sherbrooke Est;6;50;false;false;true;false;false;false;88.0;1;0;0;0;0;false;52720;5043793021;-73.5630412;45.530407;52737;6010965897;-73.562432;45.532278;0;39;40;4588171;Bus 24 : Sherbrooke Est;"";STM;24-E;Décarie / Brillon;Montgomery / Sherbrooke
463440565;"{\"type\":\"LineString\",\"coordinates\":[[-73.5628128,45.5315314],[-73.5625108,45.5324485]]}";3;Rue Sherbrooke Est;6;50;false;false;true;false;false;false;52.5;1;0;0;0;0;false;52720;5043793021;-73.5630412;45.530407;52737;6010965897;-73.562432;45.532278;1;39;40;4588171;Bus 24 : Sherbrooke Est;"";STM;24-E;Décarie / Brillon;Montgomery / Sherbrooke
329065115;"{\"type\":\"LineString\",\"coordinates\":[[-73.5625108,45.5324485],[-73.5623173,45.533065],[-73.5621147,45.533669],[-73.5618603,45.5344643],[-73.5615989,45.5352396],[-73.5613724,45.5359293]]}";1;Rue Sherbrooke Est;6;50;false;false;true;false;false;false;198.5;3;0;0;0;0;false;52765;6010973951;-73.561319;45.535703;52772;6010981685;-73.560725;45.536865;1;42;43;4588171;Bus 24 : Sherbrooke Est;"";STM;24-E;Décarie / Brillon;Montgomery / Sherbrooke
329066837;"{\"type\":\"LineString\",\"coordinates\":[[-73.5613724,45.5359293],[-73.5610455,45.5365652]]}";2;Rue Sherbrooke Est;6;50;false;false;true;false;false;false;76.0;2;0;0;0;0;false;52765;6010973951;-73.561319;45.535703;52772;6010981685;-73.560725;45.536865;0;42;43;4588171;Bus 24 : Sherbrooke Est;"";STM;24-E;Décarie / Brillon;Montgomery / Sherbrooke
395307468;"{\"type\":\"LineString\",\"coordinates\":[[-73.5610455,45.5365652],[-73.5606832,45.5372538],[-73.5603466,45.5378511],[-73.5600262,45.5384821]]}";3;Rue Sherbrooke Est;6;50;false;false;true;false;false;false;114.0;1;0;0;0;0;false;52765;6010973951;-73.561319;45.535703;52772;6010981685;-73.560725;45.536865;1;42;43;4588171;Bus 24 : Sherbrooke Est;"";STM;24-E;Décarie / Brillon;Montgomery / Sherbrooke
395307468;"{\"type\":\"LineString\",\"coordinates\":[[-73.5610455,45.5365652],[-73.5606832,45.5372538],[-73.5603466,45.5378511],[-73.5600262,45.5384821]]}";1;Rue Sherbrooke Est;6;50;false;false;true;false;false;false;114.0;1;0;0;0;0;false;52772;6010981685;-73.560725;45.536865;52756;6010966025;-73.561312;45.539413;1;43;44;4588171;Bus 24 : Sherbrooke Est;"";STM;24-E;Décarie / Brillon;Montgomery / Sherbrooke
160499265;"{\"type\":\"LineString\",\"coordinates\":[[-73.5600262,45.5384821],[-73.5603011,45.5385795],[-73.560517,45.538656],[-73.5611806,45.5388912],[-73.5613854,45.5389637],[-73.5616006,45.53904]]}";2;Rue Hogan;1;50;false;true;true;false;false;false;138.0;1;0;0;0;0;false;52772;6010981685;-73.560725;45.536865;52756;6010966025;-73.561312;45.539413;0;43;44;4588171;Bus 24 : Sherbrooke Est;"";STM;24-E;Décarie / Brillon;Montgomery / Sherbrooke
329066842;"{\"type\":\"LineString\",\"coordinates\":[[-73.5614004,45.5395451],[-73.561412,45.5394204],[-73.5614555,45.5392929],[-73.5615155,45.539164],[-73.5616006,45.53904]]}";3;Rue Rachel Est;1;50;false;false;true;false;false;false;29.5;1;0;0;0;0;false;52772;6010981685;-73.560725;45.536865;52756;6010966025;-73.561312;45.539413;1;43;44;4588171;Bus 24 : Sherbrooke Est;"";STM;24-E;Décarie / Brillon;Montgomery / Sherbrooke
