way_id;shape;index;name;nb_lanes;legal_speed;speed_zone_30;oneway;shares_bike;bike_box;bus_lane;dedicated_bus_lane;length;nb_traffic_signals;nb_crossings;nb_stops;nb_give_ways;nb_lvl_crossings;roundabout;stop_id_orig;node_id_orig;coord_x_orig;coord_y_orig;stop_id_dest;node_id_dest;coord_x_dest;coord_y_dest;nb_neighbouring_ways_bus_stop;ordre_orig;ordre_dest;id_line;line_name;colour;operator;ref;from;to
449980025;"{\"type\":\"LineString\",\"coordinates\":[[-73.5647776,45.4985685],[-73.564483,45.4984359]]}";1;"";1;50;false;false;true;false;true;false;28.0;0;0;0;0;0;false;16000;6132969475;-73.564729;45.498457;78606;6190670003;-73.683171;45.399932;1;0;1;9370198;Bus 28 : Direction Châteauguay - Beauharnois - Valleyfield;"";EXO;28 O;Terminus Mansfield;Châteauguay - Beauharnois ou Terminus Salaberry-de-Valleyfield
686910698;"{\"type\":\"LineString\",\"coordinates\":[[-73.564483,45.4984359],[-73.5638745,45.4981621]]}";2;"";1;50;false;false;true;false;true;false;57.0;0;0;0;0;0;false;16000;6132969475;-73.564729;45.498457;78606;6190670003;-73.683171;45.399932;0;0;1;9370198;Bus 28 : Direction Châteauguay - Beauharnois - Valleyfield;"";EXO;28 O;Terminus Mansfield;Châteauguay - Beauharnois ou Terminus Salaberry-de-Valleyfield
673699711;"{\"type\":\"LineString\",\"coordinates\":[[-73.5638745,45.4981621],[-73.5635809,45.49803]]}";3;"";1;50;false;false;true;false;true;false;28.0;0;0;0;0;0;false;16000;6132969475;-73.564729;45.498457;78606;6190670003;-73.683171;45.399932;0;0;1;9370198;Bus 28 : Direction Châteauguay - Beauharnois - Valleyfield;"";EXO;28 O;Terminus Mansfield;Châteauguay - Beauharnois ou Terminus Salaberry-de-Valleyfield
464718640;"{\"type\":\"LineString\",\"coordinates\":[[-73.5639561,45.4976287],[-73.5635809,45.49803]]}";4;Rue Saint-Jacques;1;50;false;false;true;false;false;false;54.0;1;0;0;0;0;false;16000;6132969475;-73.564729;45.498457;78606;6190670003;-73.683171;45.399932;0;0;1;9370198;Bus 28 : Direction Châteauguay - Beauharnois - Valleyfield;"";EXO;28 O;Terminus Mansfield;Châteauguay - Beauharnois ou Terminus Salaberry-de-Valleyfield
674290279;"{\"type\":\"LineString\",\"coordinates\":[[-73.5639561,45.4976287],[-73.5651977,45.4982305]]}";5;Rue Mansfield;1;50;false;true;true;false;false;false;118.0;2;0;0;0;0;false;16000;6132969475;-73.564729;45.498457;78606;6190670003;-73.683171;45.399932;0;0;1;9370198;Bus 28 : Direction Châteauguay - Beauharnois - Valleyfield;"";EXO;28 O;Terminus Mansfield;Châteauguay - Beauharnois ou Terminus Salaberry-de-Valleyfield
465653670;"{\"type\":\"LineString\",\"coordinates\":[[-73.5651977,45.4982305],[-73.565584,45.4979128]]}";6;Rue Saint-Antoine Ouest;4;50;false;false;true;false;false;false;47.0;1;0;0;0;0;false;16000;6132969475;-73.564729;45.498457;78606;6190670003;-73.683171;45.399932;0;0;1;9370198;Bus 28 : Direction Châteauguay - Beauharnois - Valleyfield;"";EXO;28 O;Terminus Mansfield;Châteauguay - Beauharnois ou Terminus Salaberry-de-Valleyfield
465653669;"{\"type\":\"LineString\",\"coordinates\":[[-73.565584,45.4979128],[-73.566035,45.497542]]}";7;Rue Saint-Antoine Ouest;4;50;false;false;true;false;false;false;55.0;1;0;0;0;0;false;16000;6132969475;-73.564729;45.498457;78606;6190670003;-73.683171;45.399932;0;0;1;9370198;Bus 28 : Direction Châteauguay - Beauharnois - Valleyfield;"";EXO;28 O;Terminus Mansfield;Châteauguay - Beauharnois ou Terminus Salaberry-de-Valleyfield
465653666;"{\"type\":\"LineString\",\"coordinates\":[[-73.566035,45.497542],[-73.566739,45.4969462],[-73.5668027,45.4968923]]}";8;Rue Saint-Antoine Ouest;4;50;false;false;true;false;false;false;94.0;2;1;0;0;0;false;16000;6132969475;-73.564729;45.498457;78606;6190670003;-73.683171;45.399932;0;0;1;9370198;Bus 28 : Direction Châteauguay - Beauharnois - Valleyfield;"";EXO;28 O;Terminus Mansfield;Châteauguay - Beauharnois ou Terminus Salaberry-de-Valleyfield
450956616;"{\"type\":\"LineString\",\"coordinates\":[[-73.5668027,45.4968923],[-73.5668854,45.4968544],[-73.5669754,45.4968132],[-73.5673223,45.496528],[-73.5676833,45.4962471],[-73.5677477,45.4961934]]}";9;Rue Saint-Antoine Ouest;4;50;false;true;true;false;false;false;108.0;2;1;0;0;0;false;16000;6132969475;-73.564729;45.498457;78606;6190670003;-73.683171;45.399932;0;0;1;9370198;Bus 28 : Direction Châteauguay - Beauharnois - Valleyfield;"";EXO;28 O;Terminus Mansfield;Châteauguay - Beauharnois ou Terminus Salaberry-de-Valleyfield
39442470;"{\"type\":\"LineString\",\"coordinates\":[[-73.5677477,45.4961934],[-73.5678636,45.4960999],[-73.5679546,45.4960257],[-73.5680164,45.4959745],[-73.5680258,45.4959667],[-73.5680685,45.4959324],[-73.5685796,45.4955246],[-73.5690756,45.4951279],[-73.5691432,45.4950739]]}";10;Rue Saint-Antoine Ouest;4;50;false;true;true;false;false;false;166.0;2;1;0;0;0;false;16000;6132969475;-73.564729;45.498457;78606;6190670003;-73.683171;45.399932;0;0;1;9370198;Bus 28 : Direction Châteauguay - Beauharnois - Valleyfield;"";EXO;28 O;Terminus Mansfield;Châteauguay - Beauharnois ou Terminus Salaberry-de-Valleyfield
673699710;"{\"type\":\"LineString\",\"coordinates\":[[-73.5691432,45.4950739],[-73.5692141,45.4950152],[-73.5700485,45.4943243],[-73.5701097,45.4942737],[-73.5701549,45.4942371],[-73.5703507,45.4940789]]}";11;Rue Saint-Antoine Ouest;4;50;false;true;true;false;false;false;146.0;2;3;0;0;0;false;16000;6132969475;-73.564729;45.498457;78606;6190670003;-73.683171;45.399932;0;0;1;9370198;Bus 28 : Direction Châteauguay - Beauharnois - Valleyfield;"";EXO;28 O;Terminus Mansfield;Châteauguay - Beauharnois ou Terminus Salaberry-de-Valleyfield
19899867;"{\"type\":\"LineString\",\"coordinates\":[[-73.5703507,45.4940789],[-73.5714336,45.4936251]]}";12;"";1;50;false;true;true;false;false;false;99.0;0;0;0;0;0;false;16000;6132969475;-73.564729;45.498457;78606;6190670003;-73.683171;45.399932;0;0;1;9370198;Bus 28 : Direction Châteauguay - Beauharnois - Valleyfield;"";EXO;28 O;Terminus Mansfield;Châteauguay - Beauharnois ou Terminus Salaberry-de-Valleyfield
35165799;"{\"type\":\"LineString\",\"coordinates\":[[-73.5714336,45.4936251],[-73.5722902,45.49316],[-73.572521,45.4930263]]}";13;"";1;50;false;true;false;false;false;false;108.0;0;0;0;0;0;false;16000;6132969475;-73.564729;45.498457;78606;6190670003;-73.683171;45.399932;0;0;1;9370198;Bus 28 : Direction Châteauguay - Beauharnois - Valleyfield;"";EXO;28 O;Terminus Mansfield;Châteauguay - Beauharnois ou Terminus Salaberry-de-Valleyfield
399681575;"{\"type\":\"LineString\",\"coordinates\":[[-73.572521,45.4930263],[-73.5727156,45.4929127],[-73.5729264,45.4927736],[-73.5730935,45.4926581],[-73.5734317,45.4923988],[-73.5749279,45.4912176],[-73.5759548,45.4904057],[-73.576606,45.4898803],[-73.5772539,45.4893491],[-73.5780077,45.4886657]]}";14;"";1;50;false;true;false;false;false;false;648.0;0;0;0;0;0;false;16000;6132969475;-73.564729;45.498457;78606;6190670003;-73.683171;45.399932;0;0;1;9370198;Bus 28 : Direction Châteauguay - Beauharnois - Valleyfield;"";EXO;28 O;Terminus Mansfield;Châteauguay - Beauharnois ou Terminus Salaberry-de-Valleyfield
545940069;"{\"type\":\"LineString\",\"coordinates\":[[-73.5780077,45.4886657],[-73.5783147,45.4884294],[-73.5798891,45.4873071],[-73.5836307,45.4849647]]}";15;Autoroute Ville-Marie;4;70;false;true;false;false;false;false;602.0;0;0;0;0;0;false;16000;6132969475;-73.564729;45.498457;78606;6190670003;-73.683171;45.399932;0;0;1;9370198;Bus 28 : Direction Châteauguay - Beauharnois - Valleyfield;"";EXO;28 O;Terminus Mansfield;Châteauguay - Beauharnois ou Terminus Salaberry-de-Valleyfield
545940066;"{\"type\":\"LineString\",\"coordinates\":[[-73.5836307,45.4849647],[-73.5837372,45.4848972],[-73.5843358,45.4845249]]}";16;Autoroute Ville-Marie;4;50;false;true;true;false;false;false;74.0;0;0;0;0;0;false;16000;6132969475;-73.564729;45.498457;78606;6190670003;-73.683171;45.399932;0;0;1;9370198;Bus 28 : Direction Châteauguay - Beauharnois - Valleyfield;"";EXO;28 O;Terminus Mansfield;Châteauguay - Beauharnois ou Terminus Salaberry-de-Valleyfield
733974070;"{\"type\":\"LineString\",\"coordinates\":[[-73.5843358,45.4845249],[-73.5845522,45.4843867]]}";17;Autoroute Ville-Marie;4;50;false;true;true;false;false;false;23.0;0;0;0;0;0;false;16000;6132969475;-73.564729;45.498457;78606;6190670003;-73.683171;45.399932;0;0;1;9370198;Bus 28 : Direction Châteauguay - Beauharnois - Valleyfield;"";EXO;28 O;Terminus Mansfield;Châteauguay - Beauharnois ou Terminus Salaberry-de-Valleyfield
733974069;"{\"type\":\"LineString\",\"coordinates\":[[-73.5845522,45.4843867],[-73.5924085,45.4794675],[-73.5931535,45.4789983]]}";18;Autoroute Ville-Marie;4;50;false;true;true;false;false;false;900.0;0;0;0;0;0;false;16000;6132969475;-73.564729;45.498457;78606;6190670003;-73.683171;45.399932;0;0;1;9370198;Bus 28 : Direction Châteauguay - Beauharnois - Valleyfield;"";EXO;28 O;Terminus Mansfield;Châteauguay - Beauharnois ou Terminus Salaberry-de-Valleyfield
554954787;"{\"type\":\"LineString\",\"coordinates\":[[-73.5931535,45.4789983],[-73.5936103,45.4786262],[-73.5938996,45.478335],[-73.5941784,45.4780519],[-73.5944733,45.4777264],[-73.5947727,45.4773412],[-73.5949744,45.4770099],[-73.5951987,45.4765856],[-73.5954253,45.476089]]}";19;Autoroute Ville-Marie;3;50;false;true;true;false;false;false;373.0;0;0;0;0;0;false;16000;6132969475;-73.564729;45.498457;78606;6190670003;-73.683171;45.399932;0;0;1;9370198;Bus 28 : Direction Châteauguay - Beauharnois - Valleyfield;"";EXO;28 O;Terminus Mansfield;Châteauguay - Beauharnois ou Terminus Salaberry-de-Valleyfield
685116209;"{\"type\":\"LineString\",\"coordinates\":[[-73.5954253,45.476089],[-73.5955472,45.4758078]]}";20;Autoroute Ville-Marie;3;50;false;true;true;false;false;false;33.0;0;0;0;0;0;false;16000;6132969475;-73.564729;45.498457;78606;6190670003;-73.683171;45.399932;0;0;1;9370198;Bus 28 : Direction Châteauguay - Beauharnois - Valleyfield;"";EXO;28 O;Terminus Mansfield;Châteauguay - Beauharnois ou Terminus Salaberry-de-Valleyfield
685116210;"{\"type\":\"LineString\",\"coordinates\":[[-73.5955472,45.4758078],[-73.5959319,45.4749471]]}";21;Autoroute Ville-Marie;3;50;false;true;true;false;false;false;101.0;0;0;0;0;0;false;16000;6132969475;-73.564729;45.498457;78606;6190670003;-73.683171;45.399932;0;0;1;9370198;Bus 28 : Direction Châteauguay - Beauharnois - Valleyfield;"";EXO;28 O;Terminus Mansfield;Châteauguay - Beauharnois ou Terminus Salaberry-de-Valleyfield
685116213;"{\"type\":\"LineString\",\"coordinates\":[[-73.5959319,45.4749471],[-73.5962385,45.474243]]}";22;Autoroute Ville-Marie;3;50;false;true;true;false;false;false;82.0;0;0;0;0;0;false;16000;6132969475;-73.564729;45.498457;78606;6190670003;-73.683171;45.399932;0;0;1;9370198;Bus 28 : Direction Châteauguay - Beauharnois - Valleyfield;"";EXO;28 O;Terminus Mansfield;Châteauguay - Beauharnois ou Terminus Salaberry-de-Valleyfield
651990435;"{\"type\":\"LineString\",\"coordinates\":[[-73.5962385,45.474243],[-73.5966859,45.4732442]]}";23;"";3;50;false;true;true;false;false;false;117.0;0;0;0;0;0;false;16000;6132969475;-73.564729;45.498457;78606;6190670003;-73.683171;45.399932;0;0;1;9370198;Bus 28 : Direction Châteauguay - Beauharnois - Valleyfield;"";EXO;28 O;Terminus Mansfield;Châteauguay - Beauharnois ou Terminus Salaberry-de-Valleyfield
573292758;"{\"type\":\"LineString\",\"coordinates\":[[-73.5966859,45.4732442],[-73.5968204,45.4729382]]}";24;"";3;50;false;true;true;false;false;false;36.0;0;0;0;0;0;false;16000;6132969475;-73.564729;45.498457;78606;6190670003;-73.683171;45.399932;0;0;1;9370198;Bus 28 : Direction Châteauguay - Beauharnois - Valleyfield;"";EXO;28 O;Terminus Mansfield;Châteauguay - Beauharnois ou Terminus Salaberry-de-Valleyfield
604323709;"{\"type\":\"LineString\",\"coordinates\":[[-73.5968204,45.4729382],[-73.5972952,45.4719962]]}";25;Autoroute Ville-Marie;3;50;false;true;true;false;false;false;111.0;0;0;0;0;0;false;16000;6132969475;-73.564729;45.498457;78606;6190670003;-73.683171;45.399932;0;0;1;9370198;Bus 28 : Direction Châteauguay - Beauharnois - Valleyfield;"";EXO;28 O;Terminus Mansfield;Châteauguay - Beauharnois ou Terminus Salaberry-de-Valleyfield
520337828;"{\"type\":\"LineString\",\"coordinates\":[[-73.5972952,45.4719962],[-73.5977185,45.4711679],[-73.5980104,45.4706305]]}";26;Autoroute Ville-Marie;2;70;false;true;true;false;false;false;162.0;0;0;0;0;0;false;16000;6132969475;-73.564729;45.498457;78606;6190670003;-73.683171;45.399932;0;0;1;9370198;Bus 28 : Direction Châteauguay - Beauharnois - Valleyfield;"";EXO;28 O;Terminus Mansfield;Châteauguay - Beauharnois ou Terminus Salaberry-de-Valleyfield
370516146;"{\"type\":\"LineString\",\"coordinates\":[[-73.5980104,45.4706305],[-73.5982717,45.4702483],[-73.5984579,45.4699966],[-73.5987303,45.4696651],[-73.5991046,45.4692543],[-73.5993883,45.4689631],[-73.5997255,45.4686457],[-73.5999724,45.468434]]}";27;Autoroute Ville-Marie;2;70;false;true;true;false;false;false;289.0;0;0;0;0;0;false;16000;6132969475;-73.564729;45.498457;78606;6190670003;-73.683171;45.399932;0;0;1;9370198;Bus 28 : Direction Châteauguay - Beauharnois - Valleyfield;"";EXO;28 O;Terminus Mansfield;Châteauguay - Beauharnois ou Terminus Salaberry-de-Valleyfield
400819497;"{\"type\":\"LineString\",\"coordinates\":[[-73.5999724,45.468434],[-73.6002366,45.4682247],[-73.6005229,45.4680106],[-73.6008439,45.4677752],[-73.6011661,45.4675563],[-73.6017734,45.4671908],[-73.6021019,45.4670139],[-73.6024643,45.4668192],[-73.6028409,45.4666424],[-73.6034467,45.4663615],[-73.6041745,45.4660599],[-73.6047699,45.4658208],[-73.6054145,45.4655686],[-73.6074566,45.4647595],[-73.6082641,45.4644577]]}";28;Autoroute Ville-Marie;2;70;false;true;true;false;false;false;790.0;0;0;0;0;0;false;16000;6132969475;-73.564729;45.498457;78606;6190670003;-73.683171;45.399932;0;0;1;9370198;Bus 28 : Direction Châteauguay - Beauharnois - Valleyfield;"";EXO;28 O;Terminus Mansfield;Châteauguay - Beauharnois ou Terminus Salaberry-de-Valleyfield
369021503;"{\"type\":\"LineString\",\"coordinates\":[[-73.6082641,45.4644577],[-73.6105251,45.4635433],[-73.6122761,45.4628263]]}";29;Autoroute du Souvenir;2;70;false;true;true;false;false;false;363.0;0;0;0;0;0;false;16000;6132969475;-73.564729;45.498457;78606;6190670003;-73.683171;45.399932;0;0;1;9370198;Bus 28 : Direction Châteauguay - Beauharnois - Valleyfield;"";EXO;28 O;Terminus Mansfield;Châteauguay - Beauharnois ou Terminus Salaberry-de-Valleyfield
520337809;"{\"type\":\"LineString\",\"coordinates\":[[-73.6122761,45.4628263],[-73.6127879,45.4625976],[-73.6141592,45.4620136],[-73.6155385,45.4614344],[-73.6168695,45.460882],[-73.6176895,45.4605273],[-73.618395,45.460205],[-73.6191396,45.4598496],[-73.6201833,45.4592909],[-73.6213359,45.4586367],[-73.6217224,45.458397]]}";30;Autoroute du Souvenir;3;70;false;true;true;false;false;false;889.0;0;0;0;0;0;false;16000;6132969475;-73.564729;45.498457;78606;6190670003;-73.683171;45.399932;0;0;1;9370198;Bus 28 : Direction Châteauguay - Beauharnois - Valleyfield;"";EXO;28 O;Terminus Mansfield;Châteauguay - Beauharnois ou Terminus Salaberry-de-Valleyfield
640352530;"{\"type\":\"LineString\",\"coordinates\":[[-73.6217224,45.458397],[-73.6222923,45.4580138],[-73.6228295,45.4576528],[-73.6244614,45.4565522],[-73.6260517,45.455487],[-73.6288102,45.453582],[-73.6305579,45.4523977],[-73.6314394,45.4518104],[-73.6327583,45.4509581],[-73.6336479,45.4504271],[-73.6343818,45.4499891],[-73.6360807,45.4490536],[-73.63663,45.4487539]]}";31;Autoroute du Souvenir;2;70;false;true;true;false;false;false;1584.0;0;0;0;0;0;false;16000;6132969475;-73.564729;45.498457;78606;6190670003;-73.683171;45.399932;0;0;1;9370198;Bus 28 : Direction Châteauguay - Beauharnois - Valleyfield;"";EXO;28 O;Terminus Mansfield;Châteauguay - Beauharnois ou Terminus Salaberry-de-Valleyfield
563132947;"{\"type\":\"LineString\",\"coordinates\":[[-73.63663,45.4487539],[-73.6370779,45.4485256],[-73.6389225,45.447527],[-73.6421931,45.4457308]]}";32;Autoroute du Souvenir;3;50;false;true;true;false;false;false;550.0;0;0;0;0;0;false;16000;6132969475;-73.564729;45.498457;78606;6190670003;-73.683171;45.399932;0;0;1;9370198;Bus 28 : Direction Châteauguay - Beauharnois - Valleyfield;"";EXO;28 O;Terminus Mansfield;Châteauguay - Beauharnois ou Terminus Salaberry-de-Valleyfield
563132948;"{\"type\":\"LineString\",\"coordinates\":[[-73.6421931,45.4457308],[-73.6431013,45.445283],[-73.6440176,45.4448067]]}";33;"";1;50;false;true;true;false;false;false;176.0;0;0;0;0;0;false;16000;6132969475;-73.564729;45.498457;78606;6190670003;-73.683171;45.399932;0;0;1;9370198;Bus 28 : Direction Châteauguay - Beauharnois - Valleyfield;"";EXO;28 O;Terminus Mansfield;Châteauguay - Beauharnois ou Terminus Salaberry-de-Valleyfield
420427013;"{\"type\":\"LineString\",\"coordinates\":[[-73.6440176,45.4448067],[-73.6456484,45.4439499]]}";34;"";1;50;false;true;true;false;false;false;160.0;0;0;0;0;0;false;16000;6132969475;-73.564729;45.498457;78606;6190670003;-73.683171;45.399932;0;0;1;9370198;Bus 28 : Direction Châteauguay - Beauharnois - Valleyfield;"";EXO;28 O;Terminus Mansfield;Châteauguay - Beauharnois ou Terminus Salaberry-de-Valleyfield
422990851;"{\"type\":\"LineString\",\"coordinates\":[[-73.6456484,45.4439499],[-73.6489555,45.4424246],[-73.6495576,45.4421427],[-73.6498158,45.4419947],[-73.6500076,45.4418436],[-73.650136,45.4417167],[-73.6502979,45.4415342],[-73.6504315,45.4412954],[-73.650519,45.4410525],[-73.6505373,45.4407763],[-73.6505266,45.4405702],[-73.650399,45.4393143]]}";35;"";2;50;false;true;true;false;false;false;706.0;0;0;0;0;0;false;16000;6132969475;-73.564729;45.498457;78606;6190670003;-73.683171;45.399932;0;0;1;9370198;Bus 28 : Direction Châteauguay - Beauharnois - Valleyfield;"";EXO;28 O;Terminus Mansfield;Châteauguay - Beauharnois ou Terminus Salaberry-de-Valleyfield
423985478;"{\"type\":\"LineString\",\"coordinates\":[[-73.650399,45.4393143],[-73.6501075,45.4375389]]}";36;Route 138;3;70;false;true;false;false;false;false;199.0;0;0;0;0;0;false;16000;6132969475;-73.564729;45.498457;78606;6190670003;-73.683171;45.399932;0;0;1;9370198;Bus 28 : Direction Châteauguay - Beauharnois - Valleyfield;"";EXO;28 O;Terminus Mansfield;Châteauguay - Beauharnois ou Terminus Salaberry-de-Valleyfield
422417412;"{\"type\":\"LineString\",\"coordinates\":[[-73.6501075,45.4375389],[-73.650067,45.4372624],[-73.6500634,45.4370125]]}";37;Route 138;3;70;false;true;false;false;false;false;59.0;0;0;0;0;0;false;16000;6132969475;-73.564729;45.498457;78606;6190670003;-73.683171;45.399932;0;0;1;9370198;Bus 28 : Direction Châteauguay - Beauharnois - Valleyfield;"";EXO;28 O;Terminus Mansfield;Châteauguay - Beauharnois ou Terminus Salaberry-de-Valleyfield
483748753;"{\"type\":\"LineString\",\"coordinates\":[[-73.6500634,45.4370125],[-73.6501093,45.4364705],[-73.6503575,45.4340712]]}";38;Route 138;2;70;false;true;false;false;false;false;328.0;0;0;0;0;0;false;16000;6132969475;-73.564729;45.498457;78606;6190670003;-73.683171;45.399932;0;0;1;9370198;Bus 28 : Direction Châteauguay - Beauharnois - Valleyfield;"";EXO;28 O;Terminus Mansfield;Châteauguay - Beauharnois ou Terminus Salaberry-de-Valleyfield
422990835;"{\"type\":\"LineString\",\"coordinates\":[[-73.6503575,45.4340712],[-73.6503821,45.4338408]]}";39;Route 138;2;70;false;true;false;false;false;false;26.0;0;0;0;0;0;false;16000;6132969475;-73.564729;45.498457;78606;6190670003;-73.683171;45.399932;0;0;1;9370198;Bus 28 : Direction Châteauguay - Beauharnois - Valleyfield;"";EXO;28 O;Terminus Mansfield;Châteauguay - Beauharnois ou Terminus Salaberry-de-Valleyfield
422990834;"{\"type\":\"LineString\",\"coordinates\":[[-73.6503821,45.4338408],[-73.6504721,45.4330262],[-73.650513,45.4327647],[-73.6505322,45.4324714],[-73.6505022,45.4321531],[-73.6504209,45.4318329]]}";40;Route 138;2;70;false;true;false;false;false;false;225.0;0;0;0;0;0;false;16000;6132969475;-73.564729;45.498457;78606;6190670003;-73.683171;45.399932;0;0;1;9370198;Bus 28 : Direction Châteauguay - Beauharnois - Valleyfield;"";EXO;28 O;Terminus Mansfield;Châteauguay - Beauharnois ou Terminus Salaberry-de-Valleyfield
422990844;"{\"type\":\"LineString\",\"coordinates\":[[-73.6504209,45.4318329],[-73.6503173,45.4316279],[-73.6496862,45.4305428],[-73.6495564,45.4302502],[-73.6494646,45.429996],[-73.6494266,45.4297701],[-73.6494178,45.4295196],[-73.6494398,45.429245],[-73.6494984,45.4290092],[-73.6496368,45.4286451]]}";41;Route 138;2;70;false;true;false;false;false;false;370.0;0;0;0;0;0;false;16000;6132969475;-73.564729;45.498457;78606;6190670003;-73.683171;45.399932;0;0;1;9370198;Bus 28 : Direction Châteauguay - Beauharnois - Valleyfield;"";EXO;28 O;Terminus Mansfield;Châteauguay - Beauharnois ou Terminus Salaberry-de-Valleyfield
434713107;"{\"type\":\"LineString\",\"coordinates\":[[-73.6496368,45.4286451],[-73.6499059,45.4280259]]}";42;Route 138;2;70;false;true;false;false;false;false;72.0;0;0;0;0;0;false;16000;6132969475;-73.564729;45.498457;78606;6190670003;-73.683171;45.399932;0;0;1;9370198;Bus 28 : Direction Châteauguay - Beauharnois - Valleyfield;"";EXO;28 O;Terminus Mansfield;Châteauguay - Beauharnois ou Terminus Salaberry-de-Valleyfield
434713109;"{\"type\":\"LineString\",\"coordinates\":[[-73.6499059,45.4280259],[-73.6514473,45.424205],[-73.6516127,45.4237968],[-73.652203,45.4226081]]}";43;Route 138;2;70;false;true;false;false;false;false;629.0;0;0;0;0;0;false;16000;6132969475;-73.564729;45.498457;78606;6190670003;-73.683171;45.399932;0;0;1;9370198;Bus 28 : Direction Châteauguay - Beauharnois - Valleyfield;"";EXO;28 O;Terminus Mansfield;Châteauguay - Beauharnois ou Terminus Salaberry-de-Valleyfield
467989463;"{\"type\":\"LineString\",\"coordinates\":[[-73.652203,45.4226081],[-73.652266,45.4224832]]}";44;Route 138;1;50;false;true;true;false;false;false;15.0;0;0;0;0;0;false;16000;6132969475;-73.564729;45.498457;78606;6190670003;-73.683171;45.399932;0;0;1;9370198;Bus 28 : Direction Châteauguay - Beauharnois - Valleyfield;"";EXO;28 O;Terminus Mansfield;Châteauguay - Beauharnois ou Terminus Salaberry-de-Valleyfield
417092084;"{\"type\":\"LineString\",\"coordinates\":[[-73.652266,45.4224832],[-73.6523849,45.4222466]]}";45;Pont Honoré-Mercier;1;50;false;true;true;false;false;false;28.0;0;0;0;0;0;false;16000;6132969475;-73.564729;45.498457;78606;6190670003;-73.683171;45.399932;0;0;1;9370198;Bus 28 : Direction Châteauguay - Beauharnois - Valleyfield;"";EXO;28 O;Terminus Mansfield;Châteauguay - Beauharnois ou Terminus Salaberry-de-Valleyfield
482530517;"{\"type\":\"LineString\",\"coordinates\":[[-73.6523849,45.4222466],[-73.6524512,45.4221211]]}";46;Pont Honoré-Mercier;1;50;false;true;false;false;false;false;15.0;0;0;0;0;0;false;16000;6132969475;-73.564729;45.498457;78606;6190670003;-73.683171;45.399932;0;0;1;9370198;Bus 28 : Direction Châteauguay - Beauharnois - Valleyfield;"";EXO;28 O;Terminus Mansfield;Châteauguay - Beauharnois ou Terminus Salaberry-de-Valleyfield
482530518;"{\"type\":\"LineString\",\"coordinates\":[[-73.6524512,45.4221211],[-73.6527798,45.4214923]]}";47;Pont Honoré-Mercier;1;50;false;true;false;false;false;false;75.0;0;0;0;0;0;false;16000;6132969475;-73.564729;45.498457;78606;6190670003;-73.683171;45.399932;0;0;1;9370198;Bus 28 : Direction Châteauguay - Beauharnois - Valleyfield;"";EXO;28 O;Terminus Mansfield;Châteauguay - Beauharnois ou Terminus Salaberry-de-Valleyfield
567465771;"{\"type\":\"LineString\",\"coordinates\":[[-73.6527798,45.4214923],[-73.6547778,45.4177144],[-73.656277,45.4147936],[-73.6564471,45.4144551],[-73.6567326,45.4138965],[-73.6574807,45.4124561],[-73.658502,45.410453],[-73.6592403,45.4089848]]}";48;Pont Honoré-Mercier;2;50;false;true;false;false;false;false;1479.0;0;0;0;0;0;false;16000;6132969475;-73.564729;45.498457;78606;6190670003;-73.683171;45.399932;0;0;1;9370198;Bus 28 : Direction Châteauguay - Beauharnois - Valleyfield;"";EXO;28 O;Terminus Mansfield;Châteauguay - Beauharnois ou Terminus Salaberry-de-Valleyfield
685945572;"{\"type\":\"LineString\",\"coordinates\":[[-73.6592403,45.4089848],[-73.6593146,45.4088561],[-73.6593951,45.4087253],[-73.6594779,45.4085928],[-73.6595361,45.408509],[-73.6596993,45.4082977]]}";49;Pont Honoré-Mercier;2;70;false;true;false;false;false;false;85.0;0;0;0;0;0;false;16000;6132969475;-73.564729;45.498457;78606;6190670003;-73.683171;45.399932;0;0;1;9370198;Bus 28 : Direction Châteauguay - Beauharnois - Valleyfield;"";EXO;28 O;Terminus Mansfield;Châteauguay - Beauharnois ou Terminus Salaberry-de-Valleyfield
482530519;"{\"type\":\"LineString\",\"coordinates\":[[-73.6596993,45.4082977],[-73.6603312,45.4075269],[-73.660621,45.4071637],[-73.6608681,45.4068579],[-73.6613401,45.4062694],[-73.6615113,45.4060485],[-73.6616561,45.4058905],[-73.6618306,45.4057249],[-73.662051,45.405562],[-73.6622966,45.4054152],[-73.6624994,45.4053157],[-73.662652,45.4052519],[-73.6627964,45.405198]]}";50;Pont Honoré-Mercier;2;70;false;true;false;false;false;false;428.0;0;0;0;0;0;false;16000;6132969475;-73.564729;45.498457;78606;6190670003;-73.683171;45.399932;0;0;1;9370198;Bus 28 : Direction Châteauguay - Beauharnois - Valleyfield;"";EXO;28 O;Terminus Mansfield;Châteauguay - Beauharnois ou Terminus Salaberry-de-Valleyfield
48747491;"{\"type\":\"LineString\",\"coordinates\":[[-73.6627964,45.405198],[-73.6630775,45.4051134],[-73.6635366,45.4049902],[-73.6642348,45.4048001],[-73.6648979,45.4046224],[-73.6655088,45.4044566],[-73.6661857,45.4042722],[-73.6668546,45.4040911],[-73.6674442,45.4039379],[-73.6679272,45.4038067],[-73.6695947,45.4033564]]}";51;Pont Honoré-Mercier;2;70;false;true;false;false;false;false;570.0;0;0;0;0;0;false;16000;6132969475;-73.564729;45.498457;78606;6190670003;-73.683171;45.399932;0;0;1;9370198;Bus 28 : Direction Châteauguay - Beauharnois - Valleyfield;"";EXO;28 O;Terminus Mansfield;Châteauguay - Beauharnois ou Terminus Salaberry-de-Valleyfield
678489529;"{\"type\":\"LineString\",\"coordinates\":[[-73.6695947,45.4033564],[-73.6718958,45.4027794]]}";52;Route 132/138;2;70;false;true;false;false;false;false;192.0;0;0;0;0;0;false;16000;6132969475;-73.564729;45.498457;78606;6190670003;-73.683171;45.399932;0;0;1;9370198;Bus 28 : Direction Châteauguay - Beauharnois - Valleyfield;"";EXO;28 O;Terminus Mansfield;Châteauguay - Beauharnois ou Terminus Salaberry-de-Valleyfield
341667136;"{\"type\":\"LineString\",\"coordinates\":[[-73.6718958,45.4027794],[-73.6722556,45.4026894]]}";53;Route 132;2;70;false;true;true;false;false;false;30.0;0;0;0;0;0;false;16000;6132969475;-73.564729;45.498457;78606;6190670003;-73.683171;45.399932;0;0;1;9370198;Bus 28 : Direction Châteauguay - Beauharnois - Valleyfield;"";EXO;28 O;Terminus Mansfield;Châteauguay - Beauharnois ou Terminus Salaberry-de-Valleyfield
45271209;"{\"type\":\"LineString\",\"coordinates\":[[-73.6722556,45.4026894],[-73.6756545,45.4017831],[-73.6760442,45.4016792],[-73.6761514,45.4016506],[-73.6770081,45.4014221],[-73.6780331,45.4011488],[-73.6786454,45.4009848],[-73.6805,45.4004879],[-73.6814883,45.4002232],[-73.6826567,45.3999102],[-73.6832169,45.3997601],[-73.6840441,45.3995385],[-73.6852715,45.3992613],[-73.6858973,45.3991751],[-73.6864028,45.3991285],[-73.6865411,45.3991158],[-73.6871365,45.399112],[-73.6877226,45.3991356],[-73.6885903,45.3991949]]}";54;Route 132;2;70;false;true;true;false;false;false;1349.0;0;0;0;0;0;false;16000;6132969475;-73.564729;45.498457;78606;6190670003;-73.683171;45.399932;2;0;1;9370198;Bus 28 : Direction Châteauguay - Beauharnois - Valleyfield;"";EXO;28 O;Terminus Mansfield;Châteauguay - Beauharnois ou Terminus Salaberry-de-Valleyfield
45271209;"{\"type\":\"LineString\",\"coordinates\":[[-73.6722556,45.4026894],[-73.6756545,45.4017831],[-73.6760442,45.4016792],[-73.6761514,45.4016506],[-73.6770081,45.4014221],[-73.6780331,45.4011488],[-73.6786454,45.4009848],[-73.6805,45.4004879],[-73.6814883,45.4002232],[-73.6826567,45.3999102],[-73.6832169,45.3997601],[-73.6840441,45.3995385],[-73.6852715,45.3992613],[-73.6858973,45.3991751],[-73.6864028,45.3991285],[-73.6865411,45.3991158],[-73.6871365,45.399112],[-73.6877226,45.3991356],[-73.6885903,45.3991949]]}";1;Route 132;2;70;false;true;true;false;false;false;674.5;0;0;0;0;0;false;78606;6190670003;-73.683171;45.399932;78898;6190668828;-73.7052;45.376988;1;1;2;9370198;Bus 28 : Direction Châteauguay - Beauharnois - Valleyfield;"";EXO;28 O;Terminus Mansfield;Châteauguay - Beauharnois ou Terminus Salaberry-de-Valleyfield
462337783;"{\"type\":\"LineString\",\"coordinates\":[[-73.6885903,45.3991949],[-73.6890208,45.3992024],[-73.6894727,45.3991883]]}";2;Route 132/138;2;70;false;true;true;false;false;false;70.0;1;0;0;0;0;false;78606;6190670003;-73.683171;45.399932;78898;6190668828;-73.7052;45.376988;0;1;2;9370198;Bus 28 : Direction Châteauguay - Beauharnois - Valleyfield;"";EXO;28 O;Terminus Mansfield;Châteauguay - Beauharnois ou Terminus Salaberry-de-Valleyfield
462337784;"{\"type\":\"LineString\",\"coordinates\":[[-73.6894727,45.3991883],[-73.6899582,45.3991497],[-73.6904651,45.3990772]]}";3;Route 132/138;2;70;false;true;true;false;false;false;79.0;1;0;0;0;0;false;78606;6190670003;-73.683171;45.399932;78898;6190668828;-73.7052;45.376988;0;1;2;9370198;Bus 28 : Direction Châteauguay - Beauharnois - Valleyfield;"";EXO;28 O;Terminus Mansfield;Châteauguay - Beauharnois ou Terminus Salaberry-de-Valleyfield
326317194;"{\"type\":\"LineString\",\"coordinates\":[[-73.6904651,45.3990772],[-73.6908661,45.3989764],[-73.6911357,45.398902],[-73.6914066,45.3988003],[-73.6917861,45.3986365],[-73.6921684,45.3984387],[-73.6925948,45.3981779],[-73.6929818,45.3978533],[-73.6932932,45.3975337],[-73.6934411,45.3973407],[-73.6935913,45.3969904]]}";4;Route 132/138;2;70;false;true;true;false;false;false;352.0;0;0;0;0;0;false;78606;6190670003;-73.683171;45.399932;78898;6190668828;-73.7052;45.376988;0;1;2;9370198;Bus 28 : Direction Châteauguay - Beauharnois - Valleyfield;"";EXO;28 O;Terminus Mansfield;Châteauguay - Beauharnois ou Terminus Salaberry-de-Valleyfield
494183738;"{\"type\":\"LineString\",\"coordinates\":[[-73.6935913,45.3969904],[-73.6944419,45.3954988],[-73.6947906,45.3948515]]}";5;Route 132/138;5;70;false;false;true;false;false;false;256.0;0;0;0;0;0;false;78606;6190670003;-73.683171;45.399932;78898;6190668828;-73.7052;45.376988;0;1;2;9370198;Bus 28 : Direction Châteauguay - Beauharnois - Valleyfield;"";EXO;28 O;Terminus Mansfield;Châteauguay - Beauharnois ou Terminus Salaberry-de-Valleyfield
13856278;"{\"type\":\"LineString\",\"coordinates\":[[-73.6947906,45.3948515],[-73.6949582,45.3946793],[-73.695728,45.393318]]}";6;Route 132/138;5;70;false;true;true;false;false;false;186.0;1;0;0;0;0;false;78606;6190670003;-73.683171;45.399932;78898;6190668828;-73.7052;45.376988;0;1;2;9370198;Bus 28 : Direction Châteauguay - Beauharnois - Valleyfield;"";EXO;28 O;Terminus Mansfield;Châteauguay - Beauharnois ou Terminus Salaberry-de-Valleyfield
494183736;"{\"type\":\"LineString\",\"coordinates\":[[-73.695728,45.393318],[-73.6962819,45.3923626],[-73.6964738,45.3918936]]}";7;Route 132/138;5;70;false;true;true;false;false;false;169.0;1;0;0;0;0;false;78606;6190670003;-73.683171;45.399932;78898;6190668828;-73.7052;45.376988;0;1;2;9370198;Bus 28 : Direction Châteauguay - Beauharnois - Valleyfield;"";EXO;28 O;Terminus Mansfield;Châteauguay - Beauharnois ou Terminus Salaberry-de-Valleyfield
638130703;"{\"type\":\"LineString\",\"coordinates\":[[-73.6964738,45.3918936],[-73.6983132,45.3886906],[-73.7044729,45.3779945]]}";8;Route 132;5;70;false;false;true;false;false;false;1666.0;0;0;0;0;0;false;78606;6190670003;-73.683171;45.399932;78898;6190668828;-73.7052;45.376988;0;1;2;9370198;Bus 28 : Direction Châteauguay - Beauharnois - Valleyfield;"";EXO;28 O;Terminus Mansfield;Châteauguay - Beauharnois ou Terminus Salaberry-de-Valleyfield
494183737;"{\"type\":\"LineString\",\"coordinates\":[[-73.7044729,45.3779945],[-73.7046146,45.3778855],[-73.7052121,45.3768862]]}";9;Route 132;5;70;false;true;true;false;false;false;68.5;1;0;0;0;0;false;78606;6190670003;-73.683171;45.399932;78898;6190668828;-73.7052;45.376988;1;1;2;9370198;Bus 28 : Direction Châteauguay - Beauharnois - Valleyfield;"";EXO;28 O;Terminus Mansfield;Châteauguay - Beauharnois ou Terminus Salaberry-de-Valleyfield
638130697;"{\"type\":\"LineString\",\"coordinates\":[[-73.7052121,45.3768862],[-73.7056223,45.376185],[-73.7058002,45.3758808]]}";1;Route 132;5;70;false;true;true;false;false;false;121.0;1;0;0;0;0;false;78898;6190668828;-73.7052;45.376988;78126;6190672393;-73.710515;45.367864;2;2;3;9370198;Bus 28 : Direction Châteauguay - Beauharnois - Valleyfield;"";EXO;28 O;Terminus Mansfield;Châteauguay - Beauharnois ou Terminus Salaberry-de-Valleyfield
638130700;"{\"type\":\"LineString\",\"coordinates\":[[-73.7058002,45.3758808],[-73.7057841,45.3757376]]}";2;Route 132;5;70;false;true;true;false;false;false;16.0;0;0;0;0;0;false;78898;6190668828;-73.7052;45.376988;78126;6190672393;-73.710515;45.367864;0;2;3;9370198;Bus 28 : Direction Châteauguay - Beauharnois - Valleyfield;"";EXO;28 O;Terminus Mansfield;Châteauguay - Beauharnois ou Terminus Salaberry-de-Valleyfield
638130699;"{\"type\":\"LineString\",\"coordinates\":[[-73.7057841,45.3757376],[-73.7059489,45.3754557],[-73.7061827,45.3750558],[-73.7077504,45.3723743],[-73.7094727,45.3694074]]}";3;Route 132;5;70;false;false;true;false;false;false;760.0;0;0;0;0;0;false;78898;6190668828;-73.7052;45.376988;78126;6190672393;-73.710515;45.367864;0;2;3;9370198;Bus 28 : Direction Châteauguay - Beauharnois - Valleyfield;"";EXO;28 O;Terminus Mansfield;Châteauguay - Beauharnois ou Terminus Salaberry-de-Valleyfield
342545892;"{\"type\":\"LineString\",\"coordinates\":[[-73.7094727,45.3694074],[-73.7095933,45.3692952],[-73.7099265,45.3687802]]}";4;Boulevard Saint-Jean-Baptiste;2;50;false;true;true;false;false;false;79.0;0;0;0;0;0;false;78898;6190668828;-73.7052;45.376988;78126;6190672393;-73.710515;45.367864;0;2;3;9370198;Bus 28 : Direction Châteauguay - Beauharnois - Valleyfield;"";EXO;28 O;Terminus Mansfield;Châteauguay - Beauharnois ou Terminus Salaberry-de-Valleyfield
462338993;"{\"type\":\"LineString\",\"coordinates\":[[-73.7099265,45.3687802],[-73.7100129,45.368635],[-73.7100358,45.3686049],[-73.7100813,45.3685176]]}";5;Boulevard Saint-Jean-Baptiste;2;50;false;true;true;false;false;false;32.0;1;0;0;0;0;false;78898;6190668828;-73.7052;45.376988;78126;6190672393;-73.710515;45.367864;0;2;3;9370198;Bus 28 : Direction Châteauguay - Beauharnois - Valleyfield;"";EXO;28 O;Terminus Mansfield;Châteauguay - Beauharnois ou Terminus Salaberry-de-Valleyfield
342545893;"{\"type\":\"LineString\",\"coordinates\":[[-73.7100813,45.3685176],[-73.7101268,45.3684268]]}";6;Boulevard Saint-Jean-Baptiste;2;50;false;true;true;false;false;false;11.0;0;0;0;0;0;false;78898;6190668828;-73.7052;45.376988;78126;6190672393;-73.710515;45.367864;0;2;3;9370198;Bus 28 : Direction Châteauguay - Beauharnois - Valleyfield;"";EXO;28 O;Terminus Mansfield;Châteauguay - Beauharnois ou Terminus Salaberry-de-Valleyfield
678426634;"{\"type\":\"LineString\",\"coordinates\":[[-73.7101268,45.3684268],[-73.7105136,45.3677917],[-73.7105526,45.3677276],[-73.7106124,45.367627]]}";7;Boulevard Saint-Jean-Baptiste;2;50;false;true;true;false;false;false;97.0;1;0;0;0;0;false;78898;6190668828;-73.7052;45.376988;78126;6190672393;-73.710515;45.367864;2;2;3;9370198;Bus 28 : Direction Châteauguay - Beauharnois - Valleyfield;"";EXO;28 O;Terminus Mansfield;Châteauguay - Beauharnois ou Terminus Salaberry-de-Valleyfield
678426634;"{\"type\":\"LineString\",\"coordinates\":[[-73.7101268,45.3684268],[-73.7105136,45.3677917],[-73.7105526,45.3677276],[-73.7106124,45.367627]]}";1;Boulevard Saint-Jean-Baptiste;2;50;false;true;true;false;false;false;48.5;1;0;0;0;0;false;78126;6190672393;-73.710515;45.367864;78168;5515415518;-73.711119;45.365445;1;3;4;9370198;Bus 28 : Direction Châteauguay - Beauharnois - Valleyfield;"";EXO;28 O;Terminus Mansfield;Châteauguay - Beauharnois ou Terminus Salaberry-de-Valleyfield
342545895;"{\"type\":\"LineString\",\"coordinates\":[[-73.7106124,45.367627],[-73.7109064,45.3670901],[-73.7109156,45.3670266],[-73.7109041,45.3669337]]}";2;Boulevard Saint-Jean-Baptiste;2;50;false;true;true;false;false;false;82.0;0;0;0;0;0;false;78126;6190672393;-73.710515;45.367864;78168;5515415518;-73.711119;45.365445;0;3;4;9370198;Bus 28 : Direction Châteauguay - Beauharnois - Valleyfield;"";EXO;28 O;Terminus Mansfield;Châteauguay - Beauharnois ou Terminus Salaberry-de-Valleyfield
666181870;"{\"type\":\"LineString\",\"coordinates\":[[-73.7109041,45.3669337],[-73.7115683,45.3658389]]}";3;Boulevard Saint-Jean-Baptiste;5;50;false;false;true;false;false;false;133.0;1;0;0;0;0;false;78126;6190672393;-73.710515;45.367864;78168;5515415518;-73.711119;45.365445;0;3;4;9370198;Bus 28 : Direction Châteauguay - Beauharnois - Valleyfield;"";EXO;28 O;Terminus Mansfield;Châteauguay - Beauharnois ou Terminus Salaberry-de-Valleyfield
677713370;"{\"type\":\"LineString\",\"coordinates\":[[-73.7115683,45.3658389],[-73.713018,45.3634711],[-73.7135371,45.3625678]]}";4;Boulevard Saint-Jean-Baptiste;5;50;false;false;true;false;false;false;197.5;2;0;0;0;0;false;78126;6190672393;-73.710515;45.367864;78168;5515415518;-73.711119;45.365445;1;3;4;9370198;Bus 28 : Direction Châteauguay - Beauharnois - Valleyfield;"";EXO;28 O;Terminus Mansfield;Châteauguay - Beauharnois ou Terminus Salaberry-de-Valleyfield
462340969;"{\"type\":\"LineString\",\"coordinates\":[[-73.7135371,45.3625678],[-73.7142507,45.3613773],[-73.7143242,45.3612455],[-73.7147433,45.3605702],[-73.7150279,45.3601066],[-73.715174,45.3598686]]}";1;Boulevard Saint-Jean-Baptiste;5;50;false;false;true;false;false;false;327.0;1;0;0;0;0;false;78180;6190671750;-73.713615;45.362695;78137;6190671784;-73.715281;45.359699;2;5;6;9370198;Bus 28 : Direction Châteauguay - Beauharnois - Valleyfield;"";EXO;28 O;Terminus Mansfield;Châteauguay - Beauharnois ou Terminus Salaberry-de-Valleyfield
43350505;"{\"type\":\"LineString\",\"coordinates\":[[-73.715174,45.3598686],[-73.7156081,45.3594189],[-73.7156753,45.3593493],[-73.7161474,45.3590055],[-73.7165779,45.3588867],[-73.7167441,45.3588409],[-73.7171692,45.3588053],[-73.7175236,45.3588035],[-73.7177888,45.3588022]]}";2;"";1;50;false;true;true;false;false;false;256.0;0;0;0;0;0;false;78180;6190671750;-73.713615;45.362695;78137;6190671784;-73.715281;45.359699;2;5;6;9370198;Bus 28 : Direction Châteauguay - Beauharnois - Valleyfield;"";EXO;28 O;Terminus Mansfield;Châteauguay - Beauharnois ou Terminus Salaberry-de-Valleyfield
43350505;"{\"type\":\"LineString\",\"coordinates\":[[-73.715174,45.3598686],[-73.7156081,45.3594189],[-73.7156753,45.3593493],[-73.7161474,45.3590055],[-73.7165779,45.3588867],[-73.7167441,45.3588409],[-73.7171692,45.3588053],[-73.7175236,45.3588035],[-73.7177888,45.3588022]]}";1;"";1;50;false;true;true;false;false;false;128.0;0;0;0;0;0;false;78137;6190671784;-73.715281;45.359699;78138;6190671783;-73.71798;45.358824;1;6;7;9370198;Bus 28 : Direction Châteauguay - Beauharnois - Valleyfield;"";EXO;28 O;Terminus Mansfield;Châteauguay - Beauharnois ou Terminus Salaberry-de-Valleyfield
666350670;"{\"type\":\"LineString\",\"coordinates\":[[-73.7272958,45.3598395],[-73.7272012,45.359829],[-73.7252656,45.3596138],[-73.723463,45.3594134],[-73.722157,45.3592668],[-73.7215402,45.3591976],[-73.718471,45.3588747],[-73.7180761,45.3588332],[-73.7177888,45.3588022]]}";2;Boulevard d'Anjou;5;50;false;false;true;false;false;false;377.0;2;0;0;0;0;false;78137;6190671784;-73.715281;45.359699;78138;6190671783;-73.71798;45.358824;1;6;7;9370198;Bus 28 : Direction Châteauguay - Beauharnois - Valleyfield;"";EXO;28 O;Terminus Mansfield;Châteauguay - Beauharnois ou Terminus Salaberry-de-Valleyfield
43350505;"{\"type\":\"LineString\",\"coordinates\":[[-73.715174,45.3598686],[-73.7156081,45.3594189],[-73.7156753,45.3593493],[-73.7161474,45.3590055],[-73.7165779,45.3588867],[-73.7167441,45.3588409],[-73.7171692,45.3588053],[-73.7175236,45.3588035],[-73.7177888,45.3588022]]}";1;"";1;50;false;true;true;false;false;false;256.0;0;0;0;0;0;false;78138;6190671783;-73.71798;45.358824;78177;6190671753;-73.723383;45.359416;2;7;8;9370198;Bus 28 : Direction Châteauguay - Beauharnois - Valleyfield;"";EXO;28 O;Terminus Mansfield;Châteauguay - Beauharnois ou Terminus Salaberry-de-Valleyfield
666350670;"{\"type\":\"LineString\",\"coordinates\":[[-73.7272958,45.3598395],[-73.7272012,45.359829],[-73.7252656,45.3596138],[-73.723463,45.3594134],[-73.722157,45.3592668],[-73.7215402,45.3591976],[-73.718471,45.3588747],[-73.7180761,45.3588332],[-73.7177888,45.3588022]]}";2;Boulevard d'Anjou;5;50;false;false;true;false;false;false;754.0;2;0;0;0;0;false;78138;6190671783;-73.71798;45.358824;78177;6190671753;-73.723383;45.359416;2;7;8;9370198;Bus 28 : Direction Châteauguay - Beauharnois - Valleyfield;"";EXO;28 O;Terminus Mansfield;Châteauguay - Beauharnois ou Terminus Salaberry-de-Valleyfield
678443243;"{\"type\":\"LineString\",\"coordinates\":[[-73.7274757,45.3598617],[-73.7272958,45.3598395]]}";1;Boulevard d'Anjou;5;50;false;false;true;false;false;false;15.0;0;0;0;0;0;false;78121;570144087;-73.727112;45.359846;78123;6190672396;-73.732539;45.360448;2;9;10;9370198;Bus 28 : Direction Châteauguay - Beauharnois - Valleyfield;"";EXO;28 O;Terminus Mansfield;Châteauguay - Beauharnois ou Terminus Salaberry-de-Valleyfield
339617749;"{\"type\":\"LineString\",\"coordinates\":[[-73.7326048,45.3604467],[-73.7324663,45.360431],[-73.7298048,45.3601294],[-73.7294646,45.3600909],[-73.728216,45.3599494],[-73.7275633,45.3598721],[-73.7274757,45.3598617]]}";2;Boulevard d'Anjou;5;50;false;false;true;false;false;false;407.0;2;0;0;0;0;false;78121;570144087;-73.727112;45.359846;78123;6190672396;-73.732539;45.360448;2;9;10;9370198;Bus 28 : Direction Châteauguay - Beauharnois - Valleyfield;"";EXO;28 O;Terminus Mansfield;Châteauguay - Beauharnois ou Terminus Salaberry-de-Valleyfield
678228603;"{\"type\":\"LineString\",\"coordinates\":[[-73.7327633,45.3604634],[-73.7326048,45.3604467]]}";1;Boulevard d'Anjou;5;50;false;false;true;false;false;false;13.0;0;0;0;0;0;false;78123;6190672396;-73.732539;45.360448;78155;6190671768;-73.735479;45.360783;2;10;11;9370198;Bus 28 : Direction Châteauguay - Beauharnois - Valleyfield;"";EXO;28 O;Terminus Mansfield;Châteauguay - Beauharnois ou Terminus Salaberry-de-Valleyfield
678228608;"{\"type\":\"LineString\",\"coordinates\":[[-73.7355666,45.3607843],[-73.7328925,45.3604782],[-73.7327633,45.3604634]]}";2;Boulevard d'Anjou;5;50;false;false;true;false;false;false;223.0;2;0;0;0;0;false;78123;6190672396;-73.732539;45.360448;78155;6190671768;-73.735479;45.360783;2;10;11;9370198;Bus 28 : Direction Châteauguay - Beauharnois - Valleyfield;"";EXO;28 O;Terminus Mansfield;Châteauguay - Beauharnois ou Terminus Salaberry-de-Valleyfield
666350672;"{\"type\":\"LineString\",\"coordinates\":[[-73.7389788,45.3611854],[-73.7379699,45.361054],[-73.7369873,45.3609436],[-73.7363184,45.3608729],[-73.7355666,45.3607843]]}";1;Boulevard d'Anjou;5;50;false;false;true;false;false;false;271.0;2;0;0;0;0;false;78155;6190671768;-73.735479;45.360783;78174;6190671756;-73.739014;45.361197;2;11;12;9370198;Bus 28 : Direction Châteauguay - Beauharnois - Valleyfield;"";EXO;28 O;Terminus Mansfield;Châteauguay - Beauharnois ou Terminus Salaberry-de-Valleyfield
376030272;"{\"type\":\"LineString\",\"coordinates\":[[-73.7430071,45.3616212],[-73.7410139,45.3613889],[-73.7399877,45.3612946],[-73.7389788,45.3611854]]}";2;Boulevard d'Anjou;4;50;false;false;true;false;false;false;320.0;1;0;0;0;0;false;78155;6190671768;-73.735479;45.360783;78174;6190671756;-73.739014;45.361197;2;11;12;9370198;Bus 28 : Direction Châteauguay - Beauharnois - Valleyfield;"";EXO;28 O;Terminus Mansfield;Châteauguay - Beauharnois ou Terminus Salaberry-de-Valleyfield
666350672;"{\"type\":\"LineString\",\"coordinates\":[[-73.7389788,45.3611854],[-73.7379699,45.361054],[-73.7369873,45.3609436],[-73.7363184,45.3608729],[-73.7355666,45.3607843]]}";1;Boulevard d'Anjou;5;50;false;false;true;false;false;false;271.0;2;0;0;0;0;false;78174;6190671756;-73.739014;45.361197;78158;6190671765;-73.74297;45.361649;2;12;13;9370198;Bus 28 : Direction Châteauguay - Beauharnois - Valleyfield;"";EXO;28 O;Terminus Mansfield;Châteauguay - Beauharnois ou Terminus Salaberry-de-Valleyfield
376030272;"{\"type\":\"LineString\",\"coordinates\":[[-73.7430071,45.3616212],[-73.7410139,45.3613889],[-73.7399877,45.3612946],[-73.7389788,45.3611854]]}";2;Boulevard d'Anjou;4;50;false;false;true;false;false;false;320.0;1;0;0;0;0;false;78174;6190671756;-73.739014;45.361197;78158;6190671765;-73.74297;45.361649;2;12;13;9370198;Bus 28 : Direction Châteauguay - Beauharnois - Valleyfield;"";EXO;28 O;Terminus Mansfield;Châteauguay - Beauharnois ou Terminus Salaberry-de-Valleyfield
806555421;"{\"type\":\"LineString\",\"coordinates\":[[-73.7443609,45.3617766],[-73.7440524,45.3617408],[-73.7437166,45.3617021],[-73.7431063,45.3616327],[-73.7430071,45.3616212]]}";1;Boulevard d'Anjou;4;50;false;false;true;false;false;false;108.0;0;0;0;0;0;false;78158;6190671765;-73.74297;45.361649;78173;6190671757;-73.744923;45.361884;2;13;14;9370198;Bus 28 : Direction Châteauguay - Beauharnois - Valleyfield;"";EXO;28 O;Terminus Mansfield;Châteauguay - Beauharnois ou Terminus Salaberry-de-Valleyfield
806553363;"{\"type\":\"LineString\",\"coordinates\":[[-73.7443609,45.3617766],[-73.7446161,45.3618175]]}";2;Boulevard d'Anjou;4;50;false;true;true;false;false;false;21.0;0;0;0;0;0;false;78158;6190671765;-73.74297;45.361649;78173;6190671757;-73.744923;45.361884;0;13;14;9370198;Bus 28 : Direction Châteauguay - Beauharnois - Valleyfield;"";EXO;28 O;Terminus Mansfield;Châteauguay - Beauharnois ou Terminus Salaberry-de-Valleyfield
44339145;"{\"type\":\"LineString\",\"coordinates\":[[-73.7446161,45.3618175],[-73.7449581,45.3618424]]}";3;Boulevard d'Anjou;3;50;false;true;true;false;false;false;27.0;0;0;0;0;0;false;78158;6190671765;-73.74297;45.361649;78173;6190671757;-73.744923;45.361884;2;13;14;9370198;Bus 28 : Direction Châteauguay - Beauharnois - Valleyfield;"";EXO;28 O;Terminus Mansfield;Châteauguay - Beauharnois ou Terminus Salaberry-de-Valleyfield
13811756;"{\"type\":\"LineString\",\"coordinates\":[[-73.7449581,45.3618424],[-73.7450896,45.3618577],[-73.7452276,45.3618584],[-73.7453264,45.3618588]]}";1;Boulevard d'Anjou;2;50;false;true;true;false;false;false;29.0;0;0;0;0;0;false;78173;6190671757;-73.744923;45.361884;78184;6190671746;-73.749221;45.360154;2;14;15;9370198;Bus 28 : Direction Châteauguay - Beauharnois - Valleyfield;"";EXO;28 O;Terminus Mansfield;Châteauguay - Beauharnois ou Terminus Salaberry-de-Valleyfield
339067977;"{\"type\":\"LineString\",\"coordinates\":[[-73.7453264,45.3618588],[-73.7454376,45.361844],[-73.7456289,45.361831],[-73.7457602,45.361818],[-73.7458581,45.3617981],[-73.745938,45.3617777],[-73.7460306,45.3617452],[-73.7461032,45.3617176],[-73.7461671,45.36169],[-73.7462948,45.3616017]]}";2;Boulevard d'Anjou;1;50;false;true;true;false;false;false;84.0;1;0;0;0;0;false;78173;6190671757;-73.744923;45.361884;78184;6190671746;-73.749221;45.360154;0;14;15;9370198;Bus 28 : Direction Châteauguay - Beauharnois - Valleyfield;"";EXO;28 O;Terminus Mansfield;Châteauguay - Beauharnois ou Terminus Salaberry-de-Valleyfield
473814502;"{\"type\":\"LineString\",\"coordinates\":[[-73.746412,45.361533],[-73.7462948,45.3616017]]}";3;Boulevard D'anjou;2;50;false;false;true;false;false;false;12.0;0;1;0;0;0;false;78173;6190671757;-73.744923;45.361884;78184;6190671746;-73.749221;45.360154;0;14;15;9370198;Bus 28 : Direction Châteauguay - Beauharnois - Valleyfield;"";EXO;28 O;Terminus Mansfield;Châteauguay - Beauharnois ou Terminus Salaberry-de-Valleyfield
352177603;"{\"type\":\"LineString\",\"coordinates\":[[-73.746412,45.361533],[-73.7464608,45.3615025],[-73.7465485,45.3614467],[-73.7466175,45.3614028],[-73.7469966,45.3611616]]}";4;Pont Arthur-Laberge;3;50;false;false;true;false;false;false;62.0;1;1;0;0;0;false;78173;6190671757;-73.744923;45.361884;78184;6190671746;-73.749221;45.360154;0;14;15;9370198;Bus 28 : Direction Châteauguay - Beauharnois - Valleyfield;"";EXO;28 O;Terminus Mansfield;Châteauguay - Beauharnois ou Terminus Salaberry-de-Valleyfield
806543246;"{\"type\":\"LineString\",\"coordinates\":[[-73.7469966,45.3611616],[-73.7474601,45.3608532]]}";5;Pont Arthur-Laberge;1;50;false;false;true;false;false;false;50.0;0;0;0;0;0;false;78173;6190671757;-73.744923;45.361884;78184;6190671746;-73.749221;45.360154;0;14;15;9370198;Bus 28 : Direction Châteauguay - Beauharnois - Valleyfield;"";EXO;28 O;Terminus Mansfield;Châteauguay - Beauharnois ou Terminus Salaberry-de-Valleyfield
44027273;"{\"type\":\"LineString\",\"coordinates\":[[-73.7474601,45.3608532],[-73.7475552,45.3608169],[-73.7479338,45.3605758],[-73.7481349,45.360486],[-73.7482745,45.3604304]]}";6;Rue Principale;1;50;false;true;true;false;false;false;80.0;0;0;0;0;0;false;78173;6190671757;-73.744923;45.361884;78184;6190671746;-73.749221;45.360154;0;14;15;9370198;Bus 28 : Direction Châteauguay - Beauharnois - Valleyfield;"";EXO;28 O;Terminus Mansfield;Châteauguay - Beauharnois ou Terminus Salaberry-de-Valleyfield
789683131;"{\"type\":\"LineString\",\"coordinates\":[[-73.7482745,45.3604304],[-73.7483282,45.360411],[-73.7484975,45.3603565],[-73.7486659,45.360294]]}";7;Rue Principale;2;50;false;true;true;false;false;false;35.0;0;0;0;0;0;false;78173;6190671757;-73.744923;45.361884;78184;6190671746;-73.749221;45.360154;0;14;15;9370198;Bus 28 : Direction Châteauguay - Beauharnois - Valleyfield;"";EXO;28 O;Terminus Mansfield;Châteauguay - Beauharnois ou Terminus Salaberry-de-Valleyfield
789683130;"{\"type\":\"LineString\",\"coordinates\":[[-73.7486659,45.360294],[-73.7489188,45.3602205],[-73.749066,45.3601777],[-73.7491143,45.3601631],[-73.7492409,45.360125]]}";8;Rue Principale;3;50;false;true;true;false;false;false;49.0;1;1;0;0;0;false;78173;6190671757;-73.744923;45.361884;78184;6190671746;-73.749221;45.360154;2;14;15;9370198;Bus 28 : Direction Châteauguay - Beauharnois - Valleyfield;"";EXO;28 O;Terminus Mansfield;Châteauguay - Beauharnois ou Terminus Salaberry-de-Valleyfield
44339180;"{\"type\":\"LineString\",\"coordinates\":[[-73.7512833,45.3595921],[-73.7516961,45.3594874]]}";1;Rue Principale;1;30;false;true;true;false;false;false;35.0;0;0;0;0;0;false;78130;6190672390;-73.751235;45.359596;78023;6190672479;-73.753547;45.359041;2;16;17;9370198;Bus 28 : Direction Châteauguay - Beauharnois - Valleyfield;"";EXO;28 O;Terminus Mansfield;Châteauguay - Beauharnois ou Terminus Salaberry-de-Valleyfield
44339181;"{\"type\":\"LineString\",\"coordinates\":[[-73.7516961,45.3594874],[-73.7525456,45.3592762],[-73.752884,45.3591763]]}";2;Rue Principale;1;30;false;true;true;false;false;false;100.0;0;0;0;0;0;false;78130;6190672390;-73.751235;45.359596;78023;6190672479;-73.753547;45.359041;0;16;17;9370198;Bus 28 : Direction Châteauguay - Beauharnois - Valleyfield;"";EXO;28 O;Terminus Mansfield;Châteauguay - Beauharnois ou Terminus Salaberry-de-Valleyfield
792233010;"{\"type\":\"LineString\",\"coordinates\":[[-73.752884,45.3591763],[-73.7534352,45.3590419]]}";3;Rue Principale;2;30;false;true;true;false;false;false;46.0;0;0;1;0;0;false;78130;6190672390;-73.751235;45.359596;78023;6190672479;-73.753547;45.359041;0;16;17;9370198;Bus 28 : Direction Châteauguay - Beauharnois - Valleyfield;"";EXO;28 O;Terminus Mansfield;Châteauguay - Beauharnois ou Terminus Salaberry-de-Valleyfield
790003862;"{\"type\":\"LineString\",\"coordinates\":[[-73.7534352,45.3590419],[-73.7535393,45.3590301],[-73.7535795,45.3590199],[-73.7536208,45.3590101]]}";4;Rue Principale;1;50;false;true;true;false;false;false;16.0;0;2;1;0;0;false;78130;6190672390;-73.751235;45.359596;78023;6190672479;-73.753547;45.359041;2;16;17;9370198;Bus 28 : Direction Châteauguay - Beauharnois - Valleyfield;"";EXO;28 O;Terminus Mansfield;Châteauguay - Beauharnois ou Terminus Salaberry-de-Valleyfield
790003866;"{\"type\":\"LineString\",\"coordinates\":[[-73.7536208,45.3590101],[-73.7537089,45.3589874],[-73.7541651,45.3588759],[-73.7543456,45.3588153]]}";1;Rue Principale;1;50;false;true;true;false;false;false;61.0;0;1;0;0;0;false;78023;6190672479;-73.753547;45.359041;78144;6190671777;-73.756579;45.3583;2;17;18;9370198;Bus 28 : Direction Châteauguay - Beauharnois - Valleyfield;"";EXO;28 O;Terminus Mansfield;Châteauguay - Beauharnois ou Terminus Salaberry-de-Valleyfield
790003859;"{\"type\":\"LineString\",\"coordinates\":[[-73.7543456,45.3588153],[-73.7549324,45.3586733]]}";2;Rue Principale;2;50;false;true;true;false;false;false;49.0;0;0;0;0;0;false;78023;6190672479;-73.753547;45.359041;78144;6190671777;-73.756579;45.3583;0;17;18;9370198;Bus 28 : Direction Châteauguay - Beauharnois - Valleyfield;"";EXO;28 O;Terminus Mansfield;Châteauguay - Beauharnois ou Terminus Salaberry-de-Valleyfield
790003860;"{\"type\":\"LineString\",\"coordinates\":[[-73.7549324,45.3586733],[-73.7550434,45.3586511],[-73.7552583,45.3586083],[-73.7555913,45.3585281],[-73.7559941,45.3584191]]}";3;Rue Principale;1;50;false;true;true;false;false;false;88.0;0;0;0;0;0;false;78023;6190672479;-73.753547;45.359041;78144;6190671777;-73.756579;45.3583;0;17;18;9370198;Bus 28 : Direction Châteauguay - Beauharnois - Valleyfield;"";EXO;28 O;Terminus Mansfield;Châteauguay - Beauharnois ou Terminus Salaberry-de-Valleyfield
788875371;"{\"type\":\"LineString\",\"coordinates\":[[-73.7559941,45.3584191],[-73.7561415,45.358383],[-73.7562727,45.3583514]]}";4;Rue Principale;2;50;false;true;true;false;false;false;24.0;0;0;0;0;0;false;78023;6190672479;-73.753547;45.359041;78144;6190671777;-73.756579;45.3583;0;17;18;9370198;Bus 28 : Direction Châteauguay - Beauharnois - Valleyfield;"";EXO;28 O;Terminus Mansfield;Châteauguay - Beauharnois ou Terminus Salaberry-de-Valleyfield
789056548;"{\"type\":\"LineString\",\"coordinates\":[[-73.7562727,45.3583514],[-73.7563501,45.3583332],[-73.7565057,45.3582965],[-73.7565473,45.3582885],[-73.7566716,45.3582709]]}";5;Rue Principale;2;50;false;true;false;false;false;false;33.0;1;1;0;0;0;false;78023;6190672479;-73.753547;45.359041;78144;6190671777;-73.756579;45.3583;2;17;18;9370198;Bus 28 : Direction Châteauguay - Beauharnois - Valleyfield;"";EXO;28 O;Terminus Mansfield;Châteauguay - Beauharnois ou Terminus Salaberry-de-Valleyfield
789064189;"{\"type\":\"LineString\",\"coordinates\":[[-73.7566716,45.3582709],[-73.7568418,45.3582312]]}";1;Rue Principale;1;50;false;true;false;false;false;false;15.0;0;1;0;0;0;false;78144;6190671777;-73.756579;45.3583;78215;6190671721;-73.764045;45.356501;2;18;19;9370198;Bus 28 : Direction Châteauguay - Beauharnois - Valleyfield;"";EXO;28 O;Terminus Mansfield;Châteauguay - Beauharnois ou Terminus Salaberry-de-Valleyfield
789288344;"{\"type\":\"LineString\",\"coordinates\":[[-73.7568418,45.3582312],[-73.7569824,45.3581977],[-73.7572155,45.3581421],[-73.7576919,45.3580316],[-73.7577026,45.3580291],[-73.7578553,45.3579526]]}";2;Rue Principale;1;50;false;true;true;false;false;false;86.0;0;1;0;0;0;false;78144;6190671777;-73.756579;45.3583;78215;6190671721;-73.764045;45.356501;0;18;19;9370198;Bus 28 : Direction Châteauguay - Beauharnois - Valleyfield;"";EXO;28 O;Terminus Mansfield;Châteauguay - Beauharnois ou Terminus Salaberry-de-Valleyfield
788885532;"{\"type\":\"LineString\",\"coordinates\":[[-73.7593009,45.3576071],[-73.7591829,45.3576344],[-73.759058,45.3576643],[-73.7590034,45.3576774],[-73.7588878,45.3577051],[-73.7584846,45.3578018],[-73.7580866,45.3578972],[-73.7578553,45.3579526]]}";3;Rue Principale;3;50;false;false;true;false;false;false;120.0;0;1;0;0;0;false;78144;6190671777;-73.756579;45.3583;78215;6190671721;-73.764045;45.356501;0;18;19;9370198;Bus 28 : Direction Châteauguay - Beauharnois - Valleyfield;"";EXO;28 O;Terminus Mansfield;Châteauguay - Beauharnois ou Terminus Salaberry-de-Valleyfield
789022468;"{\"type\":\"LineString\",\"coordinates\":[[-73.7638272,45.3565066],[-73.7636243,45.3565578],[-73.7633324,45.3566315],[-73.7632352,45.3566552],[-73.7621723,45.3569143],[-73.7618156,45.3570012],[-73.7613293,45.3571197],[-73.7602531,45.3573781],[-73.7596934,45.3575127],[-73.7594356,45.3575747],[-73.7593009,45.3576071]]}";4;Rue Principale;3;50;false;false;true;false;false;false;375.0;0;2;0;0;0;false;78144;6190671777;-73.756579;45.3583;78215;6190671721;-73.764045;45.356501;0;18;19;9370198;Bus 28 : Direction Châteauguay - Beauharnois - Valleyfield;"";EXO;28 O;Terminus Mansfield;Châteauguay - Beauharnois ou Terminus Salaberry-de-Valleyfield
789022469;"{\"type\":\"LineString\",\"coordinates\":[[-73.7638272,45.3565066],[-73.7640416,45.3564912],[-73.7642832,45.356422],[-73.7643707,45.356397]]}";5;Rue Principale;1;50;false;true;true;false;false;false;45.0;0;0;0;0;0;false;78144;6190671777;-73.756579;45.3583;78215;6190671721;-73.764045;45.356501;2;18;19;9370198;Bus 28 : Direction Châteauguay - Beauharnois - Valleyfield;"";EXO;28 O;Terminus Mansfield;Châteauguay - Beauharnois ou Terminus Salaberry-de-Valleyfield
462343340;"{\"type\":\"LineString\",\"coordinates\":[[-73.7845688,45.356476],[-73.7847026,45.3563697],[-73.7849259,45.3562376],[-73.7850709,45.3561281],[-73.78596,45.3554769],[-73.7871221,45.3547028]]}";1;Boulevard de Léry;2;70;false;true;true;false;false;false;140.5;0;0;0;0;0;false;78285;6190671068;-73.785459;45.35591;78611;6190670000;-73.787522;45.354573;1;20;21;9370198;Bus 28 : Direction Châteauguay - Beauharnois - Valleyfield;"";EXO;28 O;Terminus Mansfield;Châteauguay - Beauharnois ou Terminus Salaberry-de-Valleyfield
128245128;"{\"type\":\"LineString\",\"coordinates\":[[-73.7871221,45.3547028],[-73.7875944,45.3544607],[-73.7894133,45.3535923],[-73.7901506,45.3532034],[-73.7937984,45.3514059],[-73.7958602,45.3504401],[-73.7973214,45.3497152],[-73.7997464,45.3484684],[-73.8004841,45.3480562],[-73.8022153,45.3470093],[-73.802493,45.3468397]]}";2;Boulevard de Léry;1;70;false;false;true;false;false;false;744.5;0;0;0;0;0;false;78285;6190671068;-73.785459;45.35591;78611;6190670000;-73.787522;45.354573;1;20;21;9370198;Bus 28 : Direction Châteauguay - Beauharnois - Valleyfield;"";EXO;28 O;Terminus Mansfield;Châteauguay - Beauharnois ou Terminus Salaberry-de-Valleyfield
