way_id;shape;index;name;nb_lanes;legal_speed;speed_zone_30;oneway;shares_bike;bike_box;bus_lane;dedicated_bus_lane;length;nb_traffic_signals;nb_crossings;nb_stops;nb_give_ways;nb_lvl_crossings;roundabout;stop_id_orig;node_id_orig;coord_x_orig;coord_y_orig;stop_id_dest;node_id_dest;coord_x_dest;coord_y_dest;nb_neighbouring_ways_bus_stop;ordre_orig;ordre_dest;id_line;line_name;colour;operator;ref;from;to
165217827;"{\"type\":\"LineString\",\"coordinates\":[[-73.5817392,45.4965571],[-73.581628,45.496525],[-73.5811659,45.4963672],[-73.5807241,45.4962381],[-73.5805102,45.4961684],[-73.5802775,45.4960925],[-73.5799451,45.4959808],[-73.5794133,45.4957507],[-73.5793041,45.4956924]]}";1;Rue Guy;1;50;false;false;true;false;false;false;214.0;2;2;0;0;0;false;52201;504318025;-73.579078;45.495688;52113;6010971144;-73.582643;45.496563;1;0;1;270263;Bus 165 : Côte-des-Neiges Nord;"";STM;165-N;Station Guy-Concordia (Guy / De Maisonneuve);Gare Mont-Royal (Dunkirk / Cornwall)
41258974;"{\"type\":\"LineString\",\"coordinates\":[[-73.583905,45.4964209],[-73.5830261,45.496481],[-73.5819817,45.4965428],[-73.5819355,45.4965455],[-73.5817392,45.4965571]]}";2;Chemin de la Côte-des-Neiges;1;50;false;false;true;false;false;false;85.0;1;1;0;0;0;false;52201;504318025;-73.579078;45.495688;52113;6010971144;-73.582643;45.496563;1;0;1;270263;Bus 165 : Côte-des-Neiges Nord;"";STM;165-N;Station Guy-Concordia (Guy / De Maisonneuve);Gare Mont-Royal (Dunkirk / Cornwall)
41258974;"{\"type\":\"LineString\",\"coordinates\":[[-73.583905,45.4964209],[-73.5830261,45.496481],[-73.5819817,45.4965428],[-73.5819355,45.4965455],[-73.5817392,45.4965571]]}";1;Chemin de la Côte-des-Neiges;1;50;false;false;true;false;false;false;85.0;1;1;0;0;0;false;52113;6010971144;-73.582643;45.496563;52044;1457825329;-73.5839845;45.4965027;1;1;2;270263;Bus 165 : Côte-des-Neiges Nord;"";STM;165-N;Station Guy-Concordia (Guy / De Maisonneuve);Gare Mont-Royal (Dunkirk / Cornwall)
143920958;"{\"type\":\"LineString\",\"coordinates\":[[-73.5857744,45.4962899],[-73.5855625,45.4963036],[-73.585113,45.4963327],[-73.5846089,45.4963587],[-73.5842385,45.4963894],[-73.583905,45.4964209]]}";2;Chemin de la Côte-des-Neiges;1;50;false;false;true;false;false;false;73.5;1;0;0;0;0;false;52113;6010971144;-73.582643;45.496563;52044;1457825329;-73.5839845;45.4965027;1;1;2;270263;Bus 165 : Côte-des-Neiges Nord;"";STM;165-N;Station Guy-Concordia (Guy / De Maisonneuve);Gare Mont-Royal (Dunkirk / Cornwall)
41258974;"{\"type\":\"LineString\",\"coordinates\":[[-73.583905,45.4964209],[-73.5830261,45.496481],[-73.5819817,45.4965428],[-73.5819355,45.4965455],[-73.5817392,45.4965571]]}";1;Chemin de la Côte-des-Neiges;1;50;false;false;true;false;false;false;170.0;1;1;0;0;0;false;52044;1457825329;-73.5839845;45.4965027;51984;1457813196;-73.5861089;45.4963653;2;2;3;270263;Bus 165 : Côte-des-Neiges Nord;"";STM;165-N;Station Guy-Concordia (Guy / De Maisonneuve);Gare Mont-Royal (Dunkirk / Cornwall)
143920958;"{\"type\":\"LineString\",\"coordinates\":[[-73.5857744,45.4962899],[-73.5855625,45.4963036],[-73.585113,45.4963327],[-73.5846089,45.4963587],[-73.5842385,45.4963894],[-73.583905,45.4964209]]}";2;Chemin de la Côte-des-Neiges;1;50;false;false;true;false;false;false;147.0;1;0;0;0;0;false;52044;1457825329;-73.5839845;45.4965027;51984;1457813196;-73.5861089;45.4963653;0;2;3;270263;Bus 165 : Côte-des-Neiges Nord;"";STM;165-N;Station Guy-Concordia (Guy / De Maisonneuve);Gare Mont-Royal (Dunkirk / Cornwall)
4872827;"{\"type\":\"LineString\",\"coordinates\":[[-73.5857744,45.4962899],[-73.5863087,45.4963134],[-73.5864105,45.496326],[-73.5866859,45.4963815]]}";3;Chemin de la Côte-des-Neiges;1;50;false;true;true;false;false;false;73.0;1;0;0;0;0;false;52044;1457825329;-73.5839845;45.4965027;51984;1457813196;-73.5861089;45.4963653;2;2;3;270263;Bus 165 : Côte-des-Neiges Nord;"";STM;165-N;Station Guy-Concordia (Guy / De Maisonneuve);Gare Mont-Royal (Dunkirk / Cornwall)
4872827;"{\"type\":\"LineString\",\"coordinates\":[[-73.5857744,45.4962899],[-73.5863087,45.4963134],[-73.5864105,45.496326],[-73.5866859,45.4963815]]}";1;Chemin de la Côte-des-Neiges;1;50;false;true;true;false;false;false;36.5;1;0;0;0;0;false;51984;1457813196;-73.5861089;45.4963653;53761;6010966218;-73.588553;45.496;1;3;4;270263;Bus 165 : Côte-des-Neiges Nord;"";STM;165-N;Station Guy-Concordia (Guy / De Maisonneuve);Gare Mont-Royal (Dunkirk / Cornwall)
453745825;"{\"type\":\"LineString\",\"coordinates\":[[-73.5866859,45.4963815],[-73.5869823,45.4964414],[-73.5870742,45.4964558],[-73.5871808,45.4964649],[-73.5872781,45.4964678],[-73.5873898,45.4964621]]}";2;Chemin de la Côte-des-Neiges;1;50;false;true;true;false;false;false;57.0;1;0;0;0;0;false;51984;1457813196;-73.5861089;45.4963653;53761;6010966218;-73.588553;45.496;0;3;4;270263;Bus 165 : Côte-des-Neiges Nord;"";STM;165-N;Station Guy-Concordia (Guy / De Maisonneuve);Gare Mont-Royal (Dunkirk / Cornwall)
165217806;"{\"type\":\"LineString\",\"coordinates\":[[-73.5873898,45.4964621],[-73.5874854,45.4964493],[-73.5875874,45.4964282],[-73.5876936,45.4963968],[-73.5877792,45.4963631],[-73.5878716,45.4963172],[-73.5881289,45.4961719]]}";3;Chemin de la Côte-des-Neiges;3;50;false;true;true;false;false;false;68.0;0;0;0;0;0;false;51984;1457813196;-73.5861089;45.4963653;53761;6010966218;-73.588553;45.496;0;3;4;270263;Bus 165 : Côte-des-Neiges Nord;"";STM;165-N;Station Guy-Concordia (Guy / De Maisonneuve);Gare Mont-Royal (Dunkirk / Cornwall)
727849147;"{\"type\":\"LineString\",\"coordinates\":[[-73.5881289,45.4961719],[-73.5887124,45.4958561],[-73.5891158,45.4956355],[-73.589608,45.4953781]]}";4;Chemin de la Côte-des-Neiges;3;50;false;true;true;false;false;false;73.0;1;0;0;0;0;false;51984;1457813196;-73.5861089;45.4963653;53761;6010966218;-73.588553;45.496;1;3;4;270263;Bus 165 : Côte-des-Neiges Nord;"";STM;165-N;Station Guy-Concordia (Guy / De Maisonneuve);Gare Mont-Royal (Dunkirk / Cornwall)
727849147;"{\"type\":\"LineString\",\"coordinates\":[[-73.5881289,45.4961719],[-73.5887124,45.4958561],[-73.5891158,45.4956355],[-73.589608,45.4953781]]}";1;Chemin de la Côte-des-Neiges;3;50;false;true;true;false;false;false;73.0;1;0;0;0;0;false;53761;6010966218;-73.588553;45.496;51840;6010967392;-73.591298;45.495099;1;4;5;270263;Bus 165 : Côte-des-Neiges Nord;"";STM;165-N;Station Guy-Concordia (Guy / De Maisonneuve);Gare Mont-Royal (Dunkirk / Cornwall)
453745827;"{\"type\":\"LineString\",\"coordinates\":[[-73.589608,45.4953781],[-73.5898296,45.4952616],[-73.589941,45.4952138],[-73.5900573,45.4951711],[-73.5901663,45.4951381],[-73.5902787,45.4951095],[-73.5903955,45.4950864],[-73.5905308,45.4950686],[-73.5906721,45.4950538],[-73.5908107,45.4950455],[-73.5909517,45.4950431],[-73.5910993,45.4950455],[-73.5912438,45.4950512],[-73.5915348,45.4950659],[-73.5916197,45.4950702],[-73.5916733,45.4950729]]}";2;Chemin de la Côte-des-Neiges;1;50;false;true;true;false;false;false;85.5;2;0;0;0;0;false;53761;6010966218;-73.588553;45.496;51840;6010967392;-73.591298;45.495099;1;4;5;270263;Bus 165 : Côte-des-Neiges Nord;"";STM;165-N;Station Guy-Concordia (Guy / De Maisonneuve);Gare Mont-Royal (Dunkirk / Cornwall)
453745827;"{\"type\":\"LineString\",\"coordinates\":[[-73.589608,45.4953781],[-73.5898296,45.4952616],[-73.589941,45.4952138],[-73.5900573,45.4951711],[-73.5901663,45.4951381],[-73.5902787,45.4951095],[-73.5903955,45.4950864],[-73.5905308,45.4950686],[-73.5906721,45.4950538],[-73.5908107,45.4950455],[-73.5909517,45.4950431],[-73.5910993,45.4950455],[-73.5912438,45.4950512],[-73.5915348,45.4950659],[-73.5916197,45.4950702],[-73.5916733,45.4950729]]}";1;Chemin de la Côte-des-Neiges;1;50;false;true;true;false;false;false;85.5;2;0;0;0;0;false;51840;6010967392;-73.591298;45.495099;51732;6010967045;-73.595567;45.49544;1;5;6;270263;Bus 165 : Côte-des-Neiges Nord;"";STM;165-N;Station Guy-Concordia (Guy / De Maisonneuve);Gare Mont-Royal (Dunkirk / Cornwall)
546026783;"{\"type\":\"LineString\",\"coordinates\":[[-73.5916733,45.4950729],[-73.5918771,45.4950832]]}";2;Chemin de la Côte-des-Neiges;1;50;false;true;true;false;false;false;16.0;0;0;0;0;0;false;51840;6010967392;-73.591298;45.495099;51732;6010967045;-73.595567;45.49544;0;5;6;270263;Bus 165 : Côte-des-Neiges Nord;"";STM;165-N;Station Guy-Concordia (Guy / De Maisonneuve);Gare Mont-Royal (Dunkirk / Cornwall)
329694548;"{\"type\":\"LineString\",\"coordinates\":[[-73.5918771,45.4950832],[-73.5920328,45.495091],[-73.592754,45.4951197],[-73.59308,45.4951298],[-73.5932498,45.4951372],[-73.5935684,45.4951632],[-73.5938665,45.4951992],[-73.5942187,45.4952613],[-73.594385,45.4952883],[-73.5944641,45.4953012],[-73.5947792,45.4953542],[-73.5951211,45.4953807],[-73.5953683,45.4953774],[-73.5955823,45.4953726],[-73.5961204,45.495363]]}";3;Chemin de la Côte-des-Neiges;1;50;false;true;true;false;false;false;167.5;1;0;0;0;0;false;51840;6010967392;-73.591298;45.495099;51732;6010967045;-73.595567;45.49544;1;5;6;270263;Bus 165 : Côte-des-Neiges Nord;"";STM;165-N;Station Guy-Concordia (Guy / De Maisonneuve);Gare Mont-Royal (Dunkirk / Cornwall)
329694548;"{\"type\":\"LineString\",\"coordinates\":[[-73.5918771,45.4950832],[-73.5920328,45.495091],[-73.592754,45.4951197],[-73.59308,45.4951298],[-73.5932498,45.4951372],[-73.5935684,45.4951632],[-73.5938665,45.4951992],[-73.5942187,45.4952613],[-73.594385,45.4952883],[-73.5944641,45.4953012],[-73.5947792,45.4953542],[-73.5951211,45.4953807],[-73.5953683,45.4953774],[-73.5955823,45.4953726],[-73.5961204,45.495363]]}";1;Chemin de la Côte-des-Neiges;1;50;false;true;true;false;false;false;167.5;1;0;0;0;0;false;51732;6010967045;-73.595567;45.49544;51664;6010980100;-73.598619;45.495578;1;6;7;270263;Bus 165 : Côte-des-Neiges Nord;"";STM;165-N;Station Guy-Concordia (Guy / De Maisonneuve);Gare Mont-Royal (Dunkirk / Cornwall)
453745823;"{\"type\":\"LineString\",\"coordinates\":[[-73.5961204,45.495363],[-73.5968,45.4954093],[-73.5971388,45.495435],[-73.5976135,45.4954611],[-73.5976563,45.4954634],[-73.5978262,45.4954752],[-73.5982815,45.4955028],[-73.5987911,45.4955341]]}";2;Chemin de la Côte-des-Neiges;1;50;false;true;true;false;false;false;105.0;2;0;0;0;0;false;51732;6010967045;-73.595567;45.49544;51664;6010980100;-73.598619;45.495578;1;6;7;270263;Bus 165 : Côte-des-Neiges Nord;"";STM;165-N;Station Guy-Concordia (Guy / De Maisonneuve);Gare Mont-Royal (Dunkirk / Cornwall)
453745828;"{\"type\":\"LineString\",\"coordinates\":[[-73.5987911,45.4955341],[-73.5991801,45.4955445],[-73.6004378,45.4955888],[-73.6008031,45.4955964],[-73.6012597,45.4955754],[-73.6017151,45.4955103],[-73.6017517,45.4955023],[-73.602734,45.4952853],[-73.6029385,45.4952505],[-73.6031248,45.4952178],[-73.6032568,45.4952062],[-73.6035694,45.4951925]]}";1;Chemin de la Côte-des-Neiges;3;50;false;true;true;false;false;false;190.0;1;0;1;0;0;false;51545;6010971867;-73.602318;45.495413;51486;6010981202;-73.607078;45.495608;1;9;10;270263;Bus 165 : Côte-des-Neiges Nord;"";STM;165-N;Station Guy-Concordia (Guy / De Maisonneuve);Gare Mont-Royal (Dunkirk / Cornwall)
41590837;"{\"type\":\"LineString\",\"coordinates\":[[-73.6035694,45.4951925],[-73.6040418,45.4952057]]}";2;Chemin de la Côte-des-Neiges;3;50;false;true;true;false;false;false;37.0;0;0;0;0;0;false;51545;6010971867;-73.602318;45.495413;51486;6010981202;-73.607078;45.495608;0;9;10;270263;Bus 165 : Côte-des-Neiges Nord;"";STM;165-N;Station Guy-Concordia (Guy / De Maisonneuve);Gare Mont-Royal (Dunkirk / Cornwall)
41590838;"{\"type\":\"LineString\",\"coordinates\":[[-73.6040418,45.4952057],[-73.6049132,45.4952472]]}";3;Chemin de la Côte-des-Neiges;3;50;false;true;true;false;false;false;69.0;0;0;0;0;0;false;51545;6010971867;-73.602318;45.495413;51486;6010981202;-73.607078;45.495608;0;9;10;270263;Bus 165 : Côte-des-Neiges Nord;"";STM;165-N;Station Guy-Concordia (Guy / De Maisonneuve);Gare Mont-Royal (Dunkirk / Cornwall)
41590834;"{\"type\":\"LineString\",\"coordinates\":[[-73.6049132,45.4952472],[-73.6053988,45.49527]]}";4;Chemin de la Côte-des-Neiges;3;50;false;true;true;false;false;false;39.0;0;0;0;0;0;false;51545;6010971867;-73.602318;45.495413;51486;6010981202;-73.607078;45.495608;0;9;10;270263;Bus 165 : Côte-des-Neiges Nord;"";STM;165-N;Station Guy-Concordia (Guy / De Maisonneuve);Gare Mont-Royal (Dunkirk / Cornwall)
41590835;"{\"type\":\"LineString\",\"coordinates\":[[-73.6053988,45.49527],[-73.6059151,45.4952977],[-73.6062433,45.495339],[-73.6065233,45.4953979]]}";5;Chemin de la Côte-des-Neiges;3;50;false;true;true;false;false;false;90.0;0;0;0;0;0;false;51545;6010971867;-73.602318;45.495413;51486;6010981202;-73.607078;45.495608;0;9;10;270263;Bus 165 : Côte-des-Neiges Nord;"";STM;165-N;Station Guy-Concordia (Guy / De Maisonneuve);Gare Mont-Royal (Dunkirk / Cornwall)
433808920;"{\"type\":\"LineString\",\"coordinates\":[[-73.6065233,45.4953979],[-73.6066168,45.4954189],[-73.6072955,45.495623]]}";6;Chemin de la Côte-des-Neiges;3;50;false;true;true;false;false;false;33.0;1;0;0;0;0;false;51545;6010971867;-73.602318;45.495413;51486;6010981202;-73.607078;45.495608;1;9;10;270263;Bus 165 : Côte-des-Neiges Nord;"";STM;165-N;Station Guy-Concordia (Guy / De Maisonneuve);Gare Mont-Royal (Dunkirk / Cornwall)
393798979;"{\"type\":\"LineString\",\"coordinates\":[[-73.6072955,45.495623],[-73.6081358,45.4958638],[-73.6085174,45.4959576],[-73.6087287,45.4959988]]}";1;Chemin de la Côte-des-Neiges;3;50;false;true;true;false;false;false;60.0;2;0;0;0;0;false;53837;6010981697;-73.608325;45.495952;51426;6010977562;-73.610143;45.495958;1;11;12;270263;Bus 165 : Côte-des-Neiges Nord;"";STM;165-N;Station Guy-Concordia (Guy / De Maisonneuve);Gare Mont-Royal (Dunkirk / Cornwall)
433241183;"{\"type\":\"LineString\",\"coordinates\":[[-73.6087287,45.4959988],[-73.6090572,45.4960146],[-73.6094457,45.4960038],[-73.6097799,45.4959643],[-73.6103429,45.4958801]]}";2;Chemin de la Côte-des-Neiges;3;50;false;true;true;false;false;false;64.0;2;0;0;0;0;false;53837;6010981697;-73.608325;45.495952;51426;6010977562;-73.610143;45.495958;1;11;12;270263;Bus 165 : Côte-des-Neiges Nord;"";STM;165-N;Station Guy-Concordia (Guy / De Maisonneuve);Gare Mont-Royal (Dunkirk / Cornwall)
455707566;"{\"type\":\"LineString\",\"coordinates\":[[-73.6103429,45.4958801],[-73.6117198,45.4956454]]}";1;Chemin de la Côte-des-Neiges;3;50;false;true;true;false;false;false;111.0;1;0;0;0;0;false;51426;6010977562;-73.610143;45.495958;51321;6010977996;-73.61636;45.495444;2;12;13;270263;Bus 165 : Côte-des-Neiges Nord;"";STM;165-N;Station Guy-Concordia (Guy / De Maisonneuve);Gare Mont-Royal (Dunkirk / Cornwall)
393798974;"{\"type\":\"LineString\",\"coordinates\":[[-73.6117198,45.4956454],[-73.6123417,45.4955345],[-73.6128921,45.4954867],[-73.6150737,45.4954798]]}";2;Chemin de la Côte-des-Neiges;3;50;false;true;true;false;false;false;264.0;0;0;0;0;0;false;51426;6010977562;-73.610143;45.495958;51321;6010977996;-73.61636;45.495444;0;12;13;270263;Bus 165 : Côte-des-Neiges Nord;"";STM;165-N;Station Guy-Concordia (Guy / De Maisonneuve);Gare Mont-Royal (Dunkirk / Cornwall)
466895707;"{\"type\":\"LineString\",\"coordinates\":[[-73.6150737,45.4954798],[-73.6157758,45.4954458]]}";3;Chemin de la Côte-des-Neiges;3;50;false;true;true;false;false;false;55.0;1;0;0;0;0;false;51426;6010977562;-73.610143;45.495958;51321;6010977996;-73.61636;45.495444;0;12;13;270263;Bus 165 : Côte-des-Neiges Nord;"";STM;165-N;Station Guy-Concordia (Guy / De Maisonneuve);Gare Mont-Royal (Dunkirk / Cornwall)
466895705;"{\"type\":\"LineString\",\"coordinates\":[[-73.6157758,45.4954458],[-73.6162036,45.495409],[-73.6163251,45.4953986],[-73.6167978,45.4953187],[-73.6173146,45.4952067],[-73.6174249,45.4951828],[-73.6178766,45.4950909],[-73.6181214,45.4950588],[-73.6183616,45.4950482],[-73.6186446,45.495071],[-73.6187645,45.4950933],[-73.618848,45.4951088]]}";4;Chemin de la Côte-des-Neiges;3;50;false;true;true;false;false;false;247.0;2;1;0;0;0;false;51426;6010977562;-73.610143;45.495958;51321;6010977996;-73.61636;45.495444;2;12;13;270263;Bus 165 : Côte-des-Neiges Nord;"";STM;165-N;Station Guy-Concordia (Guy / De Maisonneuve);Gare Mont-Royal (Dunkirk / Cornwall)
466895705;"{\"type\":\"LineString\",\"coordinates\":[[-73.6157758,45.4954458],[-73.6162036,45.495409],[-73.6163251,45.4953986],[-73.6167978,45.4953187],[-73.6173146,45.4952067],[-73.6174249,45.4951828],[-73.6178766,45.4950909],[-73.6181214,45.4950588],[-73.6183616,45.4950482],[-73.6186446,45.495071],[-73.6187645,45.4950933],[-73.618848,45.4951088]]}";1;Chemin de la Côte-des-Neiges;3;50;false;true;true;false;false;false;123.5;2;1;0;0;0;false;51251;2512252528;-73.6185987;45.4951668;51186;4478193293;-73.6215383;45.4961067;1;14;15;270263;Bus 165 : Côte-des-Neiges Nord;"";STM;165-N;Station Guy-Concordia (Guy / De Maisonneuve);Gare Mont-Royal (Dunkirk / Cornwall)
463643633;"{\"type\":\"LineString\",\"coordinates\":[[-73.618848,45.4951088],[-73.6190398,45.4951446]]}";2;Chemin de la Côte-des-Neiges;3;50;false;true;true;false;false;false;16.0;2;0;0;0;0;false;51251;2512252528;-73.6185987;45.4951668;51186;4478193293;-73.6215383;45.4961067;0;14;15;270263;Bus 165 : Côte-des-Neiges Nord;"";STM;165-N;Station Guy-Concordia (Guy / De Maisonneuve);Gare Mont-Royal (Dunkirk / Cornwall)
450934833;"{\"type\":\"LineString\",\"coordinates\":[[-73.6190398,45.4951446],[-73.619163,45.4951735],[-73.6199537,45.4953586]]}";3;Chemin de la Côte-des-Neiges;3;50;false;true;true;false;false;false;76.0;1;1;0;0;0;false;51251;2512252528;-73.6185987;45.4951668;51186;4478193293;-73.6215383;45.4961067;0;14;15;270263;Bus 165 : Côte-des-Neiges Nord;"";STM;165-N;Station Guy-Concordia (Guy / De Maisonneuve);Gare Mont-Royal (Dunkirk / Cornwall)
463642658;"{\"type\":\"LineString\",\"coordinates\":[[-73.6199537,45.4953586],[-73.6201787,45.495402]]}";4;Chemin de la Côte-des-Neiges;3;50;false;true;true;false;false;false;19.0;1;0;0;0;0;false;51251;2512252528;-73.6185987;45.4951668;51186;4478193293;-73.6215383;45.4961067;0;14;15;270263;Bus 165 : Côte-des-Neiges Nord;"";STM;165-N;Station Guy-Concordia (Guy / De Maisonneuve);Gare Mont-Royal (Dunkirk / Cornwall)
463640956;"{\"type\":\"LineString\",\"coordinates\":[[-73.6210753,45.4958026],[-73.6201787,45.495402]]}";5;Chemin de la Côte-des-Neiges;4;50;false;false;true;false;false;false;83.0;1;0;0;0;0;false;51251;2512252528;-73.6185987;45.4951668;51186;4478193293;-73.6215383;45.4961067;0;14;15;270263;Bus 165 : Côte-des-Neiges Nord;"";STM;165-N;Station Guy-Concordia (Guy / De Maisonneuve);Gare Mont-Royal (Dunkirk / Cornwall)
462445300;"{\"type\":\"LineString\",\"coordinates\":[[-73.6217315,45.4960957],[-73.6216325,45.4960514],[-73.6210753,45.4958026]]}";6;Chemin de la Côte-des-Neiges;4;50;false;false;true;false;false;false;30.5;1;1;0;0;0;false;51251;2512252528;-73.6185987;45.4951668;51186;4478193293;-73.6215383;45.4961067;1;14;15;270263;Bus 165 : Côte-des-Neiges Nord;"";STM;165-N;Station Guy-Concordia (Guy / De Maisonneuve);Gare Mont-Royal (Dunkirk / Cornwall)
463640958;"{\"type\":\"LineString\",\"coordinates\":[[-73.6221051,45.4962609],[-73.6218193,45.4961346],[-73.6217315,45.4960957]]}";1;Chemin de la Côte-des-Neiges;4;50;false;false;true;false;false;false;35.0;1;1;0;0;0;false;51186;4478193293;-73.6215383;45.4961067;51155;6010968591;-73.623216;45.496833;2;15;16;270263;Bus 165 : Côte-des-Neiges Nord;"";STM;165-N;Station Guy-Concordia (Guy / De Maisonneuve);Gare Mont-Royal (Dunkirk / Cornwall)
4872828;"{\"type\":\"LineString\",\"coordinates\":[[-73.6229468,45.4966333],[-73.6225624,45.4964633],[-73.6224511,45.496414],[-73.622346,45.4963675],[-73.6221051,45.4962609]]}";2;Chemin de la Côte-des-Neiges;4;50;false;false;true;false;false;false;78.0;0;0;0;0;0;false;51186;4478193293;-73.6215383;45.4961067;51155;6010968591;-73.623216;45.496833;0;15;16;270263;Bus 165 : Côte-des-Neiges Nord;"";STM;165-N;Station Guy-Concordia (Guy / De Maisonneuve);Gare Mont-Royal (Dunkirk / Cornwall)
463621817;"{\"type\":\"LineString\",\"coordinates\":[[-73.6233751,45.4968144],[-73.6229468,45.4966333]]}";3;Chemin de la Côte-des-Neiges;4;50;false;false;true;false;false;false;40.0;1;0;0;0;0;false;51186;4478193293;-73.6215383;45.4961067;51155;6010968591;-73.623216;45.496833;2;15;16;270263;Bus 165 : Côte-des-Neiges Nord;"";STM;165-N;Station Guy-Concordia (Guy / De Maisonneuve);Gare Mont-Royal (Dunkirk / Cornwall)
449819611;"{\"type\":\"LineString\",\"coordinates\":[[-73.6239129,45.497048],[-73.6234962,45.4968672],[-73.6234853,45.4968625],[-73.6233751,45.4968144]]}";1;Chemin de la Côte-des-Neiges;4;50;false;false;true;false;false;false;50.0;1;2;0;0;0;false;51155;6010968591;-73.623216;45.496833;51101;6010973740;-73.625423;45.497811;2;16;17;270263;Bus 165 : Côte-des-Neiges Nord;"";STM;165-N;Station Guy-Concordia (Guy / De Maisonneuve);Gare Mont-Royal (Dunkirk / Cornwall)
463639303;"{\"type\":\"LineString\",\"coordinates\":[[-73.6242682,45.4972057],[-73.6239129,45.497048]]}";2;Chemin de la Côte-des-Neiges;4;50;false;false;true;false;false;false;33.0;1;0;0;0;0;false;51155;6010968591;-73.623216;45.496833;51101;6010973740;-73.625423;45.497811;0;16;17;270263;Bus 165 : Côte-des-Neiges Nord;"";STM;165-N;Station Guy-Concordia (Guy / De Maisonneuve);Gare Mont-Royal (Dunkirk / Cornwall)
449819613;"{\"type\":\"LineString\",\"coordinates\":[[-73.6253244,45.4976711],[-73.6245682,45.4973353],[-73.6242682,45.4972057]]}";3;Chemin de la Côte-des-Neiges;4;50;false;false;true;false;false;false;98.0;2;0;0;0;0;false;51155;6010968591;-73.623216;45.496833;51101;6010973740;-73.625423;45.497811;0;16;17;270263;Bus 165 : Côte-des-Neiges Nord;"";STM;165-N;Station Guy-Concordia (Guy / De Maisonneuve);Gare Mont-Royal (Dunkirk / Cornwall)
455723744;"{\"type\":\"LineString\",\"coordinates\":[[-73.6263441,45.4981229],[-73.6253244,45.4976711]]}";4;Chemin de la Côte-des-Neiges;4;50;false;false;true;false;false;false;95.0;1;0;0;0;0;false;51155;6010968591;-73.623216;45.496833;51101;6010973740;-73.625423;45.497811;2;16;17;270263;Bus 165 : Côte-des-Neiges Nord;"";STM;165-N;Station Guy-Concordia (Guy / De Maisonneuve);Gare Mont-Royal (Dunkirk / Cornwall)
449819613;"{\"type\":\"LineString\",\"coordinates\":[[-73.6253244,45.4976711],[-73.6245682,45.4973353],[-73.6242682,45.4972057]]}";1;Chemin de la Côte-des-Neiges;4;50;false;false;true;false;false;false;98.0;2;0;0;0;0;false;51101;6010973740;-73.625423;45.497811;51045;6010979126;-73.627207;45.498616;2;17;18;270263;Bus 165 : Côte-des-Neiges Nord;"";STM;165-N;Station Guy-Concordia (Guy / De Maisonneuve);Gare Mont-Royal (Dunkirk / Cornwall)
455723744;"{\"type\":\"LineString\",\"coordinates\":[[-73.6263441,45.4981229],[-73.6253244,45.4976711]]}";2;Chemin de la Côte-des-Neiges;4;50;false;false;true;false;false;false;95.0;1;0;0;0;0;false;51101;6010973740;-73.625423;45.497811;51045;6010979126;-73.627207;45.498616;0;17;18;270263;Bus 165 : Côte-des-Neiges Nord;"";STM;165-N;Station Guy-Concordia (Guy / De Maisonneuve);Gare Mont-Royal (Dunkirk / Cornwall)
561752789;"{\"type\":\"LineString\",\"coordinates\":[[-73.6274187,45.4986332],[-73.6263441,45.4981229]]}";3;Chemin de la Côte-des-Neiges;4;50;false;false;true;false;false;false;102.0;0;0;0;0;0;false;51101;6010973740;-73.625423;45.497811;51045;6010979126;-73.627207;45.498616;2;17;18;270263;Bus 165 : Côte-des-Neiges Nord;"";STM;165-N;Station Guy-Concordia (Guy / De Maisonneuve);Gare Mont-Royal (Dunkirk / Cornwall)
455723745;"{\"type\":\"LineString\",\"coordinates\":[[-73.6275242,45.4986836],[-73.6274714,45.4986575],[-73.6274187,45.4986332]]}";1;Chemin de la Côte-des-Neiges;4;50;false;false;true;false;false;false;10.0;0;0;0;0;0;false;51045;6010979126;-73.627207;45.498616;53864;6010978185;-73.629873;45.499896;2;18;19;270263;Bus 165 : Côte-des-Neiges Nord;"";STM;165-N;Station Guy-Concordia (Guy / De Maisonneuve);Gare Mont-Royal (Dunkirk / Cornwall)
408720106;"{\"type\":\"LineString\",\"coordinates\":[[-73.6292848,45.4995204],[-73.629116,45.4994402],[-73.6282488,45.4990281],[-73.6278765,45.4988512],[-73.6275242,45.4986836]]}";2;Chemin de la Côte-des-Neiges;4;50;false;false;true;false;false;false;166.0;0;0;0;0;0;false;51045;6010979126;-73.627207;45.498616;53864;6010978185;-73.629873;45.499896;0;18;19;270263;Bus 165 : Côte-des-Neiges Nord;"";STM;165-N;Station Guy-Concordia (Guy / De Maisonneuve);Gare Mont-Royal (Dunkirk / Cornwall)
449819609;"{\"type\":\"LineString\",\"coordinates\":[[-73.6300301,45.4998745],[-73.6295288,45.4996363],[-73.6292848,45.4995204]]}";3;Chemin de la Côte-des-Neiges;4;50;false;false;true;false;false;false;71.0;1;0;0;0;0;false;51045;6010979126;-73.627207;45.498616;53864;6010978185;-73.629873;45.499896;2;18;19;270263;Bus 165 : Côte-des-Neiges Nord;"";STM;165-N;Station Guy-Concordia (Guy / De Maisonneuve);Gare Mont-Royal (Dunkirk / Cornwall)
455070870;"{\"type\":\"LineString\",\"coordinates\":[[-73.6309382,45.5002955],[-73.6306094,45.5001431],[-73.6300301,45.4998745]]}";1;Chemin de la Côte-des-Neiges;4;50;false;false;true;false;false;false;85.0;2;0;0;0;0;false;53864;6010978185;-73.629873;45.499896;50940;6010972103;-73.631993;45.500855;2;19;20;270263;Bus 165 : Côte-des-Neiges Nord;"";STM;165-N;Station Guy-Concordia (Guy / De Maisonneuve);Gare Mont-Royal (Dunkirk / Cornwall)
449819606;"{\"type\":\"LineString\",\"coordinates\":[[-73.6310435,45.5003442],[-73.6309382,45.5002955]]}";2;Chemin de la Côte-des-Neiges;4;50;false;false;true;false;false;false;10.0;2;0;0;0;0;false;53864;6010978185;-73.629873;45.499896;50940;6010972103;-73.631993;45.500855;0;19;20;270263;Bus 165 : Côte-des-Neiges Nord;"";STM;165-N;Station Guy-Concordia (Guy / De Maisonneuve);Gare Mont-Royal (Dunkirk / Cornwall)
449819607;"{\"type\":\"LineString\",\"coordinates\":[[-73.6310435,45.5003442],[-73.6316763,45.5006355],[-73.6320885,45.5008253],[-73.6321966,45.500874]]}";3;Chemin de la Côte-des-Neiges;4;50;false;false;true;false;false;false;108.0;2;1;0;0;0;false;53864;6010978185;-73.629873;45.499896;50940;6010972103;-73.631993;45.500855;2;19;20;270263;Bus 165 : Côte-des-Neiges Nord;"";STM;165-N;Station Guy-Concordia (Guy / De Maisonneuve);Gare Mont-Royal (Dunkirk / Cornwall)
449819614;"{\"type\":\"LineString\",\"coordinates\":[[-73.6321966,45.500874],[-73.632272,45.5009075],[-73.6324313,45.5009783],[-73.6326642,45.5010818],[-73.6329399,45.5012043]]}";1;Chemin de la Côte-des-Neiges;4;50;false;false;true;false;false;false;69.0;1;1;0;0;0;false;50940;6010972103;-73.631993;45.500855;50903;2184988995;-73.6336866;45.5016474;2;20;21;270263;Bus 165 : Côte-des-Neiges Nord;"";STM;165-N;Station Guy-Concordia (Guy / De Maisonneuve);Gare Mont-Royal (Dunkirk / Cornwall)
455069113;"{\"type\":\"LineString\",\"coordinates\":[[-73.6329399,45.5012043],[-73.6330871,45.5012697]]}";2;Chemin de la Côte-des-Neiges;4;50;false;false;true;false;false;false;14.0;0;0;0;0;0;false;50940;6010972103;-73.631993;45.500855;50903;2184988995;-73.6336866;45.5016474;0;20;21;270263;Bus 165 : Côte-des-Neiges Nord;"";STM;165-N;Station Guy-Concordia (Guy / De Maisonneuve);Gare Mont-Royal (Dunkirk / Cornwall)
455069114;"{\"type\":\"LineString\",\"coordinates\":[[-73.6330871,45.5012697],[-73.6333673,45.5013942],[-73.6338149,45.5015931]]}";3;Chemin de la Côte-des-Neiges;4;50;false;false;true;false;false;false;68.0;0;0;0;0;0;false;50940;6010972103;-73.631993;45.500855;50903;2184988995;-73.6336866;45.5016474;2;20;21;270263;Bus 165 : Côte-des-Neiges Nord;"";STM;165-N;Station Guy-Concordia (Guy / De Maisonneuve);Gare Mont-Royal (Dunkirk / Cornwall)
463442609;"{\"type\":\"LineString\",\"coordinates\":[[-73.6338149,45.5015931],[-73.6347992,45.5020305],[-73.6349315,45.5020893]]}";1;Chemin de la Côte-des-Neiges;4;50;false;false;true;false;false;false;104.0;1;1;0;0;0;false;50903;2184988995;-73.6336866;45.5016474;50863;6010968608;-73.635576;45.50246;2;21;22;270263;Bus 165 : Côte-des-Neiges Nord;"";STM;165-N;Station Guy-Concordia (Guy / De Maisonneuve);Gare Mont-Royal (Dunkirk / Cornwall)
463442608;"{\"type\":\"LineString\",\"coordinates\":[[-73.6349315,45.5020893],[-73.635115,45.5021708],[-73.6354361,45.5023135],[-73.6357618,45.5024582]]}";2;Chemin de la Côte-des-Neiges;4;50;false;false;true;false;false;false;77.0;2;0;0;0;0;false;50903;2184988995;-73.6336866;45.5016474;50863;6010968608;-73.635576;45.50246;2;21;22;270263;Bus 165 : Côte-des-Neiges Nord;"";STM;165-N;Station Guy-Concordia (Guy / De Maisonneuve);Gare Mont-Royal (Dunkirk / Cornwall)
8154217;"{\"type\":\"LineString\",\"coordinates\":[[-73.6357618,45.5024582],[-73.6357897,45.5025242],[-73.6363014,45.5027541],[-73.6363874,45.5027927],[-73.6367966,45.5029765],[-73.6373443,45.5032225],[-73.6375449,45.5033155],[-73.6377439,45.5034019]]}";1;Chemin de la Côte-des-Neiges;2;50;false;true;true;false;false;false;189.0;2;0;0;0;0;false;50863;6010968608;-73.635576;45.50246;50789;5862231855;-73.637905;45.5035652;2;22;23;270263;Bus 165 : Côte-des-Neiges Nord;"";STM;165-N;Station Guy-Concordia (Guy / De Maisonneuve);Gare Mont-Royal (Dunkirk / Cornwall)
474829584;"{\"type\":\"LineString\",\"coordinates\":[[-73.6377439,45.5034019],[-73.6378218,45.5034369],[-73.6383123,45.5036573],[-73.6385313,45.5037556]]}";2;Chemin de la Côte-des-Neiges;2;50;false;true;true;false;false;false;73.0;0;0;0;0;0;false;50863;6010968608;-73.635576;45.50246;50789;5862231855;-73.637905;45.5035652;2;22;23;270263;Bus 165 : Côte-des-Neiges Nord;"";STM;165-N;Station Guy-Concordia (Guy / De Maisonneuve);Gare Mont-Royal (Dunkirk / Cornwall)
474829584;"{\"type\":\"LineString\",\"coordinates\":[[-73.6377439,45.5034019],[-73.6378218,45.5034369],[-73.6383123,45.5036573],[-73.6385313,45.5037556]]}";1;Chemin de la Côte-des-Neiges;2;50;false;true;true;false;false;false;36.5;0;0;0;0;0;false;50789;5862231855;-73.637905;45.5035652;50692;6010966397;-73.641825;45.50526;1;23;24;270263;Bus 165 : Côte-des-Neiges Nord;"";STM;165-N;Station Guy-Concordia (Guy / De Maisonneuve);Gare Mont-Royal (Dunkirk / Cornwall)
455053280;"{\"type\":\"LineString\",\"coordinates\":[[-73.6385313,45.5037556],[-73.6390652,45.5039933],[-73.6415486,45.5051033],[-73.641971,45.505292],[-73.6420488,45.5053258]]}";2;Chemin de la Côte-des-Neiges;2;50;false;true;true;false;false;false;163.0;1;0;0;0;0;false;50789;5862231855;-73.637905;45.5035652;50692;6010966397;-73.641825;45.50526;1;23;24;270263;Bus 165 : Côte-des-Neiges Nord;"";STM;165-N;Station Guy-Concordia (Guy / De Maisonneuve);Gare Mont-Royal (Dunkirk / Cornwall)
455054971;"{\"type\":\"LineString\",\"coordinates\":[[-73.6420488,45.5053258],[-73.6421824,45.5053801]]}";1;Chemin de la Côte-des-Neiges;2;50;false;true;true;false;false;false;13.0;0;0;0;0;0;false;50692;6010966397;-73.641825;45.50526;56078;6010977590;-73.642309;45.50582;2;24;25;270263;Bus 165 : Côte-des-Neiges Nord;"";STM;165-N;Station Guy-Concordia (Guy / De Maisonneuve);Gare Mont-Royal (Dunkirk / Cornwall)
256520019;"{\"type\":\"LineString\",\"coordinates\":[[-73.6421824,45.5053801],[-73.6422783,45.5054334],[-73.6423256,45.5054758]]}";2;Chemin de la Côte-des-Neiges;2;50;false;true;true;false;false;false;16.0;0;0;0;0;0;false;50692;6010966397;-73.641825;45.50526;56078;6010977590;-73.642309;45.50582;0;24;25;270263;Bus 165 : Côte-des-Neiges Nord;"";STM;165-N;Station Guy-Concordia (Guy / De Maisonneuve);Gare Mont-Royal (Dunkirk / Cornwall)
20411844;"{\"type\":\"LineString\",\"coordinates\":[[-73.6423256,45.5054758],[-73.642368,45.506121],[-73.6424412,45.5072328],[-73.6426574,45.509313],[-73.6427626,45.5103255],[-73.6428556,45.5112202],[-73.6429545,45.5121715],[-73.6430524,45.5131142],[-73.6431108,45.5136754],[-73.6431388,45.5139451],[-73.6431694,45.5142395],[-73.64317,45.514283],[-73.6431719,45.51437],[-73.6431756,45.5145452]]}";3;Boulevard Laird;1;50;false;true;true;false;false;false;1010.0;0;0;0;0;0;false;50692;6010966397;-73.641825;45.50526;56078;6010977590;-73.642309;45.50582;2;24;25;270263;Bus 165 : Côte-des-Neiges Nord;"";STM;165-N;Station Guy-Concordia (Guy / De Maisonneuve);Gare Mont-Royal (Dunkirk / Cornwall)
20411844;"{\"type\":\"LineString\",\"coordinates\":[[-73.6423256,45.5054758],[-73.642368,45.506121],[-73.6424412,45.5072328],[-73.6426574,45.509313],[-73.6427626,45.5103255],[-73.6428556,45.5112202],[-73.6429545,45.5121715],[-73.6430524,45.5131142],[-73.6431108,45.5136754],[-73.6431388,45.5139451],[-73.6431694,45.5142395],[-73.64317,45.514283],[-73.6431719,45.51437],[-73.6431756,45.5145452]]}";1;Boulevard Laird;1;50;false;true;true;false;false;false;505.0;0;0;0;0;0;false;56066;6010970129;-73.643054;45.513543;56136;6010969796;-73.643129;45.516035;1;29;30;270263;Bus 165 : Côte-des-Neiges Nord;"";STM;165-N;Station Guy-Concordia (Guy / De Maisonneuve);Gare Mont-Royal (Dunkirk / Cornwall)
396936325;"{\"type\":\"LineString\",\"coordinates\":[[-73.6431756,45.5145452],[-73.6431397,45.5146768],[-73.6430932,45.5147647],[-73.6427515,45.5153774]]}";2;Boulevard Laird;2;50;false;true;true;false;false;false;99.0;1;0;0;0;0;false;56066;6010970129;-73.643054;45.513543;56136;6010969796;-73.643129;45.516035;0;29;30;270263;Bus 165 : Côte-des-Neiges Nord;"";STM;165-N;Station Guy-Concordia (Guy / De Maisonneuve);Gare Mont-Royal (Dunkirk / Cornwall)
20411857;"{\"type\":\"LineString\",\"coordinates\":[[-73.6427515,45.5153774],[-73.6427481,45.5154923],[-73.6427624,45.5155956],[-73.6427931,45.5156793],[-73.6428666,45.5158072],[-73.6429521,45.5158834],[-73.643054,45.5159514],[-73.6432203,45.5160388],[-73.6434408,45.5160991]]}";3;Boulevard Graham;1;50;false;true;true;false;false;false;106.0;1;0;0;0;0;false;56066;6010970129;-73.643054;45.513543;56136;6010969796;-73.643129;45.516035;1;29;30;270263;Bus 165 : Côte-des-Neiges Nord;"";STM;165-N;Station Guy-Concordia (Guy / De Maisonneuve);Gare Mont-Royal (Dunkirk / Cornwall)
