way_id;shape;index;name;nb_lanes;legal_speed;speed_zone_30;oneway;shares_bike;bike_box;bus_lane;dedicated_bus_lane;length;nb_traffic_signals;nb_crossings;nb_stops;nb_give_ways;nb_lvl_crossings;roundabout;stop_id_orig;node_id_orig;coord_x_orig;coord_y_orig;stop_id_dest;node_id_dest;coord_x_dest;coord_y_dest;nb_neighbouring_ways_bus_stop;ordre_orig;ordre_dest;id_line;line_name;colour;operator;ref;from;to
393659758;"{\"type\":\"LineString\",\"coordinates\":[[-73.5770622,45.5142194],[-73.5761571,45.5138099]]}";1;Rue Saint-Urbain;3;50;false;true;false;false;false;false;85.0;1;0;0;0;0;false;54140;471065239;-73.576831;45.514078;52291;5754970244;-73.575736;45.515399;1;0;1;5906962;Bus 29 : Rachel Est;"";STM;29-E;Saint-Urbain / Roy;Station Joliette / (Joliette / Hochelaga)
393659734;"{\"type\":\"LineString\",\"coordinates\":[[-73.5761571,45.5138099],[-73.5757586,45.5142822]]}";2;Avenue des Pins;2;50;false;false;false;false;false;false;61.0;1;0;0;0;0;false;54140;471065239;-73.576831;45.514078;52291;5754970244;-73.575736;45.515399;0;0;1;5906962;Bus 29 : Rachel Est;"";STM;29-E;Saint-Urbain / Roy;Station Joliette / (Joliette / Hochelaga)
465384268;"{\"type\":\"LineString\",\"coordinates\":[[-73.5757586,45.5142822],[-73.575514,45.5145721]]}";3;Avenue des Pins;2;50;false;false;false;false;false;false;38.0;0;0;0;0;0;false;54140;471065239;-73.576831;45.514078;52291;5754970244;-73.575736;45.515399;0;0;1;5906962;Bus 29 : Rachel Est;"";STM;29-E;Saint-Urbain / Roy;Station Joliette / (Joliette / Hochelaga)
465369624;"{\"type\":\"LineString\",\"coordinates\":[[-73.575514,45.5145721],[-73.5753068,45.5148176],[-73.5751105,45.5150502]]}";4;Avenue des Pins;2;50;false;false;false;false;false;false;62.0;1;0;0;0;0;false;54140;471065239;-73.576831;45.514078;52291;5754970244;-73.575736;45.515399;0;0;1;5906962;Bus 29 : Rachel Est;"";STM;29-E;Saint-Urbain / Roy;Station Joliette / (Joliette / Hochelaga)
393659690;"{\"type\":\"LineString\",\"coordinates\":[[-73.5751105,45.5150502],[-73.5759201,45.5154113],[-73.5772051,45.5159845],[-73.5779816,45.5163308],[-73.5783798,45.5165084],[-73.5793949,45.5169706],[-73.5816922,45.5180147]]}";5;Boulevard Saint-Laurent;2;50;false;true;true;false;false;false;305.5;4;0;0;0;0;false;54140;471065239;-73.576831;45.514078;52291;5754970244;-73.575736;45.515399;1;0;1;5906962;Bus 29 : Rachel Est;"";STM;29-E;Saint-Urbain / Roy;Station Joliette / (Joliette / Hochelaga)
465191912;"{\"type\":\"LineString\",\"coordinates\":[[-73.5812402,45.5184878],[-73.5816922,45.5180147]]}";1;Rue Rachel Est;2;50;false;false;true;false;false;false;64.0;1;0;0;0;0;false;52103;331484693;-73.581473;45.517979;52152;6010970509;-73.580012;45.5197;2;4;5;5906962;Bus 29 : Rachel Est;"";STM;29-E;Saint-Urbain / Roy;Station Joliette / (Joliette / Hochelaga)
465191913;"{\"type\":\"LineString\",\"coordinates\":[[-73.5808263,45.5189296],[-73.5812402,45.5184878]]}";2;Rue Rachel Est;2;50;false;false;true;false;false;false;59.0;1;0;0;0;0;false;52103;331484693;-73.581473;45.517979;52152;6010970509;-73.580012;45.5197;0;4;5;5906962;Bus 29 : Rachel Est;"";STM;29-E;Saint-Urbain / Roy;Station Joliette / (Joliette / Hochelaga)
393785998;"{\"type\":\"LineString\",\"coordinates\":[[-73.5799889,45.5198291],[-73.5804142,45.5193723],[-73.5808263,45.5189296]]}";3;Rue Rachel Est;2;50;false;false;true;false;false;false;120.0;2;0;0;0;0;false;52103;331484693;-73.581473;45.517979;52152;6010970509;-73.580012;45.5197;2;4;5;5906962;Bus 29 : Rachel Est;"";STM;29-E;Saint-Urbain / Roy;Station Joliette / (Joliette / Hochelaga)
465184058;"{\"type\":\"LineString\",\"coordinates\":[[-73.5791285,45.5207592],[-73.5793341,45.5205369],[-73.5795667,45.5202855],[-73.5798041,45.5200289],[-73.5799889,45.5198291]]}";1;Rue Rachel Est;2;50;false;false;true;false;false;false;124.0;2;0;0;0;0;false;52152;6010970509;-73.580012;45.5197;52208;5211132722;-73.5782345;45.5216675;2;5;6;5906962;Bus 29 : Rachel Est;"";STM;29-E;Saint-Urbain / Roy;Station Joliette / (Joliette / Hochelaga)
465184061;"{\"type\":\"LineString\",\"coordinates\":[[-73.5781665,45.521794],[-73.5784749,45.5214623],[-73.5787116,45.5212077],[-73.5791285,45.5207592]]}";2;Rue Rachel Est;2;50;false;false;true;false;false;false;138.0;2;0;0;0;0;false;52152;6010970509;-73.580012;45.5197;52208;5211132722;-73.5782345;45.5216675;2;5;6;5906962;Bus 29 : Rachel Est;"";STM;29-E;Saint-Urbain / Roy;Station Joliette / (Joliette / Hochelaga)
475308562;"{\"type\":\"LineString\",\"coordinates\":[[-73.5778707,45.5221245],[-73.5781665,45.521794]]}";1;Rue Rachel Est;2;50;false;false;true;false;false;false;44.0;1;0;0;0;0;false;52208;5211132722;-73.5782345;45.5216675;52261;4360323192;-73.5766089;45.5234662;2;6;7;5906962;Bus 29 : Rachel Est;"";STM;29-E;Saint-Urbain / Roy;Station Joliette / (Joliette / Hochelaga)
463886949;"{\"type\":\"LineString\",\"coordinates\":[[-73.5776691,45.5223497],[-73.5778707,45.5221245]]}";2;Rue Rachel Est;2;50;false;false;true;false;false;false;30.0;0;0;0;0;0;false;52208;5211132722;-73.5782345;45.5216675;52261;4360323192;-73.5766089;45.5234662;0;6;7;5906962;Bus 29 : Rachel Est;"";STM;29-E;Saint-Urbain / Roy;Station Joliette / (Joliette / Hochelaga)
453940116;"{\"type\":\"LineString\",\"coordinates\":[[-73.5772587,45.5227964],[-73.5774615,45.5225757],[-73.5776691,45.5223497]]}";3;Rue Rachel Est;2;50;false;false;true;false;false;false;60.0;1;0;0;0;0;false;52208;5211132722;-73.5782345;45.5216675;52261;4360323192;-73.5766089;45.5234662;0;6;7;5906962;Bus 29 : Rachel Est;"";STM;29-E;Saint-Urbain / Roy;Station Joliette / (Joliette / Hochelaga)
453940107;"{\"type\":\"LineString\",\"coordinates\":[[-73.5756186,45.5245707],[-73.5758767,45.5242844],[-73.5758868,45.5242736],[-73.5761569,45.5239843],[-73.5765914,45.5235214],[-73.5769208,45.5231594],[-73.5772587,45.5227964]]}";4;Rue Rachel Est;2;50;false;false;true;false;false;false;235.0;2;0;0;0;0;false;52208;5211132722;-73.5782345;45.5216675;52261;4360323192;-73.5766089;45.5234662;2;6;7;5906962;Bus 29 : Rachel Est;"";STM;29-E;Saint-Urbain / Roy;Station Joliette / (Joliette / Hochelaga)
453940107;"{\"type\":\"LineString\",\"coordinates\":[[-73.5756186,45.5245707],[-73.5758767,45.5242844],[-73.5758868,45.5242736],[-73.5761569,45.5239843],[-73.5765914,45.5235214],[-73.5769208,45.5231594],[-73.5772587,45.5227964]]}";1;Rue Rachel Est;2;50;false;false;true;false;false;false;117.5;2;0;0;0;0;false;52261;4360323192;-73.5766089;45.5234662;52297;5212929021;-73.5753747;45.52478;1;7;8;5906962;Bus 29 : Rachel Est;"";STM;29-E;Saint-Urbain / Roy;Station Joliette / (Joliette / Hochelaga)
475009070;"{\"type\":\"LineString\",\"coordinates\":[[-73.5753533,45.524865],[-73.5756186,45.5245707]]}";2;Rue Rachel Est;2;50;false;false;true;false;false;false;19.5;0;0;0;0;0;false;52261;4360323192;-73.5766089;45.5234662;52297;5212929021;-73.5753747;45.52478;1;7;8;5906962;Bus 29 : Rachel Est;"";STM;29-E;Saint-Urbain / Roy;Station Joliette / (Joliette / Hochelaga)
475009069;"{\"type\":\"LineString\",\"coordinates\":[[-73.5750482,45.5252047],[-73.5753533,45.524865]]}";1;Rue Rachel Est;2;50;false;false;true;false;false;false;45.0;0;0;0;0;0;false;52297;5212929021;-73.5753747;45.52478;52355;291483318;-73.573549;45.526197;2;8;9;5906962;Bus 29 : Rachel Est;"";STM;29-E;Saint-Urbain / Roy;Station Joliette / (Joliette / Hochelaga)
475009072;"{\"type\":\"LineString\",\"coordinates\":[[-73.5747237,45.5255358],[-73.5750482,45.5252047]]}";2;Rue Rachel Est;2;50;false;false;true;false;false;false;45.0;0;0;0;0;0;false;52297;5212929021;-73.5753747;45.52478;52355;291483318;-73.573549;45.526197;0;8;9;5906962;Bus 29 : Rachel Est;"";STM;29-E;Saint-Urbain / Roy;Station Joliette / (Joliette / Hochelaga)
463886961;"{\"type\":\"LineString\",\"coordinates\":[[-73.5743281,45.5256509],[-73.5745716,45.5255915],[-73.5747237,45.5255358]]}";3;Rue Rachel Est;2;50;false;false;true;false;false;false;34.0;1;0;0;0;0;false;52297;5212929021;-73.5753747;45.52478;52355;291483318;-73.573549;45.526197;0;8;9;5906962;Bus 29 : Rachel Est;"";STM;29-E;Saint-Urbain / Roy;Station Joliette / (Joliette / Hochelaga)
393785994;"{\"type\":\"LineString\",\"coordinates\":[[-73.5734534,45.5263926],[-73.5739867,45.5258147],[-73.574149,45.5257199],[-73.5743281,45.5256509]]}";4;Rue Rachel Est;1;50;false;false;true;false;false;false;109.0;2;0;0;0;0;false;52297;5212929021;-73.5753747;45.52478;52355;291483318;-73.573549;45.526197;2;8;9;5906962;Bus 29 : Rachel Est;"";STM;29-E;Saint-Urbain / Roy;Station Joliette / (Joliette / Hochelaga)
393785994;"{\"type\":\"LineString\",\"coordinates\":[[-73.5734534,45.5263926],[-73.5739867,45.5258147],[-73.574149,45.5257199],[-73.5743281,45.5256509]]}";1;Rue Rachel Est;1;50;false;false;true;false;false;false;54.5;2;0;0;0;0;false;52355;291483318;-73.573549;45.526197;52404;6010964976;-73.572146;45.527677;1;9;10;5906962;Bus 29 : Rachel Est;"";STM;29-E;Saint-Urbain / Roy;Station Joliette / (Joliette / Hochelaga)
734284729;"{\"type\":\"LineString\",\"coordinates\":[[-73.5729687,45.526919],[-73.5734534,45.5263926]]}";2;Rue Rachel Est;2;50;false;false;true;false;false;false;70.0;2;0;0;0;0;false;52355;291483318;-73.573549;45.526197;52404;6010964976;-73.572146;45.527677;0;9;10;5906962;Bus 29 : Rachel Est;"";STM;29-E;Saint-Urbain / Roy;Station Joliette / (Joliette / Hochelaga)
621514317;"{\"type\":\"LineString\",\"coordinates\":[[-73.5729463,45.5269433],[-73.5729687,45.526919]]}";3;Rue Rachel Est;2;50;false;false;true;false;false;false;4.0;2;0;0;0;0;false;52355;291483318;-73.573549;45.526197;52404;6010964976;-73.572146;45.527677;0;9;10;5906962;Bus 29 : Rachel Est;"";STM;29-E;Saint-Urbain / Roy;Station Joliette / (Joliette / Hochelaga)
463886963;"{\"type\":\"LineString\",\"coordinates\":[[-73.5720221,45.5279254],[-73.5720742,45.5278703],[-73.5724684,45.527454],[-73.5729463,45.5269433]]}";4;Rue Rachel Est;2;50;false;false;true;false;false;false;65.5;3;0;0;0;0;false;52355;291483318;-73.573549;45.526197;52404;6010964976;-73.572146;45.527677;1;9;10;5906962;Bus 29 : Rachel Est;"";STM;29-E;Saint-Urbain / Roy;Station Joliette / (Joliette / Hochelaga)
463886963;"{\"type\":\"LineString\",\"coordinates\":[[-73.5720221,45.5279254],[-73.5720742,45.5278703],[-73.5724684,45.527454],[-73.5729463,45.5269433]]}";1;Rue Rachel Est;2;50;false;false;true;false;false;false;65.5;3;0;0;0;0;false;52404;6010964976;-73.572146;45.527677;52436;4360362690;-73.5708762;45.5291209;1;10;11;5906962;Bus 29 : Rachel Est;"";STM;29-E;Saint-Urbain / Roy;Station Joliette / (Joliette / Hochelaga)
393865865;"{\"type\":\"LineString\",\"coordinates\":[[-73.5702007,45.5298214],[-73.5708241,45.5291743],[-73.5708922,45.5291036],[-73.5714715,45.5285022],[-73.5716492,45.5283177],[-73.5720221,45.5279254]]}";2;Rue Rachel Est;1;50;false;false;true;false;false;false;127.5;2;0;0;0;0;false;52404;6010964976;-73.572146;45.527677;52436;4360362690;-73.5708762;45.5291209;1;10;11;5906962;Bus 29 : Rachel Est;"";STM;29-E;Saint-Urbain / Roy;Station Joliette / (Joliette / Hochelaga)
393865865;"{\"type\":\"LineString\",\"coordinates\":[[-73.5702007,45.5298214],[-73.5708241,45.5291743],[-73.5708922,45.5291036],[-73.5714715,45.5285022],[-73.5716492,45.5283177],[-73.5720221,45.5279254]]}";1;Rue Rachel Est;1;50;false;false;true;false;false;false;127.5;2;0;0;0;0;false;52436;4360362690;-73.5708762;45.5291209;52477;6010978033;-73.569208;45.530748;1;11;12;5906962;Bus 29 : Rachel Est;"";STM;29-E;Saint-Urbain / Roy;Station Joliette / (Joliette / Hochelaga)
452222945;"{\"type\":\"LineString\",\"coordinates\":[[-73.5695065,45.5305503],[-73.5702007,45.5298214]]}";2;Rue Rachel Est;1;50;false;false;true;false;false;false;98.0;2;0;0;0;0;false;52436;4360362690;-73.5708762;45.5291209;52477;6010978033;-73.569208;45.530748;0;11;12;5906962;Bus 29 : Rachel Est;"";STM;29-E;Saint-Urbain / Roy;Station Joliette / (Joliette / Hochelaga)
452222946;"{\"type\":\"LineString\",\"coordinates\":[[-73.5679717,45.5321654],[-73.5684137,45.5317003],[-73.5688649,45.5312254],[-73.5695065,45.5305503]]}";3;Rue Rachel Est;2;50;false;false;true;false;false;false;108.0;1;0;0;0;0;false;52436;4360362690;-73.5708762;45.5291209;52477;6010978033;-73.569208;45.530748;1;11;12;5906962;Bus 29 : Rachel Est;"";STM;29-E;Saint-Urbain / Roy;Station Joliette / (Joliette / Hochelaga)
452245718;"{\"type\":\"LineString\",\"coordinates\":[[-73.5673644,45.5327803],[-73.567406,45.5327399],[-73.5679717,45.5321654]]}";1;Rue Rachel Est;1;50;false;false;true;false;false;false;42.0;0;0;0;0;0;false;52564;6010968665;-73.567506;45.532522;52614;5768924783;-73.566134;45.533965;1;14;15;5906962;Bus 29 : Rachel Est;"";STM;29-E;Saint-Urbain / Roy;Station Joliette / (Joliette / Hochelaga)
393865864;"{\"type\":\"LineString\",\"coordinates\":[[-73.566786,45.5333703],[-73.5669453,45.5332078],[-73.5673644,45.5327803]]}";2;Rue Rachel Est;1;50;false;false;true;false;false;false;80.0;0;0;0;0;0;false;52564;6010968665;-73.567506;45.532522;52614;5768924783;-73.566134;45.533965;0;14;15;5906962;Bus 29 : Rachel Est;"";STM;29-E;Saint-Urbain / Roy;Station Joliette / (Joliette / Hochelaga)
463851995;"{\"type\":\"LineString\",\"coordinates\":[[-73.5660965,45.5341072],[-73.566786,45.5333703]]}";3;Rue Rachel Est;1;50;false;false;true;false;false;false;49.0;0;0;0;0;0;false;52564;6010968665;-73.567506;45.532522;52614;5768924783;-73.566134;45.533965;1;14;15;5906962;Bus 29 : Rachel Est;"";STM;29-E;Saint-Urbain / Roy;Station Joliette / (Joliette / Hochelaga)
329066839;"{\"type\":\"LineString\",\"coordinates\":[[-73.5613724,45.5359293],[-73.5609265,45.5357368],[-73.560707,45.5356444],[-73.5595298,45.5351441],[-73.5591304,45.5349744]]}";1;Rue D'Iberville;4;50;false;true;true;false;false;false;205.0;2;0;0;0;0;false;52764;6010980492;-73.561578;45.535942;52858;6010981021;-73.558646;45.535415;2;18;19;5906962;Bus 29 : Rachel Est;"";STM;29-E;Saint-Urbain / Roy;Station Joliette / (Joliette / Hochelaga)
150507735;"{\"type\":\"LineString\",\"coordinates\":[[-73.5591304,45.5349744],[-73.5588795,45.5352511],[-73.5586644,45.5354741],[-73.5586023,45.5355288]]}";2;Rue Hochelaga;2;50;false;false;false;false;false;false;75.0;2;0;0;0;0;false;52764;6010980492;-73.561578;45.535942;52858;6010981021;-73.558646;45.535415;2;18;19;5906962;Bus 29 : Rachel Est;"";STM;29-E;Saint-Urbain / Roy;Station Joliette / (Joliette / Hochelaga)
393666343;"{\"type\":\"LineString\",\"coordinates\":[[-73.5586023,45.5355288],[-73.5585477,45.5355905],[-73.5582976,45.5358986]]}";1;Rue Hochelaga;2;50;false;false;false;false;false;false;48.0;1;0;0;0;0;false;52858;6010981021;-73.558646;45.535415;52877;6010970856;-73.557965;45.536184;2;19;20;5906962;Bus 29 : Rachel Est;"";STM;29-E;Saint-Urbain / Roy;Station Joliette / (Joliette / Hochelaga)
461358566;"{\"type\":\"LineString\",\"coordinates\":[[-73.5582976,45.5358986],[-73.5580086,45.5363022],[-73.5575982,45.5368838]]}";2;Rue Hochelaga;2;50;false;false;true;false;false;false;123.0;0;0;0;0;0;false;52858;6010981021;-73.558646;45.535415;52877;6010970856;-73.557965;45.536184;2;19;20;5906962;Bus 29 : Rachel Est;"";STM;29-E;Saint-Urbain / Roy;Station Joliette / (Joliette / Hochelaga)
461358566;"{\"type\":\"LineString\",\"coordinates\":[[-73.5582976,45.5358986],[-73.5580086,45.5363022],[-73.5575982,45.5368838]]}";1;Rue Hochelaga;2;50;false;false;true;false;false;false;61.5;0;0;0;0;0;false;52877;6010970856;-73.557965;45.536184;52889;6010981275;-73.55718;45.537331;1;20;21;5906962;Bus 29 : Rachel Est;"";STM;29-E;Saint-Urbain / Roy;Station Joliette / (Joliette / Hochelaga)
461358565;"{\"type\":\"LineString\",\"coordinates\":[[-73.5575982,45.5368838],[-73.5572228,45.5374757]]}";2;Rue Hochelaga;2;50;false;false;true;false;false;false;36.0;1;0;0;0;0;false;52877;6010970856;-73.557965;45.536184;52889;6010981275;-73.55718;45.537331;1;20;21;5906962;Bus 29 : Rachel Est;"";STM;29-E;Saint-Urbain / Roy;Station Joliette / (Joliette / Hochelaga)
277319493;"{\"type\":\"LineString\",\"coordinates\":[[-73.5572228,45.5374757],[-73.5568318,45.5381022],[-73.5564705,45.5386766]]}";1;Rue Hochelaga;2;50;false;false;true;false;false;false;146.0;1;0;0;0;0;false;52889;6010981275;-73.55718;45.537331;53750;6010965224;-73.556053;45.539109;2;21;22;5906962;Bus 29 : Rachel Est;"";STM;29-E;Saint-Urbain / Roy;Station Joliette / (Joliette / Hochelaga)
461358564;"{\"type\":\"LineString\",\"coordinates\":[[-73.5564705,45.5386766],[-73.5560895,45.5392825]]}";2;Rue Hochelaga;2;50;false;false;true;false;false;false;74.0;0;0;0;0;0;false;52889;6010981275;-73.55718;45.537331;53750;6010965224;-73.556053;45.539109;2;21;22;5906962;Bus 29 : Rachel Est;"";STM;29-E;Saint-Urbain / Roy;Station Joliette / (Joliette / Hochelaga)
560997614;"{\"type\":\"LineString\",\"coordinates\":[[-73.5560895,45.5392825],[-73.5559546,45.5393784]]}";1;Rue Hochelaga;2;50;false;true;true;false;false;false;15.0;0;0;0;0;0;false;53750;6010965224;-73.556053;45.539109;52967;6010970011;-73.554435;45.541719;2;22;23;5906962;Bus 29 : Rachel Est;"";STM;29-E;Saint-Urbain / Roy;Station Joliette / (Joliette / Hochelaga)
83895942;"{\"type\":\"LineString\",\"coordinates\":[[-73.5559546,45.5393784],[-73.5556982,45.5397997]]}";2;Rue Hochelaga;1;50;false;true;true;false;false;false;51.0;0;0;0;0;0;false;53750;6010965224;-73.556053;45.539109;52967;6010970011;-73.554435;45.541719;0;22;23;5906962;Bus 29 : Rachel Est;"";STM;29-E;Saint-Urbain / Roy;Station Joliette / (Joliette / Hochelaga)
560998302;"{\"type\":\"LineString\",\"coordinates\":[[-73.5556982,45.5397997],[-73.5556906,45.5399168]]}";3;Rue Hochelaga;4;50;false;true;true;false;false;false;14.0;0;0;0;0;0;false;53750;6010965224;-73.556053;45.539109;52967;6010970011;-73.554435;45.541719;0;22;23;5906962;Bus 29 : Rachel Est;"";STM;29-E;Saint-Urbain / Roy;Station Joliette / (Joliette / Hochelaga)
83895940;"{\"type\":\"LineString\",\"coordinates\":[[-73.5556906,45.5399168],[-73.5555365,45.5401622],[-73.555326,45.5404957],[-73.5551821,45.5407227],[-73.555163,45.5407529],[-73.5550033,45.5410049],[-73.5549907,45.5410237],[-73.5549717,45.5410541],[-73.5549425,45.5410995],[-73.5548752,45.5412043],[-73.554869,45.5412126],[-73.5548463,45.5412497],[-73.5548328,45.5412722],[-73.5548291,45.5412761],[-73.5547903,45.5413364],[-73.5547879,45.5413401],[-73.5547429,45.5414102],[-73.5547239,45.5414397],[-73.5546969,45.5414817]]}";4;Rue Hochelaga;4;50;false;false;true;false;false;false;191.0;0;1;0;0;0;false;53750;6010965224;-73.556053;45.539109;52967;6010970011;-73.554435;45.541719;0;22;23;5906962;Bus 29 : Rachel Est;"";STM;29-E;Saint-Urbain / Roy;Station Joliette / (Joliette / Hochelaga)
461162990;"{\"type\":\"LineString\",\"coordinates\":[[-73.5546969,45.5414817],[-73.55465,45.5415631],[-73.5545063,45.5418129],[-73.5542631,45.5422353],[-73.5538436,45.5428934],[-73.5538115,45.5429438]]}";5;Rue Hochelaga;4;50;false;false;true;false;false;false;177.0;0;1;0;0;0;false;53750;6010965224;-73.556053;45.539109;52967;6010970011;-73.554435;45.541719;2;22;23;5906962;Bus 29 : Rachel Est;"";STM;29-E;Saint-Urbain / Roy;Station Joliette / (Joliette / Hochelaga)
461162990;"{\"type\":\"LineString\",\"coordinates\":[[-73.5546969,45.5414817],[-73.55465,45.5415631],[-73.5545063,45.5418129],[-73.5542631,45.5422353],[-73.5538436,45.5428934],[-73.5538115,45.5429438]]}";1;Rue Hochelaga;4;50;false;false;true;false;false;false;88.5;0;1;0;0;0;false;52967;6010970011;-73.554435;45.541719;53000;6010973731;-73.553363;45.543472;1;23;24;5906962;Bus 29 : Rachel Est;"";STM;29-E;Saint-Urbain / Roy;Station Joliette / (Joliette / Hochelaga)
535385922;"{\"type\":\"LineString\",\"coordinates\":[[-73.5538115,45.5429438],[-73.5533953,45.5436396]]}";2;Rue Hochelaga;4;50;false;false;true;false;false;false;42.0;1;0;0;0;0;false;52967;6010970011;-73.554435;45.541719;53000;6010973731;-73.553363;45.543472;1;23;24;5906962;Bus 29 : Rachel Est;"";STM;29-E;Saint-Urbain / Roy;Station Joliette / (Joliette / Hochelaga)
395059474;"{\"type\":\"LineString\",\"coordinates\":[[-73.5525866,45.5449311],[-73.5521978,45.5455455],[-73.5517912,45.5462395]]}";1;Rue Hochelaga;4;50;false;false;true;false;false;false;159.0;1;0;0;0;0;false;53012;6010977317;-73.552546;45.544792;53021;6010978208;-73.551398;45.546078;2;25;26;5906962;Bus 29 : Rachel Est;"";STM;29-E;Saint-Urbain / Roy;Station Joliette / (Joliette / Hochelaga)
393653009;"{\"type\":\"LineString\",\"coordinates\":[[-73.5517912,45.5462395],[-73.5512812,45.5460919],[-73.5492897,45.545493],[-73.5487489,45.5453312]]}";2;Rue Aylwin;1;50;false;true;true;false;false;false;258.0;0;0;0;0;0;false;53012;6010977317;-73.552546;45.544792;53021;6010978208;-73.551398;45.546078;2;25;26;5906962;Bus 29 : Rachel Est;"";STM;29-E;Saint-Urbain / Roy;Station Joliette / (Joliette / Hochelaga)
393652871;"{\"type\":\"LineString\",\"coordinates\":[[-73.549517,45.5440467],[-73.5491365,45.5446472],[-73.5487489,45.5453312]]}";1;Rue de Rouen;1;50;false;false;true;false;false;false;155.0;0;0;0;0;0;false;53076;6010971091;-73.548963;45.545343;53068;6010977997;-73.549177;45.543852;2;27;28;5906962;Bus 29 : Rachel Est;"";STM;29-E;Saint-Urbain / Roy;Station Joliette / (Joliette / Hochelaga)
393652238;"{\"type\":\"LineString\",\"coordinates\":[[-73.549517,45.5440467],[-73.5490954,45.5439146],[-73.5490183,45.5438904],[-73.5466403,45.5431452],[-73.5461162,45.5429986],[-73.5455886,45.5428196],[-73.5447668,45.5425744],[-73.5446774,45.5425493],[-73.5441342,45.5423965]]}";2;Rue Davidson;1;50;false;true;true;false;false;false;459.0;0;0;0;0;0;false;53076;6010971091;-73.548963;45.545343;53068;6010977997;-73.549177;45.543852;2;27;28;5906962;Bus 29 : Rachel Est;"";STM;29-E;Saint-Urbain / Roy;Station Joliette / (Joliette / Hochelaga)
393650707;"{\"type\":\"LineString\",\"coordinates\":[[-73.5399288,45.5411491],[-73.5395614,45.5417685]]}";1;Rue Sainte-Catherine Est;1;50;false;false;true;false;false;false;75.0;1;0;0;0;0;false;53212;6010967438;-73.54013;45.541155;53227;3969481523;-73.5389326;45.5426664;2;32;33;5906962;Bus 29 : Rachel Est;"";STM;29-E;Saint-Urbain / Roy;Station Joliette / (Joliette / Hochelaga)
393651267;"{\"type\":\"LineString\",\"coordinates\":[[-73.5395614,45.5417685],[-73.5391605,45.5424247],[-73.5388056,45.5430054]]}";2;Rue Sainte-Catherine Est;1;50;false;false;true;false;false;false;150.0;0;0;0;0;0;false;53212;6010967438;-73.54013;45.541155;53227;3969481523;-73.5389326;45.5426664;2;32;33;5906962;Bus 29 : Rachel Est;"";STM;29-E;Saint-Urbain / Roy;Station Joliette / (Joliette / Hochelaga)
393651267;"{\"type\":\"LineString\",\"coordinates\":[[-73.5395614,45.5417685],[-73.5391605,45.5424247],[-73.5388056,45.5430054]]}";1;Rue Sainte-Catherine Est;1;50;false;false;true;false;false;false;75.0;0;0;0;0;0;false;53227;3969481523;-73.5389326;45.5426664;53194;6010976326;-73.540835;45.543675;1;33;34;5906962;Bus 29 : Rachel Est;"";STM;29-E;Saint-Urbain / Roy;Station Joliette / (Joliette / Hochelaga)
393651532;"{\"type\":\"LineString\",\"coordinates\":[[-73.5388056,45.5430054],[-73.5393399,45.5431712],[-73.5405145,45.5435341],[-73.5409048,45.5436521],[-73.541033,45.5436909],[-73.5415628,45.5438503],[-73.5418046,45.543923],[-73.5418375,45.5439329],[-73.5424758,45.5441249],[-73.542987,45.5442786],[-73.5435221,45.5444379],[-73.5444257,45.5447068],[-73.5449738,45.5448707],[-73.5454916,45.5450248],[-73.5479038,45.5457425],[-73.5484233,45.5458971],[-73.5489513,45.5460553],[-73.5509302,45.5466633]]}";2;Rue Joliette;1;50;false;true;true;false;false;false;515.0;0;0;1;0;0;false;53227;3969481523;-73.5389326;45.5426664;53194;6010976326;-73.540835;45.543675;1;33;34;5906962;Bus 29 : Rachel Est;"";STM;29-E;Saint-Urbain / Roy;Station Joliette / (Joliette / Hochelaga)
393651532;"{\"type\":\"LineString\",\"coordinates\":[[-73.5388056,45.5430054],[-73.5393399,45.5431712],[-73.5405145,45.5435341],[-73.5409048,45.5436521],[-73.541033,45.5436909],[-73.5415628,45.5438503],[-73.5418046,45.543923],[-73.5418375,45.5439329],[-73.5424758,45.5441249],[-73.542987,45.5442786],[-73.5435221,45.5444379],[-73.5444257,45.5447068],[-73.5449738,45.5448707],[-73.5454916,45.5450248],[-73.5479038,45.5457425],[-73.5484233,45.5458971],[-73.5489513,45.5460553],[-73.5509302,45.5466633]]}";1;Rue Joliette;1;50;false;true;true;false;false;false;515.0;0;0;1;0;0;false;53084;6010978124;-73.548262;45.545911;53035;6010968457;-73.5512;45.546799;1;37;38;5906962;Bus 29 : Rachel Est;"";STM;29-E;Saint-Urbain / Roy;Station Joliette / (Joliette / Hochelaga)
393651534;"{\"type\":\"LineString\",\"coordinates\":[[-73.5509302,45.5466633],[-73.551295,45.5467753],[-73.5514258,45.5468155]]}";2;Rue Joliette;1;50;false;true;true;false;false;false;43.0;1;0;0;0;0;false;53084;6010978124;-73.548262;45.545911;53035;6010968457;-73.5512;45.546799;1;37;38;5906962;Bus 29 : Rachel Est;"";STM;29-E;Saint-Urbain / Roy;Station Joliette / (Joliette / Hochelaga)
