way_id;shape;index;name;nb_lanes;legal_speed;speed_zone_30;oneway;shares_bike;bike_box;bus_lane;dedicated_bus_lane;length;nb_traffic_signals;nb_crossings;nb_stops;nb_give_ways;nb_lvl_crossings;roundabout;stop_id_orig;node_id_orig;coord_x_orig;coord_y_orig;stop_id_dest;node_id_dest;coord_x_dest;coord_y_dest;nb_neighbouring_ways_bus_stop;ordre_orig;ordre_dest;id_line;line_name;colour;operator;ref;from;to
681719386;"{\"type\":\"LineString\",\"coordinates\":[[-73.5079604,45.7239874],[-73.508022,45.7224383],[-73.5080276,45.7222977]]}";1;Montée des Pionniers;1;50;false;true;true;false;false;false;188.0;1;0;0;0;0;false;85086;6127178741;-73.5080861;45.7236325;85253;6127178738;-73.5084908;45.7212236;1;1;2;9440485;Bus 11C : LACHENAIE;"";EXO;11C E;Cité du Sport;Allée du Grand-Pic / Chemin Saint-Charles
453682035;"{\"type\":\"LineString\",\"coordinates\":[[-73.5080276,45.7222977],[-73.5080621,45.721704],[-73.5080884,45.7215765],[-73.5081331,45.721466],[-73.5082297,45.7213425],[-73.508338,45.7212428],[-73.5084959,45.7210972],[-73.5086101,45.720992]]}";2;Montée des Pionniers;1;50;false;true;true;false;false;false;79.0;1;0;0;0;0;false;85086;6127178741;-73.5080861;45.7236325;85253;6127178738;-73.5084908;45.7212236;1;1;2;9440485;Bus 11C : LACHENAIE;"";EXO;11C E;Cité du Sport;Allée du Grand-Pic / Chemin Saint-Charles
453682035;"{\"type\":\"LineString\",\"coordinates\":[[-73.5080276,45.7222977],[-73.5080621,45.721704],[-73.5080884,45.7215765],[-73.5081331,45.721466],[-73.5082297,45.7213425],[-73.508338,45.7212428],[-73.5084959,45.7210972],[-73.5086101,45.720992]]}";1;Montée des Pionniers;1;50;false;true;true;false;false;false;79.0;1;0;0;0;0;false;85253;6127178738;-73.5084908;45.7212236;84125;6127178747;-73.511228;45.718186;1;2;3;9440485;Bus 11C : LACHENAIE;"";EXO;11C E;Cité du Sport;Allée du Grand-Pic / Chemin Saint-Charles
453682034;"{\"type\":\"LineString\",\"coordinates\":[[-73.5086101,45.720992],[-73.5095048,45.7202071],[-73.509878,45.7198563],[-73.5101607,45.7195324],[-73.5105395,45.7190933],[-73.5110682,45.7183706],[-73.5111396,45.7182638],[-73.5112261,45.7181344]]}";2;Montée des Pionniers;1;50;false;true;true;false;false;false;189.5;1;0;0;0;0;false;85253;6127178738;-73.5084908;45.7212236;84125;6127178747;-73.511228;45.718186;1;2;3;9440485;Bus 11C : LACHENAIE;"";EXO;11C E;Cité du Sport;Allée du Grand-Pic / Chemin Saint-Charles
474806365;"{\"type\":\"LineString\",\"coordinates\":[[-73.5112261,45.7181344],[-73.5112624,45.7180597]]}";1;Montée des Pionniers;1;50;false;true;true;false;false;false;9.0;0;0;0;0;0;false;84125;6127178747;-73.511228;45.718186;85776;6127178737;-73.51227;45.712928;2;3;4;9440485;Bus 11C : LACHENAIE;"";EXO;11C E;Cité du Sport;Allée du Grand-Pic / Chemin Saint-Charles
24574942;"{\"type\":\"LineString\",\"coordinates\":[[-73.5112624,45.7180597],[-73.5115107,45.7175999],[-73.511659,45.7172707],[-73.5118335,45.7168086],[-73.5119783,45.7163346],[-73.5120906,45.7158383],[-73.512159,45.7152865],[-73.5121807,45.7143091],[-73.5121841,45.7141582]]}";2;Montée des Pionniers;1;50;false;true;true;false;false;false;443.0;1;0;0;0;0;false;84125;6127178747;-73.511228;45.718186;85776;6127178737;-73.51227;45.712928;0;3;4;9440485;Bus 11C : LACHENAIE;"";EXO;11C E;Cité du Sport;Allée du Grand-Pic / Chemin Saint-Charles
453683695;"{\"type\":\"LineString\",\"coordinates\":[[-73.5121841,45.7141582],[-73.5121878,45.7140545]]}";3;Montée des Pionniers;1;50;false;true;true;false;false;false;12.0;0;0;0;0;0;false;84125;6127178747;-73.511228;45.718186;85776;6127178737;-73.51227;45.712928;0;3;4;9440485;Bus 11C : LACHENAIE;"";EXO;11C E;Cité du Sport;Allée du Grand-Pic / Chemin Saint-Charles
453683699;"{\"type\":\"LineString\",\"coordinates\":[[-73.5121878,45.7140545],[-73.5122035,45.7130127],[-73.5122054,45.7128888]]}";4;Montée des Pionniers;1;50;false;true;true;false;false;false;130.0;1;0;0;0;0;false;84125;6127178747;-73.511228;45.718186;85776;6127178737;-73.51227;45.712928;2;3;4;9440485;Bus 11C : LACHENAIE;"";EXO;11C E;Cité du Sport;Allée du Grand-Pic / Chemin Saint-Charles
241034320;"{\"type\":\"LineString\",\"coordinates\":[[-73.5122502,45.7099165],[-73.5122791,45.708671]]}";1;Montée des Pionniers;2;50;false;true;false;false;false;false;139.0;0;0;0;0;0;false;85089;6127178739;-73.5123473;45.7100381;84830;6127178745;-73.503607;45.716615;2;5;6;9440485;Bus 11C : LACHENAIE;"";EXO;11C E;Cité du Sport;Allée du Grand-Pic / Chemin Saint-Charles
49009250;"{\"type\":\"LineString\",\"coordinates\":[[-73.5122791,45.708671],[-73.5122334,45.7085287],[-73.5121811,45.7084566],[-73.5120878,45.7083817]]}";2;Montée des Pionniers;2;50;false;true;false;false;false;false;37.0;1;0;0;0;0;false;85089;6127178739;-73.5123473;45.7100381;84830;6127178745;-73.503607;45.716615;0;5;6;9440485;Bus 11C : LACHENAIE;"";EXO;11C E;Cité du Sport;Allée du Grand-Pic / Chemin Saint-Charles
49009251;"{\"type\":\"LineString\",\"coordinates\":[[-73.5120878,45.7083817],[-73.5119451,45.7083142],[-73.5118278,45.7082796],[-73.5117091,45.7082571],[-73.511573,45.7082458],[-73.5114167,45.7082664],[-73.511288,45.7083039],[-73.5111217,45.7083788],[-73.5109929,45.7085015],[-73.5106791,45.7088396],[-73.5105168,45.7089782],[-73.5103438,45.7091159],[-73.5101373,45.709231],[-73.509241,45.709749]]}";3;Chemin Saint-Charles;2;50;false;true;false;false;false;false;296.0;1;0;0;0;0;false;85089;6127178739;-73.5123473;45.7100381;84830;6127178745;-73.503607;45.716615;0;5;6;9440485;Bus 11C : LACHENAIE;"";EXO;11C E;Cité du Sport;Allée du Grand-Pic / Chemin Saint-Charles
163649766;"{\"type\":\"LineString\",\"coordinates\":[[-73.509241,45.709749],[-73.5078361,45.7105075]]}";4;Chemin Saint-Charles;2;50;false;true;false;false;false;false;138.0;0;0;0;0;0;false;85089;6127178739;-73.5123473;45.7100381;84830;6127178745;-73.503607;45.716615;0;5;6;9440485;Bus 11C : LACHENAIE;"";EXO;11C E;Cité du Sport;Allée du Grand-Pic / Chemin Saint-Charles
163649786;"{\"type\":\"LineString\",\"coordinates\":[[-73.5078361,45.7105075],[-73.505901,45.7116509],[-73.5055194,45.711918]]}";5;Chemin Saint-Charles;2;50;false;true;false;false;false;false;239.0;0;0;0;0;0;false;85089;6127178739;-73.5123473;45.7100381;84830;6127178745;-73.503607;45.716615;0;5;6;9440485;Bus 11C : LACHENAIE;"";EXO;11C E;Cité du Sport;Allée du Grand-Pic / Chemin Saint-Charles
163649774;"{\"type\":\"LineString\",\"coordinates\":[[-73.505166,45.7120855],[-73.5052939,45.7120279],[-73.5055194,45.711918]]}";6;Chemin Saint-Charles;4;50;false;false;true;false;false;false;34.0;1;0;0;0;0;false;85089;6127178739;-73.5123473;45.7100381;84830;6127178745;-73.503607;45.716615;0;5;6;9440485;Bus 11C : LACHENAIE;"";EXO;11C E;Cité du Sport;Allée du Grand-Pic / Chemin Saint-Charles
163649772;"{\"type\":\"LineString\",\"coordinates\":[[-73.5049666,45.7121523],[-73.505166,45.7120855]]}";7;Chemin Saint-Charles;4;50;false;false;true;false;false;false;18.0;0;0;0;0;0;false;85089;6127178739;-73.5123473;45.7100381;84830;6127178745;-73.503607;45.716615;0;5;6;9440485;Bus 11C : LACHENAIE;"";EXO;11C E;Cité du Sport;Allée du Grand-Pic / Chemin Saint-Charles
32797988;"{\"type\":\"LineString\",\"coordinates\":[[-73.5049666,45.7121523],[-73.5049627,45.7126054]]}";8;Rue des Migrateurs;1;50;false;true;true;false;false;false;51.0;0;0;0;0;0;false;85089;6127178739;-73.5123473;45.7100381;84830;6127178745;-73.503607;45.716615;0;5;6;9440485;Bus 11C : LACHENAIE;"";EXO;11C E;Cité du Sport;Allée du Grand-Pic / Chemin Saint-Charles
680965930;"{\"type\":\"LineString\",\"coordinates\":[[-73.5049627,45.7126054],[-73.5049514,45.7139379]]}";9;Rue des Migrateurs;1;50;false;true;true;false;false;false;148.0;1;0;0;0;0;false;85089;6127178739;-73.5123473;45.7100381;84830;6127178745;-73.503607;45.716615;0;5;6;9440485;Bus 11C : LACHENAIE;"";EXO;11C E;Cité du Sport;Allée du Grand-Pic / Chemin Saint-Charles
163649781;"{\"type\":\"LineString\",\"coordinates\":[[-73.5049514,45.7139379],[-73.5049509,45.7140329],[-73.5049456,45.7147873],[-73.5048546,45.7151342],[-73.5046559,45.7156001],[-73.5045245,45.7157932],[-73.5043071,45.7160112],[-73.5035804,45.7166742]]}";10;Rue des Migrateurs;1;50;false;true;true;false;false;false;334.0;2;0;0;0;0;false;85089;6127178739;-73.5123473;45.7100381;84830;6127178745;-73.503607;45.716615;2;5;6;9440485;Bus 11C : LACHENAIE;"";EXO;11C E;Cité du Sport;Allée du Grand-Pic / Chemin Saint-Charles
177365959;"{\"type\":\"LineString\",\"coordinates\":[[-73.5035804,45.7166742],[-73.5029292,45.7163377],[-73.5021185,45.7158764],[-73.5017605,45.7156939],[-73.5016605,45.7156665],[-73.5015508,45.7156561],[-73.5014591,45.7156511],[-73.5013462,45.7156597],[-73.4999259,45.7160611]]}";1;Rue du Bruant;1;50;false;false;true;false;false;false;165.5;0;0;0;0;0;false;85013;6129482221;-73.500133;45.715909;84796;6127178746;-73.498242;45.713891;1;7;8;9440485;Bus 11C : LACHENAIE;"";EXO;11C E;Cité du Sport;Allée du Grand-Pic / Chemin Saint-Charles
177365956;"{\"type\":\"LineString\",\"coordinates\":[[-73.4999259,45.7160611],[-73.4994471,45.7152691]]}";2;Rue du Chène Blanc;1;50;false;false;true;false;false;false;96.0;0;0;0;0;0;false;85013;6129482221;-73.500133;45.715909;84796;6127178746;-73.498242;45.713891;0;7;8;9440485;Bus 11C : LACHENAIE;"";EXO;11C E;Cité du Sport;Allée du Grand-Pic / Chemin Saint-Charles
679842987;"{\"type\":\"LineString\",\"coordinates\":[[-73.4990409,45.7153836],[-73.4990852,45.7153714],[-73.4994471,45.7152691]]}";3;Rue du Campagnol;1;50;false;false;true;false;false;false;35.0;0;0;0;0;0;false;85013;6129482221;-73.500133;45.715909;84796;6127178746;-73.498242;45.713891;0;7;8;9440485;Bus 11C : LACHENAIE;"";EXO;11C E;Cité du Sport;Allée du Grand-Pic / Chemin Saint-Charles
177365965;"{\"type\":\"LineString\",\"coordinates\":[[-73.4990409,45.7153836],[-73.4986289,45.714683],[-73.4983143,45.714148],[-73.4981606,45.7138865]]}";4;Allée du Grand-Pic;1;50;false;false;true;false;false;false;180.0;0;0;0;0;0;false;85013;6129482221;-73.500133;45.715909;84796;6127178746;-73.498242;45.713891;1;7;8;9440485;Bus 11C : LACHENAIE;"";EXO;11C E;Cité du Sport;Allée du Grand-Pic / Chemin Saint-Charles
