way_id;shape;index;name;nb_lanes;legal_speed;speed_zone_30;oneway;shares_bike;bike_box;bus_lane;dedicated_bus_lane;length;nb_traffic_signals;nb_crossings;nb_stops;nb_give_ways;nb_lvl_crossings;roundabout;stop_id_orig;node_id_orig;coord_x_orig;coord_y_orig;stop_id_dest;node_id_dest;coord_x_dest;coord_y_dest;nb_neighbouring_ways_bus_stop;ordre_orig;ordre_dest;id_line;line_name;colour;operator;ref;from;to
677666589;"{\"type\":\"LineString\",\"coordinates\":[[-73.9826919,45.4934638],[-73.9825614,45.4933716]]}";1;59e Avenue;1;50;false;false;true;false;false;false;15.0;0;0;0;0;0;false;80064;6119527341;-73.98247;45.493527;80080;6119527325;-73.984406;45.492192;1;0;1;9396959;Bus 81 : TERMINUS/ ST-EUSTACHE;"";EXO;81 E;André-Soucy / 59e Avenue;Terminus Saint-Eustache
676848406;"{\"type\":\"LineString\",\"coordinates\":[[-73.9861935,45.4909043],[-73.9859485,45.491071],[-73.9857354,45.4912161],[-73.9851318,45.4916269],[-73.9842734,45.4922111],[-73.983446,45.4927742],[-73.9825614,45.4933716]]}";2;Rue André-Soucy;1;50;false;false;true;false;false;false;395.0;0;0;0;0;0;false;80064;6119527341;-73.98247;45.493527;80080;6119527325;-73.984406;45.492192;3;0;1;9396959;Bus 81 : TERMINUS/ ST-EUSTACHE;"";EXO;81 E;André-Soucy / 59e Avenue;Terminus Saint-Eustache
44868781;"{\"type\":\"LineString\",\"coordinates\":[[-73.9861935,45.4909043],[-73.9815662,45.4875029]]}";1;Place René;1;50;false;false;true;false;false;false;523.0;0;0;0;0;0;false;80081;6119527324;-73.986135;45.491008;80083;6119527322;-73.979644;45.488645;2;2;3;9396959;Bus 81 : TERMINUS/ ST-EUSTACHE;"";EXO;81 E;André-Soucy / 59e Avenue;Terminus Saint-Eustache
676848404;"{\"type\":\"LineString\",\"coordinates\":[[-73.9815662,45.4875029],[-73.981418,45.4875689],[-73.980968,45.4877844],[-73.9806942,45.4879092],[-73.9801462,45.4882412],[-73.9796267,45.4886922],[-73.9790929,45.4891446],[-73.9786551,45.4895425],[-73.9781512,45.4899453]]}";2;Boulevard Proulx;1;50;false;false;true;false;false;false;384.0;0;0;0;0;0;false;80081;6119527324;-73.986135;45.491008;80083;6119527322;-73.979644;45.488645;2;2;3;9396959;Bus 81 : TERMINUS/ ST-EUSTACHE;"";EXO;81 E;André-Soucy / 59e Avenue;Terminus Saint-Eustache
676848404;"{\"type\":\"LineString\",\"coordinates\":[[-73.9815662,45.4875029],[-73.981418,45.4875689],[-73.980968,45.4877844],[-73.9806942,45.4879092],[-73.9801462,45.4882412],[-73.9796267,45.4886922],[-73.9790929,45.4891446],[-73.9786551,45.4895425],[-73.9781512,45.4899453]]}";1;Boulevard Proulx;1;50;false;false;true;false;false;false;192.0;0;0;0;0;0;false;80083;6119527322;-73.979644;45.488645;80084;6119527321;-73.978134;45.489949;1;3;4;9396959;Bus 81 : TERMINUS/ ST-EUSTACHE;"";EXO;81 E;André-Soucy / 59e Avenue;Terminus Saint-Eustache
44868829;"{\"type\":\"LineString\",\"coordinates\":[[-73.9825614,45.4933716],[-73.98215,45.4928858],[-73.9781512,45.4899453]]}";2;59e Avenue;1;50;false;false;true;false;false;false;257.5;0;0;0;0;0;false;80083;6119527322;-73.979644;45.488645;80084;6119527321;-73.978134;45.489949;1;3;4;9396959;Bus 81 : TERMINUS/ ST-EUSTACHE;"";EXO;81 E;André-Soucy / 59e Avenue;Terminus Saint-Eustache
676848404;"{\"type\":\"LineString\",\"coordinates\":[[-73.9815662,45.4875029],[-73.981418,45.4875689],[-73.980968,45.4877844],[-73.9806942,45.4879092],[-73.9801462,45.4882412],[-73.9796267,45.4886922],[-73.9790929,45.4891446],[-73.9786551,45.4895425],[-73.9781512,45.4899453]]}";1;Boulevard Proulx;1;50;false;false;true;false;false;false;384.0;0;0;0;0;0;false;80084;6119527321;-73.978134;45.489949;80213;6119527005;-73.982424;45.493351;2;4;5;9396959;Bus 81 : TERMINUS/ ST-EUSTACHE;"";EXO;81 E;André-Soucy / 59e Avenue;Terminus Saint-Eustache
44868829;"{\"type\":\"LineString\",\"coordinates\":[[-73.9825614,45.4933716],[-73.98215,45.4928858],[-73.9781512,45.4899453]]}";2;59e Avenue;1;50;false;false;true;false;false;false;515.0;0;0;0;0;0;false;80084;6119527321;-73.978134;45.489949;80213;6119527005;-73.982424;45.493351;2;4;5;9396959;Bus 81 : TERMINUS/ ST-EUSTACHE;"";EXO;81 E;André-Soucy / 59e Avenue;Terminus Saint-Eustache
676848406;"{\"type\":\"LineString\",\"coordinates\":[[-73.9861935,45.4909043],[-73.9859485,45.491071],[-73.9857354,45.4912161],[-73.9851318,45.4916269],[-73.9842734,45.4922111],[-73.983446,45.4927742],[-73.9825614,45.4933716]]}";1;Rue André-Soucy;1;50;false;false;true;false;false;false;395.0;0;0;0;0;0;false;80213;6119527005;-73.982424;45.493351;80065;6119527340;-73.985293;45.495445;3;5;6;9396959;Bus 81 : TERMINUS/ ST-EUSTACHE;"";EXO;81 E;André-Soucy / 59e Avenue;Terminus Saint-Eustache
677666589;"{\"type\":\"LineString\",\"coordinates\":[[-73.9826919,45.4934638],[-73.9825614,45.4933716]]}";2;59e Avenue;1;50;false;false;true;false;false;false;15.0;0;0;0;0;0;false;80213;6119527005;-73.982424;45.493351;80065;6119527340;-73.985293;45.495445;0;5;6;9396959;Bus 81 : TERMINUS/ ST-EUSTACHE;"";EXO;81 E;André-Soucy / 59e Avenue;Terminus Saint-Eustache
677666590;"{\"type\":\"LineString\",\"coordinates\":[[-73.9887495,45.4978835],[-73.9854443,45.4954089],[-73.9826919,45.4934638]]}";3;59e Avenue;1;50;false;false;true;false;false;false;682.0;0;0;0;0;0;false;80213;6119527005;-73.982424;45.493351;80065;6119527340;-73.985293;45.495445;3;5;6;9396959;Bus 81 : TERMINUS/ ST-EUSTACHE;"";EXO;81 E;André-Soucy / 59e Avenue;Terminus Saint-Eustache
242287910;"{\"type\":\"LineString\",\"coordinates\":[[-73.9769883,45.5126178],[-73.9773771,45.5122985],[-73.977463,45.512228],[-73.9801912,45.5103117],[-73.9810705,45.5097151],[-73.9815063,45.5094116],[-73.9818776,45.5091529],[-73.9823606,45.5088139],[-73.9828085,45.5085045],[-73.983148,45.508268],[-73.9834248,45.508087],[-73.9862114,45.5061671],[-73.9869796,45.5056309],[-73.9877646,45.5050927],[-73.9884818,45.5045967],[-73.9904544,45.5032682],[-73.991048,45.50285],[-73.991625,45.502528],[-73.99224,45.502252],[-73.992868,45.502028],[-73.993527,45.501857],[-73.9940812,45.5017449]]}";1;Chemin d'Oka;2;50;false;false;false;false;false;false;906.5;1;0;0;0;0;false;80085;6119527320;-73.98021;45.510214;80086;6119527319;-73.97693;45.512622;1;14;15;9396959;Bus 81 : TERMINUS/ ST-EUSTACHE;"";EXO;81 E;André-Soucy / 59e Avenue;Terminus Saint-Eustache
676848389;"{\"type\":\"LineString\",\"coordinates\":[[-73.972758,45.5193232],[-73.9729408,45.5190601],[-73.9739725,45.5173767],[-73.9742158,45.5169799],[-73.9746914,45.5161915],[-73.9755825,45.5147424],[-73.9761201,45.5138739],[-73.9763532,45.5134927],[-73.9766289,45.5130636],[-73.9769883,45.5126178]]}";2;Chemin d'Oka;2;50;false;false;false;false;false;false;407.5;1;0;0;0;0;false;80085;6119527320;-73.98021;45.510214;80086;6119527319;-73.97693;45.512622;1;14;15;9396959;Bus 81 : TERMINUS/ ST-EUSTACHE;"";EXO;81 E;André-Soucy / 59e Avenue;Terminus Saint-Eustache
242287910;"{\"type\":\"LineString\",\"coordinates\":[[-73.9769883,45.5126178],[-73.9773771,45.5122985],[-73.977463,45.512228],[-73.9801912,45.5103117],[-73.9810705,45.5097151],[-73.9815063,45.5094116],[-73.9818776,45.5091529],[-73.9823606,45.5088139],[-73.9828085,45.5085045],[-73.983148,45.508268],[-73.9834248,45.508087],[-73.9862114,45.5061671],[-73.9869796,45.5056309],[-73.9877646,45.5050927],[-73.9884818,45.5045967],[-73.9904544,45.5032682],[-73.991048,45.50285],[-73.991625,45.502528],[-73.99224,45.502252],[-73.992868,45.502028],[-73.993527,45.501857],[-73.9940812,45.5017449]]}";1;Chemin d'Oka;2;50;false;false;false;false;false;false;1813.0;1;0;0;0;0;false;80086;6119527319;-73.97693;45.512622;80087;6119527318;-73.974163;45.516838;2;15;16;9396959;Bus 81 : TERMINUS/ ST-EUSTACHE;"";EXO;81 E;André-Soucy / 59e Avenue;Terminus Saint-Eustache
676848389;"{\"type\":\"LineString\",\"coordinates\":[[-73.972758,45.5193232],[-73.9729408,45.5190601],[-73.9739725,45.5173767],[-73.9742158,45.5169799],[-73.9746914,45.5161915],[-73.9755825,45.5147424],[-73.9761201,45.5138739],[-73.9763532,45.5134927],[-73.9766289,45.5130636],[-73.9769883,45.5126178]]}";2;Chemin d'Oka;2;50;false;false;false;false;false;false;815.0;1;0;0;0;0;false;80086;6119527319;-73.97693;45.512622;80087;6119527318;-73.974163;45.516838;2;15;16;9396959;Bus 81 : TERMINUS/ ST-EUSTACHE;"";EXO;81 E;André-Soucy / 59e Avenue;Terminus Saint-Eustache
676848389;"{\"type\":\"LineString\",\"coordinates\":[[-73.972758,45.5193232],[-73.9729408,45.5190601],[-73.9739725,45.5173767],[-73.9742158,45.5169799],[-73.9746914,45.5161915],[-73.9755825,45.5147424],[-73.9761201,45.5138739],[-73.9763532,45.5134927],[-73.9766289,45.5130636],[-73.9769883,45.5126178]]}";1;Chemin d'Oka;2;50;false;false;false;false;false;false;407.5;1;0;0;0;0;false;80088;6119527317;-73.972753;45.51913;80103;6119527302;-73.969659;45.521097;1;17;18;9396959;Bus 81 : TERMINUS/ ST-EUSTACHE;"";EXO;81 E;André-Soucy / 59e Avenue;Terminus Saint-Eustache
45518772;"{\"type\":\"LineString\",\"coordinates\":[[-73.9488314,45.5274352],[-73.949207,45.5273843],[-73.9493503,45.5273649],[-73.9497936,45.5273071],[-73.9512491,45.527117],[-73.9523456,45.5269747],[-73.9527227,45.5269133],[-73.9530287,45.5268612],[-73.9533071,45.5268116],[-73.9536662,45.5267427],[-73.9537484,45.5267269],[-73.9538576,45.5267041],[-73.9541995,45.5266328],[-73.9543046,45.5266108],[-73.9543383,45.5266038],[-73.9545621,45.526555],[-73.9547548,45.526513],[-73.9549591,45.5264685],[-73.955422,45.5263646],[-73.9555738,45.5263321],[-73.9557511,45.5262945],[-73.9558665,45.5262693],[-73.9559108,45.5262597],[-73.9561354,45.5262076],[-73.9565457,45.52611],[-73.9565707,45.5261041],[-73.9567741,45.5260517],[-73.9568838,45.5260234],[-73.9571381,45.5259477],[-73.9574008,45.5258584],[-73.9575531,45.5258066],[-73.957637,45.5257731],[-73.9577259,45.5257377],[-73.9580522,45.5256013],[-73.9583866,45.525435],[-73.9585357,45.525358],[-73.9587542,45.5252439],[-73.9589868,45.5251225],[-73.9590899,45.5250687],[-73.9592076,45.5250072],[-73.959349,45.5249334],[-73.9593747,45.52492],[-73.9594797,45.5248652],[-73.9597381,45.5247303],[-73.9598829,45.5246547],[-73.960079,45.5245465],[-73.960722,45.5242122],[-73.9612693,45.5239413],[-73.9618166,45.5237289],[-73.9623278,45.523562],[-73.962763,45.52342],[-73.9632719,45.523257],[-73.9637033,45.5231157],[-73.964658,45.5228029],[-73.9652434,45.5226111],[-73.9659541,45.5223976],[-73.9676347,45.5218457],[-73.9686248,45.5215285],[-73.9690517,45.5213924],[-73.9698223,45.5211468],[-73.9699213,45.5211135],[-73.970213,45.52101],[-73.970968,45.520723],[-73.9712801,45.5205619],[-73.971652,45.52037],[-73.9721716,45.5199605],[-73.9724924,45.5196407],[-73.972758,45.5193232]]}";2;Chemin d'Oka;1;50;false;false;false;false;false;false;1056.5;0;0;0;0;0;false;80088;6119527317;-73.972753;45.51913;80103;6119527302;-73.969659;45.521097;1;17;18;9396959;Bus 81 : TERMINUS/ ST-EUSTACHE;"";EXO;81 E;André-Soucy / 59e Avenue;Terminus Saint-Eustache
45518772;"{\"type\":\"LineString\",\"coordinates\":[[-73.9488314,45.5274352],[-73.949207,45.5273843],[-73.9493503,45.5273649],[-73.9497936,45.5273071],[-73.9512491,45.527117],[-73.9523456,45.5269747],[-73.9527227,45.5269133],[-73.9530287,45.5268612],[-73.9533071,45.5268116],[-73.9536662,45.5267427],[-73.9537484,45.5267269],[-73.9538576,45.5267041],[-73.9541995,45.5266328],[-73.9543046,45.5266108],[-73.9543383,45.5266038],[-73.9545621,45.526555],[-73.9547548,45.526513],[-73.9549591,45.5264685],[-73.955422,45.5263646],[-73.9555738,45.5263321],[-73.9557511,45.5262945],[-73.9558665,45.5262693],[-73.9559108,45.5262597],[-73.9561354,45.5262076],[-73.9565457,45.52611],[-73.9565707,45.5261041],[-73.9567741,45.5260517],[-73.9568838,45.5260234],[-73.9571381,45.5259477],[-73.9574008,45.5258584],[-73.9575531,45.5258066],[-73.957637,45.5257731],[-73.9577259,45.5257377],[-73.9580522,45.5256013],[-73.9583866,45.525435],[-73.9585357,45.525358],[-73.9587542,45.5252439],[-73.9589868,45.5251225],[-73.9590899,45.5250687],[-73.9592076,45.5250072],[-73.959349,45.5249334],[-73.9593747,45.52492],[-73.9594797,45.5248652],[-73.9597381,45.5247303],[-73.9598829,45.5246547],[-73.960079,45.5245465],[-73.960722,45.5242122],[-73.9612693,45.5239413],[-73.9618166,45.5237289],[-73.9623278,45.523562],[-73.962763,45.52342],[-73.9632719,45.523257],[-73.9637033,45.5231157],[-73.964658,45.5228029],[-73.9652434,45.5226111],[-73.9659541,45.5223976],[-73.9676347,45.5218457],[-73.9686248,45.5215285],[-73.9690517,45.5213924],[-73.9698223,45.5211468],[-73.9699213,45.5211135],[-73.970213,45.52101],[-73.970968,45.520723],[-73.9712801,45.5205619],[-73.971652,45.52037],[-73.9721716,45.5199605],[-73.9724924,45.5196407],[-73.972758,45.5193232]]}";1;Chemin d'Oka;1;50;false;false;false;false;false;false;1056.5;0;0;0;0;0;false;80106;6119527299;-73.949872;45.527243;80107;6119527298;-73.947648;45.527539;1;26;27;9396959;Bus 81 : TERMINUS/ ST-EUSTACHE;"";EXO;81 E;André-Soucy / 59e Avenue;Terminus Saint-Eustache
677256829;"{\"type\":\"LineString\",\"coordinates\":[[-73.9487163,45.5274508],[-73.9488314,45.5274352]]}";2;Chemin d'Oka;1;50;false;false;false;false;false;false;10.0;0;0;0;0;0;false;80106;6119527299;-73.949872;45.527243;80107;6119527298;-73.947648;45.527539;0;26;27;9396959;Bus 81 : TERMINUS/ ST-EUSTACHE;"";EXO;81 E;André-Soucy / 59e Avenue;Terminus Saint-Eustache
677256831;"{\"type\":\"LineString\",\"coordinates\":[[-73.9485898,45.5274679],[-73.9487163,45.5274508]]}";3;Chemin d'Oka;1;50;false;false;false;false;false;false;11.0;0;0;0;0;0;false;80106;6119527299;-73.949872;45.527243;80107;6119527298;-73.947648;45.527539;0;26;27;9396959;Bus 81 : TERMINUS/ ST-EUSTACHE;"";EXO;81 E;André-Soucy / 59e Avenue;Terminus Saint-Eustache
677256832;"{\"type\":\"LineString\",\"coordinates\":[[-73.9329435,45.5292056],[-73.9331256,45.5291866],[-73.9346655,45.5290265],[-73.935719,45.528917],[-73.9367892,45.5288187],[-73.9378627,45.5286895],[-73.93826,45.5286556],[-73.9390371,45.528577],[-73.9396228,45.5285178],[-73.9401893,45.5284605],[-73.9403831,45.5284407],[-73.9408795,45.5283901],[-73.9413893,45.5283381],[-73.9417165,45.5283061],[-73.9425368,45.5282256],[-73.9437107,45.5280975],[-73.9442422,45.5280377],[-73.9443826,45.5280207],[-73.9445864,45.5279932],[-73.9447018,45.5279783],[-73.9451511,45.5279203],[-73.9460178,45.5278084],[-73.9463746,45.5277642],[-73.9470159,45.5276788],[-73.9475924,45.5276001],[-73.9480237,45.5275456],[-73.9485898,45.5274679]]}";4;Chemin d'Oka;1;50;false;false;false;false;false;false;618.5;1;0;0;0;0;false;80106;6119527299;-73.949872;45.527243;80107;6119527298;-73.947648;45.527539;1;26;27;9396959;Bus 81 : TERMINUS/ ST-EUSTACHE;"";EXO;81 E;André-Soucy / 59e Avenue;Terminus Saint-Eustache
677256832;"{\"type\":\"LineString\",\"coordinates\":[[-73.9329435,45.5292056],[-73.9331256,45.5291866],[-73.9346655,45.5290265],[-73.935719,45.528917],[-73.9367892,45.5288187],[-73.9378627,45.5286895],[-73.93826,45.5286556],[-73.9390371,45.528577],[-73.9396228,45.5285178],[-73.9401893,45.5284605],[-73.9403831,45.5284407],[-73.9408795,45.5283901],[-73.9413893,45.5283381],[-73.9417165,45.5283061],[-73.9425368,45.5282256],[-73.9437107,45.5280975],[-73.9442422,45.5280377],[-73.9443826,45.5280207],[-73.9445864,45.5279932],[-73.9447018,45.5279783],[-73.9451511,45.5279203],[-73.9460178,45.5278084],[-73.9463746,45.5277642],[-73.9470159,45.5276788],[-73.9475924,45.5276001],[-73.9480237,45.5275456],[-73.9485898,45.5274679]]}";1;Chemin d'Oka;1;50;false;false;false;false;false;false;618.5;1;0;0;0;0;false;80266;6119526777;-73.933176;45.529129;80150;6119527062;-73.9332742;45.5306942;1;32;33;9396959;Bus 81 : TERMINUS/ ST-EUSTACHE;"";EXO;81 E;André-Soucy / 59e Avenue;Terminus Saint-Eustache
130695970;"{\"type\":\"LineString\",\"coordinates\":[[-73.9329435,45.5292056],[-73.9329872,45.5293476],[-73.9331707,45.5299491],[-73.933227,45.5301751]]}";2;Boulevard des Promenades;1;50;false;false;true;false;false;false;110.0;1;0;0;0;0;false;80266;6119526777;-73.933176;45.529129;80150;6119527062;-73.9332742;45.5306942;0;32;33;9396959;Bus 81 : TERMINUS/ ST-EUSTACHE;"";EXO;81 E;André-Soucy / 59e Avenue;Terminus Saint-Eustache
777810527;"{\"type\":\"LineString\",\"coordinates\":[[-73.933227,45.5301751],[-73.9333664,45.5307348],[-73.9333261,45.5309749],[-73.9332411,45.5312732],[-73.933094,45.5315506],[-73.9329506,45.5317504],[-73.9327767,45.5319206],[-73.9321074,45.5324867],[-73.9317644,45.532765],[-73.931709,45.5328099],[-73.9315427,45.5329449],[-73.9313998,45.5330608],[-73.9309973,45.5334061],[-73.9307501,45.5336118],[-73.9302878,45.5339943],[-73.9301648,45.5340966],[-73.9298893,45.5343325],[-73.9296729,45.5345016],[-73.929211,45.5348626],[-73.9282901,45.5355794],[-73.9281041,45.535734],[-73.9277337,45.5360418],[-73.9274805,45.5362566],[-73.9263788,45.5372032],[-73.9260703,45.5374682],[-73.925845,45.5376618],[-73.9253727,45.5380676]]}";3;Boulevard des Promenades;1;50;false;false;false;false;false;false;550.0;0;0;0;0;0;false;80266;6119526777;-73.933176;45.529129;80150;6119527062;-73.9332742;45.5306942;1;32;33;9396959;Bus 81 : TERMINUS/ ST-EUSTACHE;"";EXO;81 E;André-Soucy / 59e Avenue;Terminus Saint-Eustache
777810527;"{\"type\":\"LineString\",\"coordinates\":[[-73.933227,45.5301751],[-73.9333664,45.5307348],[-73.9333261,45.5309749],[-73.9332411,45.5312732],[-73.933094,45.5315506],[-73.9329506,45.5317504],[-73.9327767,45.5319206],[-73.9321074,45.5324867],[-73.9317644,45.532765],[-73.931709,45.5328099],[-73.9315427,45.5329449],[-73.9313998,45.5330608],[-73.9309973,45.5334061],[-73.9307501,45.5336118],[-73.9302878,45.5339943],[-73.9301648,45.5340966],[-73.9298893,45.5343325],[-73.9296729,45.5345016],[-73.929211,45.5348626],[-73.9282901,45.5355794],[-73.9281041,45.535734],[-73.9277337,45.5360418],[-73.9274805,45.5362566],[-73.9263788,45.5372032],[-73.9260703,45.5374682],[-73.925845,45.5376618],[-73.9253727,45.5380676]]}";1;Boulevard des Promenades;1;50;false;false;false;false;false;false;550.0;0;0;0;0;0;false;80152;6119527060;-73.928324;45.535503;80153;6119527059;-73.925262;45.537982;1;36;37;9396959;Bus 81 : TERMINUS/ ST-EUSTACHE;"";EXO;81 E;André-Soucy / 59e Avenue;Terminus Saint-Eustache
45584352;"{\"type\":\"LineString\",\"coordinates\":[[-73.9253727,45.5380676],[-73.9251338,45.5381796],[-73.9249522,45.5383292],[-73.9246711,45.5385607],[-73.9242557,45.5389028],[-73.923536,45.5394951],[-73.9223769,45.5404502]]}";2;Boulevard des Promenades;2;50;false;true;true;false;false;false;177.0;0;0;0;0;0;false;80152;6119527060;-73.928324;45.535503;80153;6119527059;-73.925262;45.537982;1;36;37;9396959;Bus 81 : TERMINUS/ ST-EUSTACHE;"";EXO;81 E;André-Soucy / 59e Avenue;Terminus Saint-Eustache
777810527;"{\"type\":\"LineString\",\"coordinates\":[[-73.933227,45.5301751],[-73.9333664,45.5307348],[-73.9333261,45.5309749],[-73.9332411,45.5312732],[-73.933094,45.5315506],[-73.9329506,45.5317504],[-73.9327767,45.5319206],[-73.9321074,45.5324867],[-73.9317644,45.532765],[-73.931709,45.5328099],[-73.9315427,45.5329449],[-73.9313998,45.5330608],[-73.9309973,45.5334061],[-73.9307501,45.5336118],[-73.9302878,45.5339943],[-73.9301648,45.5340966],[-73.9298893,45.5343325],[-73.9296729,45.5345016],[-73.929211,45.5348626],[-73.9282901,45.5355794],[-73.9281041,45.535734],[-73.9277337,45.5360418],[-73.9274805,45.5362566],[-73.9263788,45.5372032],[-73.9260703,45.5374682],[-73.925845,45.5376618],[-73.9253727,45.5380676]]}";1;Boulevard des Promenades;1;50;false;false;false;false;false;false;1100.0;0;0;0;0;0;false;80153;6119527059;-73.925262;45.537982;80154;6119527058;-73.923558;45.539384;2;37;38;9396959;Bus 81 : TERMINUS/ ST-EUSTACHE;"";EXO;81 E;André-Soucy / 59e Avenue;Terminus Saint-Eustache
45584352;"{\"type\":\"LineString\",\"coordinates\":[[-73.9253727,45.5380676],[-73.9251338,45.5381796],[-73.9249522,45.5383292],[-73.9246711,45.5385607],[-73.9242557,45.5389028],[-73.923536,45.5394951],[-73.9223769,45.5404502]]}";2;Boulevard des Promenades;2;50;false;true;true;false;false;false;354.0;0;0;0;0;0;false;80153;6119527059;-73.925262;45.537982;80154;6119527058;-73.923558;45.539384;2;37;38;9396959;Bus 81 : TERMINUS/ ST-EUSTACHE;"";EXO;81 E;André-Soucy / 59e Avenue;Terminus Saint-Eustache
45584352;"{\"type\":\"LineString\",\"coordinates\":[[-73.9253727,45.5380676],[-73.9251338,45.5381796],[-73.9249522,45.5383292],[-73.9246711,45.5385607],[-73.9242557,45.5389028],[-73.923536,45.5394951],[-73.9223769,45.5404502]]}";1;Boulevard des Promenades;2;50;false;true;true;false;false;false;177.0;0;0;0;0;0;false;80154;6119527058;-73.923558;45.539384;80199;6119527017;-73.921278;45.541237;1;38;39;9396959;Bus 81 : TERMINUS/ ST-EUSTACHE;"";EXO;81 E;André-Soucy / 59e Avenue;Terminus Saint-Eustache
45584338;"{\"type\":\"LineString\",\"coordinates\":[[-73.9223769,45.5404502],[-73.9213084,45.5413029]]}";2;Boulevard des Promenades;2;50;false;true;true;false;false;false;63.5;1;0;0;0;0;false;80154;6119527058;-73.923558;45.539384;80199;6119527017;-73.921278;45.541237;1;38;39;9396959;Bus 81 : TERMINUS/ ST-EUSTACHE;"";EXO;81 E;André-Soucy / 59e Avenue;Terminus Saint-Eustache
45584310;"{\"type\":\"LineString\",\"coordinates\":[[-73.9213084,45.5413029],[-73.9211166,45.5414518],[-73.9208622,45.5416493],[-73.9208273,45.5416764],[-73.9206707,45.5418279]]}";1;Boulevard des Promenades;2;50;false;true;true;false;false;false;77.0;1;0;0;0;0;false;80199;6119527017;-73.921278;45.541237;80216;6119527002;-73.920271;45.542166;2;39;40;9396959;Bus 81 : TERMINUS/ ST-EUSTACHE;"";EXO;81 E;André-Soucy / 59e Avenue;Terminus Saint-Eustache
45584313;"{\"type\":\"LineString\",\"coordinates\":[[-73.9206707,45.5418279],[-73.9204546,45.5421047],[-73.9203528,45.5423174],[-73.9201999,45.5426869],[-73.9201333,45.5429923],[-73.9200731,45.5432682],[-73.920064,45.5433555]]}";2;Boulevard des Promenades;2;50;false;true;true;false;false;false;178.0;0;0;0;0;0;false;80199;6119527017;-73.921278;45.541237;80216;6119527002;-73.920271;45.542166;2;39;40;9396959;Bus 81 : TERMINUS/ ST-EUSTACHE;"";EXO;81 E;André-Soucy / 59e Avenue;Terminus Saint-Eustache
45584313;"{\"type\":\"LineString\",\"coordinates\":[[-73.9206707,45.5418279],[-73.9204546,45.5421047],[-73.9203528,45.5423174],[-73.9201999,45.5426869],[-73.9201333,45.5429923],[-73.9200731,45.5432682],[-73.920064,45.5433555]]}";1;Boulevard des Promenades;2;50;false;true;true;false;false;false;89.0;0;0;0;0;0;false;80216;6119527002;-73.920271;45.542166;81120;6119525990;-73.917895;45.543315;1;40;41;9396959;Bus 81 : TERMINUS/ ST-EUSTACHE;"";EXO;81 E;André-Soucy / 59e Avenue;Terminus Saint-Eustache
30620682;"{\"type\":\"LineString\",\"coordinates\":[[-73.920064,45.5433555],[-73.9189793,45.5433788],[-73.918522,45.5433873],[-73.9181215,45.5433817],[-73.9177264,45.5433367],[-73.9174934,45.5433005],[-73.9155993,45.5429003],[-73.915351,45.5428493],[-73.9144005,45.542654],[-73.9134132,45.5424511],[-73.913115,45.5423898],[-73.9127239,45.5422938]]}";2;20e Avenue;1;50;false;true;true;false;false;false;295.5;1;0;0;0;0;false;80216;6119527002;-73.920271;45.542166;81120;6119525990;-73.917895;45.543315;1;40;41;9396959;Bus 81 : TERMINUS/ ST-EUSTACHE;"";EXO;81 E;André-Soucy / 59e Avenue;Terminus Saint-Eustache
30620682;"{\"type\":\"LineString\",\"coordinates\":[[-73.920064,45.5433555],[-73.9189793,45.5433788],[-73.918522,45.5433873],[-73.9181215,45.5433817],[-73.9177264,45.5433367],[-73.9174934,45.5433005],[-73.9155993,45.5429003],[-73.915351,45.5428493],[-73.9144005,45.542654],[-73.9134132,45.5424511],[-73.913115,45.5423898],[-73.9127239,45.5422938]]}";1;20e Avenue;1;50;false;true;true;false;false;false;295.5;1;0;0;0;0;false;81121;6119525989;-73.915592;45.542855;80200;6119527016;-73.912131;45.542691;1;42;43;9396959;Bus 81 : TERMINUS/ ST-EUSTACHE;"";EXO;81 E;André-Soucy / 59e Avenue;Terminus Saint-Eustache
677657131;"{\"type\":\"LineString\",\"coordinates\":[[-73.9127239,45.5422938],[-73.9126632,45.5422719],[-73.9125639,45.542236]]}";2;20e Avenue;1;50;false;true;true;false;false;false;15.0;0;0;0;0;0;false;81121;6119525989;-73.915592;45.542855;80200;6119527016;-73.912131;45.542691;0;42;43;9396959;Bus 81 : TERMINUS/ ST-EUSTACHE;"";EXO;81 E;André-Soucy / 59e Avenue;Terminus Saint-Eustache
677253530;"{\"type\":\"LineString\",\"coordinates\":[[-73.9125639,45.542236],[-73.9124828,45.5423411]]}";3;Boulevard de Deux-Montagnes;1;50;false;true;true;false;false;false;14.0;0;0;0;0;0;false;81121;6119525989;-73.915592;45.542855;80200;6119527016;-73.912131;45.542691;0;42;43;9396959;Bus 81 : TERMINUS/ ST-EUSTACHE;"";EXO;81 E;André-Soucy / 59e Avenue;Terminus Saint-Eustache
123954902;"{\"type\":\"LineString\",\"coordinates\":[[-73.9124828,45.5423411],[-73.9124123,45.5424344],[-73.9121541,45.5428364],[-73.9119478,45.5431627],[-73.9118508,45.54337],[-73.9117712,45.5436255],[-73.9117453,45.5437815],[-73.9117386,45.5439336],[-73.9117638,45.5443984],[-73.9117671,45.5444339],[-73.9117909,45.5446768],[-73.9117926,45.5447538]]}";4;Boulevard de Deux-Montagnes;1;50;false;true;true;false;false;false;140.0;0;1;0;0;0;false;81121;6119525989;-73.915592;45.542855;80200;6119527016;-73.912131;45.542691;1;42;43;9396959;Bus 81 : TERMINUS/ ST-EUSTACHE;"";EXO;81 E;André-Soucy / 59e Avenue;Terminus Saint-Eustache
676890375;"{\"type\":\"LineString\",\"coordinates\":[[-73.9117926,45.5447538],[-73.9118243,45.5452612]]}";1;Boulevard de Deux-Montagnes;1;50;false;true;true;false;false;false;57.0;0;0;0;0;0;false;80155;6119527057;-73.911716;45.544689;80028;6119527376;-73.911985;45.546597;2;44;45;9396959;Bus 81 : TERMINUS/ ST-EUSTACHE;"";EXO;81 E;André-Soucy / 59e Avenue;Terminus Saint-Eustache
676886068;"{\"type\":\"LineString\",\"coordinates\":[[-73.9118243,45.5452612],[-73.9118467,45.5455802],[-73.9118487,45.5456266],[-73.9118591,45.5457825],[-73.9118746,45.5460006],[-73.9120846,45.5466791]]}";2;Boulevard de Deux-Montagnes;1;50;false;true;true;false;false;false;160.0;0;0;0;0;0;false;80155;6119527057;-73.911716;45.544689;80028;6119527376;-73.911985;45.546597;2;44;45;9396959;Bus 81 : TERMINUS/ ST-EUSTACHE;"";EXO;81 E;André-Soucy / 59e Avenue;Terminus Saint-Eustache
131984202;"{\"type\":\"LineString\",\"coordinates\":[[-73.9120846,45.5466791],[-73.9121052,45.5467342],[-73.9123575,45.5474098],[-73.9128541,45.5487394],[-73.9132288,45.5497429],[-73.9135048,45.5505198],[-73.9137781,45.5512891],[-73.9140967,45.5520984],[-73.9143607,45.5528562],[-73.9146269,45.5535943],[-73.9150784,45.5548617],[-73.915141,45.5551059],[-73.9152453,45.5555843],[-73.9152638,45.5560127],[-73.9152637,45.5563793],[-73.9152357,45.5566548],[-73.9152204,45.5568081],[-73.9151197,45.5571914],[-73.9150423,45.5574095]]}";1;Boulevard de Deux-Montagnes;1;50;false;true;false;false;false;false;612.0;0;0;0;0;0;false;80030;6119527374;-73.915168;45.556676;81126;6119525986;-73.914556;45.558409;1;49;50;9396959;Bus 81 : TERMINUS/ ST-EUSTACHE;"";EXO;81 E;André-Soucy / 59e Avenue;Terminus Saint-Eustache
46704335;"{\"type\":\"LineString\",\"coordinates\":[[-73.9150423,45.5574095],[-73.9147657,45.5581408],[-73.9146093,45.5585215]]}";2;Boulevard de Deux-Montagnes;2;50;false;true;false;false;false;false;64.5;0;0;0;0;0;false;80030;6119527374;-73.915168;45.556676;81126;6119525986;-73.914556;45.558409;1;49;50;9396959;Bus 81 : TERMINUS/ ST-EUSTACHE;"";EXO;81 E;André-Soucy / 59e Avenue;Terminus Saint-Eustache
46277576;"{\"type\":\"LineString\",\"coordinates\":[[-73.8997283,45.5571414],[-73.9003349,45.5573595],[-73.9010421,45.5576707],[-73.9013362,45.5577785],[-73.9015106,45.5578199],[-73.9021549,45.5579524],[-73.9030883,45.5580514],[-73.9041891,45.558107],[-73.9051189,45.5580279],[-73.9055556,45.5579789],[-73.9070425,45.5576483],[-73.9083402,45.5574626],[-73.9091363,45.5573712],[-73.9094563,45.5573487],[-73.9097517,45.5573501],[-73.9101959,45.5574548],[-73.9103984,45.5575025],[-73.9106115,45.5575527],[-73.9110284,45.5576586],[-73.9132458,45.5582115],[-73.9146093,45.5585215]]}";1;Rue Boileau;2;50;false;false;false;false;false;false;607.5;0;0;0;0;0;false;81222;6119525728;-73.901099;45.557671;81228;6119525722;-73.899372;45.556958;1;54;55;9396959;Bus 81 : TERMINUS/ ST-EUSTACHE;"";EXO;81 E;André-Soucy / 59e Avenue;Terminus Saint-Eustache
46277634;"{\"type\":\"LineString\",\"coordinates\":[[-73.8991525,45.5569628],[-73.8997283,45.5571414]]}";2;Rue Boileau;1;50;false;false;false;false;false;false;25.0;0;0;0;0;0;false;81222;6119525728;-73.901099;45.557671;81228;6119525722;-73.899372;45.556958;1;54;55;9396959;Bus 81 : TERMINUS/ ST-EUSTACHE;"";EXO;81 E;André-Soucy / 59e Avenue;Terminus Saint-Eustache
46277638;"{\"type\":\"LineString\",\"coordinates\":[[-73.8991525,45.5569628],[-73.8994212,45.5573075]]}";1;Rue Féré;2;50;false;false;true;false;false;false;44.0;0;0;0;0;0;false;81228;6119525722;-73.899372;45.556958;81160;6119525759;-73.900536;45.558876;2;55;56;9396959;Bus 81 : TERMINUS/ ST-EUSTACHE;"";EXO;81 E;André-Soucy / 59e Avenue;Terminus Saint-Eustache
474608346;"{\"type\":\"LineString\",\"coordinates\":[[-73.8994212,45.5573075],[-73.8994389,45.5573298]]}";2;Rue Féré;2;50;false;false;true;false;false;false;3.0;0;0;0;0;0;false;81228;6119525722;-73.899372;45.556958;81160;6119525759;-73.900536;45.558876;0;55;56;9396959;Bus 81 : TERMINUS/ ST-EUSTACHE;"";EXO;81 E;André-Soucy / 59e Avenue;Terminus Saint-Eustache
147991062;"{\"type\":\"LineString\",\"coordinates\":[[-73.8994389,45.5573298],[-73.899638,45.5576027]]}";3;Rue Féré;2;50;false;false;true;false;false;false;35.0;0;0;0;0;0;false;81228;6119525722;-73.899372;45.556958;81160;6119525759;-73.900536;45.558876;0;55;56;9396959;Bus 81 : TERMINUS/ ST-EUSTACHE;"";EXO;81 E;André-Soucy / 59e Avenue;Terminus Saint-Eustache
677253518;"{\"type\":\"LineString\",\"coordinates\":[[-73.899638,45.5576027],[-73.9003849,45.5586018],[-73.9007748,45.5589989]]}";4;Rue Féré;2;50;false;false;true;false;false;false;179.0;1;0;0;0;0;false;81228;6119525722;-73.899372;45.556958;81160;6119525759;-73.900536;45.558876;2;55;56;9396959;Bus 81 : TERMINUS/ ST-EUSTACHE;"";EXO;81 E;André-Soucy / 59e Avenue;Terminus Saint-Eustache
677253518;"{\"type\":\"LineString\",\"coordinates\":[[-73.899638,45.5576027],[-73.9003849,45.5586018],[-73.9007748,45.5589989]]}";1;Rue Féré;2;50;false;false;true;false;false;false;89.5;1;0;0;0;0;false;81160;6119525759;-73.900536;45.558876;81161;6119525758;-73.901414;45.561186;1;56;57;9396959;Bus 81 : TERMINUS/ ST-EUSTACHE;"";EXO;81 E;André-Soucy / 59e Avenue;Terminus Saint-Eustache
46277642;"{\"type\":\"LineString\",\"coordinates\":[[-73.9007748,45.5589989],[-73.9018556,45.5601076],[-73.9018932,45.5601674],[-73.901918,45.5602398],[-73.9019099,45.5603254],[-73.9018789,45.5604271],[-73.9016203,45.5609272],[-73.9014061,45.5613128]]}";2;Rue Féré;2;50;false;false;true;false;false;false;145.5;2;0;0;0;0;false;81160;6119525759;-73.900536;45.558876;81161;6119525758;-73.901414;45.561186;1;56;57;9396959;Bus 81 : TERMINUS/ ST-EUSTACHE;"";EXO;81 E;André-Soucy / 59e Avenue;Terminus Saint-Eustache
677253517;"{\"type\":\"LineString\",\"coordinates\":[[-73.8986809,45.5608756],[-73.8982312,45.5609342]]}";1;Boulevard Arthur-Sauvé;1;50;false;true;true;false;false;false;36.0;1;0;0;0;0;false;81162;6119525757;-73.898798;45.560811;81163;6119525756;-73.895763;45.561281;2;58;59;9396959;Bus 81 : TERMINUS/ ST-EUSTACHE;"";EXO;81 E;André-Soucy / 59e Avenue;Terminus Saint-Eustache
677250675;"{\"type\":\"LineString\",\"coordinates\":[[-73.8982312,45.5609342],[-73.8979925,45.5609652],[-73.89748,45.5610544],[-73.896483,45.5612224],[-73.8962587,45.5612529],[-73.8956287,45.5613385],[-73.8948514,45.5614658],[-73.8940975,45.5615893]]}";2;Boulevard Arthur-Sauvé;1;50;false;true;true;false;false;false;331.0;2;0;0;0;0;false;81162;6119525757;-73.898798;45.560811;81163;6119525756;-73.895763;45.561281;2;58;59;9396959;Bus 81 : TERMINUS/ ST-EUSTACHE;"";EXO;81 E;André-Soucy / 59e Avenue;Terminus Saint-Eustache
677250675;"{\"type\":\"LineString\",\"coordinates\":[[-73.8982312,45.5609342],[-73.8979925,45.5609652],[-73.89748,45.5610544],[-73.896483,45.5612224],[-73.8962587,45.5612529],[-73.8956287,45.5613385],[-73.8948514,45.5614658],[-73.8940975,45.5615893]]}";1;Boulevard Arthur-Sauvé;1;50;false;true;true;false;false;false;165.5;2;0;0;0;0;false;81163;6119525756;-73.895763;45.561281;81000;6119526196;-73.892828;45.561425;1;59;60;9396959;Bus 81 : TERMINUS/ ST-EUSTACHE;"";EXO;81 E;André-Soucy / 59e Avenue;Terminus Saint-Eustache
676848395;"{\"type\":\"LineString\",\"coordinates\":[[-73.8940975,45.5615893],[-73.8941016,45.5613774],[-73.8940785,45.5612464],[-73.8940342,45.5611575],[-73.8939193,45.5610459],[-73.8937986,45.5609543]]}";2;Rue Dorion;1;50;false;false;true;false;false;false;78.0;1;0;0;0;0;false;81163;6119525756;-73.895763;45.561281;81000;6119526196;-73.892828;45.561425;0;59;60;9396959;Bus 81 : TERMINUS/ ST-EUSTACHE;"";EXO;81 E;André-Soucy / 59e Avenue;Terminus Saint-Eustache
138428141;"{\"type\":\"LineString\",\"coordinates\":[[-73.8937986,45.5609543],[-73.8936234,45.560945],[-73.8935657,45.560978],[-73.8935027,45.5610387],[-73.8934764,45.5611104],[-73.8934449,45.5611912],[-73.8933793,45.5612519],[-73.893319,45.5612978],[-73.8932807,45.5613137]]}";3;"";1;50;false;false;true;false;true;false;65.0;0;0;0;0;0;false;81163;6119525756;-73.895763;45.561281;81000;6119526196;-73.892828;45.561425;0;59;60;9396959;Bus 81 : TERMINUS/ ST-EUSTACHE;"";EXO;81 E;André-Soucy / 59e Avenue;Terminus Saint-Eustache
676886050;"{\"type\":\"LineString\",\"coordinates\":[[-73.8932807,45.5613137],[-73.8931903,45.5613511],[-73.8930223,45.5613915],[-73.8928026,45.5614415]]}";4;"";1;50;false;false;true;false;true;false;41.0;0;1;0;0;0;false;81163;6119525756;-73.895763;45.561281;81000;6119526196;-73.892828;45.561425;1;59;60;9396959;Bus 81 : TERMINUS/ ST-EUSTACHE;"";EXO;81 E;André-Soucy / 59e Avenue;Terminus Saint-Eustache
