way_id;shape;index;name;nb_lanes;legal_speed;speed_zone_30;oneway;shares_bike;bike_box;bus_lane;dedicated_bus_lane;length;nb_traffic_signals;nb_crossings;nb_stops;nb_give_ways;nb_lvl_crossings;roundabout;stop_id_orig;node_id_orig;coord_x_orig;coord_y_orig;stop_id_dest;node_id_dest;coord_x_dest;coord_y_dest;nb_neighbouring_ways_bus_stop;ordre_orig;ordre_dest;id_line;line_name;colour;operator;ref;from;to
678900150;"{\"type\":\"LineString\",\"coordinates\":[[-73.6543098,45.6979415],[-73.654154,45.6979414],[-73.6533204,45.6979395],[-73.6532321,45.6979644],[-73.6531831,45.6979995],[-73.6531647,45.6980517],[-73.6531659,45.6981074]]}";1;BUS;1;50;false;true;true;false;true;false;103.0;0;1;0;0;0;false;84875;6129482927;-73.652978;45.698038;84946;6129482270;-73.656318;45.693582;1;0;1;9435488;Bus 5 : TERREBONNE / BOIS-DES-FILION;"";EXO;5;Terminus Terrebonne;Terminus Terrebonne
810230393;"{\"type\":\"LineString\",\"coordinates\":[[-73.6543117,45.6978821],[-73.6543098,45.6979415]]}";2;Côte de Terrebonne;2;50;false;true;true;false;false;false;7.0;0;0;0;0;0;false;84875;6129482927;-73.652978;45.698038;84946;6129482270;-73.656318;45.693582;0;0;1;9435488;Bus 5 : TERREBONNE / BOIS-DES-FILION;"";EXO;5;Terminus Terrebonne;Terminus Terrebonne
810230391;"{\"type\":\"LineString\",\"coordinates\":[[-73.6543514,45.6966434],[-73.6543117,45.6978821]]}";3;Côte de Terrebonne;2;50;false;true;true;false;false;false;138.0;0;0;0;0;0;false;84875;6129482927;-73.652978;45.698038;84946;6129482270;-73.656318;45.693582;0;0;1;9435488;Bus 5 : TERREBONNE / BOIS-DES-FILION;"";EXO;5;Terminus Terrebonne;Terminus Terrebonne
809961135;"{\"type\":\"LineString\",\"coordinates\":[[-73.6543554,45.6965207],[-73.6543514,45.6966434]]}";4;Côte de Terrebonne;2;50;false;true;true;false;false;false;14.0;0;0;0;0;0;false;84875;6129482927;-73.652978;45.698038;84946;6129482270;-73.656318;45.693582;0;0;1;9435488;Bus 5 : TERREBONNE / BOIS-DES-FILION;"";EXO;5;Terminus Terrebonne;Terminus Terrebonne
809959187;"{\"type\":\"LineString\",\"coordinates\":[[-73.6543584,45.696421],[-73.6543554,45.6965207]]}";5;Côte de Terrebonne;2;50;false;true;true;false;false;false;12.0;0;0;0;0;0;false;84875;6129482927;-73.652978;45.698038;84946;6129482270;-73.656318;45.693582;0;0;1;9435488;Bus 5 : TERREBONNE / BOIS-DES-FILION;"";EXO;5;Terminus Terrebonne;Terminus Terrebonne
678900148;"{\"type\":\"LineString\",\"coordinates\":[[-73.65459,45.6947078],[-73.6544354,45.6949813],[-73.6543989,45.6951651],[-73.6543736,45.6959105],[-73.6543584,45.696421]]}";6;Côte de Terrebonne;2;50;false;true;true;false;false;false;193.0;0;0;0;0;0;false;84875;6129482927;-73.652978;45.698038;84946;6129482270;-73.656318;45.693582;0;0;1;9435488;Bus 5 : TERREBONNE / BOIS-DES-FILION;"";EXO;5;Terminus Terrebonne;Terminus Terrebonne
499900074;"{\"type\":\"LineString\",\"coordinates\":[[-73.6841981,45.6949092],[-73.6836688,45.6948424],[-73.6818023,45.6948081],[-73.6810413,45.6947941],[-73.6807584,45.6947889],[-73.6801145,45.6946544],[-73.679544,45.6945368],[-73.6789911,45.694478],[-73.6785673,45.6944498],[-73.6777387,45.6944147],[-73.6774671,45.6944032],[-73.6771797,45.694391],[-73.6770934,45.6943873],[-73.675879,45.6943383],[-73.6756103,45.6943274],[-73.6740496,45.6942644],[-73.6737589,45.69426],[-73.6736555,45.6942585],[-73.6724242,45.6942554],[-73.6713894,45.6941675],[-73.6705238,45.6940934],[-73.6695489,45.694019],[-73.6684416,45.6938902],[-73.6677606,45.6937064],[-73.6672123,45.6935225],[-73.6660727,45.6930898],[-73.6653363,45.6928686],[-73.6648108,45.6927756],[-73.6631562,45.6925948],[-73.6625174,45.6925134],[-73.662401,45.6925004],[-73.6619258,45.6924476],[-73.6616987,45.6924223],[-73.6607987,45.6923862],[-73.6602588,45.6924014],[-73.6598074,45.6924251],[-73.6590701,45.6924952],[-73.658465,45.6925629],[-73.6581574,45.692614],[-73.6578202,45.6927006],[-73.6573414,45.6928776],[-73.6570822,45.6930018],[-73.656381,45.693445],[-73.6552403,45.6940671],[-73.6549224,45.6942918],[-73.6547632,45.6944334],[-73.6546754,45.6945477],[-73.6546363,45.6946195],[-73.65459,45.6947078]]}";7;Côte de Terrebonne;2;50;false;false;true;false;false;false;2437.0;0;0;1;0;0;false;84875;6129482927;-73.652978;45.698038;84946;6129482270;-73.656318;45.693582;2;0;1;9435488;Bus 5 : TERREBONNE / BOIS-DES-FILION;"";EXO;5;Terminus Terrebonne;Terminus Terrebonne
499900075;"{\"type\":\"LineString\",\"coordinates\":[[-73.6959507,45.6932594],[-73.6958543,45.6932723]]}";1;Côte de Terrebonne;1;50;false;false;true;false;false;false;8.0;0;0;1;0;0;false;84957;6129482265;-73.695806;45.69336;84099;6129484985;-73.703613;45.690395;2;10;11;9435488;Bus 5 : TERREBONNE / BOIS-DES-FILION;"";EXO;5;Terminus Terrebonne;Terminus Terrebonne
430817176;"{\"type\":\"LineString\",\"coordinates\":[[-73.7369865,45.6801048],[-73.735089,45.6805102],[-73.7344138,45.6806923],[-73.7325568,45.6811932],[-73.7302383,45.681941],[-73.7294292,45.6822357],[-73.7288199,45.6825417],[-73.7282634,45.6829012],[-73.7276905,45.6833917],[-73.7273473,45.6836608],[-73.7269275,45.6838979],[-73.7266978,45.684003],[-73.7264392,45.6840829],[-73.7249196,45.6844404],[-73.724758,45.6844601],[-73.7245052,45.6844722],[-73.7235536,45.6843805],[-73.7182615,45.6843254],[-73.7174958,45.6843422],[-73.7174316,45.6843423],[-73.7165552,45.6843644],[-73.714816,45.6843805],[-73.7144246,45.6844056],[-73.7137367,45.6844307],[-73.7130931,45.6843931],[-73.7125674,45.684372],[-73.711578,45.6843968],[-73.7108848,45.6844723],[-73.7105372,45.6845601],[-73.7092571,45.6850574],[-73.708491,45.6853896],[-73.7082534,45.685535],[-73.7077146,45.685891],[-73.7068337,45.6870427],[-73.7065841,45.6874773],[-73.7065283,45.6876134],[-73.7064294,45.6880824],[-73.7063573,45.6886133],[-73.7062245,45.6889022],[-73.7058467,45.6893391],[-73.7054786,45.6896951],[-73.7052907,45.6898164],[-73.7051085,45.6898787],[-73.7041091,45.6900933],[-73.7037519,45.6902094],[-73.7036681,45.6902563],[-73.7035017,45.6903494],[-73.7028878,45.6908768],[-73.7016361,45.6918149],[-73.7011174,45.6923892],[-73.7008845,45.6925591],[-73.7002119,45.6929154],[-73.6998119,45.6930393],[-73.6993246,45.6930893],[-73.6983793,45.6931104],[-73.6977284,45.6931249],[-73.6959507,45.6932594]]}";2;Côte de Terrebonne;2;50;false;false;true;false;false;false;3821.0;0;0;1;0;0;false;84957;6129482265;-73.695806;45.69336;84099;6129484985;-73.703613;45.690395;2;10;11;9435488;Bus 5 : TERREBONNE / BOIS-DES-FILION;"";EXO;5;Terminus Terrebonne;Terminus Terrebonne
679593566;"{\"type\":\"LineString\",\"coordinates\":[[-73.7405213,45.678418],[-73.7392054,45.6791982],[-73.7388379,45.6793928],[-73.7385392,45.6795308],[-73.7378596,45.6798137],[-73.737645,45.6799084],[-73.7374839,45.6799671],[-73.7369865,45.6801048]]}";1;Côte de Terrebonne;2;50;false;false;true;false;false;false;167.5;0;0;0;0;0;false;84786;6129483600;-73.740371;45.678578;84852;6129482944;-73.743505;45.677145;1;23;24;9435488;Bus 5 : TERREBONNE / BOIS-DES-FILION;"";EXO;5;Terminus Terrebonne;Terminus Terrebonne
104530243;"{\"type\":\"LineString\",\"coordinates\":[[-73.7440476,45.6766846],[-73.7434599,45.6769873],[-73.7421128,45.6776534],[-73.7412821,45.6780379],[-73.7407732,45.6782872],[-73.7405213,45.678418]]}";2;Côte de Terrebonne;2;50;false;false;false;false;false;false;168.0;0;0;0;0;0;false;84786;6129483600;-73.740371;45.678578;84852;6129482944;-73.743505;45.677145;1;23;24;9435488;Bus 5 : TERREBONNE / BOIS-DES-FILION;"";EXO;5;Terminus Terrebonne;Terminus Terrebonne
104530242;"{\"type\":\"LineString\",\"coordinates\":[[-73.7501292,45.67343],[-73.7498188,45.6736269],[-73.7496517,45.6737328],[-73.7495432,45.6738016],[-73.7492286,45.6740025],[-73.7491808,45.674033]]}";1;Boulevard Adolphe-Chapleau;2;50;false;false;false;false;false;false;100.0;0;0;0;0;0;false;84970;6129482255;-73.749119;45.674174;84020;6129485058;-73.754899;45.670102;2;27;28;9435488;Bus 5 : TERREBONNE / BOIS-DES-FILION;"";EXO;5;Terminus Terrebonne;Terminus Terrebonne
135457795;"{\"type\":\"LineString\",\"coordinates\":[[-73.7583516,45.6664649],[-73.7579637,45.666819],[-73.7577684,45.6669972],[-73.7572579,45.6674477],[-73.7566786,45.6679732],[-73.7559467,45.6686943],[-73.7554041,45.6691914],[-73.7552876,45.6693225],[-73.7548943,45.6699407],[-73.7544956,45.6706148],[-73.7544176,45.670742],[-73.7542929,45.6709506],[-73.7539362,45.6714833],[-73.7537696,45.671718],[-73.753609,45.6718802],[-73.7533971,45.6720067],[-73.7531632,45.672095],[-73.7528545,45.6722143],[-73.7523737,45.6723718],[-73.7520119,45.6724875],[-73.7513934,45.6727334],[-73.7513141,45.6727642],[-73.7512608,45.6727902],[-73.7502594,45.6733504],[-73.7501693,45.6734055],[-73.7501292,45.67343]]}";2;Boulevard Adolphe-Chapleau;2;50;false;false;true;false;false;false;1033.0;1;0;0;0;0;false;84970;6129482255;-73.749119;45.674174;84020;6129485058;-73.754899;45.670102;2;27;28;9435488;Bus 5 : TERREBONNE / BOIS-DES-FILION;"";EXO;5;Terminus Terrebonne;Terminus Terrebonne
32938517;"{\"type\":\"LineString\",\"coordinates\":[[-73.7583516,45.6664649],[-73.7587876,45.6660962],[-73.7589856,45.6659288],[-73.7591828,45.665762]]}";1;Boulevard Adolphe-Chapleau;1;50;false;true;true;false;false;false;102.0;0;0;0;0;0;false;84013;6129485065;-73.758332;45.666589;85521;6129481067;-73.768167;45.679735;3;30;31;9435488;Bus 5 : TERREBONNE / BOIS-DES-FILION;"";EXO;5;Terminus Terrebonne;Terminus Terrebonne
32640731;"{\"type\":\"LineString\",\"coordinates\":[[-73.7590709,45.6657027],[-73.7588911,45.6658932],[-73.7587361,45.6660575],[-73.7583516,45.6664649]]}";2;Boulevard Adolphe-Chapleau;1;50;false;true;true;false;false;false;102.0;0;0;0;0;0;false;84013;6129485065;-73.758332;45.666589;85521;6129481067;-73.768167;45.679735;0;30;31;9435488;Bus 5 : TERREBONNE / BOIS-DES-FILION;"";EXO;5;Terminus Terrebonne;Terminus Terrebonne
455285365;"{\"type\":\"LineString\",\"coordinates\":[[-73.759437,45.6653737],[-73.7590709,45.6657027]]}";3;Boulevard Adolphe-Chapleau;1;50;false;true;true;false;false;false;47.0;1;0;0;0;0;false;84013;6129485065;-73.758332;45.666589;85521;6129481067;-73.768167;45.679735;0;30;31;9435488;Bus 5 : TERREBONNE / BOIS-DES-FILION;"";EXO;5;Terminus Terrebonne;Terminus Terrebonne
455285364;"{\"type\":\"LineString\",\"coordinates\":[[-73.7595361,45.6652846],[-73.759437,45.6653737]]}";4;Grande-Côte;1;50;false;true;true;false;false;false;13.0;2;0;0;0;0;false;84013;6129485065;-73.758332;45.666589;85521;6129481067;-73.768167;45.679735;0;30;31;9435488;Bus 5 : TERREBONNE / BOIS-DES-FILION;"";EXO;5;Terminus Terrebonne;Terminus Terrebonne
455285366;"{\"type\":\"LineString\",\"coordinates\":[[-73.7598273,45.6650229],[-73.7595361,45.6652846]]}";5;Grande-Côte;1;50;false;true;true;false;false;false;37.0;1;0;0;0;0;false;84013;6129485065;-73.758332;45.666589;85521;6129481067;-73.768167;45.679735;0;30;31;9435488;Bus 5 : TERREBONNE / BOIS-DES-FILION;"";EXO;5;Terminus Terrebonne;Terminus Terrebonne
455285367;"{\"type\":\"LineString\",\"coordinates\":[[-73.7602989,45.6646385],[-73.7598273,45.6650229]]}";6;Grande-Côte;1;50;false;true;true;false;false;false;57.0;1;0;0;0;0;false;84013;6129485065;-73.758332;45.666589;85521;6129481067;-73.768167;45.679735;0;30;31;9435488;Bus 5 : TERREBONNE / BOIS-DES-FILION;"";EXO;5;Terminus Terrebonne;Terminus Terrebonne
486357824;"{\"type\":\"LineString\",\"coordinates\":[[-73.7611479,45.66513],[-73.7604404,45.664651],[-73.7602989,45.6646385]]}";7;Montée Gagnon;1;50;false;true;true;false;false;false;88.0;1;0;0;0;0;false;84013;6129485065;-73.758332;45.666589;85521;6129481067;-73.768167;45.679735;0;30;31;9435488;Bus 5 : TERREBONNE / BOIS-DES-FILION;"";EXO;5;Terminus Terrebonne;Terminus Terrebonne
676619311;"{\"type\":\"LineString\",\"coordinates\":[[-73.761841,45.6656134],[-73.7612278,45.6651858],[-73.7611479,45.66513]]}";8;Montée Gagnon;1;50;false;true;true;false;false;false;77.0;0;0;0;0;0;false;84013;6129485065;-73.758332;45.666589;85521;6129481067;-73.768167;45.679735;0;30;31;9435488;Bus 5 : TERREBONNE / BOIS-DES-FILION;"";EXO;5;Terminus Terrebonne;Terminus Terrebonne
676642401;"{\"type\":\"LineString\",\"coordinates\":[[-73.761841,45.6656134],[-73.7617144,45.665705]]}";9;Chemin du Souvenir;2;50;false;false;true;false;false;false;15.0;0;0;0;0;0;false;84013;6129485065;-73.758332;45.666589;85521;6129481067;-73.768167;45.679735;0;30;31;9435488;Bus 5 : TERREBONNE / BOIS-DES-FILION;"";EXO;5;Terminus Terrebonne;Terminus Terrebonne
46500486;"{\"type\":\"LineString\",\"coordinates\":[[-73.7617144,45.665705],[-73.7616185,45.6657744],[-73.7615316,45.6658373],[-73.7613515,45.6659676]]}";10;Chemin du Souvenir;2;50;false;false;true;false;false;false;41.0;0;0;0;0;0;false;84013;6129485065;-73.758332;45.666589;85521;6129481067;-73.768167;45.679735;0;30;31;9435488;Bus 5 : TERREBONNE / BOIS-DES-FILION;"";EXO;5;Terminus Terrebonne;Terminus Terrebonne
676642402;"{\"type\":\"LineString\",\"coordinates\":[[-73.7613515,45.6659676],[-73.7612391,45.6660489],[-73.7611709,45.6660982],[-73.7610996,45.6661498],[-73.7610361,45.6661958]]}";11;Chemin du Souvenir;2;50;false;false;true;false;false;false;36.0;0;0;0;0;0;false;84013;6129485065;-73.758332;45.666589;85521;6129481067;-73.768167;45.679735;0;30;31;9435488;Bus 5 : TERREBONNE / BOIS-DES-FILION;"";EXO;5;Terminus Terrebonne;Terminus Terrebonne
46500487;"{\"type\":\"LineString\",\"coordinates\":[[-73.7612004,45.666904],[-73.7610295,45.6665983],[-73.7609706,45.6665032],[-73.7609485,45.6664222],[-73.7609584,45.6663442],[-73.7610361,45.6661958]]}";12;"";1;50;false;true;false;false;false;false;84.0;0;0;0;0;0;false;84013;6129485065;-73.758332;45.666589;85521;6129481067;-73.768167;45.679735;0;30;31;9435488;Bus 5 : TERREBONNE / BOIS-DES-FILION;"";EXO;5;Terminus Terrebonne;Terminus Terrebonne
679579099;"{\"type\":\"LineString\",\"coordinates\":[[-73.7615044,45.6672959],[-73.7612004,45.666904]]}";13;Boulevard Louis-Joseph-Papineau;1;50;false;true;true;false;false;false;50.0;0;0;0;0;0;false;84013;6129485065;-73.758332;45.666589;85521;6129481067;-73.768167;45.679735;0;30;31;9435488;Bus 5 : TERREBONNE / BOIS-DES-FILION;"";EXO;5;Terminus Terrebonne;Terminus Terrebonne
135457793;"{\"type\":\"LineString\",\"coordinates\":[[-73.7615044,45.6672959],[-73.7624101,45.6684563],[-73.7626049,45.6687014],[-73.7628903,45.6690794]]}";14;Boulevard Louis-Joseph-Papineau;4;50;false;false;true;false;false;false;226.0;0;0;0;0;0;false;84013;6129485065;-73.758332;45.666589;85521;6129481067;-73.768167;45.679735;0;30;31;9435488;Bus 5 : TERREBONNE / BOIS-DES-FILION;"";EXO;5;Terminus Terrebonne;Terminus Terrebonne
476084950;"{\"type\":\"LineString\",\"coordinates\":[[-73.7628903,45.6690794],[-73.7633927,45.6697473]]}";15;Boulevard Louis-Joseph-Papineau;4;50;false;false;true;false;false;false;84.0;0;0;0;0;0;false;84013;6129485065;-73.758332;45.666589;85521;6129481067;-73.768167;45.679735;0;30;31;9435488;Bus 5 : TERREBONNE / BOIS-DES-FILION;"";EXO;5;Terminus Terrebonne;Terminus Terrebonne
455285351;"{\"type\":\"LineString\",\"coordinates\":[[-73.7633927,45.6697473],[-73.7639081,45.6704882]]}";16;Boulevard Louis-Joseph-Papineau;3;50;false;false;true;false;false;false;92.0;1;0;0;0;0;false;84013;6129485065;-73.758332;45.666589;85521;6129481067;-73.768167;45.679735;0;30;31;9435488;Bus 5 : TERREBONNE / BOIS-DES-FILION;"";EXO;5;Terminus Terrebonne;Terminus Terrebonne
205764078;"{\"type\":\"LineString\",\"coordinates\":[[-73.7639081,45.6704882],[-73.7641574,45.6708734],[-73.7645996,45.6714949],[-73.7649289,45.6719602]]}";17;Boulevard Louis-Joseph-Papineau;3;50;false;false;true;false;false;false;182.0;1;0;0;0;0;false;84013;6129485065;-73.758332;45.666589;85521;6129481067;-73.768167;45.679735;0;30;31;9435488;Bus 5 : TERREBONNE / BOIS-DES-FILION;"";EXO;5;Terminus Terrebonne;Terminus Terrebonne
44812992;"{\"type\":\"LineString\",\"coordinates\":[[-73.7649289,45.6719602],[-73.7655438,45.6728603]]}";18;Boulevard Louis-Joseph-Papineau;3;50;false;false;true;false;false;false;111.0;0;0;0;0;0;false;84013;6129485065;-73.758332;45.666589;85521;6129481067;-73.768167;45.679735;0;30;31;9435488;Bus 5 : TERREBONNE / BOIS-DES-FILION;"";EXO;5;Terminus Terrebonne;Terminus Terrebonne
455285352;"{\"type\":\"LineString\",\"coordinates\":[[-73.7655438,45.6728603],[-73.7657931,45.6732163]]}";19;Boulevard Louis-Joseph-Papineau;1;50;false;false;true;false;false;false;45.0;0;0;0;0;0;false;84013;6129485065;-73.758332;45.666589;85521;6129481067;-73.768167;45.679735;0;30;31;9435488;Bus 5 : TERREBONNE / BOIS-DES-FILION;"";EXO;5;Terminus Terrebonne;Terminus Terrebonne
455285349;"{\"type\":\"LineString\",\"coordinates\":[[-73.7657931,45.6732163],[-73.7664662,45.6742002]]}";20;Boulevard Louis-Joseph-Papineau;1;50;false;false;true;false;false;false;122.0;1;0;0;0;0;false;84013;6129485065;-73.758332;45.666589;85521;6129481067;-73.768167;45.679735;0;30;31;9435488;Bus 5 : TERREBONNE / BOIS-DES-FILION;"";EXO;5;Terminus Terrebonne;Terminus Terrebonne
476078332;"{\"type\":\"LineString\",\"coordinates\":[[-73.7664662,45.6742002],[-73.7667618,45.6746509],[-73.7673957,45.6756145]]}";21;Boulevard Louis-Joseph-Papineau;1;50;false;false;true;false;false;false;173.0;1;0;0;0;0;false;84013;6129485065;-73.758332;45.666589;85521;6129481067;-73.768167;45.679735;0;30;31;9435488;Bus 5 : TERREBONNE / BOIS-DES-FILION;"";EXO;5;Terminus Terrebonne;Terminus Terrebonne
500172823;"{\"type\":\"LineString\",\"coordinates\":[[-73.7673957,45.6756145],[-73.7681175,45.6766746],[-73.7691603,45.6781808],[-73.7696952,45.6788837],[-73.7700374,45.6793312],[-73.7700794,45.6793801]]}";22;Boulevard Louis-Joseph-Papineau;1;50;false;false;true;false;false;false;468.0;1;0;0;0;0;false;84013;6129485065;-73.758332;45.666589;85521;6129481067;-73.768167;45.679735;0;30;31;9435488;Bus 5 : TERREBONNE / BOIS-DES-FILION;"";EXO;5;Terminus Terrebonne;Terminus Terrebonne
46499970;"{\"type\":\"LineString\",\"coordinates\":[[-73.7700794,45.6793801],[-73.7698523,45.6794602],[-73.7691037,45.6797241],[-73.7683454,45.6799915],[-73.7679565,45.6801583],[-73.7678786,45.6802072],[-73.767618,45.6803707],[-73.76733,45.6806196],[-73.7670252,45.6810484],[-73.7669158,45.6813532],[-73.7668735,45.6815238],[-73.7667184,45.6827803],[-73.7666964,45.6829153]]}";23;Boulevard Industriel;2;50;false;false;true;false;false;false;521.0;1;0;0;0;0;false;84013;6129485065;-73.758332;45.666589;85521;6129481067;-73.768167;45.679735;3;30;31;9435488;Bus 5 : TERREBONNE / BOIS-DES-FILION;"";EXO;5;Terminus Terrebonne;Terminus Terrebonne
46499970;"{\"type\":\"LineString\",\"coordinates\":[[-73.7700794,45.6793801],[-73.7698523,45.6794602],[-73.7691037,45.6797241],[-73.7683454,45.6799915],[-73.7679565,45.6801583],[-73.7678786,45.6802072],[-73.767618,45.6803707],[-73.76733,45.6806196],[-73.7670252,45.6810484],[-73.7669158,45.6813532],[-73.7668735,45.6815238],[-73.7667184,45.6827803],[-73.7666964,45.6829153]]}";1;Boulevard Industriel;2;50;false;false;true;false;false;false;260.5;1;0;0;0;0;false;85493;6129481080;-73.766342;45.682517;85808;6129480780;-73.762024;45.682532;1;32;33;9435488;Bus 5 : TERREBONNE / BOIS-DES-FILION;"";EXO;5;Terminus Terrebonne;Terminus Terrebonne
46500332;"{\"type\":\"LineString\",\"coordinates\":[[-73.7666964,45.6829153],[-73.7638585,45.6827738],[-73.7615971,45.6826611]]}";2;Rue Henry-Bessemer;2;50;false;false;true;false;false;false;199.0;0;0;0;0;0;false;85493;6129481080;-73.766342;45.682517;85808;6129480780;-73.762024;45.682532;1;32;33;9435488;Bus 5 : TERREBONNE / BOIS-DES-FILION;"";EXO;5;Terminus Terrebonne;Terminus Terrebonne
46500332;"{\"type\":\"LineString\",\"coordinates\":[[-73.7666964,45.6829153],[-73.7638585,45.6827738],[-73.7615971,45.6826611]]}";1;Rue Henry-Bessemer;2;50;false;false;true;false;false;false;199.0;0;0;0;0;0;false;85808;6129480780;-73.762024;45.682532;85491;6129481082;-73.759675;45.689035;1;33;34;9435488;Bus 5 : TERREBONNE / BOIS-DES-FILION;"";EXO;5;Terminus Terrebonne;Terminus Terrebonne
194401473;"{\"type\":\"LineString\",\"coordinates\":[[-73.7615971,45.6826611],[-73.7612921,45.6853968],[-73.7611314,45.6862771],[-73.7610205,45.6866449],[-73.7609221,45.6870106],[-73.7606647,45.6875877],[-73.760257,45.6881948],[-73.7601261,45.6884496],[-73.7600242,45.6888262],[-73.7599886,45.6892859]]}";2;Rue Henry-Bessemer;2;50;false;false;true;false;false;false;376.0;0;0;0;0;0;false;85808;6129480780;-73.762024;45.682532;85491;6129481082;-73.759675;45.689035;1;33;34;9435488;Bus 5 : TERREBONNE / BOIS-DES-FILION;"";EXO;5;Terminus Terrebonne;Terminus Terrebonne
194401473;"{\"type\":\"LineString\",\"coordinates\":[[-73.7615971,45.6826611],[-73.7612921,45.6853968],[-73.7611314,45.6862771],[-73.7610205,45.6866449],[-73.7609221,45.6870106],[-73.7606647,45.6875877],[-73.760257,45.6881948],[-73.7601261,45.6884496],[-73.7600242,45.6888262],[-73.7599886,45.6892859]]}";1;Rue Henry-Bessemer;2;50;false;false;true;false;false;false;376.0;0;0;0;0;0;false;85491;6129481082;-73.759675;45.689035;85501;6129481074;-73.7669646;45.6894113;1;34;35;9435488;Bus 5 : TERREBONNE / BOIS-DES-FILION;"";EXO;5;Terminus Terrebonne;Terminus Terrebonne
243612799;"{\"type\":\"LineString\",\"coordinates\":[[-73.7629048,45.691455],[-73.7607376,45.6894539],[-73.7604694,45.6893565],[-73.7601475,45.689289],[-73.7599886,45.6892859]]}";2;Rue Del Friuli;1;50;false;false;true;false;false;false;342.0;0;0;0;0;0;false;85491;6129481082;-73.759675;45.689035;85501;6129481074;-73.7669646;45.6894113;0;34;35;9435488;Bus 5 : TERREBONNE / BOIS-DES-FILION;"";EXO;5;Terminus Terrebonne;Terminus Terrebonne
679579101;"{\"type\":\"LineString\",\"coordinates\":[[-73.7723676,45.6861171],[-73.7697498,45.6878426],[-73.7694816,45.6880299],[-73.7669524,45.6893471],[-73.7629048,45.691455]]}";3;Rue Fernand-Poitras;1;50;false;false;true;false;false;false;473.5;0;0;0;0;0;false;85491;6129481082;-73.759675;45.689035;85501;6129481074;-73.7669646;45.6894113;1;34;35;9435488;Bus 5 : TERREBONNE / BOIS-DES-FILION;"";EXO;5;Terminus Terrebonne;Terminus Terrebonne
679579101;"{\"type\":\"LineString\",\"coordinates\":[[-73.7723676,45.6861171],[-73.7697498,45.6878426],[-73.7694816,45.6880299],[-73.7669524,45.6893471],[-73.7629048,45.691455]]}";1;Rue Fernand-Poitras;1;50;false;false;true;false;false;false;473.5;0;0;0;0;0;false;85501;6129481074;-73.7669646;45.6894113;84018;6129485060;-73.772401;45.686132;1;35;36;9435488;Bus 5 : TERREBONNE / BOIS-DES-FILION;"";EXO;5;Terminus Terrebonne;Terminus Terrebonne
194401475;"{\"type\":\"LineString\",\"coordinates\":[[-73.7723676,45.6861171],[-73.7715523,45.6854891],[-73.7707063,45.6848484],[-73.7706081,45.6848071],[-73.7704789,45.6847808],[-73.7703614,45.6847846],[-73.7702498,45.6848033],[-73.7701323,45.6848522],[-73.7676684,45.6866958],[-73.7674324,45.6867483],[-73.7662834,45.6866876]]}";2;Rue Anderson;1;50;false;false;true;false;false;false;314.5;0;0;0;0;0;false;85501;6129481074;-73.7669646;45.6894113;84018;6129485060;-73.772401;45.686132;1;35;36;9435488;Bus 5 : TERREBONNE / BOIS-DES-FILION;"";EXO;5;Terminus Terrebonne;Terminus Terrebonne
679579101;"{\"type\":\"LineString\",\"coordinates\":[[-73.7723676,45.6861171],[-73.7697498,45.6878426],[-73.7694816,45.6880299],[-73.7669524,45.6893471],[-73.7629048,45.691455]]}";1;Rue Fernand-Poitras;1;50;false;false;true;false;false;false;947.0;0;0;0;0;0;false;84018;6129485060;-73.772401;45.686132;84056;6129485026;-73.766494;45.686108;2;36;37;9435488;Bus 5 : TERREBONNE / BOIS-DES-FILION;"";EXO;5;Terminus Terrebonne;Terminus Terrebonne
194401475;"{\"type\":\"LineString\",\"coordinates\":[[-73.7723676,45.6861171],[-73.7715523,45.6854891],[-73.7707063,45.6848484],[-73.7706081,45.6848071],[-73.7704789,45.6847808],[-73.7703614,45.6847846],[-73.7702498,45.6848033],[-73.7701323,45.6848522],[-73.7676684,45.6866958],[-73.7674324,45.6867483],[-73.7662834,45.6866876]]}";2;Rue Anderson;1;50;false;false;true;false;false;false;629.0;0;0;0;0;0;false;84018;6129485060;-73.772401;45.686132;84056;6129485026;-73.766494;45.686108;0;36;37;9435488;Bus 5 : TERREBONNE / BOIS-DES-FILION;"";EXO;5;Terminus Terrebonne;Terminus Terrebonne
679579100;"{\"type\":\"LineString\",\"coordinates\":[[-73.7666964,45.6829153],[-73.7666167,45.6837128],[-73.7662834,45.6866876]]}";3;Boulevard Industriel;2;50;false;false;true;false;false;false;421.0;0;0;0;0;0;false;84018;6129485060;-73.772401;45.686132;84056;6129485026;-73.766494;45.686108;2;36;37;9435488;Bus 5 : TERREBONNE / BOIS-DES-FILION;"";EXO;5;Terminus Terrebonne;Terminus Terrebonne
679579100;"{\"type\":\"LineString\",\"coordinates\":[[-73.7666964,45.6829153],[-73.7666167,45.6837128],[-73.7662834,45.6866876]]}";1;Boulevard Industriel;2;50;false;false;true;false;false;false;210.5;0;0;0;0;0;false;85492;6129481081;-73.767174;45.683196;85520;6129481068;-73.767742;45.680465;1;38;39;9435488;Bus 5 : TERREBONNE / BOIS-DES-FILION;"";EXO;5;Terminus Terrebonne;Terminus Terrebonne
46499970;"{\"type\":\"LineString\",\"coordinates\":[[-73.7700794,45.6793801],[-73.7698523,45.6794602],[-73.7691037,45.6797241],[-73.7683454,45.6799915],[-73.7679565,45.6801583],[-73.7678786,45.6802072],[-73.767618,45.6803707],[-73.76733,45.6806196],[-73.7670252,45.6810484],[-73.7669158,45.6813532],[-73.7668735,45.6815238],[-73.7667184,45.6827803],[-73.7666964,45.6829153]]}";2;Boulevard Industriel;2;50;false;false;true;false;false;false;260.5;1;0;0;0;0;false;85492;6129481081;-73.767174;45.683196;85520;6129481068;-73.767742;45.680465;1;38;39;9435488;Bus 5 : TERREBONNE / BOIS-DES-FILION;"";EXO;5;Terminus Terrebonne;Terminus Terrebonne
46499970;"{\"type\":\"LineString\",\"coordinates\":[[-73.7700794,45.6793801],[-73.7698523,45.6794602],[-73.7691037,45.6797241],[-73.7683454,45.6799915],[-73.7679565,45.6801583],[-73.7678786,45.6802072],[-73.767618,45.6803707],[-73.76733,45.6806196],[-73.7670252,45.6810484],[-73.7669158,45.6813532],[-73.7668735,45.6815238],[-73.7667184,45.6827803],[-73.7666964,45.6829153]]}";1;Boulevard Industriel;2;50;false;false;true;false;false;false;260.5;1;0;0;0;0;false;85520;6129481068;-73.767742;45.680465;84006;6129485072;-73.7620171;45.6659452;1;39;40;9435488;Bus 5 : TERREBONNE / BOIS-DES-FILION;"";EXO;5;Terminus Terrebonne;Terminus Terrebonne
500172823;"{\"type\":\"LineString\",\"coordinates\":[[-73.7673957,45.6756145],[-73.7681175,45.6766746],[-73.7691603,45.6781808],[-73.7696952,45.6788837],[-73.7700374,45.6793312],[-73.7700794,45.6793801]]}";2;Boulevard Louis-Joseph-Papineau;1;50;false;false;true;false;false;false;468.0;1;0;0;0;0;false;85520;6129481068;-73.767742;45.680465;84006;6129485072;-73.7620171;45.6659452;0;39;40;9435488;Bus 5 : TERREBONNE / BOIS-DES-FILION;"";EXO;5;Terminus Terrebonne;Terminus Terrebonne
476078332;"{\"type\":\"LineString\",\"coordinates\":[[-73.7664662,45.6742002],[-73.7667618,45.6746509],[-73.7673957,45.6756145]]}";3;Boulevard Louis-Joseph-Papineau;1;50;false;false;true;false;false;false;173.0;1;0;0;0;0;false;85520;6129481068;-73.767742;45.680465;84006;6129485072;-73.7620171;45.6659452;0;39;40;9435488;Bus 5 : TERREBONNE / BOIS-DES-FILION;"";EXO;5;Terminus Terrebonne;Terminus Terrebonne
455285349;"{\"type\":\"LineString\",\"coordinates\":[[-73.7657931,45.6732163],[-73.7664662,45.6742002]]}";4;Boulevard Louis-Joseph-Papineau;1;50;false;false;true;false;false;false;122.0;1;0;0;0;0;false;85520;6129481068;-73.767742;45.680465;84006;6129485072;-73.7620171;45.6659452;0;39;40;9435488;Bus 5 : TERREBONNE / BOIS-DES-FILION;"";EXO;5;Terminus Terrebonne;Terminus Terrebonne
455285352;"{\"type\":\"LineString\",\"coordinates\":[[-73.7655438,45.6728603],[-73.7657931,45.6732163]]}";5;Boulevard Louis-Joseph-Papineau;1;50;false;false;true;false;false;false;45.0;0;0;0;0;0;false;85520;6129481068;-73.767742;45.680465;84006;6129485072;-73.7620171;45.6659452;0;39;40;9435488;Bus 5 : TERREBONNE / BOIS-DES-FILION;"";EXO;5;Terminus Terrebonne;Terminus Terrebonne
44812992;"{\"type\":\"LineString\",\"coordinates\":[[-73.7649289,45.6719602],[-73.7655438,45.6728603]]}";6;Boulevard Louis-Joseph-Papineau;3;50;false;false;true;false;false;false;111.0;0;0;0;0;0;false;85520;6129481068;-73.767742;45.680465;84006;6129485072;-73.7620171;45.6659452;0;39;40;9435488;Bus 5 : TERREBONNE / BOIS-DES-FILION;"";EXO;5;Terminus Terrebonne;Terminus Terrebonne
205764078;"{\"type\":\"LineString\",\"coordinates\":[[-73.7639081,45.6704882],[-73.7641574,45.6708734],[-73.7645996,45.6714949],[-73.7649289,45.6719602]]}";7;Boulevard Louis-Joseph-Papineau;3;50;false;false;true;false;false;false;182.0;1;0;0;0;0;false;85520;6129481068;-73.767742;45.680465;84006;6129485072;-73.7620171;45.6659452;0;39;40;9435488;Bus 5 : TERREBONNE / BOIS-DES-FILION;"";EXO;5;Terminus Terrebonne;Terminus Terrebonne
455285351;"{\"type\":\"LineString\",\"coordinates\":[[-73.7633927,45.6697473],[-73.7639081,45.6704882]]}";8;Boulevard Louis-Joseph-Papineau;3;50;false;false;true;false;false;false;92.0;1;0;0;0;0;false;85520;6129481068;-73.767742;45.680465;84006;6129485072;-73.7620171;45.6659452;0;39;40;9435488;Bus 5 : TERREBONNE / BOIS-DES-FILION;"";EXO;5;Terminus Terrebonne;Terminus Terrebonne
476084950;"{\"type\":\"LineString\",\"coordinates\":[[-73.7628903,45.6690794],[-73.7633927,45.6697473]]}";9;Boulevard Louis-Joseph-Papineau;4;50;false;false;true;false;false;false;84.0;0;0;0;0;0;false;85520;6129481068;-73.767742;45.680465;84006;6129485072;-73.7620171;45.6659452;0;39;40;9435488;Bus 5 : TERREBONNE / BOIS-DES-FILION;"";EXO;5;Terminus Terrebonne;Terminus Terrebonne
135457793;"{\"type\":\"LineString\",\"coordinates\":[[-73.7615044,45.6672959],[-73.7624101,45.6684563],[-73.7626049,45.6687014],[-73.7628903,45.6690794]]}";10;Boulevard Louis-Joseph-Papineau;4;50;false;false;true;false;false;false;226.0;0;0;0;0;0;false;85520;6129481068;-73.767742;45.680465;84006;6129485072;-73.7620171;45.6659452;0;39;40;9435488;Bus 5 : TERREBONNE / BOIS-DES-FILION;"";EXO;5;Terminus Terrebonne;Terminus Terrebonne
679579099;"{\"type\":\"LineString\",\"coordinates\":[[-73.7615044,45.6672959],[-73.7612004,45.666904]]}";11;Boulevard Louis-Joseph-Papineau;1;50;false;true;true;false;false;false;50.0;0;0;0;0;0;false;85520;6129481068;-73.767742;45.680465;84006;6129485072;-73.7620171;45.6659452;0;39;40;9435488;Bus 5 : TERREBONNE / BOIS-DES-FILION;"";EXO;5;Terminus Terrebonne;Terminus Terrebonne
46500487;"{\"type\":\"LineString\",\"coordinates\":[[-73.7612004,45.666904],[-73.7610295,45.6665983],[-73.7609706,45.6665032],[-73.7609485,45.6664222],[-73.7609584,45.6663442],[-73.7610361,45.6661958]]}";12;"";1;50;false;true;false;false;false;false;84.0;0;0;0;0;0;false;85520;6129481068;-73.767742;45.680465;84006;6129485072;-73.7620171;45.6659452;0;39;40;9435488;Bus 5 : TERREBONNE / BOIS-DES-FILION;"";EXO;5;Terminus Terrebonne;Terminus Terrebonne
676642402;"{\"type\":\"LineString\",\"coordinates\":[[-73.7613515,45.6659676],[-73.7612391,45.6660489],[-73.7611709,45.6660982],[-73.7610996,45.6661498],[-73.7610361,45.6661958]]}";13;Chemin du Souvenir;2;50;false;false;true;false;false;false;36.0;0;0;0;0;0;false;85520;6129481068;-73.767742;45.680465;84006;6129485072;-73.7620171;45.6659452;0;39;40;9435488;Bus 5 : TERREBONNE / BOIS-DES-FILION;"";EXO;5;Terminus Terrebonne;Terminus Terrebonne
46500486;"{\"type\":\"LineString\",\"coordinates\":[[-73.7617144,45.665705],[-73.7616185,45.6657744],[-73.7615316,45.6658373],[-73.7613515,45.6659676]]}";14;Chemin du Souvenir;2;50;false;false;true;false;false;false;20.5;0;0;0;0;0;false;85520;6129481068;-73.767742;45.680465;84006;6129485072;-73.7620171;45.6659452;1;39;40;9435488;Bus 5 : TERREBONNE / BOIS-DES-FILION;"";EXO;5;Terminus Terrebonne;Terminus Terrebonne
46500486;"{\"type\":\"LineString\",\"coordinates\":[[-73.7617144,45.665705],[-73.7616185,45.6657744],[-73.7615316,45.6658373],[-73.7613515,45.6659676]]}";1;Chemin du Souvenir;2;50;false;false;true;false;false;false;20.5;0;0;0;0;0;false;84006;6129485072;-73.7620171;45.6659452;84014;6129485064;-73.758608;45.666022;1;40;41;9435488;Bus 5 : TERREBONNE / BOIS-DES-FILION;"";EXO;5;Terminus Terrebonne;Terminus Terrebonne
676642402;"{\"type\":\"LineString\",\"coordinates\":[[-73.7613515,45.6659676],[-73.7612391,45.6660489],[-73.7611709,45.6660982],[-73.7610996,45.6661498],[-73.7610361,45.6661958]]}";2;Chemin du Souvenir;2;50;false;false;true;false;false;false;36.0;0;0;0;0;0;false;84006;6129485072;-73.7620171;45.6659452;84014;6129485064;-73.758608;45.666022;0;40;41;9435488;Bus 5 : TERREBONNE / BOIS-DES-FILION;"";EXO;5;Terminus Terrebonne;Terminus Terrebonne
46500487;"{\"type\":\"LineString\",\"coordinates\":[[-73.7612004,45.666904],[-73.7610295,45.6665983],[-73.7609706,45.6665032],[-73.7609485,45.6664222],[-73.7609584,45.6663442],[-73.7610361,45.6661958]]}";3;"";1;50;false;true;false;false;false;false;84.0;0;0;0;0;0;false;84006;6129485072;-73.7620171;45.6659452;84014;6129485064;-73.758608;45.666022;0;40;41;9435488;Bus 5 : TERREBONNE / BOIS-DES-FILION;"";EXO;5;Terminus Terrebonne;Terminus Terrebonne
679579099;"{\"type\":\"LineString\",\"coordinates\":[[-73.7615044,45.6672959],[-73.7612004,45.666904]]}";4;Boulevard Louis-Joseph-Papineau;1;50;false;true;true;false;false;false;50.0;0;0;0;0;0;false;84006;6129485072;-73.7620171;45.6659452;84014;6129485064;-73.758608;45.666022;0;40;41;9435488;Bus 5 : TERREBONNE / BOIS-DES-FILION;"";EXO;5;Terminus Terrebonne;Terminus Terrebonne
455285354;"{\"type\":\"LineString\",\"coordinates\":[[-73.7601172,45.665932],[-73.760855,45.6666468],[-73.7615044,45.6672959]]}";5;Boulevard Louis-Joseph-Papineau;1;50;false;true;true;false;false;false;187.0;0;0;0;0;0;false;84006;6129485072;-73.7620171;45.6659452;84014;6129485064;-73.758608;45.666022;0;40;41;9435488;Bus 5 : TERREBONNE / BOIS-DES-FILION;"";EXO;5;Terminus Terrebonne;Terminus Terrebonne
46500491;"{\"type\":\"LineString\",\"coordinates\":[[-73.7591828,45.665762],[-73.7594725,45.6656471],[-73.7595472,45.6656327],[-73.7596483,45.6656399],[-73.7597397,45.6656715],[-73.7598765,45.6657671],[-73.7601172,45.665932]]}";6;"";1;50;false;true;false;false;false;false;90.0;0;0;0;0;0;false;84006;6129485072;-73.7620171;45.6659452;84014;6129485064;-73.758608;45.666022;0;40;41;9435488;Bus 5 : TERREBONNE / BOIS-DES-FILION;"";EXO;5;Terminus Terrebonne;Terminus Terrebonne
32938517;"{\"type\":\"LineString\",\"coordinates\":[[-73.7583516,45.6664649],[-73.7587876,45.6660962],[-73.7589856,45.6659288],[-73.7591828,45.665762]]}";7;Boulevard Adolphe-Chapleau;1;50;false;true;true;false;false;false;102.0;0;0;0;0;0;false;84006;6129485072;-73.7620171;45.6659452;84014;6129485064;-73.758608;45.666022;0;40;41;9435488;Bus 5 : TERREBONNE / BOIS-DES-FILION;"";EXO;5;Terminus Terrebonne;Terminus Terrebonne
32640731;"{\"type\":\"LineString\",\"coordinates\":[[-73.7590709,45.6657027],[-73.7588911,45.6658932],[-73.7587361,45.6660575],[-73.7583516,45.6664649]]}";8;Boulevard Adolphe-Chapleau;1;50;false;true;true;false;false;false;51.0;0;0;0;0;0;false;84006;6129485072;-73.7620171;45.6659452;84014;6129485064;-73.758608;45.666022;1;40;41;9435488;Bus 5 : TERREBONNE / BOIS-DES-FILION;"";EXO;5;Terminus Terrebonne;Terminus Terrebonne
32938517;"{\"type\":\"LineString\",\"coordinates\":[[-73.7583516,45.6664649],[-73.7587876,45.6660962],[-73.7589856,45.6659288],[-73.7591828,45.665762]]}";1;Boulevard Adolphe-Chapleau;1;50;false;true;true;false;false;false;102.0;0;0;0;0;0;false;84014;6129485064;-73.758608;45.666022;84009;6129485069;-73.756412;45.668125;2;41;42;9435488;Bus 5 : TERREBONNE / BOIS-DES-FILION;"";EXO;5;Terminus Terrebonne;Terminus Terrebonne
135457795;"{\"type\":\"LineString\",\"coordinates\":[[-73.7583516,45.6664649],[-73.7579637,45.666819],[-73.7577684,45.6669972],[-73.7572579,45.6674477],[-73.7566786,45.6679732],[-73.7559467,45.6686943],[-73.7554041,45.6691914],[-73.7552876,45.6693225],[-73.7548943,45.6699407],[-73.7544956,45.6706148],[-73.7544176,45.670742],[-73.7542929,45.6709506],[-73.7539362,45.6714833],[-73.7537696,45.671718],[-73.753609,45.6718802],[-73.7533971,45.6720067],[-73.7531632,45.672095],[-73.7528545,45.6722143],[-73.7523737,45.6723718],[-73.7520119,45.6724875],[-73.7513934,45.6727334],[-73.7513141,45.6727642],[-73.7512608,45.6727902],[-73.7502594,45.6733504],[-73.7501693,45.6734055],[-73.7501292,45.67343]]}";2;Boulevard Adolphe-Chapleau;2;50;false;false;true;false;false;false;1033.0;1;0;0;0;0;false;84014;6129485064;-73.758608;45.666022;84009;6129485069;-73.756412;45.668125;2;41;42;9435488;Bus 5 : TERREBONNE / BOIS-DES-FILION;"";EXO;5;Terminus Terrebonne;Terminus Terrebonne
135457795;"{\"type\":\"LineString\",\"coordinates\":[[-73.7583516,45.6664649],[-73.7579637,45.666819],[-73.7577684,45.6669972],[-73.7572579,45.6674477],[-73.7566786,45.6679732],[-73.7559467,45.6686943],[-73.7554041,45.6691914],[-73.7552876,45.6693225],[-73.7548943,45.6699407],[-73.7544956,45.6706148],[-73.7544176,45.670742],[-73.7542929,45.6709506],[-73.7539362,45.6714833],[-73.7537696,45.671718],[-73.753609,45.6718802],[-73.7533971,45.6720067],[-73.7531632,45.672095],[-73.7528545,45.6722143],[-73.7523737,45.6723718],[-73.7520119,45.6724875],[-73.7513934,45.6727334],[-73.7513141,45.6727642],[-73.7512608,45.6727902],[-73.7502594,45.6733504],[-73.7501693,45.6734055],[-73.7501292,45.67343]]}";1;Boulevard Adolphe-Chapleau;2;50;false;false;true;false;false;false;516.5;1;0;0;0;0;false;84021;6129485057;-73.754917;45.66975;84969;6129482256;-73.749114;45.673909;1;43;44;9435488;Bus 5 : TERREBONNE / BOIS-DES-FILION;"";EXO;5;Terminus Terrebonne;Terminus Terrebonne
104530242;"{\"type\":\"LineString\",\"coordinates\":[[-73.7501292,45.67343],[-73.7498188,45.6736269],[-73.7496517,45.6737328],[-73.7495432,45.6738016],[-73.7492286,45.6740025],[-73.7491808,45.674033]]}";2;Boulevard Adolphe-Chapleau;2;50;false;false;false;false;false;false;50.0;0;0;0;0;0;false;84021;6129485057;-73.754917;45.66975;84969;6129482256;-73.749114;45.673909;1;43;44;9435488;Bus 5 : TERREBONNE / BOIS-DES-FILION;"";EXO;5;Terminus Terrebonne;Terminus Terrebonne
430817176;"{\"type\":\"LineString\",\"coordinates\":[[-73.7369865,45.6801048],[-73.735089,45.6805102],[-73.7344138,45.6806923],[-73.7325568,45.6811932],[-73.7302383,45.681941],[-73.7294292,45.6822357],[-73.7288199,45.6825417],[-73.7282634,45.6829012],[-73.7276905,45.6833917],[-73.7273473,45.6836608],[-73.7269275,45.6838979],[-73.7266978,45.684003],[-73.7264392,45.6840829],[-73.7249196,45.6844404],[-73.724758,45.6844601],[-73.7245052,45.6844722],[-73.7235536,45.6843805],[-73.7182615,45.6843254],[-73.7174958,45.6843422],[-73.7174316,45.6843423],[-73.7165552,45.6843644],[-73.714816,45.6843805],[-73.7144246,45.6844056],[-73.7137367,45.6844307],[-73.7130931,45.6843931],[-73.7125674,45.684372],[-73.711578,45.6843968],[-73.7108848,45.6844723],[-73.7105372,45.6845601],[-73.7092571,45.6850574],[-73.708491,45.6853896],[-73.7082534,45.685535],[-73.7077146,45.685891],[-73.7068337,45.6870427],[-73.7065841,45.6874773],[-73.7065283,45.6876134],[-73.7064294,45.6880824],[-73.7063573,45.6886133],[-73.7062245,45.6889022],[-73.7058467,45.6893391],[-73.7054786,45.6896951],[-73.7052907,45.6898164],[-73.7051085,45.6898787],[-73.7041091,45.6900933],[-73.7037519,45.6902094],[-73.7036681,45.6902563],[-73.7035017,45.6903494],[-73.7028878,45.6908768],[-73.7016361,45.6918149],[-73.7011174,45.6923892],[-73.7008845,45.6925591],[-73.7002119,45.6929154],[-73.6998119,45.6930393],[-73.6993246,45.6930893],[-73.6983793,45.6931104],[-73.6977284,45.6931249],[-73.6959507,45.6932594]]}";1;Côte de Terrebonne;2;50;false;false;true;false;false;false;1910.5;0;0;1;0;0;false;84958;6129482264;-73.696251;45.693106;84774;6129483611;-73.693322;45.694075;1;63;64;9435488;Bus 5 : TERREBONNE / BOIS-DES-FILION;"";EXO;5;Terminus Terrebonne;Terminus Terrebonne
499900075;"{\"type\":\"LineString\",\"coordinates\":[[-73.6959507,45.6932594],[-73.6958543,45.6932723]]}";2;Côte de Terrebonne;1;50;false;false;true;false;false;false;8.0;0;0;1;0;0;false;84958;6129482264;-73.696251;45.693106;84774;6129483611;-73.693322;45.694075;0;63;64;9435488;Bus 5 : TERREBONNE / BOIS-DES-FILION;"";EXO;5;Terminus Terrebonne;Terminus Terrebonne
679593584;"{\"type\":\"LineString\",\"coordinates\":[[-73.6958543,45.6932723],[-73.6953943,45.6933794],[-73.6951468,45.6934659],[-73.6930486,45.6942673],[-73.6927069,45.6944028],[-73.6922135,45.6945464],[-73.6914943,45.6947313],[-73.6914181,45.6947483],[-73.6909019,45.6948908],[-73.6887713,45.6955354],[-73.6882121,45.6956605],[-73.6878491,45.6956975],[-73.6870959,45.6956512],[-73.6869291,45.6956261],[-73.6860787,45.6954701],[-73.6857386,45.6953541],[-73.6853487,45.6951753],[-73.6847947,45.6950231],[-73.6841981,45.6949092]]}";3;Côte de Terrebonne;2;50;false;false;true;false;false;false;491.0;0;0;1;0;0;false;84958;6129482264;-73.696251;45.693106;84774;6129483611;-73.693322;45.694075;1;63;64;9435488;Bus 5 : TERREBONNE / BOIS-DES-FILION;"";EXO;5;Terminus Terrebonne;Terminus Terrebonne
679593584;"{\"type\":\"LineString\",\"coordinates\":[[-73.6958543,45.6932723],[-73.6953943,45.6933794],[-73.6951468,45.6934659],[-73.6930486,45.6942673],[-73.6927069,45.6944028],[-73.6922135,45.6945464],[-73.6914943,45.6947313],[-73.6914181,45.6947483],[-73.6909019,45.6948908],[-73.6887713,45.6955354],[-73.6882121,45.6956605],[-73.6878491,45.6956975],[-73.6870959,45.6956512],[-73.6869291,45.6956261],[-73.6860787,45.6954701],[-73.6857386,45.6953541],[-73.6853487,45.6951753],[-73.6847947,45.6950231],[-73.6841981,45.6949092]]}";1;Côte de Terrebonne;2;50;false;false;true;false;false;false;491.0;0;0;1;0;0;false;85785;6129481002;-73.684625;45.694852;84861;6129482937;-73.681105;45.694646;1;66;67;9435488;Bus 5 : TERREBONNE / BOIS-DES-FILION;"";EXO;5;Terminus Terrebonne;Terminus Terrebonne
499900074;"{\"type\":\"LineString\",\"coordinates\":[[-73.6841981,45.6949092],[-73.6836688,45.6948424],[-73.6818023,45.6948081],[-73.6810413,45.6947941],[-73.6807584,45.6947889],[-73.6801145,45.6946544],[-73.679544,45.6945368],[-73.6789911,45.694478],[-73.6785673,45.6944498],[-73.6777387,45.6944147],[-73.6774671,45.6944032],[-73.6771797,45.694391],[-73.6770934,45.6943873],[-73.675879,45.6943383],[-73.6756103,45.6943274],[-73.6740496,45.6942644],[-73.6737589,45.69426],[-73.6736555,45.6942585],[-73.6724242,45.6942554],[-73.6713894,45.6941675],[-73.6705238,45.6940934],[-73.6695489,45.694019],[-73.6684416,45.6938902],[-73.6677606,45.6937064],[-73.6672123,45.6935225],[-73.6660727,45.6930898],[-73.6653363,45.6928686],[-73.6648108,45.6927756],[-73.6631562,45.6925948],[-73.6625174,45.6925134],[-73.662401,45.6925004],[-73.6619258,45.6924476],[-73.6616987,45.6924223],[-73.6607987,45.6923862],[-73.6602588,45.6924014],[-73.6598074,45.6924251],[-73.6590701,45.6924952],[-73.658465,45.6925629],[-73.6581574,45.692614],[-73.6578202,45.6927006],[-73.6573414,45.6928776],[-73.6570822,45.6930018],[-73.656381,45.693445],[-73.6552403,45.6940671],[-73.6549224,45.6942918],[-73.6547632,45.6944334],[-73.6546754,45.6945477],[-73.6546363,45.6946195],[-73.65459,45.6947078]]}";2;Côte de Terrebonne;2;50;false;false;true;false;false;false;1218.5;0;0;1;0;0;false;85785;6129481002;-73.684625;45.694852;84861;6129482937;-73.681105;45.694646;1;66;67;9435488;Bus 5 : TERREBONNE / BOIS-DES-FILION;"";EXO;5;Terminus Terrebonne;Terminus Terrebonne
499900074;"{\"type\":\"LineString\",\"coordinates\":[[-73.6841981,45.6949092],[-73.6836688,45.6948424],[-73.6818023,45.6948081],[-73.6810413,45.6947941],[-73.6807584,45.6947889],[-73.6801145,45.6946544],[-73.679544,45.6945368],[-73.6789911,45.694478],[-73.6785673,45.6944498],[-73.6777387,45.6944147],[-73.6774671,45.6944032],[-73.6771797,45.694391],[-73.6770934,45.6943873],[-73.675879,45.6943383],[-73.6756103,45.6943274],[-73.6740496,45.6942644],[-73.6737589,45.69426],[-73.6736555,45.6942585],[-73.6724242,45.6942554],[-73.6713894,45.6941675],[-73.6705238,45.6940934],[-73.6695489,45.694019],[-73.6684416,45.6938902],[-73.6677606,45.6937064],[-73.6672123,45.6935225],[-73.6660727,45.6930898],[-73.6653363,45.6928686],[-73.6648108,45.6927756],[-73.6631562,45.6925948],[-73.6625174,45.6925134],[-73.662401,45.6925004],[-73.6619258,45.6924476],[-73.6616987,45.6924223],[-73.6607987,45.6923862],[-73.6602588,45.6924014],[-73.6598074,45.6924251],[-73.6590701,45.6924952],[-73.658465,45.6925629],[-73.6581574,45.692614],[-73.6578202,45.6927006],[-73.6573414,45.6928776],[-73.6570822,45.6930018],[-73.656381,45.693445],[-73.6552403,45.6940671],[-73.6549224,45.6942918],[-73.6547632,45.6944334],[-73.6546754,45.6945477],[-73.6546363,45.6946195],[-73.65459,45.6947078]]}";1;Côte de Terrebonne;2;50;false;false;true;false;false;false;1218.5;0;0;1;0;0;false;85539;6129481056;-73.656449;45.693236;84875;6129482927;-73.652978;45.698038;1;72;73;9435488;Bus 5 : TERREBONNE / BOIS-DES-FILION;"";EXO;5;Terminus Terrebonne;Terminus Terrebonne
678900148;"{\"type\":\"LineString\",\"coordinates\":[[-73.65459,45.6947078],[-73.6544354,45.6949813],[-73.6543989,45.6951651],[-73.6543736,45.6959105],[-73.6543584,45.696421]]}";2;Côte de Terrebonne;2;50;false;true;true;false;false;false;193.0;0;0;0;0;0;false;85539;6129481056;-73.656449;45.693236;84875;6129482927;-73.652978;45.698038;0;72;73;9435488;Bus 5 : TERREBONNE / BOIS-DES-FILION;"";EXO;5;Terminus Terrebonne;Terminus Terrebonne
809959187;"{\"type\":\"LineString\",\"coordinates\":[[-73.6543584,45.696421],[-73.6543554,45.6965207]]}";3;Côte de Terrebonne;2;50;false;true;true;false;false;false;12.0;0;0;0;0;0;false;85539;6129481056;-73.656449;45.693236;84875;6129482927;-73.652978;45.698038;0;72;73;9435488;Bus 5 : TERREBONNE / BOIS-DES-FILION;"";EXO;5;Terminus Terrebonne;Terminus Terrebonne
809961135;"{\"type\":\"LineString\",\"coordinates\":[[-73.6543554,45.6965207],[-73.6543514,45.6966434]]}";4;Côte de Terrebonne;2;50;false;true;true;false;false;false;14.0;0;0;0;0;0;false;85539;6129481056;-73.656449;45.693236;84875;6129482927;-73.652978;45.698038;0;72;73;9435488;Bus 5 : TERREBONNE / BOIS-DES-FILION;"";EXO;5;Terminus Terrebonne;Terminus Terrebonne
810230391;"{\"type\":\"LineString\",\"coordinates\":[[-73.6543514,45.6966434],[-73.6543117,45.6978821]]}";5;Côte de Terrebonne;2;50;false;true;true;false;false;false;138.0;0;0;0;0;0;false;85539;6129481056;-73.656449;45.693236;84875;6129482927;-73.652978;45.698038;0;72;73;9435488;Bus 5 : TERREBONNE / BOIS-DES-FILION;"";EXO;5;Terminus Terrebonne;Terminus Terrebonne
810230393;"{\"type\":\"LineString\",\"coordinates\":[[-73.6543117,45.6978821],[-73.6543098,45.6979415]]}";6;Côte de Terrebonne;2;50;false;true;true;false;false;false;7.0;0;0;0;0;0;false;85539;6129481056;-73.656449;45.693236;84875;6129482927;-73.652978;45.698038;0;72;73;9435488;Bus 5 : TERREBONNE / BOIS-DES-FILION;"";EXO;5;Terminus Terrebonne;Terminus Terrebonne
678900150;"{\"type\":\"LineString\",\"coordinates\":[[-73.6543098,45.6979415],[-73.654154,45.6979414],[-73.6533204,45.6979395],[-73.6532321,45.6979644],[-73.6531831,45.6979995],[-73.6531647,45.6980517],[-73.6531659,45.6981074]]}";7;BUS;1;50;false;true;true;false;true;false;103.0;0;1;0;0;0;false;85539;6129481056;-73.656449;45.693236;84875;6129482927;-73.652978;45.698038;1;72;73;9435488;Bus 5 : TERREBONNE / BOIS-DES-FILION;"";EXO;5;Terminus Terrebonne;Terminus Terrebonne
