way_id;shape;index;name;nb_lanes;legal_speed;speed_zone_30;oneway;shares_bike;bike_box;bus_lane;dedicated_bus_lane;length;nb_traffic_signals;nb_crossings;nb_stops;nb_give_ways;nb_lvl_crossings;roundabout;stop_id_orig;node_id_orig;coord_x_orig;coord_y_orig;stop_id_dest;node_id_dest;coord_x_dest;coord_y_dest;nb_neighbouring_ways_bus_stop;ordre_orig;ordre_dest;id_line;line_name;colour;operator;ref;from;to
694409795;"{\"type\":\"LineString\",\"coordinates\":[[-73.6827819,45.5599253],[-73.6829383,45.5598439]]}";1;"";1;50;false;false;true;false;false;false;16.0;0;0;0;0;0;false;"47041;47043;47020;47027;47024";6269510293;-73.68279;45.559744;41842;6269510244;-73.68204;45.56156;1;0;1;9312792;Bus : 27 N - Direction Vimont;"";STL;27N;Métro Cartier Quai:8;Gare Vimont
669902223;"{\"type\":\"LineString\",\"coordinates\":[[-73.6826117,45.5600129],[-73.6827819,45.5599253]]}";2;"";1;50;false;false;true;false;false;false;17.0;0;0;0;0;0;false;"47041;47043;47020;47027;47024";6269510293;-73.68279;45.559744;41842;6269510244;-73.68204;45.56156;0;0;1;9312792;Bus : 27 N - Direction Vimont;"";STL;27N;Métro Cartier Quai:8;Gare Vimont
669902231;"{\"type\":\"LineString\",\"coordinates\":[[-73.6828755,45.560162],[-73.6828112,45.5601876],[-73.6827077,45.5602109],[-73.682644,45.5602049],[-73.6825892,45.560184],[-73.6825263,45.5601334],[-73.6825179,45.560095],[-73.6825372,45.5600624],[-73.6826117,45.5600129]]}";3;"";1;50;false;false;true;false;false;false;48.0;0;0;0;0;0;false;"47041;47043;47020;47027;47024";6269510293;-73.68279;45.559744;41842;6269510244;-73.68204;45.56156;0;0;1;9312792;Bus : 27 N - Direction Vimont;"";STL;27N;Métro Cartier Quai:8;Gare Vimont
242652088;"{\"type\":\"LineString\",\"coordinates\":[[-73.6830194,45.5603075],[-73.6828755,45.560162]]}";4;"";1;50;false;false;true;false;false;false;20.0;1;0;0;0;0;false;"47041;47043;47020;47027;47024";6269510293;-73.68279;45.559744;41842;6269510244;-73.68204;45.56156;0;0;1;9312792;Bus : 27 N - Direction Vimont;"";STL;27N;Métro Cartier Quai:8;Gare Vimont
258700554;"{\"type\":\"LineString\",\"coordinates\":[[-73.6830194,45.5603075],[-73.6827075,45.5604638],[-73.6824175,45.5606264],[-73.6822665,45.5607085]]}";5;Boulevard Cartier Ouest;2;50;false;true;true;false;false;false;74.0;1;0;0;0;0;false;"47041;47043;47020;47027;47024";6269510293;-73.68279;45.559744;41842;6269510244;-73.68204;45.56156;0;0;1;9312792;Bus : 27 N - Direction Vimont;"";STL;27N;Métro Cartier Quai:8;Gare Vimont
455492089;"{\"type\":\"LineString\",\"coordinates\":[[-73.6822665,45.5607085],[-73.6819634,45.5608959],[-73.6817505,45.5610049]]}";6;Boulevard Cartier Ouest;2;50;false;true;true;false;false;false;53.0;1;0;0;0;0;false;"47041;47043;47020;47027;47024";6269510293;-73.68279;45.559744;41842;6269510244;-73.68204;45.56156;0;0;1;9312792;Bus : 27 N - Direction Vimont;"";STL;27N;Métro Cartier Quai:8;Gare Vimont
292641472;"{\"type\":\"LineString\",\"coordinates\":[[-73.6817505,45.5610049],[-73.6816926,45.5610324],[-73.6815922,45.5610802]]}";7;Boulevard Cartier Ouest;2;50;false;true;true;false;false;false;15.0;2;0;0;0;0;false;"47041;47043;47020;47027;47024";6269510293;-73.68279;45.559744;41842;6269510244;-73.68204;45.56156;0;0;1;9312792;Bus : 27 N - Direction Vimont;"";STL;27N;Métro Cartier Quai:8;Gare Vimont
258700557;"{\"type\":\"LineString\",\"coordinates\":[[-73.6815922,45.5610802],[-73.68169,45.5611749],[-73.6819137,45.5613673],[-73.6823486,45.5617409],[-73.6823502,45.5617422],[-73.6826844,45.5619598]]}";8;Boulevard des Laurentides;2;50;false;true;true;false;false;false;65.0;2;0;0;0;0;false;"47041;47043;47020;47027;47024";6269510293;-73.68279;45.559744;41842;6269510244;-73.68204;45.56156;1;0;1;9312792;Bus : 27 N - Direction Vimont;"";STL;27N;Métro Cartier Quai:8;Gare Vimont
258700557;"{\"type\":\"LineString\",\"coordinates\":[[-73.6815922,45.5610802],[-73.68169,45.5611749],[-73.6819137,45.5613673],[-73.6823486,45.5617409],[-73.6823502,45.5617422],[-73.6826844,45.5619598]]}";1;Boulevard des Laurentides;2;50;false;true;true;false;false;false;65.0;2;0;0;0;0;false;41842;6269510244;-73.68204;45.56156;41865;6269510199;-73.68424;45.563491;1;1;2;9312792;Bus : 27 N - Direction Vimont;"";STL;27N;Métro Cartier Quai:8;Gare Vimont
452227549;"{\"type\":\"LineString\",\"coordinates\":[[-73.6826844,45.5619598],[-73.684522,45.5635813]]}";2;Boulevard des Laurentides;4;50;false;false;true;false;false;false;115.5;0;0;0;0;0;false;41842;6269510244;-73.68204;45.56156;41865;6269510199;-73.68424;45.563491;1;1;2;9312792;Bus : 27 N - Direction Vimont;"";STL;27N;Métro Cartier Quai:8;Gare Vimont
452227549;"{\"type\":\"LineString\",\"coordinates\":[[-73.6826844,45.5619598],[-73.684522,45.5635813]]}";1;Boulevard des Laurentides;4;50;false;false;true;false;false;false;115.5;0;0;0;0;0;false;41865;6269510199;-73.68424;45.563491;41887;6269510068;-73.68568;45.564778;1;2;3;9312792;Bus : 27 N - Direction Vimont;"";STL;27N;Métro Cartier Quai:8;Gare Vimont
452227544;"{\"type\":\"LineString\",\"coordinates\":[[-73.684522,45.5635813],[-73.6864142,45.565271]]}";2;Boulevard des Laurentides;4;50;false;false;true;false;false;false;119.5;0;0;0;0;0;false;41865;6269510199;-73.68424;45.563491;41887;6269510068;-73.68568;45.564778;1;2;3;9312792;Bus : 27 N - Direction Vimont;"";STL;27N;Métro Cartier Quai:8;Gare Vimont
452227544;"{\"type\":\"LineString\",\"coordinates\":[[-73.684522,45.5635813],[-73.6864142,45.565271]]}";1;Boulevard des Laurentides;4;50;false;false;true;false;false;false;119.5;0;0;0;0;0;false;41887;6269510068;-73.68568;45.564778;41796;6269510010;-73.68855;45.567342;1;3;4;9312792;Bus : 27 N - Direction Vimont;"";STL;27N;Métro Cartier Quai:8;Gare Vimont
46086120;"{\"type\":\"LineString\",\"coordinates\":[[-73.6864142,45.565271],[-73.68769,45.5664197]]}";2;Boulevard des Laurentides;4;50;false;false;true;false;false;false;162.0;0;0;0;0;0;false;41887;6269510068;-73.68568;45.564778;41796;6269510010;-73.68855;45.567342;0;3;4;9312792;Bus : 27 N - Direction Vimont;"";STL;27N;Métro Cartier Quai:8;Gare Vimont
452227546;"{\"type\":\"LineString\",\"coordinates\":[[-73.68769,45.5664197],[-73.6883244,45.5669908]]}";3;Boulevard des Laurentides;4;50;false;false;true;false;false;false;81.0;0;0;0;0;0;false;41887;6269510068;-73.68568;45.564778;41796;6269510010;-73.68855;45.567342;0;3;4;9312792;Bus : 27 N - Direction Vimont;"";STL;27N;Métro Cartier Quai:8;Gare Vimont
452227547;"{\"type\":\"LineString\",\"coordinates\":[[-73.6883244,45.5669908],[-73.6901977,45.568689]]}";4;Boulevard des Laurentides;4;50;false;false;true;false;false;false;119.5;0;0;0;0;0;false;41887;6269510068;-73.68568;45.564778;41796;6269510010;-73.68855;45.567342;1;3;4;9312792;Bus : 27 N - Direction Vimont;"";STL;27N;Métro Cartier Quai:8;Gare Vimont
452227548;"{\"type\":\"LineString\",\"coordinates\":[[-73.6901977,45.568689],[-73.6920842,45.5703911]]}";1;Boulevard des Laurentides;4;50;false;false;true;false;false;false;120.0;1;0;0;0;0;false;41800;6269509527;-73.69171;45.5702;41802;6269509352;-73.69434;45.572586;1;6;7;9312792;Bus : 27 N - Direction Vimont;"";STL;27N;Métro Cartier Quai:8;Gare Vimont
258700555;"{\"type\":\"LineString\",\"coordinates\":[[-73.6920842,45.5703911],[-73.6921816,45.5704852]]}";2;Boulevard des Laurentides;4;50;false;false;true;false;false;false;13.0;2;0;0;0;0;false;41800;6269509527;-73.69171;45.5702;41802;6269509352;-73.69434;45.572586;0;6;7;9312792;Bus : 27 N - Direction Vimont;"";STL;27N;Métro Cartier Quai:8;Gare Vimont
452227545;"{\"type\":\"LineString\",\"coordinates\":[[-73.6921816,45.5704852],[-73.6923511,45.5706606]]}";3;Boulevard des Laurentides;4;50;false;false;true;false;false;false;24.0;1;0;0;0;0;false;41800;6269509527;-73.69171;45.5702;41802;6269509352;-73.69434;45.572586;0;6;7;9312792;Bus : 27 N - Direction Vimont;"";STL;27N;Métro Cartier Quai:8;Gare Vimont
259643627;"{\"type\":\"LineString\",\"coordinates\":[[-73.6923511,45.5706606],[-73.6935441,45.5717052],[-73.6938656,45.5719868],[-73.6941278,45.5722163],[-73.694173,45.572256],[-73.6948715,45.5728676],[-73.6960798,45.5739255],[-73.6961954,45.5740268],[-73.6975572,45.5752191],[-73.6982178,45.5757768],[-73.6987252,45.5762051],[-73.6991329,45.5765493],[-73.6998396,45.5771459],[-73.699969,45.5772551],[-73.700393,45.577613],[-73.7010736,45.5781875]]}";4;Boulevard des Laurentides;4;50;false;false;true;false;false;false;539.0;2;0;0;0;0;false;41800;6269509527;-73.69171;45.5702;41802;6269509352;-73.69434;45.572586;1;6;7;9312792;Bus : 27 N - Direction Vimont;"";STL;27N;Métro Cartier Quai:8;Gare Vimont
259643627;"{\"type\":\"LineString\",\"coordinates\":[[-73.6923511,45.5706606],[-73.6935441,45.5717052],[-73.6938656,45.5719868],[-73.6941278,45.5722163],[-73.694173,45.572256],[-73.6948715,45.5728676],[-73.6960798,45.5739255],[-73.6961954,45.5740268],[-73.6975572,45.5752191],[-73.6982178,45.5757768],[-73.6987252,45.5762051],[-73.6991329,45.5765493],[-73.6998396,45.5771459],[-73.699969,45.5772551],[-73.700393,45.577613],[-73.7010736,45.5781875]]}";1;Boulevard des Laurentides;4;50;false;false;true;false;false;false;539.0;2;0;0;0;0;false;41809;6269508951;-73.70058;45.577941;41811;6269508920;-73.70172;45.57892;1;10;11;9312792;Bus : 27 N - Direction Vimont;"";STL;27N;Métro Cartier Quai:8;Gare Vimont
23292050;"{\"type\":\"LineString\",\"coordinates\":[[-73.7010736,45.5781875],[-73.7011251,45.5783016],[-73.7018661,45.5789226],[-73.7029382,45.5798378],[-73.704628,45.5813139],[-73.7048961,45.5815481],[-73.7051422,45.581755],[-73.7052532,45.5818483]]}";2;Boulevard des Laurentides;1;50;false;true;true;false;false;false;261.5;0;1;0;0;0;false;41809;6269508951;-73.70058;45.577941;41811;6269508920;-73.70172;45.57892;1;10;11;9312792;Bus : 27 N - Direction Vimont;"";STL;27N;Métro Cartier Quai:8;Gare Vimont
23292050;"{\"type\":\"LineString\",\"coordinates\":[[-73.7010736,45.5781875],[-73.7011251,45.5783016],[-73.7018661,45.5789226],[-73.7029382,45.5798378],[-73.704628,45.5813139],[-73.7048961,45.5815481],[-73.7051422,45.581755],[-73.7052532,45.5818483]]}";1;Boulevard des Laurentides;1;50;false;true;true;false;false;false;261.5;0;1;0;0;0;false;41813;6269506405;-73.70497;45.581731;41817;6269508828;-73.70735;45.583805;1;12;13;9312792;Bus : 27 N - Direction Vimont;"";STL;27N;Métro Cartier Quai:8;Gare Vimont
436680546;"{\"type\":\"LineString\",\"coordinates\":[[-73.7052532,45.5818483],[-73.7053864,45.5819745]]}";2;Boulevard des Laurentides;1;50;false;true;true;false;false;false;18.0;0;0;0;0;0;false;41813;6269506405;-73.70497;45.581731;41817;6269508828;-73.70735;45.583805;0;12;13;9312792;Bus : 27 N - Direction Vimont;"";STL;27N;Métro Cartier Quai:8;Gare Vimont
452204247;"{\"type\":\"LineString\",\"coordinates\":[[-73.7053864,45.5819745],[-73.7056499,45.5822138]]}";3;Boulevard des Laurentides;1;50;false;true;true;false;false;false;34.0;0;0;0;0;0;false;41813;6269506405;-73.70497;45.581731;41817;6269508828;-73.70735;45.583805;0;12;13;9312792;Bus : 27 N - Direction Vimont;"";STL;27N;Métro Cartier Quai:8;Gare Vimont
436680547;"{\"type\":\"LineString\",\"coordinates\":[[-73.7056499,45.5822138],[-73.7075122,45.5838421],[-73.7084553,45.5847397],[-73.7089958,45.5851859],[-73.7092377,45.5853605]]}";4;Boulevard des Laurentides;1;50;false;true;true;false;false;false;224.0;0;0;0;0;0;false;41813;6269506405;-73.70497;45.581731;41817;6269508828;-73.70735;45.583805;1;12;13;9312792;Bus : 27 N - Direction Vimont;"";STL;27N;Métro Cartier Quai:8;Gare Vimont
436680547;"{\"type\":\"LineString\",\"coordinates\":[[-73.7056499,45.5822138],[-73.7075122,45.5838421],[-73.7084553,45.5847397],[-73.7089958,45.5851859],[-73.7092377,45.5853605]]}";1;Boulevard des Laurentides;1;50;false;true;true;false;false;false;224.0;0;0;0;0;0;false;41817;6269508828;-73.70735;45.583805;41820;6269508795;-73.70929;45.585601;1;13;14;9312792;Bus : 27 N - Direction Vimont;"";STL;27N;Métro Cartier Quai:8;Gare Vimont
23292070;"{\"type\":\"LineString\",\"coordinates\":[[-73.7092377,45.5853605],[-73.7110568,45.587011],[-73.7127438,45.5885415],[-73.7128208,45.5886113],[-73.7131232,45.5888858],[-73.7137609,45.5894643]]}";2;Boulevard des Laurentides;4;50;false;false;true;false;false;false;288.5;0;0;0;0;0;false;41817;6269508828;-73.70735;45.583805;41820;6269508795;-73.70929;45.585601;1;13;14;9312792;Bus : 27 N - Direction Vimont;"";STL;27N;Métro Cartier Quai:8;Gare Vimont
23292070;"{\"type\":\"LineString\",\"coordinates\":[[-73.7092377,45.5853605],[-73.7110568,45.587011],[-73.7127438,45.5885415],[-73.7128208,45.5886113],[-73.7131232,45.5888858],[-73.7137609,45.5894643]]}";1;Boulevard des Laurentides;4;50;false;false;true;false;false;false;288.5;0;0;0;0;0;false;41824;6269508703;-73.71327;45.589128;41826;6269508670;-73.7145;45.590559;1;16;17;9312792;Bus : 27 N - Direction Vimont;"";STL;27N;Métro Cartier Quai:8;Gare Vimont
453312145;"{\"type\":\"LineString\",\"coordinates\":[[-73.7137609,45.5894643],[-73.7142928,45.5902066],[-73.714455,45.5904265]]}";2;Boulevard des Laurentides;2;50;false;true;true;false;false;false;120.0;0;0;0;0;0;false;41824;6269508703;-73.71327;45.589128;41826;6269508670;-73.7145;45.590559;0;16;17;9312792;Bus : 27 N - Direction Vimont;"";STL;27N;Métro Cartier Quai:8;Gare Vimont
23292074;"{\"type\":\"LineString\",\"coordinates\":[[-73.714455,45.5904265],[-73.7148183,45.5908968],[-73.7148782,45.5909846],[-73.715175,45.59132]]}";3;Boulevard des Laurentides;2;50;false;true;true;false;false;false;57.5;0;0;0;0;0;false;41824;6269508703;-73.71327;45.589128;41826;6269508670;-73.7145;45.590559;1;16;17;9312792;Bus : 27 N - Direction Vimont;"";STL;27N;Métro Cartier Quai:8;Gare Vimont
453312145;"{\"type\":\"LineString\",\"coordinates\":[[-73.7137609,45.5894643],[-73.7142928,45.5902066],[-73.714455,45.5904265]]}";1;Boulevard des Laurentides;2;50;false;true;true;false;false;false;120.0;0;0;0;0;0;false;41826;6269508670;-73.7145;45.590559;41828;6269508378;-73.72003;45.595272;2;17;18;9312792;Bus : 27 N - Direction Vimont;"";STL;27N;Métro Cartier Quai:8;Gare Vimont
23292074;"{\"type\":\"LineString\",\"coordinates\":[[-73.714455,45.5904265],[-73.7148183,45.5908968],[-73.7148782,45.5909846],[-73.715175,45.59132]]}";2;Boulevard des Laurentides;2;50;false;true;true;false;false;false;115.0;0;0;0;0;0;false;41826;6269508670;-73.7145;45.590559;41828;6269508378;-73.72003;45.595272;0;17;18;9312792;Bus : 27 N - Direction Vimont;"";STL;27N;Métro Cartier Quai:8;Gare Vimont
481017015;"{\"type\":\"LineString\",\"coordinates\":[[-73.715175,45.59132],[-73.7154776,45.5916173],[-73.7155938,45.5917315]]}";3;Boulevard des Laurentides;2;50;false;true;true;false;false;false;57.0;0;0;0;0;0;false;41826;6269508670;-73.7145;45.590559;41828;6269508378;-73.72003;45.595272;0;17;18;9312792;Bus : 27 N - Direction Vimont;"";STL;27N;Métro Cartier Quai:8;Gare Vimont
37722248;"{\"type\":\"LineString\",\"coordinates\":[[-73.7155938,45.5917315],[-73.7159615,45.5920833]]}";4;Boulevard des Laurentides;2;50;false;true;true;false;false;false;49.0;0;0;0;0;0;false;41826;6269508670;-73.7145;45.590559;41828;6269508378;-73.72003;45.595272;0;17;18;9312792;Bus : 27 N - Direction Vimont;"";STL;27N;Métro Cartier Quai:8;Gare Vimont
511504674;"{\"type\":\"LineString\",\"coordinates\":[[-73.7159615,45.5920833],[-73.7161288,45.5922433]]}";5;Boulevard des Laurentides;2;50;false;true;true;false;false;false;23.0;0;0;0;0;0;false;41826;6269508670;-73.7145;45.590559;41828;6269508378;-73.72003;45.595272;0;17;18;9312792;Bus : 27 N - Direction Vimont;"";STL;27N;Métro Cartier Quai:8;Gare Vimont
483683382;"{\"type\":\"LineString\",\"coordinates\":[[-73.7161288,45.5922433],[-73.7161818,45.5922874]]}";6;Boulevard des Laurentides;2;50;false;true;true;false;false;false;7.0;0;0;0;0;0;false;41826;6269508670;-73.7145;45.590559;41828;6269508378;-73.72003;45.595272;0;17;18;9312792;Bus : 27 N - Direction Vimont;"";STL;27N;Métro Cartier Quai:8;Gare Vimont
511504669;"{\"type\":\"LineString\",\"coordinates\":[[-73.7161818,45.5922874],[-73.7163811,45.5924579],[-73.71656,45.5926074],[-73.716887,45.5928537],[-73.7171441,45.5930421]]}";7;Boulevard des Laurentides;2;50;false;true;true;false;false;false;113.0;0;0;0;0;0;false;41826;6269508670;-73.7145;45.590559;41828;6269508378;-73.72003;45.595272;0;17;18;9312792;Bus : 27 N - Direction Vimont;"";STL;27N;Métro Cartier Quai:8;Gare Vimont
37722249;"{\"type\":\"LineString\",\"coordinates\":[[-73.7171441,45.5930421],[-73.7185014,45.5939442],[-73.7192899,45.5945481],[-73.719687,45.5948774],[-73.7198448,45.5949882],[-73.7200206,45.5950952]]}";8;Boulevard des Laurentides;2;50;false;true;true;false;false;false;321.0;0;0;0;0;0;false;41826;6269508670;-73.7145;45.590559;41828;6269508378;-73.72003;45.595272;0;17;18;9312792;Bus : 27 N - Direction Vimont;"";STL;27N;Métro Cartier Quai:8;Gare Vimont
694161758;"{\"type\":\"LineString\",\"coordinates\":[[-73.7217949,45.596756],[-73.7209128,45.5959303],[-73.7202442,45.5953045],[-73.7200206,45.5950952]]}";9;Boulevard des Laurentides;4;50;false;false;true;false;false;false;231.0;0;0;0;0;0;false;41826;6269508670;-73.7145;45.590559;41828;6269508378;-73.72003;45.595272;2;17;18;9312792;Bus : 27 N - Direction Vimont;"";STL;27N;Métro Cartier Quai:8;Gare Vimont
37722249;"{\"type\":\"LineString\",\"coordinates\":[[-73.7171441,45.5930421],[-73.7185014,45.5939442],[-73.7192899,45.5945481],[-73.719687,45.5948774],[-73.7198448,45.5949882],[-73.7200206,45.5950952]]}";1;Boulevard des Laurentides;2;50;false;true;true;false;false;false;321.0;0;0;0;0;0;false;41828;6269508378;-73.72003;45.595272;41831;6269508368;-73.72142;45.596556;2;18;19;9312792;Bus : 27 N - Direction Vimont;"";STL;27N;Métro Cartier Quai:8;Gare Vimont
694161758;"{\"type\":\"LineString\",\"coordinates\":[[-73.7217949,45.596756],[-73.7209128,45.5959303],[-73.7202442,45.5953045],[-73.7200206,45.5950952]]}";2;Boulevard des Laurentides;4;50;false;false;true;false;false;false;231.0;0;0;0;0;0;false;41828;6269508378;-73.72003;45.595272;41831;6269508368;-73.72142;45.596556;2;18;19;9312792;Bus : 27 N - Direction Vimont;"";STL;27N;Métro Cartier Quai:8;Gare Vimont
694161758;"{\"type\":\"LineString\",\"coordinates\":[[-73.7217949,45.596756],[-73.7209128,45.5959303],[-73.7202442,45.5953045],[-73.7200206,45.5950952]]}";1;Boulevard des Laurentides;4;50;false;false;true;false;false;false;115.5;0;0;0;0;0;false;41831;6269508368;-73.72142;45.596556;41130;6269507932;-73.7205;45.59735;1;19;20;9312792;Bus : 27 N - Direction Vimont;"";STL;27N;Métro Cartier Quai:8;Gare Vimont
41338897;"{\"type\":\"LineString\",\"coordinates\":[[-73.7185425,45.5987581],[-73.7186566,45.5984633],[-73.7187757,45.5983312],[-73.7194757,45.5979552],[-73.7204372,45.5974543],[-73.721267,45.5970261],[-73.7217949,45.596756]]}";2;Rue De la Bernina;1;50;false;false;true;false;false;false;172.5;0;0;0;0;0;false;41831;6269508368;-73.72142;45.596556;41130;6269507932;-73.7205;45.59735;1;19;20;9312792;Bus : 27 N - Direction Vimont;"";STL;27N;Métro Cartier Quai:8;Gare Vimont
41338602;"{\"type\":\"LineString\",\"coordinates\":[[-73.7185425,45.5987581],[-73.718939,45.5988564],[-73.7192567,45.5990083],[-73.7203451,45.6000304],[-73.7212283,45.6008609],[-73.7213121,45.6010845],[-73.7213292,45.6013015],[-73.7213043,45.6014844],[-73.7208761,45.6026196],[-73.7206241,45.6029858],[-73.719847,45.6034024],[-73.7188722,45.6039218],[-73.7179408,45.6044116],[-73.7171683,45.6048019],[-73.7158466,45.6055285]]}";1;Rue de Lucerne;2;50;false;false;true;false;false;false;516.5;0;0;0;0;0;false;42160;6269507925;-73.71798;45.604302;42718;6269507872;-73.71623;45.606167;1;26;27;9312792;Bus : 27 N - Direction Vimont;"";STL;27N;Métro Cartier Quai:8;Gare Vimont
679314265;"{\"type\":\"LineString\",\"coordinates\":[[-73.7158466,45.6055285],[-73.7157155,45.6055985]]}";2;Boulevard Yvan-Pavlov;1;50;false;false;true;false;false;false;13.0;0;0;0;0;0;false;42160;6269507925;-73.71798;45.604302;42718;6269507872;-73.71623;45.606167;0;26;27;9312792;Bus : 27 N - Direction Vimont;"";STL;27N;Métro Cartier Quai:8;Gare Vimont
679314268;"{\"type\":\"LineString\",\"coordinates\":[[-73.7157155,45.6055985],[-73.7173694,45.6071186],[-73.7176117,45.6073413],[-73.7182052,45.6078995],[-73.7190011,45.6087245],[-73.7200342,45.6096926],[-73.7204013,45.6100366]]}";3;Boulevard René-Laennec;2;50;false;true;true;false;false;false;307.0;0;0;0;0;0;false;42160;6269507925;-73.71798;45.604302;42718;6269507872;-73.71623;45.606167;1;26;27;9312792;Bus : 27 N - Direction Vimont;"";STL;27N;Métro Cartier Quai:8;Gare Vimont
679314268;"{\"type\":\"LineString\",\"coordinates\":[[-73.7157155,45.6055985],[-73.7173694,45.6071186],[-73.7176117,45.6073413],[-73.7182052,45.6078995],[-73.7190011,45.6087245],[-73.7200342,45.6096926],[-73.7204013,45.6100366]]}";1;Boulevard René-Laennec;2;50;false;true;true;false;false;false;307.0;0;0;0;0;0;false;42717;6269507821;-73.72014;45.609921;45014;6269507788;-73.72125;45.611359;1;29;30;9312792;Bus : 27 N - Direction Vimont;"";STL;27N;Métro Cartier Quai:8;Gare Vimont
669902219;"{\"type\":\"LineString\",\"coordinates\":[[-73.7204013,45.6100366],[-73.7205301,45.6101737],[-73.7214606,45.6114323],[-73.7223272,45.6125659],[-73.7228119,45.6131871],[-73.7229335,45.6133839],[-73.7231544,45.614003],[-73.7232717,45.6144419],[-73.7232821,45.6148718],[-73.7232728,45.6151707],[-73.7231244,45.6158432]]}";2;Boulevard René-Laennec;2;50;false;true;true;false;false;false;349.5;0;0;0;0;0;false;42717;6269507821;-73.72014;45.609921;45014;6269507788;-73.72125;45.611359;1;29;30;9312792;Bus : 27 N - Direction Vimont;"";STL;27N;Métro Cartier Quai:8;Gare Vimont
664852984;"{\"type\":\"LineString\",\"coordinates\":[[-73.7211598,45.6230365],[-73.7211188,45.6229258],[-73.7209346,45.6224283]]}";1;Rue Prudentiel;2;50;false;false;false;false;false;false;70.0;0;0;0;0;0;false;41907;6269507620;-73.72077;45.622491;43983;6269507611;-73.72114;45.623345;2;37;38;9312792;Bus : 27 N - Direction Vimont;"";STL;27N;Métro Cartier Quai:8;Gare Vimont
41275905;"{\"type\":\"LineString\",\"coordinates\":[[-73.7294286,45.6249939],[-73.7293253,45.625055],[-73.7291968,45.625128],[-73.7289584,45.6252956],[-73.7287035,45.6254854],[-73.7286115,45.6255586],[-73.7283387,45.6258304],[-73.7281486,45.6260473],[-73.7280797,45.626136],[-73.7277152,45.6267382],[-73.7274068,45.6270436],[-73.7273238,45.6271101],[-73.7272095,45.6271873],[-73.7270535,45.6272791],[-73.7268957,45.6273536],[-73.7266906,45.6274354],[-73.726485,45.6275002],[-73.7262694,45.6275484],[-73.7260518,45.627576],[-73.7258428,45.627595],[-73.7256467,45.6276005],[-73.7254569,45.6275889],[-73.7252377,45.6275665],[-73.7250303,45.62753],[-73.7249304,45.6275067],[-73.7248926,45.6274973],[-73.724657,45.6274223],[-73.7244674,45.627351],[-73.7240416,45.6271583],[-73.7237744,45.6270119],[-73.7236535,45.6269311],[-73.7235188,45.6268352],[-73.7234354,45.6267657],[-73.7228385,45.6262288],[-73.7227576,45.6261527],[-73.722621,45.6260025],[-73.7224783,45.6258436],[-73.722409,45.6257602],[-73.7223309,45.6256644],[-73.72223,45.6255292],[-73.7221218,45.6253684],[-73.7220175,45.6252079],[-73.7217734,45.6247478],[-73.721552,45.6240924],[-73.7213036,45.6234247],[-73.7211598,45.6230365]]}";2;Rue Prudentiel;2;50;false;false;true;false;false;false;1094.0;1;0;0;0;0;false;41907;6269507620;-73.72077;45.622491;43983;6269507611;-73.72114;45.623345;2;37;38;9312792;Bus : 27 N - Direction Vimont;"";STL;27N;Métro Cartier Quai:8;Gare Vimont
455260232;"{\"type\":\"LineString\",\"coordinates\":[[-73.7355853,45.6177628],[-73.7364971,45.6175053],[-73.7369934,45.6173058],[-73.7374188,45.6170491],[-73.737839,45.6167171],[-73.7383197,45.6163736],[-73.7386795,45.6161179],[-73.7388744,45.6160169],[-73.7391829,45.615857],[-73.7393353,45.6158119],[-73.7396654,45.6156678]]}";1;Rue de Belgrade Est;2;50;false;false;true;false;false;false;200.0;0;0;0;0;0;false;41072;6269507699;-73.73785;45.616832;41071;6269507711;-73.73996;45.615586;1;49;50;9312792;Bus : 27 N - Direction Vimont;"";STL;27N;Métro Cartier Quai:8;Gare Vimont
455260235;"{\"type\":\"LineString\",\"coordinates\":[[-73.7396654,45.6156678],[-73.7399435,45.6155131],[-73.7400403,45.6154592]]}";2;Rue de Belgrade Est;2;50;false;false;true;false;false;false;19.0;0;0;1;0;0;false;41072;6269507699;-73.73785;45.616832;41071;6269507711;-73.73996;45.615586;1;49;50;9312792;Bus : 27 N - Direction Vimont;"";STL;27N;Métro Cartier Quai:8;Gare Vimont
544531682;"{\"type\":\"LineString\",\"coordinates\":[[-73.7418662,45.614521],[-73.7422071,45.6144024],[-73.7425718,45.6143273],[-73.743001,45.6142823],[-73.7431451,45.6143053],[-73.743543,45.6142916],[-73.7438928,45.6142614],[-73.7441812,45.6141472],[-73.745641,45.6133894],[-73.7457665,45.6133285],[-73.7462423,45.6130977]]}";1;Rue de Belgrade Ouest;2;50;false;false;true;false;false;false;194.0;0;0;1;0;0;false;46396;6269507755;-73.74607;45.613252;46303;6269507786;-73.74532;45.612079;1;52;53;9312792;Bus : 27 N - Direction Vimont;"";STL;27N;Métro Cartier Quai:8;Gare Vimont
45355348;"{\"type\":\"LineString\",\"coordinates\":[[-73.7409874,45.608173],[-73.7415554,45.6087053],[-73.7439026,45.610905],[-73.7444488,45.6114169],[-73.7449854,45.6119198],[-73.7451283,45.6120538],[-73.7456603,45.6125522],[-73.7457145,45.6126031],[-73.7462423,45.6130977]]}";2;Rue De Rio;2;50;false;false;false;false;false;false;342.0;0;0;0;0;0;false;46396;6269507755;-73.74607;45.613252;46303;6269507786;-73.74532;45.612079;1;52;53;9312792;Bus : 27 N - Direction Vimont;"";STL;27N;Métro Cartier Quai:8;Gare Vimont
45355348;"{\"type\":\"LineString\",\"coordinates\":[[-73.7409874,45.608173],[-73.7415554,45.6087053],[-73.7439026,45.610905],[-73.7444488,45.6114169],[-73.7449854,45.6119198],[-73.7451283,45.6120538],[-73.7456603,45.6125522],[-73.7457145,45.6126031],[-73.7462423,45.6130977]]}";1;Rue De Rio;2;50;false;false;false;false;false;false;342.0;0;0;0;0;0;false;42729;6269507853;-73.74152;45.608537;46345;6269507876;-73.74189;45.607034;1;55;56;9312792;Bus : 27 N - Direction Vimont;"";STL;27N;Métro Cartier Quai:8;Gare Vimont
45742988;"{\"type\":\"LineString\",\"coordinates\":[[-73.7409874,45.608173],[-73.7413369,45.6079037],[-73.7415499,45.6075749]]}";2;Boulevard Bellerose Ouest;2;50;false;false;false;false;false;false;81.0;0;0;0;0;0;false;42729;6269507853;-73.74152;45.608537;46345;6269507876;-73.74189;45.607034;0;55;56;9312792;Bus : 27 N - Direction Vimont;"";STL;27N;Métro Cartier Quai:8;Gare Vimont
684812817;"{\"type\":\"LineString\",\"coordinates\":[[-73.7415499,45.6075749],[-73.741795,45.6069432],[-73.7423033,45.6059551]]}";3;Boulevard Bellerose Ouest;2;50;false;false;true;false;false;false;95.0;1;0;0;0;0;false;42729;6269507853;-73.74152;45.608537;46345;6269507876;-73.74189;45.607034;1;55;56;9312792;Bus : 27 N - Direction Vimont;"";STL;27N;Métro Cartier Quai:8;Gare Vimont
684812817;"{\"type\":\"LineString\",\"coordinates\":[[-73.7415499,45.6075749],[-73.741795,45.6069432],[-73.7423033,45.6059551]]}";1;Boulevard Bellerose Ouest;2;50;false;false;true;false;false;false;95.0;1;0;0;0;0;false;46345;6269507876;-73.74189;45.607034;"49027;46022";6269507490;-73.74272;45.60411;1;56;57;9312792;Bus : 27 N - Direction Vimont;"";STL;27N;Métro Cartier Quai:8;Gare Vimont
46278464;"{\"type\":\"LineString\",\"coordinates\":[[-73.7423033,45.6059551],[-73.7429383,45.6048348]]}";2;Boulevard Bellerose Ouest;2;50;false;false;false;false;false;false;134.0;1;0;0;0;0;false;46345;6269507876;-73.74189;45.607034;"49027;46022";6269507490;-73.74272;45.60411;0;56;57;9312792;Bus : 27 N - Direction Vimont;"";STL;27N;Métro Cartier Quai:8;Gare Vimont
376987218;"{\"type\":\"LineString\",\"coordinates\":[[-73.7425718,45.6046379],[-73.7426881,45.6047311],[-73.7427821,45.6047804],[-73.7429383,45.6048348]]}";3;"";1;50;false;false;true;false;false;false;37.0;0;0;0;0;0;false;46345;6269507876;-73.74189;45.607034;"49027;46022";6269507490;-73.74272;45.60411;0;56;57;9312792;Bus : 27 N - Direction Vimont;"";STL;27N;Métro Cartier Quai:8;Gare Vimont
672697656;"{\"type\":\"LineString\",\"coordinates\":[[-73.7425718,45.6046379],[-73.7427493,45.6045509],[-73.7429654,45.6044427]]}";4;"";1;50;false;false;true;false;false;false;38.0;0;0;0;0;0;false;46345;6269507876;-73.74189;45.607034;"49027;46022";6269507490;-73.74272;45.60411;0;56;57;9312792;Bus : 27 N - Direction Vimont;"";STL;27N;Métro Cartier Quai:8;Gare Vimont
694161753;"{\"type\":\"LineString\",\"coordinates\":[[-73.7429654,45.6044427],[-73.742765,45.6042429]]}";5;"";1;50;false;false;true;false;false;false;28.0;0;0;0;0;0;false;46345;6269507876;-73.74189;45.607034;"49027;46022";6269507490;-73.74272;45.60411;0;56;57;9312792;Bus : 27 N - Direction Vimont;"";STL;27N;Métro Cartier Quai:8;Gare Vimont
694207283;"{\"type\":\"LineString\",\"coordinates\":[[-73.742765,45.6042429],[-73.7426581,45.6041367]]}";6;"";1;50;false;false;true;false;false;false;15.0;0;0;0;0;0;false;46345;6269507876;-73.74189;45.607034;"49027;46022";6269507490;-73.74272;45.60411;1;56;57;9312792;Bus : 27 N - Direction Vimont;"";STL;27N;Métro Cartier Quai:8;Gare Vimont
