way_id;shape;index;name;nb_lanes;legal_speed;speed_zone_30;oneway;shares_bike;bike_box;bus_lane;dedicated_bus_lane;length;nb_traffic_signals;nb_crossings;nb_stops;nb_give_ways;nb_lvl_crossings;roundabout;stop_id_orig;node_id_orig;coord_x_orig;coord_y_orig;stop_id_dest;node_id_dest;coord_x_dest;coord_y_dest;nb_neighbouring_ways_bus_stop;ordre_orig;ordre_dest;id_line;line_name;colour;operator;ref;from;to
133439958;"{\"type\":\"LineString\",\"coordinates\":[[2.9931996,36.7701783],[2.9926719,36.7700831],[2.9923541,36.7700392],[2.9909088,36.7698397],[2.9901266,36.7697466],[2.9892656,36.7696107],[2.9888727,36.769558],[2.9881049,36.7694367],[2.9877394,36.7693827],[2.9876296,36.7693749],[2.987552,36.769373],[2.9874461,36.7693781],[2.9872875,36.7693833]]}";1;"";1;50;false;true;true;false;false;false;543.0;0;0;0;0;0;false;Cercle national de l'armée;5390507841;2.9923835;36.7701102;Cercle National de l'Armée 2;5390507839;2.9861569;36.7693206;1;1;2;8001677;Bus: Chevalley -> Zéralda G.R;"";ETUSA;701;Chevalley;Zéralda G.R
133633993;"{\"type\":\"LineString\",\"coordinates\":[[2.9868624,36.769174],[2.9869053,36.7691649],[2.9869556,36.7691584],[2.9871594,36.769174],[2.9872258,36.7691928],[2.9872895,36.7692153],[2.9873126,36.7692417],[2.9873307,36.7692726],[2.9873385,36.76929],[2.987341,36.7693157],[2.9873369,36.769331],[2.9873291,36.7693486],[2.9872875,36.7693833],[2.9872385,36.7693996],[2.9871782,36.769406],[2.9870615,36.7694028],[2.9869418,36.7693858],[2.9868208,36.7693507],[2.9867915,36.7693273],[2.9867816,36.769297],[2.9867802,36.7692648],[2.9867926,36.7692317],[2.9868221,36.7691992],[2.9868624,36.769174]]}";2;"";1;50;false;true;true;false;false;false;129.0;0;0;0;0;0;true;Cercle national de l'armée;5390507841;2.9923835;36.7701102;Cercle National de l'Armée 2;5390507839;2.9861569;36.7693206;0;1;2;8001677;Bus: Chevalley -> Zéralda G.R;"";ETUSA;701;Chevalley;Zéralda G.R
152424292;"{\"type\":\"LineString\",\"coordinates\":[[2.9867915,36.7693273],[2.9867028,36.7693093],[2.9866404,36.7692975],[2.9865412,36.7692825],[2.9863494,36.769268],[2.9861543,36.7692476],[2.9860027,36.7692594],[2.9854663,36.7693051],[2.9851541,36.7693201],[2.9849761,36.769322],[2.9848742,36.7693204],[2.9847625,36.7693142],[2.9837134,36.7692116],[2.9829054,36.7691391],[2.9824394,36.7691042],[2.9822101,36.7690945],[2.9815878,36.7690859],[2.9811318,36.7690956],[2.9808197,36.7691058],[2.980533,36.7691133],[2.9801488,36.7691192],[2.980004,36.7691262],[2.9797384,36.7691332],[2.9795654,36.7691482],[2.9793666,36.7691737],[2.9791671,36.7692143],[2.9790648,36.769235],[2.9789633,36.7692668],[2.9787504,36.7693389],[2.9783132,36.7694885],[2.977891,36.7696359],[2.9773539,36.7698175],[2.9767908,36.7700138],[2.97672,36.7700396],[2.9767128,36.770042],[2.9758331,36.7703805],[2.975496,36.7705081],[2.9747931,36.7708046],[2.9743285,36.7709926],[2.9740621,36.771102],[2.9738037,36.7711858],[2.9731521,36.7713315],[2.9724043,36.7714811],[2.9718525,36.77157],[2.9714262,36.771628],[2.9708604,36.7716733],[2.9707263,36.7716669],[2.9704071,36.7716518],[2.9702515,36.7716497],[2.9701067,36.7716626],[2.9700074,36.7716991],[2.9699198,36.7717578]]}";3;"";1;50;false;true;true;false;false;false;794.0;0;0;0;0;0;false;Cercle national de l'armée;5390507841;2.9923835;36.7701102;Cercle National de l'Armée 2;5390507839;2.9861569;36.7693206;1;1;2;8001677;Bus: Chevalley -> Zéralda G.R;"";ETUSA;701;Chevalley;Zéralda G.R
152424292;"{\"type\":\"LineString\",\"coordinates\":[[2.9867915,36.7693273],[2.9867028,36.7693093],[2.9866404,36.7692975],[2.9865412,36.7692825],[2.9863494,36.769268],[2.9861543,36.7692476],[2.9860027,36.7692594],[2.9854663,36.7693051],[2.9851541,36.7693201],[2.9849761,36.769322],[2.9848742,36.7693204],[2.9847625,36.7693142],[2.9837134,36.7692116],[2.9829054,36.7691391],[2.9824394,36.7691042],[2.9822101,36.7690945],[2.9815878,36.7690859],[2.9811318,36.7690956],[2.9808197,36.7691058],[2.980533,36.7691133],[2.9801488,36.7691192],[2.980004,36.7691262],[2.9797384,36.7691332],[2.9795654,36.7691482],[2.9793666,36.7691737],[2.9791671,36.7692143],[2.9790648,36.769235],[2.9789633,36.7692668],[2.9787504,36.7693389],[2.9783132,36.7694885],[2.977891,36.7696359],[2.9773539,36.7698175],[2.9767908,36.7700138],[2.97672,36.7700396],[2.9767128,36.770042],[2.9758331,36.7703805],[2.975496,36.7705081],[2.9747931,36.7708046],[2.9743285,36.7709926],[2.9740621,36.771102],[2.9738037,36.7711858],[2.9731521,36.7713315],[2.9724043,36.7714811],[2.9718525,36.77157],[2.9714262,36.771628],[2.9708604,36.7716733],[2.9707263,36.7716669],[2.9704071,36.7716518],[2.9702515,36.7716497],[2.9701067,36.7716626],[2.9700074,36.7716991],[2.9699198,36.7717578]]}";1;"";1;50;false;true;true;false;false;false;794.0;0;0;0;0;0;false;Cercle National de l'Armée 2;5390507839;2.9861569;36.7693206;Dar Diaf;3228186997;2.9650733;36.7720562;1;2;3;8001677;Bus: Chevalley -> Zéralda G.R;"";ETUSA;701;Chevalley;Zéralda G.R
556360466;"{\"type\":\"LineString\",\"coordinates\":[[2.9698312,36.7717888],[2.9697866,36.7717837],[2.9697469,36.7717665],[2.969717,36.7717396],[2.9697003,36.7717061],[2.9696988,36.7716712],[2.9697124,36.7716368],[2.96974,36.7716083],[2.9697779,36.7715889],[2.9698199,36.7715813],[2.9698646,36.7715855],[2.9699049,36.7716018],[2.9699358,36.771628],[2.9699523,36.7716573],[2.9699566,36.7716932],[2.9699453,36.7717281],[2.9699198,36.7717578],[2.9698831,36.7717787],[2.9698312,36.7717888]]}";2;"";1;50;false;true;true;false;false;false;74.0;0;0;0;0;0;true;Cercle National de l'Armée 2;5390507839;2.9861569;36.7693206;Dar Diaf;3228186997;2.9650733;36.7720562;0;2;3;8001677;Bus: Chevalley -> Zéralda G.R;"";ETUSA;701;Chevalley;Zéralda G.R
556360467;"{\"type\":\"LineString\",\"coordinates\":[[2.969717,36.7717396],[2.9696239,36.7717163],[2.9694442,36.7717077],[2.9691786,36.7717184],[2.9683122,36.7717743],[2.9670407,36.7718612],[2.9666116,36.7718952],[2.9664443,36.771904],[2.9661608,36.771919],[2.9656422,36.7719478],[2.9650914,36.7719635],[2.9650709,36.7719648],[2.9645449,36.7719444],[2.9641344,36.7718842]]}";3;"";1;50;false;true;true;false;false;false;254.0;0;0;0;0;0;false;Cercle National de l'Armée 2;5390507839;2.9861569;36.7693206;Dar Diaf;3228186997;2.9650733;36.7720562;1;2;3;8001677;Bus: Chevalley -> Zéralda G.R;"";ETUSA;701;Chevalley;Zéralda G.R
556360467;"{\"type\":\"LineString\",\"coordinates\":[[2.969717,36.7717396],[2.9696239,36.7717163],[2.9694442,36.7717077],[2.9691786,36.7717184],[2.9683122,36.7717743],[2.9670407,36.7718612],[2.9666116,36.7718952],[2.9664443,36.771904],[2.9661608,36.771919],[2.9656422,36.7719478],[2.9650914,36.7719635],[2.9650709,36.7719648],[2.9645449,36.7719444],[2.9641344,36.7718842]]}";1;"";1;50;false;true;true;false;false;false;254.0;0;0;0;0;0;false;Dar Diaf;3228186997;2.9650733;36.7720562;Cheraga Gare Routière;5390542105;2.9514679;36.7673052;1;3;4;8001677;Bus: Chevalley -> Zéralda G.R;"";ETUSA;701;Chevalley;Zéralda G.R
26301221;"{\"type\":\"LineString\",\"coordinates\":[[2.9642428,36.7717923],[2.9642183,36.7718342],[2.9641774,36.7718669],[2.9641344,36.7718842],[2.964077,36.771891],[2.9639982,36.7718732],[2.9639739,36.7718595],[2.9639535,36.7718431],[2.9639324,36.7718172],[2.9639189,36.7717872],[2.963916,36.7717405],[2.963938,36.7716892],[2.9639759,36.7716539],[2.9640266,36.7716311],[2.9640695,36.771624],[2.964127,36.7716286],[2.9641904,36.7716559],[2.9642208,36.7716855],[2.964227,36.7716916],[2.9642463,36.7717351],[2.9642428,36.7717923]]}";2;"";1;50;false;false;true;false;false;false;95.0;0;0;0;0;0;true;Dar Diaf;3228186997;2.9650733;36.7720562;Cheraga Gare Routière;5390542105;2.9514679;36.7673052;0;3;4;8001677;Bus: Chevalley -> Zéralda G.R;"";ETUSA;701;Chevalley;Zéralda G.R
155614495;"{\"type\":\"LineString\",\"coordinates\":[[2.964077,36.771891],[2.9638725,36.7719249],[2.9632206,36.7718867],[2.9625046,36.771858],[2.9609316,36.7717483],[2.9603489,36.7717017],[2.9601944,36.7716894],[2.9596512,36.7716545],[2.9591462,36.7716412],[2.9578468,36.7715935],[2.9559253,36.7713897],[2.9549161,36.7712725],[2.9542092,36.7711899],[2.9538203,36.7711641],[2.9533588,36.7711845]]}";3;"";1;50;false;true;true;false;false;false;975.0;0;0;0;0;0;false;Dar Diaf;3228186997;2.9650733;36.7720562;Cheraga Gare Routière;5390542105;2.9514679;36.7673052;0;3;4;8001677;Bus: Chevalley -> Zéralda G.R;"";ETUSA;701;Chevalley;Zéralda G.R
26301245;"{\"type\":\"LineString\",\"coordinates\":[[2.9534402,36.7710226],[2.9534447,36.7710701],[2.9534305,36.7711163],[2.9533991,36.7711567],[2.9533588,36.7711845],[2.9533096,36.7712024],[2.9532561,36.7712084],[2.9532026,36.7712019],[2.9531537,36.7711836],[2.953125,36.771165],[2.9531014,36.7711422],[2.953079,36.7711062],[2.9530693,36.7710666],[2.9530731,36.7710265],[2.95309,36.7709885],[2.9531188,36.7709555],[2.9531759,36.7709218],[2.9532534,36.770907],[2.9533316,36.7709193],[2.9533965,36.7709564],[2.9534174,36.7709786],[2.9534402,36.7710226]]}";4;"";1;50;false;false;true;false;false;false;107.0;0;0;0;0;0;true;Dar Diaf;3228186997;2.9650733;36.7720562;Cheraga Gare Routière;5390542105;2.9514679;36.7673052;0;3;4;8001677;Bus: Chevalley -> Zéralda G.R;"";ETUSA;701;Chevalley;Zéralda G.R
26321150;"{\"type\":\"LineString\",\"coordinates\":[[2.9531759,36.7709218],[2.9532359,36.7707799],[2.9533022,36.7705277]]}";5;"";1;50;false;true;true;false;false;false;46.0;0;0;0;0;0;false;Dar Diaf;3228186997;2.9650733;36.7720562;Cheraga Gare Routière;5390542105;2.9514679;36.7673052;0;3;4;8001677;Bus: Chevalley -> Zéralda G.R;"";ETUSA;701;Chevalley;Zéralda G.R
26321073;"{\"type\":\"LineString\",\"coordinates\":[[2.9533022,36.7705277],[2.9534419,36.7696236],[2.9534624,36.7694009],[2.9534905,36.7692378]]}";6;Rue Gabbour Omar;1;50;false;false;true;false;false;false;147.0;0;0;0;0;0;false;Dar Diaf;3228186997;2.9650733;36.7720562;Cheraga Gare Routière;5390542105;2.9514679;36.7673052;0;3;4;8001677;Bus: Chevalley -> Zéralda G.R;"";ETUSA;701;Chevalley;Zéralda G.R
30034364;"{\"type\":\"LineString\",\"coordinates\":[[2.9534905,36.7692378],[2.9530479,36.7692065],[2.952788,36.7691569],[2.952537,36.7690615],[2.9522516,36.7689131],[2.9519711,36.7687356],[2.9516777,36.7685062],[2.9515732,36.7683484],[2.9515433,36.7682195],[2.9515758,36.767884],[2.951644,36.7674187],[2.9516913,36.7672143]]}";7;"";1;50;false;false;true;false;false;false;339.0;0;0;0;0;0;false;Dar Diaf;3228186997;2.9650733;36.7720562;Cheraga Gare Routière;5390542105;2.9514679;36.7673052;0;3;4;8001677;Bus: Chevalley -> Zéralda G.R;"";ETUSA;701;Chevalley;Zéralda G.R
132833773;"{\"type\":\"LineString\",\"coordinates\":[[2.9516913,36.7672143],[2.9514717,36.7671994],[2.9507852,36.7671455],[2.9501104,36.7670884],[2.9494865,36.7669424],[2.9490027,36.7668391],[2.9478325,36.7669231],[2.9463059,36.7670198],[2.9457582,36.7669998],[2.9454243,36.7670105],[2.9448807,36.7670342],[2.944701,36.767033],[2.9445693,36.7670421],[2.94429,36.7669948],[2.9438561,36.766879]]}";8;"";1;50;false;true;true;false;false;false;358.5;0;0;0;0;0;false;Dar Diaf;3228186997;2.9650733;36.7720562;Cheraga Gare Routière;5390542105;2.9514679;36.7673052;1;3;4;8001677;Bus: Chevalley -> Zéralda G.R;"";ETUSA;701;Chevalley;Zéralda G.R
132833773;"{\"type\":\"LineString\",\"coordinates\":[[2.9516913,36.7672143],[2.9514717,36.7671994],[2.9507852,36.7671455],[2.9501104,36.7670884],[2.9494865,36.7669424],[2.9490027,36.7668391],[2.9478325,36.7669231],[2.9463059,36.7670198],[2.9457582,36.7669998],[2.9454243,36.7670105],[2.9448807,36.7670342],[2.944701,36.767033],[2.9445693,36.7670421],[2.94429,36.7669948],[2.9438561,36.766879]]}";1;"";1;50;false;true;true;false;false;false;717.0;0;0;0;0;0;false;Cheraga Gare Routière;5390542105;2.9514679;36.7673052;SOUK EL FELLAH;5390507842;2.9424477;36.7659843;2;4;5;8001677;Bus: Chevalley -> Zéralda G.R;"";ETUSA;701;Chevalley;Zéralda G.R
26321071;"{\"type\":\"LineString\",\"coordinates\":[[2.9429153,36.7661659],[2.9429829,36.7661651],[2.9430488,36.7661919],[2.9431081,36.7662398],[2.9431816,36.7663438],[2.9432231,36.7663937],[2.9433293,36.7664965],[2.9435552,36.7666474],[2.9437286,36.7667249],[2.9438583,36.7667746],[2.9438753,36.7668321],[2.9438561,36.766879],[2.9438481,36.7668951],[2.9438226,36.7669292],[2.9437605,36.7669533],[2.9436806,36.7669425],[2.9435894,36.7668488],[2.9434433,36.7667054],[2.9431328,36.7664825],[2.9430135,36.7664246],[2.9429226,36.7663983],[2.9428597,36.7663583],[2.9428268,36.7663036],[2.9428096,36.7662474],[2.9428518,36.7661961],[2.9429153,36.7661659]]}";2;"";1;50;false;true;true;false;false;false;273.0;0;0;0;0;0;true;Cheraga Gare Routière;5390542105;2.9514679;36.7673052;SOUK EL FELLAH;5390507842;2.9424477;36.7659843;0;4;5;8001677;Bus: Chevalley -> Zéralda G.R;"";ETUSA;701;Chevalley;Zéralda G.R
189876811;"{\"type\":\"LineString\",\"coordinates\":[[2.9428096,36.7662474],[2.9427252,36.7661528],[2.942471,36.7659641],[2.9421935,36.7657582],[2.9415902,36.7653209],[2.9405229,36.764598],[2.9398037,36.7640274],[2.9393917,36.7637128],[2.93894,36.7633198],[2.9380998,36.7624824],[2.9373052,36.7615922],[2.9365525,36.7606848],[2.9359464,36.7600437],[2.9350005,36.7590307],[2.9346221,36.7586146],[2.9344698,36.7584517],[2.9343997,36.7583781],[2.9341521,36.7581548],[2.9340021,36.7580357]]}";3;"";1;50;false;true;true;false;false;false;1225.0;0;0;0;0;0;false;Cheraga Gare Routière;5390542105;2.9514679;36.7673052;SOUK EL FELLAH;5390507842;2.9424477;36.7659843;2;4;5;8001677;Bus: Chevalley -> Zéralda G.R;"";ETUSA;701;Chevalley;Zéralda G.R
189876811;"{\"type\":\"LineString\",\"coordinates\":[[2.9428096,36.7662474],[2.9427252,36.7661528],[2.942471,36.7659641],[2.9421935,36.7657582],[2.9415902,36.7653209],[2.9405229,36.764598],[2.9398037,36.7640274],[2.9393917,36.7637128],[2.93894,36.7633198],[2.9380998,36.7624824],[2.9373052,36.7615922],[2.9365525,36.7606848],[2.9359464,36.7600437],[2.9350005,36.7590307],[2.9346221,36.7586146],[2.9344698,36.7584517],[2.9343997,36.7583781],[2.9341521,36.7581548],[2.9340021,36.7580357]]}";1;"";1;50;false;true;true;false;false;false;612.5;0;0;0;0;0;false;EL KARIA ( LES DUNES);5390507847;2.9344077;36.7584716;EL KERMA;5390507848;2.9311287;36.7552697;1;6;7;8001677;Bus: Chevalley -> Zéralda G.R;"";ETUSA;701;Chevalley;Zéralda G.R
189876446;"{\"type\":\"LineString\",\"coordinates\":[[2.9338609,36.7578048],[2.933889,36.7577863],[2.9339474,36.7577668],[2.9339856,36.7577639],[2.9340191,36.7577692],[2.9340461,36.7577736],[2.9341025,36.7578029],[2.9341369,36.7578411],[2.9341509,36.7578745],[2.9341519,36.7579057],[2.9341524,36.7579201],[2.9341412,36.7579442],[2.9341267,36.7579755],[2.9341032,36.7579987],[2.9340575,36.7580245],[2.9340021,36.7580357],[2.9339906,36.7580381],[2.9339453,36.7580349],[2.9338917,36.7580172],[2.933865,36.7580005],[2.9338294,36.7579618],[2.9338125,36.7579146],[2.9338197,36.7578773],[2.9338255,36.757847],[2.9338609,36.7578048]]}";2;"";1;50;false;false;true;false;false;false;97.0;0;0;0;0;0;true;EL KARIA ( LES DUNES);5390507847;2.9344077;36.7584716;EL KERMA;5390507848;2.9311287;36.7552697;0;6;7;8001677;Bus: Chevalley -> Zéralda G.R;"";ETUSA;701;Chevalley;Zéralda G.R
556375005;"{\"type\":\"LineString\",\"coordinates\":[[2.9338197,36.7578773],[2.9337357,36.7577861],[2.9336227,36.7576507],[2.9316061,36.7555277],[2.9312761,36.7551688],[2.931137,36.7550187],[2.9307424,36.7546273],[2.9303548,36.7542268],[2.92953,36.7533916],[2.9285483,36.7523772],[2.9275206,36.7512983],[2.9273898,36.7511716],[2.9272744,36.7510856],[2.92718,36.7510254],[2.9264108,36.7506279],[2.9258845,36.7503462],[2.925067,36.7498843],[2.9240311,36.749377],[2.9224164,36.7485904],[2.9209203,36.7478125],[2.9204637,36.7475802],[2.9201773,36.7474299],[2.9199819,36.7473467]]}";3;"";1;50;false;true;true;false;false;false;874.5;0;0;0;0;0;false;EL KARIA ( LES DUNES);5390507847;2.9344077;36.7584716;EL KERMA;5390507848;2.9311287;36.7552697;1;6;7;8001677;Bus: Chevalley -> Zéralda G.R;"";ETUSA;701;Chevalley;Zéralda G.R
556375005;"{\"type\":\"LineString\",\"coordinates\":[[2.9338197,36.7578773],[2.9337357,36.7577861],[2.9336227,36.7576507],[2.9316061,36.7555277],[2.9312761,36.7551688],[2.931137,36.7550187],[2.9307424,36.7546273],[2.9303548,36.7542268],[2.92953,36.7533916],[2.9285483,36.7523772],[2.9275206,36.7512983],[2.9273898,36.7511716],[2.9272744,36.7510856],[2.92718,36.7510254],[2.9264108,36.7506279],[2.9258845,36.7503462],[2.925067,36.7498843],[2.9240311,36.749377],[2.9224164,36.7485904],[2.9209203,36.7478125],[2.9204637,36.7475802],[2.9201773,36.7474299],[2.9199819,36.7473467]]}";1;"";1;50;false;true;true;false;false;false;874.5;0;0;0;0;0;false;EL KERMA;5390507848;2.9311287;36.7552697;BOUCHAOUI POLYCLINIQUE;5398805102;2.9150932;36.7448712;1;7;8;8001677;Bus: Chevalley -> Zéralda G.R;"";ETUSA;701;Chevalley;Zéralda G.R
556375010;"{\"type\":\"LineString\",\"coordinates\":[[2.9200545,36.7473198],[2.9200348,36.7473355],[2.9200096,36.7473448],[2.9199819,36.7473467],[2.9199551,36.7473409],[2.9199286,36.7473248],[2.9199143,36.7473057],[2.9199091,36.7472839],[2.9199135,36.7472619],[2.9199232,36.7472465],[2.9199427,36.7472307],[2.9199678,36.7472211],[2.9199955,36.747219],[2.9200252,36.7472257],[2.9200474,36.7472391],[2.9200626,36.7472577],[2.9200689,36.7472794],[2.9200656,36.7473015],[2.9200545,36.7473198]]}";2;"";1;50;false;true;true;false;false;false;46.0;0;0;0;0;0;true;EL KERMA;5390507848;2.9311287;36.7552697;BOUCHAOUI POLYCLINIQUE;5398805102;2.9150932;36.7448712;0;7;8;8001677;Bus: Chevalley -> Zéralda G.R;"";ETUSA;701;Chevalley;Zéralda G.R
556375008;"{\"type\":\"LineString\",\"coordinates\":[[2.9199286,36.7473248],[2.9197964,36.7472558],[2.9194526,36.7470451],[2.9188067,36.7467078],[2.9184226,36.7464995],[2.9180988,36.7463328],[2.9180531,36.7463093],[2.9179347,36.7462483],[2.917876,36.7462166],[2.9173663,36.7459362],[2.9168928,36.7456506]]}";3;"";1;50;false;true;true;false;false;false;334.0;0;0;0;0;0;false;EL KERMA;5390507848;2.9311287;36.7552697;BOUCHAOUI POLYCLINIQUE;5398805102;2.9150932;36.7448712;0;7;8;8001677;Bus: Chevalley -> Zéralda G.R;"";ETUSA;701;Chevalley;Zéralda G.R
558865936;"{\"type\":\"LineString\",\"coordinates\":[[2.9168928,36.7456506],[2.9168291,36.7456186],[2.916169,36.7452868],[2.9151123,36.7448419],[2.9142845,36.7444934],[2.9140235,36.7443968]]}";4;"";2;60;false;false;true;false;false;false;148.0;0;0;0;0;0;false;EL KERMA;5390507848;2.9311287;36.7552697;BOUCHAOUI POLYCLINIQUE;5398805102;2.9150932;36.7448712;1;7;8;8001677;Bus: Chevalley -> Zéralda G.R;"";ETUSA;701;Chevalley;Zéralda G.R
558865936;"{\"type\":\"LineString\",\"coordinates\":[[2.9168928,36.7456506],[2.9168291,36.7456186],[2.916169,36.7452868],[2.9151123,36.7448419],[2.9142845,36.7444934],[2.9140235,36.7443968]]}";1;"";2;60;false;false;true;false;false;false;148.0;0;0;0;0;0;false;BOUCHAOUI POLYCLINIQUE;5398805102;2.9150932;36.7448712;BOUCHAOUI MOSQUEE EN-NASR;5398805097;2.9096684;36.7430077;1;8;9;8001677;Bus: Chevalley -> Zéralda G.R;"";ETUSA;701;Chevalley;Zéralda G.R
559800434;"{\"type\":\"LineString\",\"coordinates\":[[2.9140235,36.7443968],[2.913128,36.7439675],[2.9123097,36.7435908],[2.9119917,36.743455],[2.9116322,36.7433118],[2.9115806,36.7432955],[2.9112632,36.7431949],[2.91104,36.7431261],[2.9107445,36.7430781],[2.910672,36.74307],[2.9099643,36.7429908],[2.9098218,36.7429749],[2.9079979,36.7427643],[2.9072291,36.7426515],[2.9068191,36.7426019]]}";2;"";2;60;false;false;true;false;false;false;346.5;0;0;0;0;0;false;BOUCHAOUI POLYCLINIQUE;5398805102;2.9150932;36.7448712;BOUCHAOUI MOSQUEE EN-NASR;5398805097;2.9096684;36.7430077;1;8;9;8001677;Bus: Chevalley -> Zéralda G.R;"";ETUSA;701;Chevalley;Zéralda G.R
559800434;"{\"type\":\"LineString\",\"coordinates\":[[2.9140235,36.7443968],[2.913128,36.7439675],[2.9123097,36.7435908],[2.9119917,36.743455],[2.9116322,36.7433118],[2.9115806,36.7432955],[2.9112632,36.7431949],[2.91104,36.7431261],[2.9107445,36.7430781],[2.910672,36.74307],[2.9099643,36.7429908],[2.9098218,36.7429749],[2.9079979,36.7427643],[2.9072291,36.7426515],[2.9068191,36.7426019]]}";1;"";2;60;false;false;true;false;false;false;346.5;0;0;0;0;0;false;BOUCHAOUI MOSQUEE EN-NASR;5398805097;2.9096684;36.7430077;CITE MAURIACE - STAOUELI -;5398805098;2.8937441;36.7502635;1;9;10;8001677;Bus: Chevalley -> Zéralda G.R;"";ETUSA;701;Chevalley;Zéralda G.R
28639146;"{\"type\":\"LineString\",\"coordinates\":[[2.9068191,36.7426019],[2.9065596,36.7428948],[2.9058409,36.7436791],[2.9043537,36.745302],[2.9034954,36.7462786],[2.9033334,36.7464294],[2.9031779,36.7465743],[2.9028345,36.746815],[2.9024655,36.746987],[2.902208,36.7470901],[2.9005232,36.7475303],[2.9002339,36.7476059],[2.8986833,36.7480323],[2.8976075,36.7483281],[2.8973164,36.7484273],[2.8968006,36.7486032],[2.8958222,36.7490158],[2.8954274,36.7492015],[2.8950239,36.7494491],[2.8948895,36.749547],[2.8945519,36.7497929],[2.8941914,36.750068],[2.8939682,36.7501643],[2.8937572,36.7502166]]}";2;"";1;50;false;false;true;false;false;false;1512.0;0;0;0;0;0;false;BOUCHAOUI MOSQUEE EN-NASR;5398805097;2.9096684;36.7430077;CITE MAURIACE - STAOUELI -;5398805098;2.8937441;36.7502635;0;9;10;8001677;Bus: Chevalley -> Zéralda G.R;"";ETUSA;701;Chevalley;Zéralda G.R
80915453;"{\"type\":\"LineString\",\"coordinates\":[[2.8937572,36.7502166],[2.8936077,36.7502537],[2.8933331,36.7503431],[2.8930498,36.7504807],[2.8925304,36.7508311],[2.8924164,36.7508941],[2.8922829,36.7509705],[2.8921627,36.7509974],[2.8920384,36.751007],[2.8916919,36.7509518],[2.8915248,36.750933],[2.891438,36.7509381],[2.8913541,36.7509569],[2.8912766,36.7509885],[2.8912083,36.7510318],[2.8911638,36.7510778],[2.8910898,36.7511965],[2.8910788,36.7512609],[2.8910884,36.7513987],[2.891132,36.7515215],[2.8912928,36.7518371],[2.8913556,36.7519548],[2.8913917,36.7520784],[2.8913907,36.7521697],[2.8913694,36.7522661],[2.8913206,36.75233],[2.8911616,36.7524338],[2.8906356,36.7526296],[2.8904699,36.75269],[2.8896817,36.7529513],[2.8895167,36.7529958]]}";3;Boulevard Gaci Ahmed El Madou Amar;1;50;false;false;true;false;false;false;298.5;0;0;0;0;0;false;BOUCHAOUI MOSQUEE EN-NASR;5398805097;2.9096684;36.7430077;CITE MAURIACE - STAOUELI -;5398805098;2.8937441;36.7502635;1;9;10;8001677;Bus: Chevalley -> Zéralda G.R;"";ETUSA;701;Chevalley;Zéralda G.R
80915453;"{\"type\":\"LineString\",\"coordinates\":[[2.8937572,36.7502166],[2.8936077,36.7502537],[2.8933331,36.7503431],[2.8930498,36.7504807],[2.8925304,36.7508311],[2.8924164,36.7508941],[2.8922829,36.7509705],[2.8921627,36.7509974],[2.8920384,36.751007],[2.8916919,36.7509518],[2.8915248,36.750933],[2.891438,36.7509381],[2.8913541,36.7509569],[2.8912766,36.7509885],[2.8912083,36.7510318],[2.8911638,36.7510778],[2.8910898,36.7511965],[2.8910788,36.7512609],[2.8910884,36.7513987],[2.891132,36.7515215],[2.8912928,36.7518371],[2.8913556,36.7519548],[2.8913917,36.7520784],[2.8913907,36.7521697],[2.8913694,36.7522661],[2.8913206,36.75233],[2.8911616,36.7524338],[2.8906356,36.7526296],[2.8904699,36.75269],[2.8896817,36.7529513],[2.8895167,36.7529958]]}";1;Boulevard Gaci Ahmed El Madou Amar;1;50;false;false;true;false;false;false;298.5;0;0;0;0;0;false;POLYCLINIQUE PHTISIOLOGIE;5398805095;2.8898301;36.7529396;RUE KACI AMEUR;4577894391;2.8868021;36.750607;1;12;13;8001677;Bus: Chevalley -> Zéralda G.R;"";ETUSA;701;Chevalley;Zéralda G.R
559800436;"{\"type\":\"LineString\",\"coordinates\":[[2.8895167,36.7529958],[2.8888512,36.7531236],[2.8882026,36.7532482]]}";2;Boulevard Gaci Ahmed El Madou Amar;1;50;false;false;true;false;false;false;123.0;0;0;0;0;0;false;POLYCLINIQUE PHTISIOLOGIE;5398805095;2.8898301;36.7529396;RUE KACI AMEUR;4577894391;2.8868021;36.750607;0;12;13;8001677;Bus: Chevalley -> Zéralda G.R;"";ETUSA;701;Chevalley;Zéralda G.R
217589564;"{\"type\":\"LineString\",\"coordinates\":[[2.8882026,36.7532482],[2.8880372,36.7526622],[2.8879125,36.752264],[2.8878121,36.7519878],[2.887694,36.7516092],[2.8875194,36.7512868],[2.8873689,36.7511121],[2.8869232,36.7505783],[2.8860701,36.7495372],[2.8854258,36.7487891],[2.8853309,36.7486721],[2.8850135,36.7482798],[2.8844623,36.7476362],[2.8842753,36.7474093],[2.8837643,36.7467845],[2.8828303,36.7456945],[2.8826279,36.745491],[2.8825085,36.7454075],[2.8824039,36.7453088],[2.8820695,36.7450325],[2.8801387,36.7438397],[2.8799485,36.7437268],[2.878543,36.7428875],[2.8772878,36.742138],[2.8771442,36.7420374],[2.8769337,36.7419274],[2.87686,36.7418656],[2.8767315,36.7417377],[2.8765888,36.7414884],[2.8764971,36.7411398],[2.8764595,36.7409524],[2.876418,36.7407945],[2.8763167,36.7401791]]}";3;Boulevard Khaiti Ahmed;1;50;false;false;true;false;false;false;939.5;0;0;0;0;0;false;POLYCLINIQUE PHTISIOLOGIE;5398805095;2.8898301;36.7529396;RUE KACI AMEUR;4577894391;2.8868021;36.750607;1;12;13;8001677;Bus: Chevalley -> Zéralda G.R;"";ETUSA;701;Chevalley;Zéralda G.R
217589564;"{\"type\":\"LineString\",\"coordinates\":[[2.8882026,36.7532482],[2.8880372,36.7526622],[2.8879125,36.752264],[2.8878121,36.7519878],[2.887694,36.7516092],[2.8875194,36.7512868],[2.8873689,36.7511121],[2.8869232,36.7505783],[2.8860701,36.7495372],[2.8854258,36.7487891],[2.8853309,36.7486721],[2.8850135,36.7482798],[2.8844623,36.7476362],[2.8842753,36.7474093],[2.8837643,36.7467845],[2.8828303,36.7456945],[2.8826279,36.745491],[2.8825085,36.7454075],[2.8824039,36.7453088],[2.8820695,36.7450325],[2.8801387,36.7438397],[2.8799485,36.7437268],[2.878543,36.7428875],[2.8772878,36.742138],[2.8771442,36.7420374],[2.8769337,36.7419274],[2.87686,36.7418656],[2.8767315,36.7417377],[2.8765888,36.7414884],[2.8764971,36.7411398],[2.8764595,36.7409524],[2.876418,36.7407945],[2.8763167,36.7401791]]}";1;Boulevard Khaiti Ahmed;1;50;false;false;true;false;false;false;939.5;0;0;0;0;0;false;Résidence El Baraka;5398805099;2.8763714;36.7410529;LA BRIDJA;5398805094;2.8716588;36.7418847;1;15;16;8001677;Bus: Chevalley -> Zéralda G.R;"";ETUSA;701;Chevalley;Zéralda G.R
458090419;"{\"type\":\"LineString\",\"coordinates\":[[2.862424,36.7371827],[2.8626658,36.7374173],[2.862992,36.7377061],[2.8634126,36.7380019],[2.8647601,36.7388273],[2.8658244,36.7395495],[2.8664565,36.7400363],[2.8665383,36.7401078],[2.8670966,36.7407151],[2.8672835,36.7409183],[2.8678802,36.7416617],[2.86801,36.7418242],[2.8681752,36.7419987],[2.868391,36.7422266],[2.8684766,36.7423331],[2.8687051,36.7425271],[2.8690318,36.7426814],[2.8692976,36.7427491],[2.8696149,36.7427712],[2.8699058,36.7427202],[2.8701623,36.7426362],[2.8702728,36.7425757],[2.8706935,36.7423495],[2.8714994,36.741908],[2.8717723,36.741762],[2.8723219,36.741468],[2.8733346,36.7409307],[2.8735406,36.7408388],[2.8738986,36.7406969],[2.8744874,36.7405178],[2.8754622,36.7403218],[2.8755501,36.7403036],[2.8757834,36.7402695],[2.8762603,36.7401825],[2.8763167,36.7401791]]}";2;"";1;50;false;false;true;false;false;false;802.0;0;0;0;0;0;false;Résidence El Baraka;5398805099;2.8763714;36.7410529;LA BRIDJA;5398805094;2.8716588;36.7418847;1;15;16;8001677;Bus: Chevalley -> Zéralda G.R;"";ETUSA;701;Chevalley;Zéralda G.R
458090419;"{\"type\":\"LineString\",\"coordinates\":[[2.862424,36.7371827],[2.8626658,36.7374173],[2.862992,36.7377061],[2.8634126,36.7380019],[2.8647601,36.7388273],[2.8658244,36.7395495],[2.8664565,36.7400363],[2.8665383,36.7401078],[2.8670966,36.7407151],[2.8672835,36.7409183],[2.8678802,36.7416617],[2.86801,36.7418242],[2.8681752,36.7419987],[2.868391,36.7422266],[2.8684766,36.7423331],[2.8687051,36.7425271],[2.8690318,36.7426814],[2.8692976,36.7427491],[2.8696149,36.7427712],[2.8699058,36.7427202],[2.8701623,36.7426362],[2.8702728,36.7425757],[2.8706935,36.7423495],[2.8714994,36.741908],[2.8717723,36.741762],[2.8723219,36.741468],[2.8733346,36.7409307],[2.8735406,36.7408388],[2.8738986,36.7406969],[2.8744874,36.7405178],[2.8754622,36.7403218],[2.8755501,36.7403036],[2.8757834,36.7402695],[2.8762603,36.7401825],[2.8763167,36.7401791]]}";1;"";1;50;false;false;true;false;false;false;802.0;0;0;0;0;0;false;DOMAINE HADJERI AHMED;5398805092;2.8662407;36.7399653;Azure Plage;5398805091;2.853983;36.7269602;1;18;19;8001677;Bus: Chevalley -> Zéralda G.R;"";ETUSA;701;Chevalley;Zéralda G.R
458090420;"{\"type\":\"LineString\",\"coordinates\":[[2.8622766,36.7370397],[2.862424,36.7371827]]}";2;"";1;50;false;false;true;false;false;false;21.0;0;0;0;0;0;false;DOMAINE HADJERI AHMED;5398805092;2.8662407;36.7399653;Azure Plage;5398805091;2.853983;36.7269602;0;18;19;8001677;Bus: Chevalley -> Zéralda G.R;"";ETUSA;701;Chevalley;Zéralda G.R
26301574;"{\"type\":\"LineString\",\"coordinates\":[[2.8498511,36.7194788],[2.8499458,36.7195691],[2.8501517,36.7197654],[2.8504006,36.7201507],[2.8510377,36.7210991],[2.8511216,36.7212239],[2.8513407,36.7215752],[2.8519198,36.7225036],[2.8520666,36.7227682],[2.8521945,36.7229989],[2.8522637,36.7231865],[2.8523061,36.7233016],[2.8522717,36.7235286],[2.8521001,36.7242923],[2.8519971,36.7247669],[2.8520142,36.7249596],[2.8520743,36.7251797],[2.8525979,36.7259158],[2.852891,36.7263035],[2.8529412,36.7263698],[2.8530871,36.7264799],[2.8534133,36.7266519],[2.853824,36.7268142],[2.8539653,36.72687],[2.8546492,36.7271403],[2.8573132,36.7281917],[2.8574731,36.7282548],[2.8577048,36.7283786],[2.8578593,36.7284886],[2.8580567,36.7286537],[2.8584258,36.7290046],[2.8587777,36.7293623],[2.8600394,36.7306005],[2.8608033,36.7313434],[2.8612067,36.7317562],[2.8612712,36.7318489],[2.8614556,36.7321139],[2.8614765,36.7321592],[2.8615414,36.7322996],[2.8616273,36.7326642],[2.8616337,36.7328487],[2.8616359,36.7329118],[2.8616273,36.7335171],[2.8615773,36.7344957],[2.8615243,36.7355326],[2.8615672,36.7360003],[2.861614,36.7361672],[2.8616444,36.7362754],[2.8617646,36.7365093],[2.8619792,36.7367363],[2.8621766,36.7369427],[2.8622766,36.7370397]]}";3;"";2;50;false;false;true;false;false;false;1229.5;0;0;0;0;0;false;DOMAINE HADJERI AHMED;5398805092;2.8662407;36.7399653;Azure Plage;5398805091;2.853983;36.7269602;1;18;19;8001677;Bus: Chevalley -> Zéralda G.R;"";ETUSA;701;Chevalley;Zéralda G.R
26301574;"{\"type\":\"LineString\",\"coordinates\":[[2.8498511,36.7194788],[2.8499458,36.7195691],[2.8501517,36.7197654],[2.8504006,36.7201507],[2.8510377,36.7210991],[2.8511216,36.7212239],[2.8513407,36.7215752],[2.8519198,36.7225036],[2.8520666,36.7227682],[2.8521945,36.7229989],[2.8522637,36.7231865],[2.8523061,36.7233016],[2.8522717,36.7235286],[2.8521001,36.7242923],[2.8519971,36.7247669],[2.8520142,36.7249596],[2.8520743,36.7251797],[2.8525979,36.7259158],[2.852891,36.7263035],[2.8529412,36.7263698],[2.8530871,36.7264799],[2.8534133,36.7266519],[2.853824,36.7268142],[2.8539653,36.72687],[2.8546492,36.7271403],[2.8573132,36.7281917],[2.8574731,36.7282548],[2.8577048,36.7283786],[2.8578593,36.7284886],[2.8580567,36.7286537],[2.8584258,36.7290046],[2.8587777,36.7293623],[2.8600394,36.7306005],[2.8608033,36.7313434],[2.8612067,36.7317562],[2.8612712,36.7318489],[2.8614556,36.7321139],[2.8614765,36.7321592],[2.8615414,36.7322996],[2.8616273,36.7326642],[2.8616337,36.7328487],[2.8616359,36.7329118],[2.8616273,36.7335171],[2.8615773,36.7344957],[2.8615243,36.7355326],[2.8615672,36.7360003],[2.861614,36.7361672],[2.8616444,36.7362754],[2.8617646,36.7365093],[2.8619792,36.7367363],[2.8621766,36.7369427],[2.8622766,36.7370397]]}";1;"";2;50;false;false;true;false;false;false;1229.5;0;0;0;0;0;false;Azure Plage;5398805091;2.853983;36.7269602;Zéralda Protection Civile;5398805090;2.8496727;36.719412;1;19;20;8001677;Bus: Chevalley -> Zéralda G.R;"";ETUSA;701;Chevalley;Zéralda G.R
26302305;"{\"type\":\"LineString\",\"coordinates\":[[2.8498511,36.7194788],[2.849638,36.719282],[2.8494963,36.7191819],[2.84932,36.7191238],[2.8490108,36.7191343]]}";2;"";1;50;false;true;true;false;false;false;46.0;0;0;0;0;0;false;Azure Plage;5398805091;2.853983;36.7269602;Zéralda Protection Civile;5398805090;2.8496727;36.719412;1;19;20;8001677;Bus: Chevalley -> Zéralda G.R;"";ETUSA;701;Chevalley;Zéralda G.R
26301574;"{\"type\":\"LineString\",\"coordinates\":[[2.8498511,36.7194788],[2.8499458,36.7195691],[2.8501517,36.7197654],[2.8504006,36.7201507],[2.8510377,36.7210991],[2.8511216,36.7212239],[2.8513407,36.7215752],[2.8519198,36.7225036],[2.8520666,36.7227682],[2.8521945,36.7229989],[2.8522637,36.7231865],[2.8523061,36.7233016],[2.8522717,36.7235286],[2.8521001,36.7242923],[2.8519971,36.7247669],[2.8520142,36.7249596],[2.8520743,36.7251797],[2.8525979,36.7259158],[2.852891,36.7263035],[2.8529412,36.7263698],[2.8530871,36.7264799],[2.8534133,36.7266519],[2.853824,36.7268142],[2.8539653,36.72687],[2.8546492,36.7271403],[2.8573132,36.7281917],[2.8574731,36.7282548],[2.8577048,36.7283786],[2.8578593,36.7284886],[2.8580567,36.7286537],[2.8584258,36.7290046],[2.8587777,36.7293623],[2.8600394,36.7306005],[2.8608033,36.7313434],[2.8612067,36.7317562],[2.8612712,36.7318489],[2.8614556,36.7321139],[2.8614765,36.7321592],[2.8615414,36.7322996],[2.8616273,36.7326642],[2.8616337,36.7328487],[2.8616359,36.7329118],[2.8616273,36.7335171],[2.8615773,36.7344957],[2.8615243,36.7355326],[2.8615672,36.7360003],[2.861614,36.7361672],[2.8616444,36.7362754],[2.8617646,36.7365093],[2.8619792,36.7367363],[2.8621766,36.7369427],[2.8622766,36.7370397]]}";1;"";2;50;false;false;true;false;false;false;2459.0;0;0;0;0;0;false;Zéralda Protection Civile;5398805090;2.8496727;36.719412;COMPLEXE TOURISTIQUE;5398805089;2.8415215;36.7194271;2;20;21;8001677;Bus: Chevalley -> Zéralda G.R;"";ETUSA;701;Chevalley;Zéralda G.R
26302305;"{\"type\":\"LineString\",\"coordinates\":[[2.8498511,36.7194788],[2.849638,36.719282],[2.8494963,36.7191819],[2.84932,36.7191238],[2.8490108,36.7191343]]}";2;"";1;50;false;true;true;false;false;false;92.0;0;0;0;0;0;false;Zéralda Protection Civile;5398805090;2.8496727;36.719412;COMPLEXE TOURISTIQUE;5398805089;2.8415215;36.7194271;0;20;21;8001677;Bus: Chevalley -> Zéralda G.R;"";ETUSA;701;Chevalley;Zéralda G.R
26302300;"{\"type\":\"LineString\",\"coordinates\":[[2.8491833,36.718942],[2.8491775,36.7189927],[2.8491553,36.7190403],[2.8491182,36.7190816],[2.8490689,36.7191137],[2.8490108,36.7191343],[2.8489833,36.7191393],[2.8488991,36.7191385],[2.8488204,36.7191144],[2.8487569,36.71907],[2.8487166,36.7190107],[2.8487044,36.7189439],[2.8487118,36.7189019],[2.8487306,36.7188622],[2.8487733,36.7188149],[2.8488317,36.7187801],[2.8489005,36.7187609],[2.8489733,36.7187592],[2.8490433,36.718775],[2.8491042,36.7188071],[2.8491454,36.7188458],[2.8491724,36.7188919],[2.8491833,36.718942]]}";3;"";1;50;false;false;true;false;false;false;136.0;0;0;0;0;0;true;Zéralda Protection Civile;5398805090;2.8496727;36.719412;COMPLEXE TOURISTIQUE;5398805089;2.8415215;36.7194271;0;20;21;8001677;Bus: Chevalley -> Zéralda G.R;"";ETUSA;701;Chevalley;Zéralda G.R
35826201;"{\"type\":\"LineString\",\"coordinates\":[[2.8489833,36.7191393],[2.8486764,36.719263],[2.8485157,36.7193388],[2.8483276,36.7194991]]}";4;"";1;50;false;true;true;false;false;false;73.0;0;0;0;0;0;false;Zéralda Protection Civile;5398805090;2.8496727;36.719412;COMPLEXE TOURISTIQUE;5398805089;2.8415215;36.7194271;0;20;21;8001677;Bus: Chevalley -> Zéralda G.R;"";ETUSA;701;Chevalley;Zéralda G.R
152426181;"{\"type\":\"LineString\",\"coordinates\":[[2.8483276,36.7194991],[2.8482238,36.7196347],[2.8478982,36.7200967],[2.8475939,36.7205284],[2.8471424,36.7211689],[2.8467765,36.7215909],[2.8465865,36.7217493],[2.8464986,36.7218225],[2.846121,36.7220013],[2.8456567,36.7220466],[2.845041,36.7218483],[2.8440687,36.7211438],[2.8420965,36.7197148]]}";5;"";1;50;false;false;true;false;false;false;811.0;0;0;0;0;0;false;Zéralda Protection Civile;5398805090;2.8496727;36.719412;COMPLEXE TOURISTIQUE;5398805089;2.8415215;36.7194271;0;20;21;8001677;Bus: Chevalley -> Zéralda G.R;"";ETUSA;701;Chevalley;Zéralda G.R
35826199;"{\"type\":\"LineString\",\"coordinates\":[[2.8420965,36.7197148],[2.8419987,36.7196511]]}";6;"";1;50;false;true;true;false;false;false;12.0;0;0;0;0;0;false;Zéralda Protection Civile;5398805090;2.8496727;36.719412;COMPLEXE TOURISTIQUE;5398805089;2.8415215;36.7194271;0;20;21;8001677;Bus: Chevalley -> Zéralda G.R;"";ETUSA;701;Chevalley;Zéralda G.R
559800442;"{\"type\":\"LineString\",\"coordinates\":[[2.8419987,36.7196511],[2.8414526,36.7193229]]}";7;"";1;50;false;true;true;false;false;false;62.0;0;0;0;0;0;false;Zéralda Protection Civile;5398805090;2.8496727;36.719412;COMPLEXE TOURISTIQUE;5398805089;2.8415215;36.7194271;1;20;21;8001677;Bus: Chevalley -> Zéralda G.R;"";ETUSA;701;Chevalley;Zéralda G.R
