way_id;shape;index;name;nb_lanes;legal_speed;speed_zone_30;oneway;shares_bike;bike_box;bus_lane;dedicated_bus_lane;length;nb_traffic_signals;nb_crossings;nb_stops;nb_give_ways;nb_lvl_crossings;roundabout;stop_id_orig;node_id_orig;coord_x_orig;coord_y_orig;stop_id_dest;node_id_dest;coord_x_dest;coord_y_dest;nb_neighbouring_ways_bus_stop;ordre_orig;ordre_dest;id_line;line_name;colour;operator;ref;from;to
680430226;"{\"type\":\"LineString\",\"coordinates\":[[-73.6531659,45.6981074],[-73.6531964,45.6981594],[-73.6533077,45.6981896],[-73.653539,45.6981751],[-73.6536637,45.6981433]]}";1;BUS;1;50;false;true;true;false;true;false;44.0;0;0;0;0;0;false;84875;6129482927;-73.652978;45.698038;84937;6129482275;-73.651489;45.692318;1;0;1;9450081;Bus 30 : TERMINUS RADISSON;"";EXO;30 S;Terminus Terrebonne;Terminus Radisson
35166455;"{\"type\":\"LineString\",\"coordinates\":[[-73.6536637,45.6981433],[-73.6539232,45.6982282],[-73.6540021,45.6982737],[-73.6540425,45.6983527],[-73.6540523,45.6991653],[-73.6540265,45.6992256],[-73.6539971,45.6992683]]}";2;BUS;1;50;false;true;true;false;true;false;143.0;0;2;0;0;0;false;84875;6129482927;-73.652978;45.698038;84937;6129482275;-73.651489;45.692318;0;0;1;9450081;Bus 30 : TERMINUS RADISSON;"";EXO;30 S;Terminus Terrebonne;Terminus Radisson
418196801;"{\"type\":\"LineString\",\"coordinates\":[[-73.6539971,45.6992683],[-73.6539265,45.6993452],[-73.6538596,45.6993765],[-73.6537747,45.6994001],[-73.6536572,45.699406],[-73.6533938,45.6993988],[-73.6530277,45.6993438],[-73.6527703,45.6992836],[-73.6525308,45.6991684],[-73.6522777,45.6989982],[-73.6521336,45.6988856],[-73.6520146,45.6987592],[-73.6519546,45.6986467],[-73.6516615,45.6977674]]}";3;"";1;50;false;true;true;false;true;false;301.0;0;1;0;0;0;false;84875;6129482927;-73.652978;45.698038;84937;6129482275;-73.651489;45.692318;0;0;1;9450081;Bus 30 : TERMINUS RADISSON;"";EXO;30 S;Terminus Terrebonne;Terminus Radisson
680430225;"{\"type\":\"LineString\",\"coordinates\":[[-73.6516615,45.6977674],[-73.6515704,45.6971362]]}";4;Autoroute 25;3;100;false;true;true;false;false;false;71.0;0;0;0;0;0;false;84875;6129482927;-73.652978;45.698038;84937;6129482275;-73.651489;45.692318;0;0;1;9450081;Bus 30 : TERMINUS RADISSON;"";EXO;30 S;Terminus Terrebonne;Terminus Radisson
138383579;"{\"type\":\"LineString\",\"coordinates\":[[-73.6515704,45.6971362],[-73.6513221,45.6953678]]}";5;Autoroute 25;3;100;false;true;true;false;false;false;198.0;0;0;0;0;0;false;84875;6129482927;-73.652978;45.698038;84937;6129482275;-73.651489;45.692318;0;0;1;9450081;Bus 30 : TERMINUS RADISSON;"";EXO;30 S;Terminus Terrebonne;Terminus Radisson
680430224;"{\"type\":\"LineString\",\"coordinates\":[[-73.6513221,45.6953678],[-73.6511974,45.6944919],[-73.6511842,45.6943932]]}";6;Autoroute 25;1;100;false;true;true;false;false;false;109.0;0;0;0;0;0;false;84875;6129482927;-73.652978;45.698038;84937;6129482275;-73.651489;45.692318;0;0;1;9450081;Bus 30 : TERMINUS RADISSON;"";EXO;30 S;Terminus Terrebonne;Terminus Radisson
229470938;"{\"type\":\"LineString\",\"coordinates\":[[-73.6511842,45.6943932],[-73.6512374,45.6943347],[-73.6512332,45.6942513],[-73.651221,45.6940931],[-73.6512135,45.6939368],[-73.6512122,45.6937803],[-73.6512053,45.6936348],[-73.6512009,45.6934795],[-73.6511959,45.693337],[-73.6511985,45.6931943],[-73.6512151,45.6930555],[-73.6512463,45.6929291],[-73.6512902,45.6928086],[-73.6513329,45.6927171]]}";7;"";1;50;false;true;true;false;false;false;189.0;0;0;0;0;0;false;84875;6129482927;-73.652978;45.698038;84937;6129482275;-73.651489;45.692318;0;0;1;9450081;Bus 30 : TERMINUS RADISSON;"";EXO;30 S;Terminus Terrebonne;Terminus Radisson
98502631;"{\"type\":\"LineString\",\"coordinates\":[[-73.6513329,45.6927171],[-73.6513592,45.6926755],[-73.6513931,45.6926122],[-73.6514092,45.6925548],[-73.6514087,45.6925023],[-73.6514,45.692419],[-73.6513853,45.6923369],[-73.6513695,45.6922634],[-73.6513614,45.6922276],[-73.6513565,45.692206],[-73.6513402,45.6921218],[-73.6513189,45.6920786]]}";8;"";1;50;false;true;true;false;false;false;36.5;0;0;0;0;0;false;84875;6129482927;-73.652978;45.698038;84937;6129482275;-73.651489;45.692318;1;0;1;9450081;Bus 30 : TERMINUS RADISSON;"";EXO;30 S;Terminus Terrebonne;Terminus Radisson
98502631;"{\"type\":\"LineString\",\"coordinates\":[[-73.6513329,45.6927171],[-73.6513592,45.6926755],[-73.6513931,45.6926122],[-73.6514092,45.6925548],[-73.6514087,45.6925023],[-73.6514,45.692419],[-73.6513853,45.6923369],[-73.6513695,45.6922634],[-73.6513614,45.6922276],[-73.6513565,45.692206],[-73.6513402,45.6921218],[-73.6513189,45.6920786]]}";1;"";1;50;false;true;true;false;false;false;36.5;0;0;0;0;0;false;84937;6129482275;-73.651489;45.692318;84025;6129485053;-73.612055;45.629497;1;1;2;9450081;Bus 30 : TERMINUS RADISSON;"";EXO;30 S;Terminus Terrebonne;Terminus Radisson
98502645;"{\"type\":\"LineString\",\"coordinates\":[[-73.6513189,45.6920786],[-73.6512757,45.6920297],[-73.6512134,45.6919674],[-73.6511415,45.6919002],[-73.6510796,45.6918207],[-73.6510215,45.6917315],[-73.650976,45.6916237],[-73.6509376,45.6915092],[-73.6509,45.6913817],[-73.650865,45.691251],[-73.6508329,45.6911138],[-73.6507971,45.6909682],[-73.6507655,45.6908191],[-73.6507321,45.6906648],[-73.6506999,45.6905039],[-73.6506673,45.6903389],[-73.6506407,45.6901714],[-73.6506184,45.6899995],[-73.6505941,45.6898235],[-73.6503925,45.6890517]]}";2;"";1;50;false;true;true;false;false;false;347.0;0;0;0;0;0;false;84937;6129482275;-73.651489;45.692318;84025;6129485053;-73.612055;45.629497;0;1;2;9450081;Bus 30 : TERMINUS RADISSON;"";EXO;30 S;Terminus Terrebonne;Terminus Radisson
32823779;"{\"type\":\"LineString\",\"coordinates\":[[-73.6503925,45.6890517],[-73.6501554,45.6874793]]}";3;Pont Lepage;3;100;false;true;true;false;false;false;176.0;0;0;0;0;0;false;84937;6129482275;-73.651489;45.692318;84025;6129485053;-73.612055;45.629497;0;1;2;9450081;Bus 30 : TERMINUS RADISSON;"";EXO;30 S;Terminus Terrebonne;Terminus Radisson
32823758;"{\"type\":\"LineString\",\"coordinates\":[[-73.6501554,45.6874793],[-73.6499968,45.6860162],[-73.6498872,45.6848262],[-73.6498256,45.6831634],[-73.6498443,45.6820446],[-73.6499087,45.6804589],[-73.650018,45.678276],[-73.6502792,45.6715778],[-73.6503594,45.6695225],[-73.650274,45.668142],[-73.649995,45.666687],[-73.649543,45.6649263],[-73.6489878,45.6632668]]}";4;Autoroute 25;3;100;false;true;true;false;false;false;2700.0;0;0;0;0;0;false;84937;6129482275;-73.651489;45.692318;84025;6129485053;-73.612055;45.629497;0;1;2;9450081;Bus 30 : TERMINUS RADISSON;"";EXO;30 S;Terminus Terrebonne;Terminus Radisson
680923351;"{\"type\":\"LineString\",\"coordinates\":[[-73.6489878,45.6632668],[-73.647485,45.6579068]]}";5;Autoroute Jean-Noël-Lavoie;2;100;false;true;true;false;false;false;607.0;0;0;0;0;0;false;84937;6129482275;-73.651489;45.692318;84025;6129485053;-73.612055;45.629497;0;1;2;9450081;Bus 30 : TERMINUS RADISSON;"";EXO;30 S;Terminus Terrebonne;Terminus Radisson
32823788;"{\"type\":\"LineString\",\"coordinates\":[[-73.647485,45.6579068],[-73.6474474,45.6575142],[-73.6472044,45.6564837],[-73.6471687,45.6561769],[-73.647147,45.6559342],[-73.6471364,45.6557215],[-73.6471971,45.655479],[-73.6472856,45.6552541],[-73.6475925,45.6545423],[-73.6476393,45.6543099],[-73.6476226,45.6541413],[-73.6475613,45.6539983],[-73.6470723,45.6528731],[-73.6469346,45.6527442]]}";6;"";1;50;false;true;true;false;false;false;591.0;0;0;1;0;0;false;84937;6129482275;-73.651489;45.692318;84025;6129485053;-73.612055;45.629497;0;1;2;9450081;Bus 30 : TERMINUS RADISSON;"";EXO;30 S;Terminus Terrebonne;Terminus Radisson
125249332;"{\"type\":\"LineString\",\"coordinates\":[[-73.6469346,45.6527442],[-73.6467204,45.6527315],[-73.6457795,45.6528259],[-73.6452268,45.6528797],[-73.6448679,45.6528851],[-73.6439878,45.6528413],[-73.6437171,45.6528327],[-73.6435436,45.6528632]]}";7;Avenue Marcel-Villeneuve;1;50;false;true;true;false;false;false;266.0;2;0;1;0;0;false;84937;6129482275;-73.651489;45.692318;84025;6129485053;-73.612055;45.629497;0;1;2;9450081;Bus 30 : TERMINUS RADISSON;"";EXO;30 S;Terminus Terrebonne;Terminus Radisson
354712240;"{\"type\":\"LineString\",\"coordinates\":[[-73.6435436,45.6528632],[-73.642252,45.6527853],[-73.6416727,45.6527424],[-73.6413346,45.6527065],[-73.6410924,45.6526747],[-73.6407395,45.6526174],[-73.6403886,45.6525455],[-73.640093,45.6524791],[-73.6398577,45.652419],[-73.6395167,45.6523202],[-73.6392557,45.6522387],[-73.6389957,45.6521481],[-73.6387485,45.6520521],[-73.6384826,45.6519457],[-73.6382048,45.6518254],[-73.6376393,45.6515684],[-73.6370857,45.6513065],[-73.6367279,45.6511261],[-73.6362267,45.6508601],[-73.6357304,45.6505885],[-73.6352826,45.65033],[-73.6347982,45.6500232],[-73.6343474,45.649726],[-73.6340311,45.6495084],[-73.6336356,45.6492223],[-73.6332669,45.6489375],[-73.6328794,45.6486404],[-73.6325383,45.6483557],[-73.6323198,45.6481649],[-73.6315254,45.6475977]]}";8;"";1;50;false;true;true;false;true;false;1142.0;1;0;0;0;0;false;84937;6129482275;-73.651489;45.692318;84025;6129485053;-73.612055;45.629497;0;1;2;9450081;Bus 30 : TERMINUS RADISSON;"";EXO;30 S;Terminus Terrebonne;Terminus Radisson
119082382;"{\"type\":\"LineString\",\"coordinates\":[[-73.6315254,45.6475977],[-73.6313778,45.6474712],[-73.6312147,45.6473368],[-73.6300888,45.6464091],[-73.6292356,45.64569],[-73.6282091,45.6448104]]}";9;Autoroute 25;2;100;false;true;true;false;false;false;404.0;0;0;0;0;0;false;84937;6129482275;-73.651489;45.692318;84025;6129485053;-73.612055;45.629497;0;1;2;9450081;Bus 30 : TERMINUS RADISSON;"";EXO;30 S;Terminus Terrebonne;Terminus Radisson
230335458;"{\"type\":\"LineString\",\"coordinates\":[[-73.6282091,45.6448104],[-73.626983,45.6437534],[-73.6258487,45.6427699],[-73.6248731,45.6419225],[-73.6235799,45.640614]]}";10;Autoroute 25;2;100;false;true;true;false;false;false;590.0;0;0;0;0;0;false;84937;6129482275;-73.651489;45.692318;84025;6129485053;-73.612055;45.629497;0;1;2;9450081;Bus 30 : TERMINUS RADISSON;"";EXO;30 S;Terminus Terrebonne;Terminus Radisson
39695627;"{\"type\":\"LineString\",\"coordinates\":[[-73.6235799,45.640614],[-73.6144365,45.6320348],[-73.6144352,45.6320336]]}";11;Pont Olivier-Charbonneau;3;100;false;true;true;false;false;false;1190.0;0;0;0;0;0;false;84937;6129482275;-73.651489;45.692318;84025;6129485053;-73.612055;45.629497;0;1;2;9450081;Bus 30 : TERMINUS RADISSON;"";EXO;30 S;Terminus Terrebonne;Terminus Radisson
116591817;"{\"type\":\"LineString\",\"coordinates\":[[-73.6144352,45.6320336],[-73.6137852,45.6314006],[-73.6135098,45.6310985],[-73.613201,45.630747],[-73.6127274,45.6301399],[-73.6125969,45.6300053],[-73.6120852,45.6294903]]}";12;"";1;50;false;true;true;false;false;false;337.0;1;0;0;0;0;false;84937;6129482275;-73.651489;45.692318;84025;6129485053;-73.612055;45.629497;0;1;2;9450081;Bus 30 : TERMINUS RADISSON;"";EXO;30 S;Terminus Terrebonne;Terminus Radisson
459833707;"{\"type\":\"LineString\",\"coordinates\":[[-73.6120852,45.6294903],[-73.611941,45.6293584]]}";13;Boulevard Louis-H.-Lafontaine;2;50;false;true;true;false;false;false;9.5;2;0;0;0;0;false;84937;6129482275;-73.651489;45.692318;84025;6129485053;-73.612055;45.629497;1;1;2;9450081;Bus 30 : TERMINUS RADISSON;"";EXO;30 S;Terminus Terrebonne;Terminus Radisson
116591817;"{\"type\":\"LineString\",\"coordinates\":[[-73.6144352,45.6320336],[-73.6137852,45.6314006],[-73.6135098,45.6310985],[-73.613201,45.630747],[-73.6127274,45.6301399],[-73.6125969,45.6300053],[-73.6120852,45.6294903]]}";1;"";1;50;false;true;true;false;false;false;337.0;1;0;0;0;0;false;84025;6129485053;-73.612055;45.629497;84027;6129485051;-73.604654;45.622522;2;2;3;9450081;Bus 30 : TERMINUS RADISSON;"";EXO;30 S;Terminus Terrebonne;Terminus Radisson
459833707;"{\"type\":\"LineString\",\"coordinates\":[[-73.6120852,45.6294903],[-73.611941,45.6293584]]}";2;Boulevard Louis-H.-Lafontaine;2;50;false;true;true;false;false;false;19.0;2;0;0;0;0;false;84025;6129485053;-73.612055;45.629497;84027;6129485051;-73.604654;45.622522;0;2;3;9450081;Bus 30 : TERMINUS RADISSON;"";EXO;30 S;Terminus Terrebonne;Terminus Radisson
471419152;"{\"type\":\"LineString\",\"coordinates\":[[-73.611941,45.6293584],[-73.6102116,45.6276382],[-73.6084245,45.6259713],[-73.6063353,45.6239994],[-73.6048076,45.6225642],[-73.6047452,45.6225056]]}";3;Boulevard Louis-H.-La Fontaine;2;50;false;true;true;false;false;false;946.0;2;0;0;0;0;false;84025;6129485053;-73.612055;45.629497;84027;6129485051;-73.604654;45.622522;0;2;3;9450081;Bus 30 : TERMINUS RADISSON;"";EXO;30 S;Terminus Terrebonne;Terminus Radisson
471419149;"{\"type\":\"LineString\",\"coordinates\":[[-73.6047452,45.6225056],[-73.6045685,45.6223529]]}";4;Boulevard Louis-H.-La Fontaine;2;50;false;true;true;false;false;false;22.0;2;0;0;0;0;false;84025;6129485053;-73.612055;45.629497;84027;6129485051;-73.604654;45.622522;2;2;3;9450081;Bus 30 : TERMINUS RADISSON;"";EXO;30 S;Terminus Terrebonne;Terminus Radisson
471419152;"{\"type\":\"LineString\",\"coordinates\":[[-73.611941,45.6293584],[-73.6102116,45.6276382],[-73.6084245,45.6259713],[-73.6063353,45.6239994],[-73.6048076,45.6225642],[-73.6047452,45.6225056]]}";1;Boulevard Louis-H.-La Fontaine;2;50;false;true;true;false;false;false;946.0;2;0;0;0;0;false;84027;6129485051;-73.604654;45.622522;84023;6129485055;-73.5886;45.612931;2;3;4;9450081;Bus 30 : TERMINUS RADISSON;"";EXO;30 S;Terminus Terrebonne;Terminus Radisson
471419149;"{\"type\":\"LineString\",\"coordinates\":[[-73.6047452,45.6225056],[-73.6045685,45.6223529]]}";2;Boulevard Louis-H.-La Fontaine;2;50;false;true;true;false;false;false;22.0;2;0;0;0;0;false;84027;6129485051;-73.604654;45.622522;84023;6129485055;-73.5886;45.612931;0;3;4;9450081;Bus 30 : TERMINUS RADISSON;"";EXO;30 S;Terminus Terrebonne;Terminus Radisson
151088879;"{\"type\":\"LineString\",\"coordinates\":[[-73.6045685,45.6223529],[-73.6035002,45.621474],[-73.6012827,45.6193017],[-73.6001804,45.6182788],[-73.5996966,45.6178308],[-73.5994116,45.6175696],[-73.5991686,45.6173719],[-73.598919,45.6171834],[-73.5986738,45.6170119],[-73.5984396,45.6168527],[-73.5980553,45.6166009],[-73.5976797,45.6163675],[-73.5969794,45.6159952],[-73.5962438,45.6156521],[-73.5958725,45.6155443],[-73.5950032,45.6152186],[-73.5944281,45.6150262],[-73.5935917,45.6147501],[-73.5921395,45.614246],[-73.5914569,45.6140119],[-73.5907304,45.6137815],[-73.5902715,45.6135793],[-73.5884623,45.6129844],[-73.5856899,45.6120866],[-73.5840562,45.6115556],[-73.5830592,45.6112155]]}";3;Boulevard Louis-H.-La Fontaine;2;50;false;true;true;false;false;false;2134.0;2;0;0;0;0;false;84027;6129485051;-73.604654;45.622522;84023;6129485055;-73.5886;45.612931;2;3;4;9450081;Bus 30 : TERMINUS RADISSON;"";EXO;30 S;Terminus Terrebonne;Terminus Radisson
151088879;"{\"type\":\"LineString\",\"coordinates\":[[-73.6045685,45.6223529],[-73.6035002,45.621474],[-73.6012827,45.6193017],[-73.6001804,45.6182788],[-73.5996966,45.6178308],[-73.5994116,45.6175696],[-73.5991686,45.6173719],[-73.598919,45.6171834],[-73.5986738,45.6170119],[-73.5984396,45.6168527],[-73.5980553,45.6166009],[-73.5976797,45.6163675],[-73.5969794,45.6159952],[-73.5962438,45.6156521],[-73.5958725,45.6155443],[-73.5950032,45.6152186],[-73.5944281,45.6150262],[-73.5935917,45.6147501],[-73.5921395,45.614246],[-73.5914569,45.6140119],[-73.5907304,45.6137815],[-73.5902715,45.6135793],[-73.5884623,45.6129844],[-73.5856899,45.6120866],[-73.5840562,45.6115556],[-73.5830592,45.6112155]]}";1;Boulevard Louis-H.-La Fontaine;2;50;false;true;true;false;false;false;1067.0;2;0;0;0;0;false;84023;6129485055;-73.5886;45.612931;85078;692318999;-73.539382;45.589483;1;4;5;9450081;Bus 30 : TERMINUS RADISSON;"";EXO;30 S;Terminus Terrebonne;Terminus Radisson
695763681;"{\"type\":\"LineString\",\"coordinates\":[[-73.5830592,45.6112155],[-73.5817576,45.6107977],[-73.5815456,45.6107328],[-73.5802308,45.6103213],[-73.5792126,45.6100003]]}";2;Boulevard Louis-H.-La Fontaine;2;50;false;true;true;false;false;false;329.0;0;0;0;0;0;false;84023;6129485055;-73.5886;45.612931;85078;692318999;-73.539382;45.589483;0;4;5;9450081;Bus 30 : TERMINUS RADISSON;"";EXO;30 S;Terminus Terrebonne;Terminus Radisson
46686639;"{\"type\":\"LineString\",\"coordinates\":[[-73.5792126,45.6100003],[-73.5782949,45.6097729],[-73.5757957,45.609086],[-73.5752862,45.6089717]]}";3;"";1;50;false;true;true;false;false;false;327.0;0;0;0;0;0;false;84023;6129485055;-73.5886;45.612931;85078;692318999;-73.539382;45.589483;0;4;5;9450081;Bus 30 : TERMINUS RADISSON;"";EXO;30 S;Terminus Terrebonne;Terminus Radisson
230337576;"{\"type\":\"LineString\",\"coordinates\":[[-73.5752862,45.6089717],[-73.5744156,45.6086547],[-73.5731052,45.6081305],[-73.571448,45.6073961],[-73.570931,45.6071395],[-73.5701205,45.6065977]]}";4;Autoroute 25;3;70;false;true;true;false;false;false;484.0;0;0;0;0;0;false;84023;6129485055;-73.5886;45.612931;85078;692318999;-73.539382;45.589483;0;4;5;9450081;Bus 30 : TERMINUS RADISSON;"";EXO;30 S;Terminus Terrebonne;Terminus Radisson
222709179;"{\"type\":\"LineString\",\"coordinates\":[[-73.5701205,45.6065977],[-73.5697745,45.6063988],[-73.5694794,45.6061511]]}";5;Autoroute 25;3;70;false;true;true;false;false;false;71.0;0;0;0;0;0;false;84023;6129485055;-73.5886;45.612931;85078;692318999;-73.539382;45.589483;0;4;5;9450081;Bus 30 : TERMINUS RADISSON;"";EXO;30 S;Terminus Terrebonne;Terminus Radisson
40493512;"{\"type\":\"LineString\",\"coordinates\":[[-73.5694794,45.6061511],[-73.5687338,45.6054643]]}";6;Autoroute 25;3;70;false;true;true;false;false;false;96.0;0;0;0;0;0;false;84023;6129485055;-73.5886;45.612931;85078;692318999;-73.539382;45.589483;0;4;5;9450081;Bus 30 : TERMINUS RADISSON;"";EXO;30 S;Terminus Terrebonne;Terminus Radisson
222709180;"{\"type\":\"LineString\",\"coordinates\":[[-73.5687338,45.6054643],[-73.5684709,45.605196],[-73.568133,45.6049201],[-73.5676743,45.6045917],[-73.567221,45.604329]]}";7;Autoroute 25;2;70;false;true;true;false;false;false;174.0;0;0;0;0;0;false;84023;6129485055;-73.5886;45.612931;85078;692318999;-73.539382;45.589483;0;4;5;9450081;Bus 30 : TERMINUS RADISSON;"";EXO;30 S;Terminus Terrebonne;Terminus Radisson
50326558;"{\"type\":\"LineString\",\"coordinates\":[[-73.567221,45.604329],[-73.5669125,45.6041845],[-73.5665746,45.6040494],[-73.5662366,45.6039481],[-73.5659389,45.6038637]]}";8;Autoroute 25;1;70;false;true;true;false;false;false;113.0;0;0;0;0;0;false;84023;6129485055;-73.5886;45.612931;85078;692318999;-73.539382;45.589483;0;4;5;9450081;Bus 30 : TERMINUS RADISSON;"";EXO;30 S;Terminus Terrebonne;Terminus Radisson
50326557;"{\"type\":\"LineString\",\"coordinates\":[[-73.5659389,45.6038637],[-73.5648875,45.6035934],[-73.5637027,45.6032954],[-73.5631945,45.6031412]]}";9;Autoroute 25;1;70;false;true;true;false;false;false;229.0;0;0;0;0;0;false;84023;6129485055;-73.5886;45.612931;85078;692318999;-73.539382;45.589483;0;4;5;9450081;Bus 30 : TERMINUS RADISSON;"";EXO;30 S;Terminus Terrebonne;Terminus Radisson
37691771;"{\"type\":\"LineString\",\"coordinates\":[[-73.5631945,45.6031412],[-73.5626169,45.6029676],[-73.5617878,45.6026686],[-73.5607248,45.6022524]]}";10;Autoroute 25;2;70;false;true;true;false;false;false;217.0;0;0;0;0;0;false;84023;6129485055;-73.5886;45.612931;85078;692318999;-73.539382;45.589483;0;4;5;9450081;Bus 30 : TERMINUS RADISSON;"";EXO;30 S;Terminus Terrebonne;Terminus Radisson
680923346;"{\"type\":\"LineString\",\"coordinates\":[[-73.5607248,45.6022524],[-73.5569509,45.6006172]]}";11;Autoroute Transcanadienne;3;70;false;true;true;false;false;false;346.0;0;0;0;0;0;false;84023;6129485055;-73.5886;45.612931;85078;692318999;-73.539382;45.589483;0;4;5;9450081;Bus 30 : TERMINUS RADISSON;"";EXO;30 S;Terminus Terrebonne;Terminus Radisson
46688904;"{\"type\":\"LineString\",\"coordinates\":[[-73.5569509,45.6006172],[-73.5562952,45.6002536],[-73.5554273,45.5998278],[-73.5539114,45.599035]]}";12;"";1;50;false;true;true;false;false;false;296.0;0;0;0;0;0;false;84023;6129485055;-73.5886;45.612931;85078;692318999;-73.539382;45.589483;0;4;5;9450081;Bus 30 : TERMINUS RADISSON;"";EXO;30 S;Terminus Terrebonne;Terminus Radisson
680923345;"{\"type\":\"LineString\",\"coordinates\":[[-73.5539114,45.599035],[-73.5533667,45.5987898],[-73.5531839,45.5987065]]}";13;Boulevard Louis-H.-La Fontaine;3;50;false;true;true;false;false;false;68.0;0;0;0;0;0;false;84023;6129485055;-73.5886;45.612931;85078;692318999;-73.539382;45.589483;0;4;5;9450081;Bus 30 : TERMINUS RADISSON;"";EXO;30 S;Terminus Terrebonne;Terminus Radisson
164954735;"{\"type\":\"LineString\",\"coordinates\":[[-73.5531839,45.5987065],[-73.552702,45.5984926],[-73.5500756,45.5972901],[-73.5497554,45.5971462],[-73.5496391,45.5970955]]}";14;Boulevard Louis-H.-La Fontaine;1;50;false;true;true;false;false;false;330.0;2;0;0;0;0;false;84023;6129485055;-73.5886;45.612931;85078;692318999;-73.539382;45.589483;0;4;5;9450081;Bus 30 : TERMINUS RADISSON;"";EXO;30 S;Terminus Terrebonne;Terminus Radisson
492994655;"{\"type\":\"LineString\",\"coordinates\":[[-73.5496391,45.5970955],[-73.5473717,45.5961475],[-73.544909,45.5951091]]}";15;Boulevard Louis-H.-La Fontaine;3;50;false;true;true;false;false;false;430.0;1;0;0;0;0;false;84023;6129485055;-73.5886;45.612931;85078;692318999;-73.539382;45.589483;0;4;5;9450081;Bus 30 : TERMINUS RADISSON;"";EXO;30 S;Terminus Terrebonne;Terminus Radisson
27650536;"{\"type\":\"LineString\",\"coordinates\":[[-73.544909,45.5951091],[-73.544051,45.5947099],[-73.5431921,45.5943488],[-73.5425849,45.5941075],[-73.5419945,45.593914],[-73.5404794,45.5935382]]}";16;Rue De Boucherville;3;50;false;true;true;false;false;false;389.0;1;0;0;0;0;false;84023;6129485055;-73.5886;45.612931;85078;692318999;-73.539382;45.589483;0;4;5;9450081;Bus 30 : TERMINUS RADISSON;"";EXO;30 S;Terminus Terrebonne;Terminus Radisson
27439861;"{\"type\":\"LineString\",\"coordinates\":[[-73.5404794,45.5935382],[-73.5399475,45.5933708],[-73.5396092,45.5932787],[-73.5394373,45.593222],[-73.5392789,45.5930878],[-73.5391926,45.5929864],[-73.539127,45.5928978],[-73.5390739,45.5928479],[-73.5388826,45.5927353],[-73.5387305,45.5926767],[-73.5375787,45.5923593]]}";17;"";1;50;false;true;true;false;false;false;269.0;2;0;0;0;0;false;84023;6129485055;-73.5886;45.612931;85078;692318999;-73.539382;45.589483;0;4;5;9450081;Bus 30 : TERMINUS RADISSON;"";EXO;30 S;Terminus Terrebonne;Terminus Radisson
455414957;"{\"type\":\"LineString\",\"coordinates\":[[-73.5375787,45.5923593],[-73.538308,45.5911737]]}";18;Rue Sherbrooke Est;2;50;false;true;true;false;false;false;144.0;1;0;0;0;0;false;84023;6129485055;-73.5886;45.612931;85078;692318999;-73.539382;45.589483;0;4;5;9450081;Bus 30 : TERMINUS RADISSON;"";EXO;30 S;Terminus Terrebonne;Terminus Radisson
459586697;"{\"type\":\"LineString\",\"coordinates\":[[-73.538308,45.5911737],[-73.538472,45.5908911]]}";19;Rue Sherbrooke Est;2;50;false;true;true;false;false;false;34.0;0;0;0;0;0;false;84023;6129485055;-73.5886;45.612931;85078;692318999;-73.539382;45.589483;0;4;5;9450081;Bus 30 : TERMINUS RADISSON;"";EXO;30 S;Terminus Terrebonne;Terminus Radisson
452610967;"{\"type\":\"LineString\",\"coordinates\":[[-73.538472,45.5908911],[-73.539051,45.5899151]]}";20;Rue Sherbrooke Est;2;50;false;true;true;false;false;false;118.0;0;0;0;0;0;false;84023;6129485055;-73.5886;45.612931;85078;692318999;-73.539382;45.589483;0;4;5;9450081;Bus 30 : TERMINUS RADISSON;"";EXO;30 S;Terminus Terrebonne;Terminus Radisson
455314963;"{\"type\":\"LineString\",\"coordinates\":[[-73.539051,45.5899151],[-73.5393,45.5895081]]}";21;Rue Sherbrooke Est;2;50;false;true;true;false;false;false;50.0;0;0;0;0;0;false;84023;6129485055;-73.5886;45.612931;85078;692318999;-73.539382;45.589483;0;4;5;9450081;Bus 30 : TERMINUS RADISSON;"";EXO;30 S;Terminus Terrebonne;Terminus Radisson
695763675;"{\"type\":\"LineString\",\"coordinates\":[[-73.5393,45.5895081],[-73.5396653,45.588906]]}";22;Rue Sherbrooke Est;2;50;false;true;true;false;false;false;73.0;0;0;0;0;0;false;84023;6129485055;-73.5886;45.612931;85078;692318999;-73.539382;45.589483;1;4;5;9450081;Bus 30 : TERMINUS RADISSON;"";EXO;30 S;Terminus Terrebonne;Terminus Radisson
