way_id;shape;index;name;nb_lanes;legal_speed;speed_zone_30;oneway;shares_bike;bike_box;bus_lane;dedicated_bus_lane;length;nb_traffic_signals;nb_crossings;nb_stops;nb_give_ways;nb_lvl_crossings;roundabout;stop_id_orig;node_id_orig;coord_x_orig;coord_y_orig;stop_id_dest;node_id_dest;coord_x_dest;coord_y_dest;nb_neighbouring_ways_bus_stop;ordre_orig;ordre_dest;id_line;line_name;colour;operator;ref;from;to
669902223;"{\"type\":\"LineString\",\"coordinates\":[[-73.6826117,45.5600129],[-73.6827819,45.5599253]]}";1;"";1;50;false;false;true;false;false;false;17.0;0;0;0;0;0;false;"47073;47022;47222;47048;47074";6269510223;-73.68259;45.559843;41842;6269510244;-73.68204;45.56156;1;0;1;9312737;Bus : 74 E - Direction Saint-François;"";STL;74E;Métro Cartier Quai:9;Terminus Contant
669902231;"{\"type\":\"LineString\",\"coordinates\":[[-73.6828755,45.560162],[-73.6828112,45.5601876],[-73.6827077,45.5602109],[-73.682644,45.5602049],[-73.6825892,45.560184],[-73.6825263,45.5601334],[-73.6825179,45.560095],[-73.6825372,45.5600624],[-73.6826117,45.5600129]]}";2;"";1;50;false;false;true;false;false;false;48.0;0;0;0;0;0;false;"47073;47022;47222;47048;47074";6269510223;-73.68259;45.559843;41842;6269510244;-73.68204;45.56156;0;0;1;9312737;Bus : 74 E - Direction Saint-François;"";STL;74E;Métro Cartier Quai:9;Terminus Contant
242652088;"{\"type\":\"LineString\",\"coordinates\":[[-73.6830194,45.5603075],[-73.6828755,45.560162]]}";3;"";1;50;false;false;true;false;false;false;20.0;1;0;0;0;0;false;"47073;47022;47222;47048;47074";6269510223;-73.68259;45.559843;41842;6269510244;-73.68204;45.56156;0;0;1;9312737;Bus : 74 E - Direction Saint-François;"";STL;74E;Métro Cartier Quai:9;Terminus Contant
258700554;"{\"type\":\"LineString\",\"coordinates\":[[-73.6830194,45.5603075],[-73.6827075,45.5604638],[-73.6824175,45.5606264],[-73.6822665,45.5607085]]}";4;Boulevard Cartier Ouest;2;50;false;true;true;false;false;false;74.0;1;0;0;0;0;false;"47073;47022;47222;47048;47074";6269510223;-73.68259;45.559843;41842;6269510244;-73.68204;45.56156;0;0;1;9312737;Bus : 74 E - Direction Saint-François;"";STL;74E;Métro Cartier Quai:9;Terminus Contant
455492089;"{\"type\":\"LineString\",\"coordinates\":[[-73.6822665,45.5607085],[-73.6819634,45.5608959],[-73.6817505,45.5610049]]}";5;Boulevard Cartier Ouest;2;50;false;true;true;false;false;false;53.0;1;0;0;0;0;false;"47073;47022;47222;47048;47074";6269510223;-73.68259;45.559843;41842;6269510244;-73.68204;45.56156;0;0;1;9312737;Bus : 74 E - Direction Saint-François;"";STL;74E;Métro Cartier Quai:9;Terminus Contant
292641472;"{\"type\":\"LineString\",\"coordinates\":[[-73.6817505,45.5610049],[-73.6816926,45.5610324],[-73.6815922,45.5610802]]}";6;Boulevard Cartier Ouest;2;50;false;true;true;false;false;false;15.0;2;0;0;0;0;false;"47073;47022;47222;47048;47074";6269510223;-73.68259;45.559843;41842;6269510244;-73.68204;45.56156;0;0;1;9312737;Bus : 74 E - Direction Saint-François;"";STL;74E;Métro Cartier Quai:9;Terminus Contant
258700557;"{\"type\":\"LineString\",\"coordinates\":[[-73.6815922,45.5610802],[-73.68169,45.5611749],[-73.6819137,45.5613673],[-73.6823486,45.5617409],[-73.6823502,45.5617422],[-73.6826844,45.5619598]]}";7;Boulevard des Laurentides;2;50;false;true;true;false;false;false;130.0;2;0;0;0;0;false;"47073;47022;47222;47048;47074";6269510223;-73.68259;45.559843;41842;6269510244;-73.68204;45.56156;2;0;1;9312737;Bus : 74 E - Direction Saint-François;"";STL;74E;Métro Cartier Quai:9;Terminus Contant
258700557;"{\"type\":\"LineString\",\"coordinates\":[[-73.6815922,45.5610802],[-73.68169,45.5611749],[-73.6819137,45.5613673],[-73.6823486,45.5617409],[-73.6823502,45.5617422],[-73.6826844,45.5619598]]}";1;Boulevard des Laurentides;2;50;false;true;true;false;false;false;65.0;2;0;0;0;0;false;41842;6269510244;-73.68204;45.56156;41865;6269510199;-73.68424;45.563491;1;1;2;9312737;Bus : 74 E - Direction Saint-François;"";STL;74E;Métro Cartier Quai:9;Terminus Contant
452227549;"{\"type\":\"LineString\",\"coordinates\":[[-73.6826844,45.5619598],[-73.684522,45.5635813]]}";2;Boulevard des Laurentides;4;50;false;false;true;false;false;false;115.5;0;0;0;0;0;false;41842;6269510244;-73.68204;45.56156;41865;6269510199;-73.68424;45.563491;1;1;2;9312737;Bus : 74 E - Direction Saint-François;"";STL;74E;Métro Cartier Quai:9;Terminus Contant
452227549;"{\"type\":\"LineString\",\"coordinates\":[[-73.6826844,45.5619598],[-73.684522,45.5635813]]}";1;Boulevard des Laurentides;4;50;false;false;true;false;false;false;115.5;0;0;0;0;0;false;41865;6269510199;-73.68424;45.563491;41887;6269510068;-73.68568;45.564778;1;2;3;9312737;Bus : 74 E - Direction Saint-François;"";STL;74E;Métro Cartier Quai:9;Terminus Contant
452227544;"{\"type\":\"LineString\",\"coordinates\":[[-73.684522,45.5635813],[-73.6864142,45.565271]]}";2;Boulevard des Laurentides;4;50;false;false;true;false;false;false;119.5;0;0;0;0;0;false;41865;6269510199;-73.68424;45.563491;41887;6269510068;-73.68568;45.564778;1;2;3;9312737;Bus : 74 E - Direction Saint-François;"";STL;74E;Métro Cartier Quai:9;Terminus Contant
452227544;"{\"type\":\"LineString\",\"coordinates\":[[-73.684522,45.5635813],[-73.6864142,45.565271]]}";1;Boulevard des Laurentides;4;50;false;false;true;false;false;false;119.5;0;0;0;0;0;false;41887;6269510068;-73.68568;45.564778;41796;6269510010;-73.68855;45.567342;1;3;4;9312737;Bus : 74 E - Direction Saint-François;"";STL;74E;Métro Cartier Quai:9;Terminus Contant
46086120;"{\"type\":\"LineString\",\"coordinates\":[[-73.6864142,45.565271],[-73.68769,45.5664197]]}";2;Boulevard des Laurentides;4;50;false;false;true;false;false;false;162.0;0;0;0;0;0;false;41887;6269510068;-73.68568;45.564778;41796;6269510010;-73.68855;45.567342;0;3;4;9312737;Bus : 74 E - Direction Saint-François;"";STL;74E;Métro Cartier Quai:9;Terminus Contant
452227546;"{\"type\":\"LineString\",\"coordinates\":[[-73.68769,45.5664197],[-73.6883244,45.5669908]]}";3;Boulevard des Laurentides;4;50;false;false;true;false;false;false;81.0;0;0;0;0;0;false;41887;6269510068;-73.68568;45.564778;41796;6269510010;-73.68855;45.567342;0;3;4;9312737;Bus : 74 E - Direction Saint-François;"";STL;74E;Métro Cartier Quai:9;Terminus Contant
452227547;"{\"type\":\"LineString\",\"coordinates\":[[-73.6883244,45.5669908],[-73.6901977,45.568689]]}";4;Boulevard des Laurentides;4;50;false;false;true;false;false;false;119.5;0;0;0;0;0;false;41887;6269510068;-73.68568;45.564778;41796;6269510010;-73.68855;45.567342;1;3;4;9312737;Bus : 74 E - Direction Saint-François;"";STL;74E;Métro Cartier Quai:9;Terminus Contant
452227548;"{\"type\":\"LineString\",\"coordinates\":[[-73.6901977,45.568689],[-73.6920842,45.5703911]]}";1;Boulevard des Laurentides;4;50;false;false;true;false;false;false;120.0;1;0;0;0;0;false;41800;6269509527;-73.69171;45.5702;41802;6269509352;-73.69434;45.572586;1;6;7;9312737;Bus : 74 E - Direction Saint-François;"";STL;74E;Métro Cartier Quai:9;Terminus Contant
258700555;"{\"type\":\"LineString\",\"coordinates\":[[-73.6920842,45.5703911],[-73.6921816,45.5704852]]}";2;Boulevard des Laurentides;4;50;false;false;true;false;false;false;13.0;2;0;0;0;0;false;41800;6269509527;-73.69171;45.5702;41802;6269509352;-73.69434;45.572586;0;6;7;9312737;Bus : 74 E - Direction Saint-François;"";STL;74E;Métro Cartier Quai:9;Terminus Contant
452227545;"{\"type\":\"LineString\",\"coordinates\":[[-73.6921816,45.5704852],[-73.6923511,45.5706606]]}";3;Boulevard des Laurentides;4;50;false;false;true;false;false;false;24.0;1;0;0;0;0;false;41800;6269509527;-73.69171;45.5702;41802;6269509352;-73.69434;45.572586;0;6;7;9312737;Bus : 74 E - Direction Saint-François;"";STL;74E;Métro Cartier Quai:9;Terminus Contant
259643627;"{\"type\":\"LineString\",\"coordinates\":[[-73.6923511,45.5706606],[-73.6935441,45.5717052],[-73.6938656,45.5719868],[-73.6941278,45.5722163],[-73.694173,45.572256],[-73.6948715,45.5728676],[-73.6960798,45.5739255],[-73.6961954,45.5740268],[-73.6975572,45.5752191],[-73.6982178,45.5757768],[-73.6987252,45.5762051],[-73.6991329,45.5765493],[-73.6998396,45.5771459],[-73.699969,45.5772551],[-73.700393,45.577613],[-73.7010736,45.5781875]]}";4;Boulevard des Laurentides;4;50;false;false;true;false;false;false;539.0;2;0;0;0;0;false;41800;6269509527;-73.69171;45.5702;41802;6269509352;-73.69434;45.572586;1;6;7;9312737;Bus : 74 E - Direction Saint-François;"";STL;74E;Métro Cartier Quai:9;Terminus Contant
259643627;"{\"type\":\"LineString\",\"coordinates\":[[-73.6923511,45.5706606],[-73.6935441,45.5717052],[-73.6938656,45.5719868],[-73.6941278,45.5722163],[-73.694173,45.572256],[-73.6948715,45.5728676],[-73.6960798,45.5739255],[-73.6961954,45.5740268],[-73.6975572,45.5752191],[-73.6982178,45.5757768],[-73.6987252,45.5762051],[-73.6991329,45.5765493],[-73.6998396,45.5771459],[-73.699969,45.5772551],[-73.700393,45.577613],[-73.7010736,45.5781875]]}";1;Boulevard des Laurentides;4;50;false;false;true;false;false;false;539.0;2;0;0;0;0;false;41809;6269508951;-73.70058;45.577941;41811;6269508920;-73.70172;45.57892;1;10;11;9312737;Bus : 74 E - Direction Saint-François;"";STL;74E;Métro Cartier Quai:9;Terminus Contant
23292050;"{\"type\":\"LineString\",\"coordinates\":[[-73.7010736,45.5781875],[-73.7011251,45.5783016],[-73.7018661,45.5789226],[-73.7029382,45.5798378],[-73.704628,45.5813139],[-73.7048961,45.5815481],[-73.7051422,45.581755],[-73.7052532,45.5818483]]}";2;Boulevard des Laurentides;1;50;false;true;true;false;false;false;261.5;0;1;0;0;0;false;41809;6269508951;-73.70058;45.577941;41811;6269508920;-73.70172;45.57892;1;10;11;9312737;Bus : 74 E - Direction Saint-François;"";STL;74E;Métro Cartier Quai:9;Terminus Contant
23292050;"{\"type\":\"LineString\",\"coordinates\":[[-73.7010736,45.5781875],[-73.7011251,45.5783016],[-73.7018661,45.5789226],[-73.7029382,45.5798378],[-73.704628,45.5813139],[-73.7048961,45.5815481],[-73.7051422,45.581755],[-73.7052532,45.5818483]]}";1;Boulevard des Laurentides;1;50;false;true;true;false;false;false;261.5;0;1;0;0;0;false;41813;6269506405;-73.70497;45.581731;41817;6269508828;-73.70735;45.583805;1;12;13;9312737;Bus : 74 E - Direction Saint-François;"";STL;74E;Métro Cartier Quai:9;Terminus Contant
436680546;"{\"type\":\"LineString\",\"coordinates\":[[-73.7052532,45.5818483],[-73.7053864,45.5819745]]}";2;Boulevard des Laurentides;1;50;false;true;true;false;false;false;18.0;0;0;0;0;0;false;41813;6269506405;-73.70497;45.581731;41817;6269508828;-73.70735;45.583805;0;12;13;9312737;Bus : 74 E - Direction Saint-François;"";STL;74E;Métro Cartier Quai:9;Terminus Contant
452204247;"{\"type\":\"LineString\",\"coordinates\":[[-73.7053864,45.5819745],[-73.7056499,45.5822138]]}";3;Boulevard des Laurentides;1;50;false;true;true;false;false;false;34.0;0;0;0;0;0;false;41813;6269506405;-73.70497;45.581731;41817;6269508828;-73.70735;45.583805;0;12;13;9312737;Bus : 74 E - Direction Saint-François;"";STL;74E;Métro Cartier Quai:9;Terminus Contant
436680547;"{\"type\":\"LineString\",\"coordinates\":[[-73.7056499,45.5822138],[-73.7075122,45.5838421],[-73.7084553,45.5847397],[-73.7089958,45.5851859],[-73.7092377,45.5853605]]}";4;Boulevard des Laurentides;1;50;false;true;true;false;false;false;224.0;0;0;0;0;0;false;41813;6269506405;-73.70497;45.581731;41817;6269508828;-73.70735;45.583805;1;12;13;9312737;Bus : 74 E - Direction Saint-François;"";STL;74E;Métro Cartier Quai:9;Terminus Contant
436680547;"{\"type\":\"LineString\",\"coordinates\":[[-73.7056499,45.5822138],[-73.7075122,45.5838421],[-73.7084553,45.5847397],[-73.7089958,45.5851859],[-73.7092377,45.5853605]]}";1;Boulevard des Laurentides;1;50;false;true;true;false;false;false;224.0;0;0;0;0;0;false;41817;6269508828;-73.70735;45.583805;41820;6269508795;-73.70929;45.585601;1;13;14;9312737;Bus : 74 E - Direction Saint-François;"";STL;74E;Métro Cartier Quai:9;Terminus Contant
23292070;"{\"type\":\"LineString\",\"coordinates\":[[-73.7092377,45.5853605],[-73.7110568,45.587011],[-73.7127438,45.5885415],[-73.7128208,45.5886113],[-73.7131232,45.5888858],[-73.7137609,45.5894643]]}";2;Boulevard des Laurentides;4;50;false;false;true;false;false;false;288.5;0;0;0;0;0;false;41817;6269508828;-73.70735;45.583805;41820;6269508795;-73.70929;45.585601;1;13;14;9312737;Bus : 74 E - Direction Saint-François;"";STL;74E;Métro Cartier Quai:9;Terminus Contant
23292070;"{\"type\":\"LineString\",\"coordinates\":[[-73.7092377,45.5853605],[-73.7110568,45.587011],[-73.7127438,45.5885415],[-73.7128208,45.5886113],[-73.7131232,45.5888858],[-73.7137609,45.5894643]]}";1;Boulevard des Laurentides;4;50;false;false;true;false;false;false;288.5;0;0;0;0;0;false;41824;6269508703;-73.71327;45.589128;41826;6269508670;-73.7145;45.590559;1;16;17;9312737;Bus : 74 E - Direction Saint-François;"";STL;74E;Métro Cartier Quai:9;Terminus Contant
453312145;"{\"type\":\"LineString\",\"coordinates\":[[-73.7137609,45.5894643],[-73.7142928,45.5902066],[-73.714455,45.5904265]]}";2;Boulevard des Laurentides;2;50;false;true;true;false;false;false;120.0;0;0;0;0;0;false;41824;6269508703;-73.71327;45.589128;41826;6269508670;-73.7145;45.590559;0;16;17;9312737;Bus : 74 E - Direction Saint-François;"";STL;74E;Métro Cartier Quai:9;Terminus Contant
23292074;"{\"type\":\"LineString\",\"coordinates\":[[-73.714455,45.5904265],[-73.7148183,45.5908968],[-73.7148782,45.5909846],[-73.715175,45.59132]]}";3;Boulevard des Laurentides;2;50;false;true;true;false;false;false;57.5;0;0;0;0;0;false;41824;6269508703;-73.71327;45.589128;41826;6269508670;-73.7145;45.590559;1;16;17;9312737;Bus : 74 E - Direction Saint-François;"";STL;74E;Métro Cartier Quai:9;Terminus Contant
453312145;"{\"type\":\"LineString\",\"coordinates\":[[-73.7137609,45.5894643],[-73.7142928,45.5902066],[-73.714455,45.5904265]]}";1;Boulevard des Laurentides;2;50;false;true;true;false;false;false;120.0;0;0;0;0;0;false;41826;6269508670;-73.7145;45.590559;41828;6269508378;-73.72003;45.595272;2;17;18;9312737;Bus : 74 E - Direction Saint-François;"";STL;74E;Métro Cartier Quai:9;Terminus Contant
23292074;"{\"type\":\"LineString\",\"coordinates\":[[-73.714455,45.5904265],[-73.7148183,45.5908968],[-73.7148782,45.5909846],[-73.715175,45.59132]]}";2;Boulevard des Laurentides;2;50;false;true;true;false;false;false;115.0;0;0;0;0;0;false;41826;6269508670;-73.7145;45.590559;41828;6269508378;-73.72003;45.595272;0;17;18;9312737;Bus : 74 E - Direction Saint-François;"";STL;74E;Métro Cartier Quai:9;Terminus Contant
481017015;"{\"type\":\"LineString\",\"coordinates\":[[-73.715175,45.59132],[-73.7154776,45.5916173],[-73.7155938,45.5917315]]}";3;Boulevard des Laurentides;2;50;false;true;true;false;false;false;57.0;0;0;0;0;0;false;41826;6269508670;-73.7145;45.590559;41828;6269508378;-73.72003;45.595272;0;17;18;9312737;Bus : 74 E - Direction Saint-François;"";STL;74E;Métro Cartier Quai:9;Terminus Contant
37722248;"{\"type\":\"LineString\",\"coordinates\":[[-73.7155938,45.5917315],[-73.7159615,45.5920833]]}";4;Boulevard des Laurentides;2;50;false;true;true;false;false;false;49.0;0;0;0;0;0;false;41826;6269508670;-73.7145;45.590559;41828;6269508378;-73.72003;45.595272;0;17;18;9312737;Bus : 74 E - Direction Saint-François;"";STL;74E;Métro Cartier Quai:9;Terminus Contant
511504674;"{\"type\":\"LineString\",\"coordinates\":[[-73.7159615,45.5920833],[-73.7161288,45.5922433]]}";5;Boulevard des Laurentides;2;50;false;true;true;false;false;false;23.0;0;0;0;0;0;false;41826;6269508670;-73.7145;45.590559;41828;6269508378;-73.72003;45.595272;0;17;18;9312737;Bus : 74 E - Direction Saint-François;"";STL;74E;Métro Cartier Quai:9;Terminus Contant
483683382;"{\"type\":\"LineString\",\"coordinates\":[[-73.7161288,45.5922433],[-73.7161818,45.5922874]]}";6;Boulevard des Laurentides;2;50;false;true;true;false;false;false;7.0;0;0;0;0;0;false;41826;6269508670;-73.7145;45.590559;41828;6269508378;-73.72003;45.595272;0;17;18;9312737;Bus : 74 E - Direction Saint-François;"";STL;74E;Métro Cartier Quai:9;Terminus Contant
511504669;"{\"type\":\"LineString\",\"coordinates\":[[-73.7161818,45.5922874],[-73.7163811,45.5924579],[-73.71656,45.5926074],[-73.716887,45.5928537],[-73.7171441,45.5930421]]}";7;Boulevard des Laurentides;2;50;false;true;true;false;false;false;113.0;0;0;0;0;0;false;41826;6269508670;-73.7145;45.590559;41828;6269508378;-73.72003;45.595272;0;17;18;9312737;Bus : 74 E - Direction Saint-François;"";STL;74E;Métro Cartier Quai:9;Terminus Contant
37722249;"{\"type\":\"LineString\",\"coordinates\":[[-73.7171441,45.5930421],[-73.7185014,45.5939442],[-73.7192899,45.5945481],[-73.719687,45.5948774],[-73.7198448,45.5949882],[-73.7200206,45.5950952]]}";8;Boulevard des Laurentides;2;50;false;true;true;false;false;false;321.0;0;0;0;0;0;false;41826;6269508670;-73.7145;45.590559;41828;6269508378;-73.72003;45.595272;0;17;18;9312737;Bus : 74 E - Direction Saint-François;"";STL;74E;Métro Cartier Quai:9;Terminus Contant
694161758;"{\"type\":\"LineString\",\"coordinates\":[[-73.7217949,45.596756],[-73.7209128,45.5959303],[-73.7202442,45.5953045],[-73.7200206,45.5950952]]}";9;Boulevard des Laurentides;4;50;false;false;true;false;false;false;231.0;0;0;0;0;0;false;41826;6269508670;-73.7145;45.590559;41828;6269508378;-73.72003;45.595272;2;17;18;9312737;Bus : 74 E - Direction Saint-François;"";STL;74E;Métro Cartier Quai:9;Terminus Contant
37722249;"{\"type\":\"LineString\",\"coordinates\":[[-73.7171441,45.5930421],[-73.7185014,45.5939442],[-73.7192899,45.5945481],[-73.719687,45.5948774],[-73.7198448,45.5949882],[-73.7200206,45.5950952]]}";1;Boulevard des Laurentides;2;50;false;true;true;false;false;false;321.0;0;0;0;0;0;false;41828;6269508378;-73.72003;45.595272;41831;6269508368;-73.72142;45.596556;2;18;19;9312737;Bus : 74 E - Direction Saint-François;"";STL;74E;Métro Cartier Quai:9;Terminus Contant
694161758;"{\"type\":\"LineString\",\"coordinates\":[[-73.7217949,45.596756],[-73.7209128,45.5959303],[-73.7202442,45.5953045],[-73.7200206,45.5950952]]}";2;Boulevard des Laurentides;4;50;false;false;true;false;false;false;231.0;0;0;0;0;0;false;41828;6269508378;-73.72003;45.595272;41831;6269508368;-73.72142;45.596556;2;18;19;9312737;Bus : 74 E - Direction Saint-François;"";STL;74E;Métro Cartier Quai:9;Terminus Contant
694161758;"{\"type\":\"LineString\",\"coordinates\":[[-73.7217949,45.596756],[-73.7209128,45.5959303],[-73.7202442,45.5953045],[-73.7200206,45.5950952]]}";1;Boulevard des Laurentides;4;50;false;false;true;false;false;false;115.5;0;0;0;0;0;false;41831;6269508368;-73.72142;45.596556;41839;6269508328;-73.72342;45.598388;1;19;20;9312737;Bus : 74 E - Direction Saint-François;"";STL;74E;Métro Cartier Quai:9;Terminus Contant
23292176;"{\"type\":\"LineString\",\"coordinates\":[[-73.7319837,45.6062501],[-73.7318931,45.6061672],[-73.7301515,45.6045749],[-73.7289712,45.6035194],[-73.7284733,45.603094],[-73.7264864,45.6011645],[-73.7259903,45.6006827],[-73.7243769,45.5991727],[-73.7231922,45.5980638],[-73.7217949,45.596756]]}";2;Boulevard des Laurentides;4;50;false;false;true;false;false;false;660.5;0;0;0;0;0;false;41831;6269508368;-73.72142;45.596556;41839;6269508328;-73.72342;45.598388;1;19;20;9312737;Bus : 74 E - Direction Saint-François;"";STL;74E;Métro Cartier Quai:9;Terminus Contant
453312144;"{\"type\":\"LineString\",\"coordinates\":[[-73.7322061,45.6064632],[-73.7319837,45.6062501]]}";1;Boulevard des Laurentides;4;50;false;false;true;false;false;false;30.0;0;0;0;0;0;false;41844;6269507891;-73.73175;45.606182;41846;6269507844;-73.73411;45.608499;2;25;26;9312737;Bus : 74 E - Direction Saint-François;"";STL;74E;Métro Cartier Quai:9;Terminus Contant
453312138;"{\"type\":\"LineString\",\"coordinates\":[[-73.7323191,45.6065782],[-73.7322061,45.6064632]]}";2;Boulevard des Laurentides;4;50;false;false;true;false;false;false;16.0;0;0;0;0;0;false;41844;6269507891;-73.73175;45.606182;41846;6269507844;-73.73411;45.608499;0;25;26;9312737;Bus : 74 E - Direction Saint-François;"";STL;74E;Métro Cartier Quai:9;Terminus Contant
453312139;"{\"type\":\"LineString\",\"coordinates\":[[-73.7325341,45.6067946],[-73.7323191,45.6065782]]}";3;Boulevard des Laurentides;4;50;false;false;true;false;false;false;30.0;0;0;0;0;0;false;41844;6269507891;-73.73175;45.606182;41846;6269507844;-73.73411;45.608499;0;25;26;9312737;Bus : 74 E - Direction Saint-François;"";STL;74E;Métro Cartier Quai:9;Terminus Contant
45760604;"{\"type\":\"LineString\",\"coordinates\":[[-73.7358874,45.6099783],[-73.7346601,45.6088131],[-73.7338961,45.6080877],[-73.7330666,45.6073002],[-73.7325341,45.6067946]]}";4;Boulevard des Laurentides;4;50;false;false;true;false;false;false;440.0;0;0;0;0;0;false;41844;6269507891;-73.73175;45.606182;41846;6269507844;-73.73411;45.608499;2;25;26;9312737;Bus : 74 E - Direction Saint-François;"";STL;74E;Métro Cartier Quai:9;Terminus Contant
45760604;"{\"type\":\"LineString\",\"coordinates\":[[-73.7358874,45.6099783],[-73.7346601,45.6088131],[-73.7338961,45.6080877],[-73.7330666,45.6073002],[-73.7325341,45.6067946]]}";1;Boulevard des Laurentides;4;50;false;false;true;false;false;false;220.0;0;0;0;0;0;false;41846;6269507844;-73.73411;45.608499;41848;6269507792;-73.73648;45.611629;1;26;27;9312737;Bus : 74 E - Direction Saint-François;"";STL;74E;Métro Cartier Quai:9;Terminus Contant
45760619;"{\"type\":\"LineString\",\"coordinates\":[[-73.7358874,45.6099783],[-73.7360032,45.6102228],[-73.7360976,45.6103774],[-73.7362198,45.6106312]]}";2;Boulevard des Laurentides;2;50;false;true;true;false;false;false;78.0;0;0;0;0;0;false;41846;6269507844;-73.73411;45.608499;41848;6269507792;-73.73648;45.611629;0;26;27;9312737;Bus : 74 E - Direction Saint-François;"";STL;74E;Métro Cartier Quai:9;Terminus Contant
453313647;"{\"type\":\"LineString\",\"coordinates\":[[-73.7362198,45.6106312],[-73.7363442,45.6108689]]}";3;Boulevard des Laurentides;2;50;false;true;true;false;false;false;29.0;1;0;0;0;0;false;41846;6269507844;-73.73411;45.608499;41848;6269507792;-73.73648;45.611629;0;26;27;9312737;Bus : 74 E - Direction Saint-François;"";STL;74E;Métro Cartier Quai:9;Terminus Contant
45760622;"{\"type\":\"LineString\",\"coordinates\":[[-73.7363442,45.6108689],[-73.7363878,45.6109832]]}";4;Boulevard des Laurentides;2;50;false;true;true;false;false;false;14.0;2;0;0;0;0;false;41846;6269507844;-73.73411;45.608499;41848;6269507792;-73.73648;45.611629;0;26;27;9312737;Bus : 74 E - Direction Saint-François;"";STL;74E;Métro Cartier Quai:9;Terminus Contant
45760623;"{\"type\":\"LineString\",\"coordinates\":[[-73.7363878,45.6109832],[-73.7364561,45.6111733]]}";5;Boulevard des Laurentides;2;50;false;true;true;false;false;false;22.0;1;0;0;0;0;false;41846;6269507844;-73.73411;45.608499;41848;6269507792;-73.73648;45.611629;0;26;27;9312737;Bus : 74 E - Direction Saint-François;"";STL;74E;Métro Cartier Quai:9;Terminus Contant
453313642;"{\"type\":\"LineString\",\"coordinates\":[[-73.7364561,45.6111733],[-73.736659,45.6118593]]}";6;Boulevard des Laurentides;2;50;false;true;true;false;false;false;39.0;0;0;0;0;0;false;41846;6269507844;-73.73411;45.608499;41848;6269507792;-73.73648;45.611629;1;26;27;9312737;Bus : 74 E - Direction Saint-François;"";STL;74E;Métro Cartier Quai:9;Terminus Contant
453313642;"{\"type\":\"LineString\",\"coordinates\":[[-73.7364561,45.6111733],[-73.736659,45.6118593]]}";1;Boulevard des Laurentides;2;50;false;true;true;false;false;false;39.0;0;0;0;0;0;false;41848;6269507792;-73.73648;45.611629;41849;6269507765;-73.73761;45.613288;1;27;28;9312737;Bus : 74 E - Direction Saint-François;"";STL;74E;Métro Cartier Quai:9;Terminus Contant
455260226;"{\"type\":\"LineString\",\"coordinates\":[[-73.7400403,45.6154592],[-73.7396278,45.6150647],[-73.7387648,45.6142395],[-73.7378909,45.6134045],[-73.7374315,45.6129487],[-73.7371568,45.6126485],[-73.7370187,45.612488],[-73.7368022,45.612143],[-73.7367228,45.612007],[-73.736659,45.6118593]]}";2;Boulevard des Laurentides;4;50;false;false;true;false;false;false;240.5;0;0;0;0;0;false;41848;6269507792;-73.73648;45.611629;41849;6269507765;-73.73761;45.613288;1;27;28;9312737;Bus : 74 E - Direction Saint-François;"";STL;74E;Métro Cartier Quai:9;Terminus Contant
455269000;"{\"type\":\"LineString\",\"coordinates\":[[-73.7455032,45.620589],[-73.7446231,45.6197693]]}";1;Boulevard des Laurentides;4;50;false;false;true;false;false;false;114.0;1;0;0;0;0;false;41856;698029122;-73.74448;45.619743;42679;6269507639;-73.74628;45.621854;2;31;32;9312737;Bus : 74 E - Direction Saint-François;"";STL;74E;Métro Cartier Quai:9;Terminus Contant
686611413;"{\"type\":\"LineString\",\"coordinates\":[[-73.7467167,45.6217277],[-73.7455032,45.620589]]}";2;Boulevard des Laurentides;4;50;false;false;true;false;false;false;158.0;1;0;0;0;0;false;41856;698029122;-73.74448;45.619743;42679;6269507639;-73.74628;45.621854;0;31;32;9312737;Bus : 74 E - Direction Saint-François;"";STL;74E;Métro Cartier Quai:9;Terminus Contant
43734229;"{\"type\":\"LineString\",\"coordinates\":[[-73.7491779,45.631537],[-73.7486533,45.630973],[-73.7473872,45.6296355],[-73.7468261,45.6290417],[-73.7462927,45.6284674],[-73.7458437,45.6279936],[-73.7457172,45.6278479],[-73.7455594,45.6276473],[-73.7454998,45.6275864],[-73.7454425,45.6275441],[-73.7453789,45.6275065],[-73.74513,45.6274012],[-73.745034,45.6273563],[-73.744958,45.627305],[-73.7448932,45.627241],[-73.7444899,45.6267527],[-73.7439751,45.6261416],[-73.7434895,45.6255526],[-73.7434105,45.6254567],[-73.74323,45.6251499],[-73.7430986,45.6249455],[-73.7430423,45.6248029],[-73.7430449,45.6245722],[-73.7430691,45.6243921],[-73.7431469,45.6241801],[-73.7434996,45.6237581],[-73.7438791,45.6233698],[-73.7440347,45.6232235],[-73.7443136,45.6230021],[-73.7446024,45.622793],[-73.7458643,45.6221577],[-73.7467167,45.6217277]]}";3;Rue de Provence;2;50;false;false;true;false;false;false;1359.0;1;0;0;0;0;false;41856;698029122;-73.74448;45.619743;42679;6269507639;-73.74628;45.621854;2;31;32;9312737;Bus : 74 E - Direction Saint-François;"";STL;74E;Métro Cartier Quai:9;Terminus Contant
56995903;"{\"type\":\"LineString\",\"coordinates\":[[-73.7491779,45.631537],[-73.7487002,45.6316541],[-73.7468027,45.6320896],[-73.7464986,45.6321664],[-73.7461078,45.6322902],[-73.7459022,45.6323757]]}";1;Avenue des Perron;2;50;false;false;false;false;false;false;136.5;0;0;0;0;0;false;42581;6269507524;-73.74726;45.631912;42625;6269507505;-73.74615;45.632715;1;39;40;9312737;Bus : 74 E - Direction Saint-François;"";STL;74E;Métro Cartier Quai:9;Terminus Contant
45257591;"{\"type\":\"LineString\",\"coordinates\":[[-73.7512807,45.6420278],[-73.7508799,45.6406748],[-73.7503658,45.6389606],[-73.7502767,45.6386635],[-73.7500661,45.6379463],[-73.7500234,45.6378102],[-73.7498061,45.6370726],[-73.7493694,45.6357134],[-73.7492427,45.6355091],[-73.7490752,45.635303],[-73.7489855,45.6352121],[-73.746795,45.6331959],[-73.7459022,45.6323757]]}";2;Rue de Prince-Rupert;2;50;false;false;false;false;false;false;588.5;0;0;0;0;0;false;42581;6269507524;-73.74726;45.631912;42625;6269507505;-73.74615;45.632715;1;39;40;9312737;Bus : 74 E - Direction Saint-François;"";STL;74E;Métro Cartier Quai:9;Terminus Contant
129925232;"{\"type\":\"LineString\",\"coordinates\":[[-73.7512969,45.6420642],[-73.7512807,45.6420278]]}";1;Rue de Prince-Rupert;1;50;false;false;false;false;false;false;5.0;0;0;0;0;0;false;42629;6269507440;-73.75116;45.641927;42631;6269507423;-73.75209;45.645065;2;45;46;9312737;Bus : 74 E - Direction Saint-François;"";STL;74E;Métro Cartier Quai:9;Terminus Contant
753713010;"{\"type\":\"LineString\",\"coordinates\":[[-73.752123,45.6448738],[-73.7516241,45.643186],[-73.7512969,45.6420642]]}";2;Rue de Prince-Rupert;1;50;false;false;false;false;false;false;319.0;0;0;0;0;0;false;42629;6269507440;-73.75116;45.641927;42631;6269507423;-73.75209;45.645065;0;45;46;9312737;Bus : 74 E - Direction Saint-François;"";STL;74E;Métro Cartier Quai:9;Terminus Contant
32643527;"{\"type\":\"LineString\",\"coordinates\":[[-73.7524223,45.6458862],[-73.7522146,45.6451837],[-73.752123,45.6448738]]}";3;Rue de Prince-Rupert;1;50;false;false;false;false;false;false;115.0;1;0;0;0;0;false;42629;6269507440;-73.75116;45.641927;42631;6269507423;-73.75209;45.645065;2;45;46;9312737;Bus : 74 E - Direction Saint-François;"";STL;74E;Métro Cartier Quai:9;Terminus Contant
32643527;"{\"type\":\"LineString\",\"coordinates\":[[-73.7524223,45.6458862],[-73.7522146,45.6451837],[-73.752123,45.6448738]]}";1;Rue de Prince-Rupert;1;50;false;false;false;false;false;false;57.5;1;0;0;0;0;false;42631;6269507423;-73.75209;45.645065;46438;6269507411;-73.75044;45.646896;1;46;47;9312737;Bus : 74 E - Direction Saint-François;"";STL;74E;Métro Cartier Quai:9;Terminus Contant
53332411;"{\"type\":\"LineString\",\"coordinates\":[[-73.7524223,45.6458862],[-73.7514961,45.646332],[-73.7507324,45.6467415],[-73.7504224,45.6470045],[-73.750209,45.6472856],[-73.7500265,45.6475667],[-73.7497447,45.6479892],[-73.7494497,45.6484612],[-73.748926,45.649281],[-73.7487461,45.6495782],[-73.7486383,45.6497966],[-73.7484693,45.6502605],[-73.7484361,45.6504215],[-73.7483893,45.6507053],[-73.7483547,45.6510296],[-73.7483364,45.6512972],[-73.7483217,45.6521419],[-73.7483292,45.6524562],[-73.7483093,45.6527542],[-73.7482828,45.6529997]]}";2;Boulevard des Laurentides;2;50;false;false;false;false;false;false;449.5;1;0;0;0;0;false;42631;6269507423;-73.75209;45.645065;46438;6269507411;-73.75044;45.646896;1;46;47;9312737;Bus : 74 E - Direction Saint-François;"";STL;74E;Métro Cartier Quai:9;Terminus Contant
53332411;"{\"type\":\"LineString\",\"coordinates\":[[-73.7524223,45.6458862],[-73.7514961,45.646332],[-73.7507324,45.6467415],[-73.7504224,45.6470045],[-73.750209,45.6472856],[-73.7500265,45.6475667],[-73.7497447,45.6479892],[-73.7494497,45.6484612],[-73.748926,45.649281],[-73.7487461,45.6495782],[-73.7486383,45.6497966],[-73.7484693,45.6502605],[-73.7484361,45.6504215],[-73.7483893,45.6507053],[-73.7483547,45.6510296],[-73.7483364,45.6512972],[-73.7483217,45.6521419],[-73.7483292,45.6524562],[-73.7483093,45.6527542],[-73.7482828,45.6529997]]}";1;Boulevard des Laurentides;2;50;false;false;false;false;false;false;449.5;1;0;0;0;0;false;46343;6269507385;-73.74811;45.652741;43397;6269507276;-73.74584;45.656147;1;51;52;9312737;Bus : 74 E - Direction Saint-François;"";STL;74E;Métro Cartier Quai:9;Terminus Contant
111409527;"{\"type\":\"LineString\",\"coordinates\":[[-73.7467836,45.6552481],[-73.7470432,45.6549576],[-73.7473055,45.6546409],[-73.7477239,45.6541254],[-73.7479802,45.6537178],[-73.7481238,45.653429],[-73.7482364,45.6531989],[-73.7482828,45.6529997]]}";2;Boulevard des Laurentides;1;50;false;false;true;false;false;false;278.0;0;0;0;0;0;false;46343;6269507385;-73.74811;45.652741;43397;6269507276;-73.74584;45.656147;0;51;52;9312737;Bus : 74 E - Direction Saint-François;"";STL;74E;Métro Cartier Quai:9;Terminus Contant
45289917;"{\"type\":\"LineString\",\"coordinates\":[[-73.7467836,45.6552481],[-73.7465529,45.6554407],[-73.7464094,45.6555944],[-73.7462581,45.6557712]]}";3;Boulevard des Laurentides;1;50;false;true;true;false;false;false;72.0;1;0;0;0;0;false;46343;6269507385;-73.74811;45.652741;43397;6269507276;-73.74584;45.656147;0;51;52;9312737;Bus : 74 E - Direction Saint-François;"";STL;74E;Métro Cartier Quai:9;Terminus Contant
676619308;"{\"type\":\"LineString\",\"coordinates\":[[-73.7462581,45.6557712],[-73.7461734,45.6558682]]}";4;Boulevard des Mille-Îles;1;50;false;true;true;false;false;false;13.0;2;0;0;0;0;false;46343;6269507385;-73.74811;45.652741;43397;6269507276;-73.74584;45.656147;0;51;52;9312737;Bus : 74 E - Direction Saint-François;"";STL;74E;Métro Cartier Quai:9;Terminus Contant
32641474;"{\"type\":\"LineString\",\"coordinates\":[[-73.7461734,45.6558682],[-73.7459896,45.6560856],[-73.7458121,45.6563184],[-73.7457205,45.6564747]]}";5;Boulevard des Mille-Îles;1;50;false;true;true;false;false;false;38.5;1;0;0;0;0;false;46343;6269507385;-73.74811;45.652741;43397;6269507276;-73.74584;45.656147;1;51;52;9312737;Bus : 74 E - Direction Saint-François;"";STL;74E;Métro Cartier Quai:9;Terminus Contant
32641474;"{\"type\":\"LineString\",\"coordinates\":[[-73.7461734,45.6558682],[-73.7459896,45.6560856],[-73.7458121,45.6563184],[-73.7457205,45.6564747]]}";1;Boulevard des Mille-Îles;1;50;false;true;true;false;false;false;38.5;1;0;0;0;0;false;43397;6269507276;-73.74584;45.656147;42313;6269507263;-73.74414;45.65867;1;52;53;9312737;Bus : 74 E - Direction Saint-François;"";STL;74E;Métro Cartier Quai:9;Terminus Contant
46338450;"{\"type\":\"LineString\",\"coordinates\":[[-73.7457205,45.6564747],[-73.7449378,45.657526],[-73.744457,45.65821],[-73.7442849,45.6585108],[-73.7438813,45.6594396],[-73.743711,45.6596781],[-73.7428006,45.6605021],[-73.742485,45.6607867],[-73.7423306,45.6609948],[-73.7422329,45.6612559],[-73.7422084,45.6619418],[-73.7420797,45.6622837],[-73.7417949,45.662638],[-73.741418,45.663107],[-73.7408287,45.663832],[-73.7406549,45.6641673],[-73.7403783,45.6650564],[-73.7403545,45.665133],[-73.7401485,45.6653789],[-73.7396946,45.6657908],[-73.7382796,45.6667121],[-73.7381451,45.6667996],[-73.7378186,45.667048],[-73.7367734,45.6678555],[-73.7364349,45.6680511],[-73.735902,45.6683589],[-73.7349661,45.6688706],[-73.734574,45.669069],[-73.7341479,45.6692846],[-73.7339263,45.6694352],[-73.7337032,45.6696487],[-73.7335572,45.6698631],[-73.7334492,45.6700959],[-73.7334311,45.6703298],[-73.7333776,45.6705943],[-73.7332936,45.6707333],[-73.7330978,45.6708751],[-73.7324592,45.6711683],[-73.7316189,45.6715518],[-73.7312561,45.6717008],[-73.7305839,45.6719003],[-73.7298741,45.6720634],[-73.7294088,45.6722023],[-73.7273269,45.6728542],[-73.7266672,45.6730718],[-73.7263691,45.6731945],[-73.7261213,45.6733628],[-73.7259378,45.6735318],[-73.7257527,45.6737637],[-73.7256832,45.673997],[-73.7256592,45.6744918],[-73.7257177,45.6764366],[-73.7257295,45.6781829],[-73.7256895,45.6782455],[-73.7256445,45.6782907]]}";2;Boulevard des Mille-Îles;2;50;false;false;true;false;false;false;1554.0;0;0;0;0;0;false;43397;6269507276;-73.74584;45.656147;42313;6269507263;-73.74414;45.65867;1;52;53;9312737;Bus : 74 E - Direction Saint-François;"";STL;74E;Métro Cartier Quai:9;Terminus Contant
53211707;"{\"type\":\"LineString\",\"coordinates\":[[-73.6912338,45.6819339],[-73.692858,45.6810961],[-73.6931262,45.6809821],[-73.6934866,45.6808621],[-73.696502,45.6799402],[-73.696714,45.6798995],[-73.7009345,45.6795376],[-73.7021583,45.6794691],[-73.7034874,45.6792719],[-73.7046216,45.6791186],[-73.7065341,45.6788025],[-73.7067972,45.678784],[-73.7070845,45.6788122],[-73.7080287,45.678932],[-73.7085355,45.6789387],[-73.7094554,45.6789136],[-73.7114215,45.6786667],[-73.7125695,45.6785849],[-73.7139587,45.6785085],[-73.7153676,45.678363],[-73.7165184,45.6782135],[-73.716758,45.6781824],[-73.7174539,45.6781307],[-73.7190488,45.6782102],[-73.7225097,45.6784113],[-73.7228807,45.6784304],[-73.7239521,45.6784856],[-73.7242894,45.678473],[-73.7255314,45.6783295],[-73.7256445,45.6782907]]}";1;Boulevard des Mille-Îles;2;50;false;false;true;false;false;false;1380.5;0;0;1;0;0;false;42267;6269506933;-73.69168;45.68167;42265;6269506927;-73.6895;45.682646;1;74;75;9312737;Bus : 74 E - Direction Saint-François;"";STL;74E;Métro Cartier Quai:9;Terminus Contant
472914945;"{\"type\":\"LineString\",\"coordinates\":[[-73.6912338,45.6819339],[-73.6903944,45.682357],[-73.6894518,45.682741],[-73.6877355,45.6833743],[-73.687279,45.683478],[-73.6868133,45.6835477],[-73.6866975,45.6835554],[-73.6865406,45.6835693],[-73.6857067,45.683643],[-73.6849989,45.6837069],[-73.6836535,45.6838075],[-73.683322,45.683813],[-73.6829741,45.6838187],[-73.682659,45.6838239],[-73.6823496,45.6838217],[-73.6820996,45.6838199],[-73.68077,45.6837258],[-73.680503,45.6837069],[-73.680038,45.683674],[-73.6781069,45.6835373],[-73.6772319,45.6835288],[-73.6765206,45.6835381],[-73.6758424,45.6835734],[-73.6736367,45.683688],[-73.6726637,45.6837331],[-73.6722962,45.6837501],[-73.6707185,45.6837539],[-73.6691924,45.6837887],[-73.6690217,45.6837921],[-73.6685726,45.6838056],[-73.6677437,45.6838249],[-73.6663301,45.6838302],[-73.6642509,45.6838058],[-73.663271,45.6838646],[-73.6628579,45.6838296],[-73.6626196,45.6837643],[-73.6623406,45.6836422],[-73.6621355,45.6835668],[-73.6617864,45.6834913],[-73.6611532,45.6833997],[-73.6609667,45.6833281],[-73.6607066,45.6831894],[-73.6605428,45.6830581],[-73.6601856,45.6827718],[-73.6599378,45.6826518],[-73.6595679,45.6825766],[-73.6584581,45.6825162],[-73.6583042,45.6825054],[-73.6579783,45.6824784],[-73.6576636,45.6824887],[-73.657121,45.6825768],[-73.6569582,45.6826292],[-73.6565783,45.6827515],[-73.6562445,45.6828641],[-73.6557744,45.6830947],[-73.6548827,45.6835321],[-73.6536194,45.684162],[-73.652904,45.6845187],[-73.6526491,45.6846029]]}";2;Boulevard des Mille-Îles;2;50;false;false;true;false;false;false;1584.0;0;0;1;0;0;false;42267;6269506933;-73.69168;45.68167;42265;6269506927;-73.6895;45.682646;1;74;75;9312737;Bus : 74 E - Direction Saint-François;"";STL;74E;Métro Cartier Quai:9;Terminus Contant
472914945;"{\"type\":\"LineString\",\"coordinates\":[[-73.6912338,45.6819339],[-73.6903944,45.682357],[-73.6894518,45.682741],[-73.6877355,45.6833743],[-73.687279,45.683478],[-73.6868133,45.6835477],[-73.6866975,45.6835554],[-73.6865406,45.6835693],[-73.6857067,45.683643],[-73.6849989,45.6837069],[-73.6836535,45.6838075],[-73.683322,45.683813],[-73.6829741,45.6838187],[-73.682659,45.6838239],[-73.6823496,45.6838217],[-73.6820996,45.6838199],[-73.68077,45.6837258],[-73.680503,45.6837069],[-73.680038,45.683674],[-73.6781069,45.6835373],[-73.6772319,45.6835288],[-73.6765206,45.6835381],[-73.6758424,45.6835734],[-73.6736367,45.683688],[-73.6726637,45.6837331],[-73.6722962,45.6837501],[-73.6707185,45.6837539],[-73.6691924,45.6837887],[-73.6690217,45.6837921],[-73.6685726,45.6838056],[-73.6677437,45.6838249],[-73.6663301,45.6838302],[-73.6642509,45.6838058],[-73.663271,45.6838646],[-73.6628579,45.6838296],[-73.6626196,45.6837643],[-73.6623406,45.6836422],[-73.6621355,45.6835668],[-73.6617864,45.6834913],[-73.6611532,45.6833997],[-73.6609667,45.6833281],[-73.6607066,45.6831894],[-73.6605428,45.6830581],[-73.6601856,45.6827718],[-73.6599378,45.6826518],[-73.6595679,45.6825766],[-73.6584581,45.6825162],[-73.6583042,45.6825054],[-73.6579783,45.6824784],[-73.6576636,45.6824887],[-73.657121,45.6825768],[-73.6569582,45.6826292],[-73.6565783,45.6827515],[-73.6562445,45.6828641],[-73.6557744,45.6830947],[-73.6548827,45.6835321],[-73.6536194,45.684162],[-73.652904,45.6845187],[-73.6526491,45.6846029]]}";1;Boulevard des Mille-Îles;2;50;false;false;true;false;false;false;1584.0;0;0;1;0;0;false;42391;6269506903;-73.65278;45.684437;42389;6269506899;-73.64609;45.685985;1;86;87;9312737;Bus : 74 E - Direction Saint-François;"";STL;74E;Métro Cartier Quai:9;Terminus Contant
472914942;"{\"type\":\"LineString\",\"coordinates\":[[-73.6526491,45.6846029],[-73.6522043,45.6846568],[-73.6517871,45.6847425]]}";2;Boulevard des Mille-Îles;2;50;false;true;true;false;false;false;69.0;0;0;0;0;0;false;42391;6269506903;-73.65278;45.684437;42389;6269506899;-73.64609;45.685985;0;86;87;9312737;Bus : 74 E - Direction Saint-François;"";STL;74E;Métro Cartier Quai:9;Terminus Contant
46410366;"{\"type\":\"LineString\",\"coordinates\":[[-73.6517871,45.6847425],[-73.6516677,45.6847654],[-73.6512758,45.6848168],[-73.6500545,45.6848744]]}";3;Boulevard des Mille-Îles;2;50;false;true;true;false;false;false;136.0;0;0;0;0;0;false;42391;6269506903;-73.65278;45.684437;42389;6269506899;-73.64609;45.685985;0;86;87;9312737;Bus : 74 E - Direction Saint-François;"";STL;74E;Métro Cartier Quai:9;Terminus Contant
46410446;"{\"type\":\"LineString\",\"coordinates\":[[-73.6500545,45.6848744],[-73.6498873,45.6848766],[-73.6497461,45.6848798],[-73.649502,45.6848859]]}";4;Boulevard des Mille-Îles;2;50;false;true;true;false;false;false;44.0;0;0;0;0;0;false;42391;6269506903;-73.65278;45.684437;42389;6269506899;-73.64609;45.685985;0;86;87;9312737;Bus : 74 E - Direction Saint-François;"";STL;74E;Métro Cartier Quai:9;Terminus Contant
472914936;"{\"type\":\"LineString\",\"coordinates\":[[-73.649502,45.6848859],[-73.6489232,45.684924],[-73.6482145,45.6850237]]}";5;Boulevard des Mille-Îles;2;50;false;true;true;false;false;false;102.0;0;0;0;0;0;false;42391;6269506903;-73.65278;45.684437;42389;6269506899;-73.64609;45.685985;0;86;87;9312737;Bus : 74 E - Direction Saint-François;"";STL;74E;Métro Cartier Quai:9;Terminus Contant
472914933;"{\"type\":\"LineString\",\"coordinates\":[[-73.6482145,45.6850237],[-73.6479722,45.685071]]}";6;Boulevard des Mille-Îles;2;50;false;true;true;false;false;false;20.0;0;0;0;0;0;false;42391;6269506903;-73.65278;45.684437;42389;6269506899;-73.64609;45.685985;0;86;87;9312737;Bus : 74 E - Direction Saint-François;"";STL;74E;Métro Cartier Quai:9;Terminus Contant
472914930;"{\"type\":\"LineString\",\"coordinates\":[[-73.6479722,45.685071],[-73.6478738,45.685089]]}";7;Boulevard des Mille-Îles;2;50;false;true;true;false;false;false;8.0;0;0;0;0;0;false;42391;6269506903;-73.65278;45.684437;42389;6269506899;-73.64609;45.685985;0;86;87;9312737;Bus : 74 E - Direction Saint-François;"";STL;74E;Métro Cartier Quai:9;Terminus Contant
472914927;"{\"type\":\"LineString\",\"coordinates\":[[-73.6478738,45.685089],[-73.6475426,45.6851957]]}";8;Boulevard des Mille-Îles;2;50;false;true;true;false;false;false;29.0;0;0;0;0;0;false;42391;6269506903;-73.65278;45.684437;42389;6269506899;-73.64609;45.685985;0;86;87;9312737;Bus : 74 E - Direction Saint-François;"";STL;74E;Métro Cartier Quai:9;Terminus Contant
46410439;"{\"type\":\"LineString\",\"coordinates\":[[-73.6475426,45.6851957],[-73.6471924,45.6853356],[-73.6468804,45.6854939],[-73.6462781,45.6859095],[-73.6461341,45.6860881]]}";9;Boulevard des Mille-Îles;2;50;false;true;true;false;false;false;75.0;0;0;0;0;0;false;42391;6269506903;-73.65278;45.684437;42389;6269506899;-73.64609;45.685985;1;86;87;9312737;Bus : 74 E - Direction Saint-François;"";STL;74E;Métro Cartier Quai:9;Terminus Contant
32823673;"{\"type\":\"LineString\",\"coordinates\":[[-73.6360519,45.6872771],[-73.6363025,45.6872486],[-73.6364975,45.6872265],[-73.6385914,45.6869887],[-73.6389994,45.6870034],[-73.6393367,45.6870527],[-73.6403891,45.6872936],[-73.6409893,45.6874994],[-73.6416665,45.6877934],[-73.641819,45.6878289],[-73.6422872,45.6878528],[-73.6428099,45.6877964],[-73.6431216,45.6877297],[-73.6434426,45.6876331],[-73.6437115,45.6875318],[-73.6439461,45.6874469],[-73.6443148,45.6873077],[-73.6447421,45.68709],[-73.6448491,45.6870218],[-73.6457874,45.6863369],[-73.6461341,45.6860881]]}";1;Boulevard des Mille-Îles;1;50;false;false;true;false;false;false;438.0;0;0;0;0;0;false;42382;6269506893;-73.63929;45.686992;42380;6269506895;-73.63603;45.687248;1;90;91;9312737;Bus : 74 E - Direction Saint-François;"";STL;74E;Métro Cartier Quai:9;Terminus Contant
686611407;"{\"type\":\"LineString\",\"coordinates\":[[-73.6360001,45.687283],[-73.6360519,45.6872771]]}";2;Boulevard des Mille-Îles;1;50;false;false;true;false;false;false;2.5;0;0;0;0;0;false;42382;6269506893;-73.63929;45.686992;42380;6269506895;-73.63603;45.687248;1;90;91;9312737;Bus : 74 E - Direction Saint-François;"";STL;74E;Métro Cartier Quai:9;Terminus Contant
32823673;"{\"type\":\"LineString\",\"coordinates\":[[-73.6360519,45.6872771],[-73.6363025,45.6872486],[-73.6364975,45.6872265],[-73.6385914,45.6869887],[-73.6389994,45.6870034],[-73.6393367,45.6870527],[-73.6403891,45.6872936],[-73.6409893,45.6874994],[-73.6416665,45.6877934],[-73.641819,45.6878289],[-73.6422872,45.6878528],[-73.6428099,45.6877964],[-73.6431216,45.6877297],[-73.6434426,45.6876331],[-73.6437115,45.6875318],[-73.6439461,45.6874469],[-73.6443148,45.6873077],[-73.6447421,45.68709],[-73.6448491,45.6870218],[-73.6457874,45.6863369],[-73.6461341,45.6860881]]}";1;Boulevard des Mille-Îles;1;50;false;false;true;false;false;false;876.0;0;0;0;0;0;false;42380;6269506895;-73.63603;45.687248;"49052;49022;42379;49074";6269506458;-73.63605;45.6875;2;91;92;9312737;Bus : 74 E - Direction Saint-François;"";STL;74E;Métro Cartier Quai:9;Terminus Contant
686611407;"{\"type\":\"LineString\",\"coordinates\":[[-73.6360001,45.687283],[-73.6360519,45.6872771]]}";2;Boulevard des Mille-Îles;1;50;false;false;true;false;false;false;5.0;0;0;0;0;0;false;42380;6269506895;-73.63603;45.687248;"49052;49022;42379;49074";6269506458;-73.63605;45.6875;0;91;92;9312737;Bus : 74 E - Direction Saint-François;"";STL;74E;Métro Cartier Quai:9;Terminus Contant
686611409;"{\"type\":\"LineString\",\"coordinates\":[[-73.6349389,45.6873356],[-73.6352833,45.6873335],[-73.6356819,45.6873105],[-73.6358712,45.6872976],[-73.6360001,45.687283]]}";3;Boulevard des Mille-Îles;1;50;false;false;true;false;false;false;83.0;0;0;0;0;0;false;42380;6269506895;-73.63603;45.687248;"49052;49022;42379;49074";6269506458;-73.63605;45.6875;0;91;92;9312737;Bus : 74 E - Direction Saint-François;"";STL;74E;Métro Cartier Quai:9;Terminus Contant
686611410;"{\"type\":\"LineString\",\"coordinates\":[[-73.6349389,45.6873356],[-73.6349577,45.6874902],[-73.6349764,45.6875436],[-73.6350261,45.6875905],[-73.6351159,45.6876308],[-73.6352849,45.6876317],[-73.6356872,45.687627],[-73.6359129,45.6876111],[-73.6360024,45.6875633],[-73.6360043,45.6875023]]}";4;"";1;50;false;false;true;false;false;false;116.0;0;0;0;0;0;false;42380;6269506895;-73.63603;45.687248;"49052;49022;42379;49074";6269506458;-73.63605;45.6875;1;91;92;9312737;Bus : 74 E - Direction Saint-François;"";STL;74E;Métro Cartier Quai:9;Terminus Contant
