way_id;shape;index;name;nb_lanes;legal_speed;speed_zone_30;oneway;shares_bike;bike_box;bus_lane;dedicated_bus_lane;length;nb_traffic_signals;nb_crossings;nb_stops;nb_give_ways;nb_lvl_crossings;roundabout;stop_id_orig;node_id_orig;coord_x_orig;coord_y_orig;stop_id_dest;node_id_dest;coord_x_dest;coord_y_dest;nb_neighbouring_ways_bus_stop;ordre_orig;ordre_dest;id_line;line_name;colour;operator;ref;from;to
475848923;"{\"type\":\"LineString\",\"coordinates\":[[-73.7207712,45.5582711],[-73.7209137,45.558204]]}";1;"";1;30;false;true;true;false;false;false;14.0;0;0;0;0;0;false;82127;6119525230;-73.7207969;45.5583911;83003;6119523073;-73.819003;45.615679;1;0;1;9396794;Bus 59 : BOISBRIAND / MIRABEL;"";EXO;59 N;Station Montmorency;du Plein-Air / Place du Canoë
673264015;"{\"type\":\"LineString\",\"coordinates\":[[-73.7209137,45.558204],[-73.7207353,45.5580182]]}";2;"";1;30;false;true;true;false;false;false;25.0;0;0;0;0;0;false;82127;6119525230;-73.7207969;45.5583911;83003;6119523073;-73.819003;45.615679;0;0;1;9396794;Bus 59 : BOISBRIAND / MIRABEL;"";EXO;59 N;Station Montmorency;du Plein-Air / Place du Canoë
669689629;"{\"type\":\"LineString\",\"coordinates\":[[-73.7207353,45.5580182],[-73.720718,45.5580002],[-73.7204415,45.5581303]]}";3;"";1;30;false;true;true;false;false;false;29.0;0;0;0;0;0;false;82127;6119525230;-73.7207969;45.5583911;83003;6119523073;-73.819003;45.615679;0;0;1;9396794;Bus 59 : BOISBRIAND / MIRABEL;"";EXO;59 N;Station Montmorency;du Plein-Air / Place du Canoë
669709387;"{\"type\":\"LineString\",\"coordinates\":[[-73.7204415,45.5581303],[-73.7202192,45.558235]]}";4;"";1;30;false;true;true;false;false;false;21.0;0;0;0;0;0;false;82127;6119525230;-73.7207969;45.5583911;83003;6119523073;-73.819003;45.615679;0;0;1;9396794;Bus 59 : BOISBRIAND / MIRABEL;"";EXO;59 N;Station Montmorency;du Plein-Air / Place du Canoë
673264017;"{\"type\":\"LineString\",\"coordinates\":[[-73.7202192,45.558235],[-73.7200265,45.5583257]]}";5;"";1;30;false;true;true;false;false;false;19.0;0;0;0;0;0;false;82127;6119525230;-73.7207969;45.5583911;83003;6119523073;-73.819003;45.615679;0;0;1;9396794;Bus 59 : BOISBRIAND / MIRABEL;"";EXO;59 N;Station Montmorency;du Plein-Air / Place du Canoë
669709385;"{\"type\":\"LineString\",\"coordinates\":[[-73.7200265,45.5583257],[-73.7199282,45.558372]]}";6;"";1;30;false;true;true;false;false;false;10.0;0;0;0;0;0;false;82127;6119525230;-73.7207969;45.5583911;83003;6119523073;-73.819003;45.615679;0;0;1;9396794;Bus 59 : BOISBRIAND / MIRABEL;"";EXO;59 N;Station Montmorency;du Plein-Air / Place du Canoë
673264012;"{\"type\":\"LineString\",\"coordinates\":[[-73.7199282,45.558372],[-73.7198052,45.5584054]]}";7;"";1;30;false;true;true;false;false;false;11.0;0;0;0;0;0;false;82127;6119525230;-73.7207969;45.5583911;83003;6119523073;-73.819003;45.615679;0;0;1;9396794;Bus 59 : BOISBRIAND / MIRABEL;"";EXO;59 N;Station Montmorency;du Plein-Air / Place du Canoë
292607261;"{\"type\":\"LineString\",\"coordinates\":[[-73.7198052,45.5584054],[-73.7196552,45.5584253],[-73.7196287,45.5584288],[-73.7196029,45.5584315],[-73.7195714,45.5584231]]}";8;"";1;30;false;true;true;false;false;false;19.0;0;1;0;0;0;false;82127;6119525230;-73.7207969;45.5583911;83003;6119523073;-73.819003;45.615679;0;0;1;9396794;Bus 59 : BOISBRIAND / MIRABEL;"";EXO;59 N;Station Montmorency;du Plein-Air / Place du Canoë
653184003;"{\"type\":\"LineString\",\"coordinates\":[[-73.7195714,45.5584231],[-73.7194895,45.5583356],[-73.7189255,45.5577333],[-73.7186432,45.5574319],[-73.7183965,45.5571685],[-73.7181107,45.5568633]]}";9;Boulevard de l'Avenir;3;50;false;true;false;false;false;false;208.0;1;0;0;0;0;false;82127;6119525230;-73.7207969;45.5583911;83003;6119523073;-73.819003;45.615679;0;0;1;9396794;Bus 59 : BOISBRIAND / MIRABEL;"";EXO;59 N;Station Montmorency;du Plein-Air / Place du Canoë
147992073;"{\"type\":\"LineString\",\"coordinates\":[[-73.7181107,45.5568633],[-73.7199225,45.5558634]]}";10;Boulevard de la Concorde Ouest;1;60;false;true;false;false;false;false;180.0;1;0;0;0;0;false;82127;6119525230;-73.7207969;45.5583911;83003;6119523073;-73.819003;45.615679;0;0;1;9396794;Bus 59 : BOISBRIAND / MIRABEL;"";EXO;59 N;Station Montmorency;du Plein-Air / Place du Canoë
37722254;"{\"type\":\"LineString\",\"coordinates\":[[-73.7199225,45.5558634],[-73.7220418,45.5546938]]}";11;Boulevard de la Concorde Ouest;1;60;false;true;true;false;false;false;211.0;1;0;0;0;0;false;82127;6119525230;-73.7207969;45.5583911;83003;6119523073;-73.819003;45.615679;0;0;1;9396794;Bus 59 : BOISBRIAND / MIRABEL;"";EXO;59 N;Station Montmorency;du Plein-Air / Place du Canoë
604650808;"{\"type\":\"LineString\",\"coordinates\":[[-73.7220418,45.5546938],[-73.7227701,45.5553592]]}";12;Boulevard Le Corbusier;3;50;false;true;false;false;false;false;94.0;1;0;0;0;0;false;82127;6119525230;-73.7207969;45.5583911;83003;6119523073;-73.819003;45.615679;0;0;1;9396794;Bus 59 : BOISBRIAND / MIRABEL;"";EXO;59 N;Station Montmorency;du Plein-Air / Place du Canoë
475268602;"{\"type\":\"LineString\",\"coordinates\":[[-73.7227701,45.5553592],[-73.7228328,45.5554165]]}";13;Boulevard Le Corbusier;3;50;false;true;false;false;false;false;9.0;0;0;0;0;0;false;82127;6119525230;-73.7207969;45.5583911;83003;6119523073;-73.819003;45.615679;0;0;1;9396794;Bus 59 : BOISBRIAND / MIRABEL;"";EXO;59 N;Station Montmorency;du Plein-Air / Place du Canoë
475268606;"{\"type\":\"LineString\",\"coordinates\":[[-73.7228328,45.5554165],[-73.7229014,45.5554792],[-73.7233438,45.5560258]]}";14;Boulevard Le Corbusier;3;50;false;true;false;false;false;false;79.0;1;0;0;0;0;false;82127;6119525230;-73.7207969;45.5583911;83003;6119523073;-73.819003;45.615679;0;0;1;9396794;Bus 59 : BOISBRIAND / MIRABEL;"";EXO;59 N;Station Montmorency;du Plein-Air / Place du Canoë
48068764;"{\"type\":\"LineString\",\"coordinates\":[[-73.7233438,45.5560258],[-73.7235435,45.555976],[-73.7250367,45.5551485]]}";15;"";2;50;false;true;true;false;false;false;165.0;2;0;0;0;0;false;82127;6119525230;-73.7207969;45.5583911;83003;6119523073;-73.819003;45.615679;0;0;1;9396794;Bus 59 : BOISBRIAND / MIRABEL;"";EXO;59 N;Station Montmorency;du Plein-Air / Place du Canoë
29081898;"{\"type\":\"LineString\",\"coordinates\":[[-73.7250367,45.5551485],[-73.7260251,45.5546061],[-73.7262145,45.5545274],[-73.7264435,45.5544709],[-73.7266396,45.5544645],[-73.7268405,45.5544859],[-73.7270808,45.5545575],[-73.7273018,45.5546737],[-73.7284215,45.5555195]]}";16;"";1;50;false;true;true;false;false;false;336.0;0;0;0;0;0;false;82127;6119525230;-73.7207969;45.5583911;83003;6119523073;-73.819003;45.615679;0;0;1;9396794;Bus 59 : BOISBRIAND / MIRABEL;"";EXO;59 N;Station Montmorency;du Plein-Air / Place du Canoë
653183998;"{\"type\":\"LineString\",\"coordinates\":[[-73.7284215,45.5555195],[-73.7293228,45.5562827],[-73.7296715,45.5565869]]}";17;"";1;70;false;true;true;false;false;false;154.0;0;0;0;0;0;false;82127;6119525230;-73.7207969;45.5583911;83003;6119523073;-73.819003;45.615679;0;0;1;9396794;Bus 59 : BOISBRIAND / MIRABEL;"";EXO;59 N;Station Montmorency;du Plein-Air / Place du Canoë
630868778;"{\"type\":\"LineString\",\"coordinates\":[[-73.7296715,45.5565869],[-73.731151,45.5579535],[-73.7326273,45.5592756]]}";18;"";1;70;false;true;true;false;false;false;378.0;0;0;0;0;0;false;82127;6119525230;-73.7207969;45.5583911;83003;6119523073;-73.819003;45.615679;0;0;1;9396794;Bus 59 : BOISBRIAND / MIRABEL;"";EXO;59 N;Station Montmorency;du Plein-Air / Place du Canoë
29082901;"{\"type\":\"LineString\",\"coordinates\":[[-73.7326273,45.5592756],[-73.7349324,45.5611064]]}";19;"";1;70;false;true;true;false;false;false;272.0;0;0;0;0;0;false;82127;6119525230;-73.7207969;45.5583911;83003;6119523073;-73.819003;45.615679;0;0;1;9396794;Bus 59 : BOISBRIAND / MIRABEL;"";EXO;59 N;Station Montmorency;du Plein-Air / Place du Canoë
574757110;"{\"type\":\"LineString\",\"coordinates\":[[-73.7349324,45.5611064],[-73.7367248,45.5628062]]}";20;Autoroute des Laurentides;4;100;false;true;true;false;false;false;235.0;0;0;0;0;0;false;82127;6119525230;-73.7207969;45.5583911;83003;6119523073;-73.819003;45.615679;0;0;1;9396794;Bus 59 : BOISBRIAND / MIRABEL;"";EXO;59 N;Station Montmorency;du Plein-Air / Place du Canoë
147995429;"{\"type\":\"LineString\",\"coordinates\":[[-73.7367248,45.5628062],[-73.7371715,45.5632142]]}";21;Autoroute des Laurentides;4;100;false;true;true;false;false;false;58.0;0;0;0;0;0;false;82127;6119525230;-73.7207969;45.5583911;83003;6119523073;-73.819003;45.615679;0;0;1;9396794;Bus 59 : BOISBRIAND / MIRABEL;"";EXO;59 N;Station Montmorency;du Plein-Air / Place du Canoë
637878503;"{\"type\":\"LineString\",\"coordinates\":[[-73.7371715,45.5632142],[-73.7385898,45.5645639]]}";22;Autoroute des Laurentides;3;100;false;true;true;false;false;false;187.0;0;0;0;0;0;false;82127;6119525230;-73.7207969;45.5583911;83003;6119523073;-73.819003;45.615679;0;0;1;9396794;Bus 59 : BOISBRIAND / MIRABEL;"";EXO;59 N;Station Montmorency;du Plein-Air / Place du Canoë
466390398;"{\"type\":\"LineString\",\"coordinates\":[[-73.7385898,45.5645639],[-73.7396843,45.5655827]]}";23;Autoroute des Laurentides;3;100;false;true;true;false;false;false;142.0;0;0;0;0;0;false;82127;6119525230;-73.7207969;45.5583911;83003;6119523073;-73.819003;45.615679;0;0;1;9396794;Bus 59 : BOISBRIAND / MIRABEL;"";EXO;59 N;Station Montmorency;du Plein-Air / Place du Canoë
637878498;"{\"type\":\"LineString\",\"coordinates\":[[-73.7396843,45.5655827],[-73.7404333,45.5662798]]}";24;Autoroute des Laurentides;3;100;false;true;true;false;false;false;97.0;0;0;0;0;0;false;82127;6119525230;-73.7207969;45.5583911;83003;6119523073;-73.819003;45.615679;0;0;1;9396794;Bus 59 : BOISBRIAND / MIRABEL;"";EXO;59 N;Station Montmorency;du Plein-Air / Place du Canoë
637878504;"{\"type\":\"LineString\",\"coordinates\":[[-73.7404333,45.5662798],[-73.7418604,45.5676154],[-73.7484303,45.5737638],[-73.7500194,45.5752426]]}";25;Autoroute des Laurentides;3;100;false;true;true;false;false;false;1245.0;0;0;0;0;0;false;82127;6119525230;-73.7207969;45.5583911;83003;6119523073;-73.819003;45.615679;0;0;1;9396794;Bus 59 : BOISBRIAND / MIRABEL;"";EXO;59 N;Station Montmorency;du Plein-Air / Place du Canoë
466390393;"{\"type\":\"LineString\",\"coordinates\":[[-73.7500194,45.5752426],[-73.7506296,45.5758105]]}";26;Autoroute des Laurentides;3;100;false;true;true;false;false;false;80.0;0;0;0;0;0;false;82127;6119525230;-73.7207969;45.5583911;83003;6119523073;-73.819003;45.615679;0;0;1;9396794;Bus 59 : BOISBRIAND / MIRABEL;"";EXO;59 N;Station Montmorency;du Plein-Air / Place du Canoë
466390395;"{\"type\":\"LineString\",\"coordinates\":[[-73.7506296,45.5758105],[-73.7511064,45.5762542]]}";27;Autoroute des Laurentides;3;100;false;true;true;false;false;false;62.0;0;0;0;0;0;false;82127;6119525230;-73.7207969;45.5583911;83003;6119523073;-73.819003;45.615679;0;0;1;9396794;Bus 59 : BOISBRIAND / MIRABEL;"";EXO;59 N;Station Montmorency;du Plein-Air / Place du Canoë
147995430;"{\"type\":\"LineString\",\"coordinates\":[[-73.7511064,45.5762542],[-73.7515546,45.5766713],[-73.7537175,45.578684],[-73.7544702,45.5793254],[-73.7550412,45.5797464],[-73.756047,45.58028],[-73.7560978,45.5803028],[-73.756745,45.580593],[-73.75749,45.580867],[-73.75827,45.581093],[-73.759078,45.581268],[-73.759908,45.581392],[-73.760748,45.58146],[-73.76202,45.581458],[-73.7633553,45.5813318],[-73.763715,45.581258],[-73.764547,45.581083],[-73.767318,45.580332],[-73.768138,45.580188],[-73.768975,45.580095],[-73.770263,45.580053],[-73.771565,45.580102],[-73.772858,45.580263],[-73.7737781,45.5804641],[-73.7747566,45.5807705],[-73.7755548,45.5810648],[-73.7789966,45.5825126],[-73.7870647,45.5859125],[-73.7875341,45.5861146]]}";28;Autoroute des Laurentides;3;100;false;true;true;false;false;false;3276.0;0;0;0;0;0;false;82127;6119525230;-73.7207969;45.5583911;83003;6119523073;-73.819003;45.615679;0;0;1;9396794;Bus 59 : BOISBRIAND / MIRABEL;"";EXO;59 N;Station Montmorency;du Plein-Air / Place du Canoë
466371238;"{\"type\":\"LineString\",\"coordinates\":[[-73.7875341,45.5861146],[-73.7878855,45.586266]]}";29;Autoroute des Laurentides;3;100;false;true;true;false;false;false;33.0;0;0;0;0;0;false;82127;6119525230;-73.7207969;45.5583911;83003;6119523073;-73.819003;45.615679;0;0;1;9396794;Bus 59 : BOISBRIAND / MIRABEL;"";EXO;59 N;Station Montmorency;du Plein-Air / Place du Canoë
466371234;"{\"type\":\"LineString\",\"coordinates\":[[-73.7878855,45.586266],[-73.7883349,45.5864595]]}";30;Autoroute des Laurentides;3;100;false;true;true;false;false;false;42.0;0;0;0;0;0;false;82127;6119525230;-73.7207969;45.5583911;83003;6119523073;-73.819003;45.615679;0;0;1;9396794;Bus 59 : BOISBRIAND / MIRABEL;"";EXO;59 N;Station Montmorency;du Plein-Air / Place du Canoë
466371239;"{\"type\":\"LineString\",\"coordinates\":[[-73.7883349,45.5864595],[-73.7889718,45.5867338],[-73.7926673,45.5883153],[-73.7936117,45.5887123],[-73.7993814,45.5911611],[-73.8001017,45.5915397],[-73.8007941,45.5919981],[-73.8013752,45.5924699],[-73.8018975,45.5930104],[-73.8023761,45.5936497],[-73.8027022,45.5942124],[-73.8029994,45.5949077],[-73.8032156,45.5957528],[-73.8033097,45.596111]]}";31;Autoroute des Laurentides;3;100;false;true;true;false;false;false;1658.0;0;0;0;0;0;false;82127;6119525230;-73.7207969;45.5583911;83003;6119523073;-73.819003;45.615679;0;0;1;9396794;Bus 59 : BOISBRIAND / MIRABEL;"";EXO;59 N;Station Montmorency;du Plein-Air / Place du Canoë
455247756;"{\"type\":\"LineString\",\"coordinates\":[[-73.8033097,45.596111],[-73.8043532,45.6000165],[-73.804661,45.6011958]]}";32;Autoroute des Laurentides;3;100;false;true;true;false;false;false;575.0;0;0;0;0;0;false;82127;6119525230;-73.7207969;45.5583911;83003;6119523073;-73.819003;45.615679;0;0;1;9396794;Bus 59 : BOISBRIAND / MIRABEL;"";EXO;59 N;Station Montmorency;du Plein-Air / Place du Canoë
455247754;"{\"type\":\"LineString\",\"coordinates\":[[-73.804661,45.6011958],[-73.8048583,45.601946],[-73.8051089,45.6028549],[-73.8051176,45.6028865],[-73.8053855,45.603818],[-73.8055698,45.604339],[-73.8057374,45.6046858],[-73.8059474,45.6050228],[-73.8062049,45.6053951],[-73.8065225,45.6057854],[-73.8068916,45.6061456],[-73.8073036,45.6064999]]}";33;Autoroute des Laurentides;3;100;false;true;true;false;false;false;634.0;0;0;0;0;0;false;82127;6119525230;-73.7207969;45.5583911;83003;6119523073;-73.819003;45.615679;0;0;1;9396794;Bus 59 : BOISBRIAND / MIRABEL;"";EXO;59 N;Station Montmorency;du Plein-Air / Place du Canoë
23456136;"{\"type\":\"LineString\",\"coordinates\":[[-73.8073036,45.6064999],[-73.8078868,45.6069497],[-73.8084526,45.6073446],[-73.8191997,45.6146595]]}";34;Autoroute des Laurentides;3;100;false;true;true;false;false;false;1297.0;0;0;0;0;0;false;82127;6119525230;-73.7207969;45.5583911;83003;6119523073;-73.819003;45.615679;0;0;1;9396794;Bus 59 : BOISBRIAND / MIRABEL;"";EXO;59 N;Station Montmorency;du Plein-Air / Place du Canoë
676836223;"{\"type\":\"LineString\",\"coordinates\":[[-73.8191997,45.6146595],[-73.8192395,45.6146847],[-73.8217397,45.6163803]]}";35;Autoroute des Laurentides;3;100;false;true;true;false;false;false;276.0;0;0;0;0;0;false;82127;6119525230;-73.7207969;45.5583911;83003;6119523073;-73.819003;45.615679;0;0;1;9396794;Bus 59 : BOISBRIAND / MIRABEL;"";EXO;59 N;Station Montmorency;du Plein-Air / Place du Canoë
23526404;"{\"type\":\"LineString\",\"coordinates\":[[-73.8217397,45.6163803],[-73.8228639,45.6171557],[-73.8234613,45.6175205],[-73.824271,45.6179988],[-73.8257904,45.6188402],[-73.8260145,45.6189874],[-73.8261553,45.6191375],[-73.8262234,45.6192884],[-73.8262048,45.6194096],[-73.8261442,45.6195107],[-73.8260011,45.6196064]]}";36;"";1;50;false;true;true;false;false;false;521.0;0;0;0;0;0;false;82127;6119525230;-73.7207969;45.5583911;83003;6119523073;-73.819003;45.615679;0;0;1;9396794;Bus 59 : BOISBRIAND / MIRABEL;"";EXO;59 N;Station Montmorency;du Plein-Air / Place du Canoë
438345284;"{\"type\":\"LineString\",\"coordinates\":[[-73.8260011,45.6196064],[-73.825923,45.61966],[-73.825828,45.6197336]]}";37;"";2;50;false;true;true;false;false;false;20.0;0;0;1;0;0;false;82127;6119525230;-73.7207969;45.5583911;83003;6119523073;-73.819003;45.615679;0;0;1;9396794;Bus 59 : BOISBRIAND / MIRABEL;"";EXO;59 N;Station Montmorency;du Plein-Air / Place du Canoë
42409967;"{\"type\":\"LineString\",\"coordinates\":[[-73.825828,45.6197336],[-73.8257449,45.6196762],[-73.8219363,45.6170465]]}";38;Voie d'accès Curé-Boivin;2;50;false;false;true;false;false;false;426.0;0;0;1;0;0;false;82127;6119525230;-73.7207969;45.5583911;83003;6119523073;-73.819003;45.615679;0;0;1;9396794;Bus 59 : BOISBRIAND / MIRABEL;"";EXO;59 N;Station Montmorency;du Plein-Air / Place du Canoë
437193677;"{\"type\":\"LineString\",\"coordinates\":[[-73.8219363,45.6170465],[-73.8216706,45.616897],[-73.8212944,45.6167774],[-73.8208655,45.6167244],[-73.8203288,45.6166718]]}";39;Voie d'accès Curé-Boivin;1;50;false;true;true;false;false;false;135.0;0;0;0;0;0;false;82127;6119525230;-73.7207969;45.5583911;83003;6119523073;-73.819003;45.615679;0;0;1;9396794;Bus 59 : BOISBRIAND / MIRABEL;"";EXO;59 N;Station Montmorency;du Plein-Air / Place du Canoë
437193678;"{\"type\":\"LineString\",\"coordinates\":[[-73.8203288,45.6166718],[-73.8199318,45.616565],[-73.8195133,45.6163964]]}";40;Voie d'accès Curé-Boivin;2;50;false;false;true;false;false;false;71.0;0;0;0;0;0;false;82127;6119525230;-73.7207969;45.5583911;83003;6119523073;-73.819003;45.615679;0;0;1;9396794;Bus 59 : BOISBRIAND / MIRABEL;"";EXO;59 N;Station Montmorency;du Plein-Air / Place du Canoë
438345272;"{\"type\":\"LineString\",\"coordinates\":[[-73.8195133,45.6163964],[-73.8192044,45.6162052],[-73.8186187,45.6157542]]}";41;Voie d'accès Curé-Boivin;3;50;false;false;true;false;false;false;100.0;1;0;0;0;0;false;82127;6119525230;-73.7207969;45.5583911;83003;6119523073;-73.819003;45.615679;0;0;1;9396794;Bus 59 : BOISBRIAND / MIRABEL;"";EXO;59 N;Station Montmorency;du Plein-Air / Place du Canoë
283275218;"{\"type\":\"LineString\",\"coordinates\":[[-73.8186187,45.6157542],[-73.8196801,45.615272]]}";42;Chemin de la Grande-Côte;3;50;false;false;false;false;false;false;49.5;1;0;0;0;0;false;82127;6119525230;-73.7207969;45.5583911;83003;6119523073;-73.819003;45.615679;1;0;1;9396794;Bus 59 : BOISBRIAND / MIRABEL;"";EXO;59 N;Station Montmorency;du Plein-Air / Place du Canoë
283275218;"{\"type\":\"LineString\",\"coordinates\":[[-73.8186187,45.6157542],[-73.8196801,45.615272]]}";1;Chemin de la Grande-Côte;3;50;false;false;false;false;false;false;49.5;1;0;0;0;0;false;83003;6119523073;-73.819003;45.615679;82218;6119524781;-73.822054;45.614146;1;1;2;9396794;Bus 59 : BOISBRIAND / MIRABEL;"";EXO;59 N;Station Montmorency;du Plein-Air / Place du Canoë
46226456;"{\"type\":\"LineString\",\"coordinates\":[[-73.8196801,45.615272],[-73.8206249,45.6148501]]}";2;Chemin de la Grande-Côte;3;50;false;false;false;false;false;false;88.0;0;0;0;0;0;false;83003;6119523073;-73.819003;45.615679;82218;6119524781;-73.822054;45.614146;0;1;2;9396794;Bus 59 : BOISBRIAND / MIRABEL;"";EXO;59 N;Station Montmorency;du Plein-Air / Place du Canoë
438345271;"{\"type\":\"LineString\",\"coordinates\":[[-73.8206249,45.6148501],[-73.8208726,45.6147248],[-73.8212413,45.6144861]]}";3;Chemin de la Grande-Côte;4;50;false;false;false;false;false;false;63.0;1;0;0;0;0;false;83003;6119523073;-73.819003;45.615679;82218;6119524781;-73.822054;45.614146;0;1;2;9396794;Bus 59 : BOISBRIAND / MIRABEL;"";EXO;59 N;Station Montmorency;du Plein-Air / Place du Canoë
45821095;"{\"type\":\"LineString\",\"coordinates\":[[-73.8212413,45.6144861],[-73.8218819,45.6141064],[-73.8226887,45.6136833],[-73.8233586,45.6133698],[-73.8238455,45.6131802],[-73.824297,45.6130526],[-73.8249554,45.6129228],[-73.8259682,45.6127624],[-73.8268392,45.6126108],[-73.826971,45.6125852],[-73.8273573,45.6124892],[-73.827795,45.6123871],[-73.8282241,45.612267],[-73.8285074,45.6121469],[-73.828825,45.6119248],[-73.8292254,45.6116224],[-73.8301183,45.6109766],[-73.8302881,45.6108538],[-73.8306376,45.610601],[-73.83142,45.6100513],[-73.831611,45.6099026],[-73.8318033,45.6097153],[-73.8320873,45.6093707],[-73.8322239,45.6092049],[-73.8329417,45.6082531],[-73.8329978,45.6081788],[-73.8330156,45.6081552],[-73.8332152,45.6078904],[-73.8337009,45.6072464]]}";4;Chemin de la Grande-Côte;1;50;false;false;false;false;false;false;658.5;2;0;0;0;0;false;83003;6119523073;-73.819003;45.615679;82218;6119524781;-73.822054;45.614146;1;1;2;9396794;Bus 59 : BOISBRIAND / MIRABEL;"";EXO;59 N;Station Montmorency;du Plein-Air / Place du Canoë
23842852;"{\"type\":\"LineString\",\"coordinates\":[[-73.8337009,45.6072464],[-73.8341287,45.6074069],[-73.8342243,45.6074423],[-73.8346448,45.6076041],[-73.8357175,45.6080038],[-73.8362984,45.6083017],[-73.83752,45.6091642],[-73.8379,45.609445],[-73.8382067,45.6097106],[-73.838515,45.610057],[-73.83884,45.610712],[-73.8388988,45.6110419],[-73.8389053,45.6110781],[-73.838932,45.611228],[-73.8389209,45.6115312],[-73.838907,45.611913]]}";1;Boulevard de la Grande-Allée;1;40;false;false;true;false;false;false;353.5;1;0;0;0;0;false;82225;6119524774;-73.838757;45.610922;82226;6119524773;-73.838626;45.614229;1;10;11;9396794;Bus 59 : BOISBRIAND / MIRABEL;"";EXO;59 N;Station Montmorency;du Plein-Air / Place du Canoë
42351583;"{\"type\":\"LineString\",\"coordinates\":[[-73.838907,45.611913],[-73.8389007,45.6119859],[-73.8388784,45.6122446]]}";2;Boulevard Grande-Allée;1;50;false;false;true;false;false;false;37.0;0;0;0;0;0;false;82225;6119524774;-73.838757;45.610922;82226;6119524773;-73.838626;45.614229;0;10;11;9396794;Bus 59 : BOISBRIAND / MIRABEL;"";EXO;59 N;Station Montmorency;du Plein-Air / Place du Canoë
241506877;"{\"type\":\"LineString\",\"coordinates\":[[-73.8388784,45.6122446],[-73.838864,45.6124021],[-73.8388409,45.6126557],[-73.8387964,45.6131444],[-73.838756,45.6135952],[-73.838751,45.6139713],[-73.8388119,45.6143804],[-73.8389449,45.6147641],[-73.8391315,45.6150882],[-73.8393039,45.6153383],[-73.8396343,45.6156786],[-73.8400218,45.6159486],[-73.8409482,45.616567],[-73.8415791,45.6169882],[-73.8422557,45.6174134],[-73.8440332,45.6183842],[-73.8443148,45.6185456],[-73.8445037,45.6186584]]}";3;Boulevard de la Grande-Allée;2;50;false;false;false;false;false;false;451.0;0;0;0;0;0;false;82225;6119524774;-73.838757;45.610922;82226;6119524773;-73.838626;45.614229;1;10;11;9396794;Bus 59 : BOISBRIAND / MIRABEL;"";EXO;59 N;Station Montmorency;du Plein-Air / Place du Canoë
241662045;"{\"type\":\"LineString\",\"coordinates\":[[-73.846466,45.6201041],[-73.8465621,45.6201731]]}";1;Boulevard de la Grande-Allée;1;50;false;true;false;false;false;false;11.0;2;0;0;0;0;false;82229;6119524770;-73.846246;45.620109;82230;6119524769;-73.851589;45.623788;2;14;15;9396794;Bus 59 : BOISBRIAND / MIRABEL;"";EXO;59 N;Station Montmorency;du Plein-Air / Place du Canoë
42567503;"{\"type\":\"LineString\",\"coordinates\":[[-73.8465621,45.6201731],[-73.8483998,45.6213866],[-73.8485028,45.6214569]]}";2;Boulevard de la Grande-Allée;3;50;false;true;false;false;false;false;208.0;1;0;0;0;0;false;82229;6119524770;-73.846246;45.620109;82230;6119524769;-73.851589;45.623788;0;14;15;9396794;Bus 59 : BOISBRIAND / MIRABEL;"";EXO;59 N;Station Montmorency;du Plein-Air / Place du Canoë
44625925;"{\"type\":\"LineString\",\"coordinates\":[[-73.8485028,45.6214569],[-73.8491898,45.6219263]]}";3;Boulevard de la Grande-Allée;1;50;false;true;false;false;false;false;75.0;0;0;0;0;0;false;82229;6119524770;-73.846246;45.620109;82230;6119524769;-73.851589;45.623788;0;14;15;9396794;Bus 59 : BOISBRIAND / MIRABEL;"";EXO;59 N;Station Montmorency;du Plein-Air / Place du Canoë
44625924;"{\"type\":\"LineString\",\"coordinates\":[[-73.8491898,45.6219263],[-73.8492257,45.621951],[-73.849999,45.6225207],[-73.850339,45.6227776],[-73.8504568,45.6228667]]}";4;Boulevard de la Grande-Allée;3;50;false;true;false;false;false;false;144.0;1;0;0;0;0;false;82229;6119524770;-73.846246;45.620109;82230;6119524769;-73.851589;45.623788;0;14;15;9396794;Bus 59 : BOISBRIAND / MIRABEL;"";EXO;59 N;Station Montmorency;du Plein-Air / Place du Canoë
237368798;"{\"type\":\"LineString\",\"coordinates\":[[-73.8504568,45.6228667],[-73.8505663,45.6229461]]}";5;Boulevard de la Grande-Allée;3;50;false;true;false;false;false;false;13.0;0;0;0;0;0;false;82229;6119524770;-73.846246;45.620109;82230;6119524769;-73.851589;45.623788;0;14;15;9396794;Bus 59 : BOISBRIAND / MIRABEL;"";EXO;59 N;Station Montmorency;du Plein-Air / Place du Canoë
401419917;"{\"type\":\"LineString\",\"coordinates\":[[-73.8505663,45.6229461],[-73.851438,45.623588],[-73.8516383,45.6237676]]}";6;Boulevard de la Grande-Allée;3;50;false;true;true;false;false;false;124.0;1;0;0;0;0;false;82229;6119524770;-73.846246;45.620109;82230;6119524769;-73.851589;45.623788;2;14;15;9396794;Bus 59 : BOISBRIAND / MIRABEL;"";EXO;59 N;Station Montmorency;du Plein-Air / Place du Canoë
602899198;"{\"type\":\"LineString\",\"coordinates\":[[-73.8525029,45.6245539],[-73.8533011,45.6252654]]}";1;Boulevard de la Grande-Allée;2;50;false;true;true;false;false;false;101.0;1;0;0;0;0;false;82997;6119523078;-73.85231;45.624478;82240;6119524762;-73.854742;45.626488;2;16;17;9396794;Bus 59 : BOISBRIAND / MIRABEL;"";EXO;59 N;Station Montmorency;du Plein-Air / Place du Canoë
286882488;"{\"type\":\"LineString\",\"coordinates\":[[-73.8533011,45.6252654],[-73.853437,45.625387],[-73.8534782,45.6254202],[-73.8535758,45.6254989],[-73.8540475,45.6258795],[-73.854187,45.625992],[-73.8550035,45.6265595]]}";2;Boulevard de la Grande-Allée;2;50;false;true;true;false;false;false;196.0;1;0;0;0;0;false;82997;6119523078;-73.85231;45.624478;82240;6119524762;-73.854742;45.626488;2;16;17;9396794;Bus 59 : BOISBRIAND / MIRABEL;"";EXO;59 N;Station Montmorency;du Plein-Air / Place du Canoë
286882488;"{\"type\":\"LineString\",\"coordinates\":[[-73.8533011,45.6252654],[-73.853437,45.625387],[-73.8534782,45.6254202],[-73.8535758,45.6254989],[-73.8540475,45.6258795],[-73.854187,45.625992],[-73.8550035,45.6265595]]}";1;Boulevard de la Grande-Allée;2;50;false;true;true;false;false;false;98.0;1;0;0;0;0;false;82240;6119524762;-73.854742;45.626488;82949;6119523195;-73.856734;45.62799;1;17;18;9396794;Bus 59 : BOISBRIAND / MIRABEL;"";EXO;59 N;Station Montmorency;du Plein-Air / Place du Canoë
247506736;"{\"type\":\"LineString\",\"coordinates\":[[-73.8550035,45.6265595],[-73.8553739,45.6268161],[-73.8560829,45.6273073],[-73.8571808,45.6280679],[-73.858802,45.629191],[-73.8597748,45.6298649],[-73.8608756,45.6306275]]}";2;Boulevard de la Grande-Allée;2;50;false;true;true;false;false;false;321.5;1;0;0;0;0;false;82240;6119524762;-73.854742;45.626488;82949;6119523195;-73.856734;45.62799;1;17;18;9396794;Bus 59 : BOISBRIAND / MIRABEL;"";EXO;59 N;Station Montmorency;du Plein-Air / Place du Canoë
247506736;"{\"type\":\"LineString\",\"coordinates\":[[-73.8550035,45.6265595],[-73.8553739,45.6268161],[-73.8560829,45.6273073],[-73.8571808,45.6280679],[-73.858802,45.629191],[-73.8597748,45.6298649],[-73.8608756,45.6306275]]}";1;Boulevard de la Grande-Allée;2;50;false;true;true;false;false;false;321.5;1;0;0;0;0;false;82241;6119524761;-73.860481;45.630576;82242;6119524760;-73.864467;45.633322;1;19;20;9396794;Bus 59 : BOISBRIAND / MIRABEL;"";EXO;59 N;Station Montmorency;du Plein-Air / Place du Canoë
310138694;"{\"type\":\"LineString\",\"coordinates\":[[-73.8608756,45.6306275],[-73.860963,45.6306887],[-73.8610396,45.630744],[-73.8625446,45.6317905],[-73.8637828,45.6326543]]}";2;Boulevard de la Grande-Allée;2;50;false;true;true;false;false;false;320.0;0;0;0;0;0;false;82241;6119524761;-73.860481;45.630576;82242;6119524760;-73.864467;45.633322;0;19;20;9396794;Bus 59 : BOISBRIAND / MIRABEL;"";EXO;59 N;Station Montmorency;du Plein-Air / Place du Canoë
378745961;"{\"type\":\"LineString\",\"coordinates\":[[-73.8637828,45.6326543],[-73.8646238,45.6332404],[-73.8658457,45.6340914],[-73.8667107,45.6346927],[-73.8667647,45.6347315],[-73.8671764,45.6350182],[-73.8680274,45.6356109],[-73.8693309,45.6365187],[-73.8695835,45.6366927],[-73.8721807,45.6384828],[-73.8725101,45.638708],[-73.873088,45.6391142],[-73.8742267,45.6399145]]}";3;Boulevard de la Grande-Allée;2;50;false;true;false;false;false;false;573.0;0;0;0;0;0;false;82241;6119524761;-73.860481;45.630576;82242;6119524760;-73.864467;45.633322;1;19;20;9396794;Bus 59 : BOISBRIAND / MIRABEL;"";EXO;59 N;Station Montmorency;du Plein-Air / Place du Canoë
378745961;"{\"type\":\"LineString\",\"coordinates\":[[-73.8637828,45.6326543],[-73.8646238,45.6332404],[-73.8658457,45.6340914],[-73.8667107,45.6346927],[-73.8667647,45.6347315],[-73.8671764,45.6350182],[-73.8680274,45.6356109],[-73.8693309,45.6365187],[-73.8695835,45.6366927],[-73.8721807,45.6384828],[-73.8725101,45.638708],[-73.873088,45.6391142],[-73.8742267,45.6399145]]}";1;Boulevard de la Grande-Allée;2;50;false;true;false;false;false;false;573.0;0;0;0;0;0;false;82679;6119523901;-73.873877;45.639849;83425;6119522933;-73.877482;45.642285;1;23;24;9396794;Bus 59 : BOISBRIAND / MIRABEL;"";EXO;59 N;Station Montmorency;du Plein-Air / Place du Canoë
676604773;"{\"type\":\"LineString\",\"coordinates\":[[-73.8742267,45.6399145],[-73.874966,45.6404266],[-73.8757844,45.6409913],[-73.8765215,45.6415159],[-73.877122,45.6419429],[-73.8774618,45.6421819],[-73.877575,45.6422911]]}";2;Boulevard de la Grande-Allée;2;50;false;true;false;false;false;false;186.0;0;0;0;0;0;false;82679;6119523901;-73.873877;45.639849;83425;6119522933;-73.877482;45.642285;1;23;24;9396794;Bus 59 : BOISBRIAND / MIRABEL;"";EXO;59 N;Station Montmorency;du Plein-Air / Place du Canoë
447718493;"{\"type\":\"LineString\",\"coordinates\":[[-73.877575,45.6422911],[-73.8777106,45.6424839],[-73.8778095,45.6426338]]}";1;Boulevard de la Grande-Allée;1;50;false;true;true;false;false;false;43.0;0;0;1;0;0;false;83425;6119522933;-73.877482;45.642285;82760;6119523837;-73.878005;45.644288;2;24;25;9396794;Bus 59 : BOISBRIAND / MIRABEL;"";EXO;59 N;Station Montmorency;du Plein-Air / Place du Canoë
42567506;"{\"type\":\"LineString\",\"coordinates\":[[-73.8778095,45.6426338],[-73.8779925,45.6428519],[-73.8781432,45.6430077],[-73.878347,45.6431327]]}";2;Boulevard de la Grande-Allée;1;50;false;true;false;false;false;false;71.0;0;0;1;0;0;false;83425;6119522933;-73.877482;45.642285;82760;6119523837;-73.878005;45.644288;0;24;25;9396794;Bus 59 : BOISBRIAND / MIRABEL;"";EXO;59 N;Station Montmorency;du Plein-Air / Place du Canoë
234653565;"{\"type\":\"LineString\",\"coordinates\":[[-73.878347,45.6431327],[-73.8784809,45.6432833],[-73.878546,45.6433568],[-73.8785815,45.6434398],[-73.8785956,45.6435415],[-73.8785667,45.6436358],[-73.8785294,45.6437711],[-73.878443,45.6440253],[-73.8783911,45.644113],[-73.8783241,45.6441897],[-73.8782078,45.6442802]]}";3;Boulevard de la Grande-Allée;1;50;false;false;false;false;false;false;140.0;0;0;0;0;0;false;83425;6119522933;-73.877482;45.642285;82760;6119523837;-73.878005;45.644288;0;24;25;9396794;Bus 59 : BOISBRIAND / MIRABEL;"";EXO;59 N;Station Montmorency;du Plein-Air / Place du Canoë
676836219;"{\"type\":\"LineString\",\"coordinates\":[[-73.8782078,45.6442802],[-73.8779506,45.6443917]]}";4;Boulevard de la Grande-Allée;1;50;false;false;false;false;false;false;24.0;0;0;0;0;0;false;83425;6119522933;-73.877482;45.642285;82760;6119523837;-73.878005;45.644288;2;24;25;9396794;Bus 59 : BOISBRIAND / MIRABEL;"";EXO;59 N;Station Montmorency;du Plein-Air / Place du Canoë
676836220;"{\"type\":\"LineString\",\"coordinates\":[[-73.8779506,45.6443917],[-73.8782086,45.6446841]]}";1;Rue du Grand-Prix;2;50;false;false;false;false;false;false;39.0;0;0;0;0;0;false;82760;6119523837;-73.878005;45.644288;82767;6119523830;-73.880672;45.646609;2;25;26;9396794;Bus 59 : BOISBRIAND / MIRABEL;"";EXO;59 N;Station Montmorency;du Plein-Air / Place du Canoë
237744260;"{\"type\":\"LineString\",\"coordinates\":[[-73.8782086,45.6446841],[-73.8783858,45.6448826],[-73.8785166,45.6450251],[-73.8788301,45.6453823],[-73.8788803,45.6454416],[-73.8793343,45.6458695],[-73.8795311,45.6460269],[-73.8797218,45.6461457],[-73.8797893,45.6461877],[-73.8799345,45.6462663],[-73.8803095,45.6464693],[-73.8804545,45.6465477],[-73.8806697,45.6466346],[-73.8807801,45.6466792],[-73.8809373,45.6467427],[-73.8811371,45.6468478],[-73.8813187,45.6469433],[-73.8816883,45.6471852],[-73.8821389,45.6476352],[-73.8822606,45.6478309],[-73.8823535,45.6479802],[-73.8824399,45.6481404],[-73.8825317,45.6483447],[-73.8825675,45.6484379],[-73.8825885,45.6485012],[-73.8826206,45.6486082],[-73.8826803,45.6487016],[-73.8829167,45.648931],[-73.8832371,45.6491454],[-73.883389,45.649247],[-73.8839229,45.6496044],[-73.8843049,45.6498395],[-73.885138,45.6503803],[-73.8855285,45.6506491],[-73.8856319,45.6507586],[-73.8856966,45.6508852],[-73.8857714,45.6516466],[-73.8858192,45.6524018],[-73.8858133,45.6525473]]}";2;Rue du Grand-Prix;2;50;false;false;false;false;false;false;1106.0;0;0;0;0;0;false;82760;6119523837;-73.878005;45.644288;82767;6119523830;-73.880672;45.646609;2;25;26;9396794;Bus 59 : BOISBRIAND / MIRABEL;"";EXO;59 N;Station Montmorency;du Plein-Air / Place du Canoë
237744260;"{\"type\":\"LineString\",\"coordinates\":[[-73.8782086,45.6446841],[-73.8783858,45.6448826],[-73.8785166,45.6450251],[-73.8788301,45.6453823],[-73.8788803,45.6454416],[-73.8793343,45.6458695],[-73.8795311,45.6460269],[-73.8797218,45.6461457],[-73.8797893,45.6461877],[-73.8799345,45.6462663],[-73.8803095,45.6464693],[-73.8804545,45.6465477],[-73.8806697,45.6466346],[-73.8807801,45.6466792],[-73.8809373,45.6467427],[-73.8811371,45.6468478],[-73.8813187,45.6469433],[-73.8816883,45.6471852],[-73.8821389,45.6476352],[-73.8822606,45.6478309],[-73.8823535,45.6479802],[-73.8824399,45.6481404],[-73.8825317,45.6483447],[-73.8825675,45.6484379],[-73.8825885,45.6485012],[-73.8826206,45.6486082],[-73.8826803,45.6487016],[-73.8829167,45.648931],[-73.8832371,45.6491454],[-73.883389,45.649247],[-73.8839229,45.6496044],[-73.8843049,45.6498395],[-73.885138,45.6503803],[-73.8855285,45.6506491],[-73.8856319,45.6507586],[-73.8856966,45.6508852],[-73.8857714,45.6516466],[-73.8858192,45.6524018],[-73.8858133,45.6525473]]}";1;Rue du Grand-Prix;2;50;false;false;false;false;false;false;553.0;0;0;0;0;0;false;82866;6119523266;-73.884171;45.64983;82165;6119525215;-73.884678;45.652513;1;28;29;9396794;Bus 59 : BOISBRIAND / MIRABEL;"";EXO;59 N;Station Montmorency;du Plein-Air / Place du Canoë
151618276;"{\"type\":\"LineString\",\"coordinates\":[[-73.8778,45.6500743],[-73.8781997,45.65034],[-73.8788965,45.6507969],[-73.8796316,45.6512632],[-73.880328,45.651738],[-73.8812068,45.6523427],[-73.8814157,45.6524693],[-73.8815775,45.652541],[-73.8817928,45.6525973],[-73.8824458,45.6525981],[-73.8833124,45.6525959],[-73.884612,45.6525901],[-73.8852425,45.6525799],[-73.8858133,45.6525473]]}";2;Rue du Plein-Air;2;50;false;false;false;false;false;false;367.0;0;0;0;0;0;false;82866;6119523266;-73.884171;45.64983;82165;6119525215;-73.884678;45.652513;1;28;29;9396794;Bus 59 : BOISBRIAND / MIRABEL;"";EXO;59 N;Station Montmorency;du Plein-Air / Place du Canoë
151618276;"{\"type\":\"LineString\",\"coordinates\":[[-73.8778,45.6500743],[-73.8781997,45.65034],[-73.8788965,45.6507969],[-73.8796316,45.6512632],[-73.880328,45.651738],[-73.8812068,45.6523427],[-73.8814157,45.6524693],[-73.8815775,45.652541],[-73.8817928,45.6525973],[-73.8824458,45.6525981],[-73.8833124,45.6525959],[-73.884612,45.6525901],[-73.8852425,45.6525799],[-73.8858133,45.6525473]]}";1;Rue du Plein-Air;2;50;false;false;false;false;false;false;367.0;0;0;0;0;0;false;82168;6119525212;-73.878361;45.650338;82169;6119525211;-73.876997;45.649474;1;32;33;9396794;Bus 59 : BOISBRIAND / MIRABEL;"";EXO;59 N;Station Montmorency;du Plein-Air / Place du Canoë
234653552;"{\"type\":\"LineString\",\"coordinates\":[[-73.8773418,45.6497656],[-73.8778,45.6500743]]}";2;Rue du Plein-Air;2;50;false;false;true;false;false;false;50.0;0;0;0;0;0;false;82168;6119525212;-73.878361;45.650338;82169;6119525211;-73.876997;45.649474;0;32;33;9396794;Bus 59 : BOISBRIAND / MIRABEL;"";EXO;59 N;Station Montmorency;du Plein-Air / Place du Canoë
46424568;"{\"type\":\"LineString\",\"coordinates\":[[-73.8768567,45.6494717],[-73.8773418,45.6497656]]}";3;Rue du Plein-Air;2;50;false;false;false;false;false;false;25.0;0;0;0;0;0;false;82168;6119525212;-73.878361;45.650338;82169;6119525211;-73.876997;45.649474;1;32;33;9396794;Bus 59 : BOISBRIAND / MIRABEL;"";EXO;59 N;Station Montmorency;du Plein-Air / Place du Canoë
46424581;"{\"type\":\"LineString\",\"coordinates\":[[-73.8767172,45.6493893],[-73.8768567,45.6494717]]}";1;Rue du Plein-Air;2;50;false;false;false;false;false;false;15.0;0;0;0;0;0;false;82169;6119525211;-73.876997;45.649474;82170;6119525210;-73.873804;45.648557;2;33;34;9396794;Bus 59 : BOISBRIAND / MIRABEL;"";EXO;59 N;Station Montmorency;du Plein-Air / Place du Canoë
676836221;"{\"type\":\"LineString\",\"coordinates\":[[-73.8704184,45.646708],[-73.8717103,45.6475578],[-73.8727885,45.6482638],[-73.8731909,45.6484011],[-73.8737049,45.6485676],[-73.8749173,45.6489036],[-73.8756426,45.6490934],[-73.8767172,45.6493893]]}";2;Rue du Plein-Air;2;50;false;false;false;false;false;false;584.0;0;0;0;0;0;false;82169;6119525211;-73.876997;45.649474;82170;6119525210;-73.873804;45.648557;2;33;34;9396794;Bus 59 : BOISBRIAND / MIRABEL;"";EXO;59 N;Station Montmorency;du Plein-Air / Place du Canoë
