way_id;shape;index;name;nb_lanes;legal_speed;speed_zone_30;oneway;shares_bike;bike_box;bus_lane;dedicated_bus_lane;length;nb_traffic_signals;nb_crossings;nb_stops;nb_give_ways;nb_lvl_crossings;roundabout;stop_id_orig;node_id_orig;coord_x_orig;coord_y_orig;stop_id_dest;node_id_dest;coord_x_dest;coord_y_dest;nb_neighbouring_ways_bus_stop;ordre_orig;ordre_dest;id_line;line_name;colour;operator;ref;from;to
683782655;"{\"type\":\"LineString\",\"coordinates\":[[-73.96297,45.3957118],[-73.963004,45.3957269],[-73.9631155,45.3957773],[-73.9632141,45.3958302],[-73.963277,45.3958688],[-73.963355,45.3959272],[-73.9633825,45.3959568],[-73.9634088,45.3959873],[-73.9634293,45.396017],[-73.9634486,45.3960527],[-73.9634679,45.3961141],[-73.9634712,45.3961498],[-73.963472,45.3961872]]}";1;Boulevard Perrot Nord;2;50;false;false;true;false;false;false;70.0;0;1;0;0;0;false;72040;6133275280;-73.963554;45.395972;72039;6133275281;-73.964375;45.38927;1;0;1;9488681;Bus 42 : Service AM;"";EXO;42 AM;Gare Île-Perrot;Gare Île-Perrot
683933381;"{\"type\":\"LineString\",\"coordinates\":[[-73.963472,45.3961872],[-73.9635095,45.3961909],[-73.9635395,45.3961887],[-73.9635748,45.396181],[-73.9636036,45.3961688],[-73.9637167,45.3960794]]}";2;"";1;50;false;false;true;false;true;false;25.0;0;1;1;0;0;false;72040;6133275280;-73.963554;45.395972;72039;6133275281;-73.964375;45.38927;0;0;1;9488681;Bus 42 : Service AM;"";EXO;42 AM;Gare Île-Perrot;Gare Île-Perrot
110166391;"{\"type\":\"LineString\",\"coordinates\":[[-73.964242,45.3951103],[-73.9642087,45.3951545],[-73.9641617,45.3952329],[-73.9641239,45.3953039],[-73.9641007,45.3953658],[-73.9640868,45.3954299],[-73.9640842,45.3954637],[-73.9640903,45.3955135],[-73.9640981,45.3955698],[-73.964102,45.3956012],[-73.964098,45.3956317],[-73.9640624,45.3956596],[-73.9638959,45.3958328],[-73.9637511,45.3959769],[-73.9637167,45.3960794]]}";3;"";1;50;false;true;true;false;true;false;119.0;0;0;0;0;0;false;72040;6133275280;-73.963554;45.395972;72039;6133275281;-73.964375;45.38927;0;0;1;9488681;Bus 42 : Service AM;"";EXO;42 AM;Gare Île-Perrot;Gare Île-Perrot
436576331;"{\"type\":\"LineString\",\"coordinates\":[[-73.964242,45.3951103],[-73.9642704,45.3950543],[-73.9642966,45.3950004],[-73.9643225,45.3949568],[-73.9644213,45.3948275],[-73.9645037,45.3947017],[-73.9645424,45.3946282],[-73.9645699,45.3945549],[-73.9645833,45.3944889],[-73.9645871,45.3944396],[-73.9645804,45.394351],[-73.9645822,45.394299],[-73.9645903,45.3942769],[-73.964611,45.3942503],[-73.9646578,45.3942095],[-73.9647457,45.3941529],[-73.9648298,45.3941025],[-73.9649662,45.3940279],[-73.9651327,45.3939429],[-73.965382,45.3938233],[-73.9656077,45.3937172],[-73.9657999,45.3936328],[-73.9659386,45.3935727],[-73.9661518,45.3934853],[-73.9664966,45.3933595],[-73.9669858,45.3931844],[-73.967094,45.3931521],[-73.9671714,45.3931345],[-73.9672529,45.3931237],[-73.9673401,45.3931188],[-73.9674363,45.3931145],[-73.9675256,45.3931094],[-73.967656,45.3930957],[-73.9678889,45.3930679],[-73.9681466,45.3930404]]}";4;BUS;1;50;false;false;true;false;true;false;416.0;0;0;0;0;0;false;72040;6133275280;-73.963554;45.395972;72039;6133275281;-73.964375;45.38927;0;0;1;9488681;Bus 42 : Service AM;"";EXO;42 AM;Gare Île-Perrot;Gare Île-Perrot
771029887;"{\"type\":\"LineString\",\"coordinates\":[[-73.9679397,45.392749],[-73.967952,45.3927626],[-73.9679632,45.3927708],[-73.9679799,45.3927801],[-73.9679982,45.3927926],[-73.9680078,45.3928027],[-73.9680189,45.3928145],[-73.9680736,45.3928803],[-73.9680985,45.3929193],[-73.9681219,45.392974],[-73.9681466,45.3930404]]}";5;"";2;50;false;false;true;false;true;false;37.0;1;0;0;0;0;false;72040;6133275280;-73.963554;45.395972;72039;6133275281;-73.964375;45.38927;0;0;1;9488681;Bus 42 : Service AM;"";EXO;42 AM;Gare Île-Perrot;Gare Île-Perrot
771029888;"{\"type\":\"LineString\",\"coordinates\":[[-73.9679397,45.392749],[-73.9679863,45.392736]]}";6;Autoroute du Souvenir;2;70;false;true;false;false;false;false;4.0;0;0;0;0;0;false;72040;6133275280;-73.963554;45.395972;72039;6133275281;-73.964375;45.38927;0;0;1;9488681;Bus 42 : Service AM;"";EXO;42 AM;Gare Île-Perrot;Gare Île-Perrot
771029886;"{\"type\":\"LineString\",\"coordinates\":[[-73.9679863,45.392736],[-73.9678795,45.3926033]]}";7;Boulevard Don-Quichotte;2;50;false;true;false;false;false;false;17.0;0;0;0;0;0;false;72040;6133275280;-73.963554;45.395972;72039;6133275281;-73.964375;45.38927;0;0;1;9488681;Bus 42 : Service AM;"";EXO;42 AM;Gare Île-Perrot;Gare Île-Perrot
455054809;"{\"type\":\"LineString\",\"coordinates\":[[-73.9678795,45.3926033],[-73.9678193,45.3925277],[-73.9677281,45.3924297],[-73.9676321,45.3923246],[-73.9674279,45.392104],[-73.9673221,45.3919938],[-73.9672498,45.3919168],[-73.9672157,45.3918775]]}";8;Boulevard Don-Quichotte;2;50;false;true;false;false;false;false;96.0;0;0;0;0;0;false;72040;6133275280;-73.963554;45.395972;72039;6133275281;-73.964375;45.38927;0;0;1;9488681;Bus 42 : Service AM;"";EXO;42 AM;Gare Île-Perrot;Gare Île-Perrot
455054807;"{\"type\":\"LineString\",\"coordinates\":[[-73.9672157,45.3918775],[-73.9671827,45.3918376],[-73.9671464,45.3917929],[-73.9671143,45.3917438]]}";9;Boulevard Don-Quichotte;3;50;false;true;true;false;false;false;17.0;0;0;0;0;0;false;72040;6133275280;-73.963554;45.395972;72039;6133275281;-73.964375;45.38927;0;0;1;9488681;Bus 42 : Service AM;"";EXO;42 AM;Gare Île-Perrot;Gare Île-Perrot
771038082;"{\"type\":\"LineString\",\"coordinates\":[[-73.9671143,45.3917438],[-73.9670774,45.3916823],[-73.9670426,45.3916174],[-73.9670006,45.3915351],[-73.966967,45.3914786],[-73.9669377,45.3914359],[-73.9669074,45.3913949],[-73.9668413,45.3913089],[-73.9667707,45.3912238],[-73.9666601,45.3910973]]}";10;Boulevard Don-Quichotte;3;50;false;true;true;false;false;false;81.0;0;1;0;0;0;false;72040;6133275280;-73.963554;45.395972;72039;6133275281;-73.964375;45.38927;0;0;1;9488681;Bus 42 : Service AM;"";EXO;42 AM;Gare Île-Perrot;Gare Île-Perrot
771038081;"{\"type\":\"LineString\",\"coordinates\":[[-73.9666601,45.3910973],[-73.9664867,45.3909158],[-73.9663524,45.3907739]]}";11;Boulevard Don-Quichotte;2;50;false;true;true;false;false;false;44.0;0;0;0;0;0;false;72040;6133275280;-73.963554;45.395972;72039;6133275281;-73.964375;45.38927;0;0;1;9488681;Bus 42 : Service AM;"";EXO;42 AM;Gare Île-Perrot;Gare Île-Perrot
771413782;"{\"type\":\"LineString\",\"coordinates\":[[-73.9663524,45.3907739],[-73.9662253,45.390653],[-73.9660871,45.3905267],[-73.9659911,45.3904396]]}";12;Boulevard Don-Quichotte;3;50;false;true;true;false;false;false;47.0;0;1;0;0;0;false;72040;6133275280;-73.963554;45.395972;72039;6133275281;-73.964375;45.38927;0;0;1;9488681;Bus 42 : Service AM;"";EXO;42 AM;Gare Île-Perrot;Gare Île-Perrot
771413783;"{\"type\":\"LineString\",\"coordinates\":[[-73.9659911,45.3904396],[-73.9658998,45.390365],[-73.9657773,45.3902648],[-73.9656,45.390128],[-73.9655602,45.3900972],[-73.9654133,45.3899919],[-73.9651248,45.3897956]]}";13;Boulevard Don-Quichotte;2;50;false;true;true;false;false;false;99.0;0;0;0;0;0;false;72040;6133275280;-73.963554;45.395972;72039;6133275281;-73.964375;45.38927;0;0;1;9488681;Bus 42 : Service AM;"";EXO;42 AM;Gare Île-Perrot;Gare Île-Perrot
771417628;"{\"type\":\"LineString\",\"coordinates\":[[-73.9651248,45.3897956],[-73.9645444,45.3894784]]}";14;Boulevard Don-Quichotte;3;50;false;true;true;false;false;false;58.0;0;0;0;0;0;false;72040;6133275280;-73.963554;45.395972;72039;6133275281;-73.964375;45.38927;0;0;1;9488681;Bus 42 : Service AM;"";EXO;42 AM;Gare Île-Perrot;Gare Île-Perrot
455054806;"{\"type\":\"LineString\",\"coordinates\":[[-73.9645444,45.3894784],[-73.964295,45.3893355],[-73.9642063,45.3892847],[-73.9641733,45.3892658],[-73.9640887,45.3892174]]}";15;Boulevard Don-Quichotte;3;50;false;true;true;false;false;false;46.0;1;1;0;0;0;false;72040;6133275280;-73.963554;45.395972;72039;6133275281;-73.964375;45.38927;2;0;1;9488681;Bus 42 : Service AM;"";EXO;42 AM;Gare Île-Perrot;Gare Île-Perrot
455054806;"{\"type\":\"LineString\",\"coordinates\":[[-73.9645444,45.3894784],[-73.964295,45.3893355],[-73.9642063,45.3892847],[-73.9641733,45.3892658],[-73.9640887,45.3892174]]}";1;Boulevard Don-Quichotte;3;50;false;true;true;false;false;false;23.0;1;1;0;0;0;false;72039;6133275281;-73.964375;45.38927;72105;6133275219;-73.967653;45.387502;1;1;2;9488681;Bus 42 : Service AM;"";EXO;42 AM;Gare Île-Perrot;Gare Île-Perrot
771364550;"{\"type\":\"LineString\",\"coordinates\":[[-73.9645071,45.388855],[-73.9644563,45.3888998],[-73.964417,45.3889345],[-73.9642783,45.3890575],[-73.9641716,45.389153],[-73.9641629,45.3891609],[-73.9640887,45.3892174]]}";2;Grand Boulevard;4;30;false;false;false;false;false;false;52.0;1;1;0;0;0;false;72039;6133275281;-73.964375;45.38927;72105;6133275219;-73.967653;45.387502;0;1;2;9488681;Bus 42 : Service AM;"";EXO;42 AM;Gare Île-Perrot;Gare Île-Perrot
771362654;"{\"type\":\"LineString\",\"coordinates\":[[-73.9669249,45.3878601],[-73.9668971,45.3878666],[-73.9668586,45.3878756],[-73.9667784,45.3878951],[-73.966407,45.3879857],[-73.9663445,45.388001],[-73.9662538,45.3880231],[-73.9659811,45.3880917],[-73.9659399,45.3881021],[-73.9655925,45.3881895],[-73.9654944,45.3882175],[-73.9654757,45.3882234],[-73.9654465,45.3882327],[-73.9653939,45.3882495],[-73.9653013,45.3882876],[-73.9652097,45.3883252],[-73.9651381,45.3883579],[-73.9650812,45.3883877],[-73.9650107,45.3884323],[-73.9649454,45.3884788],[-73.9649002,45.3885149],[-73.9648647,45.3885437],[-73.964797,45.3885987],[-73.9646433,45.3887349],[-73.9646186,45.3887566],[-73.9645071,45.388855]]}";3;Grand Boulevard;3;30;false;false;false;false;false;false;226.0;0;4;0;0;0;false;72039;6133275281;-73.964375;45.38927;72105;6133275219;-73.967653;45.387502;0;1;2;9488681;Bus 42 : Service AM;"";EXO;42 AM;Gare Île-Perrot;Gare Île-Perrot
113242157;"{\"type\":\"LineString\",\"coordinates\":[[-73.9677689,45.3876474],[-73.9676104,45.3876895],[-73.9671543,45.387804],[-73.9670745,45.3878239],[-73.9669249,45.3878601]]}";4;Grand Boulevard;3;30;false;false;false;false;false;false;71.0;0;1;0;0;0;false;72039;6133275281;-73.964375;45.38927;72105;6133275219;-73.967653;45.387502;0;1;2;9488681;Bus 42 : Service AM;"";EXO;42 AM;Gare Île-Perrot;Gare Île-Perrot
44626275;"{\"type\":\"LineString\",\"coordinates\":[[-73.9677689,45.3876474],[-73.9676917,45.3876044],[-73.9676686,45.3875914],[-73.9676574,45.3875852],[-73.9676178,45.3875639],[-73.967409,45.3874517],[-73.9673978,45.3874457],[-73.9672316,45.3873564],[-73.9672147,45.3873473],[-73.9670256,45.3872458],[-73.9669994,45.3872317],[-73.9667661,45.3871063],[-73.9667027,45.3870722],[-73.9665809,45.3870069],[-73.9664807,45.3869531],[-73.9663646,45.3868907],[-73.966268,45.3868382],[-73.9662036,45.3868039],[-73.9661442,45.3867723],[-73.9654682,45.3864091],[-73.9645919,45.3859384],[-73.9644647,45.3858703]]}";5;Rue Lucien-Manning;2;30;false;false;true;false;false;false;163.0;0;1;2;0;0;false;72039;6133275281;-73.964375;45.38927;72105;6133275219;-73.967653;45.387502;1;1;2;9488681;Bus 42 : Service AM;"";EXO;42 AM;Gare Île-Perrot;Gare Île-Perrot
113242157;"{\"type\":\"LineString\",\"coordinates\":[[-73.9677689,45.3876474],[-73.9676104,45.3876895],[-73.9671543,45.387804],[-73.9670745,45.3878239],[-73.9669249,45.3878601]]}";1;Grand Boulevard;3;30;false;false;false;false;false;false;71.0;0;1;0;0;0;false;72105;6133275219;-73.967653;45.387502;72100;6133275224;-73.964594;45.385899;2;2;3;9488681;Bus 42 : Service AM;"";EXO;42 AM;Gare Île-Perrot;Gare Île-Perrot
44626275;"{\"type\":\"LineString\",\"coordinates\":[[-73.9677689,45.3876474],[-73.9676917,45.3876044],[-73.9676686,45.3875914],[-73.9676574,45.3875852],[-73.9676178,45.3875639],[-73.967409,45.3874517],[-73.9673978,45.3874457],[-73.9672316,45.3873564],[-73.9672147,45.3873473],[-73.9670256,45.3872458],[-73.9669994,45.3872317],[-73.9667661,45.3871063],[-73.9667027,45.3870722],[-73.9665809,45.3870069],[-73.9664807,45.3869531],[-73.9663646,45.3868907],[-73.966268,45.3868382],[-73.9662036,45.3868039],[-73.9661442,45.3867723],[-73.9654682,45.3864091],[-73.9645919,45.3859384],[-73.9644647,45.3858703]]}";2;Rue Lucien-Manning;2;30;false;false;true;false;false;false;326.0;0;1;2;0;0;false;72105;6133275219;-73.967653;45.387502;72100;6133275224;-73.964594;45.385899;2;2;3;9488681;Bus 42 : Service AM;"";EXO;42 AM;Gare Île-Perrot;Gare Île-Perrot
746176282;"{\"type\":\"LineString\",\"coordinates\":[[-73.9690995,45.3873209],[-73.9687506,45.3874071]]}";1;Grand Boulevard;2;50;false;false;false;false;false;false;29.0;0;0;0;0;0;false;72098;6133275226;-73.968593;45.387342;72289;6133274736;-73.972244;45.386303;2;4;5;9488681;Bus 42 : Service AM;"";EXO;42 AM;Gare Île-Perrot;Gare Île-Perrot
683964247;"{\"type\":\"LineString\",\"coordinates\":[[-73.9695958,45.3872023],[-73.9693394,45.3872635],[-73.9691844,45.3873006],[-73.9690995,45.3873209]]}";2;Grand Boulevard;2;50;false;false;false;false;false;false;42.0;0;1;0;0;0;false;72098;6133275226;-73.968593;45.387342;72289;6133274736;-73.972244;45.386303;0;4;5;9488681;Bus 42 : Service AM;"";EXO;42 AM;Gare Île-Perrot;Gare Île-Perrot
473599643;"{\"type\":\"LineString\",\"coordinates\":[[-73.9715341,45.3867389],[-73.9707087,45.3869346],[-73.9706499,45.3869496],[-73.97027,45.3870413],[-73.9699116,45.3871279],[-73.9697865,45.387158],[-73.9695958,45.3872023]]}";3;5e Avenue;2;50;false;false;false;false;false;false;161.0;0;0;0;0;0;false;72098;6133275226;-73.968593;45.387342;72289;6133274736;-73.972244;45.386303;0;4;5;9488681;Bus 42 : Service AM;"";EXO;42 AM;Gare Île-Perrot;Gare Île-Perrot
473599644;"{\"type\":\"LineString\",\"coordinates\":[[-73.9722078,45.3865801],[-73.9718959,45.3866534],[-73.9715341,45.3867389]]}";4;5e Avenue;2;50;false;false;false;false;false;false;56.0;0;0;0;0;0;false;72098;6133275226;-73.968593;45.387342;72289;6133274736;-73.972244;45.386303;0;4;5;9488681;Bus 42 : Service AM;"";EXO;42 AM;Gare Île-Perrot;Gare Île-Perrot
60909143;"{\"type\":\"LineString\",\"coordinates\":[[-73.9722078,45.3865801],[-73.9722147,45.386499],[-73.9721863,45.3864649]]}";5;Boulevard Pincourt;2;30;false;true;false;false;false;false;14.0;0;1;0;0;0;false;72098;6133275226;-73.968593;45.387342;72289;6133274736;-73.972244;45.386303;0;4;5;9488681;Bus 42 : Service AM;"";EXO;42 AM;Gare Île-Perrot;Gare Île-Perrot
772400124;"{\"type\":\"LineString\",\"coordinates\":[[-73.9721863,45.3864649],[-73.9721442,45.3864264],[-73.9720631,45.3863608],[-73.9718272,45.3861731],[-73.9717781,45.3861368],[-73.9717205,45.3860942],[-73.9716599,45.3860572],[-73.9716403,45.3860453],[-73.9714901,45.385962],[-73.971408,45.3859165],[-73.9709713,45.3856802],[-73.9708954,45.3856391],[-73.9704585,45.3854071],[-73.9703483,45.3853482],[-73.969689,45.3849957],[-73.9694061,45.384848],[-73.969002,45.3846752]]}";6;Boulevard Pincourt;2;30;false;true;true;false;false;false;320.0;0;3;0;0;0;false;72098;6133275226;-73.968593;45.387342;72289;6133274736;-73.972244;45.386303;2;4;5;9488681;Bus 42 : Service AM;"";EXO;42 AM;Gare Île-Perrot;Gare Île-Perrot
60909143;"{\"type\":\"LineString\",\"coordinates\":[[-73.9722078,45.3865801],[-73.9722147,45.386499],[-73.9721863,45.3864649]]}";1;Boulevard Pincourt;2;30;false;true;false;false;false;false;14.0;0;1;0;0;0;false;72289;6133274736;-73.972244;45.386303;72375;6133274368;-73.965581;45.381239;2;5;6;9488681;Bus 42 : Service AM;"";EXO;42 AM;Gare Île-Perrot;Gare Île-Perrot
772400124;"{\"type\":\"LineString\",\"coordinates\":[[-73.9721863,45.3864649],[-73.9721442,45.3864264],[-73.9720631,45.3863608],[-73.9718272,45.3861731],[-73.9717781,45.3861368],[-73.9717205,45.3860942],[-73.9716599,45.3860572],[-73.9716403,45.3860453],[-73.9714901,45.385962],[-73.971408,45.3859165],[-73.9709713,45.3856802],[-73.9708954,45.3856391],[-73.9704585,45.3854071],[-73.9703483,45.3853482],[-73.969689,45.3849957],[-73.9694061,45.384848],[-73.969002,45.3846752]]}";2;Boulevard Pincourt;2;30;false;true;true;false;false;false;320.0;0;3;0;0;0;false;72289;6133274736;-73.972244;45.386303;72375;6133274368;-73.965581;45.381239;0;5;6;9488681;Bus 42 : Service AM;"";EXO;42 AM;Gare Île-Perrot;Gare Île-Perrot
110165912;"{\"type\":\"LineString\",\"coordinates\":[[-73.969002,45.3846752],[-73.9681443,45.3842141]]}";3;Boulevard Pincourt;2;50;false;false;true;false;false;false;85.0;0;0;0;0;0;false;72289;6133274736;-73.972244;45.386303;72375;6133274368;-73.965581;45.381239;0;5;6;9488681;Bus 42 : Service AM;"";EXO;42 AM;Gare Île-Perrot;Gare Île-Perrot
772239249;"{\"type\":\"LineString\",\"coordinates\":[[-73.9681443,45.3842141],[-73.9681008,45.3841907],[-73.966698,45.3834362],[-73.9665487,45.3833507],[-73.966464,45.3832978],[-73.9663839,45.3832328],[-73.9663421,45.3831913],[-73.966298,45.3831414],[-73.9662689,45.3831055]]}";4;Boulevard Pincourt;2;50;false;false;true;false;false;false;193.0;0;0;0;0;0;false;72289;6133274736;-73.972244;45.386303;72375;6133274368;-73.965581;45.381239;0;5;6;9488681;Bus 42 : Service AM;"";EXO;42 AM;Gare Île-Perrot;Gare Île-Perrot
772239251;"{\"type\":\"LineString\",\"coordinates\":[[-73.9662689,45.3831055],[-73.9662522,45.3830833],[-73.9662081,45.3830187],[-73.96616,45.3829368],[-73.9661429,45.3829001],[-73.966125,45.3828593]]}";5;Boulevard Pincourt;2;50;false;false;false;false;false;false;30.0;0;0;0;0;0;false;72289;6133274736;-73.972244;45.386303;72375;6133274368;-73.965581;45.381239;0;5;6;9488681;Bus 42 : Service AM;"";EXO;42 AM;Gare Île-Perrot;Gare Île-Perrot
769425229;"{\"type\":\"LineString\",\"coordinates\":[[-73.966125,45.3828593],[-73.9661045,45.3828015],[-73.9660046,45.3825401],[-73.9658795,45.3822035],[-73.9658554,45.3821387],[-73.9657887,45.381962],[-73.9656861,45.3816902],[-73.9655821,45.3814147],[-73.9655654,45.3813723],[-73.9655271,45.3812751],[-73.9655106,45.3812334],[-73.9654869,45.381174]]}";6;Boulevard Pincourt;2;50;false;false;false;false;false;false;194.0;0;0;1;0;0;false;72289;6133274736;-73.972244;45.386303;72375;6133274368;-73.965581;45.381239;2;5;6;9488681;Bus 42 : Service AM;"";EXO;42 AM;Gare Île-Perrot;Gare Île-Perrot
767697685;"{\"type\":\"LineString\",\"coordinates\":[[-73.9592439,45.3813091],[-73.9593167,45.3813194],[-73.9595618,45.3813514],[-73.9597121,45.3813715],[-73.9600562,45.3814176],[-73.9605676,45.3814899],[-73.9608214,45.3815255],[-73.9608717,45.3815319],[-73.9609649,45.3815437],[-73.9609969,45.3815478],[-73.9610493,45.3815538],[-73.96122,45.3815734],[-73.961409,45.3815922],[-73.9615823,45.3816074],[-73.9617942,45.3816201],[-73.9620544,45.3816304],[-73.9621911,45.381629],[-73.9622355,45.3816286],[-73.9624345,45.3816276],[-73.9625009,45.3816262],[-73.9626228,45.3816235],[-73.9626994,45.3816191],[-73.9627871,45.381614],[-73.9628935,45.3816089],[-73.9629886,45.3816016],[-73.9631313,45.3815874],[-73.9632524,45.3815761],[-73.9633725,45.381561],[-73.9634487,45.3815514],[-73.9635306,45.3815381],[-73.9636947,45.3815113],[-73.9637949,45.381495],[-73.9639244,45.3814706],[-73.9642925,45.3814012],[-73.9643477,45.3813907],[-73.9648468,45.3812959],[-73.965448,45.3811816],[-73.9654869,45.381174]]}";1;Avenue Forest;2;50;false;false;true;false;false;false;249.0;0;4;0;0;0;false;72380;6133274363;-73.961496;45.381565;72157;6133274967;-73.957393;45.381;1;7;8;9488681;Bus 42 : Service AM;"";EXO;42 AM;Gare Île-Perrot;Gare Île-Perrot
683393898;"{\"type\":\"LineString\",\"coordinates\":[[-73.9539387,45.3815001],[-73.9541125,45.3813491],[-73.9541722,45.381295],[-73.9542106,45.3812602],[-73.9543381,45.3811446],[-73.9544342,45.3810667],[-73.9545276,45.3810025],[-73.9546204,45.38095],[-73.9547354,45.3808989],[-73.9548558,45.3808558],[-73.9549964,45.3808251],[-73.9551394,45.3808043],[-73.9552638,45.3807939],[-73.955385,45.3807972],[-73.9555429,45.3808131],[-73.9566897,45.3809716],[-73.9572668,45.3810497],[-73.9573624,45.3810624],[-73.9582513,45.3811805],[-73.9585261,45.3812134],[-73.9587265,45.3812379],[-73.9587583,45.3812419],[-73.958951,45.381266],[-73.9591801,45.3812997],[-73.9592439,45.3813091]]}";2;Avenue Forest;2;50;false;false;true;false;false;false;226.5;0;3;1;0;0;false;72380;6133274363;-73.961496;45.381565;72157;6133274967;-73.957393;45.381;1;7;8;9488681;Bus 42 : Service AM;"";EXO;42 AM;Gare Île-Perrot;Gare Île-Perrot
475294166;"{\"type\":\"LineString\",\"coordinates\":[[-73.9535916,45.381814],[-73.9538065,45.3816203],[-73.9539387,45.3815001]]}";1;Avenue Forest;2;50;false;false;true;false;false;false;45.0;0;0;1;0;0;false;72161;6133274963;-73.953893;45.381446;72116;6133275208;-73.946045;45.379417;2;9;10;9488681;Bus 42 : Service AM;"";EXO;42 AM;Gare Île-Perrot;Gare Île-Perrot
475294167;"{\"type\":\"LineString\",\"coordinates\":[[-73.9528109,45.3830077],[-73.9528616,45.3829306],[-73.9528948,45.382875],[-73.9529291,45.3828143],[-73.9531118,45.3824681],[-73.9531203,45.3824521],[-73.9532102,45.3822796],[-73.9532484,45.3822155],[-73.9532781,45.3821713],[-73.9533242,45.3821071],[-73.9533583,45.3820618],[-73.9533862,45.3820287],[-73.9533979,45.3820149],[-73.9535189,45.3818894],[-73.9535916,45.381814]]}";2;Avenue Forest;2;50;false;false;true;false;false;false;147.0;0;1;1;0;0;false;72161;6133274963;-73.953893;45.381446;72116;6133275208;-73.946045;45.379417;0;9;10;9488681;Bus 42 : Service AM;"";EXO;42 AM;Gare Île-Perrot;Gare Île-Perrot
683964243;"{\"type\":\"LineString\",\"coordinates\":[[-73.9528109,45.3830077],[-73.9526962,45.3829434],[-73.9520788,45.3826017]]}";3;Boulevard Don-Quichotte;3;50;false;true;true;false;false;false;73.0;0;1;0;0;0;false;72161;6133274963;-73.953893;45.381446;72116;6133275208;-73.946045;45.379417;0;9;10;9488681;Bus 42 : Service AM;"";EXO;42 AM;Gare Île-Perrot;Gare Île-Perrot
767694351;"{\"type\":\"LineString\",\"coordinates\":[[-73.9520788,45.3826017],[-73.9517914,45.3824368],[-73.9513137,45.3821723],[-73.95078,45.3818916],[-73.9504568,45.3817205]]}";4;Boulevard Don-Quichotte;2;50;false;true;true;false;false;false;161.0;0;0;0;0;0;false;72161;6133274963;-73.953893;45.381446;72116;6133275208;-73.946045;45.379417;0;9;10;9488681;Bus 42 : Service AM;"";EXO;42 AM;Gare Île-Perrot;Gare Île-Perrot
683782607;"{\"type\":\"LineString\",\"coordinates\":[[-73.9504568,45.3817205],[-73.9492422,45.3810753]]}";5;Boulevard Don-Quichotte;1;50;false;true;true;false;false;false;120.0;0;0;0;0;0;false;72161;6133274963;-73.953893;45.381446;72116;6133275208;-73.946045;45.379417;0;9;10;9488681;Bus 42 : Service AM;"";EXO;42 AM;Gare Île-Perrot;Gare Île-Perrot
778421663;"{\"type\":\"LineString\",\"coordinates\":[[-73.9492422,45.3810753],[-73.9485936,45.3807217],[-73.9484842,45.3806475]]}";6;Boulevard Don-Quichotte;2;50;false;true;true;false;false;false;77.0;0;0;0;0;0;false;72161;6133274963;-73.953893;45.381446;72116;6133275208;-73.946045;45.379417;0;9;10;9488681;Bus 42 : Service AM;"";EXO;42 AM;Gare Île-Perrot;Gare Île-Perrot
455075100;"{\"type\":\"LineString\",\"coordinates\":[[-73.9484842,45.3806475],[-73.9483653,45.3805714],[-73.9479291,45.380329],[-73.9476543,45.3801794],[-73.9474967,45.380095],[-73.9469075,45.3798013],[-73.9467355,45.3797251],[-73.9465657,45.3796608],[-73.9463586,45.3795868],[-73.9461997,45.3795246]]}";7;Boulevard Don-Quichotte;1;50;false;true;true;false;false;false;219.0;0;0;1;0;0;false;72161;6133274963;-73.953893;45.381446;72116;6133275208;-73.946045;45.379417;0;9;10;9488681;Bus 42 : Service AM;"";EXO;42 AM;Gare Île-Perrot;Gare Île-Perrot
455075105;"{\"type\":\"LineString\",\"coordinates\":[[-73.9461997,45.3795246],[-73.9460763,45.3794775],[-73.9453527,45.3792579],[-73.9452049,45.3792148],[-73.9450157,45.3791641]]}";8;Boulevard Don-Quichotte;1;50;false;true;true;false;false;false;102.0;0;1;0;0;0;false;72161;6133274963;-73.953893;45.381446;72116;6133275208;-73.946045;45.379417;2;9;10;9488681;Bus 42 : Service AM;"";EXO;42 AM;Gare Île-Perrot;Gare Île-Perrot
455075100;"{\"type\":\"LineString\",\"coordinates\":[[-73.9484842,45.3806475],[-73.9483653,45.3805714],[-73.9479291,45.380329],[-73.9476543,45.3801794],[-73.9474967,45.380095],[-73.9469075,45.3798013],[-73.9467355,45.3797251],[-73.9465657,45.3796608],[-73.9463586,45.3795868],[-73.9461997,45.3795246]]}";1;Boulevard Don-Quichotte;1;50;false;true;true;false;false;false;219.0;0;0;1;0;0;false;72116;6133275208;-73.946045;45.379417;72257;6133274767;-73.940895;45.380682;2;10;11;9488681;Bus 42 : Service AM;"";EXO;42 AM;Gare Île-Perrot;Gare Île-Perrot
455075105;"{\"type\":\"LineString\",\"coordinates\":[[-73.9461997,45.3795246],[-73.9460763,45.3794775],[-73.9453527,45.3792579],[-73.9452049,45.3792148],[-73.9450157,45.3791641]]}";2;Boulevard Don-Quichotte;1;50;false;true;true;false;false;false;102.0;0;1;0;0;0;false;72116;6133275208;-73.946045;45.379417;72257;6133274767;-73.940895;45.380682;0;10;11;9488681;Bus 42 : Service AM;"";EXO;42 AM;Gare Île-Perrot;Gare Île-Perrot
778421666;"{\"type\":\"LineString\",\"coordinates\":[[-73.9450157,45.3791641],[-73.9449604,45.3791505],[-73.9448958,45.3791347],[-73.9446864,45.3790876],[-73.9445077,45.3790491],[-73.9442914,45.3790088],[-73.9440801,45.3789704],[-73.9438677,45.3789365],[-73.9436786,45.3789117],[-73.9434491,45.378889],[-73.9432018,45.378872]]}";3;Boulevard Don-Quichotte;1;50;false;true;true;false;false;false;147.0;0;0;0;0;0;false;72116;6133275208;-73.946045;45.379417;72257;6133274767;-73.940895;45.380682;0;10;11;9488681;Bus 42 : Service AM;"";EXO;42 AM;Gare Île-Perrot;Gare Île-Perrot
767419589;"{\"type\":\"LineString\",\"coordinates\":[[-73.9432018,45.378872],[-73.9430291,45.3788619],[-73.9428458,45.3788516]]}";4;Boulevard Don-Quichotte;1;50;false;true;true;false;false;false;28.0;0;0;0;0;0;false;72116;6133275208;-73.946045;45.379417;72257;6133274767;-73.940895;45.380682;0;10;11;9488681;Bus 42 : Service AM;"";EXO;42 AM;Gare Île-Perrot;Gare Île-Perrot
683964242;"{\"type\":\"LineString\",\"coordinates\":[[-73.9428458,45.3788516],[-73.9427281,45.3788488],[-73.9426881,45.3788476],[-73.9425291,45.3788426],[-73.9419246,45.3788325],[-73.941795,45.378824]]}";5;Boulevard Don-Quichotte;2;50;false;true;true;false;false;false;83.0;0;0;0;0;0;false;72116;6133275208;-73.946045;45.379417;72257;6133274767;-73.940895;45.380682;0;10;11;9488681;Bus 42 : Service AM;"";EXO;42 AM;Gare Île-Perrot;Gare Île-Perrot
683964240;"{\"type\":\"LineString\",\"coordinates\":[[-73.941795,45.378824],[-73.941794,45.3788898],[-73.9417823,45.3789524]]}";6;Rue Rouleau;2;40;false;false;true;false;false;false;15.0;0;1;0;0;0;false;72116;6133275208;-73.946045;45.379417;72257;6133274767;-73.940895;45.380682;0;10;11;9488681;Bus 42 : Service AM;"";EXO;42 AM;Gare Île-Perrot;Gare Île-Perrot
767550635;"{\"type\":\"LineString\",\"coordinates\":[[-73.9417823,45.3789524],[-73.9417779,45.3789689],[-73.9417722,45.3789986],[-73.9417611,45.3790469],[-73.9417459,45.3790763],[-73.9417278,45.3791001],[-73.9417092,45.3791285],[-73.9416953,45.3791536],[-73.9415999,45.3793557],[-73.9405954,45.3814704],[-73.9404147,45.3818517],[-73.9399132,45.3829096]]}";7;Rue Rouleau;2;40;false;false;true;false;false;false;464.0;0;1;2;0;0;false;72116;6133275208;-73.946045;45.379417;72257;6133274767;-73.940895;45.380682;2;10;11;9488681;Bus 42 : Service AM;"";EXO;42 AM;Gare Île-Perrot;Gare Île-Perrot
683964237;"{\"type\":\"LineString\",\"coordinates\":[[-73.9348177,45.3849302],[-73.9348006,45.3849618],[-73.9347563,45.3850528]]}";1;Rue de la Rivelaine;2;40;false;false;true;false;false;false;15.0;0;1;0;0;0;false;72211;6133274913;-73.934817;45.384826;72213;6133274911;-73.937404;45.38571;2;15;16;9488681;Bus 42 : Service AM;"";EXO;42 AM;Gare Île-Perrot;Gare Île-Perrot
42294409;"{\"type\":\"LineString\",\"coordinates\":[[-73.9347563,45.3850528],[-73.9348705,45.3850864],[-73.9374109,45.3856856],[-73.9374955,45.3857058],[-73.9375361,45.3857156],[-73.9384826,45.3859446],[-73.9385583,45.3859623],[-73.9396161,45.3862093],[-73.9406272,45.3864486]]}";2;Boulevard Virginie-Roy;1;40;false;true;true;false;false;false;485.0;0;1;1;0;0;false;72211;6133274913;-73.934817;45.384826;72213;6133274911;-73.937404;45.38571;2;15;16;9488681;Bus 42 : Service AM;"";EXO;42 AM;Gare Île-Perrot;Gare Île-Perrot
778719218;"{\"type\":\"LineString\",\"coordinates\":[[-73.9406272,45.3864486],[-73.9416923,45.3866917],[-73.9419313,45.3867006]]}";1;Boulevard Virginie-Roy;1;40;false;true;true;false;false;false;107.0;0;0;0;0;0;false;72215;6133274909;-73.940523;45.386459;72048;6133275274;-73.942541;45.386981;2;17;18;9488681;Bus 42 : Service AM;"";EXO;42 AM;Gare Île-Perrot;Gare Île-Perrot
47459974;"{\"type\":\"LineString\",\"coordinates\":[[-73.9419313,45.3867006],[-73.9420469,45.3867377],[-73.9421608,45.3867771],[-73.9422629,45.3868164],[-73.9423734,45.3868605],[-73.9425595,45.3869404],[-73.9426043,45.3869617],[-73.9426681,45.3869921],[-73.9427499,45.3870294],[-73.9428917,45.3871009],[-73.9430238,45.3871715],[-73.9431673,45.3872543],[-73.9432953,45.3873282],[-73.943388,45.3873948],[-73.943498,45.3874759],[-73.9435931,45.3875496],[-73.94368,45.38762],[-73.9437707,45.3876983],[-73.9438521,45.3877718],[-73.9439543,45.3878652],[-73.9441254,45.388034],[-73.9442852,45.3881893],[-73.9443587,45.3882593],[-73.9443964,45.3882959],[-73.9445091,45.3884073],[-73.9449403,45.3888193],[-73.9450172,45.3888913],[-73.9451019,45.3889604],[-73.94518,45.389021],[-73.9452703,45.3890747],[-73.9453667,45.3891241],[-73.9454553,45.3891638],[-73.9455534,45.3891997],[-73.9456501,45.3892283],[-73.9457571,45.3892559],[-73.9465957,45.3894525],[-73.9474093,45.3896496],[-73.9475108,45.3896848]]}";2;Rue des Érables;2;30;false;false;true;false;false;false;566.0;0;1;5;0;0;false;72215;6133274909;-73.940523;45.386459;72048;6133275274;-73.942541;45.386981;2;17;18;9488681;Bus 42 : Service AM;"";EXO;42 AM;Gare Île-Perrot;Gare Île-Perrot
683964232;"{\"type\":\"LineString\",\"coordinates\":[[-73.9538682,45.389065],[-73.9539145,45.3890672],[-73.9539484,45.3890658],[-73.9539772,45.3890637],[-73.9540101,45.3890672],[-73.9546781,45.3892368],[-73.9548111,45.3892719]]}";1;Rue des Fougères;2;30;false;false;true;false;false;false;78.0;0;0;2;0;0;false;72058;6133275264;-73.953706;45.38909;72060;6133275262;-73.955889;45.389231;2;24;25;9488681;Bus 42 : Service AM;"";EXO;42 AM;Gare Île-Perrot;Gare Île-Perrot
129424802;"{\"type\":\"LineString\",\"coordinates\":[[-73.9548111,45.3892719],[-73.9548328,45.3892394],[-73.9548721,45.3891952],[-73.9549347,45.3891393],[-73.955008,45.3890824],[-73.9550898,45.3890342],[-73.9551915,45.388994],[-73.9552995,45.3889611],[-73.9554406,45.3889377],[-73.9555443,45.38893],[-73.9556396,45.3889311],[-73.9557693,45.3889458],[-73.9558845,45.388973],[-73.9560459,45.3890311],[-73.9561616,45.3890725]]}";2;Rue des Fougères;2;30;false;false;true;false;false;false;124.0;0;0;1;0;0;false;72058;6133275264;-73.953706;45.38909;72060;6133275262;-73.955889;45.389231;0;24;25;9488681;Bus 42 : Service AM;"";EXO;42 AM;Gare Île-Perrot;Gare Île-Perrot
683964230;"{\"type\":\"LineString\",\"coordinates\":[[-73.9556046,45.3897964],[-73.9561616,45.3890725]]}";3;Avenue du Parc;2;30;false;false;true;false;false;false;92.0;0;0;2;0;0;false;72058;6133275264;-73.953706;45.38909;72060;6133275262;-73.955889;45.389231;2;24;25;9488681;Bus 42 : Service AM;"";EXO;42 AM;Gare Île-Perrot;Gare Île-Perrot
683964230;"{\"type\":\"LineString\",\"coordinates\":[[-73.9556046,45.3897964],[-73.9561616,45.3890725]]}";1;Avenue du Parc;2;30;false;false;true;false;false;false;46.0;0;0;2;0;0;false;72060;6133275262;-73.955889;45.389231;72031;6133275289;-73.958186;45.390547;1;25;26;9488681;Bus 42 : Service AM;"";EXO;42 AM;Gare Île-Perrot;Gare Île-Perrot
42288539;"{\"type\":\"LineString\",\"coordinates\":[[-73.9582516,45.3904741],[-73.958167,45.3905571],[-73.9578649,45.3908317],[-73.9578185,45.3908516],[-73.9577595,45.3908628],[-73.9577138,45.3908585],[-73.9576737,45.3908465],[-73.9570693,45.3905055],[-73.9570284,45.390482],[-73.9569777,45.3904747],[-73.9568299,45.3903912],[-73.9568127,45.3903596],[-73.9566876,45.3902916],[-73.956463,45.3901678],[-73.956409,45.3901618],[-73.9562933,45.3901028],[-73.9562646,45.39007],[-73.9561261,45.39001],[-73.956069,45.3899853],[-73.9557114,45.3898383],[-73.9556046,45.3897964]]}";2;Rue du Boisé;2;50;false;false;true;false;false;false;134.0;0;0;2;0;0;false;72060;6133275262;-73.955889;45.389231;72031;6133275289;-73.958186;45.390547;1;25;26;9488681;Bus 42 : Service AM;"";EXO;42 AM;Gare Île-Perrot;Gare Île-Perrot
129426036;"{\"type\":\"LineString\",\"coordinates\":[[-73.9602334,45.3916184],[-73.9601603,45.3915767],[-73.9596395,45.3912729],[-73.9591247,45.3909531],[-73.9590423,45.3909023],[-73.9583521,45.3905272],[-73.9582516,45.3904741]]}";1;4e Rue;2;50;false;false;true;false;false;false;100.5;0;0;4;0;0;false;72027;6133275293;-73.959537;45.391251;72025;6133275294;-73.96084;45.391899;1;27;28;9488681;Bus 42 : Service AM;"";EXO;42 AM;Gare Île-Perrot;Gare Île-Perrot
683964227;"{\"type\":\"LineString\",\"coordinates\":[[-73.9602334,45.3916184],[-73.9603036,45.3915573]]}";2;6e Avenue;2;30;false;false;true;false;false;false;9.0;0;0;0;0;0;false;72027;6133275293;-73.959537;45.391251;72025;6133275294;-73.96084;45.391899;0;27;28;9488681;Bus 42 : Service AM;"";EXO;42 AM;Gare Île-Perrot;Gare Île-Perrot
42288540;"{\"type\":\"LineString\",\"coordinates\":[[-73.9609286,45.3919128],[-73.9608882,45.3918893],[-73.9608542,45.3918695],[-73.9608209,45.3918502],[-73.9603931,45.3916087],[-73.9603036,45.3915573]]}";3;4e Rue;2;30;false;false;true;false;false;false;31.5;0;1;2;0;0;false;72027;6133275293;-73.959537;45.391251;72025;6133275294;-73.96084;45.391899;1;27;28;9488681;Bus 42 : Service AM;"";EXO;42 AM;Gare Île-Perrot;Gare Île-Perrot
455054804;"{\"type\":\"LineString\",\"coordinates\":[[-73.9636571,45.3895572],[-73.9635958,45.3896097],[-73.9635504,45.3896506],[-73.9634657,45.389724],[-73.9633912,45.3897871],[-73.9632828,45.38988],[-73.9631623,45.3899831],[-73.9630621,45.390069],[-73.962877,45.3902275],[-73.962776,45.3903159],[-73.9626642,45.3904139],[-73.9624777,45.3905713],[-73.9623083,45.3907142],[-73.9621138,45.3908837],[-73.9620816,45.3909118],[-73.9619235,45.3910496],[-73.9618468,45.3911165],[-73.9617755,45.3911786],[-73.9616902,45.3912526],[-73.9615073,45.3914111],[-73.9613152,45.3915777],[-73.9610574,45.3918012],[-73.961045,45.3918119],[-73.9610327,45.3918225],[-73.9609828,45.3918659],[-73.9609286,45.3919128]]}";1;Grand Boulevard;2;50;false;false;false;false;false;false;169.0;0;3;1;0;0;false;72043;1460579664;-73.963426;45.389875;72068;6133275256;-73.964684;45.38987;1;29;30;9488681;Bus 42 : Service AM;"";EXO;42 AM;Gare Île-Perrot;Gare Île-Perrot
455054803;"{\"type\":\"LineString\",\"coordinates\":[[-73.9639188,45.3893407],[-73.963866,45.3893844],[-73.9638127,45.3894285],[-73.9636571,45.3895572]]}";2;Grand Boulevard;2;50;false;false;false;false;false;false;32.0;1;1;0;0;0;false;72043;1460579664;-73.963426;45.389875;72068;6133275256;-73.964684;45.38987;0;29;30;9488681;Bus 42 : Service AM;"";EXO;42 AM;Gare Île-Perrot;Gare Île-Perrot
455054808;"{\"type\":\"LineString\",\"coordinates\":[[-73.9639188,45.3893407],[-73.9640233,45.3894053],[-73.9643855,45.3896151]]}";3;Boulevard Don-Quichotte;2;50;false;true;true;false;false;false;48.0;0;1;0;0;0;false;72043;1460579664;-73.963426;45.389875;72068;6133275256;-73.964684;45.38987;0;29;30;9488681;Bus 42 : Service AM;"";EXO;42 AM;Gare Île-Perrot;Gare Île-Perrot
44428436;"{\"type\":\"LineString\",\"coordinates\":[[-73.9643855,45.3896151],[-73.9646775,45.3897943],[-73.9646919,45.3898031],[-73.9648198,45.389887],[-73.9649261,45.3899567],[-73.9651272,45.3901001],[-73.9653095,45.3902384]]}";4;Boulevard Don-Quichotte;2;50;false;true;true;false;false;false;50.5;0;0;0;0;0;false;72043;1460579664;-73.963426;45.389875;72068;6133275256;-73.964684;45.38987;1;29;30;9488681;Bus 42 : Service AM;"";EXO;42 AM;Gare Île-Perrot;Gare Île-Perrot
44428436;"{\"type\":\"LineString\",\"coordinates\":[[-73.9643855,45.3896151],[-73.9646775,45.3897943],[-73.9646919,45.3898031],[-73.9648198,45.389887],[-73.9649261,45.3899567],[-73.9651272,45.3901001],[-73.9653095,45.3902384]]}";1;Boulevard Don-Quichotte;2;50;false;true;true;false;false;false;50.5;0;0;0;0;0;false;72068;6133275256;-73.964684;45.38987;72040;6133275280;-73.963554;45.395972;1;30;31;9488681;Bus 42 : Service AM;"";EXO;42 AM;Gare Île-Perrot;Gare Île-Perrot
771413784;"{\"type\":\"LineString\",\"coordinates\":[[-73.9653095,45.3902384],[-73.9656194,45.3904967],[-73.9657203,45.3905834]]}";2;Boulevard Don-Quichotte;3;50;false;true;true;false;false;false;51.0;0;0;0;0;0;false;72068;6133275256;-73.964684;45.38987;72040;6133275280;-73.963554;45.395972;0;30;31;9488681;Bus 42 : Service AM;"";EXO;42 AM;Gare Île-Perrot;Gare Île-Perrot
771413785;"{\"type\":\"LineString\",\"coordinates\":[[-73.9657203,45.3905834],[-73.9658039,45.3906659],[-73.9659778,45.3908464],[-73.966187,45.3910635],[-73.9662154,45.3910926],[-73.9663703,45.3912508],[-73.9664714,45.3913636],[-73.9665388,45.3914462],[-73.9665873,45.3915057]]}";3;Boulevard Don-Quichotte;2;50;false;true;true;false;false;false;123.0;0;2;0;0;0;false;72068;6133275256;-73.964684;45.38987;72040;6133275280;-73.963554;45.395972;0;30;31;9488681;Bus 42 : Service AM;"";EXO;42 AM;Gare Île-Perrot;Gare Île-Perrot
455054813;"{\"type\":\"LineString\",\"coordinates\":[[-73.9665873,45.3915057],[-73.9666398,45.3915568],[-73.9666781,45.3915935],[-73.9667367,45.391652],[-73.966848,45.3917569],[-73.9669774,45.3918631],[-73.9671513,45.3919971],[-73.9672887,45.3921101],[-73.9673441,45.3921628],[-73.9674696,45.3922888],[-73.9676711,45.3925266],[-73.9677669,45.3926438]]}";4;Boulevard Don-Quichotte;2;50;false;true;false;false;false;false;157.0;1;0;0;0;0;false;72068;6133275256;-73.964684;45.38987;72040;6133275280;-73.963554;45.395972;0;30;31;9488681;Bus 42 : Service AM;"";EXO;42 AM;Gare Île-Perrot;Gare Île-Perrot
455054814;"{\"type\":\"LineString\",\"coordinates\":[[-73.9677669,45.3926438],[-73.9678674,45.3927665]]}";5;Boulevard Don-Quichotte;2;50;false;true;false;false;false;false;16.0;0;0;0;0;0;false;72068;6133275256;-73.964684;45.38987;72040;6133275280;-73.963554;45.395972;0;30;31;9488681;Bus 42 : Service AM;"";EXO;42 AM;Gare Île-Perrot;Gare Île-Perrot
238847212;"{\"type\":\"LineString\",\"coordinates\":[[-73.9649822,45.3939217],[-73.9656035,45.3936022],[-73.9657947,45.3935091],[-73.9659666,45.3934339],[-73.9662375,45.3933298],[-73.9665528,45.3932145],[-73.967756,45.3927896],[-73.9677983,45.3927808],[-73.9678674,45.3927665]]}";6;Autoroute du Souvenir;4;70;false;true;false;false;false;false;261.0;1;1;0;0;0;false;72068;6133275256;-73.964684;45.38987;72040;6133275280;-73.963554;45.395972;0;30;31;9488681;Bus 42 : Service AM;"";EXO;42 AM;Gare Île-Perrot;Gare Île-Perrot
359402013;"{\"type\":\"LineString\",\"coordinates\":[[-73.9626265,45.3955765],[-73.9627953,45.3954245],[-73.9628453,45.3953791],[-73.9630978,45.3951642],[-73.9632906,45.3950139],[-73.9637765,45.394648],[-73.9641055,45.3944254],[-73.9645284,45.3941678],[-73.9646435,45.3941011],[-73.9647823,45.394024],[-73.9649822,45.3939217]]}";7;Autoroute du Souvenir;2;70;false;true;false;false;false;false;262.0;0;1;0;0;0;false;72068;6133275256;-73.964684;45.38987;72040;6133275280;-73.963554;45.395972;0;30;31;9488681;Bus 42 : Service AM;"";EXO;42 AM;Gare Île-Perrot;Gare Île-Perrot
42321756;"{\"type\":\"LineString\",\"coordinates\":[[-73.9626265,45.3955765],[-73.9627592,45.3956288],[-73.96297,45.3957118]]}";8;Boulevard Perrot Nord;3;50;false;false;true;false;false;false;31.0;1;1;0;0;0;false;72068;6133275256;-73.964684;45.38987;72040;6133275280;-73.963554;45.395972;0;30;31;9488681;Bus 42 : Service AM;"";EXO;42 AM;Gare Île-Perrot;Gare Île-Perrot
683782655;"{\"type\":\"LineString\",\"coordinates\":[[-73.96297,45.3957118],[-73.963004,45.3957269],[-73.9631155,45.3957773],[-73.9632141,45.3958302],[-73.963277,45.3958688],[-73.963355,45.3959272],[-73.9633825,45.3959568],[-73.9634088,45.3959873],[-73.9634293,45.396017],[-73.9634486,45.3960527],[-73.9634679,45.3961141],[-73.9634712,45.3961498],[-73.963472,45.3961872]]}";9;Boulevard Perrot Nord;2;50;false;false;true;false;false;false;70.0;0;1;0;0;0;false;72068;6133275256;-73.964684;45.38987;72040;6133275280;-73.963554;45.395972;1;30;31;9488681;Bus 42 : Service AM;"";EXO;42 AM;Gare Île-Perrot;Gare Île-Perrot
