way_id;shape;index;name;nb_lanes;legal_speed;speed_zone_30;oneway;shares_bike;bike_box;bus_lane;dedicated_bus_lane;length;nb_traffic_signals;nb_crossings;nb_stops;nb_give_ways;nb_lvl_crossings;roundabout;stop_id_orig;node_id_orig;coord_x_orig;coord_y_orig;stop_id_dest;node_id_dest;coord_x_dest;coord_y_dest;nb_neighbouring_ways_bus_stop;ordre_orig;ordre_dest;id_line;line_name;colour;operator;ref;from;to
725167102;"{\"type\":\"LineString\",\"coordinates\":[[-73.5225484,45.5235009],[-73.5225444,45.5235685],[-73.522529,45.5237433]]}";1;"";1;50;false;false;true;false;true;false;27.0;0;0;1;0;0;false;71031;6184473515;-73.522215;45.523795;71002;6184473540;-73.508303;45.540878;1;0;1;9532643;Bus 330 : Direction Sainte-Julie;"";EXO;330 S;Terminus Longueuil;Terminus Sainte-Julie
725167099;"{\"type\":\"LineString\",\"coordinates\":[[-73.5225484,45.5235009],[-73.5224252,45.5234948],[-73.522126,45.5234843]]}";2;Rue du Terminus;1;50;false;false;true;false;true;false;34.0;0;0;1;0;0;false;71031;6184473515;-73.522215;45.523795;71002;6184473540;-73.508303;45.540878;0;0;1;9532643;Bus 330 : Direction Sainte-Julie;"";EXO;330 S;Terminus Longueuil;Terminus Sainte-Julie
685121063;"{\"type\":\"LineString\",\"coordinates\":[[-73.522126,45.5234843],[-73.5212972,45.5234483],[-73.5204366,45.5234068],[-73.5203039,45.5234015]]}";3;Rue du Terminus;1;50;false;false;true;false;true;false;143.0;0;1;1;0;0;false;71031;6184473515;-73.522215;45.523795;71002;6184473540;-73.508303;45.540878;0;0;1;9532643;Bus 330 : Direction Sainte-Julie;"";EXO;330 S;Terminus Longueuil;Terminus Sainte-Julie
725167105;"{\"type\":\"LineString\",\"coordinates\":[[-73.5203039,45.5234015],[-73.5198457,45.5233843],[-73.5198012,45.5233819],[-73.5197533,45.5233798],[-73.5196342,45.5233746]]}";4;Rue du Terminus;1;50;false;false;true;false;true;false;53.0;1;1;0;0;0;false;71031;6184473515;-73.522215;45.523795;71002;6184473540;-73.508303;45.540878;0;0;1;9532643;Bus 330 : Direction Sainte-Julie;"";EXO;330 S;Terminus Longueuil;Terminus Sainte-Julie
41937785;"{\"type\":\"LineString\",\"coordinates\":[[-73.5196342,45.5233746],[-73.5194663,45.5233605]]}";5;"";1;50;false;false;true;false;false;false;14.0;0;0;0;0;0;false;71031;6184473515;-73.522215;45.523795;71002;6184473540;-73.508303;45.540878;0;0;1;9532643;Bus 330 : Direction Sainte-Julie;"";EXO;330 S;Terminus Longueuil;Terminus Sainte-Julie
41785841;"{\"type\":\"LineString\",\"coordinates\":[[-73.5194663,45.5233605],[-73.5194375,45.5234715],[-73.5192963,45.5240155],[-73.5192627,45.5243597],[-73.5192548,45.5246946],[-73.5192555,45.5250477],[-73.5192525,45.5250605],[-73.5192525,45.5250948],[-73.5192541,45.5251188],[-73.5192628,45.5251683]]}";6;Rue Saint-Charles Ouest;3;50;false;true;true;false;false;false;203.0;1;3;0;0;0;false;71031;6184473515;-73.522215;45.523795;71002;6184473540;-73.508303;45.540878;0;0;1;9532643;Bus 330 : Direction Sainte-Julie;"";EXO;330 S;Terminus Longueuil;Terminus Sainte-Julie
29422472;"{\"type\":\"LineString\",\"coordinates\":[[-73.5192628,45.5251683],[-73.5192762,45.5254647]]}";7;Rue Saint-Charles Ouest;2;50;false;true;true;false;false;false;33.0;0;0;0;0;0;false;71031;6184473515;-73.522215;45.523795;71002;6184473540;-73.508303;45.540878;0;0;1;9532643;Bus 330 : Direction Sainte-Julie;"";EXO;330 S;Terminus Longueuil;Terminus Sainte-Julie
470637268;"{\"type\":\"LineString\",\"coordinates\":[[-73.5192762,45.5254647],[-73.5192881,45.5255292],[-73.5194043,45.525817]]}";8;Rue Saint-Charles Ouest;1;50;false;true;true;false;false;false;41.0;0;1;0;0;0;false;71031;6184473515;-73.522215;45.523795;71002;6184473540;-73.508303;45.540878;0;0;1;9532643;Bus 330 : Direction Sainte-Julie;"";EXO;330 S;Terminus Longueuil;Terminus Sainte-Julie
753036640;"{\"type\":\"LineString\",\"coordinates\":[[-73.5194028,45.5261504],[-73.5194043,45.525817]]}";9;Rue Saint-Charles Ouest;4;50;false;false;true;false;false;false;38.0;0;0;0;0;0;false;71031;6184473515;-73.522215;45.523795;71002;6184473540;-73.508303;45.540878;0;0;1;9532643;Bus 330 : Direction Sainte-Julie;"";EXO;330 S;Terminus Longueuil;Terminus Sainte-Julie
247960205;"{\"type\":\"LineString\",\"coordinates\":[[-73.5194134,45.5267782],[-73.519413,45.5266847],[-73.5194041,45.5263872],[-73.5194028,45.5261504]]}";10;Rue Saint-Charles Ouest;3;50;false;false;true;false;false;false;70.0;1;0;0;0;0;false;71031;6184473515;-73.522215;45.523795;71002;6184473540;-73.508303;45.540878;0;0;1;9532643;Bus 330 : Direction Sainte-Julie;"";EXO;330 S;Terminus Longueuil;Terminus Sainte-Julie
247960317;"{\"type\":\"LineString\",\"coordinates\":[[-73.5194134,45.5267782],[-73.5191274,45.5268034],[-73.5186529,45.5267798],[-73.5184357,45.526769],[-73.5182302,45.5267588],[-73.5181715,45.5267559],[-73.5179061,45.5267427]]}";11;"";1;50;false;false;false;false;false;false;119.0;1;0;0;0;0;false;71031;6184473515;-73.522215;45.523795;71002;6184473540;-73.508303;45.540878;0;0;1;9532643;Bus 330 : Direction Sainte-Julie;"";EXO;330 S;Terminus Longueuil;Terminus Sainte-Julie
288454206;"{\"type\":\"LineString\",\"coordinates\":[[-73.5179061,45.5267427],[-73.5178585,45.5269747],[-73.5176654,45.5274332]]}";12;Rue Saint-Charles Ouest;1;50;false;true;false;false;false;false;80.0;0;0;0;0;0;false;71031;6184473515;-73.522215;45.523795;71002;6184473540;-73.508303;45.540878;0;0;1;9532643;Bus 330 : Direction Sainte-Julie;"";EXO;330 S;Terminus Longueuil;Terminus Sainte-Julie
40413443;"{\"type\":\"LineString\",\"coordinates\":[[-73.5176654,45.5274332],[-73.5175876,45.5276474],[-73.5175393,45.5278146],[-73.5175098,45.5279706]]}";13;Rue Saint-Charles Ouest;1;50;false;true;false;false;false;false;61.0;0;0;0;0;0;false;71031;6184473515;-73.522215;45.523795;71002;6184473540;-73.508303;45.540878;0;0;1;9532643;Bus 330 : Direction Sainte-Julie;"";EXO;330 S;Terminus Longueuil;Terminus Sainte-Julie
40413444;"{\"type\":\"LineString\",\"coordinates\":[[-73.5175098,45.5279706],[-73.5174784,45.528206],[-73.5174784,45.5283901],[-73.5174945,45.5285142],[-73.5175213,45.5286682],[-73.5175964,45.5289463],[-73.5177812,45.5296727]]}";14;Rue Saint-Charles Ouest;1;50;false;true;false;false;false;false;192.0;0;0;0;0;0;false;71031;6184473515;-73.522215;45.523795;71002;6184473540;-73.508303;45.540878;0;0;1;9532643;Bus 330 : Direction Sainte-Julie;"";EXO;330 S;Terminus Longueuil;Terminus Sainte-Julie
147608676;"{\"type\":\"LineString\",\"coordinates\":[[-73.5177812,45.5296727],[-73.5179592,45.530193],[-73.5181067,45.5306071],[-73.5181299,45.5308215],[-73.5181023,45.5309964],[-73.5180342,45.5311396],[-73.5180108,45.5311888],[-73.5179915,45.5312292]]}";15;Rue Saint-Charles Ouest;1;50;false;true;false;false;false;false;178.0;1;1;0;0;0;false;71031;6184473515;-73.522215;45.523795;71002;6184473540;-73.508303;45.540878;0;0;1;9532643;Bus 330 : Direction Sainte-Julie;"";EXO;330 S;Terminus Longueuil;Terminus Sainte-Julie
480202994;"{\"type\":\"LineString\",\"coordinates\":[[-73.5181293,45.5312674],[-73.5179915,45.5312292]]}";16;Rue Joliette;1;50;false;false;true;false;false;false;12.0;0;0;0;0;0;false;71031;6184473515;-73.522215;45.523795;71002;6184473540;-73.508303;45.540878;0;0;1;9532643;Bus 330 : Direction Sainte-Julie;"";EXO;330 S;Terminus Longueuil;Terminus Sainte-Julie
42049816;"{\"type\":\"LineString\",\"coordinates\":[[-73.519035,45.5315691],[-73.5189914,45.5315546],[-73.5189407,45.5315377],[-73.5187501,45.5314742],[-73.5186616,45.5314447],[-73.5183716,45.5313481],[-73.5182664,45.5313131],[-73.5182389,45.5313039],[-73.5181293,45.5312674]]}";17;Rue Joliette;1;50;false;false;true;false;false;false;79.0;1;2;0;0;0;false;71031;6184473515;-73.522215;45.523795;71002;6184473540;-73.508303;45.540878;0;0;1;9532643;Bus 330 : Direction Sainte-Julie;"";EXO;330 S;Terminus Longueuil;Terminus Sainte-Julie
685121016;"{\"type\":\"LineString\",\"coordinates\":[[-73.5193232,45.5317093],[-73.5191174,45.5316092],[-73.519035,45.5315691]]}";18;Rue Joliette;1;50;false;false;true;false;false;false;28.0;0;1;0;0;0;false;71031;6184473515;-73.522215;45.523795;71002;6184473540;-73.508303;45.540878;0;0;1;9532643;Bus 330 : Direction Sainte-Julie;"";EXO;330 S;Terminus Longueuil;Terminus Sainte-Julie
504000961;"{\"type\":\"LineString\",\"coordinates\":[[-73.519619,45.5320431],[-73.5195856,45.5319877],[-73.5195141,45.5318689],[-73.5193794,45.5317563],[-73.5193232,45.5317093]]}";19;Rue Joliette;1;50;false;false;true;false;false;false;45.0;0;0;0;0;0;false;71031;6184473515;-73.522215;45.523795;71002;6184473540;-73.508303;45.540878;0;0;1;9532643;Bus 330 : Direction Sainte-Julie;"";EXO;330 S;Terminus Longueuil;Terminus Sainte-Julie
521042423;"{\"type\":\"LineString\",\"coordinates\":[[-73.5183492,45.534018],[-73.518632,45.5336782],[-73.5189524,45.5332866],[-73.5192289,45.5329299],[-73.5192639,45.5328835],[-73.519447,45.5326403],[-73.5195389,45.5325064],[-73.5195981,45.5323962],[-73.5196378,45.5321776],[-73.519619,45.5320431]]}";20;Rue du Bord-de-l'Eau Ouest;1;50;false;false;true;false;false;false;245.0;0;0;0;0;0;false;71031;6184473515;-73.522215;45.523795;71002;6184473540;-73.508303;45.540878;0;0;1;9532643;Bus 330 : Direction Sainte-Julie;"";EXO;330 S;Terminus Longueuil;Terminus Sainte-Julie
339943794;"{\"type\":\"LineString\",\"coordinates\":[[-73.5098563,45.5415579],[-73.5102455,45.5411613],[-73.510648,45.5408346],[-73.5109807,45.5405634],[-73.5111994,45.5404043],[-73.5114849,45.5402006],[-73.5117016,45.5400594],[-73.5121496,45.5397567],[-73.5123056,45.5396432],[-73.5123681,45.5395965],[-73.512457,45.5395301],[-73.512541,45.5394628],[-73.5128851,45.5392102],[-73.5130461,45.5390983],[-73.513418,45.5388401],[-73.5137035,45.5386417],[-73.5139893,45.5384317],[-73.5144074,45.5381246],[-73.5150039,45.5376568],[-73.515362,45.5373761],[-73.5157691,45.5369834],[-73.5159087,45.5368487],[-73.5160381,45.5367239],[-73.5161695,45.5365639],[-73.5165504,45.5361],[-73.5166764,45.5359527],[-73.5167606,45.5358542],[-73.5169433,45.5356407],[-73.5170545,45.5355107],[-73.5171728,45.5353724],[-73.5176698,45.5348002],[-73.5183492,45.534018]]}";21;Rue du Bord-de-l'Eau Ouest;1;50;false;false;true;false;false;false;1074.0;0;2;0;0;0;false;71031;6184473515;-73.522215;45.523795;71002;6184473540;-73.508303;45.540878;0;0;1;9532643;Bus 330 : Direction Sainte-Julie;"";EXO;330 S;Terminus Longueuil;Terminus Sainte-Julie
39599595;"{\"type\":\"LineString\",\"coordinates\":[[-73.5080897,45.5408685],[-73.508172,45.5409006],[-73.5085973,45.5410666],[-73.5090393,45.5412391],[-73.5092952,45.5413389],[-73.5095977,45.541457],[-73.5098563,45.5415579]]}";22;Chemin de Chambly;1;50;false;false;true;false;false;false;79.0;1;0;0;0;0;false;71031;6184473515;-73.522215;45.523795;71002;6184473540;-73.508303;45.540878;1;0;1;9532643;Bus 330 : Direction Sainte-Julie;"";EXO;330 S;Terminus Longueuil;Terminus Sainte-Julie
685121056;"{\"type\":\"LineString\",\"coordinates\":[[-73.5080897,45.5408685],[-73.508157,45.5407678]]}";1;Rue Saint-Charles Ouest;1;30;false;false;true;false;false;false;13.0;0;0;0;0;0;false;71002;6184473540;-73.508303;45.540878;71051;6184473499;-73.495453;45.536819;2;1;2;9532643;Bus 330 : Direction Sainte-Julie;"";EXO;330 S;Terminus Longueuil;Terminus Sainte-Julie
42057025;"{\"type\":\"LineString\",\"coordinates\":[[-73.508157,45.5407678],[-73.5074219,45.540472],[-73.5070905,45.5403386],[-73.5065328,45.5401062],[-73.5057319,45.5397723],[-73.5055652,45.5397039],[-73.5050606,45.5394972],[-73.50497,45.5394606],[-73.5048404,45.5393927],[-73.5047295,45.5393087],[-73.5045253,45.539139],[-73.5043051,45.5389647],[-73.504078,45.5387756],[-73.50398,45.5387049],[-73.5038887,45.5386562],[-73.5034939,45.5384837],[-73.5030617,45.5383069],[-73.5022179,45.5379539],[-73.5021642,45.5379305]]}";2;Chemin de Chambly;1;50;false;true;true;false;false;false;569.0;3;0;0;0;0;false;71002;6184473540;-73.508303;45.540878;71051;6184473499;-73.495453;45.536819;0;1;2;9532643;Bus 330 : Direction Sainte-Julie;"";EXO;330 S;Terminus Longueuil;Terminus Sainte-Julie
460088508;"{\"type\":\"LineString\",\"coordinates\":[[-73.5021642,45.5379305],[-73.5012145,45.537534],[-73.5003033,45.5371541],[-73.4997628,45.5369288],[-73.4996405,45.5368779],[-73.4995377,45.5368328],[-73.4972352,45.5358503],[-73.4970013,45.5357505],[-73.4969635,45.5357347],[-73.4968673,45.5356944]]}";3;Chemin de Chambly;1;50;false;true;true;false;false;false;483.0;2;1;0;0;0;false;71002;6184473540;-73.508303;45.540878;71051;6184473499;-73.495453;45.536819;0;1;2;9532643;Bus 330 : Direction Sainte-Julie;"";EXO;330 S;Terminus Longueuil;Terminus Sainte-Julie
698759395;"{\"type\":\"LineString\",\"coordinates\":[[-73.4968673,45.5356944],[-73.4966364,45.5357212],[-73.4965927,45.5357666],[-73.4965084,45.535854],[-73.49641,45.5359562],[-73.4960385,45.5363422],[-73.4960163,45.5363646],[-73.4959495,45.5364325],[-73.4958032,45.5365808],[-73.4953893,45.5370006]]}";4;Rue de Gentilly Est;1;50;false;true;false;false;false;false;191.0;0;2;0;0;0;false;71002;6184473540;-73.508303;45.540878;71051;6184473499;-73.495453;45.536819;2;1;2;9532643;Bus 330 : Direction Sainte-Julie;"";EXO;330 S;Terminus Longueuil;Terminus Sainte-Julie
698759395;"{\"type\":\"LineString\",\"coordinates\":[[-73.4968673,45.5356944],[-73.4966364,45.5357212],[-73.4965927,45.5357666],[-73.4965084,45.535854],[-73.49641,45.5359562],[-73.4960385,45.5363422],[-73.4960163,45.5363646],[-73.4959495,45.5364325],[-73.4958032,45.5365808],[-73.4953893,45.5370006]]}";1;Rue de Gentilly Est;1;50;false;true;false;false;false;false;95.5;0;2;0;0;0;false;71051;6184473499;-73.495453;45.536819;71015;6184473527;-73.464137;45.536563;1;2;3;9532643;Bus 330 : Direction Sainte-Julie;"";EXO;330 S;Terminus Longueuil;Terminus Sainte-Julie
698759394;"{\"type\":\"LineString\",\"coordinates\":[[-73.4953893,45.5370006],[-73.494756,45.537654],[-73.4946937,45.5377165]]}";2;Rue de Gentilly Est;1;50;false;true;false;false;false;false;97.0;0;1;0;0;0;false;71051;6184473499;-73.495453;45.536819;71015;6184473527;-73.464137;45.536563;0;2;3;9532643;Bus 330 : Direction Sainte-Julie;"";EXO;330 S;Terminus Longueuil;Terminus Sainte-Julie
686674275;"{\"type\":\"LineString\",\"coordinates\":[[-73.4946937,45.5377165],[-73.4946336,45.5377767],[-73.4932621,45.5391504],[-73.4931125,45.5393003],[-73.4926277,45.5397859],[-73.4920985,45.540316],[-73.4919744,45.5404402],[-73.4919582,45.5404565],[-73.4918922,45.5405226],[-73.4918223,45.5405926],[-73.4913049,45.5411109],[-73.4912694,45.5411464],[-73.4911985,45.5412174]]}";3;Rue de Gentilly Est;1;50;false;true;false;false;false;false;475.0;2;3;0;0;0;false;71051;6184473499;-73.495453;45.536819;71015;6184473527;-73.464137;45.536563;0;2;3;9532643;Bus 330 : Direction Sainte-Julie;"";EXO;330 S;Terminus Longueuil;Terminus Sainte-Julie
634085641;"{\"type\":\"LineString\",\"coordinates\":[[-73.4911985,45.5412174],[-73.4911227,45.5411378],[-73.4909517,45.5409581],[-73.4906853,45.5407562],[-73.4903741,45.5406134],[-73.4900275,45.5404931],[-73.4896008,45.5404405],[-73.4892242,45.5404347],[-73.4884776,45.5404641],[-73.4880515,45.5404583],[-73.487616,45.5404524],[-73.4871724,45.540417],[-73.4867766,45.5403333],[-73.4863852,45.5401969],[-73.4862445,45.5401332],[-73.4855637,45.5398534],[-73.4846883,45.5395179],[-73.4837523,45.5391562],[-73.4828929,45.5388714],[-73.482772,45.5388313],[-73.4826861,45.5388064],[-73.4819544,45.5385945],[-73.481441,45.538479],[-73.4804706,45.5382259],[-73.4802844,45.5381654],[-73.4800799,45.538099],[-73.4799642,45.5380614],[-73.4799066,45.5380427],[-73.4798012,45.5380085],[-73.4796661,45.5379704],[-73.4795316,45.5379325],[-73.4794387,45.5379063],[-73.4790977,45.5377804],[-73.4789961,45.5377429],[-73.4787294,45.5376444],[-73.4780792,45.537447],[-73.4778013,45.5373831],[-73.477644,45.5373469],[-73.4773779,45.5373109],[-73.4772568,45.5373037],[-73.4766034,45.5372174],[-73.4760399,45.5371973],[-73.4753532,45.5371973],[-73.4743061,45.5372575],[-73.4733019,45.5373372],[-73.473053,45.5373536],[-73.4723358,45.5373676],[-73.4722906,45.5373685],[-73.4721526,45.5373712],[-73.4719847,45.5373724],[-73.4714558,45.5373761],[-73.4707012,45.5372935],[-73.4699719,45.5371336],[-73.4692971,45.5369866],[-73.4692292,45.5369718],[-73.4691305,45.5369502],[-73.4680405,45.5367044],[-73.4675899,45.5365361],[-73.4671666,45.5362989],[-73.4670749,45.5362475],[-73.466187,45.5354976],[-73.4660343,45.5353687]]}";4;Boulevard Roland-Therrien;3;50;false;true;true;false;true;false;2149.0;7;4;0;0;0;false;71051;6184473499;-73.495453;45.536819;71015;6184473527;-73.464137;45.536563;0;2;3;9532643;Bus 330 : Direction Sainte-Julie;"";EXO;330 S;Terminus Longueuil;Terminus Sainte-Julie
459142708;"{\"type\":\"LineString\",\"coordinates\":[[-73.4660343,45.5353687],[-73.4658579,45.5354776]]}";5;Chemin du Tremblay;1;50;false;false;true;false;false;false;19.0;0;0;0;0;0;false;71051;6184473499;-73.495453;45.536819;71015;6184473527;-73.464137;45.536563;0;2;3;9532643;Bus 330 : Direction Sainte-Julie;"";EXO;330 S;Terminus Longueuil;Terminus Sainte-Julie
687160157;"{\"type\":\"LineString\",\"coordinates\":[[-73.4658579,45.5354776],[-73.4658358,45.5354921],[-73.4657751,45.535532],[-73.4657212,45.5355674],[-73.4654646,45.5357362],[-73.4652813,45.5358567],[-73.465085,45.5359839],[-73.4648756,45.5361197],[-73.4645669,45.5363197],[-73.4645232,45.536348],[-73.4643917,45.5364333],[-73.4642424,45.53653],[-73.4641581,45.5365847]]}";6;Chemin du Tremblay;1;50;false;false;true;false;false;false;90.5;1;1;0;0;0;false;71051;6184473499;-73.495453;45.536819;71015;6184473527;-73.464137;45.536563;1;2;3;9532643;Bus 330 : Direction Sainte-Julie;"";EXO;330 S;Terminus Longueuil;Terminus Sainte-Julie
