way_id;shape;index;name;nb_lanes;legal_speed;speed_zone_30;oneway;shares_bike;bike_box;bus_lane;dedicated_bus_lane;length;nb_traffic_signals;nb_crossings;nb_stops;nb_give_ways;nb_lvl_crossings;roundabout;stop_id_orig;node_id_orig;coord_x_orig;coord_y_orig;stop_id_dest;node_id_dest;coord_x_dest;coord_y_dest;nb_neighbouring_ways_bus_stop;ordre_orig;ordre_dest;id_line;line_name;colour;operator;ref;from;to
681441411;"{\"type\":\"LineString\",\"coordinates\":[[-73.4711628,45.7166175],[-73.471316,45.7167077],[-73.471399,45.7167491],[-73.47186,45.7169157],[-73.4723723,45.717084]]}";1;Boulevard Claude-David;1;50;false;true;true;false;false;false;108.0;0;1;0;0;0;false;87555;692299719;-73.472131;45.717082;87556;6127178136;-73.474488;45.7178;1;0;1;9462700;Bus 15 : Direction Iberville/Jacques-Plante;"";EXO;15 E;boul. Claude-David / rue Notre-Dame;boul. Iberville / rue Jacques-Plante
759205432;"{\"type\":\"LineString\",\"coordinates\":[[-73.4723723,45.717084],[-73.4726542,45.7171812],[-73.4730272,45.7172968],[-73.4731075,45.7173169],[-73.4735194,45.7174384],[-73.4736412,45.7174401]]}";2;Boulevard Claude-David;1;50;false;true;true;false;false;false;108.0;0;0;0;0;0;false;87555;692299719;-73.472131;45.717082;87556;6127178136;-73.474488;45.7178;0;0;1;9462700;Bus 15 : Direction Iberville/Jacques-Plante;"";EXO;15 E;boul. Claude-David / rue Notre-Dame;boul. Iberville / rue Jacques-Plante
24817588;"{\"type\":\"LineString\",\"coordinates\":[[-73.4798616,45.7195767],[-73.4791747,45.7193549],[-73.476853,45.7185636],[-73.4749089,45.7178808],[-73.4746426,45.7177921],[-73.4736412,45.7174401]]}";3;Boulevard Claude-David;1;50;false;false;true;false;false;false;539.0;0;0;0;0;0;false;87555;692299719;-73.472131;45.717082;87556;6127178136;-73.474488;45.7178;2;0;1;9462700;Bus 15 : Direction Iberville/Jacques-Plante;"";EXO;15 E;boul. Claude-David / rue Notre-Dame;boul. Iberville / rue Jacques-Plante
766312166;"{\"type\":\"LineString\",\"coordinates\":[[-73.4801109,45.717606],[-73.480107,45.7176317],[-73.4799721,45.7185266],[-73.4798616,45.7195767]]}";1;Boulevard de L'Assomption;1;50;false;false;true;false;false;false;220.0;1;1;0;0;0;false;87557;6127178135;-73.479771;45.719629;87558;6127178134;-73.480142;45.71756;2;2;3;9462700;Bus 15 : Direction Iberville/Jacques-Plante;"";EXO;15 E;boul. Claude-David / rue Notre-Dame;boul. Iberville / rue Jacques-Plante
681441413;"{\"type\":\"LineString\",\"coordinates\":[[-73.4801278,45.7175184],[-73.4801156,45.7175886],[-73.4801109,45.717606]]}";2;Boulevard de L'Assomption;1;50;false;false;true;false;false;false;10.0;0;1;0;0;0;false;87557;6127178135;-73.479771;45.719629;87558;6127178134;-73.480142;45.71756;2;2;3;9462700;Bus 15 : Direction Iberville/Jacques-Plante;"";EXO;15 E;boul. Claude-David / rue Notre-Dame;boul. Iberville / rue Jacques-Plante
766312168;"{\"type\":\"LineString\",\"coordinates\":[[-73.4800312,45.7175092],[-73.4800602,45.7175118],[-73.4801278,45.7175184]]}";1;Boulevard Notre-Dame-des-Champs;1;50;false;false;true;false;false;false;8.0;0;1;0;0;0;false;87558;6127178134;-73.480142;45.71756;87554;6127178137;-73.476204;45.715269;2;3;4;9462700;Bus 15 : Direction Iberville/Jacques-Plante;"";EXO;15 E;boul. Claude-David / rue Notre-Dame;boul. Iberville / rue Jacques-Plante
241805721;"{\"type\":\"LineString\",\"coordinates\":[[-73.4765751,45.7157837],[-73.47723,45.7163714],[-73.4776225,45.7167236],[-73.477748,45.7168194],[-73.4779253,45.7169352],[-73.4782119,45.7170882],[-73.4785607,45.7172361],[-73.4789106,45.7173405],[-73.4792043,45.7174095],[-73.4794857,45.7174563],[-73.4797626,45.7174839],[-73.4798484,45.7174925],[-73.479987,45.7175052],[-73.4800312,45.7175092]]}";2;Boulevard Notre-Dame-des-Champs;4;50;false;false;true;false;false;false;345.0;1;1;0;0;0;false;87558;6127178134;-73.480142;45.71756;87554;6127178137;-73.476204;45.715269;0;3;4;9462700;Bus 15 : Direction Iberville/Jacques-Plante;"";EXO;15 E;boul. Claude-David / rue Notre-Dame;boul. Iberville / rue Jacques-Plante
462146738;"{\"type\":\"LineString\",\"coordinates\":[[-73.4765751,45.7157837],[-73.4764544,45.7155917],[-73.4762434,45.7153963],[-73.4760955,45.7152575],[-73.4757432,45.7149442],[-73.4754412,45.7146862]]}";3;Boulevard Notre-Dame-des-Champs;1;50;false;true;true;false;false;false;152.0;0;0;0;0;0;false;87558;6127178134;-73.480142;45.71756;87554;6127178137;-73.476204;45.715269;2;3;4;9462700;Bus 15 : Direction Iberville/Jacques-Plante;"";EXO;15 E;boul. Claude-David / rue Notre-Dame;boul. Iberville / rue Jacques-Plante
462146738;"{\"type\":\"LineString\",\"coordinates\":[[-73.4765751,45.7157837],[-73.4764544,45.7155917],[-73.4762434,45.7153963],[-73.4760955,45.7152575],[-73.4757432,45.7149442],[-73.4754412,45.7146862]]}";1;Boulevard Notre-Dame-des-Champs;1;50;false;true;true;false;false;false;76.0;0;0;0;0;0;false;87554;6127178137;-73.476204;45.715269;87300;7157101915;-73.4746074;45.7145273;1;4;5;9462700;Bus 15 : Direction Iberville/Jacques-Plante;"";EXO;15 E;boul. Claude-David / rue Notre-Dame;boul. Iberville / rue Jacques-Plante
681965062;"{\"type\":\"LineString\",\"coordinates\":[[-73.4754412,45.7146862],[-73.4752482,45.714531],[-73.47524,45.7145222],[-73.4751748,45.7144526]]}";2;Boulevard Notre-Dame-des-Champs;1;50;false;true;true;false;false;false;34.0;1;0;0;0;0;false;87554;6127178137;-73.476204;45.715269;87300;7157101915;-73.4746074;45.7145273;0;4;5;9462700;Bus 15 : Direction Iberville/Jacques-Plante;"";EXO;15 E;boul. Claude-David / rue Notre-Dame;boul. Iberville / rue Jacques-Plante
462146737;"{\"type\":\"LineString\",\"coordinates\":[[-73.4751748,45.7144526],[-73.4750161,45.7143461]]}";3;Boulevard Notre-Dame-des-Champs;1;50;false;true;true;false;false;false;18.0;0;0;0;0;0;false;87554;6127178137;-73.476204;45.715269;87300;7157101915;-73.4746074;45.7145273;0;4;5;9462700;Bus 15 : Direction Iberville/Jacques-Plante;"";EXO;15 E;boul. Claude-David / rue Notre-Dame;boul. Iberville / rue Jacques-Plante
49156431;"{\"type\":\"LineString\",\"coordinates\":[[-73.4750161,45.7143461],[-73.4748838,45.7144073],[-73.4745315,45.7146273],[-73.4742817,45.7147823],[-73.4742048,45.71483],[-73.4740361,45.7149777]]}";4;Rue Notre-Dame;2;50;false;true;true;false;false;false;52.5;0;0;0;0;0;false;87554;6127178137;-73.476204;45.715269;87300;7157101915;-73.4746074;45.7145273;1;4;5;9462700;Bus 15 : Direction Iberville/Jacques-Plante;"";EXO;15 E;boul. Claude-David / rue Notre-Dame;boul. Iberville / rue Jacques-Plante
49156431;"{\"type\":\"LineString\",\"coordinates\":[[-73.4750161,45.7143461],[-73.4748838,45.7144073],[-73.4745315,45.7146273],[-73.4742817,45.7147823],[-73.4742048,45.71483],[-73.4740361,45.7149777]]}";1;Rue Notre-Dame;2;50;false;true;true;false;false;false;52.5;0;0;0;0;0;false;87300;7157101915;-73.4746074;45.7145273;87301;6381466190;-73.4711726;45.7165683;1;5;6;9462700;Bus 15 : Direction Iberville/Jacques-Plante;"";EXO;15 E;boul. Claude-David / rue Notre-Dame;boul. Iberville / rue Jacques-Plante
759205439;"{\"type\":\"LineString\",\"coordinates\":[[-73.4714136,45.7164617],[-73.4719916,45.7161122],[-73.4721924,45.7159909],[-73.472332,45.7159065],[-73.4725113,45.7157981],[-73.4740361,45.7149777]]}";2;Rue Notre-Dame;4;50;false;false;true;false;false;false;263.0;0;0;0;0;0;false;87300;7157101915;-73.4746074;45.7145273;87301;6381466190;-73.4711726;45.7165683;0;5;6;9462700;Bus 15 : Direction Iberville/Jacques-Plante;"";EXO;15 E;boul. Claude-David / rue Notre-Dame;boul. Iberville / rue Jacques-Plante
759205438;"{\"type\":\"LineString\",\"coordinates\":[[-73.4713221,45.7165191],[-73.4714136,45.7164617]]}";3;Rue Notre-Dame;4;50;false;false;true;false;false;false;10.0;0;0;0;0;0;false;87300;7157101915;-73.4746074;45.7145273;87301;6381466190;-73.4711726;45.7165683;0;5;6;9462700;Bus 15 : Direction Iberville/Jacques-Plante;"";EXO;15 E;boul. Claude-David / rue Notre-Dame;boul. Iberville / rue Jacques-Plante
681441412;"{\"type\":\"LineString\",\"coordinates\":[[-73.4711628,45.7166175],[-73.4712838,45.7165428],[-73.4713221,45.7165191]]}";4;Rue Notre-Dame;4;50;false;false;true;false;false;false;8.5;1;0;0;0;0;false;87300;7157101915;-73.4746074;45.7145273;87301;6381466190;-73.4711726;45.7165683;1;5;6;9462700;Bus 15 : Direction Iberville/Jacques-Plante;"";EXO;15 E;boul. Claude-David / rue Notre-Dame;boul. Iberville / rue Jacques-Plante
681441411;"{\"type\":\"LineString\",\"coordinates\":[[-73.4711628,45.7166175],[-73.471316,45.7167077],[-73.471399,45.7167491],[-73.47186,45.7169157],[-73.4723723,45.717084]]}";1;Boulevard Claude-David;1;50;false;true;true;false;false;false;108.0;0;1;0;0;0;false;87301;6381466190;-73.4711726;45.7165683;88400;1324507701;-73.4684005;45.7183263;3;6;7;9462700;Bus 15 : Direction Iberville/Jacques-Plante;"";EXO;15 E;boul. Claude-David / rue Notre-Dame;boul. Iberville / rue Jacques-Plante
681655319;"{\"type\":\"LineString\",\"coordinates\":[[-73.4683591,45.7184608],[-73.4684211,45.71842],[-73.4684406,45.7184072],[-73.4688031,45.7181689],[-73.4688891,45.7181124],[-73.4690779,45.7179883],[-73.4693146,45.7178326],[-73.4696071,45.7176403],[-73.469704,45.7175766],[-73.4698299,45.7174938],[-73.4699607,45.7174078],[-73.4701563,45.7172792],[-73.470495,45.7170565],[-73.4710652,45.7166816],[-73.4711628,45.7166175]]}";2;Rue Notre-Dame;4;50;false;false;true;false;false;false;300.0;2;1;0;0;0;false;87301;6381466190;-73.4711726;45.7165683;88400;1324507701;-73.4684005;45.7183263;3;6;7;9462700;Bus 15 : Direction Iberville/Jacques-Plante;"";EXO;15 E;boul. Claude-David / rue Notre-Dame;boul. Iberville / rue Jacques-Plante
681989269;"{\"type\":\"LineString\",\"coordinates\":[[-73.4682655,45.7185232],[-73.4683591,45.7184608]]}";1;Rue Notre-Dame;4;50;false;false;true;false;false;false;11.0;0;0;0;0;0;false;88400;1324507701;-73.4684005;45.7183263;88401;6127177279;-73.46389;45.721;2;7;8;9462700;Bus 15 : Direction Iberville/Jacques-Plante;"";EXO;15 E;boul. Claude-David / rue Notre-Dame;boul. Iberville / rue Jacques-Plante
242287913;"{\"type\":\"LineString\",\"coordinates\":[[-73.4451751,45.7400681],[-73.4456806,45.7397657],[-73.4459159,45.7395965],[-73.4460068,45.7395122],[-73.4464559,45.7390915],[-73.446746,45.7387909],[-73.4467801,45.738752],[-73.447225,45.7382981],[-73.4477232,45.7378269],[-73.448121,45.7374517],[-73.4496018,45.7359994],[-73.449928,45.7356847],[-73.4503036,45.7353253],[-73.4510674,45.7345784],[-73.4516636,45.7340423],[-73.4517307,45.733982],[-73.4524448,45.7334121],[-73.452519,45.7333524],[-73.4526955,45.7332104],[-73.453087,45.7329089],[-73.4535396,45.7325606],[-73.4537913,45.7323633],[-73.4543622,45.731911],[-73.4548104,45.7315063],[-73.4550703,45.7312691],[-73.4553283,45.7309635],[-73.4554805,45.7307676],[-73.4557629,45.7304024],[-73.4560067,45.7300595],[-73.456059,45.7299789],[-73.4561537,45.7297995],[-73.4562542,45.7296142],[-73.4563183,45.7295009],[-73.4564201,45.7292877],[-73.4564778,45.7291845],[-73.4564809,45.7291783],[-73.4565491,45.7290411],[-73.456566,45.729008],[-73.4565683,45.7290035],[-73.456647,45.7288501],[-73.456719,45.728718],[-73.4569413,45.7283004],[-73.4569516,45.7282776],[-73.4570793,45.7280443],[-73.4572121,45.7277968],[-73.4573971,45.7274435],[-73.4575844,45.7270927],[-73.4576063,45.7270505],[-73.4577349,45.7268029],[-73.4577879,45.7267007],[-73.4580222,45.7262496],[-73.4584362,45.7254524],[-73.4584604,45.7254088],[-73.4585264,45.7252894],[-73.4585495,45.7252478],[-73.4586814,45.7250162],[-73.4586936,45.7249904],[-73.4588822,45.7247259],[-73.458896,45.7247087],[-73.459173,45.7243691],[-73.4593706,45.7241688],[-73.4595021,45.7240354],[-73.459573,45.7239709],[-73.4596299,45.7239192],[-73.4599825,45.7236238],[-73.4603408,45.7233447],[-73.4605223,45.7232067],[-73.4610485,45.7228066],[-73.4610851,45.7227788],[-73.4612008,45.7226958],[-73.461526,45.7224622],[-73.4617472,45.7223054],[-73.4618791,45.7222119],[-73.4621897,45.7219923],[-73.4622174,45.7219761],[-73.4627959,45.7216376],[-73.4629201,45.7215649],[-73.4630871,45.7214672],[-73.4631059,45.7214562],[-73.4632907,45.7213552],[-73.4636068,45.7211825],[-73.4636377,45.7211656],[-73.4638654,45.7210482],[-73.4641025,45.7209196],[-73.4643686,45.7207753],[-73.4644213,45.7207467],[-73.4644632,45.7207241],[-73.4649,45.7204885],[-73.4649643,45.7204538],[-73.4650994,45.7203819],[-73.465165,45.720347],[-73.4652953,45.7202776],[-73.4654497,45.7201915],[-73.4655649,45.7201273],[-73.4656073,45.7201046],[-73.4658088,45.7199967],[-73.4660493,45.7198679],[-73.4661805,45.7197977],[-73.4664831,45.7196259],[-73.4667329,45.7194783],[-73.46693,45.7193618],[-73.467128,45.7192448],[-73.4673789,45.7190862],[-73.467532,45.7189894],[-73.4676687,45.7189],[-73.467698,45.7188813],[-73.4677454,45.7188509],[-73.4679809,45.7187002],[-73.4680437,45.71866],[-73.4681246,45.7186082],[-73.4681425,45.7185968],[-73.4682655,45.7185232]]}";2;Rue Notre-Dame;4;50;false;false;true;false;false;false;3042.0;2;0;0;0;0;false;88400;1324507701;-73.4684005;45.7183263;88401;6127177279;-73.46389;45.721;2;7;8;9462700;Bus 15 : Direction Iberville/Jacques-Plante;"";EXO;15 E;boul. Claude-David / rue Notre-Dame;boul. Iberville / rue Jacques-Plante
