way_id;shape;index;name;nb_lanes;legal_speed;speed_zone_30;oneway;shares_bike;bike_box;bus_lane;dedicated_bus_lane;length;nb_traffic_signals;nb_crossings;nb_stops;nb_give_ways;nb_lvl_crossings;roundabout;stop_id_orig;node_id_orig;coord_x_orig;coord_y_orig;stop_id_dest;node_id_dest;coord_x_dest;coord_y_dest;nb_neighbouring_ways_bus_stop;ordre_orig;ordre_dest;id_line;line_name;colour;operator;ref;from;to
460561572;"{\"type\":\"LineString\",\"coordinates\":[[-73.6674848,45.5567468],[-73.6676014,45.5567803],[-73.6682749,45.556974]]}";1;Avenue Millen;1;50;false;true;true;false;false;false;67.0;1;1;0;0;0;false;50314;1751310681;-73.668029;45.556953;50301;1751328037;-73.6692817;45.5538506;1;0;1;4637127;Bus 55 : Boulevard Saint-Laurent Sud;"";STM;55-S;Millen / Henri-Bourassa;Saint-Laurent / Saint-Jacques
317988204;"{\"type\":\"LineString\",\"coordinates\":[[-73.6682749,45.556974],[-73.6694573,45.5572955],[-73.6695045,45.5573077]]}";2;Avenue Millen;1;50;false;true;true;false;false;false;103.0;1;0;0;0;0;false;50314;1751310681;-73.668029;45.556953;50301;1751328037;-73.6692817;45.5538506;0;0;1;4637127;Bus 55 : Boulevard Saint-Laurent Sud;"";STM;55-S;Millen / Henri-Bourassa;Saint-Laurent / Saint-Jacques
607187564;"{\"type\":\"LineString\",\"coordinates\":[[-73.6702896,45.5566068],[-73.6696462,45.5571806],[-73.6696063,45.557217],[-73.6695045,45.5573077]]}";3;Boulevard Gouin Est;2;50;false;false;true;false;false;false;100.0;1;0;0;0;0;false;50314;1751310681;-73.668029;45.556953;50301;1751328037;-73.6692817;45.5538506;0;0;1;4637127;Bus 55 : Boulevard Saint-Laurent Sud;"";STM;55-S;Millen / Henri-Bourassa;Saint-Laurent / Saint-Jacques
607187563;"{\"type\":\"LineString\",\"coordinates\":[[-73.6702896,45.5566068],[-73.670608,45.5564985]]}";4;"";2;50;false;true;true;false;false;false;28.0;0;0;0;0;0;false;50314;1751310681;-73.668029;45.556953;50301;1751328037;-73.6692817;45.5538506;0;0;1;4637127;Bus 55 : Boulevard Saint-Laurent Sud;"";STM;55-S;Millen / Henri-Bourassa;Saint-Laurent / Saint-Jacques
37182026;"{\"type\":\"LineString\",\"coordinates\":[[-73.670608,45.5564985],[-73.6710308,45.5560781],[-73.6710759,45.5560333]]}";5;Boulevard Gouin Est;1;50;false;true;true;false;false;false;64.0;1;1;0;0;0;false;50314;1751310681;-73.668029;45.556953;50301;1751328037;-73.6692817;45.5538506;0;0;1;4637127;Bus 55 : Boulevard Saint-Laurent Sud;"";STM;55-S;Millen / Henri-Bourassa;Saint-Laurent / Saint-Jacques
234155502;"{\"type\":\"LineString\",\"coordinates\":[[-73.6710759,45.5560333],[-73.6711349,45.5559516],[-73.6711416,45.5559423],[-73.6713096,45.5557099]]}";6;Boulevard Gouin Est;1;50;false;true;false;false;false;false;41.0;1;1;0;0;0;false;50314;1751310681;-73.668029;45.556953;50301;1751328037;-73.6692817;45.5538506;0;0;1;4637127;Bus 55 : Boulevard Saint-Laurent Sud;"";STM;55-S;Millen / Henri-Bourassa;Saint-Laurent / Saint-Jacques
234155500;"{\"type\":\"LineString\",\"coordinates\":[[-73.6716182,45.5553466],[-73.6713096,45.5557099]]}";7;Boulevard Gouin Est;2;50;false;false;false;false;false;false;47.0;1;0;0;0;0;false;50314;1751310681;-73.668029;45.556953;50301;1751328037;-73.6692817;45.5538506;0;0;1;4637127;Bus 55 : Boulevard Saint-Laurent Sud;"";STM;55-S;Millen / Henri-Bourassa;Saint-Laurent / Saint-Jacques
460561578;"{\"type\":\"LineString\",\"coordinates\":[[-73.6716182,45.5553466],[-73.6715388,45.5553273],[-73.669362,45.5546881],[-73.6687585,45.5545094]]}";8;Rue Berri;2;50;false;true;false;false;false;false;242.0;2;0;0;0;0;false;50314;1751310681;-73.668029;45.556953;50301;1751328037;-73.6692817;45.5538506;0;0;1;4637127;Bus 55 : Boulevard Saint-Laurent Sud;"";STM;55-S;Millen / Henri-Bourassa;Saint-Laurent / Saint-Jacques
607076615;"{\"type\":\"LineString\",\"coordinates\":[[-73.6687585,45.5545094],[-73.669169,45.5537264]]}";9;Boulevard Henri-Bourassa Est;3;50;false;true;true;false;false;false;93.0;2;0;0;0;0;false;50314;1751310681;-73.668029;45.556953;50301;1751328037;-73.6692817;45.5538506;2;0;1;4637127;Bus 55 : Boulevard Saint-Laurent Sud;"";STM;55-S;Millen / Henri-Bourassa;Saint-Laurent / Saint-Jacques
460561581;"{\"type\":\"LineString\",\"coordinates\":[[-73.6700441,45.5521006],[-73.6704792,45.5513298],[-73.6705545,45.5511962],[-73.6709745,45.5504522],[-73.6710202,45.5503712]]}";1;Boulevard Henri-Bourassa Est;3;50;false;true;true;false;false;false;207.0;1;0;0;0;0;false;50299;5755029066;-73.67001;45.552234;50298;5755029065;-73.670421;45.55009;2;2;3;4637127;Bus 55 : Boulevard Saint-Laurent Sud;"";STM;55-S;Millen / Henri-Bourassa;Saint-Laurent / Saint-Jacques
453460065;"{\"type\":\"LineString\",\"coordinates\":[[-73.670837,45.5503116],[-73.6710202,45.5503712]]}";2;Boulevard Saint-Laurent;2;50;false;false;true;false;false;false;16.0;0;0;0;0;0;false;50299;5755029066;-73.67001;45.552234;50298;5755029065;-73.670421;45.55009;0;2;3;4637127;Bus 55 : Boulevard Saint-Laurent Sud;"";STM;55-S;Millen / Henri-Bourassa;Saint-Laurent / Saint-Jacques
341094913;"{\"type\":\"LineString\",\"coordinates\":[[-73.6625165,45.5477861],[-73.6648571,45.5484965],[-73.6656175,45.5487273],[-73.6663428,45.5489475],[-73.6666986,45.5490554],[-73.6679471,45.5494344],[-73.6686415,45.5496452],[-73.670768,45.5502907],[-73.670837,45.5503116]]}";3;Boulevard Saint-Laurent;4;50;false;false;true;false;false;false;708.0;4;0;0;0;0;false;50299;5755029066;-73.67001;45.552234;50298;5755029065;-73.670421;45.55009;2;2;3;4637127;Bus 55 : Boulevard Saint-Laurent Sud;"";STM;55-S;Millen / Henri-Bourassa;Saint-Laurent / Saint-Jacques
330719427;"{\"type\":\"LineString\",\"coordinates\":[[-73.6547528,45.545521],[-73.6549168,45.5455653],[-73.6571979,45.5461971]]}";1;Boulevard Saint-Laurent;4;50;false;false;true;false;false;false;103.0;2;0;0;0;0;false;50455;301034864;-73.65505;45.54549;50519;301034865;-73.651376;45.544433;1;9;10;4637127;Bus 55 : Boulevard Saint-Laurent Sud;"";STM;55-S;Millen / Henri-Bourassa;Saint-Laurent / Saint-Jacques
330719423;"{\"type\":\"LineString\",\"coordinates\":[[-73.6510788,45.5444426],[-73.651208,45.5444769],[-73.6547528,45.545521]]}";2;Boulevard Saint-Laurent;4;50;false;false;true;false;false;false;155.5;2;0;0;0;0;false;50455;301034864;-73.65505;45.54549;50519;301034865;-73.651376;45.544433;1;9;10;4637127;Bus 55 : Boulevard Saint-Laurent Sud;"";STM;55-S;Millen / Henri-Bourassa;Saint-Laurent / Saint-Jacques
330719423;"{\"type\":\"LineString\",\"coordinates\":[[-73.6510788,45.5444426],[-73.651208,45.5444769],[-73.6547528,45.545521]]}";1;Boulevard Saint-Laurent;4;50;false;false;true;false;false;false;155.5;2;0;0;0;0;false;50519;301034865;-73.651376;45.544433;50564;300488648;-73.648125;45.543497;1;10;11;4637127;Bus 55 : Boulevard Saint-Laurent Sud;"";STM;55-S;Millen / Henri-Bourassa;Saint-Laurent / Saint-Jacques
20296255;"{\"type\":\"LineString\",\"coordinates\":[[-73.6479455,45.5435583],[-73.6509305,45.5444058],[-73.6510788,45.5444426]]}";2;Boulevard Saint-Laurent;4;50;false;false;true;false;false;false;132.0;2;0;0;0;0;false;50519;301034865;-73.651376;45.544433;50564;300488648;-73.648125;45.543497;1;10;11;4637127;Bus 55 : Boulevard Saint-Laurent Sud;"";STM;55-S;Millen / Henri-Bourassa;Saint-Laurent / Saint-Jacques
452047215;"{\"type\":\"LineString\",\"coordinates\":[[-73.6448654,45.542644],[-73.6447868,45.5425778],[-73.6438015,45.542309]]}";1;Boulevard Saint-Laurent;2;50;false;true;true;false;false;false;93.0;2;0;0;0;0;false;50620;5755029059;-73.645029;45.542606;50670;5755029058;-73.641811;45.541112;2;12;13;4637127;Bus 55 : Boulevard Saint-Laurent Sud;"";STM;55-S;Millen / Henri-Bourassa;Saint-Laurent / Saint-Jacques
18835336;"{\"type\":\"LineString\",\"coordinates\":[[-73.6438015,45.542309],[-73.6435192,45.5422291],[-73.6429787,45.5420711],[-73.6428431,45.5420315]]}";2;Boulevard Saint-Laurent;3;50;false;true;true;false;false;false;81.0;1;0;0;0;0;false;50620;5755029059;-73.645029;45.542606;50670;5755029058;-73.641811;45.541112;0;12;13;4637127;Bus 55 : Boulevard Saint-Laurent Sud;"";STM;55-S;Millen / Henri-Bourassa;Saint-Laurent / Saint-Jacques
455685925;"{\"type\":\"LineString\",\"coordinates\":[[-73.6428431,45.5420315],[-73.6426935,45.5419263],[-73.6426069,45.5418368],[-73.6425511,45.5417512]]}";3;Boulevard Saint-Laurent;2;50;false;true;true;false;false;false;39.0;0;0;0;0;0;false;50620;5755029059;-73.645029;45.542606;50670;5755029058;-73.641811;45.541112;0;12;13;4637127;Bus 55 : Boulevard Saint-Laurent Sud;"";STM;55-S;Millen / Henri-Bourassa;Saint-Laurent / Saint-Jacques
662716986;"{\"type\":\"LineString\",\"coordinates\":[[-73.6425511,45.5417512],[-73.6424549,45.5415874],[-73.6422894,45.5413474],[-73.6421746,45.5412304]]}";4;Boulevard Saint-Laurent;3;50;false;true;true;false;false;false;66.0;1;0;0;0;0;false;50620;5755029059;-73.645029;45.542606;50670;5755029058;-73.641811;45.541112;0;12;13;4637127;Bus 55 : Boulevard Saint-Laurent Sud;"";STM;55-S;Millen / Henri-Bourassa;Saint-Laurent / Saint-Jacques
452031264;"{\"type\":\"LineString\",\"coordinates\":[[-73.6421746,45.5412304],[-73.6417837,45.541106],[-73.6416949,45.5411094]]}";5;Boulevard Saint-Laurent;3;50;false;true;true;false;false;false;41.0;2;0;0;0;0;false;50620;5755029059;-73.645029;45.542606;50670;5755029058;-73.641811;45.541112;2;12;13;4637127;Bus 55 : Boulevard Saint-Laurent Sud;"";STM;55-S;Millen / Henri-Bourassa;Saint-Laurent / Saint-Jacques
452031266;"{\"type\":\"LineString\",\"coordinates\":[[-73.6416949,45.5411094],[-73.641589,45.5411169],[-73.6414141,45.5411678],[-73.6411958,45.5412532],[-73.6410594,45.5413134],[-73.6408133,45.541422]]}";1;Boulevard Saint-Laurent;3;50;false;true;true;false;false;false;78.0;1;0;0;0;0;false;50670;5755029058;-73.641811;45.541112;50786;301034869;-73.637724;45.540666;2;13;14;4637127;Bus 55 : Boulevard Saint-Laurent Sud;"";STM;55-S;Millen / Henri-Bourassa;Saint-Laurent / Saint-Jacques
452031265;"{\"type\":\"LineString\",\"coordinates\":[[-73.6408133,45.541422],[-73.6406289,45.5414994],[-73.6404901,45.5415086],[-73.6403644,45.5414906]]}";2;Boulevard Saint-Laurent;3;50;false;true;true;false;false;false;38.0;0;0;0;0;0;false;50670;5755029058;-73.641811;45.541112;50786;301034869;-73.637724;45.540666;0;13;14;4637127;Bus 55 : Boulevard Saint-Laurent Sud;"";STM;55-S;Millen / Henri-Bourassa;Saint-Laurent / Saint-Jacques
455685936;"{\"type\":\"LineString\",\"coordinates\":[[-73.6403644,45.5414906],[-73.6399431,45.5413718],[-73.639727,45.5413133],[-73.6395598,45.5412639]]}";3;Boulevard Saint-Laurent;3;50;false;true;true;false;false;false;68.0;1;0;0;0;0;false;50670;5755029058;-73.641811;45.541112;50786;301034869;-73.637724;45.540666;0;13;14;4637127;Bus 55 : Boulevard Saint-Laurent Sud;"";STM;55-S;Millen / Henri-Bourassa;Saint-Laurent / Saint-Jacques
455685932;"{\"type\":\"LineString\",\"coordinates\":[[-73.6395598,45.5412639],[-73.6386697,45.5410008],[-73.6385671,45.5409713]]}";4;Boulevard Saint-Laurent;2;50;false;true;true;false;false;false;85.0;0;0;0;0;0;false;50670;5755029058;-73.641811;45.541112;50786;301034869;-73.637724;45.540666;0;13;14;4637127;Bus 55 : Boulevard Saint-Laurent Sud;"";STM;55-S;Millen / Henri-Bourassa;Saint-Laurent / Saint-Jacques
455685934;"{\"type\":\"LineString\",\"coordinates\":[[-73.6385671,45.5409713],[-73.6385017,45.5409511],[-73.6377525,45.5407278],[-73.6375482,45.5406679]]}";5;Boulevard Saint-Laurent;2;50;false;true;true;false;false;false;87.0;1;0;0;0;0;false;50670;5755029058;-73.641811;45.541112;50786;301034869;-73.637724;45.540666;2;13;14;4637127;Bus 55 : Boulevard Saint-Laurent Sud;"";STM;55-S;Millen / Henri-Bourassa;Saint-Laurent / Saint-Jacques
452023895;"{\"type\":\"LineString\",\"coordinates\":[[-73.6313992,45.5388839],[-73.631285,45.5388508]]}";1;Boulevard Saint-Laurent;2;50;false;true;true;false;false;false;10.0;2;0;0;0;0;false;50936;301034879;-73.631598;45.538882;51007;301034882;-73.628581;45.538006;2;16;17;4637127;Bus 55 : Boulevard Saint-Laurent Sud;"";STM;55-S;Millen / Henri-Bourassa;Saint-Laurent / Saint-Jacques
452069419;"{\"type\":\"LineString\",\"coordinates\":[[-73.631285,45.5388508],[-73.6312258,45.5388337],[-73.6290862,45.5382129]]}";2;Boulevard Saint-Laurent;2;50;false;true;true;false;false;false;186.0;1;0;0;0;0;false;50936;301034879;-73.631598;45.538882;51007;301034882;-73.628581;45.538006;0;16;17;4637127;Bus 55 : Boulevard Saint-Laurent Sud;"";STM;55-S;Millen / Henri-Bourassa;Saint-Laurent / Saint-Jacques
452023897;"{\"type\":\"LineString\",\"coordinates\":[[-73.6290862,45.5382129],[-73.6283708,45.5380022],[-73.628305,45.537985],[-73.6282735,45.5379767]]}";3;Boulevard Saint-Laurent;2;50;false;true;true;false;false;false;69.0;1;0;0;0;0;false;50936;301034879;-73.631598;45.538882;51007;301034882;-73.628581;45.538006;2;16;17;4637127;Bus 55 : Boulevard Saint-Laurent Sud;"";STM;55-S;Millen / Henri-Bourassa;Saint-Laurent / Saint-Jacques
452023897;"{\"type\":\"LineString\",\"coordinates\":[[-73.6290862,45.5382129],[-73.6283708,45.5380022],[-73.628305,45.537985],[-73.6282735,45.5379767]]}";1;Boulevard Saint-Laurent;2;50;false;true;true;false;false;false;34.5;1;0;0;0;0;false;51007;301034882;-73.628581;45.538006;51068;301034883;-73.625401;45.537076;1;17;18;4637127;Bus 55 : Boulevard Saint-Laurent Sud;"";STM;55-S;Millen / Henri-Bourassa;Saint-Laurent / Saint-Jacques
452062043;"{\"type\":\"LineString\",\"coordinates\":[[-73.6282735,45.5379767],[-73.6274171,45.5377274],[-73.6252537,45.5370896]]}";2;Boulevard Saint-Laurent;2;50;false;true;true;false;false;false;128.0;1;0;0;0;0;false;51007;301034882;-73.628581;45.538006;51068;301034883;-73.625401;45.537076;1;17;18;4637127;Bus 55 : Boulevard Saint-Laurent Sud;"";STM;55-S;Millen / Henri-Bourassa;Saint-Laurent / Saint-Jacques
452689425;"{\"type\":\"LineString\",\"coordinates\":[[-73.6252537,45.5370896],[-73.6251786,45.5370688]]}";1;Boulevard Saint-Laurent;2;50;false;true;true;false;false;false;7.0;1;0;0;0;0;false;51068;301034883;-73.625401;45.537076;51150;301034884;-73.622632;45.536274;2;18;19;4637127;Bus 55 : Boulevard Saint-Laurent Sud;"";STM;55-S;Millen / Henri-Bourassa;Saint-Laurent / Saint-Jacques
452689427;"{\"type\":\"LineString\",\"coordinates\":[[-73.6251786,45.5370688],[-73.6229183,45.5364137],[-73.6223543,45.5362489]]}";2;Boulevard Saint-Laurent;2;50;false;true;true;false;false;false;239.0;1;0;0;0;0;false;51068;301034883;-73.625401;45.537076;51150;301034884;-73.622632;45.536274;2;18;19;4637127;Bus 55 : Boulevard Saint-Laurent Sud;"";STM;55-S;Millen / Henri-Bourassa;Saint-Laurent / Saint-Jacques
452689427;"{\"type\":\"LineString\",\"coordinates\":[[-73.6251786,45.5370688],[-73.6229183,45.5364137],[-73.6223543,45.5362489]]}";1;Boulevard Saint-Laurent;2;50;false;true;true;false;false;false;119.5;1;0;0;0;0;false;51150;301034884;-73.622632;45.536274;51206;5755029056;-73.619628;45.535186;1;19;20;4637127;Bus 55 : Boulevard Saint-Laurent Sud;"";STM;55-S;Millen / Henri-Bourassa;Saint-Laurent / Saint-Jacques
329001013;"{\"type\":\"LineString\",\"coordinates\":[[-73.6223543,45.5362489],[-73.6223402,45.5362454],[-73.621458,45.5359898],[-73.6213779,45.5359667],[-73.6208309,45.5357632],[-73.6204507,45.5356091]]}";2;Boulevard Saint-Laurent;2;50;false;true;true;false;false;false;165.0;1;0;0;0;0;false;51150;301034884;-73.622632;45.536274;51206;5755029056;-73.619628;45.535186;0;19;20;4637127;Bus 55 : Boulevard Saint-Laurent Sud;"";STM;55-S;Millen / Henri-Bourassa;Saint-Laurent / Saint-Jacques
272159581;"{\"type\":\"LineString\",\"coordinates\":[[-73.6204507,45.5356091],[-73.6200249,45.5354243],[-73.6199675,45.535401]]}";3;Boulevard Saint-Laurent;1;50;false;true;true;false;false;false;45.0;1;0;0;0;0;false;51150;301034884;-73.622632;45.536274;51206;5755029056;-73.619628;45.535186;0;19;20;4637127;Bus 55 : Boulevard Saint-Laurent Sud;"";STM;55-S;Millen / Henri-Bourassa;Saint-Laurent / Saint-Jacques
184170714;"{\"type\":\"LineString\",\"coordinates\":[[-73.6199675,45.535401],[-73.619323,45.5351112],[-73.6186734,45.5348203],[-73.6183558,45.5346443]]}";4;Boulevard Saint-Laurent;1;50;false;true;true;false;false;false;76.0;1;0;0;0;0;false;51150;301034884;-73.622632;45.536274;51206;5755029056;-73.619628;45.535186;1;19;20;4637127;Bus 55 : Boulevard Saint-Laurent Sud;"";STM;55-S;Millen / Henri-Bourassa;Saint-Laurent / Saint-Jacques
184170714;"{\"type\":\"LineString\",\"coordinates\":[[-73.6199675,45.535401],[-73.619323,45.5351112],[-73.6186734,45.5348203],[-73.6183558,45.5346443]]}";1;Boulevard Saint-Laurent;1;50;false;true;true;false;false;false;76.0;1;0;0;0;0;false;51206;5755029056;-73.619628;45.535186;51228;5755029055;-73.618216;45.533709;1;20;21;4637127;Bus 55 : Boulevard Saint-Laurent Sud;"";STM;55-S;Millen / Henri-Bourassa;Saint-Laurent / Saint-Jacques
330720153;"{\"type\":\"LineString\",\"coordinates\":[[-73.6183558,45.5346443],[-73.6185858,45.5343865],[-73.6188615,45.5340792]]}";2;Rue Jean-Talon Ouest;1;50;false;false;true;false;false;false;75.0;2;0;0;0;0;false;51206;5755029056;-73.619628;45.535186;51228;5755029055;-73.618216;45.533709;0;20;21;4637127;Bus 55 : Boulevard Saint-Laurent Sud;"";STM;55-S;Millen / Henri-Bourassa;Saint-Laurent / Saint-Jacques
330720151;"{\"type\":\"LineString\",\"coordinates\":[[-73.6188615,45.5340792],[-73.6159379,45.5327493],[-73.615137,45.5323878],[-73.6129724,45.5314035],[-73.6128293,45.5313693],[-73.6127214,45.5313434],[-73.6116474,45.5308597],[-73.609917,45.5300827],[-73.6085962,45.5294588],[-73.6084915,45.5294149]]}";3;Rue Clark;1;50;false;true;true;false;false;false;481.0;4;0;0;0;0;false;51206;5755029056;-73.619628;45.535186;51228;5755029055;-73.618216;45.533709;1;20;21;4637127;Bus 55 : Boulevard Saint-Laurent Sud;"";STM;55-S;Millen / Henri-Bourassa;Saint-Laurent / Saint-Jacques
330720151;"{\"type\":\"LineString\",\"coordinates\":[[-73.6188615,45.5340792],[-73.6159379,45.5327493],[-73.615137,45.5323878],[-73.6129724,45.5314035],[-73.6128293,45.5313693],[-73.6127214,45.5313434],[-73.6116474,45.5308597],[-73.609917,45.5300827],[-73.6085962,45.5294588],[-73.6084915,45.5294149]]}";1;Rue Clark;1;50;false;true;true;false;false;false;481.0;4;0;0;0;0;false;51411;5755029054;-73.609565;45.529834;53790;301034889;-73.608181;45.529156;1;24;25;4637127;Bus 55 : Boulevard Saint-Laurent Sud;"";STM;55-S;Millen / Henri-Bourassa;Saint-Laurent / Saint-Jacques
37691780;"{\"type\":\"LineString\",\"coordinates\":[[-73.6084915,45.5294149],[-73.6083423,45.5292757],[-73.607978,45.5290417],[-73.6079562,45.5290277]]}";2;Rue Clark;1;50;false;true;true;false;false;false;30.5;0;0;0;0;0;false;51411;5755029054;-73.609565;45.529834;53790;301034889;-73.608181;45.529156;1;24;25;4637127;Bus 55 : Boulevard Saint-Laurent Sud;"";STM;55-S;Millen / Henri-Bourassa;Saint-Laurent / Saint-Jacques
37691780;"{\"type\":\"LineString\",\"coordinates\":[[-73.6084915,45.5294149],[-73.6083423,45.5292757],[-73.607978,45.5290417],[-73.6079562,45.5290277]]}";1;Rue Clark;1;50;false;true;true;false;false;false;30.5;0;0;0;0;0;false;53790;301034889;-73.608181;45.529156;51555;5755029053;-73.603544;45.526211;1;25;26;4637127;Bus 55 : Boulevard Saint-Laurent Sud;"";STM;55-S;Millen / Henri-Bourassa;Saint-Laurent / Saint-Jacques
480444348;"{\"type\":\"LineString\",\"coordinates\":[[-73.6079562,45.5290277],[-73.6073644,45.5286475],[-73.6072168,45.5285461]]}";2;Rue Clark;1;50;false;true;true;false;false;false;79.0;0;0;0;0;0;false;53790;301034889;-73.608181;45.529156;51555;5755029053;-73.603544;45.526211;0;25;26;4637127;Bus 55 : Boulevard Saint-Laurent Sud;"";STM;55-S;Millen / Henri-Bourassa;Saint-Laurent / Saint-Jacques
37691781;"{\"type\":\"LineString\",\"coordinates\":[[-73.6072168,45.5285461],[-73.6067356,45.528216],[-73.6066042,45.5281258]]}";3;Rue Clark;1;50;false;true;true;false;false;false;67.0;0;0;0;0;0;false;53790;301034889;-73.608181;45.529156;51555;5755029053;-73.603544;45.526211;0;25;26;4637127;Bus 55 : Boulevard Saint-Laurent Sud;"";STM;55-S;Millen / Henri-Bourassa;Saint-Laurent / Saint-Jacques
133495303;"{\"type\":\"LineString\",\"coordinates\":[[-73.6066042,45.5281258],[-73.6064464,45.5280175]]}";4;Rue Clark;1;50;false;true;true;false;false;false;18.0;0;0;0;0;0;false;53790;301034889;-73.608181;45.529156;51555;5755029053;-73.603544;45.526211;0;25;26;4637127;Bus 55 : Boulevard Saint-Laurent Sud;"";STM;55-S;Millen / Henri-Bourassa;Saint-Laurent / Saint-Jacques
133495300;"{\"type\":\"LineString\",\"coordinates\":[[-73.6064464,45.5280175],[-73.605822,45.527589]]}";5;Rue Clark;1;50;false;true;true;false;false;false;69.0;0;0;0;0;0;false;53790;301034889;-73.608181;45.529156;51555;5755029053;-73.603544;45.526211;0;25;26;4637127;Bus 55 : Boulevard Saint-Laurent Sud;"";STM;55-S;Millen / Henri-Bourassa;Saint-Laurent / Saint-Jacques
480444347;"{\"type\":\"LineString\",\"coordinates\":[[-73.605822,45.527589],[-73.6048385,45.5269104]]}";6;Rue Clark;1;50;false;true;true;false;false;false;108.0;0;0;0;0;0;false;53790;301034889;-73.608181;45.529156;51555;5755029053;-73.603544;45.526211;0;25;26;4637127;Bus 55 : Boulevard Saint-Laurent Sud;"";STM;55-S;Millen / Henri-Bourassa;Saint-Laurent / Saint-Jacques
37691782;"{\"type\":\"LineString\",\"coordinates\":[[-73.6048385,45.5269104],[-73.6046873,45.5268335]]}";7;Rue Clark;1;50;false;true;true;false;false;false;15.0;0;0;0;0;0;false;53790;301034889;-73.608181;45.529156;51555;5755029053;-73.603544;45.526211;0;25;26;4637127;Bus 55 : Boulevard Saint-Laurent Sud;"";STM;55-S;Millen / Henri-Bourassa;Saint-Laurent / Saint-Jacques
727562873;"{\"type\":\"LineString\",\"coordinates\":[[-73.6046873,45.5268335],[-73.6042131,45.5265922]]}";8;Rue Clark;1;50;false;true;true;false;false;false;46.0;0;0;0;0;0;false;53790;301034889;-73.608181;45.529156;51555;5755029053;-73.603544;45.526211;0;25;26;4637127;Bus 55 : Boulevard Saint-Laurent Sud;"";STM;55-S;Millen / Henri-Bourassa;Saint-Laurent / Saint-Jacques
19937968;"{\"type\":\"LineString\",\"coordinates\":[[-73.6042131,45.5265922],[-73.6040304,45.5265157],[-73.6032601,45.5261652]]}";9;Rue Saint-Urbain;1;50;false;true;true;false;false;false;44.5;1;0;0;0;0;false;53790;301034889;-73.608181;45.529156;51555;5755029053;-73.603544;45.526211;1;25;26;4637127;Bus 55 : Boulevard Saint-Laurent Sud;"";STM;55-S;Millen / Henri-Bourassa;Saint-Laurent / Saint-Jacques
19937968;"{\"type\":\"LineString\",\"coordinates\":[[-73.6042131,45.5265922],[-73.6040304,45.5265157],[-73.6032601,45.5261652]]}";1;Rue Saint-Urbain;1;50;false;true;true;false;false;false;44.5;1;0;0;0;0;false;51555;5755029053;-73.603544;45.526211;51624;1743278076;-73.600155;45.524659;1;26;27;4637127;Bus 55 : Boulevard Saint-Laurent Sud;"";STM;55-S;Millen / Henri-Bourassa;Saint-Laurent / Saint-Jacques
240869673;"{\"type\":\"LineString\",\"coordinates\":[[-73.6032601,45.5261652],[-73.600274,45.5247955],[-73.5999789,45.5246602],[-73.5977287,45.5236418],[-73.5956134,45.5226844],[-73.5947509,45.5223016],[-73.5943413,45.5221001],[-73.5943259,45.5220925],[-73.5938688,45.5218677]]}";2;Rue Saint-Urbain;1;50;false;true;false;false;false;false;437.5;4;0;0;0;0;false;51555;5755029053;-73.603544;45.526211;51624;1743278076;-73.600155;45.524659;1;26;27;4637127;Bus 55 : Boulevard Saint-Laurent Sud;"";STM;55-S;Millen / Henri-Bourassa;Saint-Laurent / Saint-Jacques
465195715;"{\"type\":\"LineString\",\"coordinates\":[[-73.5924799,45.5212192],[-73.5923587,45.521166]]}";1;Rue Saint-Urbain;3;50;false;true;false;false;false;false;12.0;0;0;0;0;0;false;51797;1330275979;-73.59267;45.521213;51848;1038399391;-73.590704;45.520313;2;30;31;4637127;Bus 55 : Boulevard Saint-Laurent Sud;"";STM;55-S;Millen / Henri-Bourassa;Saint-Laurent / Saint-Jacques
173966368;"{\"type\":\"LineString\",\"coordinates\":[[-73.5923587,45.521166],[-73.5918621,45.5209397],[-73.5909086,45.5205037],[-73.5904385,45.5202887],[-73.5899787,45.5200784],[-73.5879455,45.5191535],[-73.5875272,45.5189706],[-73.5874398,45.5189324],[-73.5868271,45.5186578],[-73.586727,45.5186118],[-73.5851588,45.5178918],[-73.5833463,45.5170793],[-73.5828649,45.5168489],[-73.5828148,45.5168249]]}";2;Rue Saint-Urbain;3;50;false;true;false;false;false;false;888.0;4;1;0;0;0;false;51797;1330275979;-73.59267;45.521213;51848;1038399391;-73.590704;45.520313;2;30;31;4637127;Bus 55 : Boulevard Saint-Laurent Sud;"";STM;55-S;Millen / Henri-Bourassa;Saint-Laurent / Saint-Jacques
173966368;"{\"type\":\"LineString\",\"coordinates\":[[-73.5923587,45.521166],[-73.5918621,45.5209397],[-73.5909086,45.5205037],[-73.5904385,45.5202887],[-73.5899787,45.5200784],[-73.5879455,45.5191535],[-73.5875272,45.5189706],[-73.5874398,45.5189324],[-73.5868271,45.5186578],[-73.586727,45.5186118],[-73.5851588,45.5178918],[-73.5833463,45.5170793],[-73.5828649,45.5168489],[-73.5828148,45.5168249]]}";1;Rue Saint-Urbain;3;50;false;true;false;false;false;false;444.0;4;1;0;0;0;false;52012;5755029052;-73.585308;45.517875;52076;5755029051;-73.58248;45.516593;1;33;34;4637127;Bus 55 : Boulevard Saint-Laurent Sud;"";STM;55-S;Millen / Henri-Bourassa;Saint-Laurent / Saint-Jacques
393663205;"{\"type\":\"LineString\",\"coordinates\":[[-73.5828148,45.5168249],[-73.5827279,45.5167788],[-73.5804993,45.5157697]]}";2;Rue Saint-Urbain;3;50;false;true;false;false;false;false;108.0;2;0;0;0;0;false;52012;5755029052;-73.585308;45.517875;52076;5755029051;-73.58248;45.516593;1;33;34;4637127;Bus 55 : Boulevard Saint-Laurent Sud;"";STM;55-S;Millen / Henri-Bourassa;Saint-Laurent / Saint-Jacques
725171455;"{\"type\":\"LineString\",\"coordinates\":[[-73.5804993,45.5157697],[-73.579461,45.5152916],[-73.5794183,45.5152721],[-73.5790961,45.5151249],[-73.5783074,45.5147648],[-73.5780764,45.5146636],[-73.577609,45.5144589],[-73.5770622,45.5142194]]}";1;Rue Saint-Urbain;3;50;false;true;false;false;false;false;159.5;2;0;0;0;0;false;52211;5755029049;-73.578489;45.514816;52282;5755029048;-73.576314;45.513848;1;36;37;4637127;Bus 55 : Boulevard Saint-Laurent Sud;"";STM;55-S;Millen / Henri-Bourassa;Saint-Laurent / Saint-Jacques
393659758;"{\"type\":\"LineString\",\"coordinates\":[[-73.5770622,45.5142194],[-73.5761571,45.5138099]]}";2;Rue Saint-Urbain;3;50;false;true;false;false;false;false;42.5;1;0;0;0;0;false;52211;5755029049;-73.578489;45.514816;52282;5755029048;-73.576314;45.513848;1;36;37;4637127;Bus 55 : Boulevard Saint-Laurent Sud;"";STM;55-S;Millen / Henri-Bourassa;Saint-Laurent / Saint-Jacques
329384205;"{\"type\":\"LineString\",\"coordinates\":[[-73.5674252,45.5099176],[-73.5672714,45.509848],[-73.5672037,45.5098173]]}";1;Rue Saint-Urbain;2;50;false;true;false;false;false;false;21.0;2;1;0;0;0;false;52581;5755029045;-73.567675;45.509944;52670;5755029044;-73.564999;45.508736;2;40;41;4637127;Bus 55 : Boulevard Saint-Laurent Sud;"";STM;55-S;Millen / Henri-Bourassa;Saint-Laurent / Saint-Jacques
453989323;"{\"type\":\"LineString\",\"coordinates\":[[-73.5672037,45.5098173],[-73.5671004,45.5097705],[-73.5664151,45.5094657],[-73.5663351,45.5094295],[-73.5656349,45.5091069]]}";2;Rue Saint-Urbain;1;50;false;true;false;false;false;false;146.0;1;2;0;0;0;false;52581;5755029045;-73.567675;45.509944;52670;5755029044;-73.564999;45.508736;0;40;41;4637127;Bus 55 : Boulevard Saint-Laurent Sud;"";STM;55-S;Millen / Henri-Bourassa;Saint-Laurent / Saint-Jacques
453989322;"{\"type\":\"LineString\",\"coordinates\":[[-73.5656349,45.5091069],[-73.5649212,45.5087638],[-73.5648279,45.5087235]]}";3;Rue Saint-Urbain;1;50;false;true;false;false;false;false;77.0;1;1;0;0;0;false;52581;5755029045;-73.567675;45.509944;52670;5755029044;-73.564999;45.508736;2;40;41;4637127;Bus 55 : Boulevard Saint-Laurent Sud;"";STM;55-S;Millen / Henri-Bourassa;Saint-Laurent / Saint-Jacques
464943211;"{\"type\":\"LineString\",\"coordinates\":[[-73.5626628,45.5077549],[-73.5625205,45.507685]]}";1;Rue Saint-Urbain;1;50;false;true;false;false;false;false;14.0;0;0;0;0;0;false;52746;5755029043;-73.562849;45.507755;52807;5755029042;-73.560998;45.506924;2;42;43;4637127;Bus 55 : Boulevard Saint-Laurent Sud;"";STM;55-S;Millen / Henri-Bourassa;Saint-Laurent / Saint-Jacques
39368249;"{\"type\":\"LineString\",\"coordinates\":[[-73.5625205,45.507685],[-73.5623917,45.5076268],[-73.5612853,45.5071271],[-73.5612787,45.5071241],[-73.5608635,45.5069366],[-73.5604863,45.5067538],[-73.5597793,45.5064112]]}";2;Rue Saint-Urbain;1;50;false;true;false;false;false;false;257.0;2;1;0;0;0;false;52746;5755029043;-73.562849;45.507755;52807;5755029042;-73.560998;45.506924;2;42;43;4637127;Bus 55 : Boulevard Saint-Laurent Sud;"";STM;55-S;Millen / Henri-Bourassa;Saint-Laurent / Saint-Jacques
39368249;"{\"type\":\"LineString\",\"coordinates\":[[-73.5625205,45.507685],[-73.5623917,45.5076268],[-73.5612853,45.5071271],[-73.5612787,45.5071241],[-73.5608635,45.5069366],[-73.5604863,45.5067538],[-73.5597793,45.5064112]]}";1;Rue Saint-Urbain;1;50;false;true;false;false;false;false;128.5;2;1;0;0;0;false;52807;5755029042;-73.560998;45.506924;52851;5755029041;-73.559294;45.506144;1;43;44;4637127;Bus 55 : Boulevard Saint-Laurent Sud;"";STM;55-S;Millen / Henri-Bourassa;Saint-Laurent / Saint-Jacques
561741711;"{\"type\":\"LineString\",\"coordinates\":[[-73.5597793,45.5064112],[-73.5597184,45.5063478],[-73.5595753,45.5062859],[-73.5594477,45.5062308],[-73.5593618,45.5061936],[-73.559252,45.5061806]]}";2;Rue Saint-Urbain;1;50;false;true;false;false;false;false;25.0;1;2;0;0;0;false;52807;5755029042;-73.560998;45.506924;52851;5755029041;-73.559294;45.506144;1;43;44;4637127;Bus 55 : Boulevard Saint-Laurent Sud;"";STM;55-S;Millen / Henri-Bourassa;Saint-Laurent / Saint-Jacques
561741709;"{\"type\":\"LineString\",\"coordinates\":[[-73.559252,45.5061806],[-73.5590215,45.5060768]]}";1;Rue Saint-Urbain;1;50;false;false;false;false;false;false;22.0;0;0;0;0;0;false;52851;5755029041;-73.559294;45.506144;53811;5755029040;-73.556275;45.505306;2;44;45;4637127;Bus 55 : Boulevard Saint-Laurent Sud;"";STM;55-S;Millen / Henri-Bourassa;Saint-Laurent / Saint-Jacques
86980320;"{\"type\":\"LineString\",\"coordinates\":[[-73.5590215,45.5060768],[-73.5583604,45.5057894],[-73.5582363,45.5056881]]}";2;Rue Saint-Urbain;1;50;false;false;false;false;false;false;76.0;1;0;0;0;0;false;52851;5755029041;-73.559294;45.506144;53811;5755029040;-73.556275;45.505306;0;44;45;4637127;Bus 55 : Boulevard Saint-Laurent Sud;"";STM;55-S;Millen / Henri-Bourassa;Saint-Laurent / Saint-Jacques
20320553;"{\"type\":\"LineString\",\"coordinates\":[[-73.5582363,45.5056881],[-73.5578986,45.5054201],[-73.5575391,45.5052444],[-73.5574477,45.5051628]]}";3;Côte de la Place D'Armes;1;50;false;true;true;false;false;false;86.0;2;0;0;0;0;false;52851;5755029041;-73.559294;45.506144;53811;5755029040;-73.556275;45.505306;0;44;45;4637127;Bus 55 : Boulevard Saint-Laurent Sud;"";STM;55-S;Millen / Henri-Bourassa;Saint-Laurent / Saint-Jacques
4320804;"{\"type\":\"LineString\",\"coordinates\":[[-73.5574477,45.5051628],[-73.5566568,45.5049346]]}";4;Place d'Armes;1;50;false;true;true;false;false;false;67.0;2;0;0;0;0;false;52851;5755029041;-73.559294;45.506144;53811;5755029040;-73.556275;45.505306;0;44;45;4637127;Bus 55 : Boulevard Saint-Laurent Sud;"";STM;55-S;Millen / Henri-Bourassa;Saint-Laurent / Saint-Jacques
330720150;"{\"type\":\"LineString\",\"coordinates\":[[-73.5566568,45.5049346],[-73.556226,45.5054823],[-73.5556553,45.5062078]]}";5;Rue Notre-Dame Ouest;1;50;false;true;true;false;false;false;162.0;2;0;0;0;0;false;52851;5755029041;-73.559294;45.506144;53811;5755029040;-73.556275;45.505306;2;44;45;4637127;Bus 55 : Boulevard Saint-Laurent Sud;"";STM;55-S;Millen / Henri-Bourassa;Saint-Laurent / Saint-Jacques
330720150;"{\"type\":\"LineString\",\"coordinates\":[[-73.5566568,45.5049346],[-73.556226,45.5054823],[-73.5556553,45.5062078]]}";1;Rue Notre-Dame Ouest;1;50;false;true;true;false;false;false;81.0;2;0;0;0;0;false;53811;5755029040;-73.556275;45.505306;52947;5754970251;-73.55618;45.506482;1;45;46;4637127;Bus 55 : Boulevard Saint-Laurent Sud;"";STM;55-S;Millen / Henri-Bourassa;Saint-Laurent / Saint-Jacques
330718600;"{\"type\":\"LineString\",\"coordinates\":[[-73.5556553,45.5062078],[-73.5563733,45.5065007]]}";2;Boulevard Saint-Laurent;1;50;false;true;true;false;false;false;65.0;2;0;0;0;0;false;53811;5755029040;-73.556275;45.505306;52947;5754970251;-73.55618;45.506482;1;45;46;4637127;Bus 55 : Boulevard Saint-Laurent Sud;"";STM;55-S;Millen / Henri-Bourassa;Saint-Laurent / Saint-Jacques
