way_id;shape;index;name;nb_lanes;legal_speed;speed_zone_30;oneway;shares_bike;bike_box;bus_lane;dedicated_bus_lane;length;nb_traffic_signals;nb_crossings;nb_stops;nb_give_ways;nb_lvl_crossings;roundabout;stop_id_orig;node_id_orig;coord_x_orig;coord_y_orig;stop_id_dest;node_id_dest;coord_x_dest;coord_y_dest;nb_neighbouring_ways_bus_stop;ordre_orig;ordre_dest;id_line;line_name;colour;operator;ref;from;to
475848923;"{\"type\":\"LineString\",\"coordinates\":[[-73.7207712,45.5582711],[-73.7209137,45.558204]]}";1;"";1;30;false;true;true;false;false;false;14.0;0;0;0;0;0;false;82127;6119525230;-73.7207969;45.5583911;80016;6119528386;-73.748086;45.569211;1;0;1;9082034;Bus 8 : TERMINUS /ST-EUSTACHE;"";EXO;8 N;Station Montmorency;Terminus Saint-Eustache
673264015;"{\"type\":\"LineString\",\"coordinates\":[[-73.7209137,45.558204],[-73.7207353,45.5580182]]}";2;"";1;30;false;true;true;false;false;false;25.0;0;0;0;0;0;false;82127;6119525230;-73.7207969;45.5583911;80016;6119528386;-73.748086;45.569211;0;0;1;9082034;Bus 8 : TERMINUS /ST-EUSTACHE;"";EXO;8 N;Station Montmorency;Terminus Saint-Eustache
669689629;"{\"type\":\"LineString\",\"coordinates\":[[-73.7207353,45.5580182],[-73.720718,45.5580002],[-73.7204415,45.5581303]]}";3;"";1;30;false;true;true;false;false;false;29.0;0;0;0;0;0;false;82127;6119525230;-73.7207969;45.5583911;80016;6119528386;-73.748086;45.569211;0;0;1;9082034;Bus 8 : TERMINUS /ST-EUSTACHE;"";EXO;8 N;Station Montmorency;Terminus Saint-Eustache
669709387;"{\"type\":\"LineString\",\"coordinates\":[[-73.7204415,45.5581303],[-73.7202192,45.558235]]}";4;"";1;30;false;true;true;false;false;false;21.0;0;0;0;0;0;false;82127;6119525230;-73.7207969;45.5583911;80016;6119528386;-73.748086;45.569211;0;0;1;9082034;Bus 8 : TERMINUS /ST-EUSTACHE;"";EXO;8 N;Station Montmorency;Terminus Saint-Eustache
673264017;"{\"type\":\"LineString\",\"coordinates\":[[-73.7202192,45.558235],[-73.7200265,45.5583257]]}";5;"";1;30;false;true;true;false;false;false;19.0;0;0;0;0;0;false;82127;6119525230;-73.7207969;45.5583911;80016;6119528386;-73.748086;45.569211;0;0;1;9082034;Bus 8 : TERMINUS /ST-EUSTACHE;"";EXO;8 N;Station Montmorency;Terminus Saint-Eustache
669709385;"{\"type\":\"LineString\",\"coordinates\":[[-73.7200265,45.5583257],[-73.7199282,45.558372]]}";6;"";1;30;false;true;true;false;false;false;10.0;0;0;0;0;0;false;82127;6119525230;-73.7207969;45.5583911;80016;6119528386;-73.748086;45.569211;0;0;1;9082034;Bus 8 : TERMINUS /ST-EUSTACHE;"";EXO;8 N;Station Montmorency;Terminus Saint-Eustache
673264012;"{\"type\":\"LineString\",\"coordinates\":[[-73.7199282,45.558372],[-73.7198052,45.5584054]]}";7;"";1;30;false;true;true;false;false;false;11.0;0;0;0;0;0;false;82127;6119525230;-73.7207969;45.5583911;80016;6119528386;-73.748086;45.569211;0;0;1;9082034;Bus 8 : TERMINUS /ST-EUSTACHE;"";EXO;8 N;Station Montmorency;Terminus Saint-Eustache
292607261;"{\"type\":\"LineString\",\"coordinates\":[[-73.7198052,45.5584054],[-73.7196552,45.5584253],[-73.7196287,45.5584288],[-73.7196029,45.5584315],[-73.7195714,45.5584231]]}";8;"";1;30;false;true;true;false;false;false;19.0;0;1;0;0;0;false;82127;6119525230;-73.7207969;45.5583911;80016;6119528386;-73.748086;45.569211;0;0;1;9082034;Bus 8 : TERMINUS /ST-EUSTACHE;"";EXO;8 N;Station Montmorency;Terminus Saint-Eustache
653184003;"{\"type\":\"LineString\",\"coordinates\":[[-73.7195714,45.5584231],[-73.7194895,45.5583356],[-73.7189255,45.5577333],[-73.7186432,45.5574319],[-73.7183965,45.5571685],[-73.7181107,45.5568633]]}";9;Boulevard de l'Avenir;3;50;false;true;false;false;false;false;208.0;1;0;0;0;0;false;82127;6119525230;-73.7207969;45.5583911;80016;6119528386;-73.748086;45.569211;0;0;1;9082034;Bus 8 : TERMINUS /ST-EUSTACHE;"";EXO;8 N;Station Montmorency;Terminus Saint-Eustache
147992073;"{\"type\":\"LineString\",\"coordinates\":[[-73.7181107,45.5568633],[-73.7199225,45.5558634]]}";10;Boulevard de la Concorde Ouest;1;60;false;true;false;false;false;false;180.0;1;0;0;0;0;false;82127;6119525230;-73.7207969;45.5583911;80016;6119528386;-73.748086;45.569211;0;0;1;9082034;Bus 8 : TERMINUS /ST-EUSTACHE;"";EXO;8 N;Station Montmorency;Terminus Saint-Eustache
37722254;"{\"type\":\"LineString\",\"coordinates\":[[-73.7199225,45.5558634],[-73.7220418,45.5546938]]}";11;Boulevard de la Concorde Ouest;1;60;false;true;true;false;false;false;211.0;1;0;0;0;0;false;82127;6119525230;-73.7207969;45.5583911;80016;6119528386;-73.748086;45.569211;0;0;1;9082034;Bus 8 : TERMINUS /ST-EUSTACHE;"";EXO;8 N;Station Montmorency;Terminus Saint-Eustache
604650808;"{\"type\":\"LineString\",\"coordinates\":[[-73.7220418,45.5546938],[-73.7227701,45.5553592]]}";12;Boulevard Le Corbusier;3;50;false;true;false;false;false;false;94.0;1;0;0;0;0;false;82127;6119525230;-73.7207969;45.5583911;80016;6119528386;-73.748086;45.569211;0;0;1;9082034;Bus 8 : TERMINUS /ST-EUSTACHE;"";EXO;8 N;Station Montmorency;Terminus Saint-Eustache
475268602;"{\"type\":\"LineString\",\"coordinates\":[[-73.7227701,45.5553592],[-73.7228328,45.5554165]]}";13;Boulevard Le Corbusier;3;50;false;true;false;false;false;false;9.0;0;0;0;0;0;false;82127;6119525230;-73.7207969;45.5583911;80016;6119528386;-73.748086;45.569211;0;0;1;9082034;Bus 8 : TERMINUS /ST-EUSTACHE;"";EXO;8 N;Station Montmorency;Terminus Saint-Eustache
475268606;"{\"type\":\"LineString\",\"coordinates\":[[-73.7228328,45.5554165],[-73.7229014,45.5554792],[-73.7233438,45.5560258]]}";14;Boulevard Le Corbusier;3;50;false;true;false;false;false;false;79.0;1;0;0;0;0;false;82127;6119525230;-73.7207969;45.5583911;80016;6119528386;-73.748086;45.569211;0;0;1;9082034;Bus 8 : TERMINUS /ST-EUSTACHE;"";EXO;8 N;Station Montmorency;Terminus Saint-Eustache
48068764;"{\"type\":\"LineString\",\"coordinates\":[[-73.7233438,45.5560258],[-73.7235435,45.555976],[-73.7250367,45.5551485]]}";15;"";2;50;false;true;true;false;false;false;165.0;2;0;0;0;0;false;82127;6119525230;-73.7207969;45.5583911;80016;6119528386;-73.748086;45.569211;0;0;1;9082034;Bus 8 : TERMINUS /ST-EUSTACHE;"";EXO;8 N;Station Montmorency;Terminus Saint-Eustache
29081898;"{\"type\":\"LineString\",\"coordinates\":[[-73.7250367,45.5551485],[-73.7260251,45.5546061],[-73.7262145,45.5545274],[-73.7264435,45.5544709],[-73.7266396,45.5544645],[-73.7268405,45.5544859],[-73.7270808,45.5545575],[-73.7273018,45.5546737],[-73.7284215,45.5555195]]}";16;"";1;50;false;true;true;false;false;false;336.0;0;0;0;0;0;false;82127;6119525230;-73.7207969;45.5583911;80016;6119528386;-73.748086;45.569211;0;0;1;9082034;Bus 8 : TERMINUS /ST-EUSTACHE;"";EXO;8 N;Station Montmorency;Terminus Saint-Eustache
653183998;"{\"type\":\"LineString\",\"coordinates\":[[-73.7284215,45.5555195],[-73.7293228,45.5562827],[-73.7296715,45.5565869]]}";17;"";1;70;false;true;true;false;false;false;154.0;0;0;0;0;0;false;82127;6119525230;-73.7207969;45.5583911;80016;6119528386;-73.748086;45.569211;0;0;1;9082034;Bus 8 : TERMINUS /ST-EUSTACHE;"";EXO;8 N;Station Montmorency;Terminus Saint-Eustache
630868778;"{\"type\":\"LineString\",\"coordinates\":[[-73.7296715,45.5565869],[-73.731151,45.5579535],[-73.7326273,45.5592756]]}";18;"";1;70;false;true;true;false;false;false;378.0;0;0;0;0;0;false;82127;6119525230;-73.7207969;45.5583911;80016;6119528386;-73.748086;45.569211;0;0;1;9082034;Bus 8 : TERMINUS /ST-EUSTACHE;"";EXO;8 N;Station Montmorency;Terminus Saint-Eustache
459311459;"{\"type\":\"LineString\",\"coordinates\":[[-73.7326273,45.5592756],[-73.7339405,45.5605797]]}";19;"";1;70;false;true;true;false;false;false;178.0;0;0;0;0;0;false;82127;6119525230;-73.7207969;45.5583911;80016;6119528386;-73.748086;45.569211;0;0;1;9082034;Bus 8 : TERMINUS /ST-EUSTACHE;"";EXO;8 N;Station Montmorency;Terminus Saint-Eustache
29082903;"{\"type\":\"LineString\",\"coordinates\":[[-73.7339405,45.5605797],[-73.734581,45.5613766],[-73.7346583,45.561665],[-73.7346583,45.5619956],[-73.7344256,45.5627769],[-73.7343867,45.5629662],[-73.7344015,45.563135],[-73.7344927,45.5633174],[-73.7346674,45.5634757]]}";20;"";1;50;false;true;true;false;false;false;344.0;0;0;0;0;0;false;82127;6119525230;-73.7207969;45.5583911;80016;6119528386;-73.748086;45.569211;0;0;1;9082034;Bus 8 : TERMINUS /ST-EUSTACHE;"";EXO;8 N;Station Montmorency;Terminus Saint-Eustache
29082910;"{\"type\":\"LineString\",\"coordinates\":[[-73.7346674,45.5634757],[-73.7351303,45.5637503],[-73.7352287,45.5638079]]}";21;"";1;50;false;true;true;false;false;false;58.0;0;0;0;0;0;false;82127;6119525230;-73.7207969;45.5583911;80016;6119528386;-73.748086;45.569211;0;0;1;9082034;Bus 8 : TERMINUS /ST-EUSTACHE;"";EXO;8 N;Station Montmorency;Terminus Saint-Eustache
455478651;"{\"type\":\"LineString\",\"coordinates\":[[-73.7352287,45.5638079],[-73.7354117,45.5638353],[-73.7356143,45.5638149]]}";22;"";1;50;false;true;true;false;false;false;31.0;0;0;0;0;0;false;82127;6119525230;-73.7207969;45.5583911;80016;6119528386;-73.748086;45.569211;0;0;1;9082034;Bus 8 : TERMINUS /ST-EUSTACHE;"";EXO;8 N;Station Montmorency;Terminus Saint-Eustache
574706907;"{\"type\":\"LineString\",\"coordinates\":[[-73.7356143,45.5638149],[-73.736278,45.5634816]]}";23;Boulevard Saint-Martin Ouest;3;60;false;true;false;false;false;false;64.0;0;0;0;0;0;false;82127;6119525230;-73.7207969;45.5583911;80016;6119528386;-73.748086;45.569211;0;0;1;9082034;Bus 8 : TERMINUS /ST-EUSTACHE;"";EXO;8 N;Station Montmorency;Terminus Saint-Eustache
37814040;"{\"type\":\"LineString\",\"coordinates\":[[-73.736278,45.5634816],[-73.7381643,45.5624871]]}";24;Boulevard Saint-Martin Ouest;1;60;false;true;false;false;false;false;184.0;0;0;0;0;0;false;82127;6119525230;-73.7207969;45.5583911;80016;6119528386;-73.748086;45.569211;0;0;1;9082034;Bus 8 : TERMINUS /ST-EUSTACHE;"";EXO;8 N;Station Montmorency;Terminus Saint-Eustache
452077093;"{\"type\":\"LineString\",\"coordinates\":[[-73.7381643,45.5624871],[-73.7390576,45.5620082]]}";25;Boulevard Saint-Martin Ouest;3;60;false;true;false;false;false;false;88.0;1;0;0;0;0;false;82127;6119525230;-73.7207969;45.5583911;80016;6119528386;-73.748086;45.569211;0;0;1;9082034;Bus 8 : TERMINUS /ST-EUSTACHE;"";EXO;8 N;Station Montmorency;Terminus Saint-Eustache
37814041;"{\"type\":\"LineString\",\"coordinates\":[[-73.7390576,45.5620082],[-73.7393177,45.5618608]]}";26;Boulevard Saint-Martin;3;60;false;true;false;false;false;false;27.0;1;0;0;0;0;false;82127;6119525230;-73.7207969;45.5583911;80016;6119528386;-73.748086;45.569211;0;0;1;9082034;Bus 8 : TERMINUS /ST-EUSTACHE;"";EXO;8 N;Station Montmorency;Terminus Saint-Eustache
455478654;"{\"type\":\"LineString\",\"coordinates\":[[-73.7393177,45.5618608],[-73.7414265,45.5606902]]}";27;Boulevard Saint-Martin Ouest;3;60;false;true;false;false;false;false;210.0;1;0;0;0;0;false;82127;6119525230;-73.7207969;45.5583911;80016;6119528386;-73.748086;45.569211;0;0;1;9082034;Bus 8 : TERMINUS /ST-EUSTACHE;"";EXO;8 N;Station Montmorency;Terminus Saint-Eustache
652947080;"{\"type\":\"LineString\",\"coordinates\":[[-73.7414265,45.5606902],[-73.7428305,45.5619626],[-73.7433009,45.5623129],[-73.743441,45.5623716]]}";28;Avenue Pierre Péladeau;2;50;false;true;true;false;false;false;245.0;1;0;0;0;0;false;82127;6119525230;-73.7207969;45.5583911;80016;6119528386;-73.748086;45.569211;0;0;1;9082034;Bus 8 : TERMINUS /ST-EUSTACHE;"";EXO;8 N;Station Montmorency;Terminus Saint-Eustache
45755861;"{\"type\":\"LineString\",\"coordinates\":[[-73.743441,45.5623716],[-73.7438281,45.5627209],[-73.7446913,45.5635061],[-73.7457923,45.5644932]]}";29;Avenue Pierre Péladeau;4;50;false;false;false;false;false;false;299.0;0;0;0;0;0;false;82127;6119525230;-73.7207969;45.5583911;80016;6119528386;-73.748086;45.569211;0;0;1;9082034;Bus 8 : TERMINUS /ST-EUSTACHE;"";EXO;8 N;Station Montmorency;Terminus Saint-Eustache
100163297;"{\"type\":\"LineString\",\"coordinates\":[[-73.7457923,45.5644932],[-73.7453673,45.5647484],[-73.7452639,45.5648074],[-73.7445476,45.565216],[-73.7438029,45.565733]]}";30;Avenue du Cosmodôme;1;50;false;false;false;false;false;false;208.0;0;0;0;0;0;false;82127;6119525230;-73.7207969;45.5583911;80016;6119528386;-73.748086;45.569211;0;0;1;9082034;Bus 8 : TERMINUS /ST-EUSTACHE;"";EXO;8 N;Station Montmorency;Terminus Saint-Eustache
533027294;"{\"type\":\"LineString\",\"coordinates\":[[-73.7459632,45.5677703],[-73.7458747,45.5676255],[-73.7457673,45.567501],[-73.7445105,45.5663572],[-73.7440327,45.5659183],[-73.7438029,45.565733]]}";31;Avenue Terry Fox;2;50;false;false;false;false;false;false;283.0;0;0;0;0;0;false;82127;6119525230;-73.7207969;45.5583911;80016;6119528386;-73.748086;45.569211;0;0;1;9082034;Bus 8 : TERMINUS /ST-EUSTACHE;"";EXO;8 N;Station Montmorency;Terminus Saint-Eustache
652947075;"{\"type\":\"LineString\",\"coordinates\":[[-73.7470932,45.5687155],[-73.7468322,45.568589],[-73.7464567,45.5683412],[-73.7463387,45.5682322],[-73.7462207,45.5681233],[-73.7460383,45.5679055],[-73.7459632,45.5677703]]}";32;Avenue Terry Fox;2;50;false;false;false;false;false;false;140.0;0;0;0;0;0;false;82127;6119525230;-73.7207969;45.5583911;80016;6119528386;-73.748086;45.569211;0;0;1;9082034;Bus 8 : TERMINUS /ST-EUSTACHE;"";EXO;8 N;Station Montmorency;Terminus Saint-Eustache
662152608;"{\"type\":\"LineString\",\"coordinates\":[[-73.7475508,45.5684635],[-73.7470932,45.5687155]]}";33;"";1;50;false;false;true;false;false;false;46.0;0;0;0;0;0;false;82127;6119525230;-73.7207969;45.5583911;80016;6119528386;-73.748086;45.569211;0;0;1;9082034;Bus 8 : TERMINUS /ST-EUSTACHE;"";EXO;8 N;Station Montmorency;Terminus Saint-Eustache
694409796;"{\"type\":\"LineString\",\"coordinates\":[[-73.7475508,45.5684635],[-73.7478552,45.5687373]]}";34;"";1;50;false;true;true;false;false;false;39.0;0;0;0;0;0;false;82127;6119525230;-73.7207969;45.5583911;80016;6119528386;-73.748086;45.569211;0;0;1;9082034;Bus 8 : TERMINUS /ST-EUSTACHE;"";EXO;8 N;Station Montmorency;Terminus Saint-Eustache
695760828;"{\"type\":\"LineString\",\"coordinates\":[[-73.7478552,45.5687373],[-73.7480061,45.5688715]]}";35;"";1;50;false;true;true;false;false;false;19.0;0;0;0;0;0;false;82127;6119525230;-73.7207969;45.5583911;80016;6119528386;-73.748086;45.569211;0;0;1;9082034;Bus 8 : TERMINUS /ST-EUSTACHE;"";EXO;8 N;Station Montmorency;Terminus Saint-Eustache
292376886;"{\"type\":\"LineString\",\"coordinates\":[[-73.7480061,45.5688715],[-73.7480552,45.5689096],[-73.7481617,45.5689162],[-73.7483174,45.5688443]]}";36;"";1;50;false;true;true;false;false;false;14.5;0;0;0;0;0;false;82127;6119525230;-73.7207969;45.5583911;80016;6119528386;-73.748086;45.569211;1;0;1;9082034;Bus 8 : TERMINUS /ST-EUSTACHE;"";EXO;8 N;Station Montmorency;Terminus Saint-Eustache
292376886;"{\"type\":\"LineString\",\"coordinates\":[[-73.7480061,45.5688715],[-73.7480552,45.5689096],[-73.7481617,45.5689162],[-73.7483174,45.5688443]]}";1;"";1;50;false;true;true;false;false;false;14.5;0;0;0;0;0;false;80016;6119528386;-73.748086;45.569211;81031;6119526069;-73.845698;45.591061;1;1;2;9082034;Bus 8 : TERMINUS /ST-EUSTACHE;"";EXO;8 N;Station Montmorency;Terminus Saint-Eustache
678350780;"{\"type\":\"LineString\",\"coordinates\":[[-73.7483174,45.5688443],[-73.7483189,45.5687593],[-73.7481831,45.5686551],[-73.7480275,45.5685377]]}";2;"";1;50;false;true;true;false;false;false;43.0;0;0;0;0;0;false;80016;6119528386;-73.748086;45.569211;81031;6119526069;-73.845698;45.591061;0;1;2;9082034;Bus 8 : TERMINUS /ST-EUSTACHE;"";EXO;8 N;Station Montmorency;Terminus Saint-Eustache
694200780;"{\"type\":\"LineString\",\"coordinates\":[[-73.7480275,45.5685377],[-73.7478281,45.5683851]]}";3;"";1;50;false;true;true;false;false;false;24.0;0;0;0;0;0;false;80016;6119528386;-73.748086;45.569211;81031;6119526069;-73.845698;45.591061;0;1;2;9082034;Bus 8 : TERMINUS /ST-EUSTACHE;"";EXO;8 N;Station Montmorency;Terminus Saint-Eustache
678347082;"{\"type\":\"LineString\",\"coordinates\":[[-73.7478281,45.5683851],[-73.7477706,45.5683413]]}";4;"";1;50;false;true;true;false;false;false;7.0;0;0;0;0;0;false;80016;6119528386;-73.748086;45.569211;81031;6119526069;-73.845698;45.591061;0;1;2;9082034;Bus 8 : TERMINUS /ST-EUSTACHE;"";EXO;8 N;Station Montmorency;Terminus Saint-Eustache
684308400;"{\"type\":\"LineString\",\"coordinates\":[[-73.7482206,45.5680963],[-73.7479956,45.5682134],[-73.7477706,45.5683413]]}";5;"";1;50;false;false;true;false;false;false;45.0;0;0;0;0;0;false;80016;6119528386;-73.748086;45.569211;81031;6119526069;-73.845698;45.591061;0;1;2;9082034;Bus 8 : TERMINUS /ST-EUSTACHE;"";EXO;8 N;Station Montmorency;Terminus Saint-Eustache
684308399;"{\"type\":\"LineString\",\"coordinates\":[[-73.7483699,45.5680109],[-73.7482206,45.5680963]]}";6;"";1;50;false;false;true;false;false;false;16.0;0;0;0;0;0;false;80016;6119528386;-73.748086;45.569211;81031;6119526069;-73.845698;45.591061;0;1;2;9082034;Bus 8 : TERMINUS /ST-EUSTACHE;"";EXO;8 N;Station Montmorency;Terminus Saint-Eustache
292376885;"{\"type\":\"LineString\",\"coordinates\":[[-73.749603,45.5683977],[-73.7495387,45.5683559],[-73.7489277,45.5679595],[-73.7487689,45.5678968],[-73.7485697,45.5679009],[-73.7483699,45.5680109]]}";7;"";1;50;false;false;true;false;false;false;122.0;1;1;0;0;0;false;80016;6119528386;-73.748086;45.569211;81031;6119526069;-73.845698;45.591061;0;1;2;9082034;Bus 8 : TERMINUS /ST-EUSTACHE;"";EXO;8 N;Station Montmorency;Terminus Saint-Eustache
684308380;"{\"type\":\"LineString\",\"coordinates\":[[-73.749708,45.568468],[-73.749603,45.5683977]]}";8;"";1;50;false;false;true;false;false;false;12.0;2;0;0;0;0;false;80016;6119528386;-73.748086;45.569211;81031;6119526069;-73.845698;45.591061;0;1;2;9082034;Bus 8 : TERMINUS /ST-EUSTACHE;"";EXO;8 N;Station Montmorency;Terminus Saint-Eustache
653195069;"{\"type\":\"LineString\",\"coordinates\":[[-73.749708,45.568468],[-73.7498081,45.5684023],[-73.7513352,45.5673155],[-73.7520954,45.566766],[-73.7521982,45.5666917],[-73.7532667,45.565918]]}";9;Boulevard Le Carrefour;3;50;false;true;true;false;false;false;397.0;3;1;0;0;0;false;80016;6119528386;-73.748086;45.569211;81031;6119526069;-73.845698;45.591061;0;1;2;9082034;Bus 8 : TERMINUS /ST-EUSTACHE;"";EXO;8 N;Station Montmorency;Terminus Saint-Eustache
455472713;"{\"type\":\"LineString\",\"coordinates\":[[-73.7532667,45.565918],[-73.7535397,45.5657204]]}";10;Boulevard Le Carrefour;3;50;false;true;true;false;false;false;31.0;1;0;0;0;0;false;80016;6119528386;-73.748086;45.569211;81031;6119526069;-73.845698;45.591061;0;1;2;9082034;Bus 8 : TERMINUS /ST-EUSTACHE;"";EXO;8 N;Station Montmorency;Terminus Saint-Eustache
455472712;"{\"type\":\"LineString\",\"coordinates\":[[-73.7535397,45.5657204],[-73.7537138,45.5655915]]}";11;Boulevard Le Carrefour;3;50;false;true;true;false;false;false;20.0;2;0;0;0;0;false;80016;6119528386;-73.748086;45.569211;81031;6119526069;-73.845698;45.591061;0;1;2;9082034;Bus 8 : TERMINUS /ST-EUSTACHE;"";EXO;8 N;Station Montmorency;Terminus Saint-Eustache
455472711;"{\"type\":\"LineString\",\"coordinates\":[[-73.7537138,45.5655915],[-73.7543821,45.5650965],[-73.7546638,45.5648879],[-73.7552218,45.5644747],[-73.7559457,45.5639386],[-73.756778,45.5633222],[-73.7570817,45.5630972],[-73.757577,45.5627304],[-73.7576795,45.5626545]]}";12;Boulevard Le Carrefour;3;50;false;true;true;false;false;false;450.0;1;0;0;0;0;false;80016;6119528386;-73.748086;45.569211;81031;6119526069;-73.845698;45.591061;0;1;2;9082034;Bus 8 : TERMINUS /ST-EUSTACHE;"";EXO;8 N;Station Montmorency;Terminus Saint-Eustache
45799089;"{\"type\":\"LineString\",\"coordinates\":[[-73.7576795,45.5626545],[-73.7579346,45.5625239],[-73.7581528,45.5625083],[-73.7582547,45.5625364],[-73.7585461,45.5626836]]}";13;"";1;50;false;true;true;false;false;false;79.0;0;0;0;0;0;false;80016;6119528386;-73.748086;45.569211;81031;6119526069;-73.845698;45.591061;0;1;2;9082034;Bus 8 : TERMINUS /ST-EUSTACHE;"";EXO;8 N;Station Montmorency;Terminus Saint-Eustache
45799079;"{\"type\":\"LineString\",\"coordinates\":[[-73.7585461,45.5626836],[-73.7588613,45.5629624],[-73.7611732,45.5650074]]}";14;Boulevard Chomedey;3;60;false;true;false;false;false;false;330.0;0;0;0;0;0;false;80016;6119528386;-73.748086;45.569211;81031;6119526069;-73.845698;45.591061;0;1;2;9082034;Bus 8 : TERMINUS /ST-EUSTACHE;"";EXO;8 N;Station Montmorency;Terminus Saint-Eustache
45799094;"{\"type\":\"LineString\",\"coordinates\":[[-73.7611732,45.5650074],[-73.7612628,45.5650995]]}";15;Boulevard Chomedey;3;50;false;true;false;false;false;false;13.0;0;0;0;0;0;false;80016;6119528386;-73.748086;45.569211;81031;6119526069;-73.845698;45.591061;0;1;2;9082034;Bus 8 : TERMINUS /ST-EUSTACHE;"";EXO;8 N;Station Montmorency;Terminus Saint-Eustache
45307662;"{\"type\":\"LineString\",\"coordinates\":[[-73.7612628,45.5650995],[-73.7620806,45.5658228],[-73.7621785,45.5659094]]}";16;Boulevard Chomedey;3;60;false;true;false;false;false;false;115.0;0;0;0;0;0;false;80016;6119528386;-73.748086;45.569211;81031;6119526069;-73.845698;45.591061;0;1;2;9082034;Bus 8 : TERMINUS /ST-EUSTACHE;"";EXO;8 N;Station Montmorency;Terminus Saint-Eustache
45798646;"{\"type\":\"LineString\",\"coordinates\":[[-73.7621785,45.5659094],[-73.7631527,45.5667422],[-73.7640135,45.5675494],[-73.7642774,45.5677863],[-73.7645159,45.5680139],[-73.7648843,45.5683492]]}";17;Boulevard Chomedey;3;60;false;true;false;false;false;false;344.0;0;0;0;0;0;false;80016;6119528386;-73.748086;45.569211;81031;6119526069;-73.845698;45.591061;0;1;2;9082034;Bus 8 : TERMINUS /ST-EUSTACHE;"";EXO;8 N;Station Montmorency;Terminus Saint-Eustache
45798943;"{\"type\":\"LineString\",\"coordinates\":[[-73.7648843,45.5683492],[-73.7649673,45.5684689],[-73.7652555,45.568769],[-73.7653282,45.5689588],[-73.7653495,45.5691571],[-73.7653217,45.5692558],[-73.7651896,45.5694344],[-73.7649819,45.5695581],[-73.764724,45.5696274],[-73.7644159,45.569651],[-73.7642882,45.5696317],[-73.7640341,45.5695299],[-73.7638455,45.5693658],[-73.7637471,45.5691757],[-73.7637521,45.5689508],[-73.7639106,45.5687365],[-73.7640535,45.5685955]]}";18;"";1;50;false;true;true;false;false;false;350.0;0;0;0;0;0;false;80016;6119528386;-73.748086;45.569211;81031;6119526069;-73.845698;45.591061;0;1;2;9082034;Bus 8 : TERMINUS /ST-EUSTACHE;"";EXO;8 N;Station Montmorency;Terminus Saint-Eustache
45798958;"{\"type\":\"LineString\",\"coordinates\":[[-73.7640535,45.5685955],[-73.7642386,45.5684669]]}";19;"";1;50;false;true;true;false;false;false;21.0;0;0;0;0;0;false;80016;6119528386;-73.748086;45.569211;81031;6119526069;-73.845698;45.591061;0;1;2;9082034;Bus 8 : TERMINUS /ST-EUSTACHE;"";EXO;8 N;Station Montmorency;Terminus Saint-Eustache
45798951;"{\"type\":\"LineString\",\"coordinates\":[[-73.7642386,45.5684669],[-73.7646314,45.5682724]]}";20;"";1;50;false;true;true;false;false;false;38.0;0;0;0;0;0;false;80016;6119528386;-73.748086;45.569211;81031;6119526069;-73.845698;45.591061;0;1;2;9082034;Bus 8 : TERMINUS /ST-EUSTACHE;"";EXO;8 N;Station Montmorency;Terminus Saint-Eustache
480275047;"{\"type\":\"LineString\",\"coordinates\":[[-73.7646314,45.5682724],[-73.765018,45.5680944]]}";21;"";1;50;false;true;true;false;false;false;37.0;0;0;0;0;0;false;80016;6119528386;-73.748086;45.569211;81031;6119526069;-73.845698;45.591061;0;1;2;9082034;Bus 8 : TERMINUS /ST-EUSTACHE;"";EXO;8 N;Station Montmorency;Terminus Saint-Eustache
480275048;"{\"type\":\"LineString\",\"coordinates\":[[-73.765018,45.5680944],[-73.7655044,45.5678383]]}";22;"";1;50;false;true;true;false;false;false;48.0;0;0;0;0;0;false;80016;6119528386;-73.748086;45.569211;81031;6119526069;-73.845698;45.591061;0;1;2;9082034;Bus 8 : TERMINUS /ST-EUSTACHE;"";EXO;8 N;Station Montmorency;Terminus Saint-Eustache
677655954;"{\"type\":\"LineString\",\"coordinates\":[[-73.7655044,45.5678383],[-73.7662538,45.5675655],[-73.7676748,45.567121],[-73.7678113,45.5670809],[-73.7685831,45.5668526],[-73.7685964,45.5668487],[-73.7687264,45.5668103],[-73.7687798,45.5667945],[-73.7700839,45.5664092]]}";23;Autoroute Jean-Noël-Lavoie;2;70;false;true;true;false;false;false;392.0;0;0;0;0;0;false;80016;6119528386;-73.748086;45.569211;81031;6119526069;-73.845698;45.591061;0;1;2;9082034;Bus 8 : TERMINUS /ST-EUSTACHE;"";EXO;8 N;Station Montmorency;Terminus Saint-Eustache
653183987;"{\"type\":\"LineString\",\"coordinates\":[[-73.7700839,45.5664092],[-73.7702594,45.5663573],[-73.7712837,45.5660589],[-73.771637,45.5659534],[-73.7720602,45.5658269],[-73.7725757,45.5656729],[-73.7774028,45.5642679],[-73.7801349,45.5634712],[-73.7812401,45.563133],[-73.7825185,45.5627419],[-73.783259,45.5625144]]}";24;Autoroute Jean-Noël-Lavoie;2;70;false;true;true;false;false;false;1116.0;0;0;0;0;0;false;80016;6119528386;-73.748086;45.569211;81031;6119526069;-73.845698;45.591061;0;1;2;9082034;Bus 8 : TERMINUS /ST-EUSTACHE;"";EXO;8 N;Station Montmorency;Terminus Saint-Eustache
198565283;"{\"type\":\"LineString\",\"coordinates\":[[-73.783259,45.5625144],[-73.7846544,45.5621011],[-73.7848495,45.5620433],[-73.7855987,45.5618241],[-73.786712,45.5614984],[-73.7872638,45.5613369],[-73.7877228,45.5612026],[-73.7884799,45.5609811],[-73.789729,45.5606156],[-73.7901423,45.5604947],[-73.7910583,45.5602267],[-73.79136,45.5601384],[-73.7915072,45.5600953],[-73.7923923,45.5598363],[-73.7925366,45.5597941],[-73.7936988,45.559454],[-73.7940676,45.5593461],[-73.7980326,45.558186],[-73.7981718,45.5581453],[-73.7998339,45.5576589],[-73.8000754,45.5575882],[-73.8007157,45.5574071],[-73.8016294,45.5571335],[-73.8022313,45.5569607]]}";25;Autoroute Jean-Noël-Lavoie;2;70;false;true;true;false;false;false;1604.0;0;0;0;0;0;false;80016;6119528386;-73.748086;45.569211;81031;6119526069;-73.845698;45.591061;0;1;2;9082034;Bus 8 : TERMINUS /ST-EUSTACHE;"";EXO;8 N;Station Montmorency;Terminus Saint-Eustache
765192089;"{\"type\":\"LineString\",\"coordinates\":[[-73.8022313,45.5569607],[-73.8040858,45.5564325]]}";26;Autoroute Jean-Noël-Lavoie;2;70;false;true;true;false;false;false;157.0;0;0;0;0;0;false;80016;6119528386;-73.748086;45.569211;81031;6119526069;-73.845698;45.591061;0;1;2;9082034;Bus 8 : TERMINUS /ST-EUSTACHE;"";EXO;8 N;Station Montmorency;Terminus Saint-Eustache
23497623;"{\"type\":\"LineString\",\"coordinates\":[[-73.8040858,45.5564325],[-73.8052515,45.5561659],[-73.8057235,45.5561058],[-73.8063244,45.5561539],[-73.8105386,45.5569592],[-73.8107876,45.5570434],[-73.8111566,45.5572357],[-73.8120423,45.5579005]]}";27;"";1;50;false;true;true;false;false;false;680.0;0;0;0;0;0;false;80016;6119528386;-73.748086;45.569211;81031;6119526069;-73.845698;45.591061;0;1;2;9082034;Bus 8 : TERMINUS /ST-EUSTACHE;"";EXO;8 N;Station Montmorency;Terminus Saint-Eustache
45797606;"{\"type\":\"LineString\",\"coordinates\":[[-73.8120423,45.5579005],[-73.8150044,45.5605546]]}";28;"";2;70;false;true;true;false;false;false;375.0;0;0;0;0;0;false;80016;6119528386;-73.748086;45.569211;81031;6119526069;-73.845698;45.591061;0;1;2;9082034;Bus 8 : TERMINUS /ST-EUSTACHE;"";EXO;8 N;Station Montmorency;Terminus Saint-Eustache
45797576;"{\"type\":\"LineString\",\"coordinates\":[[-73.8150044,45.5605546],[-73.815559,45.560967],[-73.8179072,45.5629388]]}";29;"";1;70;false;true;true;false;false;false;349.0;0;0;0;0;0;false;80016;6119528386;-73.748086;45.569211;81031;6119526069;-73.845698;45.591061;0;1;2;9082034;Bus 8 : TERMINUS /ST-EUSTACHE;"";EXO;8 N;Station Montmorency;Terminus Saint-Eustache
509754498;"{\"type\":\"LineString\",\"coordinates\":[[-73.8179072,45.5629388],[-73.8201744,45.5650181],[-73.8227714,45.567407]]}";30;Autoroute Chomedey;3;100;false;true;true;false;false;false;625.0;0;0;0;0;0;false;80016;6119528386;-73.748086;45.569211;81031;6119526069;-73.845698;45.591061;0;1;2;9082034;Bus 8 : TERMINUS /ST-EUSTACHE;"";EXO;8 N;Station Montmorency;Terminus Saint-Eustache
466382720;"{\"type\":\"LineString\",\"coordinates\":[[-73.8227714,45.567407],[-73.8231309,45.5677435]]}";31;Autoroute Chomedey;3;100;false;true;true;false;false;false;47.0;0;0;0;0;0;false;80016;6119528386;-73.748086;45.569211;81031;6119526069;-73.845698;45.591061;0;1;2;9082034;Bus 8 : TERMINUS /ST-EUSTACHE;"";EXO;8 N;Station Montmorency;Terminus Saint-Eustache
466382724;"{\"type\":\"LineString\",\"coordinates\":[[-73.8231309,45.5677435],[-73.8236076,45.5681898]]}";32;Autoroute Chomedey;3;100;false;true;true;false;false;false;62.0;0;0;0;0;0;false;80016;6119528386;-73.748086;45.569211;81031;6119526069;-73.845698;45.591061;0;1;2;9082034;Bus 8 : TERMINUS /ST-EUSTACHE;"";EXO;8 N;Station Montmorency;Terminus Saint-Eustache
466382730;"{\"type\":\"LineString\",\"coordinates\":[[-73.8236076,45.5681898],[-73.8268692,45.571134],[-73.8282584,45.5723401],[-73.8326151,45.5763149]]}";33;Autoroute Chomedey;3;100;false;true;true;false;false;false;1144.0;0;0;0;0;0;false;80016;6119528386;-73.748086;45.569211;81031;6119526069;-73.845698;45.591061;0;1;2;9082034;Bus 8 : TERMINUS /ST-EUSTACHE;"";EXO;8 N;Station Montmorency;Terminus Saint-Eustache
765758053;"{\"type\":\"LineString\",\"coordinates\":[[-73.8326151,45.5763149],[-73.8349291,45.578426]]}";34;Autoroute Chomedey;3;100;false;true;true;false;false;false;296.0;0;0;0;0;0;false;80016;6119528386;-73.748086;45.569211;81031;6119526069;-73.845698;45.591061;0;1;2;9082034;Bus 8 : TERMINUS /ST-EUSTACHE;"";EXO;8 N;Station Montmorency;Terminus Saint-Eustache
38817949;"{\"type\":\"LineString\",\"coordinates\":[[-73.8349291,45.578426],[-73.8405504,45.5836005]]}";35;Autoroute Chomedey;1;100;false;true;true;false;false;false;723.0;0;0;0;0;0;false;80016;6119528386;-73.748086;45.569211;81031;6119526069;-73.845698;45.591061;0;1;2;9082034;Bus 8 : TERMINUS /ST-EUSTACHE;"";EXO;8 N;Station Montmorency;Terminus Saint-Eustache
455698980;"{\"type\":\"LineString\",\"coordinates\":[[-73.8405504,45.5836005],[-73.8414178,45.5844317],[-73.8439488,45.5869929],[-73.8450217,45.5879719]]}";36;Autoroute Chomedey;2;100;false;true;true;false;false;false;598.0;0;0;0;0;0;false;80016;6119528386;-73.748086;45.569211;81031;6119526069;-73.845698;45.591061;0;1;2;9082034;Bus 8 : TERMINUS /ST-EUSTACHE;"";EXO;8 N;Station Montmorency;Terminus Saint-Eustache
238455686;"{\"type\":\"LineString\",\"coordinates\":[[-73.8450217,45.5879719],[-73.8461289,45.5891132],[-73.8465838,45.5896177],[-73.8470559,45.5902784],[-73.8472018,45.5905787],[-73.8472189,45.590867],[-73.8470988,45.5911433],[-73.8468554,45.5914102],[-73.846533,45.591542],[-73.8463585,45.5915616],[-73.8461993,45.5915429],[-73.8460033,45.5914504],[-73.8458305,45.5913346],[-73.8453963,45.5910172]]}";37;"";1;50;false;true;true;false;false;false;289.0;1;0;0;0;0;false;80016;6119528386;-73.748086;45.569211;81031;6119526069;-73.845698;45.591061;1;1;2;9082034;Bus 8 : TERMINUS /ST-EUSTACHE;"";EXO;8 N;Station Montmorency;Terminus Saint-Eustache
238455686;"{\"type\":\"LineString\",\"coordinates\":[[-73.8450217,45.5879719],[-73.8461289,45.5891132],[-73.8465838,45.5896177],[-73.8470559,45.5902784],[-73.8472018,45.5905787],[-73.8472189,45.590867],[-73.8470988,45.5911433],[-73.8468554,45.5914102],[-73.846533,45.591542],[-73.8463585,45.5915616],[-73.8461993,45.5915429],[-73.8460033,45.5914504],[-73.8458305,45.5913346],[-73.8453963,45.5910172]]}";1;"";1;50;false;true;true;false;false;false;289.0;1;0;0;0;0;false;81031;6119526069;-73.845698;45.591061;82377;6119524334;-73.850745;45.586722;1;2;3;9082034;Bus 8 : TERMINUS /ST-EUSTACHE;"";EXO;8 N;Station Montmorency;Terminus Saint-Eustache
652947078;"{\"type\":\"LineString\",\"coordinates\":[[-73.8453963,45.5910172],[-73.8465935,45.5900684]]}";2;Chemin de la Grande-Côte;1;50;false;false;false;false;false;false;141.0;1;0;0;0;0;false;81031;6119526069;-73.845698;45.591061;82377;6119524334;-73.850745;45.586722;0;2;3;9082034;Bus 8 : TERMINUS /ST-EUSTACHE;"";EXO;8 N;Station Montmorency;Terminus Saint-Eustache
51543691;"{\"type\":\"LineString\",\"coordinates\":[[-73.8465935,45.5900684],[-73.8477291,45.5892323]]}";3;Chemin de la Grande-Côte;2;50;false;false;false;false;false;false;129.0;0;0;0;0;0;false;81031;6119526069;-73.845698;45.591061;82377;6119524334;-73.850745;45.586722;0;2;3;9082034;Bus 8 : TERMINUS /ST-EUSTACHE;"";EXO;8 N;Station Montmorency;Terminus Saint-Eustache
437524400;"{\"type\":\"LineString\",\"coordinates\":[[-73.8477291,45.5892323],[-73.8487687,45.5883832]]}";4;Chemin de la Grande-Côte;2;50;false;false;false;false;false;false;125.0;0;0;0;0;0;false;81031;6119526069;-73.845698;45.591061;82377;6119524334;-73.850745;45.586722;0;2;3;9082034;Bus 8 : TERMINUS /ST-EUSTACHE;"";EXO;8 N;Station Montmorency;Terminus Saint-Eustache
629724225;"{\"type\":\"LineString\",\"coordinates\":[[-73.8487687,45.5883832],[-73.8495835,45.5877147]]}";5;Chemin de la Grande-Côte;3;50;false;false;false;false;false;false;98.0;1;0;0;0;0;false;81031;6119526069;-73.845698;45.591061;82377;6119524334;-73.850745;45.586722;0;2;3;9082034;Bus 8 : TERMINUS /ST-EUSTACHE;"";EXO;8 N;Station Montmorency;Terminus Saint-Eustache
629724224;"{\"type\":\"LineString\",\"coordinates\":[[-73.8495835,45.5877147],[-73.849874,45.5874326]]}";6;Chemin de la Grande-Côte;3;50;false;false;false;false;false;false;39.0;1;0;0;0;0;false;81031;6119526069;-73.845698;45.591061;82377;6119524334;-73.850745;45.586722;0;2;3;9082034;Bus 8 : TERMINUS /ST-EUSTACHE;"";EXO;8 N;Station Montmorency;Terminus Saint-Eustache
677250676;"{\"type\":\"LineString\",\"coordinates\":[[-73.849874,45.5874326],[-73.8501876,45.5871282],[-73.8502887,45.5870209],[-73.8507126,45.586581]]}";7;Chemin de la Grande-Côte;1;50;false;false;false;false;false;false;57.5;0;0;2;0;0;false;81031;6119526069;-73.845698;45.591061;82377;6119524334;-73.850745;45.586722;1;2;3;9082034;Bus 8 : TERMINUS /ST-EUSTACHE;"";EXO;8 N;Station Montmorency;Terminus Saint-Eustache
620935720;"{\"type\":\"LineString\",\"coordinates\":[[-73.8507126,45.586581],[-73.8507919,45.5864977],[-73.8513588,45.5858971],[-73.8517755,45.5854523],[-73.8521024,45.5851209],[-73.8523165,45.5849227],[-73.8524546,45.5847764],[-73.8524862,45.5847495],[-73.8528653,45.5844509],[-73.8529707,45.5843725],[-73.8533303,45.5840891],[-73.8535741,45.5839089],[-73.8538147,45.5837139],[-73.8541341,45.5834796],[-73.8542592,45.5833774],[-73.8547907,45.5830051],[-73.8550485,45.5828271],[-73.8552077,45.5827075],[-73.8559655,45.5822585],[-73.8563615,45.5820311],[-73.8565765,45.5819182]]}";1;Chemin de la Grande-Côte;1;50;false;false;false;false;false;false;347.5;1;0;4;0;0;false;82380;6119524331;-73.85512;45.58282;82382;6119524329;-73.859811;45.578446;1;4;5;9082034;Bus 8 : TERMINUS /ST-EUSTACHE;"";EXO;8 N;Station Montmorency;Terminus Saint-Eustache
437524399;"{\"type\":\"LineString\",\"coordinates\":[[-73.8565765,45.5819182],[-73.856761,45.581808]]}";2;Chemin de la Grande-Côte;1;50;false;false;false;false;false;false;19.0;0;0;0;0;0;false;82380;6119524331;-73.85512;45.58282;82382;6119524329;-73.859811;45.578446;0;4;5;9082034;Bus 8 : TERMINUS /ST-EUSTACHE;"";EXO;8 N;Station Montmorency;Terminus Saint-Eustache
51543690;"{\"type\":\"LineString\",\"coordinates\":[[-73.856761,45.581808],[-73.8572318,45.5815099],[-73.8574202,45.5813518],[-73.8577074,45.581046],[-73.8577355,45.5810109],[-73.8580686,45.5805262],[-73.8586582,45.5798061],[-73.8590396,45.5793433],[-73.8591898,45.5791566],[-73.85963,45.578643],[-73.8597526,45.578478],[-73.8598041,45.5784005],[-73.8600546,45.5780837],[-73.860187,45.5779353],[-73.8606223,45.577457],[-73.8610932,45.5770537],[-73.8616193,45.5765951],[-73.861769,45.5764518],[-73.8625054,45.5758614],[-73.8626065,45.5757858],[-73.8631959,45.575345],[-73.8636241,45.5749663],[-73.8636755,45.5749247],[-73.8641339,45.5745531],[-73.8646225,45.574157],[-73.8651604,45.5737209],[-73.8656164,45.5733513],[-73.8656924,45.5732897],[-73.865978,45.5730581],[-73.8664784,45.5726907],[-73.8670562,45.5722372],[-73.8671112,45.572195],[-73.8676961,45.5717868],[-73.8681074,45.5715095],[-73.8682964,45.5713794],[-73.8685078,45.5712497],[-73.8691451,45.5708228],[-73.8697677,45.5704053]]}";3;Chemin de la Grande-Côte;1;50;false;false;false;false;false;false;816.5;1;0;1;0;0;false;82380;6119524331;-73.85512;45.58282;82382;6119524329;-73.859811;45.578446;1;4;5;9082034;Bus 8 : TERMINUS /ST-EUSTACHE;"";EXO;8 N;Station Montmorency;Terminus Saint-Eustache
51543690;"{\"type\":\"LineString\",\"coordinates\":[[-73.856761,45.581808],[-73.8572318,45.5815099],[-73.8574202,45.5813518],[-73.8577074,45.581046],[-73.8577355,45.5810109],[-73.8580686,45.5805262],[-73.8586582,45.5798061],[-73.8590396,45.5793433],[-73.8591898,45.5791566],[-73.85963,45.578643],[-73.8597526,45.578478],[-73.8598041,45.5784005],[-73.8600546,45.5780837],[-73.860187,45.5779353],[-73.8606223,45.577457],[-73.8610932,45.5770537],[-73.8616193,45.5765951],[-73.861769,45.5764518],[-73.8625054,45.5758614],[-73.8626065,45.5757858],[-73.8631959,45.575345],[-73.8636241,45.5749663],[-73.8636755,45.5749247],[-73.8641339,45.5745531],[-73.8646225,45.574157],[-73.8651604,45.5737209],[-73.8656164,45.5733513],[-73.8656924,45.5732897],[-73.865978,45.5730581],[-73.8664784,45.5726907],[-73.8670562,45.5722372],[-73.8671112,45.572195],[-73.8676961,45.5717868],[-73.8681074,45.5715095],[-73.8682964,45.5713794],[-73.8685078,45.5712497],[-73.8691451,45.5708228],[-73.8697677,45.5704053]]}";1;Chemin de la Grande-Côte;1;50;false;false;false;false;false;false;816.5;1;0;1;0;0;false;82386;6119524325;-73.865197;45.573718;82388;6119524323;-73.869788;45.57041;1;7;8;9082034;Bus 8 : TERMINUS /ST-EUSTACHE;"";EXO;8 N;Station Montmorency;Terminus Saint-Eustache
94596662;"{\"type\":\"LineString\",\"coordinates\":[[-73.8697677,45.5704053],[-73.8703933,45.5699804],[-73.8709675,45.56959],[-73.8721582,45.5687865],[-73.8722064,45.5687488],[-73.8727052,45.5684086],[-73.8736204,45.5677863],[-73.8744161,45.5672256],[-73.8745377,45.5671399],[-73.8749079,45.566879],[-73.8759808,45.5660918],[-73.8767659,45.5656949],[-73.8772168,45.5654669],[-73.8773941,45.5653825],[-73.8782118,45.5650093],[-73.8785455,45.5648774],[-73.8806414,45.5640488],[-73.8828987,45.5632796],[-73.8830306,45.5632314],[-73.8839625,45.5629132],[-73.8844728,45.5627231],[-73.8849244,45.5625104],[-73.8856437,45.5620524],[-73.8860123,45.5617957],[-73.8864516,45.561504]]}";2;Chemin de la Grande-Côte;1;50;false;false;false;false;false;false;825.0;2;0;4;0;0;false;82386;6119524325;-73.865197;45.573718;82388;6119524323;-73.869788;45.57041;1;7;8;9082034;Bus 8 : TERMINUS /ST-EUSTACHE;"";EXO;8 N;Station Montmorency;Terminus Saint-Eustache
51543690;"{\"type\":\"LineString\",\"coordinates\":[[-73.856761,45.581808],[-73.8572318,45.5815099],[-73.8574202,45.5813518],[-73.8577074,45.581046],[-73.8577355,45.5810109],[-73.8580686,45.5805262],[-73.8586582,45.5798061],[-73.8590396,45.5793433],[-73.8591898,45.5791566],[-73.85963,45.578643],[-73.8597526,45.578478],[-73.8598041,45.5784005],[-73.8600546,45.5780837],[-73.860187,45.5779353],[-73.8606223,45.577457],[-73.8610932,45.5770537],[-73.8616193,45.5765951],[-73.861769,45.5764518],[-73.8625054,45.5758614],[-73.8626065,45.5757858],[-73.8631959,45.575345],[-73.8636241,45.5749663],[-73.8636755,45.5749247],[-73.8641339,45.5745531],[-73.8646225,45.574157],[-73.8651604,45.5737209],[-73.8656164,45.5733513],[-73.8656924,45.5732897],[-73.865978,45.5730581],[-73.8664784,45.5726907],[-73.8670562,45.5722372],[-73.8671112,45.572195],[-73.8676961,45.5717868],[-73.8681074,45.5715095],[-73.8682964,45.5713794],[-73.8685078,45.5712497],[-73.8691451,45.5708228],[-73.8697677,45.5704053]]}";1;Chemin de la Grande-Côte;1;50;false;false;false;false;false;false;1633.0;1;0;1;0;0;false;82388;6119524323;-73.869788;45.57041;82390;6119524321;-73.874494;45.56721;2;8;9;9082034;Bus 8 : TERMINUS /ST-EUSTACHE;"";EXO;8 N;Station Montmorency;Terminus Saint-Eustache
94596662;"{\"type\":\"LineString\",\"coordinates\":[[-73.8697677,45.5704053],[-73.8703933,45.5699804],[-73.8709675,45.56959],[-73.8721582,45.5687865],[-73.8722064,45.5687488],[-73.8727052,45.5684086],[-73.8736204,45.5677863],[-73.8744161,45.5672256],[-73.8745377,45.5671399],[-73.8749079,45.566879],[-73.8759808,45.5660918],[-73.8767659,45.5656949],[-73.8772168,45.5654669],[-73.8773941,45.5653825],[-73.8782118,45.5650093],[-73.8785455,45.5648774],[-73.8806414,45.5640488],[-73.8828987,45.5632796],[-73.8830306,45.5632314],[-73.8839625,45.5629132],[-73.8844728,45.5627231],[-73.8849244,45.5625104],[-73.8856437,45.5620524],[-73.8860123,45.5617957],[-73.8864516,45.561504]]}";2;Chemin de la Grande-Côte;1;50;false;false;false;false;false;false;1650.0;2;0;4;0;0;false;82388;6119524323;-73.869788;45.57041;82390;6119524321;-73.874494;45.56721;2;8;9;9082034;Bus 8 : TERMINUS /ST-EUSTACHE;"";EXO;8 N;Station Montmorency;Terminus Saint-Eustache
94596662;"{\"type\":\"LineString\",\"coordinates\":[[-73.8697677,45.5704053],[-73.8703933,45.5699804],[-73.8709675,45.56959],[-73.8721582,45.5687865],[-73.8722064,45.5687488],[-73.8727052,45.5684086],[-73.8736204,45.5677863],[-73.8744161,45.5672256],[-73.8745377,45.5671399],[-73.8749079,45.566879],[-73.8759808,45.5660918],[-73.8767659,45.5656949],[-73.8772168,45.5654669],[-73.8773941,45.5653825],[-73.8782118,45.5650093],[-73.8785455,45.5648774],[-73.8806414,45.5640488],[-73.8828987,45.5632796],[-73.8830306,45.5632314],[-73.8839625,45.5629132],[-73.8844728,45.5627231],[-73.8849244,45.5625104],[-73.8856437,45.5620524],[-73.8860123,45.5617957],[-73.8864516,45.561504]]}";1;Chemin de la Grande-Côte;1;50;false;false;false;false;false;false;825.0;2;0;4;0;0;false;82393;6119524318;-73.88281;45.563437;82395;6119524316;-73.887181;45.5607836;1;11;12;9082034;Bus 8 : TERMINUS /ST-EUSTACHE;"";EXO;8 N;Station Montmorency;Terminus Saint-Eustache
440089287;"{\"type\":\"LineString\",\"coordinates\":[[-73.8864516,45.561504],[-73.8865603,45.5614189],[-73.8866604,45.5613373],[-73.886775,45.5612142],[-73.8868555,45.5610959],[-73.8870114,45.560841]]}";2;Chemin de la Grande-Côte;2;50;false;false;true;false;false;false;87.0;1;0;0;0;0;false;82393;6119524318;-73.88281;45.563437;82395;6119524316;-73.887181;45.5607836;0;11;12;9082034;Bus 8 : TERMINUS /ST-EUSTACHE;"";EXO;8 N;Station Montmorency;Terminus Saint-Eustache
437158208;"{\"type\":\"LineString\",\"coordinates\":[[-73.8870114,45.560841],[-73.887191,45.5605652],[-73.8872887,45.560465],[-73.8873385,45.5604356],[-73.8874081,45.5604228],[-73.8875028,45.5604271],[-73.8877983,45.5605244]]}";3;Chemin de la Grande-Côte;1;50;false;true;true;false;false;false;45.5;0;1;0;0;0;false;82393;6119524318;-73.88281;45.563437;82395;6119524316;-73.887181;45.5607836;1;11;12;9082034;Bus 8 : TERMINUS /ST-EUSTACHE;"";EXO;8 N;Station Montmorency;Terminus Saint-Eustache
440089287;"{\"type\":\"LineString\",\"coordinates\":[[-73.8864516,45.561504],[-73.8865603,45.5614189],[-73.8866604,45.5613373],[-73.886775,45.5612142],[-73.8868555,45.5610959],[-73.8870114,45.560841]]}";1;Chemin de la Grande-Côte;2;50;false;false;true;false;false;false;87.0;1;0;0;0;0;false;82395;6119524316;-73.887181;45.5607836;81000;6119526196;-73.892828;45.561425;2;12;13;9082034;Bus 8 : TERMINUS /ST-EUSTACHE;"";EXO;8 N;Station Montmorency;Terminus Saint-Eustache
437158208;"{\"type\":\"LineString\",\"coordinates\":[[-73.8870114,45.560841],[-73.887191,45.5605652],[-73.8872887,45.560465],[-73.8873385,45.5604356],[-73.8874081,45.5604228],[-73.8875028,45.5604271],[-73.8877983,45.5605244]]}";2;Chemin de la Grande-Côte;1;50;false;true;true;false;false;false;91.0;0;1;0;0;0;false;82395;6119524316;-73.887181;45.5607836;81000;6119526196;-73.892828;45.561425;0;12;13;9082034;Bus 8 : TERMINUS /ST-EUSTACHE;"";EXO;8 N;Station Montmorency;Terminus Saint-Eustache
93096423;"{\"type\":\"LineString\",\"coordinates\":[[-73.8877983,45.5605244],[-73.8884149,45.5608603],[-73.8886417,45.56099],[-73.8887499,45.5610551],[-73.889457,45.5614133],[-73.8898192,45.5615995],[-73.8901071,45.5617203],[-73.8903747,45.5618031],[-73.8907375,45.561892],[-73.8910527,45.5619433],[-73.8914195,45.5619901],[-73.8917046,45.5620075],[-73.8920314,45.5620015],[-73.8922185,45.561989]]}";3;Boulevard Arthur-Sauvé;2;50;false;true;true;false;false;false;394.0;1;0;0;0;0;false;82395;6119524316;-73.887181;45.5607836;81000;6119526196;-73.892828;45.561425;0;12;13;9082034;Bus 8 : TERMINUS /ST-EUSTACHE;"";EXO;8 N;Station Montmorency;Terminus Saint-Eustache
652937891;"{\"type\":\"LineString\",\"coordinates\":[[-73.8921041,45.561881],[-73.8922185,45.561989]]}";4;Rue de Bellefeuille;2;50;false;false;true;false;false;false;15.0;0;0;0;0;0;false;82395;6119524316;-73.887181;45.5607836;81000;6119526196;-73.892828;45.561425;0;12;13;9082034;Bus 8 : TERMINUS /ST-EUSTACHE;"";EXO;8 N;Station Montmorency;Terminus Saint-Eustache
652937896;"{\"type\":\"LineString\",\"coordinates\":[[-73.8919894,45.5617621],[-73.8920332,45.5618071],[-73.8921041,45.561881]]}";5;Rue de Bellefeuille;2;50;false;false;true;false;false;false;16.0;1;0;0;0;0;false;82395;6119524316;-73.887181;45.5607836;81000;6119526196;-73.892828;45.561425;0;12;13;9082034;Bus 8 : TERMINUS /ST-EUSTACHE;"";EXO;8 N;Station Montmorency;Terminus Saint-Eustache
676848394;"{\"type\":\"LineString\",\"coordinates\":[[-73.8920958,45.5616672],[-73.8919894,45.5617621]]}";6;"";1;50;false;false;true;false;true;false;14.0;0;0;0;0;0;false;82395;6119524316;-73.887181;45.5607836;81000;6119526196;-73.892828;45.561425;0;12;13;9082034;Bus 8 : TERMINUS /ST-EUSTACHE;"";EXO;8 N;Station Montmorency;Terminus Saint-Eustache
652937894;"{\"type\":\"LineString\",\"coordinates\":[[-73.8928026,45.5614415],[-73.8925357,45.5614982],[-73.8922165,45.5615661],[-73.8921404,45.5616065],[-73.8920958,45.5616672]]}";7;"";1;50;false;false;true;false;true;false;63.0;0;1;0;0;0;false;82395;6119524316;-73.887181;45.5607836;81000;6119526196;-73.892828;45.561425;1;12;13;9082034;Bus 8 : TERMINUS /ST-EUSTACHE;"";EXO;8 N;Station Montmorency;Terminus Saint-Eustache
