way_id;shape;index;name;nb_lanes;legal_speed;speed_zone_30;oneway;shares_bike;bike_box;bus_lane;dedicated_bus_lane;length;nb_traffic_signals;nb_crossings;nb_stops;nb_give_ways;nb_lvl_crossings;roundabout;stop_id_orig;node_id_orig;coord_x_orig;coord_y_orig;stop_id_dest;node_id_dest;coord_x_dest;coord_y_dest;nb_neighbouring_ways_bus_stop;ordre_orig;ordre_dest;id_line;line_name;colour;operator;ref;from;to
393675016;"{\"type\":\"LineString\",\"coordinates\":[[-73.5527842,45.5243085],[-73.5527138,45.5242757],[-73.5514913,45.5237058],[-73.5514051,45.5236656]]}";1;Rue Dorion;1;50;false;true;true;false;false;false;130.0;1;2;0;0;0;false;53051;3077315898;-73.5516717;45.5237004;53045;5768894129;-73.551509;45.525452;1;0;1;5909193;Bus 10 : De Lorimier Nord;"";STM;10-N;Station Papineau (Dorion / Sainte-Catherine);De Lorimier / Crémazie
393674972;"{\"type\":\"LineString\",\"coordinates\":[[-73.5517289,45.5254559],[-73.5518013,45.5253772],[-73.5520001,45.5251612],[-73.5527842,45.5243085]]}";2;Boulevard De Maisonneuve Est;3;50;false;true;false;false;false;false;152.0;0;1;0;0;0;false;53051;3077315898;-73.5516717;45.5237004;53045;5768894129;-73.551509;45.525452;0;0;1;5909193;Bus 10 : De Lorimier Nord;"";STM;10-N;Station Papineau (Dorion / Sainte-Catherine);De Lorimier / Crémazie
463433432;"{\"type\":\"LineString\",\"coordinates\":[[-73.5517289,45.5254559],[-73.5518428,45.5255078],[-73.5531933,45.5261235]]}";3;Avenue De Lorimier;1;50;false;false;true;false;false;false;68.5;0;1;0;0;0;false;53051;3077315898;-73.5516717;45.5237004;53045;5768894129;-73.551509;45.525452;1;0;1;5909193;Bus 10 : De Lorimier Nord;"";STM;10-N;Station Papineau (Dorion / Sainte-Catherine);De Lorimier / Crémazie
393674972;"{\"type\":\"LineString\",\"coordinates\":[[-73.5517289,45.5254559],[-73.5518013,45.5253772],[-73.5520001,45.5251612],[-73.5527842,45.5243085]]}";1;Boulevard De Maisonneuve Est;3;50;false;true;false;false;false;false;152.0;0;1;0;0;0;false;53045;5768894129;-73.551509;45.525452;53010;5768894128;-73.553387;45.526331;2;1;2;5909193;Bus 10 : De Lorimier Nord;"";STM;10-N;Station Papineau (Dorion / Sainte-Catherine);De Lorimier / Crémazie
463433432;"{\"type\":\"LineString\",\"coordinates\":[[-73.5517289,45.5254559],[-73.5518428,45.5255078],[-73.5531933,45.5261235]]}";2;Avenue De Lorimier;1;50;false;false;true;false;false;false;137.0;0;1;0;0;0;false;53045;5768894129;-73.551509;45.525452;53010;5768894128;-73.553387;45.526331;0;1;2;5909193;Bus 10 : De Lorimier Nord;"";STM;10-N;Station Papineau (Dorion / Sainte-Catherine);De Lorimier / Crémazie
25877021;"{\"type\":\"LineString\",\"coordinates\":[[-73.5531933,45.5261235],[-73.5533113,45.5262212],[-73.5543698,45.5267075],[-73.5544566,45.5267474],[-73.5556555,45.5273241],[-73.5568712,45.5279088],[-73.5571757,45.5280553],[-73.557283,45.5280608],[-73.5573761,45.5280688]]}";3;Avenue De Lorimier;2;50;false;true;true;false;false;false;394.0;0;1;0;0;0;false;53045;5768894129;-73.551509;45.525452;53010;5768894128;-73.553387;45.526331;2;1;2;5909193;Bus 10 : De Lorimier Nord;"";STM;10-N;Station Papineau (Dorion / Sainte-Catherine);De Lorimier / Crémazie
470669096;"{\"type\":\"LineString\",\"coordinates\":[[-73.5601574,45.5293934],[-73.5607981,45.5296981],[-73.5625122,45.5305132],[-73.5625579,45.5305349],[-73.5630515,45.5307624]]}";1;Avenue De Lorimier;1;50;false;true;true;false;false;false;136.5;1;0;0;0;0;false;52718;5043792023;-73.56279;45.530713;52637;5043801721;-73.565087;45.531798;1;5;6;5909193;Bus 10 : De Lorimier Nord;"";STM;10-N;Station Papineau (Dorion / Sainte-Catherine);De Lorimier / Crémazie
131630965;"{\"type\":\"LineString\",\"coordinates\":[[-73.5630515,45.5307624],[-73.5635885,45.5310171],[-73.564123,45.5312634],[-73.5644823,45.5314289],[-73.5652665,45.5317902],[-73.5669303,45.532568],[-73.5673644,45.5327803]]}";2;Avenue De Lorimier;1;50;false;true;true;false;false;false;202.5;1;0;0;0;0;false;52718;5043792023;-73.56279;45.530713;52637;5043801721;-73.565087;45.531798;1;5;6;5909193;Bus 10 : De Lorimier Nord;"";STM;10-N;Station Papineau (Dorion / Sainte-Catherine);De Lorimier / Crémazie
463851994;"{\"type\":\"LineString\",\"coordinates\":[[-73.5673644,45.5327803],[-73.5674148,45.5328368],[-73.5674363,45.5328609],[-73.5675439,45.5329067],[-73.5677764,45.5329764]]}";1;Avenue De Lorimier;1;50;false;true;true;false;false;false;41.0;0;0;0;0;0;false;52561;5043801841;-73.567155;45.532768;52456;5768894125;-73.569991;45.534082;2;7;8;5909193;Bus 10 : De Lorimier Nord;"";STM;10-N;Station Papineau (Dorion / Sainte-Catherine);De Lorimier / Crémazie
452615673;"{\"type\":\"LineString\",\"coordinates\":[[-73.5692559,45.5336592],[-73.5677764,45.5329764]]}";2;Avenue De Lorimier;4;50;false;false;true;false;false;false;139.0;0;0;0;0;0;false;52561;5043801841;-73.567155;45.532768;52456;5768894125;-73.569991;45.534082;0;7;8;5909193;Bus 10 : De Lorimier Nord;"";STM;10-N;Station Papineau (Dorion / Sainte-Catherine);De Lorimier / Crémazie
452615672;"{\"type\":\"LineString\",\"coordinates\":[[-73.5701664,45.5340824],[-73.5692559,45.5336592]]}";3;Avenue De Lorimier;4;50;false;false;true;false;false;false;86.0;0;0;0;0;0;false;52561;5043801841;-73.567155;45.532768;52456;5768894125;-73.569991;45.534082;2;7;8;5909193;Bus 10 : De Lorimier Nord;"";STM;10-N;Station Papineau (Dorion / Sainte-Catherine);De Lorimier / Crémazie
341093397;"{\"type\":\"LineString\",\"coordinates\":[[-73.5774403,45.5375101],[-73.5773164,45.5374519]]}";1;Avenue De Lorimier;4;50;false;false;true;false;false;false;12.0;2;0;0;0;0;false;52220;5768894122;-73.577082;45.537405;52181;5768894121;-73.57824;45.537949;2;11;12;5909193;Bus 10 : De Lorimier Nord;"";STM;10-N;Station Papineau (Dorion / Sainte-Catherine);De Lorimier / Crémazie
454228587;"{\"type\":\"LineString\",\"coordinates\":[[-73.5780421,45.5377933],[-73.5774403,45.5375101]]}";2;Avenue De Lorimier;4;50;false;false;true;false;false;false;57.0;1;0;0;0;0;false;52220;5768894122;-73.577082;45.537405;52181;5768894121;-73.57824;45.537949;0;11;12;5909193;Bus 10 : De Lorimier Nord;"";STM;10-N;Station Papineau (Dorion / Sainte-Catherine);De Lorimier / Crémazie
463631214;"{\"type\":\"LineString\",\"coordinates\":[[-73.5784529,45.5379866],[-73.5780421,45.5377933]]}";3;Avenue De Lorimier;4;50;false;false;true;false;false;false;39.0;1;0;0;0;0;false;52220;5768894122;-73.577082;45.537405;52181;5768894121;-73.57824;45.537949;2;11;12;5909193;Bus 10 : De Lorimier Nord;"";STM;10-N;Station Papineau (Dorion / Sainte-Catherine);De Lorimier / Crémazie
470242939;"{\"type\":\"LineString\",\"coordinates\":[[-73.5788606,45.5381771],[-73.5784529,45.5379866]]}";1;Avenue De Lorimier;4;50;false;false;true;false;false;false;39.0;1;0;0;0;0;false;52181;5768894121;-73.57824;45.537949;52087;5768894120;-73.581239;45.539345;2;12;13;5909193;Bus 10 : De Lorimier Nord;"";STM;10-N;Station Papineau (Dorion / Sainte-Catherine);De Lorimier / Crémazie
90829301;"{\"type\":\"LineString\",\"coordinates\":[[-73.5817489,45.5395123],[-73.5813316,45.5393318],[-73.5788606,45.5381771]]}";2;Avenue De Lorimier;4;50;false;false;true;false;false;false;270.0;0;0;0;0;0;false;52181;5768894121;-73.57824;45.537949;52087;5768894120;-73.581239;45.539345;2;12;13;5909193;Bus 10 : De Lorimier Nord;"";STM;10-N;Station Papineau (Dorion / Sainte-Catherine);De Lorimier / Crémazie
90829301;"{\"type\":\"LineString\",\"coordinates\":[[-73.5817489,45.5395123],[-73.5813316,45.5393318],[-73.5788606,45.5381771]]}";1;Avenue De Lorimier;4;50;false;false;true;false;false;false;135.0;0;0;0;0;0;false;52087;5768894120;-73.581239;45.539345;51953;1302773424;-73.586294;45.541719;1;13;14;5909193;Bus 10 : De Lorimier Nord;"";STM;10-N;Station Papineau (Dorion / Sainte-Catherine);De Lorimier / Crémazie
463631215;"{\"type\":\"LineString\",\"coordinates\":[[-73.5817489,45.5395123],[-73.5819154,45.5396351],[-73.5821454,45.5397486],[-73.5832651,45.5402676]]}";2;Avenue De Lorimier;4;50;false;true;true;false;false;false;146.0;0;0;0;0;0;false;52087;5768894120;-73.581239;45.539345;51953;1302773424;-73.586294;45.541719;0;13;14;5909193;Bus 10 : De Lorimier Nord;"";STM;10-N;Station Papineau (Dorion / Sainte-Catherine);De Lorimier / Crémazie
90829340;"{\"type\":\"LineString\",\"coordinates\":[[-73.5832651,45.5402676],[-73.5835706,45.5403919]]}";3;Avenue De Lorimier;1;30;false;true;true;false;false;false;28.0;0;0;0;0;0;false;52087;5768894120;-73.581239;45.539345;51953;1302773424;-73.586294;45.541719;0;13;14;5909193;Bus 10 : De Lorimier Nord;"";STM;10-N;Station Papineau (Dorion / Sainte-Catherine);De Lorimier / Crémazie
341093399;"{\"type\":\"LineString\",\"coordinates\":[[-73.5835706,45.5403919],[-73.5838071,45.5405031],[-73.5843202,45.5407404],[-73.5851906,45.5411449]]}";4;Avenue De Lorimier;2;50;false;true;true;false;false;false;152.0;0;0;0;0;0;false;52087;5768894120;-73.581239;45.539345;51953;1302773424;-73.586294;45.541719;0;13;14;5909193;Bus 10 : De Lorimier Nord;"";STM;10-N;Station Papineau (Dorion / Sainte-Catherine);De Lorimier / Crémazie
341093400;"{\"type\":\"LineString\",\"coordinates\":[[-73.5851906,45.5411449],[-73.5864458,45.5417401]]}";5;Avenue De Lorimier;2;50;false;true;true;false;false;false;59.5;0;0;0;0;0;false;52087;5768894120;-73.581239;45.539345;51953;1302773424;-73.586294;45.541719;1;13;14;5909193;Bus 10 : De Lorimier Nord;"";STM;10-N;Station Papineau (Dorion / Sainte-Catherine);De Lorimier / Crémazie
460023289;"{\"type\":\"LineString\",\"coordinates\":[[-73.5864458,45.5417401],[-73.5871198,45.5420266],[-73.5873317,45.5421227]]}";1;Avenue De Lorimier;2;50;false;true;true;false;false;false;82.0;0;0;0;0;0;false;51953;1302773424;-73.586294;45.541719;51858;5768894119;-73.589061;45.543025;2;14;15;5909193;Bus 10 : De Lorimier Nord;"";STM;10-N;Station Papineau (Dorion / Sainte-Catherine);De Lorimier / Crémazie
341093401;"{\"type\":\"LineString\",\"coordinates\":[[-73.5880847,45.5424804],[-73.5873317,45.5421227]]}";2;Avenue De Lorimier;2;50;false;false;true;false;false;false;71.0;0;0;0;0;0;false;51953;1302773424;-73.586294;45.541719;51858;5768894119;-73.589061;45.543025;0;14;15;5909193;Bus 10 : De Lorimier Nord;"";STM;10-N;Station Papineau (Dorion / Sainte-Catherine);De Lorimier / Crémazie
452031255;"{\"type\":\"LineString\",\"coordinates\":[[-73.5884793,45.5426756],[-73.5880847,45.5424804]]}";3;Avenue De Lorimier;2;50;false;false;true;false;false;false;38.0;0;0;0;0;0;false;51953;1302773424;-73.586294;45.541719;51858;5768894119;-73.589061;45.543025;0;14;15;5909193;Bus 10 : De Lorimier Nord;"";STM;10-N;Station Papineau (Dorion / Sainte-Catherine);De Lorimier / Crémazie
341093402;"{\"type\":\"LineString\",\"coordinates\":[[-73.5892562,45.5430598],[-73.5884793,45.5426756]]}";4;Avenue De Lorimier;2;50;false;false;true;false;false;false;75.0;0;0;0;0;0;false;51953;1302773424;-73.586294;45.541719;51858;5768894119;-73.589061;45.543025;2;14;15;5909193;Bus 10 : De Lorimier Nord;"";STM;10-N;Station Papineau (Dorion / Sainte-Catherine);De Lorimier / Crémazie
474622419;"{\"type\":\"LineString\",\"coordinates\":[[-73.600295,45.5482],[-73.5979852,45.5471381]]}";1;Avenue De Lorimier;2;50;false;false;true;false;false;false;216.0;0;0;0;0;0;false;51651;5768894116;-73.597801;45.547104;51579;5768894115;-73.601236;45.548676;2;18;19;5909193;Bus 10 : De Lorimier Nord;"";STM;10-N;Station Papineau (Dorion / Sainte-Catherine);De Lorimier / Crémazie
475284565;"{\"type\":\"LineString\",\"coordinates\":[[-73.6010953,45.5485541],[-73.600295,45.5482]]}";2;Avenue De Lorimier;2;50;false;false;true;false;false;false;74.0;0;0;0;0;0;false;51651;5768894116;-73.597801;45.547104;51579;5768894115;-73.601236;45.548676;0;18;19;5909193;Bus 10 : De Lorimier Nord;"";STM;10-N;Station Papineau (Dorion / Sainte-Catherine);De Lorimier / Crémazie
341094442;"{\"type\":\"LineString\",\"coordinates\":[[-73.6014402,45.5487026],[-73.6010953,45.5485541]]}";3;Avenue De Lorimier;2;50;false;false;true;false;false;false;32.0;1;0;0;0;0;false;51651;5768894116;-73.597801;45.547104;51579;5768894115;-73.601236;45.548676;2;18;19;5909193;Bus 10 : De Lorimier Nord;"";STM;10-N;Station Papineau (Dorion / Sainte-Catherine);De Lorimier / Crémazie
464121419;"{\"type\":\"LineString\",\"coordinates\":[[-73.60736,45.5513399],[-73.6069655,45.5511637],[-73.6054237,45.550475],[-73.6049816,45.5502775]]}";1;Avenue De Lorimier;2;50;false;false;true;false;false;false;220.0;0;0;0;0;0;false;51497;5768894114;-73.604783;45.550247;54320;5768894113;-73.608272;45.551796;2;20;21;5909193;Bus 10 : De Lorimier Nord;"";STM;10-N;Station Papineau (Dorion / Sainte-Catherine);De Lorimier / Crémazie
341094446;"{\"type\":\"LineString\",\"coordinates\":[[-73.6119698,45.5533655],[-73.6115504,45.5531826],[-73.611271,45.5530608],[-73.6100942,45.5525411],[-73.6096711,45.5523542],[-73.609233,45.5521581],[-73.6084666,45.551815],[-73.6077871,45.5515233],[-73.60736,45.5513399]]}";2;Avenue De Lorimier;2;50;false;false;true;false;false;false;425.0;0;0;0;0;0;false;51497;5768894114;-73.604783;45.550247;54320;5768894113;-73.608272;45.551796;2;20;21;5909193;Bus 10 : De Lorimier Nord;"";STM;10-N;Station Papineau (Dorion / Sainte-Catherine);De Lorimier / Crémazie
341094449;"{\"type\":\"LineString\",\"coordinates\":[[-73.6169329,45.5555558],[-73.6147055,45.5545557],[-73.6141214,45.5543026],[-73.6138546,45.5541864],[-73.6123984,45.5535522],[-73.6119698,45.5533655]]}";1;Avenue De Lorimier;2;50;false;false;true;false;false;false;229.0;0;0;0;0;0;false;51260;5768894111;-73.616663;45.555518;51233;5768894110;-73.617448;45.555869;1;24;25;5909193;Bus 10 : De Lorimier Nord;"";STM;10-N;Station Papineau (Dorion / Sainte-Catherine);De Lorimier / Crémazie
452456157;"{\"type\":\"LineString\",\"coordinates\":[[-73.6169329,45.5555558],[-73.6171459,45.5557106],[-73.6173216,45.5557787]]}";2;Avenue De Lorimier;2;50;false;true;true;false;false;false;40.0;0;0;0;0;0;false;51260;5768894111;-73.616663;45.555518;51233;5768894110;-73.617448;45.555869;0;24;25;5909193;Bus 10 : De Lorimier Nord;"";STM;10-N;Station Papineau (Dorion / Sainte-Catherine);De Lorimier / Crémazie
609009568;"{\"type\":\"LineString\",\"coordinates\":[[-73.6173216,45.5557787],[-73.6174741,45.5558378]]}";3;Avenue De Lorimier;2;50;false;true;true;false;false;false;14.0;0;0;0;0;0;false;51260;5768894111;-73.616663;45.555518;51233;5768894110;-73.617448;45.555869;1;24;25;5909193;Bus 10 : De Lorimier Nord;"";STM;10-N;Station Papineau (Dorion / Sainte-Catherine);De Lorimier / Crémazie
