way_id;shape;index;name;nb_lanes;legal_speed;speed_zone_30;oneway;shares_bike;bike_box;bus_lane;dedicated_bus_lane;length;nb_traffic_signals;nb_crossings;nb_stops;nb_give_ways;nb_lvl_crossings;roundabout;stop_id_orig;node_id_orig;coord_x_orig;coord_y_orig;stop_id_dest;node_id_dest;coord_x_dest;coord_y_dest;nb_neighbouring_ways_bus_stop;ordre_orig;ordre_dest;id_line;line_name;colour;operator;ref;from;to
798994211;"{\"type\":\"LineString\",\"coordinates\":[[-73.5474325,45.3845584],[-73.5475239,45.3845788],[-73.5475804,45.3845909],[-73.5476084,45.3845958],[-73.5476404,45.3845958],[-73.5476745,45.3845888],[-73.5477025,45.3845733],[-73.5477205,45.3845536],[-73.5478647,45.3842618],[-73.5478777,45.3842309],[-73.5478807,45.384214],[-73.5478777,45.3841957],[-73.5478607,45.3841732],[-73.5478316,45.3841557],[-73.5477946,45.3841409],[-73.5477804,45.3841368],[-73.5477512,45.3841289],[-73.5477025,45.384117],[-73.5476571,45.3841066]]}";1;"";1;50;false;true;true;false;false;false;88.0;0;2;1;0;0;false;76080;6133354127;-73.5478906;45.3844531;76253;6133353892;-73.538899;45.390686;1;0;1;9518078;Bus 130 : Direction Montréal;"";EXO;130 N;Stationnement Incitatif Georges-Gagné;Terminus Centre-Ville
798994210;"{\"type\":\"LineString\",\"coordinates\":[[-73.5474325,45.3845584],[-73.5474046,45.3846145]]}";2;Boulevard Georges-Gagné Sud;4;50;false;false;true;false;false;false;7.0;0;0;0;0;0;false;76080;6133354127;-73.5478906;45.3844531;76253;6133353892;-73.538899;45.390686;0;0;1;9518078;Bus 130 : Direction Montréal;"";EXO;130 N;Stationnement Incitatif Georges-Gagné;Terminus Centre-Ville
801354426;"{\"type\":\"LineString\",\"coordinates\":[[-73.5474046,45.3846145],[-73.5473662,45.3846918],[-73.5472818,45.3848615]]}";3;Boulevard Georges-Gagné Sud;4;50;false;false;true;false;false;false;30.0;0;0;0;0;0;false;76080;6133354127;-73.5478906;45.3844531;76253;6133353892;-73.538899;45.390686;0;0;1;9518078;Bus 130 : Direction Montréal;"";EXO;130 N;Stationnement Incitatif Georges-Gagné;Terminus Centre-Ville
462488434;"{\"type\":\"LineString\",\"coordinates\":[[-73.5472818,45.3848615],[-73.5471268,45.3851711],[-73.5470552,45.3853171]]}";4;Boulevard Georges-Gagné Sud;3;50;false;false;true;false;false;false;54.0;1;0;0;0;0;false;76080;6133354127;-73.5478906;45.3844531;76253;6133353892;-73.538899;45.390686;0;0;1;9518078;Bus 130 : Direction Montréal;"";EXO;130 N;Stationnement Incitatif Georges-Gagné;Terminus Centre-Ville
462488431;"{\"type\":\"LineString\",\"coordinates\":[[-73.5470552,45.3853171],[-73.5462396,45.3851137],[-73.5456486,45.3850133]]}";5;Route 132;2;70;false;true;true;false;false;false;116.0;0;0;0;0;0;false;76080;6133354127;-73.5478906;45.3844531;76253;6133353892;-73.538899;45.390686;0;0;1;9518078;Bus 130 : Direction Montréal;"";EXO;130 N;Stationnement Incitatif Georges-Gagné;Terminus Centre-Ville
349640918;"{\"type\":\"LineString\",\"coordinates\":[[-73.5456486,45.3850133],[-73.5450047,45.3848553],[-73.5448668,45.3848215]]}";6;Route 132;4;70;false;false;true;false;false;false;65.0;0;0;0;0;0;false;76080;6133354127;-73.5478906;45.3844531;76253;6133353892;-73.538899;45.390686;0;0;1;9518078;Bus 130 : Direction Montréal;"";EXO;130 N;Stationnement Incitatif Georges-Gagné;Terminus Centre-Ville
799183070;"{\"type\":\"LineString\",\"coordinates\":[[-73.5448668,45.3848215],[-73.5446858,45.3847766],[-73.5446419,45.3847657],[-73.544461,45.3847185],[-73.5443237,45.3846804],[-73.5441758,45.3846356],[-73.5440855,45.3846063],[-73.544031,45.3845887],[-73.5438778,45.3845336],[-73.5437256,45.3844733],[-73.5435888,45.3844146],[-73.543526,45.3843877],[-73.5434849,45.3843695],[-73.5433998,45.3843317],[-73.5431385,45.3842156],[-73.5429907,45.38415],[-73.5428768,45.384101],[-73.5428266,45.3840799],[-73.5427867,45.3840632],[-73.5427321,45.3840431],[-73.5426938,45.384029],[-73.5426232,45.3840031]]}";7;Route 132;5;70;false;false;true;false;false;false;199.0;0;0;0;0;0;false;76080;6133354127;-73.5478906;45.3844531;76253;6133353892;-73.538899;45.390686;0;0;1;9518078;Bus 130 : Direction Montréal;"";EXO;130 N;Stationnement Incitatif Georges-Gagné;Terminus Centre-Ville
684451740;"{\"type\":\"LineString\",\"coordinates\":[[-73.5426232,45.3840031],[-73.5425499,45.3839338],[-73.5424713,45.3838579]]}";8;Route 132;3;70;false;true;true;false;false;false;21.0;0;0;0;0;0;false;76080;6133354127;-73.5478906;45.3844531;76253;6133353892;-73.538899;45.390686;0;0;1;9518078;Bus 130 : Direction Montréal;"";EXO;130 N;Stationnement Incitatif Georges-Gagné;Terminus Centre-Ville
462487370;"{\"type\":\"LineString\",\"coordinates\":[[-73.5424713,45.3838579],[-73.5422154,45.3837854],[-73.542026,45.3837319],[-73.5418468,45.3836874],[-73.541751,45.3836641],[-73.5417257,45.3836562],[-73.5415504,45.3836082]]}";9;Route 132;5;70;false;true;true;false;false;false;78.0;1;1;0;0;0;false;76080;6133354127;-73.5478906;45.3844531;76253;6133353892;-73.538899;45.390686;0;0;1;9518078;Bus 130 : Direction Montréal;"";EXO;130 N;Stationnement Incitatif Georges-Gagné;Terminus Centre-Ville
800562615;"{\"type\":\"LineString\",\"coordinates\":[[-73.5415504,45.3836082],[-73.541426,45.3835775]]}";10;Route 132;3;70;false;true;true;false;false;false;11.0;0;0;0;0;0;false;76080;6133354127;-73.5478906;45.3844531;76253;6133353892;-73.538899;45.390686;0;0;1;9518078;Bus 130 : Direction Montréal;"";EXO;130 N;Stationnement Incitatif Georges-Gagné;Terminus Centre-Ville
24602446;"{\"type\":\"LineString\",\"coordinates\":[[-73.541426,45.3835775],[-73.5414041,45.3837355]]}";11;Rue Principale;2;50;false;true;true;false;false;false;18.0;0;0;0;0;0;false;76080;6133354127;-73.5478906;45.3844531;76253;6133353892;-73.538899;45.390686;0;0;1;9518078;Bus 130 : Direction Montréal;"";EXO;130 N;Stationnement Incitatif Georges-Gagné;Terminus Centre-Ville
774679382;"{\"type\":\"LineString\",\"coordinates\":[[-73.5414041,45.3837355],[-73.541385,45.3838596],[-73.5413805,45.3840843],[-73.5413778,45.3841984],[-73.5413831,45.384408]]}";12;Rue Principale Nord;1;50;false;true;true;false;false;false;75.0;0;0;0;0;0;false;76080;6133354127;-73.5478906;45.3844531;76253;6133353892;-73.538899;45.390686;0;0;1;9518078;Bus 130 : Direction Montréal;"";EXO;130 N;Stationnement Incitatif Georges-Gagné;Terminus Centre-Ville
786214936;"{\"type\":\"LineString\",\"coordinates\":[[-73.5412337,45.3852554],[-73.5413157,45.3849128],[-73.5413462,45.3847752],[-73.5413527,45.3847148],[-73.5413547,45.3846964],[-73.5413636,45.3845867],[-73.5413657,45.3845676],[-73.5413831,45.384408]]}";13;Rue Principale Nord;2;50;false;false;false;false;false;false;95.0;0;0;0;0;0;false;76080;6133354127;-73.5478906;45.3844531;76253;6133353892;-73.538899;45.390686;0;0;1;9518078;Bus 130 : Direction Montréal;"";EXO;130 N;Stationnement Incitatif Georges-Gagné;Terminus Centre-Ville
685884548;"{\"type\":\"LineString\",\"coordinates\":[[-73.541196,45.3854177],[-73.5412025,45.3853897],[-73.5412337,45.3852554]]}";14;Rue Principale Nord;2;50;false;false;true;false;false;false;19.0;0;0;0;0;0;false;76080;6133354127;-73.5478906;45.3844531;76253;6133353892;-73.538899;45.390686;0;0;1;9518078;Bus 130 : Direction Montréal;"";EXO;130 N;Stationnement Incitatif Georges-Gagné;Terminus Centre-Ville
786214937;"{\"type\":\"LineString\",\"coordinates\":[[-73.5411372,45.385638],[-73.5411577,45.3855615],[-73.5411812,45.3854741],[-73.541196,45.3854177]]}";15;Rue Principale Nord;2;50;false;false;true;false;false;false;25.0;0;0;0;0;0;false;76080;6133354127;-73.5478906;45.3844531;76253;6133353892;-73.538899;45.390686;0;0;1;9518078;Bus 130 : Direction Montréal;"";EXO;130 N;Stationnement Incitatif Georges-Gagné;Terminus Centre-Ville
798429071;"{\"type\":\"LineString\",\"coordinates\":[[-73.5405496,45.3872318],[-73.5405772,45.3871666],[-73.5407852,45.3866293],[-73.5409038,45.3863126],[-73.5410087,45.3860225],[-73.5410177,45.3859963],[-73.5410534,45.3858921],[-73.5410697,45.3858417],[-73.5410926,45.3857708],[-73.5411372,45.385638]]}";16;Rue Principale Nord;2;50;false;false;false;false;false;false;183.0;0;0;0;0;0;false;76080;6133354127;-73.5478906;45.3844531;76253;6133353892;-73.538899;45.390686;0;0;1;9518078;Bus 130 : Direction Montréal;"";EXO;130 N;Stationnement Incitatif Georges-Gagné;Terminus Centre-Ville
685884551;"{\"type\":\"LineString\",\"coordinates\":[[-73.5389993,45.3908359],[-73.5390227,45.3906201],[-73.5390328,45.3905356],[-73.539046,45.3904669],[-73.5390571,45.3904149],[-73.5390667,45.3903753],[-73.5390865,45.3903026],[-73.53911,45.3902134],[-73.5391268,45.3901583],[-73.5391442,45.3900974],[-73.5391528,45.3900681],[-73.5391645,45.3900282],[-73.53919,45.3899384],[-73.5392322,45.3898173],[-73.5392975,45.3896439],[-73.5393565,45.3895105],[-73.539405,45.3894093],[-73.5394821,45.3892628],[-73.5395887,45.3890601],[-73.539787,45.3886883],[-73.5399671,45.38835],[-73.5400283,45.3882351],[-73.5400929,45.3881139],[-73.5401364,45.3880323],[-73.5403805,45.3875743],[-73.5404878,45.3873629],[-73.5405496,45.3872318]]}";17;Rue Principale Nord;2;50;false;false;false;false;false;false;210.0;0;0;0;0;0;false;76080;6133354127;-73.5478906;45.3844531;76253;6133353892;-73.538899;45.390686;1;0;1;9518078;Bus 130 : Direction Montréal;"";EXO;130 N;Stationnement Incitatif Georges-Gagné;Terminus Centre-Ville
17059171;"{\"type\":\"LineString\",\"coordinates\":[[-73.5378171,45.400679],[-73.5378063,45.4006456],[-73.5377981,45.4006059],[-73.5377963,45.4005908],[-73.5377967,45.4004963],[-73.5377961,45.400402],[-73.5377949,45.4002014],[-73.5377939,45.4000452],[-73.5377959,45.3995468],[-73.5377946,45.3994455],[-73.537795,45.3991828],[-73.5378017,45.3987695],[-73.5378187,45.3983629],[-73.5378234,45.3981494],[-73.5378273,45.3980588],[-73.5378334,45.3979627],[-73.5378438,45.3978487],[-73.5378589,45.3977317],[-73.5378642,45.3976976],[-73.5378767,45.3976165],[-73.5378912,45.3975398],[-73.5379022,45.3974818],[-73.537927,45.3973747],[-73.5379518,45.397289],[-73.5379635,45.3972538],[-73.5379704,45.3972331],[-73.5380502,45.3969918],[-73.5380783,45.3969068],[-73.5381264,45.3967673],[-73.5381558,45.3966821],[-73.5381868,45.3965923],[-73.5382303,45.3964721],[-73.5383042,45.3962676],[-73.5383373,45.3961762],[-73.5384505,45.3958754],[-73.5384729,45.3958158],[-73.5385908,45.3955025],[-73.5386682,45.3952967],[-73.5386754,45.3952776],[-73.5386914,45.3952308],[-73.5387523,45.3950523],[-73.5388013,45.3949095],[-73.538855,45.3947552],[-73.5388835,45.3946647],[-73.5389059,45.3945933],[-73.5389522,45.3944306],[-73.5389903,45.3943025],[-73.5390228,45.3941581],[-73.5390483,45.394028],[-73.5390667,45.3938995],[-73.5390822,45.393768],[-73.5390941,45.3935311],[-73.5390946,45.3933751],[-73.5390882,45.3931468],[-73.5390793,45.3929656],[-73.5390751,45.392855],[-73.5390739,45.3928366],[-73.5390726,45.392818],[-73.5390679,45.3927478],[-73.5390634,45.3926705],[-73.5390624,45.3926544],[-73.539038,45.3922718],[-73.5390108,45.3918453],[-73.5390101,45.3918284],[-73.5390062,45.3917407],[-73.5390027,45.3916599],[-73.5390018,45.3916388],[-73.5389843,45.3913405],[-73.5389797,45.3912429],[-73.5389784,45.3911692],[-73.5389793,45.3910896],[-73.5389818,45.3910129],[-73.5389856,45.3909674],[-73.5389993,45.3908359]]}";1;Rue Principale Nord;2;50;false;false;false;false;false;false;552.5;0;3;5;0;0;false;76257;6133353891;-73.537693;45.400473;76118;6133354101;-73.526219;45.398579;1;5;6;9518078;Bus 130 : Direction Montréal;"";EXO;130 N;Stationnement Incitatif Georges-Gagné;Terminus Centre-Ville
684608132;"{\"type\":\"LineString\",\"coordinates\":[[-73.5378171,45.400679],[-73.5376897,45.4006906],[-73.5373396,45.4007348],[-73.5371702,45.4007562]]}";2;Boulevard Marie-Victorin;3;50;false;false;true;false;false;false;52.0;0;0;0;0;0;false;76257;6133353891;-73.537693;45.400473;76118;6133354101;-73.526219;45.398579;0;5;6;9518078;Bus 130 : Direction Montréal;"";EXO;130 N;Stationnement Incitatif Georges-Gagné;Terminus Centre-Ville
773623710;"{\"type\":\"LineString\",\"coordinates\":[[-73.5371702,45.4007562],[-73.5369894,45.4007789],[-73.5367569,45.4008112],[-73.5363953,45.4008615]]}";3;Boulevard Marie-Victorin;2;50;false;false;false;false;false;false;62.0;0;0;0;0;0;false;76257;6133353891;-73.537693;45.400473;76118;6133354101;-73.526219;45.398579;0;5;6;9518078;Bus 130 : Direction Montréal;"";EXO;130 N;Stationnement Incitatif Georges-Gagné;Terminus Centre-Ville
17064290;"{\"type\":\"LineString\",\"coordinates\":[[-73.5363953,45.4008615],[-73.5356886,45.4009622]]}";4;Boulevard Marie-Victorin;2;50;false;false;false;false;false;false;57.0;0;0;0;0;0;false;76257;6133353891;-73.537693;45.400473;76118;6133354101;-73.526219;45.398579;0;5;6;9518078;Bus 130 : Direction Montréal;"";EXO;130 N;Stationnement Incitatif Georges-Gagné;Terminus Centre-Ville
483169035;"{\"type\":\"LineString\",\"coordinates\":[[-73.5350575,45.4010472],[-73.5351335,45.4010407],[-73.5352299,45.4010303],[-73.5353539,45.4010129],[-73.5354861,45.4009932],[-73.5356886,45.4009622]]}";5;Boulevard Marie-Victorin;2;50;false;false;false;false;false;false;51.0;0;0;0;0;0;false;76257;6133353891;-73.537693;45.400473;76118;6133354101;-73.526219;45.398579;0;5;6;9518078;Bus 130 : Direction Montréal;"";EXO;130 N;Stationnement Incitatif Georges-Gagné;Terminus Centre-Ville
483169034;"{\"type\":\"LineString\",\"coordinates\":[[-73.5348232,45.4010618],[-73.534941,45.4010551],[-73.5350202,45.4010497],[-73.5350575,45.4010472]]}";6;Boulevard Marie-Victorin;2;50;false;false;false;false;false;false;19.0;0;0;0;0;0;false;76257;6133353891;-73.537693;45.400473;76118;6133354101;-73.526219;45.398579;0;5;6;9518078;Bus 130 : Direction Montréal;"";EXO;130 N;Stationnement Incitatif Georges-Gagné;Terminus Centre-Ville
786236789;"{\"type\":\"LineString\",\"coordinates\":[[-73.5315129,45.4001997],[-73.5316843,45.400286],[-73.531919,45.400404],[-73.5320519,45.4004709],[-73.5320755,45.4004822],[-73.5321971,45.4005403],[-73.532346,45.4006114],[-73.5324892,45.4006732],[-73.5326237,45.4007264],[-73.5327579,45.4007755],[-73.5328792,45.4008148],[-73.5330133,45.4008559],[-73.5330338,45.4008615],[-73.5331419,45.4008911],[-73.5332822,45.4009256],[-73.5334019,45.4009541],[-73.5334341,45.4009617],[-73.5335962,45.4009917],[-73.5337822,45.4010212],[-73.53393,45.4010396],[-73.5340115,45.4010472],[-73.5340829,45.4010539],[-73.5342575,45.4010647],[-73.5343116,45.4010658],[-73.5344331,45.4010683],[-73.5345559,45.4010687],[-73.5346063,45.4010689],[-73.534626,45.4010685],[-73.5347089,45.4010667],[-73.5348232,45.4010618]]}";7;Boulevard Marie-Victorin;2;50;false;false;false;false;false;false;284.0;0;0;0;0;0;false;76257;6133353891;-73.537693;45.400473;76118;6133354101;-73.526219;45.398579;0;5;6;9518078;Bus 130 : Direction Montréal;"";EXO;130 N;Stationnement Incitatif Georges-Gagné;Terminus Centre-Ville
786236791;"{\"type\":\"LineString\",\"coordinates\":[[-73.5311672,45.4000263],[-73.5312528,45.4000708],[-73.5315129,45.4001997]]}";8;Boulevard Marie-Victorin;2;30;false;false;true;false;false;false;34.0;0;0;1;0;0;false;76257;6133353891;-73.537693;45.400473;76118;6133354101;-73.526219;45.398579;0;5;6;9518078;Bus 130 : Direction Montréal;"";EXO;130 N;Stationnement Incitatif Georges-Gagné;Terminus Centre-Ville
786236788;"{\"type\":\"LineString\",\"coordinates\":[[-73.5282736,45.3986134],[-73.5290892,45.3990311],[-73.5295972,45.3992861],[-73.5297433,45.3993614],[-73.5299104,45.3994455],[-73.5300918,45.39953],[-73.530399,45.3996708],[-73.5310843,45.3999851],[-73.5311097,45.3999978],[-73.5311672,45.4000263]]}";9;Boulevard Marie-Victorin;2;30;false;false;true;false;false;false;276.0;0;1;1;0;0;false;76257;6133353891;-73.537693;45.400473;76118;6133354101;-73.526219;45.398579;0;5;6;9518078;Bus 130 : Direction Montréal;"";EXO;130 N;Stationnement Incitatif Georges-Gagné;Terminus Centre-Ville
786236787;"{\"type\":\"LineString\",\"coordinates\":[[-73.527741,45.3983459],[-73.5282736,45.3986134]]}";10;Boulevard Marie-Victorin;2;30;false;false;true;false;false;false;52.0;0;0;0;0;0;false;76257;6133353891;-73.537693;45.400473;76118;6133354101;-73.526219;45.398579;0;5;6;9518078;Bus 130 : Direction Montréal;"";EXO;130 N;Stationnement Incitatif Georges-Gagné;Terminus Centre-Ville
786232035;"{\"type\":\"LineString\",\"coordinates\":[[-73.5272515,45.3980886],[-73.5273776,45.3981624],[-73.5274241,45.3981888],[-73.527741,45.3983459]]}";11;Boulevard Marie-Victorin;3;30;false;false;true;false;false;false;48.0;1;1;0;0;0;false;76257;6133353891;-73.537693;45.400473;76118;6133354101;-73.526219;45.398579;0;5;6;9518078;Bus 130 : Direction Montréal;"";EXO;130 N;Stationnement Incitatif Georges-Gagné;Terminus Centre-Ville
797707719;"{\"type\":\"LineString\",\"coordinates\":[[-73.5250824,45.3993268],[-73.5257006,45.3989787],[-73.5260993,45.3987542],[-73.5262037,45.3986955],[-73.5263422,45.3986148],[-73.5265623,45.3984866],[-73.5266896,45.3984124],[-73.5271132,45.3981656],[-73.5271388,45.3981511],[-73.5272515,45.3980886]]}";12;Boulevard Marie-Victorin;4;50;false;false;true;false;false;false;109.5;1;1;0;0;0;false;76257;6133353891;-73.537693;45.400473;76118;6133354101;-73.526219;45.398579;1;5;6;9518078;Bus 130 : Direction Montréal;"";EXO;130 N;Stationnement Incitatif Georges-Gagné;Terminus Centre-Ville
797707719;"{\"type\":\"LineString\",\"coordinates\":[[-73.5250824,45.3993268],[-73.5257006,45.3989787],[-73.5260993,45.3987542],[-73.5262037,45.3986955],[-73.5263422,45.3986148],[-73.5265623,45.3984866],[-73.5266896,45.3984124],[-73.5271132,45.3981656],[-73.5271388,45.3981511],[-73.5272515,45.3980886]]}";1;Boulevard Marie-Victorin;4;50;false;false;true;false;false;false;109.5;1;1;0;0;0;false;76118;6133354101;-73.526219;45.398579;76266;6133353888;-73.465655;45.455125;1;6;7;9518078;Bus 130 : Direction Montréal;"";EXO;130 N;Stationnement Incitatif Georges-Gagné;Terminus Centre-Ville
797707720;"{\"type\":\"LineString\",\"coordinates\":[[-73.5246407,45.3995749],[-73.5250824,45.3993268]]}";2;Boulevard Marie-Victorin;4;50;false;false;true;false;false;false;45.0;0;0;0;0;0;false;76118;6133354101;-73.526219;45.398579;76266;6133353888;-73.465655;45.455125;0;6;7;9518078;Bus 130 : Direction Montréal;"";EXO;130 N;Stationnement Incitatif Georges-Gagné;Terminus Centre-Ville
786231988;"{\"type\":\"LineString\",\"coordinates\":[[-73.5241612,45.3998442],[-73.5246407,45.3995749]]}";3;Boulevard Marie-Victorin;4;50;false;false;true;false;false;false;48.0;0;0;0;0;0;false;76118;6133354101;-73.526219;45.398579;76266;6133353888;-73.465655;45.455125;0;6;7;9518078;Bus 130 : Direction Montréal;"";EXO;130 N;Stationnement Incitatif Georges-Gagné;Terminus Centre-Ville
786243089;"{\"type\":\"LineString\",\"coordinates\":[[-73.5234972,45.4002171],[-73.5235304,45.4001984],[-73.5241612,45.3998442]]}";4;Boulevard Marie-Victorin;4;50;false;false;true;false;false;false;67.0;1;1;0;0;0;false;76118;6133354101;-73.526219;45.398579;76266;6133353888;-73.465655;45.455125;0;6;7;9518078;Bus 130 : Direction Montréal;"";EXO;130 N;Stationnement Incitatif Georges-Gagné;Terminus Centre-Ville
685306394;"{\"type\":\"LineString\",\"coordinates\":[[-73.5234088,45.4002671],[-73.5234972,45.4002171]]}";5;Boulevard Marie-Victorin;4;50;false;false;true;false;false;false;9.0;0;1;0;0;0;false;76118;6133354101;-73.526219;45.398579;76266;6133353888;-73.465655;45.455125;0;6;7;9518078;Bus 130 : Direction Montréal;"";EXO;130 N;Stationnement Incitatif Georges-Gagné;Terminus Centre-Ville
786218503;"{\"type\":\"LineString\",\"coordinates\":[[-73.5230088,45.4005019],[-73.523305,45.4003275],[-73.5234088,45.4002671]]}";6;Boulevard Marie-Victorin;3;50;false;false;true;false;false;false;41.0;1;0;0;0;0;false;76118;6133354101;-73.526219;45.398579;76266;6133353888;-73.465655;45.455125;0;6;7;9518078;Bus 130 : Direction Montréal;"";EXO;130 N;Stationnement Incitatif Georges-Gagné;Terminus Centre-Ville
786218483;"{\"type\":\"LineString\",\"coordinates\":[[-73.5219098,45.4011402],[-73.5222493,45.400943],[-73.5223009,45.400913],[-73.5225047,45.4007947],[-73.5226491,45.4007108],[-73.5227246,45.400667],[-73.5229177,45.4005548],[-73.5230088,45.4005019]]}";7;Boulevard Marie-Victorin;2;50;false;false;true;false;false;false;112.0;0;2;0;0;0;false;76118;6133354101;-73.526219;45.398579;76266;6133353888;-73.465655;45.455125;0;6;7;9518078;Bus 130 : Direction Montréal;"";EXO;130 N;Stationnement Incitatif Georges-Gagné;Terminus Centre-Ville
786218475;"{\"type\":\"LineString\",\"coordinates\":[[-73.5219098,45.4011402],[-73.5217077,45.4012303],[-73.5216435,45.4012642],[-73.521488,45.4013461],[-73.5212708,45.4014726],[-73.5211095,45.4015757],[-73.5210374,45.4016209],[-73.5210217,45.4016376],[-73.5209612,45.4017025]]}";8;Boulevard Marie-Victorin;2;50;false;true;true;false;false;false;98.0;0;1;0;0;0;false;76118;6133354101;-73.526219;45.398579;76266;6133353888;-73.465655;45.455125;0;6;7;9518078;Bus 130 : Direction Montréal;"";EXO;130 N;Stationnement Incitatif Georges-Gagné;Terminus Centre-Ville
786210534;"{\"type\":\"LineString\",\"coordinates\":[[-73.5198191,45.402373],[-73.5198551,45.4023518],[-73.5200557,45.4022341],[-73.5202765,45.4021045],[-73.5203691,45.4020501],[-73.5209612,45.4017025]]}";9;Boulevard Marie-Victorin;2;50;false;false;true;false;false;false;117.0;0;2;0;0;0;false;76118;6133354101;-73.526219;45.398579;76266;6133353888;-73.465655;45.455125;0;6;7;9518078;Bus 130 : Direction Montréal;"";EXO;130 N;Stationnement Incitatif Georges-Gagné;Terminus Centre-Ville
786210535;"{\"type\":\"LineString\",\"coordinates\":[[-73.5198191,45.402373],[-73.519679,45.4024145],[-73.5194213,45.4025598],[-73.5191802,45.4027029],[-73.5190744,45.4027735],[-73.5190459,45.4027925],[-73.5189911,45.4028477]]}";10;Boulevard Marie-Victorin;2;50;false;true;true;false;false;false;85.0;0;0;0;0;0;false;76118;6133354101;-73.526219;45.398579;76266;6133353888;-73.465655;45.455125;0;6;7;9518078;Bus 130 : Direction Montréal;"";EXO;130 N;Stationnement Incitatif Georges-Gagné;Terminus Centre-Ville
786210511;"{\"type\":\"LineString\",\"coordinates\":[[-73.5158866,45.4044136],[-73.5164674,45.4041394],[-73.5166389,45.4040584],[-73.5167645,45.4039991],[-73.5168787,45.4039452],[-73.517009,45.4038833],[-73.5171119,45.4038344],[-73.5173099,45.4037417],[-73.5173578,45.4037193],[-73.5175048,45.4036495],[-73.5175656,45.4036206],[-73.5177457,45.4035327],[-73.5178616,45.4034761],[-73.5179864,45.4034101],[-73.5181805,45.4033075],[-73.518278,45.4032522],[-73.5182959,45.403242],[-73.5184717,45.4031423],[-73.5188502,45.4029276],[-73.5189911,45.4028477]]}";11;Boulevard Marie-Victorin;2;50;false;false;true;false;false;false;299.0;0;2;0;0;0;false;76118;6133354101;-73.526219;45.398579;76266;6133353888;-73.465655;45.455125;0;6;7;9518078;Bus 130 : Direction Montréal;"";EXO;130 N;Stationnement Incitatif Georges-Gagné;Terminus Centre-Ville
786210510;"{\"type\":\"LineString\",\"coordinates\":[[-73.5158866,45.4044136],[-73.5157508,45.4044582],[-73.5156663,45.404486],[-73.5153637,45.4046119],[-73.5152135,45.4046796],[-73.5150823,45.4047394],[-73.5149579,45.4048],[-73.5148357,45.4048614],[-73.514676,45.4049568]]}";12;Boulevard Marie-Victorin;1;50;false;true;true;false;false;false;113.0;0;0;0;0;0;false;76118;6133354101;-73.526219;45.398579;76266;6133353888;-73.465655;45.455125;0;6;7;9518078;Bus 130 : Direction Montréal;"";EXO;130 N;Stationnement Incitatif Georges-Gagné;Terminus Centre-Ville
10271279;"{\"type\":\"LineString\",\"coordinates\":[[-73.5136588,45.405435],[-73.5144104,45.4050757],[-73.5145425,45.4050149],[-73.5145882,45.404995],[-73.5146405,45.4049722],[-73.514676,45.4049568]]}";13;Boulevard Marie-Victorin;2;50;false;false;true;false;false;false;96.0;0;1;0;0;0;false;76118;6133354101;-73.526219;45.398579;76266;6133353888;-73.465655;45.455125;0;6;7;9518078;Bus 130 : Direction Montréal;"";EXO;130 N;Stationnement Incitatif Georges-Gagné;Terminus Centre-Ville
786210503;"{\"type\":\"LineString\",\"coordinates\":[[-73.5136588,45.405435],[-73.5134535,45.4055012],[-73.5131422,45.4056388],[-73.5130886,45.4056622]]}";14;Boulevard Marie-Victorin;1;50;false;true;true;false;false;false;52.0;0;1;0;0;0;false;76118;6133354101;-73.526219;45.398579;76266;6133353888;-73.465655;45.455125;0;6;7;9518078;Bus 130 : Direction Montréal;"";EXO;130 N;Stationnement Incitatif Georges-Gagné;Terminus Centre-Ville
786218530;"{\"type\":\"LineString\",\"coordinates\":[[-73.5130886,45.4056622],[-73.5129983,45.4057015],[-73.51291,45.4057399],[-73.5126309,45.4058642],[-73.5123857,45.4059844],[-73.5121953,45.4060998]]}";15;Route Marie-Victorin;1;50;false;true;true;false;false;false;86.0;0;1;0;0;0;false;76118;6133354101;-73.526219;45.398579;76266;6133353888;-73.465655;45.455125;0;6;7;9518078;Bus 130 : Direction Montréal;"";EXO;130 N;Stationnement Incitatif Georges-Gagné;Terminus Centre-Ville
786055718;"{\"type\":\"LineString\",\"coordinates\":[[-73.5103743,45.4069236],[-73.5104504,45.4068934],[-73.510492,45.4068769],[-73.5108917,45.4067114],[-73.5114918,45.4064479],[-73.5116664,45.4063678],[-73.5118176,45.406294],[-73.5121953,45.4060998]]}";16;Route Marie-Victorin;2;50;false;false;true;false;false;false;170.0;0;1;1;0;0;false;76118;6133354101;-73.526219;45.398579;76266;6133353888;-73.465655;45.455125;0;6;7;9518078;Bus 130 : Direction Montréal;"";EXO;130 N;Stationnement Incitatif Georges-Gagné;Terminus Centre-Ville
786055716;"{\"type\":\"LineString\",\"coordinates\":[[-73.5075058,45.4081256],[-73.5075841,45.4080933],[-73.5083763,45.4077565],[-73.508442,45.4077291],[-73.508714,45.4076157],[-73.5102556,45.4069731],[-73.5103743,45.4069236]]}";17;Route Marie-Victorin;2;50;false;false;true;false;false;false;262.0;0;2;1;0;0;false;76118;6133354101;-73.526219;45.398579;76266;6133353888;-73.465655;45.455125;0;6;7;9518078;Bus 130 : Direction Montréal;"";EXO;130 N;Stationnement Incitatif Georges-Gagné;Terminus Centre-Ville
477422448;"{\"type\":\"LineString\",\"coordinates\":[[-73.5067412,45.4083052],[-73.5068212,45.4082936],[-73.5068929,45.408282],[-73.5070281,45.4082581],[-73.5071295,45.4082375],[-73.5072115,45.4082197],[-73.5072679,45.4082042],[-73.5073494,45.4081788],[-73.5074199,45.4081563],[-73.5075058,45.4081256]]}";18;Route Marie-Victorin;2;50;false;false;true;false;false;false;64.0;0;1;0;0;0;false;76118;6133354101;-73.526219;45.398579;76266;6133353888;-73.465655;45.455125;0;6;7;9518078;Bus 130 : Direction Montréal;"";EXO;130 N;Stationnement Incitatif Georges-Gagné;Terminus Centre-Ville
685936899;"{\"type\":\"LineString\",\"coordinates\":[[-73.5063769,45.4083142],[-73.5064869,45.4083202],[-73.5065328,45.4083212],[-73.5065778,45.4083196],[-73.5066411,45.4083154],[-73.5066956,45.4083108],[-73.5067412,45.4083052]]}";19;Route Marie-Victorin;2;50;false;false;true;false;false;false;29.0;1;1;0;0;0;false;76118;6133354101;-73.526219;45.398579;76266;6133353888;-73.465655;45.455125;0;6;7;9518078;Bus 130 : Direction Montréal;"";EXO;130 N;Stationnement Incitatif Georges-Gagné;Terminus Centre-Ville
25336991;"{\"type\":\"LineString\",\"coordinates\":[[-73.5063769,45.4083142],[-73.5061522,45.408304],[-73.5055928,45.4082785],[-73.5054056,45.40827]]}";20;Rue Salaberry;4;50;false;false;true;false;false;false;77.0;2;0;0;0;0;false;76118;6133354101;-73.526219;45.398579;76266;6133353888;-73.465655;45.455125;0;6;7;9518078;Bus 130 : Direction Montréal;"";EXO;130 N;Stationnement Incitatif Georges-Gagné;Terminus Centre-Ville
458079386;"{\"type\":\"LineString\",\"coordinates\":[[-73.5054056,45.40827],[-73.5053774,45.4083522],[-73.5053633,45.4083932],[-73.5052782,45.4086245],[-73.5052177,45.4087812],[-73.5050982,45.409101],[-73.50497,45.4094559],[-73.5048167,45.4098671],[-73.50469,45.4101965],[-73.5046119,45.4103931],[-73.5045445,45.4105514],[-73.5044595,45.410722],[-73.5043848,45.4108591],[-73.5042969,45.4110043],[-73.5041872,45.411173],[-73.5040701,45.4113385],[-73.5039599,45.4114847],[-73.5038733,45.4115882],[-73.5037819,45.4116927],[-73.5036839,45.4117954],[-73.5035222,45.4119527],[-73.5033437,45.412113],[-73.5031793,45.4122726],[-73.502912,45.4125236],[-73.5021658,45.4132101]]}";21;"";1;65;false;true;true;false;false;false;614.0;0;1;0;0;0;false;76118;6133354101;-73.526219;45.398579;76266;6133353888;-73.465655;45.455125;0;6;7;9518078;Bus 130 : Direction Montréal;"";EXO;130 N;Stationnement Incitatif Georges-Gagné;Terminus Centre-Ville
45342075;"{\"type\":\"LineString\",\"coordinates\":[[-73.5021658,45.4132101],[-73.5020256,45.4133329],[-73.5018471,45.413498],[-73.5017099,45.4136347],[-73.5016396,45.4137067],[-73.5015643,45.4137856],[-73.5014019,45.4139669],[-73.5011949,45.4142165],[-73.5010403,45.4144267],[-73.500945,45.4145603],[-73.5008415,45.4147259],[-73.5007212,45.4149295],[-73.5006212,45.4151142],[-73.500508,45.4153483],[-73.5003717,45.4156221],[-73.5001678,45.416035],[-73.4999849,45.4164092],[-73.4998139,45.4167487],[-73.4996524,45.4170858],[-73.4994268,45.417531],[-73.499021,45.4183681],[-73.49893,45.4185491],[-73.4987304,45.4189578],[-73.4985064,45.4193931],[-73.4983594,45.4196571],[-73.4981479,45.4200107],[-73.4979887,45.4202617],[-73.4978427,45.4204839],[-73.4976958,45.4207016],[-73.4975756,45.4208687],[-73.49744,45.4210579],[-73.4972705,45.421278],[-73.497072,45.42153],[-73.4968797,45.4217683],[-73.4967093,45.4219657],[-73.4964603,45.422247],[-73.4961223,45.4226037],[-73.4957706,45.4229587],[-73.4955829,45.4231396],[-73.4952176,45.4234746],[-73.4950027,45.423665],[-73.4947365,45.4238884],[-73.4944481,45.4241263],[-73.4941589,45.4243539],[-73.4930902,45.4251798],[-73.4929044,45.4253284],[-73.4927364,45.425464],[-73.4926179,45.4255707],[-73.4924437,45.4257289],[-73.4922682,45.4258987],[-73.4920938,45.4260752],[-73.4919568,45.4262279],[-73.4917909,45.4264219],[-73.4916563,45.426588],[-73.4915126,45.4267744],[-73.4913621,45.426996],[-73.4912502,45.4271672],[-73.4911468,45.4273375],[-73.4910312,45.427546],[-73.490946,45.4277118],[-73.4908641,45.4278824],[-73.4907945,45.4280445],[-73.4907236,45.4282188],[-73.4906346,45.4284731],[-73.4905636,45.4287104],[-73.4905159,45.428902],[-73.4904747,45.4290973],[-73.4904368,45.4293219],[-73.4904098,45.4295183],[-73.4903918,45.4297145],[-73.4903842,45.4298756],[-73.4903792,45.4300729],[-73.4903822,45.4302567],[-73.4903934,45.4304645],[-73.4904031,45.4305866],[-73.4904226,45.4307333],[-73.4904568,45.4309539],[-73.4905427,45.4314772]]}";22;Autoroute René-Levesque;3;100;false;true;true;false;false;false;2277.0;0;0;0;0;0;false;76118;6133354101;-73.526219;45.398579;76266;6133353888;-73.465655;45.455125;0;6;7;9518078;Bus 130 : Direction Montréal;"";EXO;130 N;Stationnement Incitatif Georges-Gagné;Terminus Centre-Ville
13511246;"{\"type\":\"LineString\",\"coordinates\":[[-73.4905427,45.4314772],[-73.4905809,45.4317283]]}";23;Autoroute René-Levesque;3;100;false;true;true;false;false;false;29.0;0;0;0;0;0;false;76118;6133354101;-73.526219;45.398579;76266;6133353888;-73.465655;45.455125;0;6;7;9518078;Bus 130 : Direction Montréal;"";EXO;130 N;Stationnement Incitatif Georges-Gagné;Terminus Centre-Ville
13511248;"{\"type\":\"LineString\",\"coordinates\":[[-73.4905809,45.4317283],[-73.490696,45.4324088],[-73.4909621,45.4340131],[-73.491124,45.4349839]]}";24;Autoroute René-Levesque;3;100;false;true;true;false;false;false;365.0;0;0;0;0;0;false;76118;6133354101;-73.526219;45.398579;76266;6133353888;-73.465655;45.455125;0;6;7;9518078;Bus 130 : Direction Montréal;"";EXO;130 N;Stationnement Incitatif Georges-Gagné;Terminus Centre-Ville
34395762;"{\"type\":\"LineString\",\"coordinates\":[[-73.491124,45.4349839],[-73.4912211,45.4355452]]}";25;Autoroute René-Levesque;3;100;false;true;true;false;false;false;63.0;0;0;0;0;0;false;76118;6133354101;-73.526219;45.398579;76266;6133353888;-73.465655;45.455125;0;6;7;9518078;Bus 130 : Direction Montréal;"";EXO;130 N;Stationnement Incitatif Georges-Gagné;Terminus Centre-Ville
685121092;"{\"type\":\"LineString\",\"coordinates\":[[-73.4912211,45.4355452],[-73.4913985,45.4365924],[-73.4914711,45.4369467],[-73.4915437,45.4372356],[-73.4916002,45.4374476],[-73.4916661,45.4376546],[-73.4917627,45.4379226],[-73.4918526,45.4381708],[-73.4919864,45.438484],[-73.4922213,45.4389825]]}";26;Autoroute René-Levesque;3;100;false;true;true;false;false;false;391.0;0;0;0;0;0;false;76118;6133354101;-73.526219;45.398579;76266;6133353888;-73.465655;45.455125;0;6;7;9518078;Bus 130 : Direction Montréal;"";EXO;130 N;Stationnement Incitatif Georges-Gagné;Terminus Centre-Ville
25313971;"{\"type\":\"LineString\",\"coordinates\":[[-73.4922213,45.4389825],[-73.492567,45.4399587],[-73.4926924,45.4403982],[-73.4927889,45.4409392]]}";27;"";1;50;false;true;true;false;false;false;223.0;0;0;0;0;0;false;76118;6133354101;-73.526219;45.398579;76266;6133353888;-73.465655;45.455125;0;6;7;9518078;Bus 130 : Direction Montréal;"";EXO;130 N;Stationnement Incitatif Georges-Gagné;Terminus Centre-Ville
685121083;"{\"type\":\"LineString\",\"coordinates\":[[-73.4927889,45.4409392],[-73.4928492,45.4412634],[-73.4928828,45.4415412],[-73.4928867,45.4415704],[-73.4928984,45.4420668]]}";28;Boulevard Marie-Victorin;2;70;false;true;false;false;false;false;126.0;0;0;0;0;0;false;76118;6133354101;-73.526219;45.398579;76266;6133353888;-73.465655;45.455125;0;6;7;9518078;Bus 130 : Direction Montréal;"";EXO;130 N;Stationnement Incitatif Georges-Gagné;Terminus Centre-Ville
34395235;"{\"type\":\"LineString\",\"coordinates\":[[-73.4928984,45.4420668],[-73.4928561,45.4427689],[-73.4928244,45.4432842],[-73.492683,45.4449021],[-73.4924394,45.4475435],[-73.4924279,45.4476994],[-73.4922718,45.4492661],[-73.4921277,45.4509026],[-73.4921014,45.4511709],[-73.4920003,45.4523399],[-73.491981,45.4537366],[-73.4920189,45.4547125],[-73.4920792,45.456219],[-73.4920896,45.4563312],[-73.4921143,45.4565984],[-73.4921246,45.4567101]]}";29;Boulevard Marie-Victorin;2;70;false;true;true;false;false;false;1629.0;0;0;0;0;0;false;76118;6133354101;-73.526219;45.398579;76266;6133353888;-73.465655;45.455125;0;6;7;9518078;Bus 130 : Direction Montréal;"";EXO;130 N;Stationnement Incitatif Georges-Gagné;Terminus Centre-Ville
24554912;"{\"type\":\"LineString\",\"coordinates\":[[-73.4921246,45.4567101],[-73.4920632,45.4568282],[-73.4920023,45.4568945],[-73.491886,45.456956],[-73.4916739,45.4570217]]}";30;"";1;50;false;true;true;false;false;false;53.0;0;0;0;0;0;false;76118;6133354101;-73.526219;45.398579;76266;6133353888;-73.465655;45.455125;0;6;7;9518078;Bus 130 : Direction Montréal;"";EXO;130 N;Stationnement Incitatif Georges-Gagné;Terminus Centre-Ville
452645808;"{\"type\":\"LineString\",\"coordinates\":[[-73.4916739,45.4570217],[-73.4916115,45.4570188],[-73.4912989,45.4570043],[-73.490624,45.4569731],[-73.4899397,45.4569539],[-73.4897895,45.4569497]]}";31;Boulevard de Rome;1;50;false;true;false;false;false;false;148.0;1;0;0;0;0;false;76118;6133354101;-73.526219;45.398579;76266;6133353888;-73.465655;45.455125;0;6;7;9518078;Bus 130 : Direction Montréal;"";EXO;130 N;Stationnement Incitatif Georges-Gagné;Terminus Centre-Ville
452645810;"{\"type\":\"LineString\",\"coordinates\":[[-73.4897895,45.4569497],[-73.4896952,45.4569461],[-73.488764,45.4569105],[-73.4882167,45.4568896],[-73.4863684,45.4568173],[-73.4851488,45.4567852]]}";32;Boulevard de Rome;2;50;false;true;false;false;false;false;364.0;0;2;0;0;0;false;76118;6133354101;-73.526219;45.398579;76266;6133353888;-73.465655;45.455125;0;6;7;9518078;Bus 130 : Direction Montréal;"";EXO;130 N;Stationnement Incitatif Georges-Gagné;Terminus Centre-Ville
500995890;"{\"type\":\"LineString\",\"coordinates\":[[-73.4851488,45.4567852],[-73.4837378,45.4567481],[-73.4827824,45.4567164],[-73.4799243,45.4566104],[-73.4798075,45.4566061]]}";33;Boulevard de Rome;2;50;false;true;true;false;false;false;418.0;1;1;0;0;0;false;76118;6133354101;-73.526219;45.398579;76266;6133353888;-73.465655;45.455125;0;6;7;9518078;Bus 130 : Direction Montréal;"";EXO;130 N;Stationnement Incitatif Georges-Gagné;Terminus Centre-Ville
500995887;"{\"type\":\"LineString\",\"coordinates\":[[-73.4798075,45.4566061],[-73.479649,45.4566023]]}";34;Boulevard de Rome;1;50;false;true;true;false;false;false;13.0;0;0;0;0;0;false;76118;6133354101;-73.526219;45.398579;76266;6133353888;-73.465655;45.455125;0;6;7;9518078;Bus 130 : Direction Montréal;"";EXO;130 N;Stationnement Incitatif Georges-Gagné;Terminus Centre-Ville
183628317;"{\"type\":\"LineString\",\"coordinates\":[[-73.479649,45.4566023],[-73.4789151,45.4565707],[-73.4758616,45.4564742],[-73.475524,45.4564598],[-73.4726161,45.45637],[-73.4706094,45.456308],[-73.4690215,45.4562057],[-73.4686149,45.4561422],[-73.4684743,45.4561203],[-73.4680534,45.4560403],[-73.4673716,45.4558939],[-73.4668346,45.4557092],[-73.4663206,45.4555123],[-73.4662064,45.4554622],[-73.4657294,45.4552528]]}";35;Boulevard de Rome;1;50;false;true;true;false;false;false;1113.0;1;0;0;0;0;false;76118;6133354101;-73.526219;45.398579;76266;6133353888;-73.465655;45.455125;0;6;7;9518078;Bus 130 : Direction Montréal;"";EXO;130 N;Stationnement Incitatif Georges-Gagné;Terminus Centre-Ville
39505593;"{\"type\":\"LineString\",\"coordinates\":[[-73.4657294,45.4552528],[-73.4655928,45.4551792],[-73.4654588,45.455122]]}";36;Boulevard de Rome;1;50;false;true;true;false;false;false;13.0;1;0;0;0;0;false;76118;6133354101;-73.526219;45.398579;76266;6133353888;-73.465655;45.455125;1;6;7;9518078;Bus 130 : Direction Montréal;"";EXO;130 N;Stationnement Incitatif Georges-Gagné;Terminus Centre-Ville
183628317;"{\"type\":\"LineString\",\"coordinates\":[[-73.479649,45.4566023],[-73.4789151,45.4565707],[-73.4758616,45.4564742],[-73.475524,45.4564598],[-73.4726161,45.45637],[-73.4706094,45.456308],[-73.4690215,45.4562057],[-73.4686149,45.4561422],[-73.4684743,45.4561203],[-73.4680534,45.4560403],[-73.4673716,45.4558939],[-73.4668346,45.4557092],[-73.4663206,45.4555123],[-73.4662064,45.4554622],[-73.4657294,45.4552528]]}";1;Boulevard de Rome;1;50;false;true;true;false;false;false;1113.0;1;0;0;0;0;false;76266;6133353888;-73.465655;45.455125;76290;6133353669;-73.558474;45.497415;2;7;8;9518078;Bus 130 : Direction Montréal;"";EXO;130 N;Stationnement Incitatif Georges-Gagné;Terminus Centre-Ville
39505593;"{\"type\":\"LineString\",\"coordinates\":[[-73.4657294,45.4552528],[-73.4655928,45.4551792],[-73.4654588,45.455122]]}";2;Boulevard de Rome;1;50;false;true;true;false;false;false;26.0;1;0;0;0;0;false;76266;6133353888;-73.465655;45.455125;76290;6133353669;-73.558474;45.497415;0;7;8;9518078;Bus 130 : Direction Montréal;"";EXO;130 N;Stationnement Incitatif Georges-Gagné;Terminus Centre-Ville
34686239;"{\"type\":\"LineString\",\"coordinates\":[[-73.4654588,45.455122],[-73.4651831,45.4550214]]}";3;Boulevard de Rome;1;50;false;true;true;false;false;false;25.0;0;0;0;0;0;false;76266;6133353888;-73.465655;45.455125;76290;6133353669;-73.558474;45.497415;0;7;8;9518078;Bus 130 : Direction Montréal;"";EXO;130 N;Stationnement Incitatif Georges-Gagné;Terminus Centre-Ville
34686238;"{\"type\":\"LineString\",\"coordinates\":[[-73.4651831,45.4550214],[-73.4651291,45.455169]]}";4;Boulevard Taschereau;1;50;false;true;false;false;false;false;17.0;0;0;0;0;0;false;76266;6133353888;-73.465655;45.455125;76290;6133353669;-73.558474;45.497415;0;7;8;9518078;Bus 130 : Direction Montréal;"";EXO;130 N;Stationnement Incitatif Georges-Gagné;Terminus Centre-Ville
34686232;"{\"type\":\"LineString\",\"coordinates\":[[-73.4651291,45.455169],[-73.465079,45.4553803],[-73.4650429,45.4555326]]}";5;Boulevard Taschereau;1;50;false;true;true;false;true;false;41.0;0;0;0;0;0;false;76266;6133353888;-73.465655;45.455125;76290;6133353669;-73.558474;45.497415;0;7;8;9518078;Bus 130 : Direction Montréal;"";EXO;130 N;Stationnement Incitatif Georges-Gagné;Terminus Centre-Ville
34686233;"{\"type\":\"LineString\",\"coordinates\":[[-73.4650429,45.4555326],[-73.4650135,45.4558401],[-73.4649871,45.4561158],[-73.4649816,45.4561728],[-73.4649512,45.4564903],[-73.4649371,45.4566378],[-73.4648999,45.4570262],[-73.464903,45.4572789],[-73.4649097,45.4578168]]}";6;Boulevard Taschereau;1;70;false;true;true;false;true;false;255.0;0;0;0;0;0;false;76266;6133353888;-73.465655;45.455125;76290;6133353669;-73.558474;45.497415;0;7;8;9518078;Bus 130 : Direction Montréal;"";EXO;130 N;Stationnement Incitatif Georges-Gagné;Terminus Centre-Ville
39505959;"{\"type\":\"LineString\",\"coordinates\":[[-73.4649097,45.4578168],[-73.4649158,45.4583036],[-73.4649254,45.4584231],[-73.4649669,45.4589404],[-73.464979,45.4591055],[-73.4649852,45.4591892]]}";7;Boulevard Taschereau;1;70;false;true;true;false;true;false;153.0;1;0;0;0;0;false;76266;6133353888;-73.465655;45.455125;76290;6133353669;-73.558474;45.497415;0;7;8;9518078;Bus 130 : Direction Montréal;"";EXO;130 N;Stationnement Incitatif Georges-Gagné;Terminus Centre-Ville
39239298;"{\"type\":\"LineString\",\"coordinates\":[[-73.4649852,45.4591892],[-73.4649926,45.4592755]]}";8;Boulevard Taschereau;1;50;false;true;true;false;false;false;10.0;0;0;0;0;0;false;76266;6133353888;-73.465655;45.455125;76290;6133353669;-73.558474;45.497415;0;7;8;9518078;Bus 130 : Direction Montréal;"";EXO;130 N;Stationnement Incitatif Georges-Gagné;Terminus Centre-Ville
34686190;"{\"type\":\"LineString\",\"coordinates\":[[-73.4649926,45.4592755],[-73.4650024,45.4593671],[-73.4650153,45.4595342],[-73.4650309,45.459736],[-73.4650562,45.4600631]]}";9;Boulevard Taschereau;1;50;false;true;true;false;false;false;88.0;0;0;0;0;0;false;76266;6133353888;-73.465655;45.455125;76290;6133353669;-73.558474;45.497415;0;7;8;9518078;Bus 130 : Direction Montréal;"";EXO;130 N;Stationnement Incitatif Georges-Gagné;Terminus Centre-Ville
479473732;"{\"type\":\"LineString\",\"coordinates\":[[-73.4650562,45.4600631],[-73.4651333,45.4607822],[-73.4651549,45.4609837]]}";10;Boulevard Taschereau;1;50;false;true;true;false;false;false;103.0;0;0;0;0;0;false;76266;6133353888;-73.465655;45.455125;76290;6133353669;-73.558474;45.497415;0;7;8;9518078;Bus 130 : Direction Montréal;"";EXO;130 N;Stationnement Incitatif Georges-Gagné;Terminus Centre-Ville
34686189;"{\"type\":\"LineString\",\"coordinates\":[[-73.4651549,45.4609837],[-73.4652166,45.4615798],[-73.4652432,45.4619075]]}";11;Boulevard Taschereau;1;50;false;true;false;false;false;false;103.0;0;0;0;0;0;false;76266;6133353888;-73.465655;45.455125;76290;6133353669;-73.558474;45.497415;0;7;8;9518078;Bus 130 : Direction Montréal;"";EXO;130 N;Stationnement Incitatif Georges-Gagné;Terminus Centre-Ville
452415393;"{\"type\":\"LineString\",\"coordinates\":[[-73.4652432,45.4619075],[-73.4654805,45.4635341],[-73.465522,45.4637024],[-73.4655435,45.4637896]]}";12;Boulevard Taschereau;1;50;false;true;false;false;false;false;211.0;1;0;0;0;0;false;76266;6133353888;-73.465655;45.455125;76290;6133353669;-73.558474;45.497415;0;7;8;9518078;Bus 130 : Direction Montréal;"";EXO;130 N;Stationnement Incitatif Georges-Gagné;Terminus Centre-Ville
39239394;"{\"type\":\"LineString\",\"coordinates\":[[-73.4655435,45.4637896],[-73.4655823,45.4639539],[-73.4656533,45.46418],[-73.4660166,45.4650769]]}";13;Boulevard Taschereau;1;50;false;true;false;false;true;false;148.0;0;0;0;0;0;false;76266;6133353888;-73.465655;45.455125;76290;6133353669;-73.558474;45.497415;0;7;8;9518078;Bus 130 : Direction Montréal;"";EXO;130 N;Stationnement Incitatif Georges-Gagné;Terminus Centre-Ville
476012636;"{\"type\":\"LineString\",\"coordinates\":[[-73.4660166,45.4650769],[-73.4662107,45.4654681],[-73.4662619,45.4655763],[-73.4663131,45.4656845]]}";14;Boulevard Taschereau;1;50;false;true;false;false;true;false;72.0;1;0;0;0;0;false;76266;6133353888;-73.465655;45.455125;76290;6133353669;-73.558474;45.497415;0;7;8;9518078;Bus 130 : Direction Montréal;"";EXO;130 N;Stationnement Incitatif Georges-Gagné;Terminus Centre-Ville
473778377;"{\"type\":\"LineString\",\"coordinates\":[[-73.4663131,45.4656845],[-73.4665181,45.4656358]]}";15;"";1;50;false;false;true;false;false;false;17.0;0;0;0;0;0;false;76266;6133353888;-73.465655;45.455125;76290;6133353669;-73.558474;45.497415;0;7;8;9518078;Bus 130 : Direction Montréal;"";EXO;130 N;Stationnement Incitatif Georges-Gagné;Terminus Centre-Ville
476012634;"{\"type\":\"LineString\",\"coordinates\":[[-73.466996,45.4655796],[-73.4667315,45.4656026],[-73.4667003,45.4656075],[-73.4665181,45.4656358]]}";16;"";1;50;false;false;false;false;true;false;38.0;1;0;0;0;0;false;76266;6133353888;-73.465655;45.455125;76290;6133353669;-73.558474;45.497415;0;7;8;9518078;Bus 130 : Direction Montréal;"";EXO;130 N;Stationnement Incitatif Georges-Gagné;Terminus Centre-Ville
37637927;"{\"type\":\"LineString\",\"coordinates\":[[-73.468025,45.4659377],[-73.4677887,45.4657888],[-73.4677335,45.4657546],[-73.4676442,45.4657151],[-73.4674983,45.4656589],[-73.4673546,45.4656184],[-73.4671835,45.4655895],[-73.466996,45.4655796]]}";17;"";1;50;false;false;false;false;true;false;93.0;0;0;0;0;0;false;76266;6133353888;-73.465655;45.455125;76290;6133353669;-73.558474;45.497415;0;7;8;9518078;Bus 130 : Direction Montréal;"";EXO;130 N;Stationnement Incitatif Georges-Gagné;Terminus Centre-Ville
703233488;"{\"type\":\"LineString\",\"coordinates\":[[-73.4733357,45.4656186],[-73.4699508,45.4656907],[-73.4695234,45.4656998],[-73.4691508,45.4657186],[-73.4688021,45.4657429],[-73.4685139,45.465784],[-73.4682324,45.4658535],[-73.468025,45.4659377]]}";18;"";1;50;false;false;true;false;true;false;420.0;0;0;0;0;0;false;76266;6133353888;-73.465655;45.455125;76290;6133353669;-73.558474;45.497415;0;7;8;9518078;Bus 130 : Direction Montréal;"";EXO;130 N;Stationnement Incitatif Georges-Gagné;Terminus Centre-Ville
684189916;"{\"type\":\"LineString\",\"coordinates\":[[-73.4733357,45.4656186],[-73.4735794,45.4655613],[-73.4739808,45.4655103],[-73.4741277,45.4654925],[-73.4747925,45.4654563],[-73.4752773,45.4654395],[-73.4757455,45.4654647],[-73.4762138,45.465479],[-73.4767771,45.4654808],[-73.4776483,45.4653783]]}";19;"";1;50;false;true;true;false;true;false;341.0;0;0;0;0;0;false;76266;6133353888;-73.465655;45.455125;76290;6133353669;-73.558474;45.497415;0;7;8;9518078;Bus 130 : Direction Montréal;"";EXO;130 N;Stationnement Incitatif Georges-Gagné;Terminus Centre-Ville
596245859;"{\"type\":\"LineString\",\"coordinates\":[[-73.4776483,45.4653783],[-73.47817,45.4654129],[-73.4791657,45.4654646],[-73.480342,45.4655445],[-73.4815645,45.4656424],[-73.4827092,45.4657465],[-73.483758,45.4658456]]}";20;Autoroute des Cantons-de-l'Est;4;80;false;true;true;false;false;false;481.0;0;0;0;0;0;false;76266;6133353888;-73.465655;45.455125;76290;6133353669;-73.558474;45.497415;0;7;8;9518078;Bus 130 : Direction Montréal;"";EXO;130 N;Stationnement Incitatif Georges-Gagné;Terminus Centre-Ville
646417290;"{\"type\":\"LineString\",\"coordinates\":[[-73.483758,45.4658456],[-73.4846623,45.465954],[-73.4856177,45.4660809],[-73.4868069,45.4662534],[-73.4886334,45.4665299]]}";21;Autoroute des Cantons-de-l'Est;4;80;false;true;true;false;false;false;389.0;0;0;0;0;0;false;76266;6133353888;-73.465655;45.455125;76290;6133353669;-73.558474;45.497415;0;7;8;9518078;Bus 130 : Direction Montréal;"";EXO;130 N;Stationnement Incitatif Georges-Gagné;Terminus Centre-Ville
617688037;"{\"type\":\"LineString\",\"coordinates\":[[-73.4886334,45.4665299],[-73.491919,45.4669863]]}";22;Autoroute des Cantons-de-l'Est;6;80;false;true;true;false;false;false;262.0;0;0;0;0;0;false;76266;6133353888;-73.465655;45.455125;76290;6133353669;-73.558474;45.497415;0;7;8;9518078;Bus 130 : Direction Montréal;"";EXO;130 N;Stationnement Incitatif Georges-Gagné;Terminus Centre-Ville
364775282;"{\"type\":\"LineString\",\"coordinates\":[[-73.491919,45.4669863],[-73.497579,45.4676639],[-73.4995142,45.4678849],[-73.5001974,45.4679687],[-73.5014831,45.4681109]]}";23;Pont Samuel-De Champlain;5;80;false;true;true;false;false;false;758.0;0;0;0;0;0;false;76266;6133353888;-73.465655;45.455125;76290;6133353669;-73.558474;45.497415;0;7;8;9518078;Bus 130 : Direction Montréal;"";EXO;130 N;Stationnement Incitatif Georges-Gagné;Terminus Centre-Ville
646417311;"{\"type\":\"LineString\",\"coordinates\":[[-73.5014831,45.4681109],[-73.5036146,45.4683312],[-73.505462,45.4685268],[-73.5081765,45.4687976]]}";24;Pont Samuel-De Champlain;4;80;false;true;true;false;false;false;529.0;0;0;0;0;0;false;76266;6133353888;-73.465655;45.455125;76290;6133353669;-73.558474;45.497415;0;7;8;9518078;Bus 130 : Direction Montréal;"";EXO;130 N;Stationnement Incitatif Georges-Gagné;Terminus Centre-Ville
646417301;"{\"type\":\"LineString\",\"coordinates\":[[-73.5081765,45.4687976],[-73.5111952,45.4690972],[-73.5143589,45.4694003],[-73.5158971,45.4695402],[-73.5174379,45.4696676],[-73.5194792,45.4698271],[-73.5215332,45.4699746],[-73.5230666,45.470065],[-73.5245937,45.4701407],[-73.5256081,45.4701821],[-73.5276458,45.4702711]]}";25;Pont Samuel-De Champlain;4;80;false;true;true;false;false;false;1531.0;0;0;0;0;0;false;76266;6133353888;-73.465655;45.455125;76290;6133353669;-73.558474;45.497415;0;7;8;9518078;Bus 130 : Direction Montréal;"";EXO;130 N;Stationnement Incitatif Georges-Gagné;Terminus Centre-Ville
699232600;"{\"type\":\"LineString\",\"coordinates\":[[-73.5276458,45.4702711],[-73.5361031,45.4705109]]}";26;Pont Samuel-De Champlain;5;80;false;true;true;false;false;false;662.0;0;0;0;0;0;false;76266;6133353888;-73.465655;45.455125;76290;6133353669;-73.558474;45.497415;0;7;8;9518078;Bus 130 : Direction Montréal;"";EXO;130 N;Stationnement Incitatif Georges-Gagné;Terminus Centre-Ville
618983689;"{\"type\":\"LineString\",\"coordinates\":[[-73.5361031,45.4705109],[-73.537834,45.4706479]]}";27;"";2;50;false;true;true;false;false;false;137.0;0;0;0;0;0;false;76266;6133353888;-73.465655;45.455125;76290;6133353669;-73.558474;45.497415;0;7;8;9518078;Bus 130 : Direction Montréal;"";EXO;130 N;Stationnement Incitatif Georges-Gagné;Terminus Centre-Ville
708682533;"{\"type\":\"LineString\",\"coordinates\":[[-73.537834,45.4706479],[-73.5382399,45.4706632]]}";28;"";2;50;false;true;true;false;false;false;32.0;0;0;0;0;0;false;76266;6133353888;-73.465655;45.455125;76290;6133353669;-73.558474;45.497415;0;7;8;9518078;Bus 130 : Direction Montréal;"";EXO;130 N;Stationnement Incitatif Georges-Gagné;Terminus Centre-Ville
708682534;"{\"type\":\"LineString\",\"coordinates\":[[-73.5382399,45.4706632],[-73.53861,45.4706745]]}";29;"";2;50;false;true;true;false;false;false;29.0;0;0;0;0;0;false;76266;6133353888;-73.465655;45.455125;76290;6133353669;-73.558474;45.497415;0;7;8;9518078;Bus 130 : Direction Montréal;"";EXO;130 N;Stationnement Incitatif Georges-Gagné;Terminus Centre-Ville
699476192;"{\"type\":\"LineString\",\"coordinates\":[[-73.53861,45.4706745],[-73.540245,45.4707481]]}";30;"";3;50;false;true;true;false;false;false;129.0;0;0;0;0;0;false;76266;6133353888;-73.465655;45.455125;76290;6133353669;-73.558474;45.497415;0;7;8;9518078;Bus 130 : Direction Montréal;"";EXO;130 N;Stationnement Incitatif Georges-Gagné;Terminus Centre-Ville
4911723;"{\"type\":\"LineString\",\"coordinates\":[[-73.540245,45.4707481],[-73.5413818,45.4707819],[-73.541687,45.4708086],[-73.5421974,45.4708972],[-73.5425927,45.4709912],[-73.5428191,45.4710549],[-73.5430474,45.4711662],[-73.5432392,45.4713045],[-73.5433403,45.4714236],[-73.5434425,45.4715858],[-73.5434739,45.4717038],[-73.5434936,45.4718177],[-73.5434907,45.4719627],[-73.5434133,45.4721827],[-73.5433131,45.4723575],[-73.5431627,45.4725929]]}";31;"";2;50;false;true;false;false;false;false;401.0;0;0;0;0;0;false;76266;6133353888;-73.465655;45.455125;76290;6133353669;-73.558474;45.497415;0;7;8;9518078;Bus 130 : Direction Montréal;"";EXO;130 N;Stationnement Incitatif Georges-Gagné;Terminus Centre-Ville
43068384;"{\"type\":\"LineString\",\"coordinates\":[[-73.5431627,45.4725929],[-73.5429229,45.4729338]]}";32;Autoroute Bonaventure;1;70;false;true;true;false;false;false;43.0;0;0;0;0;0;false;76266;6133353888;-73.465655;45.455125;76290;6133353669;-73.558474;45.497415;0;7;8;9518078;Bus 130 : Direction Montréal;"";EXO;130 N;Stationnement Incitatif Georges-Gagné;Terminus Centre-Ville
43068383;"{\"type\":\"LineString\",\"coordinates\":[[-73.5429229,45.4729338],[-73.5422527,45.4738691],[-73.5419446,45.4743215]]}";33;Autoroute Bonaventure;2;70;false;true;true;false;false;false;173.0;0;0;0;0;0;false;76266;6133353888;-73.465655;45.455125;76290;6133353669;-73.558474;45.497415;0;7;8;9518078;Bus 130 : Direction Montréal;"";EXO;130 N;Stationnement Incitatif Georges-Gagné;Terminus Centre-Ville
39180620;"{\"type\":\"LineString\",\"coordinates\":[[-73.5419446,45.4743215],[-73.5412854,45.4754033],[-73.5406968,45.4764762],[-73.5402899,45.4772874]]}";34;Pont Clément Bridge;2;70;false;true;false;false;false;false;354.0;0;0;0;0;0;false;76266;6133353888;-73.465655;45.455125;76290;6133353669;-73.558474;45.497415;0;7;8;9518078;Bus 130 : Direction Montréal;"";EXO;130 N;Stationnement Incitatif Georges-Gagné;Terminus Centre-Ville
39180619;"{\"type\":\"LineString\",\"coordinates\":[[-73.5402899,45.4772874],[-73.5401596,45.4775746],[-73.5398431,45.4782661],[-73.5396085,45.4788043],[-73.5391517,45.4800847],[-73.538966,45.4805967],[-73.5387176,45.4811907]]}";35;Autoroute Bonaventure Expressway;1;70;false;true;false;false;false;false;451.0;0;0;0;0;0;false;76266;6133353888;-73.465655;45.455125;76290;6133353669;-73.558474;45.497415;0;7;8;9518078;Bus 130 : Direction Montréal;"";EXO;130 N;Stationnement Incitatif Georges-Gagné;Terminus Centre-Ville
714073116;"{\"type\":\"LineString\",\"coordinates\":[[-73.5387176,45.4811907],[-73.5385292,45.4817377],[-73.538315,45.4823852],[-73.5379744,45.483343],[-73.5376418,45.4842992],[-73.5375961,45.4844398],[-73.5375533,45.4845924],[-73.5375181,45.4847637],[-73.5374955,45.4849505],[-73.5374873,45.4851355],[-73.5374945,45.4853045],[-73.5375079,45.4854602],[-73.5375393,45.4856318],[-73.5375752,45.4857888],[-73.5376211,45.4859471],[-73.5376808,45.4861113],[-73.5377538,45.4862759],[-73.5378288,45.4864202],[-73.5379137,45.486573],[-73.5380355,45.4867414],[-73.538156,45.4869012],[-73.5382864,45.4870512],[-73.538423,45.4871906],[-73.5385739,45.487331],[-73.5387469,45.4874765],[-73.5389268,45.4876091]]}";36;Autoroute Bonaventure Expressway;1;70;false;true;false;false;false;false;754.0;0;0;0;0;0;false;76266;6133353888;-73.465655;45.455125;76290;6133353669;-73.558474;45.497415;0;7;8;9518078;Bus 130 : Direction Montréal;"";EXO;130 N;Stationnement Incitatif Georges-Gagné;Terminus Centre-Ville
714073115;"{\"type\":\"LineString\",\"coordinates\":[[-73.5389268,45.4876091],[-73.5390986,45.4877303],[-73.5392782,45.4878453],[-73.5394616,45.4879535],[-73.5396667,45.4880603],[-73.5398542,45.4881491],[-73.5400801,45.4882391],[-73.5402768,45.4883083],[-73.5404739,45.4883721],[-73.540669,45.4884272],[-73.5408867,45.4884816],[-73.5411043,45.4885267],[-73.5417485,45.4886541]]}";37;Autoroute Bonaventure Expressway;3;70;false;true;false;false;false;false;254.0;0;0;0;0;0;false;76266;6133353888;-73.465655;45.455125;76290;6133353669;-73.558474;45.497415;0;7;8;9518078;Bus 130 : Direction Montréal;"";EXO;130 N;Stationnement Incitatif Georges-Gagné;Terminus Centre-Ville
385754251;"{\"type\":\"LineString\",\"coordinates\":[[-73.5417485,45.4886541],[-73.5419436,45.4886927]]}";38;Autoroute Bonaventure Expressway;3;70;false;true;false;false;false;false;16.0;0;0;0;0;0;false;76266;6133353888;-73.465655;45.455125;76290;6133353669;-73.558474;45.497415;0;7;8;9518078;Bus 130 : Direction Montréal;"";EXO;130 N;Stationnement Incitatif Georges-Gagné;Terminus Centre-Ville
385754248;"{\"type\":\"LineString\",\"coordinates\":[[-73.5419436,45.4886927],[-73.5426767,45.4888376]]}";39;Autoroute Bonaventure Expressway;3;70;false;true;false;false;false;false;60.0;0;0;0;0;0;false;76266;6133353888;-73.465655;45.455125;76290;6133353669;-73.558474;45.497415;0;7;8;9518078;Bus 130 : Direction Montréal;"";EXO;130 N;Stationnement Incitatif Georges-Gagné;Terminus Centre-Ville
353126989;"{\"type\":\"LineString\",\"coordinates\":[[-73.5426767,45.4888376],[-73.5462164,45.4895105]]}";40;Autoroute Bonaventure Expressway;3;70;false;true;false;false;false;false;287.0;0;0;0;0;0;false;76266;6133353888;-73.465655;45.455125;76290;6133353669;-73.558474;45.497415;0;7;8;9518078;Bus 130 : Direction Montréal;"";EXO;130 N;Stationnement Incitatif Georges-Gagné;Terminus Centre-Ville
707195316;"{\"type\":\"LineString\",\"coordinates\":[[-73.5462164,45.4895105],[-73.5489756,45.4900306],[-73.5492538,45.4900843],[-73.5495285,45.4901432],[-73.5497816,45.4902043],[-73.5500349,45.4902694],[-73.5502567,45.4903348],[-73.5504441,45.490394],[-73.5506449,45.4904701],[-73.5508953,45.4905713],[-73.5511366,45.4906783],[-73.5513586,45.490785],[-73.5515595,45.490892],[-73.5517478,45.4909978],[-73.5519127,45.4911001],[-73.5520672,45.4912015],[-73.5522091,45.4912998],[-73.5523539,45.4914092],[-73.5525276,45.4915518],[-73.5526944,45.4917018],[-73.552832,45.4918401],[-73.5529608,45.4919816],[-73.5530889,45.4921305],[-73.5532079,45.4922828],[-73.5533215,45.4924456],[-73.5534193,45.4925961],[-73.5535088,45.4927419],[-73.5535989,45.4929094],[-73.5536783,45.4930774],[-73.5537808,45.4933075]]}";41;Autoroute Bonaventure Expressway;3;70;false;true;false;false;false;false;774.0;0;0;0;0;0;false;76266;6133353888;-73.465655;45.455125;76290;6133353669;-73.558474;45.497415;0;7;8;9518078;Bus 130 : Direction Montréal;"";EXO;130 N;Stationnement Incitatif Georges-Gagné;Terminus Centre-Ville
361495433;"{\"type\":\"LineString\",\"coordinates\":[[-73.5537808,45.4933075],[-73.5539118,45.4936659],[-73.5540357,45.4940085],[-73.5544098,45.4949608],[-73.554558,45.4953022],[-73.5546448,45.4954662],[-73.5547355,45.4956087],[-73.5549538,45.4958246],[-73.5552225,45.4960209]]}";42;Autoroute Bonaventure;3;70;false;true;false;false;false;false;327.0;0;0;0;0;0;false;76266;6133353888;-73.465655;45.455125;76290;6133353669;-73.558474;45.497415;0;7;8;9518078;Bus 130 : Direction Montréal;"";EXO;130 N;Stationnement Incitatif Georges-Gagné;Terminus Centre-Ville
731030660;"{\"type\":\"LineString\",\"coordinates\":[[-73.5552225,45.4960209],[-73.5555054,45.4961565],[-73.5556671,45.4962174]]}";43;Autoroute Bonaventure;3;70;false;true;false;false;false;false;42.0;1;0;0;0;0;false;76266;6133353888;-73.465655;45.455125;76290;6133353669;-73.558474;45.497415;0;7;8;9518078;Bus 130 : Direction Montréal;"";EXO;130 N;Stationnement Incitatif Georges-Gagné;Terminus Centre-Ville
354710813;"{\"type\":\"LineString\",\"coordinates\":[[-73.5556671,45.4962174],[-73.5572645,45.496815],[-73.5587554,45.4973796],[-73.5596678,45.4977972]]}";44;Boulevard Robert-Bourassa;4;50;false;true;true;false;false;false;359.0;4;0;0;0;0;false;76266;6133353888;-73.465655;45.455125;76290;6133353669;-73.558474;45.497415;2;7;8;9518078;Bus 130 : Direction Montréal;"";EXO;130 N;Stationnement Incitatif Georges-Gagné;Terminus Centre-Ville
354710813;"{\"type\":\"LineString\",\"coordinates\":[[-73.5556671,45.4962174],[-73.5572645,45.496815],[-73.5587554,45.4973796],[-73.5596678,45.4977972]]}";1;Boulevard Robert-Bourassa;4;50;false;true;true;false;false;false;179.5;4;0;0;0;0;false;76290;6133353669;-73.558474;45.497415;76142;6133353982;-73.565987;45.498059;1;8;9;9518078;Bus 130 : Direction Montréal;"";EXO;130 N;Stationnement Incitatif Georges-Gagné;Terminus Centre-Ville
428978766;"{\"type\":\"LineString\",\"coordinates\":[[-73.5596678,45.4977972],[-73.5605507,45.4982539],[-73.5609011,45.4984149],[-73.5611605,45.4985326],[-73.5612381,45.4985678]]}";2;Boulevard Robert-Bourassa;4;50;false;true;true;false;false;false;150.0;2;1;0;0;0;false;76290;6133353669;-73.558474;45.497415;76142;6133353982;-73.565987;45.498059;0;8;9;9518078;Bus 130 : Direction Montréal;"";EXO;130 N;Stationnement Incitatif Georges-Gagné;Terminus Centre-Ville
385754231;"{\"type\":\"LineString\",\"coordinates\":[[-73.5612381,45.4985678],[-73.561372,45.4986173],[-73.5615648,45.4986882],[-73.562215,45.4989662],[-73.5625386,45.4991131]]}";3;Boulevard Robert-Bourassa;4;50;false;true;true;false;false;false;119.0;2;1;0;0;0;false;76290;6133353669;-73.558474;45.497415;76142;6133353982;-73.565987;45.498059;0;8;9;9518078;Bus 130 : Direction Montréal;"";EXO;130 N;Stationnement Incitatif Georges-Gagné;Terminus Centre-Ville
456316925;"{\"type\":\"LineString\",\"coordinates\":[[-73.5625386,45.4991131],[-73.5633661,45.4996899]]}";4;Boulevard Robert-Bourassa;4;50;false;true;true;false;false;false;91.0;2;0;0;0;0;false;76290;6133353669;-73.558474;45.497415;76142;6133353982;-73.565987;45.498059;0;8;9;9518078;Bus 130 : Direction Montréal;"";EXO;130 N;Stationnement Incitatif Georges-Gagné;Terminus Centre-Ville
165325230;"{\"type\":\"LineString\",\"coordinates\":[[-73.5633661,45.4996899],[-73.5635034,45.4995899]]}";5;Rue Saint-Antoine Ouest;1;50;false;false;true;false;false;false;16.0;2;0;0;0;0;false;76290;6133353669;-73.558474;45.497415;76142;6133353982;-73.565987;45.498059;0;8;9;9518078;Bus 130 : Direction Montréal;"";EXO;130 N;Stationnement Incitatif Georges-Gagné;Terminus Centre-Ville
456318009;"{\"type\":\"LineString\",\"coordinates\":[[-73.5635034,45.4995899],[-73.5638176,45.4993408]]}";6;Rue Saint-Antoine Ouest;1;50;false;false;true;false;false;false;37.0;1;0;0;0;0;false;76290;6133353669;-73.558474;45.497415;76142;6133353982;-73.565987;45.498059;0;8;9;9518078;Bus 130 : Direction Montréal;"";EXO;130 N;Stationnement Incitatif Georges-Gagné;Terminus Centre-Ville
114875727;"{\"type\":\"LineString\",\"coordinates\":[[-73.5638176,45.4993408],[-73.5646367,45.4986819]]}";7;Rue Saint-Antoine Ouest;1;50;false;false;true;false;false;false;98.0;0;0;0;0;0;false;76290;6133353669;-73.558474;45.497415;76142;6133353982;-73.565987;45.498059;0;8;9;9518078;Bus 130 : Direction Montréal;"";EXO;130 N;Stationnement Incitatif Georges-Gagné;Terminus Centre-Ville
114875712;"{\"type\":\"LineString\",\"coordinates\":[[-73.5646367,45.4986819],[-73.5647776,45.4985685]]}";8;Rue Saint-Antoine Ouest;4;50;false;false;true;false;false;false;17.0;0;0;0;0;0;false;76290;6133353669;-73.558474;45.497415;76142;6133353982;-73.565987;45.498059;0;8;9;9518078;Bus 130 : Direction Montréal;"";EXO;130 N;Stationnement Incitatif Georges-Gagné;Terminus Centre-Ville
465653668;"{\"type\":\"LineString\",\"coordinates\":[[-73.5647776,45.4985685],[-73.5651977,45.4982305]]}";9;Rue Saint-Antoine Ouest;4;50;false;false;true;false;false;false;50.0;1;0;0;0;0;false;76290;6133353669;-73.558474;45.497415;76142;6133353982;-73.565987;45.498059;0;8;9;9518078;Bus 130 : Direction Montréal;"";EXO;130 N;Stationnement Incitatif Georges-Gagné;Terminus Centre-Ville
685460902;"{\"type\":\"LineString\",\"coordinates\":[[-73.5651977,45.4982305],[-73.565441,45.4983539]]}";10;Rue Mansfield;1;50;false;true;true;false;false;false;24.0;1;0;0;0;0;false;76290;6133353669;-73.558474;45.497415;76142;6133353982;-73.565987;45.498059;0;8;9;9518078;Bus 130 : Direction Montréal;"";EXO;130 N;Stationnement Incitatif Georges-Gagné;Terminus Centre-Ville
114875718;"{\"type\":\"LineString\",\"coordinates\":[[-73.565441,45.4983539],[-73.5655343,45.4983086]]}";11;"";1;50;false;true;true;false;true;false;9.0;0;0;0;0;0;false;76290;6133353669;-73.558474;45.497415;76142;6133353982;-73.565987;45.498059;0;8;9;9518078;Bus 130 : Direction Montréal;"";EXO;130 N;Stationnement Incitatif Georges-Gagné;Terminus Centre-Ville
685460901;"{\"type\":\"LineString\",\"coordinates\":[[-73.5655343,45.4983086],[-73.5656361,45.4982765],[-73.5657572,45.4981627]]}";12;"";1;50;false;true;true;false;true;false;25.0;0;0;0;0;0;false;76290;6133353669;-73.558474;45.497415;76142;6133353982;-73.565987;45.498059;0;8;9;9518078;Bus 130 : Direction Montréal;"";EXO;130 N;Stationnement Incitatif Georges-Gagné;Terminus Centre-Ville
685493152;"{\"type\":\"LineString\",\"coordinates\":[[-73.5657572,45.4981627],[-73.5660382,45.4978987]]}";13;"";1;50;false;true;true;false;true;false;37.0;0;0;0;0;0;false;76290;6133353669;-73.558474;45.497415;76142;6133353982;-73.565987;45.498059;1;8;9;9518078;Bus 130 : Direction Montréal;"";EXO;130 N;Stationnement Incitatif Georges-Gagné;Terminus Centre-Ville
