way_id;shape;index;name;nb_lanes;legal_speed;speed_zone_30;oneway;shares_bike;bike_box;bus_lane;dedicated_bus_lane;length;nb_traffic_signals;nb_crossings;nb_stops;nb_give_ways;nb_lvl_crossings;roundabout;stop_id_orig;node_id_orig;coord_x_orig;coord_y_orig;stop_id_dest;node_id_dest;coord_x_dest;coord_y_dest;nb_neighbouring_ways_bus_stop;ordre_orig;ordre_dest;id_line;line_name;colour;operator;ref;from;to
676571668;"{\"type\":\"LineString\",\"coordinates\":[[-73.8638773,45.6719438],[-73.8642507,45.6716599]]}";1;Boulevard de la Seigneurie Est;2;50;false;true;true;false;false;false;43.0;0;0;0;0;0;false;82560;6119523957;-73.864297;45.671703;82561;6119523956;-73.868091;45.668875;1;0;1;9394036;Bus 71 : GARE BLAINVILLE/ VIA CÉLORON;"";EXO;71;de la Seigneurie Est / devant la gare Blainville;de la Seigneurie Est / devant la gare Blainville
676566817;"{\"type\":\"LineString\",\"coordinates\":[[-73.8642507,45.6716599],[-73.8645244,45.6714468]]}";2;Boulevard de la Seigneurie Est;2;50;false;true;true;false;false;false;32.0;1;0;0;0;0;false;82560;6119523957;-73.864297;45.671703;82561;6119523956;-73.868091;45.668875;0;0;1;9394036;Bus 71 : GARE BLAINVILLE/ VIA CÉLORON;"";EXO;71;de la Seigneurie Est / devant la gare Blainville;de la Seigneurie Est / devant la gare Blainville
732599962;"{\"type\":\"LineString\",\"coordinates\":[[-73.8645244,45.6714468],[-73.8647079,45.6713054],[-73.8648703,45.6711799]]}";3;Boulevard de la Seigneurie Est;2;50;false;true;true;false;false;false;41.0;1;0;0;0;0;false;82560;6119523957;-73.864297;45.671703;82561;6119523956;-73.868091;45.668875;0;0;1;9394036;Bus 71 : GARE BLAINVILLE/ VIA CÉLORON;"";EXO;71;de la Seigneurie Est / devant la gare Blainville;de la Seigneurie Est / devant la gare Blainville
618535333;"{\"type\":\"LineString\",\"coordinates\":[[-73.8648703,45.6711799],[-73.8650523,45.6710394],[-73.8654485,45.6707337]]}";4;Boulevard de la Seigneurie Est;2;50;false;true;false;false;false;false;67.0;0;0;0;0;0;false;82560;6119523957;-73.864297;45.671703;82561;6119523956;-73.868091;45.668875;0;0;1;9394036;Bus 71 : GARE BLAINVILLE/ VIA CÉLORON;"";EXO;71;de la Seigneurie Est / devant la gare Blainville;de la Seigneurie Est / devant la gare Blainville
618535334;"{\"type\":\"LineString\",\"coordinates\":[[-73.8654485,45.6707337],[-73.8655724,45.6706387],[-73.8658095,45.6704579],[-73.8659643,45.6703398],[-73.8664959,45.6699344],[-73.8672978,45.6693229],[-73.8682119,45.6686258],[-73.8686876,45.6682631]]}";5;Boulevard de la Seigneurie Est;2;50;false;true;true;false;false;false;373.0;2;0;0;0;0;false;82560;6119523957;-73.864297;45.671703;82561;6119523956;-73.868091;45.668875;2;0;1;9394036;Bus 71 : GARE BLAINVILLE/ VIA CÉLORON;"";EXO;71;de la Seigneurie Est / devant la gare Blainville;de la Seigneurie Est / devant la gare Blainville
618535334;"{\"type\":\"LineString\",\"coordinates\":[[-73.8654485,45.6707337],[-73.8655724,45.6706387],[-73.8658095,45.6704579],[-73.8659643,45.6703398],[-73.8664959,45.6699344],[-73.8672978,45.6693229],[-73.8682119,45.6686258],[-73.8686876,45.6682631]]}";1;Boulevard de la Seigneurie Est;2;50;false;true;true;false;false;false;186.5;2;0;0;0;0;false;82561;6119523956;-73.868091;45.668875;83090;6119523031;-73.870134;45.667372;1;1;2;9394036;Bus 71 : GARE BLAINVILLE/ VIA CÉLORON;"";EXO;71;de la Seigneurie Est / devant la gare Blainville;de la Seigneurie Est / devant la gare Blainville
474844863;"{\"type\":\"LineString\",\"coordinates\":[[-73.8686876,45.6682631],[-73.8700452,45.6672254],[-73.8701183,45.6671695]]}";2;Boulevard de la Seigneurie Est;2;50;false;true;true;false;false;false;165.0;2;0;0;0;0;false;82561;6119523956;-73.868091;45.668875;83090;6119523031;-73.870134;45.667372;0;1;2;9394036;Bus 71 : GARE BLAINVILLE/ VIA CÉLORON;"";EXO;71;de la Seigneurie Est / devant la gare Blainville;de la Seigneurie Est / devant la gare Blainville
173545684;"{\"type\":\"LineString\",\"coordinates\":[[-73.8701183,45.6671695],[-73.8702223,45.6672368],[-73.8707186,45.6675577],[-73.8715102,45.6680697],[-73.8715198,45.6680759],[-73.8721944,45.6685177],[-73.8726563,45.6688202],[-73.8727868,45.6689017],[-73.8731797,45.6691434],[-73.8732842,45.6691437]]}";3;Boulevard Curé-Labelle;2;60;false;true;true;false;false;false;166.0;1;0;0;0;0;false;82561;6119523956;-73.868091;45.668875;83090;6119523031;-73.870134;45.667372;1;1;2;9394036;Bus 71 : GARE BLAINVILLE/ VIA CÉLORON;"";EXO;71;de la Seigneurie Est / devant la gare Blainville;de la Seigneurie Est / devant la gare Blainville
474844863;"{\"type\":\"LineString\",\"coordinates\":[[-73.8686876,45.6682631],[-73.8700452,45.6672254],[-73.8701183,45.6671695]]}";1;Boulevard de la Seigneurie Est;2;50;false;true;true;false;false;false;165.0;2;0;0;0;0;false;83090;6119523031;-73.870134;45.667372;82487;6119524128;-73.872502;45.66884;2;2;3;9394036;Bus 71 : GARE BLAINVILLE/ VIA CÉLORON;"";EXO;71;de la Seigneurie Est / devant la gare Blainville;de la Seigneurie Est / devant la gare Blainville
173545684;"{\"type\":\"LineString\",\"coordinates\":[[-73.8701183,45.6671695],[-73.8702223,45.6672368],[-73.8707186,45.6675577],[-73.8715102,45.6680697],[-73.8715198,45.6680759],[-73.8721944,45.6685177],[-73.8726563,45.6688202],[-73.8727868,45.6689017],[-73.8731797,45.6691434],[-73.8732842,45.6691437]]}";2;Boulevard Curé-Labelle;2;60;false;true;true;false;false;false;332.0;1;0;0;0;0;false;83090;6119523031;-73.870134;45.667372;82487;6119524128;-73.872502;45.66884;2;2;3;9394036;Bus 71 : GARE BLAINVILLE/ VIA CÉLORON;"";EXO;71;de la Seigneurie Est / devant la gare Blainville;de la Seigneurie Est / devant la gare Blainville
173545684;"{\"type\":\"LineString\",\"coordinates\":[[-73.8701183,45.6671695],[-73.8702223,45.6672368],[-73.8707186,45.6675577],[-73.8715102,45.6680697],[-73.8715198,45.6680759],[-73.8721944,45.6685177],[-73.8726563,45.6688202],[-73.8727868,45.6689017],[-73.8731797,45.6691434],[-73.8732842,45.6691437]]}";1;Boulevard Curé-Labelle;2;60;false;true;true;false;false;false;166.0;1;0;0;0;0;false;82487;6119524128;-73.872502;45.66884;82488;6119524127;-73.873964;45.669787;1;3;4;9394036;Bus 71 : GARE BLAINVILLE/ VIA CÉLORON;"";EXO;71;de la Seigneurie Est / devant la gare Blainville;de la Seigneurie Est / devant la gare Blainville
474367285;"{\"type\":\"LineString\",\"coordinates\":[[-73.8758103,45.6707454],[-73.8745978,45.6699766],[-73.8743002,45.6697879],[-73.8741041,45.6696635],[-73.8739713,45.6695793],[-73.8738837,45.6695238],[-73.8733034,45.6691559],[-73.8732842,45.6691437]]}";2;Boulevard Curé-Labelle;4;60;false;false;true;false;false;false;133.0;0;0;0;0;0;false;82487;6119524128;-73.872502;45.66884;82488;6119524127;-73.873964;45.669787;1;3;4;9394036;Bus 71 : GARE BLAINVILLE/ VIA CÉLORON;"";EXO;71;de la Seigneurie Est / devant la gare Blainville;de la Seigneurie Est / devant la gare Blainville
474367285;"{\"type\":\"LineString\",\"coordinates\":[[-73.8758103,45.6707454],[-73.8745978,45.6699766],[-73.8743002,45.6697879],[-73.8741041,45.6696635],[-73.8739713,45.6695793],[-73.8738837,45.6695238],[-73.8733034,45.6691559],[-73.8732842,45.6691437]]}";1;Boulevard Curé-Labelle;4;60;false;false;true;false;false;false;133.0;0;0;0;0;0;false;82488;6119524127;-73.873964;45.669787;82489;6119524126;-73.876405;45.671278;1;4;5;9394036;Bus 71 : GARE BLAINVILLE/ VIA CÉLORON;"";EXO;71;de la Seigneurie Est / devant la gare Blainville;de la Seigneurie Est / devant la gare Blainville
474367280;"{\"type\":\"LineString\",\"coordinates\":[[-73.8758103,45.6707454],[-73.8758502,45.6708571],[-73.8765019,45.6712675],[-73.8766124,45.6713368]]}";2;Boulevard Curé-Labelle;4;60;false;true;true;false;false;false;46.5;0;0;0;0;0;false;82488;6119524127;-73.873964;45.669787;82489;6119524126;-73.876405;45.671278;1;4;5;9394036;Bus 71 : GARE BLAINVILLE/ VIA CÉLORON;"";EXO;71;de la Seigneurie Est / devant la gare Blainville;de la Seigneurie Est / devant la gare Blainville
634835935;"{\"type\":\"LineString\",\"coordinates\":[[-73.8766124,45.6713368],[-73.8766158,45.6713389],[-73.8774222,45.6718432],[-73.877539,45.6718522]]}";1;Boulevard Curé-Labelle;4;60;false;true;true;false;false;false;94.0;0;0;0;0;0;false;82489;6119524126;-73.876405;45.671278;82490;6119524125;-73.879821;45.673591;2;5;6;9394036;Bus 71 : GARE BLAINVILLE/ VIA CÉLORON;"";EXO;71;de la Seigneurie Est / devant la gare Blainville;de la Seigneurie Est / devant la gare Blainville
116861676;"{\"type\":\"LineString\",\"coordinates\":[[-73.880982,45.674096],[-73.8807892,45.6739704],[-73.8805027,45.6737837],[-73.8802364,45.6736101],[-73.8795109,45.6731373],[-73.8791782,45.6729205],[-73.8782773,45.6723333],[-73.877539,45.6718522]]}";2;Boulevard Curé-Labelle;4;60;false;false;true;false;false;false;366.0;0;0;0;0;0;false;82489;6119524126;-73.876405;45.671278;82490;6119524125;-73.879821;45.673591;2;5;6;9394036;Bus 71 : GARE BLAINVILLE/ VIA CÉLORON;"";EXO;71;de la Seigneurie Est / devant la gare Blainville;de la Seigneurie Est / devant la gare Blainville
116861676;"{\"type\":\"LineString\",\"coordinates\":[[-73.880982,45.674096],[-73.8807892,45.6739704],[-73.8805027,45.6737837],[-73.8802364,45.6736101],[-73.8795109,45.6731373],[-73.8791782,45.6729205],[-73.8782773,45.6723333],[-73.877539,45.6718522]]}";1;Boulevard Curé-Labelle;4;60;false;false;true;false;false;false;183.0;0;0;0;0;0;false;82490;6119524125;-73.879821;45.673591;82491;6119524124;-73.88148;45.674591;1;6;7;9394036;Bus 71 : GARE BLAINVILLE/ VIA CÉLORON;"";EXO;71;de la Seigneurie Est / devant la gare Blainville;de la Seigneurie Est / devant la gare Blainville
474366211;"{\"type\":\"LineString\",\"coordinates\":[[-73.880982,45.674096],[-73.8810198,45.67419],[-73.8813005,45.6743597],[-73.8817086,45.6746066],[-73.8817181,45.6746123],[-73.8824674,45.6750972],[-73.8824687,45.6750981]]}";2;Boulevard Curé-Labelle;4;60;false;true;true;false;false;false;81.5;0;0;0;0;0;false;82490;6119524125;-73.879821;45.673591;82491;6119524124;-73.88148;45.674591;1;6;7;9394036;Bus 71 : GARE BLAINVILLE/ VIA CÉLORON;"";EXO;71;de la Seigneurie Est / devant la gare Blainville;de la Seigneurie Est / devant la gare Blainville
474366211;"{\"type\":\"LineString\",\"coordinates\":[[-73.880982,45.674096],[-73.8810198,45.67419],[-73.8813005,45.6743597],[-73.8817086,45.6746066],[-73.8817181,45.6746123],[-73.8824674,45.6750972],[-73.8824687,45.6750981]]}";1;Boulevard Curé-Labelle;4;60;false;true;true;false;false;false;81.5;0;0;0;0;0;false;82491;6119524124;-73.88148;45.674591;82492;6119524123;-73.884957;45.67688;1;7;8;9394036;Bus 71 : GARE BLAINVILLE/ VIA CÉLORON;"";EXO;71;de la Seigneurie Est / devant la gare Blainville;de la Seigneurie Est / devant la gare Blainville
635249560;"{\"type\":\"LineString\",\"coordinates\":[[-73.8824687,45.6750981],[-73.8826108,45.6751894]]}";2;Boulevard Curé-Labelle;4;60;false;true;true;false;false;false;16.0;0;0;0;0;0;false;82491;6119524124;-73.88148;45.674591;82492;6119524123;-73.884957;45.67688;0;7;8;9394036;Bus 71 : GARE BLAINVILLE/ VIA CÉLORON;"";EXO;71;de la Seigneurie Est / devant la gare Blainville;de la Seigneurie Est / devant la gare Blainville
635249559;"{\"type\":\"LineString\",\"coordinates\":[[-73.8826108,45.6751894],[-73.8830146,45.6754489],[-73.8830166,45.6754502],[-73.883492,45.6757663],[-73.8836249,45.6757738]]}";3;Boulevard Curé-Labelle;4;60;false;true;true;false;false;false;105.0;0;0;0;0;0;false;82491;6119524124;-73.88148;45.674591;82492;6119524123;-73.884957;45.67688;0;7;8;9394036;Bus 71 : GARE BLAINVILLE/ VIA CÉLORON;"";EXO;71;de la Seigneurie Est / devant la gare Blainville;de la Seigneurie Est / devant la gare Blainville
474366212;"{\"type\":\"LineString\",\"coordinates\":[[-73.8845869,45.6764116],[-73.8841655,45.6761258],[-73.8836249,45.6757738]]}";4;Boulevard Curé-Labelle;4;60;false;false;true;false;false;false;104.0;0;0;0;0;0;false;82491;6119524124;-73.88148;45.674591;82492;6119524123;-73.884957;45.67688;0;7;8;9394036;Bus 71 : GARE BLAINVILLE/ VIA CÉLORON;"";EXO;71;de la Seigneurie Est / devant la gare Blainville;de la Seigneurie Est / devant la gare Blainville
474364396;"{\"type\":\"LineString\",\"coordinates\":[[-73.8845869,45.6764116],[-73.8846606,45.6765184],[-73.885308,45.6769248],[-73.8859628,45.6773468],[-73.8860969,45.6773819]]}";5;Boulevard Curé-Labelle;4;60;false;true;true;false;false;false;81.0;0;0;0;0;0;false;82491;6119524124;-73.88148;45.674591;82492;6119524123;-73.884957;45.67688;1;7;8;9394036;Bus 71 : GARE BLAINVILLE/ VIA CÉLORON;"";EXO;71;de la Seigneurie Est / devant la gare Blainville;de la Seigneurie Est / devant la gare Blainville
474364396;"{\"type\":\"LineString\",\"coordinates\":[[-73.8845869,45.6764116],[-73.8846606,45.6765184],[-73.885308,45.6769248],[-73.8859628,45.6773468],[-73.8860969,45.6773819]]}";1;Boulevard Curé-Labelle;4;60;false;true;true;false;false;false;81.0;0;0;0;0;0;false;82492;6119524123;-73.884957;45.67688;82493;6119524122;-73.88893;45.679379;1;8;9;9394036;Bus 71 : GARE BLAINVILLE/ VIA CÉLORON;"";EXO;71;de la Seigneurie Est / devant la gare Blainville;de la Seigneurie Est / devant la gare Blainville
474364397;"{\"type\":\"LineString\",\"coordinates\":[[-73.8877405,45.6784441],[-73.8874112,45.6782363],[-73.8863625,45.6775518],[-73.8860969,45.6773819]]}";2;Boulevard Curé-Labelle;4;60;false;false;true;false;false;false;175.0;0;0;0;0;0;false;82492;6119524123;-73.884957;45.67688;82493;6119524122;-73.88893;45.679379;0;8;9;9394036;Bus 71 : GARE BLAINVILLE/ VIA CÉLORON;"";EXO;71;de la Seigneurie Est / devant la gare Blainville;de la Seigneurie Est / devant la gare Blainville
474363564;"{\"type\":\"LineString\",\"coordinates\":[[-73.8877405,45.6784441],[-73.8877745,45.6785323],[-73.888417,45.6789325],[-73.8890668,45.6793375],[-73.8891998,45.6793675]]}";3;Boulevard Curé-Labelle;4;60;false;true;true;false;false;false;78.0;0;0;0;0;0;false;82492;6119524123;-73.884957;45.67688;82493;6119524122;-73.88893;45.679379;1;8;9;9394036;Bus 71 : GARE BLAINVILLE/ VIA CÉLORON;"";EXO;71;de la Seigneurie Est / devant la gare Blainville;de la Seigneurie Est / devant la gare Blainville
474363564;"{\"type\":\"LineString\",\"coordinates\":[[-73.8877405,45.6784441],[-73.8877745,45.6785323],[-73.888417,45.6789325],[-73.8890668,45.6793375],[-73.8891998,45.6793675]]}";1;Boulevard Curé-Labelle;4;60;false;true;true;false;false;false;78.0;0;0;0;0;0;false;82493;6119524122;-73.88893;45.679379;82494;6119524121;-73.890539;45.68038;1;9;10;9394036;Bus 71 : GARE BLAINVILLE/ VIA CÉLORON;"";EXO;71;de la Seigneurie Est / devant la gare Blainville;de la Seigneurie Est / devant la gare Blainville
474363565;"{\"type\":\"LineString\",\"coordinates\":[[-73.8943521,45.6826873],[-73.8925222,45.6815044],[-73.8924824,45.6814785],[-73.8924488,45.6814567],[-73.8921488,45.6812634],[-73.8908218,45.6804085],[-73.8891998,45.6793675]]}";2;Boulevard Curé-Labelle;4;60;false;false;true;false;false;false;272.5;0;0;0;0;0;false;82493;6119524122;-73.88893;45.679379;82494;6119524121;-73.890539;45.68038;1;9;10;9394036;Bus 71 : GARE BLAINVILLE/ VIA CÉLORON;"";EXO;71;de la Seigneurie Est / devant la gare Blainville;de la Seigneurie Est / devant la gare Blainville
474363565;"{\"type\":\"LineString\",\"coordinates\":[[-73.8943521,45.6826873],[-73.8925222,45.6815044],[-73.8924824,45.6814785],[-73.8924488,45.6814567],[-73.8921488,45.6812634],[-73.8908218,45.6804085],[-73.8891998,45.6793675]]}";1;Boulevard Curé-Labelle;4;60;false;false;true;false;false;false;272.5;0;0;0;0;0;false;82495;6119524120;-73.892215;45.681493;82496;6119524119;-73.894614;45.683018;1;11;12;9394036;Bus 71 : GARE BLAINVILLE/ VIA CÉLORON;"";EXO;71;de la Seigneurie Est / devant la gare Blainville;de la Seigneurie Est / devant la gare Blainville
474362624;"{\"type\":\"LineString\",\"coordinates\":[[-73.8943521,45.6826873],[-73.8943606,45.682765],[-73.8947875,45.683071],[-73.8948059,45.6830832],[-73.8954784,45.6835271],[-73.8956201,45.6835216]]}";2;Boulevard Curé-Labelle;4;60;false;true;true;false;false;false;71.0;0;0;0;0;0;false;82495;6119524120;-73.892215;45.681493;82496;6119524119;-73.894614;45.683018;1;11;12;9394036;Bus 71 : GARE BLAINVILLE/ VIA CÉLORON;"";EXO;71;de la Seigneurie Est / devant la gare Blainville;de la Seigneurie Est / devant la gare Blainville
474362624;"{\"type\":\"LineString\",\"coordinates\":[[-73.8943521,45.6826873],[-73.8943606,45.682765],[-73.8947875,45.683071],[-73.8948059,45.6830832],[-73.8954784,45.6835271],[-73.8956201,45.6835216]]}";1;Boulevard Curé-Labelle;4;60;false;true;true;false;false;false;71.0;0;0;0;0;0;false;82496;6119524119;-73.894614;45.683018;82497;3512226661;-73.898557;45.685561;1;12;13;9394036;Bus 71 : GARE BLAINVILLE/ VIA CÉLORON;"";EXO;71;de la Seigneurie Est / devant la gare Blainville;de la Seigneurie Est / devant la gare Blainville
474362626;"{\"type\":\"LineString\",\"coordinates\":[[-73.8966767,45.6841646],[-73.8956201,45.6835216]]}";2;Boulevard Curé-Labelle;4;60;false;false;true;false;false;false;109.0;0;0;0;0;0;false;82496;6119524119;-73.894614;45.683018;82497;3512226661;-73.898557;45.685561;0;12;13;9394036;Bus 71 : GARE BLAINVILLE/ VIA CÉLORON;"";EXO;71;de la Seigneurie Est / devant la gare Blainville;de la Seigneurie Est / devant la gare Blainville
474361188;"{\"type\":\"LineString\",\"coordinates\":[[-73.8966767,45.6841646],[-73.8967244,45.6842797],[-73.8970683,45.6845132],[-73.8971751,45.6845789],[-73.8974957,45.6847807],[-73.8978163,45.6849854],[-73.8986615,45.6855289],[-73.8987843,45.6856158],[-73.8997043,45.6861891],[-73.8998082,45.6861905]]}";3;Boulevard Curé-Labelle;4;60;false;true;true;false;false;false;168.0;0;0;0;0;0;false;82496;6119524119;-73.894614;45.683018;82497;3512226661;-73.898557;45.685561;1;12;13;9394036;Bus 71 : GARE BLAINVILLE/ VIA CÉLORON;"";EXO;71;de la Seigneurie Est / devant la gare Blainville;de la Seigneurie Est / devant la gare Blainville
474361188;"{\"type\":\"LineString\",\"coordinates\":[[-73.8966767,45.6841646],[-73.8967244,45.6842797],[-73.8970683,45.6845132],[-73.8971751,45.6845789],[-73.8974957,45.6847807],[-73.8978163,45.6849854],[-73.8986615,45.6855289],[-73.8987843,45.6856158],[-73.8997043,45.6861891],[-73.8998082,45.6861905]]}";1;Boulevard Curé-Labelle;4;60;false;true;true;false;false;false;168.0;0;0;0;0;0;false;82497;3512226661;-73.898557;45.685561;82498;6119524117;-73.901211;45.687255;1;13;14;9394036;Bus 71 : GARE BLAINVILLE/ VIA CÉLORON;"";EXO;71;de la Seigneurie Est / devant la gare Blainville;de la Seigneurie Est / devant la gare Blainville
474361190;"{\"type\":\"LineString\",\"coordinates\":[[-73.9012,45.6870689],[-73.8998082,45.6861905]]}";2;Boulevard Curé-Labelle;4;60;false;false;true;false;false;false;146.0;0;0;0;0;0;false;82497;3512226661;-73.898557;45.685561;82498;6119524117;-73.901211;45.687255;0;13;14;9394036;Bus 71 : GARE BLAINVILLE/ VIA CÉLORON;"";EXO;71;de la Seigneurie Est / devant la gare Blainville;de la Seigneurie Est / devant la gare Blainville
474358048;"{\"type\":\"LineString\",\"coordinates\":[[-73.9012,45.6870689],[-73.9012113,45.6871408],[-73.9015908,45.6873905]]}";3;Boulevard Curé-Labelle;4;60;false;true;true;false;false;false;24.5;0;0;0;0;0;false;82497;3512226661;-73.898557;45.685561;82498;6119524117;-73.901211;45.687255;1;13;14;9394036;Bus 71 : GARE BLAINVILLE/ VIA CÉLORON;"";EXO;71;de la Seigneurie Est / devant la gare Blainville;de la Seigneurie Est / devant la gare Blainville
474358048;"{\"type\":\"LineString\",\"coordinates\":[[-73.9012,45.6870689],[-73.9012113,45.6871408],[-73.9015908,45.6873905]]}";1;Boulevard Curé-Labelle;4;60;false;true;true;false;false;false;24.5;0;0;0;0;0;false;82498;6119524117;-73.901211;45.687255;82499;6119524116;-73.902865;45.688323;1;14;15;9394036;Bus 71 : GARE BLAINVILLE/ VIA CÉLORON;"";EXO;71;de la Seigneurie Est / devant la gare Blainville;de la Seigneurie Est / devant la gare Blainville
474358044;"{\"type\":\"LineString\",\"coordinates\":[[-73.9015908,45.6873905],[-73.9022239,45.6878103],[-73.9024895,45.6879848],[-73.9026165,45.6880009]]}";2;Boulevard Curé-Labelle;4;50;false;true;true;false;false;false;107.0;0;0;0;0;0;false;82498;6119524117;-73.901211;45.687255;82499;6119524116;-73.902865;45.688323;0;14;15;9394036;Bus 71 : GARE BLAINVILLE/ VIA CÉLORON;"";EXO;71;de la Seigneurie Est / devant la gare Blainville;de la Seigneurie Est / devant la gare Blainville
474358042;"{\"type\":\"LineString\",\"coordinates\":[[-73.9031235,45.6883098],[-73.9026165,45.6880009]]}";3;Boulevard Curé-Labelle;4;50;false;false;false;false;false;false;26.5;0;0;0;0;0;false;82498;6119524117;-73.901211;45.687255;82499;6119524116;-73.902865;45.688323;1;14;15;9394036;Bus 71 : GARE BLAINVILLE/ VIA CÉLORON;"";EXO;71;de la Seigneurie Est / devant la gare Blainville;de la Seigneurie Est / devant la gare Blainville
474358042;"{\"type\":\"LineString\",\"coordinates\":[[-73.9031235,45.6883098],[-73.9026165,45.6880009]]}";1;Boulevard Curé-Labelle;4;50;false;false;false;false;false;false;26.5;0;0;0;0;0;false;82499;6119524116;-73.902865;45.688323;82500;6119524115;-73.9049;45.689624;1;15;16;9394036;Bus 71 : GARE BLAINVILLE/ VIA CÉLORON;"";EXO;71;de la Seigneurie Est / devant la gare Blainville;de la Seigneurie Est / devant la gare Blainville
242227446;"{\"type\":\"LineString\",\"coordinates\":[[-73.9128202,45.6946091],[-73.9120536,45.6941111],[-73.9088548,45.6920331],[-73.9081591,45.6915812],[-73.9075819,45.6912062],[-73.9061393,45.690269],[-73.9055947,45.6899152],[-73.9051318,45.6896145],[-73.9041823,45.6889976],[-73.9040707,45.6889251],[-73.9031235,45.6883098]]}";2;Boulevard Curé-Labelle;4;50;false;false;true;false;false;false;515.0;0;0;0;0;0;false;82499;6119524116;-73.902865;45.688323;82500;6119524115;-73.9049;45.689624;1;15;16;9394036;Bus 71 : GARE BLAINVILLE/ VIA CÉLORON;"";EXO;71;de la Seigneurie Est / devant la gare Blainville;de la Seigneurie Est / devant la gare Blainville
242227446;"{\"type\":\"LineString\",\"coordinates\":[[-73.9128202,45.6946091],[-73.9120536,45.6941111],[-73.9088548,45.6920331],[-73.9081591,45.6915812],[-73.9075819,45.6912062],[-73.9061393,45.690269],[-73.9055947,45.6899152],[-73.9051318,45.6896145],[-73.9041823,45.6889976],[-73.9040707,45.6889251],[-73.9031235,45.6883098]]}";1;Boulevard Curé-Labelle;4;50;false;false;true;false;false;false;515.0;0;0;0;0;0;false;82502;6119524113;-73.912116;45.694199;82518;6119524098;-73.914469;45.695709;1;18;19;9394036;Bus 71 : GARE BLAINVILLE/ VIA CÉLORON;"";EXO;71;de la Seigneurie Est / devant la gare Blainville;de la Seigneurie Est / devant la gare Blainville
455685125;"{\"type\":\"LineString\",\"coordinates\":[[-73.9128202,45.6946091],[-73.9130216,45.6947934],[-73.9144121,45.6957042]]}";2;Boulevard Curé-Labelle;4;50;false;true;true;false;false;false;174.0;1;0;0;0;0;false;82502;6119524113;-73.912116;45.694199;82518;6119524098;-73.914469;45.695709;0;18;19;9394036;Bus 71 : GARE BLAINVILLE/ VIA CÉLORON;"";EXO;71;de la Seigneurie Est / devant la gare Blainville;de la Seigneurie Est / devant la gare Blainville
256319686;"{\"type\":\"LineString\",\"coordinates\":[[-73.9144121,45.6957042],[-73.9143311,45.6957696],[-73.9139994,45.6959785],[-73.9136587,45.6961788],[-73.9133676,45.6963347],[-73.912796,45.696551],[-73.9122611,45.6966404],[-73.9115411,45.696679],[-73.9109577,45.6966884]]}";3;Boulevard Céloron;1;50;false;true;false;false;false;false;151.5;1;0;0;0;0;false;82502;6119524113;-73.912116;45.694199;82518;6119524098;-73.914469;45.695709;1;18;19;9394036;Bus 71 : GARE BLAINVILLE/ VIA CÉLORON;"";EXO;71;de la Seigneurie Est / devant la gare Blainville;de la Seigneurie Est / devant la gare Blainville
455685125;"{\"type\":\"LineString\",\"coordinates\":[[-73.9128202,45.6946091],[-73.9130216,45.6947934],[-73.9144121,45.6957042]]}";1;Boulevard Curé-Labelle;4;50;false;true;true;false;false;false;174.0;1;0;0;0;0;false;82518;6119524098;-73.914469;45.695709;83256;6119522939;-73.909146;45.69647;2;19;20;9394036;Bus 71 : GARE BLAINVILLE/ VIA CÉLORON;"";EXO;71;de la Seigneurie Est / devant la gare Blainville;de la Seigneurie Est / devant la gare Blainville
256319686;"{\"type\":\"LineString\",\"coordinates\":[[-73.9144121,45.6957042],[-73.9143311,45.6957696],[-73.9139994,45.6959785],[-73.9136587,45.6961788],[-73.9133676,45.6963347],[-73.912796,45.696551],[-73.9122611,45.6966404],[-73.9115411,45.696679],[-73.9109577,45.6966884]]}";2;Boulevard Céloron;1;50;false;true;false;false;false;false;303.0;1;0;0;0;0;false;82518;6119524098;-73.914469;45.695709;83256;6119522939;-73.909146;45.69647;0;19;20;9394036;Bus 71 : GARE BLAINVILLE/ VIA CÉLORON;"";EXO;71;de la Seigneurie Est / devant la gare Blainville;de la Seigneurie Est / devant la gare Blainville
46555783;"{\"type\":\"LineString\",\"coordinates\":[[-73.9065818,45.6968258],[-73.9084643,45.6965688],[-73.9090509,45.6965445],[-73.9095547,45.6965832],[-73.9109577,45.6966884]]}";3;Boulevard Céloron;1;50;false;false;false;false;false;false;345.0;0;0;0;0;0;false;82518;6119524098;-73.914469;45.695709;83256;6119522939;-73.909146;45.69647;2;19;20;9394036;Bus 71 : GARE BLAINVILLE/ VIA CÉLORON;"";EXO;71;de la Seigneurie Est / devant la gare Blainville;de la Seigneurie Est / devant la gare Blainville
46417431;"{\"type\":\"LineString\",\"coordinates\":[[-73.9065818,45.6968258],[-73.9046885,45.6970971],[-73.904603,45.6971076],[-73.9033991,45.6972701]]}";1;Boulevard Céloron;2;50;false;false;false;false;false;false;253.0;0;0;0;0;0;false;82601;6119523924;-73.90679;45.696732;82577;6119523943;-73.90213;45.697348;2;21;22;9394036;Bus 71 : GARE BLAINVILLE/ VIA CÉLORON;"";EXO;71;de la Seigneurie Est / devant la gare Blainville;de la Seigneurie Est / devant la gare Blainville
46417458;"{\"type\":\"LineString\",\"coordinates\":[[-73.9033991,45.6972701],[-73.9030866,45.6972714],[-73.9025955,45.6973689],[-73.9020458,45.6975196]]}";2;Boulevard Céloron;1;50;false;true;false;false;false;false;110.0;0;0;0;0;0;false;82601;6119523924;-73.90679;45.696732;82577;6119523943;-73.90213;45.697348;2;21;22;9394036;Bus 71 : GARE BLAINVILLE/ VIA CÉLORON;"";EXO;71;de la Seigneurie Est / devant la gare Blainville;de la Seigneurie Est / devant la gare Blainville
46417458;"{\"type\":\"LineString\",\"coordinates\":[[-73.9033991,45.6972701],[-73.9030866,45.6972714],[-73.9025955,45.6973689],[-73.9020458,45.6975196]]}";1;Boulevard Céloron;1;50;false;true;false;false;false;false;55.0;0;0;0;0;0;false;82577;6119523943;-73.90213;45.697348;82578;6119523942;-73.899239;45.699002;1;22;23;9394036;Bus 71 : GARE BLAINVILLE/ VIA CÉLORON;"";EXO;71;de la Seigneurie Est / devant la gare Blainville;de la Seigneurie Est / devant la gare Blainville
46417426;"{\"type\":\"LineString\",\"coordinates\":[[-73.9020458,45.6975196],[-73.9018168,45.6976047],[-73.901477,45.6977615],[-73.9007169,45.698231],[-73.9006506,45.6982728],[-73.9004638,45.698389],[-73.9003851,45.6984407],[-73.9000984,45.6986266],[-73.8998244,45.6987918],[-73.899586,45.6989275],[-73.8993065,45.6990497],[-73.89906,45.6991181],[-73.8986191,45.6992052],[-73.8981522,45.6992403],[-73.8978817,45.6992299],[-73.8976301,45.6992055],[-73.8972359,45.6991443],[-73.8970604,45.6990838],[-73.8967846,45.6989771],[-73.8965495,45.6988522],[-73.896311,45.6987104],[-73.8960145,45.6984886],[-73.8957269,45.6982772]]}";2;Boulevard Céloron;1;50;false;true;false;false;false;false;296.0;0;1;0;0;0;false;82577;6119523943;-73.90213;45.697348;82578;6119523942;-73.899239;45.699002;1;22;23;9394036;Bus 71 : GARE BLAINVILLE/ VIA CÉLORON;"";EXO;71;de la Seigneurie Est / devant la gare Blainville;de la Seigneurie Est / devant la gare Blainville
46417426;"{\"type\":\"LineString\",\"coordinates\":[[-73.9020458,45.6975196],[-73.9018168,45.6976047],[-73.901477,45.6977615],[-73.9007169,45.698231],[-73.9006506,45.6982728],[-73.9004638,45.698389],[-73.9003851,45.6984407],[-73.9000984,45.6986266],[-73.8998244,45.6987918],[-73.899586,45.6989275],[-73.8993065,45.6990497],[-73.89906,45.6991181],[-73.8986191,45.6992052],[-73.8981522,45.6992403],[-73.8978817,45.6992299],[-73.8976301,45.6992055],[-73.8972359,45.6991443],[-73.8970604,45.6990838],[-73.8967846,45.6989771],[-73.8965495,45.6988522],[-73.896311,45.6987104],[-73.8960145,45.6984886],[-73.8957269,45.6982772]]}";1;Boulevard Céloron;1;50;false;true;false;false;false;false;296.0;0;1;0;0;0;false;82578;6119523942;-73.899239;45.699002;82579;6119523941;-73.89438;45.696878;1;23;24;9394036;Bus 71 : GARE BLAINVILLE/ VIA CÉLORON;"";EXO;71;de la Seigneurie Est / devant la gare Blainville;de la Seigneurie Est / devant la gare Blainville
236724175;"{\"type\":\"LineString\",\"coordinates\":[[-73.8957269,45.6982772],[-73.895438,45.6980311],[-73.8950439,45.6976343],[-73.8946919,45.6972974],[-73.8941293,45.6968581],[-73.8940348,45.6967888]]}";2;Boulevard Céloron;1;50;false;true;true;false;false;false;106.0;0;0;0;0;0;false;82578;6119523942;-73.899239;45.699002;82579;6119523941;-73.89438;45.696878;1;23;24;9394036;Bus 71 : GARE BLAINVILLE/ VIA CÉLORON;"";EXO;71;de la Seigneurie Est / devant la gare Blainville;de la Seigneurie Est / devant la gare Blainville
236724175;"{\"type\":\"LineString\",\"coordinates\":[[-73.8957269,45.6982772],[-73.895438,45.6980311],[-73.8950439,45.6976343],[-73.8946919,45.6972974],[-73.8941293,45.6968581],[-73.8940348,45.6967888]]}";1;Boulevard Céloron;1;50;false;true;true;false;false;false;106.0;0;0;0;0;0;false;82579;6119523941;-73.89438;45.696878;82580;6119523940;-73.891353;45.694709;1;24;25;9394036;Bus 71 : GARE BLAINVILLE/ VIA CÉLORON;"";EXO;71;de la Seigneurie Est / devant la gare Blainville;de la Seigneurie Est / devant la gare Blainville
236723040;"{\"type\":\"LineString\",\"coordinates\":[[-73.8940348,45.6967888],[-73.8934131,45.69633]]}";2;Boulevard Céloron;1;50;false;true;true;false;false;false;71.0;0;0;0;0;0;false;82579;6119523941;-73.89438;45.696878;82580;6119523940;-73.891353;45.694709;0;24;25;9394036;Bus 71 : GARE BLAINVILLE/ VIA CÉLORON;"";EXO;71;de la Seigneurie Est / devant la gare Blainville;de la Seigneurie Est / devant la gare Blainville
46417550;"{\"type\":\"LineString\",\"coordinates\":[[-73.8934131,45.69633],[-73.8912733,45.6947611]]}";3;Boulevard Céloron;1;50;false;true;true;false;false;false;121.0;0;0;0;0;0;false;82579;6119523941;-73.89438;45.696878;82580;6119523940;-73.891353;45.694709;1;24;25;9394036;Bus 71 : GARE BLAINVILLE/ VIA CÉLORON;"";EXO;71;de la Seigneurie Est / devant la gare Blainville;de la Seigneurie Est / devant la gare Blainville
46417555;"{\"type\":\"LineString\",\"coordinates\":[[-73.8912733,45.6947611],[-73.8889061,45.6930099]]}";1;Boulevard Céloron;1;50;false;true;true;false;false;false;134.0;0;0;0;0;0;false;82581;6119523939;-73.88919;45.693068;82582;6119523938;-73.885157;45.69014;1;26;27;9394036;Bus 71 : GARE BLAINVILLE/ VIA CÉLORON;"";EXO;71;de la Seigneurie Est / devant la gare Blainville;de la Seigneurie Est / devant la gare Blainville
46417305;"{\"type\":\"LineString\",\"coordinates\":[[-73.8889061,45.6930099],[-73.8870972,45.6916863],[-73.885395,45.6904407],[-73.884968,45.6901813],[-73.8848408,45.690117]]}";2;Boulevard Céloron;1;50;false;true;true;false;false;false;226.0;0;0;0;0;0;false;82581;6119523939;-73.88919;45.693068;82582;6119523938;-73.885157;45.69014;1;26;27;9394036;Bus 71 : GARE BLAINVILLE/ VIA CÉLORON;"";EXO;71;de la Seigneurie Est / devant la gare Blainville;de la Seigneurie Est / devant la gare Blainville
46417305;"{\"type\":\"LineString\",\"coordinates\":[[-73.8889061,45.6930099],[-73.8870972,45.6916863],[-73.885395,45.6904407],[-73.884968,45.6901813],[-73.8848408,45.690117]]}";1;Boulevard Céloron;1;50;false;true;true;false;false;false;226.0;0;0;0;0;0;false;82582;6119523938;-73.885157;45.69014;82820;6119523791;-73.881366;45.689007;1;27;28;9394036;Bus 71 : GARE BLAINVILLE/ VIA CÉLORON;"";EXO;71;de la Seigneurie Est / devant la gare Blainville;de la Seigneurie Est / devant la gare Blainville
46417541;"{\"type\":\"LineString\",\"coordinates\":[[-73.8848408,45.690117],[-73.8841159,45.6897589],[-73.8835164,45.689555]]}";2;Boulevard Céloron;1;50;false;true;true;false;false;false;121.0;0;0;0;0;0;false;82582;6119523938;-73.885157;45.69014;82820;6119523791;-73.881366;45.689007;0;27;28;9394036;Bus 71 : GARE BLAINVILLE/ VIA CÉLORON;"";EXO;71;de la Seigneurie Est / devant la gare Blainville;de la Seigneurie Est / devant la gare Blainville
46417487;"{\"type\":\"LineString\",\"coordinates\":[[-73.8835164,45.689555],[-73.8830517,45.6894032],[-73.8824445,45.6892857],[-73.8811526,45.6890842],[-73.8783841,45.6886677]]}";3;Boulevard Céloron;1;50;false;true;true;false;false;false;206.5;0;0;0;0;0;false;82582;6119523938;-73.885157;45.69014;82820;6119523791;-73.881366;45.689007;1;27;28;9394036;Bus 71 : GARE BLAINVILLE/ VIA CÉLORON;"";EXO;71;de la Seigneurie Est / devant la gare Blainville;de la Seigneurie Est / devant la gare Blainville
46417487;"{\"type\":\"LineString\",\"coordinates\":[[-73.8835164,45.689555],[-73.8830517,45.6894032],[-73.8824445,45.6892857],[-73.8811526,45.6890842],[-73.8783841,45.6886677]]}";1;Boulevard Céloron;1;50;false;true;true;false;false;false;206.5;0;0;0;0;0;false;82820;6119523791;-73.881366;45.689007;82583;6119523937;-73.8777584;45.6884419;1;28;29;9394036;Bus 71 : GARE BLAINVILLE/ VIA CÉLORON;"";EXO;71;de la Seigneurie Est / devant la gare Blainville;de la Seigneurie Est / devant la gare Blainville
46493684;"{\"type\":\"LineString\",\"coordinates\":[[-73.8783841,45.6886677],[-73.8775786,45.6884887]]}";2;Boulevard Céloron;1;50;false;true;true;false;false;false;33.0;0;0;0;0;0;false;82820;6119523791;-73.881366;45.689007;82583;6119523937;-73.8777584;45.6884419;1;28;29;9394036;Bus 71 : GARE BLAINVILLE/ VIA CÉLORON;"";EXO;71;de la Seigneurie Est / devant la gare Blainville;de la Seigneurie Est / devant la gare Blainville
46493689;"{\"type\":\"LineString\",\"coordinates\":[[-73.8775786,45.6884887],[-73.8767872,45.6882469],[-73.8765252,45.6882037]]}";1;Boulevard Céloron;1;50;false;true;true;false;false;false;89.0;0;0;0;0;0;false;82583;6119523937;-73.8777584;45.6884419;82584;4915812042;-73.872141;45.684947;2;29;30;9394036;Bus 71 : GARE BLAINVILLE/ VIA CÉLORON;"";EXO;71;de la Seigneurie Est / devant la gare Blainville;de la Seigneurie Est / devant la gare Blainville
46493609;"{\"type\":\"LineString\",\"coordinates\":[[-73.8718709,45.6849312],[-73.874475,45.6869199],[-73.875277,45.6875324],[-73.8758832,45.6879161],[-73.8765252,45.6882037]]}";2;Boulevard Céloron;2;50;false;false;true;false;false;false;515.0;0;0;0;0;0;false;82583;6119523937;-73.8777584;45.6884419;82584;4915812042;-73.872141;45.684947;2;29;30;9394036;Bus 71 : GARE BLAINVILLE/ VIA CÉLORON;"";EXO;71;de la Seigneurie Est / devant la gare Blainville;de la Seigneurie Est / devant la gare Blainville
46493609;"{\"type\":\"LineString\",\"coordinates\":[[-73.8718709,45.6849312],[-73.874475,45.6869199],[-73.875277,45.6875324],[-73.8758832,45.6879161],[-73.8765252,45.6882037]]}";1;Boulevard Céloron;2;50;false;false;true;false;false;false;257.5;0;0;0;0;0;false;82584;4915812042;-73.872141;45.684947;82585;6119523935;-73.869921;45.683268;1;30;31;9394036;Bus 71 : GARE BLAINVILLE/ VIA CÉLORON;"";EXO;71;de la Seigneurie Est / devant la gare Blainville;de la Seigneurie Est / devant la gare Blainville
46493738;"{\"type\":\"LineString\",\"coordinates\":[[-73.8717705,45.6848579],[-73.871826,45.6848984],[-73.8718709,45.6849312]]}";2;Boulevard Céloron;2;50;false;false;true;false;false;false;12.0;0;0;0;0;0;false;82584;4915812042;-73.872141;45.684947;82585;6119523935;-73.869921;45.683268;0;30;31;9394036;Bus 71 : GARE BLAINVILLE/ VIA CÉLORON;"";EXO;71;de la Seigneurie Est / devant la gare Blainville;de la Seigneurie Est / devant la gare Blainville
281957618;"{\"type\":\"LineString\",\"coordinates\":[[-73.8696445,45.683253],[-73.8717705,45.6848579]]}";3;Boulevard Céloron;2;50;false;false;true;false;false;false;122.0;0;0;0;0;0;false;82584;4915812042;-73.872141;45.684947;82585;6119523935;-73.869921;45.683268;1;30;31;9394036;Bus 71 : GARE BLAINVILLE/ VIA CÉLORON;"";EXO;71;de la Seigneurie Est / devant la gare Blainville;de la Seigneurie Est / devant la gare Blainville
46493742;"{\"type\":\"LineString\",\"coordinates\":[[-73.8715711,45.6819579],[-73.8711551,45.6822375],[-73.8711053,45.6822711],[-73.8703784,45.6827597],[-73.8696445,45.683253]]}";1;Chemin du Plan-Bouchard;2;30;false;false;false;false;false;false;104.0;0;0;0;0;0;false;83085;6119523036;-73.871166;45.682236;83086;6119523035;-73.873578;45.680774;1;32;33;9394036;Bus 71 : GARE BLAINVILLE/ VIA CÉLORON;"";EXO;71;de la Seigneurie Est / devant la gare Blainville;de la Seigneurie Est / devant la gare Blainville
46493614;"{\"type\":\"LineString\",\"coordinates\":[[-73.8736323,45.6806142],[-73.8735839,45.6806448],[-73.8726211,45.6812729],[-73.8723605,45.6814429],[-73.8719196,45.6817306],[-73.8715711,45.6819579]]}";2;Chemin du Plan-Bouchard;2;30;false;false;false;false;false;false;110.0;0;0;0;0;0;false;83085;6119523036;-73.871166;45.682236;83086;6119523035;-73.873578;45.680774;1;32;33;9394036;Bus 71 : GARE BLAINVILLE/ VIA CÉLORON;"";EXO;71;de la Seigneurie Est / devant la gare Blainville;de la Seigneurie Est / devant la gare Blainville
297348545;"{\"type\":\"LineString\",\"coordinates\":[[-73.8630061,45.6725966],[-73.8634328,45.672917],[-73.8639617,45.6733161],[-73.8644125,45.673679],[-73.8645235,45.673766],[-73.8648728,45.6740495],[-73.8651442,45.674327],[-73.8653458,45.6746485],[-73.8655294,45.6748811],[-73.8658612,45.6752216],[-73.8663406,45.6755845],[-73.8669817,45.6760397],[-73.8676596,45.6765647],[-73.8682843,45.6770365],[-73.8689485,45.6775381],[-73.8697623,45.6781564],[-73.8699501,45.6782785],[-73.8702818,45.6784719],[-73.8702867,45.6784782],[-73.8705909,45.6786383],[-73.8707312,45.6787058],[-73.8713245,45.6789914],[-73.8713714,45.6790174],[-73.871876,45.6792974],[-73.8720396,45.6794057],[-73.8722324,45.6795565],[-73.8722777,45.6795929],[-73.8726043,45.6798555],[-73.8726447,45.679888],[-73.8729707,45.6801277],[-73.8736323,45.6806142]]}";1;Rue de la Mairie;1;50;false;false;true;false;false;false;611.5;1;0;0;0;0;false;83089;6119523032;-73.866017;45.675245;82560;6119523957;-73.864297;45.671703;1;36;37;9394036;Bus 71 : GARE BLAINVILLE/ VIA CÉLORON;"";EXO;71;de la Seigneurie Est / devant la gare Blainville;de la Seigneurie Est / devant la gare Blainville
676566796;"{\"type\":\"LineString\",\"coordinates\":[[-73.8630061,45.6725966],[-73.8638753,45.6719455],[-73.8638773,45.6719438]]}";2;Boulevard de la Seigneurie Est;2;50;false;true;true;false;false;false;100.0;1;0;0;0;0;false;83089;6119523032;-73.866017;45.675245;82560;6119523957;-73.864297;45.671703;0;36;37;9394036;Bus 71 : GARE BLAINVILLE/ VIA CÉLORON;"";EXO;71;de la Seigneurie Est / devant la gare Blainville;de la Seigneurie Est / devant la gare Blainville
676571668;"{\"type\":\"LineString\",\"coordinates\":[[-73.8638773,45.6719438],[-73.8642507,45.6716599]]}";3;Boulevard de la Seigneurie Est;2;50;false;true;true;false;false;false;43.0;0;0;0;0;0;false;83089;6119523032;-73.866017;45.675245;82560;6119523957;-73.864297;45.671703;1;36;37;9394036;Bus 71 : GARE BLAINVILLE/ VIA CÉLORON;"";EXO;71;de la Seigneurie Est / devant la gare Blainville;de la Seigneurie Est / devant la gare Blainville
