way_id;shape;index;name;nb_lanes;legal_speed;speed_zone_30;oneway;shares_bike;bike_box;bus_lane;dedicated_bus_lane;length;nb_traffic_signals;nb_crossings;nb_stops;nb_give_ways;nb_lvl_crossings;roundabout;stop_id_orig;node_id_orig;coord_x_orig;coord_y_orig;stop_id_dest;node_id_dest;coord_x_dest;coord_y_dest;nb_neighbouring_ways_bus_stop;order_orig;order_dest;id_line;line_name;colour;operator;ref;from;to
4571776;"{\"type\":\"LineString\",\"coordinates\":[[-6.295006,53.3481283],[-6.2948184,53.3481182],[-6.2947618,53.348115],[-6.2944669,53.348099],[-6.294304,53.3480902],[-6.2940944,53.3480788],[-6.2937491,53.34806],[-6.2935629,53.3480499],[-6.2932297,53.3480318],[-6.2931213,53.3480282],[-6.2928455,53.3479965],[-6.29272,53.3479691],[-6.2923827,53.3478951],[-6.2921079,53.3478334],[-6.291951,53.3477968],[-6.2918851,53.347781]]}";1;Parkgate Street;4;50;false;false;true;false;false;false;215.0;1;1;0;0;0;false;7078;255018275;-6.292878;53.3478982;1479;650220218;-6.2692764;53.3459427;1;0;1;17740;25 - Merrion Square - Lucan (Dodsboro);"";Dublin Bus;25;Merrion Square;Dodsboro
12854625;"{\"type\":\"LineString\",\"coordinates\":[[-6.2918851,53.347781],[-6.2918271,53.3477667],[-6.2917555,53.3477491],[-6.2917066,53.3477366],[-6.2910674,53.3475839]]}";2;Wolfe Tone Quay;1;50;false;false;true;false;false;false;60.0;1;0;0;0;0;false;7078;255018275;-6.292878;53.3478982;1479;650220218;-6.2692764;53.3459427;0;0;1;17740;25 - Merrion Square - Lucan (Dodsboro);"";Dublin Bus;25;Merrion Square;Dodsboro
22977991;"{\"type\":\"LineString\",\"coordinates\":[[-6.290772,53.3474315],[-6.2909215,53.3475197],[-6.2910674,53.3475839]]}";3;Wolfe Tone Quay;1;50;false;true;true;false;false;false;27.0;0;0;0;0;0;false;7078;255018275;-6.292878;53.3478982;1479;650220218;-6.2692764;53.3459427;0;0;1;17740;25 - Merrion Square - Lucan (Dodsboro);"";Dublin Bus;25;Merrion Square;Dodsboro
27191306;"{\"type\":\"LineString\",\"coordinates\":[[-6.2907784,53.3474185],[-6.290772,53.3474315]]}";4;Frank Sherwin Bridge;1;50;false;true;true;false;false;false;2.0;0;0;0;0;0;false;7078;255018275;-6.292878;53.3478982;1479;650220218;-6.2692764;53.3459427;0;0;1;17740;25 - Merrion Square - Lucan (Dodsboro);"";Dublin Bus;25;Merrion Square;Dodsboro
27191307;"{\"type\":\"LineString\",\"coordinates\":[[-6.2910161,53.3470043],[-6.2907784,53.3474185]]}";5;Frank Sherwin Bridge;3;50;false;true;true;false;false;false;50.0;0;0;0;0;0;false;7078;255018275;-6.292878;53.3478982;1479;650220218;-6.2692764;53.3459427;0;0;1;17740;25 - Merrion Square - Lucan (Dodsboro);"";Dublin Bus;25;Merrion Square;Dodsboro
4401971;"{\"type\":\"LineString\",\"coordinates\":[[-6.2910757,53.3469529],[-6.2910161,53.3470043]]}";6;Frank Sherwin Bridge;1;50;false;true;true;false;false;false;8.0;1;0;0;0;0;false;7078;255018275;-6.292878;53.3478982;1479;650220218;-6.2692764;53.3459427;0;0;1;17740;25 - Merrion Square - Lucan (Dodsboro);"";Dublin Bus;25;Merrion Square;Dodsboro
4401986;"{\"type\":\"LineString\",\"coordinates\":[[-6.2907329,53.3468813],[-6.2910757,53.3469529]]}";7;Victoria Quay;1;50;false;true;true;false;false;false;25.0;1;0;0;0;0;false;7078;255018275;-6.292878;53.3478982;1479;650220218;-6.2692764;53.3459427;0;0;1;17740;25 - Merrion Square - Lucan (Dodsboro);"";Dublin Bus;25;Merrion Square;Dodsboro
13907386;"{\"type\":\"LineString\",\"coordinates\":[[-6.2841428,53.3465111],[-6.2852514,53.3465383],[-6.2857407,53.3465574],[-6.2891318,53.3466675],[-6.2893948,53.3466989],[-6.290175,53.3467942],[-6.2907329,53.3468813]]}";8;Victoria Quay;3;50;false;true;true;false;false;false;445.0;1;0;0;0;0;false;7078;255018275;-6.292878;53.3478982;1479;650220218;-6.2692764;53.3459427;0;0;1;17740;25 - Merrion Square - Lucan (Dodsboro);"";Dublin Bus;25;Merrion Square;Dodsboro
37721990;"{\"type\":\"LineString\",\"coordinates\":[[-6.2826667,53.346375],[-6.2834173,53.3464728],[-6.2838122,53.3465035],[-6.2841428,53.3465111]]}";9;Usher's Island;2;50;false;true;true;false;false;false;101.0;2;0;0;0;0;false;7078;255018275;-6.292878;53.3478982;1479;650220218;-6.2692764;53.3459427;0;0;1;17740;25 - Merrion Square - Lucan (Dodsboro);"";Dublin Bus;25;Merrion Square;Dodsboro
38587823;"{\"type\":\"LineString\",\"coordinates\":[[-6.281352,53.3462446],[-6.2826667,53.346375]]}";10;Usher's Island;3;50;false;true;true;false;false;false;90.0;1;0;0;0;0;false;7078;255018275;-6.292878;53.3478982;1479;650220218;-6.2692764;53.3459427;0;0;1;17740;25 - Merrion Square - Lucan (Dodsboro);"";Dublin Bus;25;Merrion Square;Dodsboro
4408221;"{\"type\":\"LineString\",\"coordinates\":[[-6.2805357,53.3461452],[-6.281352,53.3462446]]}";11;Usher's Island;1;50;false;true;true;false;false;false;56.0;1;0;0;0;0;false;7078;255018275;-6.292878;53.3478982;1479;650220218;-6.2692764;53.3459427;0;0;1;17740;25 - Merrion Square - Lucan (Dodsboro);"";Dublin Bus;25;Merrion Square;Dodsboro
4401781;"{\"type\":\"LineString\",\"coordinates\":[[-6.2761065,53.3453216],[-6.2763663,53.3453704],[-6.2769755,53.3454953],[-6.2775681,53.3456086],[-6.2779602,53.3456829],[-6.278771,53.3458231],[-6.2805357,53.3461452]]}";12;Usher's Quay;1;50;false;true;true;false;false;false;311.0;1;0;0;0;0;false;7078;255018275;-6.292878;53.3478982;1479;650220218;-6.2692764;53.3459427;0;0;1;17740;25 - Merrion Square - Lucan (Dodsboro);"";Dublin Bus;25;Merrion Square;Dodsboro
529166754;"{\"type\":\"LineString\",\"coordinates\":[[-6.2758661,53.3452765],[-6.2761065,53.3453216]]}";13;Usher's Quay;1;50;false;true;true;false;false;false;17.0;1;0;0;0;0;false;7078;255018275;-6.292878;53.3478982;1479;650220218;-6.2692764;53.3459427;0;0;1;17740;25 - Merrion Square - Lucan (Dodsboro);"";Dublin Bus;25;Merrion Square;Dodsboro
3789575;"{\"type\":\"LineString\",\"coordinates\":[[-6.2721187,53.3449729],[-6.2753843,53.3452175],[-6.2758661,53.3452765]]}";14;Merchant's Quay;3;50;false;true;true;false;false;false;254.0;2;0;0;0;0;false;7078;255018275;-6.292878;53.3478982;1479;650220218;-6.2692764;53.3459427;0;0;1;17740;25 - Merrion Square - Lucan (Dodsboro);"";Dublin Bus;25;Merrion Square;Dodsboro
13907388;"{\"type\":\"LineString\",\"coordinates\":[[-6.2699886,53.3451298],[-6.2702755,53.3451071],[-6.2709929,53.3450501],[-6.2721187,53.3449729]]}";15;Wood Quay;4;50;false;true;true;false;false;false;144.0;1;0;0;0;0;false;7078;255018275;-6.292878;53.3478982;1479;650220218;-6.2692764;53.3459427;0;0;1;17740;25 - Merrion Square - Lucan (Dodsboro);"";Dublin Bus;25;Merrion Square;Dodsboro
292236197;"{\"type\":\"LineString\",\"coordinates\":[[-6.2689481,53.3452274],[-6.2699886,53.3451298]]}";16;Essex Quay;2;50;false;true;true;false;false;false;35.5;0;1;0;0;0;false;7078;255018275;-6.292878;53.3478982;1479;650220218;-6.2692764;53.3459427;1;0;1;17740;25 - Merrion Square - Lucan (Dodsboro);"";Dublin Bus;25;Merrion Square;Dodsboro
292236197;"{\"type\":\"LineString\",\"coordinates\":[[-6.2689481,53.3452274],[-6.2699886,53.3451298]]}";1;Essex Quay;2;50;false;true;true;false;false;false;35.5;0;1;0;0;0;false;1479;650220218;-6.2692764;53.3459427;346;3209481314;-6.2566252;53.345539;1;1;2;17740;25 - Merrion Square - Lucan (Dodsboro);"";Dublin Bus;25;Merrion Square;Dodsboro
125863788;"{\"type\":\"LineString\",\"coordinates\":[[-6.26763,53.3453317],[-6.2689481,53.3452274]]}";2;Essex Quay;2;30;false;true;true;false;false;false;90.0;1;1;0;0;0;false;1479;650220218;-6.2692764;53.3459427;346;3209481314;-6.2566252;53.345539;0;1;2;17740;25 - Merrion Square - Lucan (Dodsboro);"";Dublin Bus;25;Merrion Square;Dodsboro
556390402;"{\"type\":\"LineString\",\"coordinates\":[[-6.2634732,53.3459439],[-6.2638974,53.345881],[-6.264978,53.3457208],[-6.2651043,53.3457055],[-6.266496,53.3455014],[-6.26763,53.3453317]]}";3;Wellington Quay;3;30;false;true;true;false;false;false;287.0;1;1;0;0;0;false;1479;650220218;-6.2692764;53.3459427;346;3209481314;-6.2566252;53.345539;0;1;2;17740;25 - Merrion Square - Lucan (Dodsboro);"";Dublin Bus;25;Merrion Square;Dodsboro
3791747;"{\"type\":\"LineString\",\"coordinates\":[[-6.2626132,53.3461284],[-6.2629547,53.3460565],[-6.2634732,53.3459439]]}";4;Wellington Quay;2;30;false;true;true;false;false;false;62.0;0;1;0;0;0;false;1479;650220218;-6.2692764;53.3459427;346;3209481314;-6.2566252;53.345539;0;1;2;17740;25 - Merrion Square - Lucan (Dodsboro);"";Dublin Bus;25;Merrion Square;Dodsboro
13907389;"{\"type\":\"LineString\",\"coordinates\":[[-6.2618852,53.3462881],[-6.2626132,53.3461284]]}";5;Crampton Quay;2;30;false;true;true;false;false;false;52.0;0;0;0;0;0;false;1479;650220218;-6.2692764;53.3459427;346;3209481314;-6.2566252;53.345539;0;1;2;17740;25 - Merrion Square - Lucan (Dodsboro);"";Dublin Bus;25;Merrion Square;Dodsboro
800772121;"{\"type\":\"LineString\",\"coordinates\":[[-6.2607335,53.3465574],[-6.2609349,53.3465103],[-6.2611437,53.3464615],[-6.2617647,53.3463163],[-6.2618852,53.3462881]]}";6;Aston Quay;2;30;false;true;true;false;false;false;83.0;0;0;0;0;0;false;1479;650220218;-6.2692764;53.3459427;346;3209481314;-6.2566252;53.345539;0;1;2;17740;25 - Merrion Square - Lucan (Dodsboro);"";Dublin Bus;25;Merrion Square;Dodsboro
372838330;"{\"type\":\"LineString\",\"coordinates\":[[-6.2593428,53.3468825],[-6.2599335,53.3467444],[-6.2600776,53.3467107],[-6.2603368,53.3466501],[-6.2605934,53.3465901],[-6.2607335,53.3465574]]}";7;Aston Quay;2;30;false;true;true;false;false;false;101.0;0;1;0;0;0;false;1479;650220218;-6.2692764;53.3459427;346;3209481314;-6.2566252;53.345539;0;1;2;17740;25 - Merrion Square - Lucan (Dodsboro);"";Dublin Bus;25;Merrion Square;Dodsboro
4401523;"{\"type\":\"LineString\",\"coordinates\":[[-6.25911,53.3469351],[-6.2593428,53.3468825]]}";8;Aston Quay;2;30;false;true;true;false;false;false;17.0;1;1;0;0;0;false;1479;650220218;-6.2692764;53.3459427;346;3209481314;-6.2566252;53.345539;0;1;2;17740;25 - Merrion Square - Lucan (Dodsboro);"";Dublin Bus;25;Merrion Square;Dodsboro
488735972;"{\"type\":\"LineString\",\"coordinates\":[[-6.2591207,53.3468036],[-6.25911,53.3469351]]}";9;Westmoreland Street;3;30;false;true;true;false;false;false;15.0;1;1;0;0;0;false;1479;650220218;-6.2692764;53.3459427;346;3209481314;-6.2566252;53.345539;0;1;2;17740;25 - Merrion Square - Lucan (Dodsboro);"";Dublin Bus;25;Merrion Square;Dodsboro
675882488;"{\"type\":\"LineString\",\"coordinates\":[[-6.2591418,53.3456882],[-6.2591395,53.3458327],[-6.2591388,53.3458795],[-6.2591385,53.3458965],[-6.2591326,53.3462654],[-6.2591279,53.3465631],[-6.2591207,53.3468036]]}";10;Westmoreland Street;3;30;false;true;true;false;false;false;125.0;0;2;0;0;0;false;1479;650220218;-6.2692764;53.3459427;346;3209481314;-6.2566252;53.345539;0;1;2;17740;25 - Merrion Square - Lucan (Dodsboro);"";Dublin Bus;25;Merrion Square;Dodsboro
488735970;"{\"type\":\"LineString\",\"coordinates\":[[-6.2591475,53.3453253],[-6.2591428,53.3456406],[-6.2591418,53.3456882]]}";11;Westmoreland Street;3;30;false;true;true;false;false;false;41.0;1;0;0;0;0;false;1479;650220218;-6.2692764;53.3459427;346;3209481314;-6.2566252;53.345539;0;1;2;17740;25 - Merrion Square - Lucan (Dodsboro);"";Dublin Bus;25;Merrion Square;Dodsboro
4472592;"{\"type\":\"LineString\",\"coordinates\":[[-6.2584602,53.3453218],[-6.2586016,53.3453096],[-6.2586891,53.3453081],[-6.2587496,53.345307],[-6.2589493,53.3453175],[-6.2590306,53.3453207],[-6.2591475,53.3453253]]}";12;College Street;2;30;false;true;false;false;false;false;47.0;1;1;0;0;0;false;1479;650220218;-6.2692764;53.3459427;346;3209481314;-6.2566252;53.345539;0;1;2;17740;25 - Merrion Square - Lucan (Dodsboro);"";Dublin Bus;25;Merrion Square;Dodsboro
4472591;"{\"type\":\"LineString\",\"coordinates\":[[-6.257516,53.3456107],[-6.25775,53.3455594],[-6.2579,53.3455086],[-6.2584602,53.3453218]]}";13;College Street;3;30;false;true;true;false;false;false;72.0;0;0;0;0;0;false;1479;650220218;-6.2692764;53.3459427;346;3209481314;-6.2566252;53.345539;0;1;2;17740;25 - Merrion Square - Lucan (Dodsboro);"";Dublin Bus;25;Merrion Square;Dodsboro
575070043;"{\"type\":\"LineString\",\"coordinates\":[[-6.2572827,53.3455831],[-6.2573572,53.3455926],[-6.257516,53.3456107]]}";14;College Street;2;30;false;true;true;false;true;false;16.0;1;0;0;0;0;false;1479;650220218;-6.2692764;53.3459427;346;3209481314;-6.2566252;53.345539;0;1;2;17740;25 - Merrion Square - Lucan (Dodsboro);"";Dublin Bus;25;Merrion Square;Dodsboro
74232837;"{\"type\":\"LineString\",\"coordinates\":[[-6.2569004,53.3456001],[-6.2569784,53.3455993],[-6.2572827,53.3455831]]}";15;College Street;2;30;false;true;true;false;true;false;26.0;1;1;0;0;0;false;1479;650220218;-6.2692764;53.3459427;346;3209481314;-6.2566252;53.345539;0;1;2;17740;25 - Merrion Square - Lucan (Dodsboro);"";Dublin Bus;25;Merrion Square;Dodsboro
24973955;"{\"type\":\"LineString\",\"coordinates\":[[-6.2566799,53.3455853],[-6.2568119,53.3455989],[-6.2569004,53.3456001]]}";16;Pearse Street;2;30;false;true;true;false;true;false;15.0;0;0;0;0;0;false;1479;650220218;-6.2692764;53.3459427;346;3209481314;-6.2566252;53.345539;0;1;2;17740;25 - Merrion Square - Lucan (Dodsboro);"";Dublin Bus;25;Merrion Square;Dodsboro
529171742;"{\"type\":\"LineString\",\"coordinates\":[[-6.2564634,53.3455562],[-6.2566799,53.3455853]]}";17;Pearse Street;2;30;false;true;true;false;true;false;7.5;0;0;0;0;0;false;1479;650220218;-6.2692764;53.3459427;346;3209481314;-6.2566252;53.345539;1;1;2;17740;25 - Merrion Square - Lucan (Dodsboro);"";Dublin Bus;25;Merrion Square;Dodsboro
24973955;"{\"type\":\"LineString\",\"coordinates\":[[-6.2566799,53.3455853],[-6.2568119,53.3455989],[-6.2569004,53.3456001]]}";1;Pearse Street;2;30;false;true;true;false;true;false;15.0;0;0;0;0;0;false;346;3209481314;-6.2566252;53.345539;317;271164433;-6.2592804;53.3464898;2;2;3;17740;25 - Merrion Square - Lucan (Dodsboro);"";Dublin Bus;25;Merrion Square;Dodsboro
74232837;"{\"type\":\"LineString\",\"coordinates\":[[-6.2569004,53.3456001],[-6.2569784,53.3455993],[-6.2572827,53.3455831]]}";2;College Street;2;30;false;true;true;false;true;false;26.0;1;1;0;0;0;false;346;3209481314;-6.2566252;53.345539;317;271164433;-6.2592804;53.3464898;0;2;3;17740;25 - Merrion Square - Lucan (Dodsboro);"";Dublin Bus;25;Merrion Square;Dodsboro
575070043;"{\"type\":\"LineString\",\"coordinates\":[[-6.2572827,53.3455831],[-6.2573572,53.3455926],[-6.257516,53.3456107]]}";3;College Street;2;30;false;true;true;false;true;false;16.0;1;0;0;0;0;false;346;3209481314;-6.2566252;53.345539;317;271164433;-6.2592804;53.3464898;0;2;3;17740;25 - Merrion Square - Lucan (Dodsboro);"";Dublin Bus;25;Merrion Square;Dodsboro
4472591;"{\"type\":\"LineString\",\"coordinates\":[[-6.257516,53.3456107],[-6.25775,53.3455594],[-6.2579,53.3455086],[-6.2584602,53.3453218]]}";4;College Street;3;30;false;true;true;false;false;false;72.0;0;0;0;0;0;false;346;3209481314;-6.2566252;53.345539;317;271164433;-6.2592804;53.3464898;0;2;3;17740;25 - Merrion Square - Lucan (Dodsboro);"";Dublin Bus;25;Merrion Square;Dodsboro
4472592;"{\"type\":\"LineString\",\"coordinates\":[[-6.2584602,53.3453218],[-6.2586016,53.3453096],[-6.2586891,53.3453081],[-6.2587496,53.345307],[-6.2589493,53.3453175],[-6.2590306,53.3453207],[-6.2591475,53.3453253]]}";5;College Street;2;30;false;true;false;false;false;false;47.0;1;1;0;0;0;false;346;3209481314;-6.2566252;53.345539;317;271164433;-6.2592804;53.3464898;0;2;3;17740;25 - Merrion Square - Lucan (Dodsboro);"";Dublin Bus;25;Merrion Square;Dodsboro
488735970;"{\"type\":\"LineString\",\"coordinates\":[[-6.2591475,53.3453253],[-6.2591428,53.3456406],[-6.2591418,53.3456882]]}";6;Westmoreland Street;3;30;false;true;true;false;false;false;41.0;1;0;0;0;0;false;346;3209481314;-6.2566252;53.345539;317;271164433;-6.2592804;53.3464898;0;2;3;17740;25 - Merrion Square - Lucan (Dodsboro);"";Dublin Bus;25;Merrion Square;Dodsboro
675882488;"{\"type\":\"LineString\",\"coordinates\":[[-6.2591418,53.3456882],[-6.2591395,53.3458327],[-6.2591388,53.3458795],[-6.2591385,53.3458965],[-6.2591326,53.3462654],[-6.2591279,53.3465631],[-6.2591207,53.3468036]]}";7;Westmoreland Street;3;30;false;true;true;false;false;false;125.0;0;2;0;0;0;false;346;3209481314;-6.2566252;53.345539;317;271164433;-6.2592804;53.3464898;2;2;3;17740;25 - Merrion Square - Lucan (Dodsboro);"";Dublin Bus;25;Merrion Square;Dodsboro
675882488;"{\"type\":\"LineString\",\"coordinates\":[[-6.2591418,53.3456882],[-6.2591395,53.3458327],[-6.2591388,53.3458795],[-6.2591385,53.3458965],[-6.2591326,53.3462654],[-6.2591279,53.3465631],[-6.2591207,53.3468036]]}";1;Westmoreland Street;3;30;false;true;true;false;false;false;62.5;0;2;0;0;0;false;317;271164433;-6.2592804;53.3464898;1445;255016985;-6.2782663;53.3456598;1;3;4;17740;25 - Merrion Square - Lucan (Dodsboro);"";Dublin Bus;25;Merrion Square;Dodsboro
488735972;"{\"type\":\"LineString\",\"coordinates\":[[-6.2591207,53.3468036],[-6.25911,53.3469351]]}";2;Westmoreland Street;3;30;false;true;true;false;false;false;15.0;1;1;0;0;0;false;317;271164433;-6.2592804;53.3464898;1445;255016985;-6.2782663;53.3456598;0;3;4;17740;25 - Merrion Square - Lucan (Dodsboro);"";Dublin Bus;25;Merrion Square;Dodsboro
4401523;"{\"type\":\"LineString\",\"coordinates\":[[-6.25911,53.3469351],[-6.2593428,53.3468825]]}";3;Aston Quay;2;30;false;true;true;false;false;false;17.0;1;1;0;0;0;false;317;271164433;-6.2592804;53.3464898;1445;255016985;-6.2782663;53.3456598;0;3;4;17740;25 - Merrion Square - Lucan (Dodsboro);"";Dublin Bus;25;Merrion Square;Dodsboro
372838330;"{\"type\":\"LineString\",\"coordinates\":[[-6.2593428,53.3468825],[-6.2599335,53.3467444],[-6.2600776,53.3467107],[-6.2603368,53.3466501],[-6.2605934,53.3465901],[-6.2607335,53.3465574]]}";4;Aston Quay;2;30;false;true;true;false;false;false;101.0;0;1;0;0;0;false;317;271164433;-6.2592804;53.3464898;1445;255016985;-6.2782663;53.3456598;0;3;4;17740;25 - Merrion Square - Lucan (Dodsboro);"";Dublin Bus;25;Merrion Square;Dodsboro
800772121;"{\"type\":\"LineString\",\"coordinates\":[[-6.2607335,53.3465574],[-6.2609349,53.3465103],[-6.2611437,53.3464615],[-6.2617647,53.3463163],[-6.2618852,53.3462881]]}";5;Aston Quay;2;30;false;true;true;false;false;false;83.0;0;0;0;0;0;false;317;271164433;-6.2592804;53.3464898;1445;255016985;-6.2782663;53.3456598;0;3;4;17740;25 - Merrion Square - Lucan (Dodsboro);"";Dublin Bus;25;Merrion Square;Dodsboro
13907389;"{\"type\":\"LineString\",\"coordinates\":[[-6.2618852,53.3462881],[-6.2626132,53.3461284]]}";6;Crampton Quay;2;30;false;true;true;false;false;false;52.0;0;0;0;0;0;false;317;271164433;-6.2592804;53.3464898;1445;255016985;-6.2782663;53.3456598;0;3;4;17740;25 - Merrion Square - Lucan (Dodsboro);"";Dublin Bus;25;Merrion Square;Dodsboro
3791747;"{\"type\":\"LineString\",\"coordinates\":[[-6.2626132,53.3461284],[-6.2629547,53.3460565],[-6.2634732,53.3459439]]}";7;Wellington Quay;2;30;false;true;true;false;false;false;62.0;0;1;0;0;0;false;317;271164433;-6.2592804;53.3464898;1445;255016985;-6.2782663;53.3456598;0;3;4;17740;25 - Merrion Square - Lucan (Dodsboro);"";Dublin Bus;25;Merrion Square;Dodsboro
556390402;"{\"type\":\"LineString\",\"coordinates\":[[-6.2634732,53.3459439],[-6.2638974,53.345881],[-6.264978,53.3457208],[-6.2651043,53.3457055],[-6.266496,53.3455014],[-6.26763,53.3453317]]}";8;Wellington Quay;3;30;false;true;true;false;false;false;287.0;1;1;0;0;0;false;317;271164433;-6.2592804;53.3464898;1445;255016985;-6.2782663;53.3456598;0;3;4;17740;25 - Merrion Square - Lucan (Dodsboro);"";Dublin Bus;25;Merrion Square;Dodsboro
125863788;"{\"type\":\"LineString\",\"coordinates\":[[-6.26763,53.3453317],[-6.2689481,53.3452274]]}";9;Essex Quay;2;30;false;true;true;false;false;false;90.0;1;1;0;0;0;false;317;271164433;-6.2592804;53.3464898;1445;255016985;-6.2782663;53.3456598;0;3;4;17740;25 - Merrion Square - Lucan (Dodsboro);"";Dublin Bus;25;Merrion Square;Dodsboro
292236197;"{\"type\":\"LineString\",\"coordinates\":[[-6.2689481,53.3452274],[-6.2699886,53.3451298]]}";10;Essex Quay;2;50;false;true;true;false;false;false;71.0;0;1;0;0;0;false;317;271164433;-6.2592804;53.3464898;1445;255016985;-6.2782663;53.3456598;0;3;4;17740;25 - Merrion Square - Lucan (Dodsboro);"";Dublin Bus;25;Merrion Square;Dodsboro
13907388;"{\"type\":\"LineString\",\"coordinates\":[[-6.2699886,53.3451298],[-6.2702755,53.3451071],[-6.2709929,53.3450501],[-6.2721187,53.3449729]]}";11;Wood Quay;4;50;false;true;true;false;false;false;144.0;1;0;0;0;0;false;317;271164433;-6.2592804;53.3464898;1445;255016985;-6.2782663;53.3456598;0;3;4;17740;25 - Merrion Square - Lucan (Dodsboro);"";Dublin Bus;25;Merrion Square;Dodsboro
3789575;"{\"type\":\"LineString\",\"coordinates\":[[-6.2721187,53.3449729],[-6.2753843,53.3452175],[-6.2758661,53.3452765]]}";12;Merchant's Quay;3;50;false;true;true;false;false;false;254.0;2;0;0;0;0;false;317;271164433;-6.2592804;53.3464898;1445;255016985;-6.2782663;53.3456598;0;3;4;17740;25 - Merrion Square - Lucan (Dodsboro);"";Dublin Bus;25;Merrion Square;Dodsboro
529166754;"{\"type\":\"LineString\",\"coordinates\":[[-6.2758661,53.3452765],[-6.2761065,53.3453216]]}";13;Usher's Quay;1;50;false;true;true;false;false;false;17.0;1;0;0;0;0;false;317;271164433;-6.2592804;53.3464898;1445;255016985;-6.2782663;53.3456598;0;3;4;17740;25 - Merrion Square - Lucan (Dodsboro);"";Dublin Bus;25;Merrion Square;Dodsboro
4401781;"{\"type\":\"LineString\",\"coordinates\":[[-6.2761065,53.3453216],[-6.2763663,53.3453704],[-6.2769755,53.3454953],[-6.2775681,53.3456086],[-6.2779602,53.3456829],[-6.278771,53.3458231],[-6.2805357,53.3461452]]}";14;Usher's Quay;1;50;false;true;true;false;false;false;155.5;1;0;0;0;0;false;317;271164433;-6.2592804;53.3464898;1445;255016985;-6.2782663;53.3456598;1;3;4;17740;25 - Merrion Square - Lucan (Dodsboro);"";Dublin Bus;25;Merrion Square;Dodsboro
4401781;"{\"type\":\"LineString\",\"coordinates\":[[-6.2761065,53.3453216],[-6.2763663,53.3453704],[-6.2769755,53.3454953],[-6.2775681,53.3456086],[-6.2779602,53.3456829],[-6.278771,53.3458231],[-6.2805357,53.3461452]]}";1;Usher's Quay;1;50;false;true;true;false;false;false;155.5;1;0;0;0;0;false;1445;255016985;-6.2782663;53.3456598;1476;667281715;-6.2847339;53.3470868;1;4;5;17740;25 - Merrion Square - Lucan (Dodsboro);"";Dublin Bus;25;Merrion Square;Dodsboro
4408221;"{\"type\":\"LineString\",\"coordinates\":[[-6.2805357,53.3461452],[-6.281352,53.3462446]]}";2;Usher's Island;1;50;false;true;true;false;false;false;56.0;1;0;0;0;0;false;1445;255016985;-6.2782663;53.3456598;1476;667281715;-6.2847339;53.3470868;0;4;5;17740;25 - Merrion Square - Lucan (Dodsboro);"";Dublin Bus;25;Merrion Square;Dodsboro
38587823;"{\"type\":\"LineString\",\"coordinates\":[[-6.281352,53.3462446],[-6.2826667,53.346375]]}";3;Usher's Island;3;50;false;true;true;false;false;false;90.0;1;0;0;0;0;false;1445;255016985;-6.2782663;53.3456598;1476;667281715;-6.2847339;53.3470868;0;4;5;17740;25 - Merrion Square - Lucan (Dodsboro);"";Dublin Bus;25;Merrion Square;Dodsboro
37721990;"{\"type\":\"LineString\",\"coordinates\":[[-6.2826667,53.346375],[-6.2834173,53.3464728],[-6.2838122,53.3465035],[-6.2841428,53.3465111]]}";4;Usher's Island;2;50;false;true;true;false;false;false;101.0;2;0;0;0;0;false;1445;255016985;-6.2782663;53.3456598;1476;667281715;-6.2847339;53.3470868;0;4;5;17740;25 - Merrion Square - Lucan (Dodsboro);"";Dublin Bus;25;Merrion Square;Dodsboro
13907386;"{\"type\":\"LineString\",\"coordinates\":[[-6.2841428,53.3465111],[-6.2852514,53.3465383],[-6.2857407,53.3465574],[-6.2891318,53.3466675],[-6.2893948,53.3466989],[-6.290175,53.3467942],[-6.2907329,53.3468813]]}";5;Victoria Quay;3;50;false;true;true;false;false;false;445.0;1;0;0;0;0;false;1445;255016985;-6.2782663;53.3456598;1476;667281715;-6.2847339;53.3470868;1;4;5;17740;25 - Merrion Square - Lucan (Dodsboro);"";Dublin Bus;25;Merrion Square;Dodsboro
