way_id;shape;index;name;nb_lanes;legal_speed;speed_zone_30;oneway;shares_bike;bike_box;bus_lane;dedicated_bus_lane;length;nb_traffic_signals;nb_crossings;nb_stops;nb_give_ways;nb_lvl_crossings;roundabout;stop_id_orig;node_id_orig;coord_x_orig;coord_y_orig;stop_id_dest;node_id_dest;coord_x_dest;coord_y_dest;nb_neighbouring_ways_bus_stop;ordre_orig;ordre_dest;id_line;line_name;colour;operator;ref;from;to
242652093;"{\"type\":\"LineString\",\"coordinates\":[[-73.6835499,45.5592626],[-73.6832245,45.5594238]]}";1;"";1;50;false;false;true;false;false;false;32.0;0;0;0;0;0;false;82126;6119525231;-73.682647;45.559788;82063;6119525289;-73.7617354;45.665799;1;0;1;9395166;Bus 28 : TERREBONNE OUEST;"";EXO;28 N;Station de métro Cartier;rue Moise Proulx / rue Beauchemin
258700561;"{\"type\":\"LineString\",\"coordinates\":[[-73.6835499,45.5592626],[-73.6836785,45.5593759],[-73.683829,45.5595086],[-73.6840984,45.5597503]]}";2;Montée Major;1;50;false;false;true;false;false;false;70.0;1;0;0;0;0;false;82126;6119525231;-73.682647;45.559788;82063;6119525289;-73.7617354;45.665799;0;0;1;9395166;Bus 28 : TERREBONNE OUEST;"";EXO;28 N;Station de métro Cartier;rue Moise Proulx / rue Beauchemin
669902218;"{\"type\":\"LineString\",\"coordinates\":[[-73.6840984,45.5597503],[-73.6835265,45.5600532],[-73.6830194,45.5603075]]}";3;Boulevard Cartier Ouest;2;50;false;true;true;false;false;false;105.0;2;0;0;0;0;false;82126;6119525231;-73.682647;45.559788;82063;6119525289;-73.7617354;45.665799;0;0;1;9395166;Bus 28 : TERREBONNE OUEST;"";EXO;28 N;Station de métro Cartier;rue Moise Proulx / rue Beauchemin
258700554;"{\"type\":\"LineString\",\"coordinates\":[[-73.6830194,45.5603075],[-73.6827075,45.5604638],[-73.6824175,45.5606264],[-73.6822665,45.5607085]]}";4;Boulevard Cartier Ouest;2;50;false;true;true;false;false;false;74.0;1;0;0;0;0;false;82126;6119525231;-73.682647;45.559788;82063;6119525289;-73.7617354;45.665799;0;0;1;9395166;Bus 28 : TERREBONNE OUEST;"";EXO;28 N;Station de métro Cartier;rue Moise Proulx / rue Beauchemin
455492089;"{\"type\":\"LineString\",\"coordinates\":[[-73.6822665,45.5607085],[-73.6819634,45.5608959],[-73.6817505,45.5610049]]}";5;Boulevard Cartier Ouest;2;50;false;true;true;false;false;false;53.0;1;0;0;0;0;false;82126;6119525231;-73.682647;45.559788;82063;6119525289;-73.7617354;45.665799;0;0;1;9395166;Bus 28 : TERREBONNE OUEST;"";EXO;28 N;Station de métro Cartier;rue Moise Proulx / rue Beauchemin
292641472;"{\"type\":\"LineString\",\"coordinates\":[[-73.6817505,45.5610049],[-73.6816926,45.5610324],[-73.6815922,45.5610802]]}";6;Boulevard Cartier Ouest;2;50;false;true;true;false;false;false;15.0;2;0;0;0;0;false;82126;6119525231;-73.682647;45.559788;82063;6119525289;-73.7617354;45.665799;0;0;1;9395166;Bus 28 : TERREBONNE OUEST;"";EXO;28 N;Station de métro Cartier;rue Moise Proulx / rue Beauchemin
258700557;"{\"type\":\"LineString\",\"coordinates\":[[-73.6815922,45.5610802],[-73.68169,45.5611749],[-73.6819137,45.5613673],[-73.6823486,45.5617409],[-73.6823502,45.5617422],[-73.6826844,45.5619598]]}";7;Boulevard des Laurentides;2;50;false;true;true;false;false;false;130.0;2;0;0;0;0;false;82126;6119525231;-73.682647;45.559788;82063;6119525289;-73.7617354;45.665799;0;0;1;9395166;Bus 28 : TERREBONNE OUEST;"";EXO;28 N;Station de métro Cartier;rue Moise Proulx / rue Beauchemin
452227549;"{\"type\":\"LineString\",\"coordinates\":[[-73.6826844,45.5619598],[-73.684522,45.5635813]]}";8;Boulevard des Laurentides;4;50;false;false;true;false;false;false;231.0;0;0;0;0;0;false;82126;6119525231;-73.682647;45.559788;82063;6119525289;-73.7617354;45.665799;0;0;1;9395166;Bus 28 : TERREBONNE OUEST;"";EXO;28 N;Station de métro Cartier;rue Moise Proulx / rue Beauchemin
452227544;"{\"type\":\"LineString\",\"coordinates\":[[-73.684522,45.5635813],[-73.6864142,45.565271]]}";9;Boulevard des Laurentides;4;50;false;false;true;false;false;false;239.0;0;0;0;0;0;false;82126;6119525231;-73.682647;45.559788;82063;6119525289;-73.7617354;45.665799;0;0;1;9395166;Bus 28 : TERREBONNE OUEST;"";EXO;28 N;Station de métro Cartier;rue Moise Proulx / rue Beauchemin
46086120;"{\"type\":\"LineString\",\"coordinates\":[[-73.6864142,45.565271],[-73.68769,45.5664197]]}";10;Boulevard des Laurentides;4;50;false;false;true;false;false;false;162.0;0;0;0;0;0;false;82126;6119525231;-73.682647;45.559788;82063;6119525289;-73.7617354;45.665799;0;0;1;9395166;Bus 28 : TERREBONNE OUEST;"";EXO;28 N;Station de métro Cartier;rue Moise Proulx / rue Beauchemin
452227546;"{\"type\":\"LineString\",\"coordinates\":[[-73.68769,45.5664197],[-73.6883244,45.5669908]]}";11;Boulevard des Laurentides;4;50;false;false;true;false;false;false;81.0;0;0;0;0;0;false;82126;6119525231;-73.682647;45.559788;82063;6119525289;-73.7617354;45.665799;0;0;1;9395166;Bus 28 : TERREBONNE OUEST;"";EXO;28 N;Station de métro Cartier;rue Moise Proulx / rue Beauchemin
452227547;"{\"type\":\"LineString\",\"coordinates\":[[-73.6883244,45.5669908],[-73.6901977,45.568689]]}";12;Boulevard des Laurentides;4;50;false;false;true;false;false;false;239.0;0;0;0;0;0;false;82126;6119525231;-73.682647;45.559788;82063;6119525289;-73.7617354;45.665799;0;0;1;9395166;Bus 28 : TERREBONNE OUEST;"";EXO;28 N;Station de métro Cartier;rue Moise Proulx / rue Beauchemin
452227548;"{\"type\":\"LineString\",\"coordinates\":[[-73.6901977,45.568689],[-73.6920842,45.5703911]]}";13;Boulevard des Laurentides;4;50;false;false;true;false;false;false;240.0;1;0;0;0;0;false;82126;6119525231;-73.682647;45.559788;82063;6119525289;-73.7617354;45.665799;0;0;1;9395166;Bus 28 : TERREBONNE OUEST;"";EXO;28 N;Station de métro Cartier;rue Moise Proulx / rue Beauchemin
258700555;"{\"type\":\"LineString\",\"coordinates\":[[-73.6920842,45.5703911],[-73.6921816,45.5704852]]}";14;Boulevard des Laurentides;4;50;false;false;true;false;false;false;13.0;2;0;0;0;0;false;82126;6119525231;-73.682647;45.559788;82063;6119525289;-73.7617354;45.665799;0;0;1;9395166;Bus 28 : TERREBONNE OUEST;"";EXO;28 N;Station de métro Cartier;rue Moise Proulx / rue Beauchemin
452227545;"{\"type\":\"LineString\",\"coordinates\":[[-73.6921816,45.5704852],[-73.6923511,45.5706606]]}";15;Boulevard des Laurentides;4;50;false;false;true;false;false;false;24.0;1;0;0;0;0;false;82126;6119525231;-73.682647;45.559788;82063;6119525289;-73.7617354;45.665799;0;0;1;9395166;Bus 28 : TERREBONNE OUEST;"";EXO;28 N;Station de métro Cartier;rue Moise Proulx / rue Beauchemin
259643627;"{\"type\":\"LineString\",\"coordinates\":[[-73.6923511,45.5706606],[-73.6935441,45.5717052],[-73.6938656,45.5719868],[-73.6941278,45.5722163],[-73.694173,45.572256],[-73.6948715,45.5728676],[-73.6960798,45.5739255],[-73.6961954,45.5740268],[-73.6975572,45.5752191],[-73.6982178,45.5757768],[-73.6987252,45.5762051],[-73.6991329,45.5765493],[-73.6998396,45.5771459],[-73.699969,45.5772551],[-73.700393,45.577613],[-73.7010736,45.5781875]]}";16;Boulevard des Laurentides;4;50;false;false;true;false;false;false;1078.0;2;0;0;0;0;false;82126;6119525231;-73.682647;45.559788;82063;6119525289;-73.7617354;45.665799;0;0;1;9395166;Bus 28 : TERREBONNE OUEST;"";EXO;28 N;Station de métro Cartier;rue Moise Proulx / rue Beauchemin
23292050;"{\"type\":\"LineString\",\"coordinates\":[[-73.7010736,45.5781875],[-73.7011251,45.5783016],[-73.7018661,45.5789226],[-73.7029382,45.5798378],[-73.704628,45.5813139],[-73.7048961,45.5815481],[-73.7051422,45.581755],[-73.7052532,45.5818483]]}";17;Boulevard des Laurentides;1;50;false;true;true;false;false;false;523.0;0;1;0;0;0;false;82126;6119525231;-73.682647;45.559788;82063;6119525289;-73.7617354;45.665799;0;0;1;9395166;Bus 28 : TERREBONNE OUEST;"";EXO;28 N;Station de métro Cartier;rue Moise Proulx / rue Beauchemin
436680546;"{\"type\":\"LineString\",\"coordinates\":[[-73.7052532,45.5818483],[-73.7053864,45.5819745]]}";18;Boulevard des Laurentides;1;50;false;true;true;false;false;false;18.0;0;0;0;0;0;false;82126;6119525231;-73.682647;45.559788;82063;6119525289;-73.7617354;45.665799;0;0;1;9395166;Bus 28 : TERREBONNE OUEST;"";EXO;28 N;Station de métro Cartier;rue Moise Proulx / rue Beauchemin
452204247;"{\"type\":\"LineString\",\"coordinates\":[[-73.7053864,45.5819745],[-73.7056499,45.5822138]]}";19;Boulevard des Laurentides;1;50;false;true;true;false;false;false;34.0;0;0;0;0;0;false;82126;6119525231;-73.682647;45.559788;82063;6119525289;-73.7617354;45.665799;0;0;1;9395166;Bus 28 : TERREBONNE OUEST;"";EXO;28 N;Station de métro Cartier;rue Moise Proulx / rue Beauchemin
436680547;"{\"type\":\"LineString\",\"coordinates\":[[-73.7056499,45.5822138],[-73.7075122,45.5838421],[-73.7084553,45.5847397],[-73.7089958,45.5851859],[-73.7092377,45.5853605]]}";20;Boulevard des Laurentides;1;50;false;true;true;false;false;false;448.0;0;0;0;0;0;false;82126;6119525231;-73.682647;45.559788;82063;6119525289;-73.7617354;45.665799;0;0;1;9395166;Bus 28 : TERREBONNE OUEST;"";EXO;28 N;Station de métro Cartier;rue Moise Proulx / rue Beauchemin
23292070;"{\"type\":\"LineString\",\"coordinates\":[[-73.7092377,45.5853605],[-73.7110568,45.587011],[-73.7127438,45.5885415],[-73.7128208,45.5886113],[-73.7131232,45.5888858],[-73.7137609,45.5894643]]}";21;Boulevard des Laurentides;4;50;false;false;true;false;false;false;577.0;0;0;0;0;0;false;82126;6119525231;-73.682647;45.559788;82063;6119525289;-73.7617354;45.665799;0;0;1;9395166;Bus 28 : TERREBONNE OUEST;"";EXO;28 N;Station de métro Cartier;rue Moise Proulx / rue Beauchemin
453312145;"{\"type\":\"LineString\",\"coordinates\":[[-73.7137609,45.5894643],[-73.7142928,45.5902066],[-73.714455,45.5904265]]}";22;Boulevard des Laurentides;2;50;false;true;true;false;false;false;120.0;0;0;0;0;0;false;82126;6119525231;-73.682647;45.559788;82063;6119525289;-73.7617354;45.665799;0;0;1;9395166;Bus 28 : TERREBONNE OUEST;"";EXO;28 N;Station de métro Cartier;rue Moise Proulx / rue Beauchemin
23292074;"{\"type\":\"LineString\",\"coordinates\":[[-73.714455,45.5904265],[-73.7148183,45.5908968],[-73.7148782,45.5909846],[-73.715175,45.59132]]}";23;Boulevard des Laurentides;2;50;false;true;true;false;false;false;115.0;0;0;0;0;0;false;82126;6119525231;-73.682647;45.559788;82063;6119525289;-73.7617354;45.665799;0;0;1;9395166;Bus 28 : TERREBONNE OUEST;"";EXO;28 N;Station de métro Cartier;rue Moise Proulx / rue Beauchemin
481017015;"{\"type\":\"LineString\",\"coordinates\":[[-73.715175,45.59132],[-73.7154776,45.5916173],[-73.7155938,45.5917315]]}";24;Boulevard des Laurentides;2;50;false;true;true;false;false;false;57.0;0;0;0;0;0;false;82126;6119525231;-73.682647;45.559788;82063;6119525289;-73.7617354;45.665799;0;0;1;9395166;Bus 28 : TERREBONNE OUEST;"";EXO;28 N;Station de métro Cartier;rue Moise Proulx / rue Beauchemin
37722248;"{\"type\":\"LineString\",\"coordinates\":[[-73.7155938,45.5917315],[-73.7159615,45.5920833]]}";25;Boulevard des Laurentides;2;50;false;true;true;false;false;false;49.0;0;0;0;0;0;false;82126;6119525231;-73.682647;45.559788;82063;6119525289;-73.7617354;45.665799;0;0;1;9395166;Bus 28 : TERREBONNE OUEST;"";EXO;28 N;Station de métro Cartier;rue Moise Proulx / rue Beauchemin
511504674;"{\"type\":\"LineString\",\"coordinates\":[[-73.7159615,45.5920833],[-73.7161288,45.5922433]]}";26;Boulevard des Laurentides;2;50;false;true;true;false;false;false;23.0;0;0;0;0;0;false;82126;6119525231;-73.682647;45.559788;82063;6119525289;-73.7617354;45.665799;0;0;1;9395166;Bus 28 : TERREBONNE OUEST;"";EXO;28 N;Station de métro Cartier;rue Moise Proulx / rue Beauchemin
483683382;"{\"type\":\"LineString\",\"coordinates\":[[-73.7161288,45.5922433],[-73.7161818,45.5922874]]}";27;Boulevard des Laurentides;2;50;false;true;true;false;false;false;7.0;0;0;0;0;0;false;82126;6119525231;-73.682647;45.559788;82063;6119525289;-73.7617354;45.665799;0;0;1;9395166;Bus 28 : TERREBONNE OUEST;"";EXO;28 N;Station de métro Cartier;rue Moise Proulx / rue Beauchemin
511504669;"{\"type\":\"LineString\",\"coordinates\":[[-73.7161818,45.5922874],[-73.7163811,45.5924579],[-73.71656,45.5926074],[-73.716887,45.5928537],[-73.7171441,45.5930421]]}";28;Boulevard des Laurentides;2;50;false;true;true;false;false;false;113.0;0;0;0;0;0;false;82126;6119525231;-73.682647;45.559788;82063;6119525289;-73.7617354;45.665799;0;0;1;9395166;Bus 28 : TERREBONNE OUEST;"";EXO;28 N;Station de métro Cartier;rue Moise Proulx / rue Beauchemin
37722249;"{\"type\":\"LineString\",\"coordinates\":[[-73.7171441,45.5930421],[-73.7185014,45.5939442],[-73.7192899,45.5945481],[-73.719687,45.5948774],[-73.7198448,45.5949882],[-73.7200206,45.5950952]]}";29;Boulevard des Laurentides;2;50;false;true;true;false;false;false;321.0;0;0;0;0;0;false;82126;6119525231;-73.682647;45.559788;82063;6119525289;-73.7617354;45.665799;0;0;1;9395166;Bus 28 : TERREBONNE OUEST;"";EXO;28 N;Station de métro Cartier;rue Moise Proulx / rue Beauchemin
694161758;"{\"type\":\"LineString\",\"coordinates\":[[-73.7217949,45.596756],[-73.7209128,45.5959303],[-73.7202442,45.5953045],[-73.7200206,45.5950952]]}";30;Boulevard des Laurentides;4;50;false;false;true;false;false;false;231.0;0;0;0;0;0;false;82126;6119525231;-73.682647;45.559788;82063;6119525289;-73.7617354;45.665799;0;0;1;9395166;Bus 28 : TERREBONNE OUEST;"";EXO;28 N;Station de métro Cartier;rue Moise Proulx / rue Beauchemin
23292176;"{\"type\":\"LineString\",\"coordinates\":[[-73.7319837,45.6062501],[-73.7318931,45.6061672],[-73.7301515,45.6045749],[-73.7289712,45.6035194],[-73.7284733,45.603094],[-73.7264864,45.6011645],[-73.7259903,45.6006827],[-73.7243769,45.5991727],[-73.7231922,45.5980638],[-73.7217949,45.596756]]}";31;Boulevard des Laurentides;4;50;false;false;true;false;false;false;1321.0;0;0;0;0;0;false;82126;6119525231;-73.682647;45.559788;82063;6119525289;-73.7617354;45.665799;0;0;1;9395166;Bus 28 : TERREBONNE OUEST;"";EXO;28 N;Station de métro Cartier;rue Moise Proulx / rue Beauchemin
453312144;"{\"type\":\"LineString\",\"coordinates\":[[-73.7322061,45.6064632],[-73.7319837,45.6062501]]}";32;Boulevard des Laurentides;4;50;false;false;true;false;false;false;30.0;0;0;0;0;0;false;82126;6119525231;-73.682647;45.559788;82063;6119525289;-73.7617354;45.665799;0;0;1;9395166;Bus 28 : TERREBONNE OUEST;"";EXO;28 N;Station de métro Cartier;rue Moise Proulx / rue Beauchemin
453312138;"{\"type\":\"LineString\",\"coordinates\":[[-73.7323191,45.6065782],[-73.7322061,45.6064632]]}";33;Boulevard des Laurentides;4;50;false;false;true;false;false;false;16.0;0;0;0;0;0;false;82126;6119525231;-73.682647;45.559788;82063;6119525289;-73.7617354;45.665799;0;0;1;9395166;Bus 28 : TERREBONNE OUEST;"";EXO;28 N;Station de métro Cartier;rue Moise Proulx / rue Beauchemin
453312139;"{\"type\":\"LineString\",\"coordinates\":[[-73.7325341,45.6067946],[-73.7323191,45.6065782]]}";34;Boulevard des Laurentides;4;50;false;false;true;false;false;false;30.0;0;0;0;0;0;false;82126;6119525231;-73.682647;45.559788;82063;6119525289;-73.7617354;45.665799;0;0;1;9395166;Bus 28 : TERREBONNE OUEST;"";EXO;28 N;Station de métro Cartier;rue Moise Proulx / rue Beauchemin
45760604;"{\"type\":\"LineString\",\"coordinates\":[[-73.7358874,45.6099783],[-73.7346601,45.6088131],[-73.7338961,45.6080877],[-73.7330666,45.6073002],[-73.7325341,45.6067946]]}";35;Boulevard des Laurentides;4;50;false;false;true;false;false;false;440.0;0;0;0;0;0;false;82126;6119525231;-73.682647;45.559788;82063;6119525289;-73.7617354;45.665799;0;0;1;9395166;Bus 28 : TERREBONNE OUEST;"";EXO;28 N;Station de métro Cartier;rue Moise Proulx / rue Beauchemin
45760619;"{\"type\":\"LineString\",\"coordinates\":[[-73.7358874,45.6099783],[-73.7360032,45.6102228],[-73.7360976,45.6103774],[-73.7362198,45.6106312]]}";36;Boulevard des Laurentides;2;50;false;true;true;false;false;false;78.0;0;0;0;0;0;false;82126;6119525231;-73.682647;45.559788;82063;6119525289;-73.7617354;45.665799;0;0;1;9395166;Bus 28 : TERREBONNE OUEST;"";EXO;28 N;Station de métro Cartier;rue Moise Proulx / rue Beauchemin
453313647;"{\"type\":\"LineString\",\"coordinates\":[[-73.7362198,45.6106312],[-73.7363442,45.6108689]]}";37;Boulevard des Laurentides;2;50;false;true;true;false;false;false;29.0;1;0;0;0;0;false;82126;6119525231;-73.682647;45.559788;82063;6119525289;-73.7617354;45.665799;0;0;1;9395166;Bus 28 : TERREBONNE OUEST;"";EXO;28 N;Station de métro Cartier;rue Moise Proulx / rue Beauchemin
45760622;"{\"type\":\"LineString\",\"coordinates\":[[-73.7363442,45.6108689],[-73.7363878,45.6109832]]}";38;Boulevard des Laurentides;2;50;false;true;true;false;false;false;14.0;2;0;0;0;0;false;82126;6119525231;-73.682647;45.559788;82063;6119525289;-73.7617354;45.665799;0;0;1;9395166;Bus 28 : TERREBONNE OUEST;"";EXO;28 N;Station de métro Cartier;rue Moise Proulx / rue Beauchemin
45760623;"{\"type\":\"LineString\",\"coordinates\":[[-73.7363878,45.6109832],[-73.7364561,45.6111733]]}";39;Boulevard des Laurentides;2;50;false;true;true;false;false;false;22.0;1;0;0;0;0;false;82126;6119525231;-73.682647;45.559788;82063;6119525289;-73.7617354;45.665799;0;0;1;9395166;Bus 28 : TERREBONNE OUEST;"";EXO;28 N;Station de métro Cartier;rue Moise Proulx / rue Beauchemin
453313642;"{\"type\":\"LineString\",\"coordinates\":[[-73.7364561,45.6111733],[-73.736659,45.6118593]]}";40;Boulevard des Laurentides;2;50;false;true;true;false;false;false;78.0;0;0;0;0;0;false;82126;6119525231;-73.682647;45.559788;82063;6119525289;-73.7617354;45.665799;0;0;1;9395166;Bus 28 : TERREBONNE OUEST;"";EXO;28 N;Station de métro Cartier;rue Moise Proulx / rue Beauchemin
455260226;"{\"type\":\"LineString\",\"coordinates\":[[-73.7400403,45.6154592],[-73.7396278,45.6150647],[-73.7387648,45.6142395],[-73.7378909,45.6134045],[-73.7374315,45.6129487],[-73.7371568,45.6126485],[-73.7370187,45.612488],[-73.7368022,45.612143],[-73.7367228,45.612007],[-73.736659,45.6118593]]}";41;Boulevard des Laurentides;4;50;false;false;true;false;false;false;481.0;0;0;0;0;0;false;82126;6119525231;-73.682647;45.559788;82063;6119525289;-73.7617354;45.665799;0;0;1;9395166;Bus 28 : TERREBONNE OUEST;"";EXO;28 N;Station de métro Cartier;rue Moise Proulx / rue Beauchemin
455260229;"{\"type\":\"LineString\",\"coordinates\":[[-73.7446231,45.6197693],[-73.7425008,45.6177734],[-73.7417467,45.6170641],[-73.7406573,45.6160395],[-73.7405914,45.6159776],[-73.7400403,45.6154592]]}";42;Boulevard des Laurentides;4;50;false;false;true;false;false;false;598.0;1;0;0;0;0;false;82126;6119525231;-73.682647;45.559788;82063;6119525289;-73.7617354;45.665799;0;0;1;9395166;Bus 28 : TERREBONNE OUEST;"";EXO;28 N;Station de métro Cartier;rue Moise Proulx / rue Beauchemin
455269000;"{\"type\":\"LineString\",\"coordinates\":[[-73.7455032,45.620589],[-73.7446231,45.6197693]]}";43;Boulevard des Laurentides;4;50;false;false;true;false;false;false;114.0;1;0;0;0;0;false;82126;6119525231;-73.682647;45.559788;82063;6119525289;-73.7617354;45.665799;0;0;1;9395166;Bus 28 : TERREBONNE OUEST;"";EXO;28 N;Station de métro Cartier;rue Moise Proulx / rue Beauchemin
686611413;"{\"type\":\"LineString\",\"coordinates\":[[-73.7467167,45.6217277],[-73.7455032,45.620589]]}";44;Boulevard des Laurentides;4;50;false;false;true;false;false;false;158.0;1;0;0;0;0;false;82126;6119525231;-73.682647;45.559788;82063;6119525289;-73.7617354;45.665799;0;0;1;9395166;Bus 28 : TERREBONNE OUEST;"";EXO;28 N;Station de métro Cartier;rue Moise Proulx / rue Beauchemin
544424356;"{\"type\":\"LineString\",\"coordinates\":[[-73.7482323,45.6231499],[-73.7467167,45.6217277]]}";45;Boulevard des Laurentides;4;50;false;false;true;false;false;false;198.0;1;0;0;0;0;false;82126;6119525231;-73.682647;45.559788;82063;6119525289;-73.7617354;45.665799;0;0;1;9395166;Bus 28 : TERREBONNE OUEST;"";EXO;28 N;Station de métro Cartier;rue Moise Proulx / rue Beauchemin
46302742;"{\"type\":\"LineString\",\"coordinates\":[[-73.7519892,45.6284861],[-73.7514819,45.6265813],[-73.7514291,45.6264151],[-73.7512443,45.6260802],[-73.751084,45.625858],[-73.7507723,45.6255315],[-73.7505717,45.6253425],[-73.7497516,45.6245739],[-73.7494982,45.6243363],[-73.748602,45.6234964],[-73.7482323,45.6231499]]}";46;Boulevard des Laurentides;4;50;false;false;true;false;false;false;676.0;1;0;0;0;0;false;82126;6119525231;-73.682647;45.559788;82063;6119525289;-73.7617354;45.665799;0;0;1;9395166;Bus 28 : TERREBONNE OUEST;"";EXO;28 N;Station de métro Cartier;rue Moise Proulx / rue Beauchemin
46302834;"{\"type\":\"LineString\",\"coordinates\":[[-73.7519892,45.6284861],[-73.7519271,45.6285891],[-73.7520613,45.6291521],[-73.7524328,45.6304388]]}";47;Boulevard des Laurentides;2;50;false;true;true;false;false;false;222.0;2;0;0;0;0;false;82126;6119525231;-73.682647;45.559788;82063;6119525289;-73.7617354;45.665799;0;0;1;9395166;Bus 28 : TERREBONNE OUEST;"";EXO;28 N;Station de métro Cartier;rue Moise Proulx / rue Beauchemin
686078339;"{\"type\":\"LineString\",\"coordinates\":[[-73.7524328,45.6304388],[-73.7526603,45.6311532],[-73.7527698,45.6312639]]}";48;Boulevard des Laurentides;2;50;false;true;true;false;false;false;97.0;1;0;0;0;0;false;82126;6119525231;-73.682647;45.559788;82063;6119525289;-73.7617354;45.665799;0;0;1;9395166;Bus 28 : TERREBONNE OUEST;"";EXO;28 N;Station de métro Cartier;rue Moise Proulx / rue Beauchemin
45289922;"{\"type\":\"LineString\",\"coordinates\":[[-73.7555723,45.6408757],[-73.7549784,45.6388653],[-73.7547047,45.6379031],[-73.7545546,45.6373773],[-73.7543724,45.6367691],[-73.7543289,45.6366239],[-73.754212,45.6362341],[-73.754131,45.6359638],[-73.7540991,45.6358574],[-73.7540854,45.6358118],[-73.7540712,45.6357645],[-73.7536418,45.6343323],[-73.7532601,45.633032],[-73.7531562,45.6326621],[-73.7530374,45.632239],[-73.7529152,45.6318041],[-73.7527698,45.6312639]]}";49;Boulevard des Laurentides;4;50;false;false;true;false;false;false;1090.0;2;0;0;0;0;false;82126;6119525231;-73.682647;45.559788;82063;6119525289;-73.7617354;45.665799;0;0;1;9395166;Bus 28 : TERREBONNE OUEST;"";EXO;28 N;Station de métro Cartier;rue Moise Proulx / rue Beauchemin
41337564;"{\"type\":\"LineString\",\"coordinates\":[[-73.7555723,45.6408757],[-73.7558383,45.6417638],[-73.7559156,45.6421778],[-73.7559328,45.6425139],[-73.7559214,45.642638],[-73.7558342,45.6429669],[-73.7557306,45.643278],[-73.7555812,45.6435164],[-73.7553717,45.6437971],[-73.7551985,45.6439861],[-73.7545766,45.6445601],[-73.7543477,45.6447451]]}";50;Boulevard des Laurentides;4;50;false;false;true;false;false;false;468.0;1;0;0;0;0;false;82126;6119525231;-73.682647;45.559788;82063;6119525289;-73.7617354;45.665799;0;0;1;9395166;Bus 28 : TERREBONNE OUEST;"";EXO;28 N;Station de métro Cartier;rue Moise Proulx / rue Beauchemin
694196055;"{\"type\":\"LineString\",\"coordinates\":[[-73.7543477,45.6447451],[-73.7537012,45.6451721],[-73.7524223,45.6458862]]}";51;Boulevard des Laurentides;4;50;false;false;true;false;false;false;197.0;1;0;0;0;0;false;82126;6119525231;-73.682647;45.559788;82063;6119525289;-73.7617354;45.665799;0;0;1;9395166;Bus 28 : TERREBONNE OUEST;"";EXO;28 N;Station de métro Cartier;rue Moise Proulx / rue Beauchemin
53332411;"{\"type\":\"LineString\",\"coordinates\":[[-73.7524223,45.6458862],[-73.7514961,45.646332],[-73.7507324,45.6467415],[-73.7504224,45.6470045],[-73.750209,45.6472856],[-73.7500265,45.6475667],[-73.7497447,45.6479892],[-73.7494497,45.6484612],[-73.748926,45.649281],[-73.7487461,45.6495782],[-73.7486383,45.6497966],[-73.7484693,45.6502605],[-73.7484361,45.6504215],[-73.7483893,45.6507053],[-73.7483547,45.6510296],[-73.7483364,45.6512972],[-73.7483217,45.6521419],[-73.7483292,45.6524562],[-73.7483093,45.6527542],[-73.7482828,45.6529997]]}";52;Boulevard des Laurentides;2;50;false;false;false;false;false;false;899.0;1;0;0;0;0;false;82126;6119525231;-73.682647;45.559788;82063;6119525289;-73.7617354;45.665799;0;0;1;9395166;Bus 28 : TERREBONNE OUEST;"";EXO;28 N;Station de métro Cartier;rue Moise Proulx / rue Beauchemin
111409527;"{\"type\":\"LineString\",\"coordinates\":[[-73.7467836,45.6552481],[-73.7470432,45.6549576],[-73.7473055,45.6546409],[-73.7477239,45.6541254],[-73.7479802,45.6537178],[-73.7481238,45.653429],[-73.7482364,45.6531989],[-73.7482828,45.6529997]]}";53;Boulevard des Laurentides;1;50;false;false;true;false;false;false;278.0;0;0;0;0;0;false;82126;6119525231;-73.682647;45.559788;82063;6119525289;-73.7617354;45.665799;0;0;1;9395166;Bus 28 : TERREBONNE OUEST;"";EXO;28 N;Station de métro Cartier;rue Moise Proulx / rue Beauchemin
45289917;"{\"type\":\"LineString\",\"coordinates\":[[-73.7467836,45.6552481],[-73.7465529,45.6554407],[-73.7464094,45.6555944],[-73.7462581,45.6557712]]}";54;Boulevard des Laurentides;1;50;false;true;true;false;false;false;72.0;1;0;0;0;0;false;82126;6119525231;-73.682647;45.559788;82063;6119525289;-73.7617354;45.665799;0;0;1;9395166;Bus 28 : TERREBONNE OUEST;"";EXO;28 N;Station de métro Cartier;rue Moise Proulx / rue Beauchemin
676619308;"{\"type\":\"LineString\",\"coordinates\":[[-73.7462581,45.6557712],[-73.7461734,45.6558682]]}";55;Boulevard des Mille-Îles;1;50;false;true;true;false;false;false;13.0;2;0;0;0;0;false;82126;6119525231;-73.682647;45.559788;82063;6119525289;-73.7617354;45.665799;0;0;1;9395166;Bus 28 : TERREBONNE OUEST;"";EXO;28 N;Station de métro Cartier;rue Moise Proulx / rue Beauchemin
676619307;"{\"type\":\"LineString\",\"coordinates\":[[-73.7461734,45.6558682],[-73.7462766,45.6559563]]}";56;Avenue Papineau;2;90;false;true;false;false;false;false;13.0;2;0;0;0;0;false;82126;6119525231;-73.682647;45.559788;82063;6119525289;-73.7617354;45.665799;0;0;1;9395166;Bus 28 : TERREBONNE OUEST;"";EXO;28 N;Station de métro Cartier;rue Moise Proulx / rue Beauchemin
567770359;"{\"type\":\"LineString\",\"coordinates\":[[-73.7462766,45.6559563],[-73.7469916,45.6565117],[-73.7478929,45.6572091],[-73.7489432,45.6579517],[-73.7490797,45.6580482],[-73.7492023,45.6581373]]}";57;Avenue Papineau;2;70;false;true;true;false;false;false;333.0;2;0;0;0;0;false;82126;6119525231;-73.682647;45.559788;82063;6119525289;-73.7617354;45.665799;0;0;1;9395166;Bus 28 : TERREBONNE OUEST;"";EXO;28 N;Station de métro Cartier;rue Moise Proulx / rue Beauchemin
709304140;"{\"type\":\"LineString\",\"coordinates\":[[-73.7492023,45.6581373],[-73.7509763,45.6594379],[-73.7515198,45.6597528]]}";58;Avenue Papineau;2;70;false;true;false;false;false;false;255.0;0;0;0;0;0;false;82126;6119525231;-73.682647;45.559788;82063;6119525289;-73.7617354;45.665799;0;0;1;9395166;Bus 28 : TERREBONNE OUEST;"";EXO;28 N;Station de métro Cartier;rue Moise Proulx / rue Beauchemin
53332004;"{\"type\":\"LineString\",\"coordinates\":[[-73.7515198,45.6597528],[-73.7520081,45.6601144]]}";59;Avenue Papineau;4;70;false;false;false;false;false;false;56.0;0;0;0;0;0;false;82126;6119525231;-73.682647;45.559788;82063;6119525289;-73.7617354;45.665799;0;0;1;9395166;Bus 28 : TERREBONNE OUEST;"";EXO;28 N;Station de métro Cartier;rue Moise Proulx / rue Beauchemin
352333280;"{\"type\":\"LineString\",\"coordinates\":[[-73.7520081,45.6601144],[-73.7552175,45.6624906]]}";60;Pont Athanase-David;4;70;false;false;false;false;false;false;364.0;0;0;0;0;0;false;82126;6119525231;-73.682647;45.559788;82063;6119525289;-73.7617354;45.665799;0;0;1;9395166;Bus 28 : TERREBONNE OUEST;"";EXO;28 N;Station de métro Cartier;rue Moise Proulx / rue Beauchemin
53332005;"{\"type\":\"LineString\",\"coordinates\":[[-73.7552175,45.6624906],[-73.7567211,45.6635746]]}";61;Boulevard Louis-Joseph-Papineau;4;70;false;false;false;false;false;false;168.0;0;0;0;0;0;false;82126;6119525231;-73.682647;45.559788;82063;6119525289;-73.7617354;45.665799;0;0;1;9395166;Bus 28 : TERREBONNE OUEST;"";EXO;28 N;Station de métro Cartier;rue Moise Proulx / rue Beauchemin
567770358;"{\"type\":\"LineString\",\"coordinates\":[[-73.7567211,45.6635746],[-73.7573318,45.6640203]]}";62;Boulevard Louis-Joseph-Papineau;4;50;false;false;false;false;false;false;69.0;0;0;0;0;0;false;82126;6119525231;-73.682647;45.559788;82063;6119525289;-73.7617354;45.665799;0;0;1;9395166;Bus 28 : TERREBONNE OUEST;"";EXO;28 N;Station de métro Cartier;rue Moise Proulx / rue Beauchemin
205764076;"{\"type\":\"LineString\",\"coordinates\":[[-73.7573318,45.6640203],[-73.7576794,45.6642762],[-73.7582465,45.6646323]]}";63;Boulevard Louis-Joseph-Papineau;2;50;false;true;false;false;false;false;99.0;0;0;0;0;0;false;82126;6119525231;-73.682647;45.559788;82063;6119525289;-73.7617354;45.665799;0;0;1;9395166;Bus 28 : TERREBONNE OUEST;"";EXO;28 N;Station de métro Cartier;rue Moise Proulx / rue Beauchemin
455285357;"{\"type\":\"LineString\",\"coordinates\":[[-73.7582465,45.6646323],[-73.7587683,45.6649012],[-73.7591967,45.6651838],[-73.759437,45.6653737]]}";64;Boulevard Louis-Joseph-Papineau;2;50;false;true;false;false;false;false;125.0;1;0;0;0;0;false;82126;6119525231;-73.682647;45.559788;82063;6119525289;-73.7617354;45.665799;0;0;1;9395166;Bus 28 : TERREBONNE OUEST;"";EXO;28 N;Station de métro Cartier;rue Moise Proulx / rue Beauchemin
455285353;"{\"type\":\"LineString\",\"coordinates\":[[-73.759437,45.6653737],[-73.7595373,45.6654432]]}";65;Boulevard Louis-Joseph-Papineau;1;50;false;true;true;false;false;false;11.0;2;0;0;0;0;false;82126;6119525231;-73.682647;45.559788;82063;6119525289;-73.7617354;45.665799;0;0;1;9395166;Bus 28 : TERREBONNE OUEST;"";EXO;28 N;Station de métro Cartier;rue Moise Proulx / rue Beauchemin
455285348;"{\"type\":\"LineString\",\"coordinates\":[[-73.7595373,45.6654432],[-73.7596352,45.6653551]]}";66;Boulevard Adolphe-Chapleau;1;50;false;true;true;false;false;false;13.0;2;0;0;0;0;false;82126;6119525231;-73.682647;45.559788;82063;6119525289;-73.7617354;45.665799;0;0;1;9395166;Bus 28 : TERREBONNE OUEST;"";EXO;28 N;Station de métro Cartier;rue Moise Proulx / rue Beauchemin
455285347;"{\"type\":\"LineString\",\"coordinates\":[[-73.7596352,45.6653551],[-73.7599368,45.6650539]]}";67;Boulevard Adolphe-Chapleau;1;50;false;true;true;false;false;false;41.0;1;0;0;0;0;false;82126;6119525231;-73.682647;45.559788;82063;6119525289;-73.7617354;45.665799;0;0;1;9395166;Bus 28 : TERREBONNE OUEST;"";EXO;28 N;Station de métro Cartier;rue Moise Proulx / rue Beauchemin
23565388;"{\"type\":\"LineString\",\"coordinates\":[[-73.7599368,45.6650539],[-73.7601488,45.6648422]]}";68;Boulevard Adolphe-Chapleau;1;50;false;true;true;false;false;false;29.0;0;0;0;0;0;false;82126;6119525231;-73.682647;45.559788;82063;6119525289;-73.7617354;45.665799;0;0;1;9395166;Bus 28 : TERREBONNE OUEST;"";EXO;28 N;Station de métro Cartier;rue Moise Proulx / rue Beauchemin
162297034;"{\"type\":\"LineString\",\"coordinates\":[[-73.7601488,45.6648422],[-73.7602879,45.6648147],[-73.7603394,45.6648201],[-73.7603932,45.6648315],[-73.7605283,45.664886]]}";69;"";1;50;false;true;true;false;false;false;32.0;0;0;0;0;0;false;82126;6119525231;-73.682647;45.559788;82063;6119525289;-73.7617354;45.665799;0;0;1;9395166;Bus 28 : TERREBONNE OUEST;"";EXO;28 N;Station de métro Cartier;rue Moise Proulx / rue Beauchemin
676619306;"{\"type\":\"LineString\",\"coordinates\":[[-73.7605283,45.664886],[-73.7610183,45.6652243]]}";70;Montée Gagnon;1;50;false;true;true;false;false;false;54.0;0;0;0;0;0;false;82126;6119525231;-73.682647;45.559788;82063;6119525289;-73.7617354;45.665799;0;0;1;9395166;Bus 28 : TERREBONNE OUEST;"";EXO;28 N;Station de métro Cartier;rue Moise Proulx / rue Beauchemin
676642399;"{\"type\":\"LineString\",\"coordinates\":[[-73.7610183,45.6652243],[-73.7610939,45.6652766],[-73.7617144,45.665705]]}";71;Montée Gagnon;1;50;false;true;true;false;false;false;77.0;0;0;0;0;0;false;82126;6119525231;-73.682647;45.559788;82063;6119525289;-73.7617354;45.665799;0;0;1;9395166;Bus 28 : TERREBONNE OUEST;"";EXO;28 N;Station de métro Cartier;rue Moise Proulx / rue Beauchemin
486357823;"{\"type\":\"LineString\",\"coordinates\":[[-73.7617144,45.665705],[-73.7622553,45.6660812],[-73.7624113,45.6660934]]}";72;Montée Gagnon;1;50;false;true;true;false;false;false;36.0;0;0;0;0;0;false;82126;6119525231;-73.682647;45.559788;82063;6119525289;-73.7617354;45.665799;1;0;1;9395166;Bus 28 : TERREBONNE OUEST;"";EXO;28 N;Station de métro Cartier;rue Moise Proulx / rue Beauchemin
676642399;"{\"type\":\"LineString\",\"coordinates\":[[-73.7610183,45.6652243],[-73.7610939,45.6652766],[-73.7617144,45.665705]]}";1;Montée Gagnon;1;50;false;true;true;false;false;false;77.0;0;0;0;0;0;false;82063;6119525289;-73.7617354;45.665799;82128;6119525229;-73.766629;45.669165;2;1;2;9395166;Bus 28 : TERREBONNE OUEST;"";EXO;28 N;Station de métro Cartier;rue Moise Proulx / rue Beauchemin
486357823;"{\"type\":\"LineString\",\"coordinates\":[[-73.7617144,45.665705],[-73.7622553,45.6660812],[-73.7624113,45.6660934]]}";2;Montée Gagnon;1;50;false;true;true;false;false;false;72.0;0;0;0;0;0;false;82063;6119525289;-73.7617354;45.665799;82128;6119525229;-73.766629;45.669165;0;1;2;9395166;Bus 28 : TERREBONNE OUEST;"";EXO;28 N;Station de métro Cartier;rue Moise Proulx / rue Beauchemin
135457797;"{\"type\":\"LineString\",\"coordinates\":[[-73.7624113,45.6660934],[-73.7629884,45.6664964],[-73.764045,45.6672341],[-73.7668365,45.6691831]]}";3;Montée Gagnon;2;50;false;false;true;false;false;false;487.0;0;0;0;0;0;false;82063;6119525289;-73.7617354;45.665799;82128;6119525229;-73.766629;45.669165;2;1;2;9395166;Bus 28 : TERREBONNE OUEST;"";EXO;28 N;Station de métro Cartier;rue Moise Proulx / rue Beauchemin
810096308;"{\"type\":\"LineString\",\"coordinates\":[[-73.7668365,45.6691831],[-73.7683359,45.6702652]]}";1;Montée Gagnon;2;50;false;false;false;false;false;false;168.0;0;0;0;0;0;false;82128;6119525229;-73.766629;45.669165;82130;6119525228;-73.774434;45.674557;2;2;3;9395166;Bus 28 : TERREBONNE OUEST;"";EXO;28 N;Station de métro Cartier;rue Moise Proulx / rue Beauchemin
289882299;"{\"type\":\"LineString\",\"coordinates\":[[-73.7683359,45.6702652],[-73.7693153,45.670972]]}";2;Montée Gagnon;2;50;false;false;false;false;false;false;110.0;0;0;0;0;0;false;82128;6119525229;-73.766629;45.669165;82130;6119525228;-73.774434;45.674557;0;2;3;9395166;Bus 28 : TERREBONNE OUEST;"";EXO;28 N;Station de métro Cartier;rue Moise Proulx / rue Beauchemin
164556096;"{\"type\":\"LineString\",\"coordinates\":[[-73.7693153,45.670972],[-73.7701368,45.6715729],[-73.7710191,45.6721737],[-73.7739238,45.6740868],[-73.7747088,45.6746039],[-73.7781244,45.6768534],[-73.7787245,45.6772487],[-73.7792417,45.6775893],[-73.7794452,45.6777233],[-73.7795887,45.6778178],[-73.7798553,45.6779934],[-73.7805376,45.6784427]]}";3;Montée Gagnon;2;50;false;false;false;false;false;false;1205.0;0;0;0;0;0;false;82128;6119525229;-73.766629;45.669165;82130;6119525228;-73.774434;45.674557;2;2;3;9395166;Bus 28 : TERREBONNE OUEST;"";EXO;28 N;Station de métro Cartier;rue Moise Proulx / rue Beauchemin
674530008;"{\"type\":\"LineString\",\"coordinates\":[[-73.7816208,45.6791561],[-73.7816898,45.6792015]]}";1;Montée Gagnon;2;50;false;false;false;false;false;false;8.0;0;0;0;0;0;false;82134;6119525224;-73.781525;45.679186;82963;6119523084;-73.783632;45.680597;2;7;8;9395166;Bus 28 : TERREBONNE OUEST;"";EXO;28 N;Station de métro Cartier;rue Moise Proulx / rue Beauchemin
674530011;"{\"type\":\"LineString\",\"coordinates\":[[-73.7816898,45.6792015],[-73.7824465,45.6796999],[-73.7830358,45.680088],[-73.7834312,45.6803484],[-73.7838297,45.6806108]]}";2;Montée Gagnon;2;50;false;false;false;false;false;false;229.0;0;0;0;0;0;false;82134;6119525224;-73.781525;45.679186;82963;6119523084;-73.783632;45.680597;2;7;8;9395166;Bus 28 : TERREBONNE OUEST;"";EXO;28 N;Station de métro Cartier;rue Moise Proulx / rue Beauchemin
679593560;"{\"type\":\"LineString\",\"coordinates\":[[-73.7838297,45.6806108],[-73.7839354,45.6806792]]}";1;Montée Gagnon;2;50;false;false;false;false;false;false;12.0;0;0;0;0;0;false;82963;6119523084;-73.783632;45.680597;82135;6119525223;-73.788625;45.683959;2;8;9;9395166;Bus 28 : TERREBONNE OUEST;"";EXO;28 N;Station de métro Cartier;rue Moise Proulx / rue Beauchemin
278677492;"{\"type\":\"LineString\",\"coordinates\":[[-73.7839354,45.6806792],[-73.7849084,45.6813195],[-73.7859083,45.6819776],[-73.7864641,45.6823456],[-73.787021,45.6827206],[-73.7889383,45.6840113]]}";2;Montée Gagnon;2;50;false;false;false;false;false;false;538.0;0;0;0;0;0;false;82963;6119523084;-73.783632;45.680597;82135;6119525223;-73.788625;45.683959;2;8;9;9395166;Bus 28 : TERREBONNE OUEST;"";EXO;28 N;Station de métro Cartier;rue Moise Proulx / rue Beauchemin
278677492;"{\"type\":\"LineString\",\"coordinates\":[[-73.7839354,45.6806792],[-73.7849084,45.6813195],[-73.7859083,45.6819776],[-73.7864641,45.6823456],[-73.787021,45.6827206],[-73.7889383,45.6840113]]}";1;Montée Gagnon;2;50;false;false;false;false;false;false;269.0;0;0;0;0;0;false;82135;6119525223;-73.788625;45.683959;85530;6119522901;-73.787308;45.684947;1;9;10;9395166;Bus 28 : TERREBONNE OUEST;"";EXO;28 N;Station de métro Cartier;rue Moise Proulx / rue Beauchemin
796595090;"{\"type\":\"LineString\",\"coordinates\":[[-73.7873531,45.685253],[-73.7881716,45.6846096],[-73.7889383,45.6840113]]}";2;Rang Saint-François;1;50;false;false;true;false;false;false;93.0;0;0;0;0;0;false;82135;6119525223;-73.788625;45.683959;85530;6119522901;-73.787308;45.684947;1;9;10;9395166;Bus 28 : TERREBONNE OUEST;"";EXO;28 N;Station de métro Cartier;rue Moise Proulx / rue Beauchemin
796595090;"{\"type\":\"LineString\",\"coordinates\":[[-73.7873531,45.685253],[-73.7881716,45.6846096],[-73.7889383,45.6840113]]}";1;Rang Saint-François;1;50;false;false;true;false;false;false;93.0;0;0;0;0;0;false;85530;6119522901;-73.787308;45.684947;85503;6119522914;-73.784435;45.687316;1;10;11;9395166;Bus 28 : TERREBONNE OUEST;"";EXO;28 N;Station de métro Cartier;rue Moise Proulx / rue Beauchemin
278400218;"{\"type\":\"LineString\",\"coordinates\":[[-73.7849166,45.6871681],[-73.7873531,45.685253]]}";2;Rang Saint-François;1;50;false;false;false;false;false;false;285.0;0;0;0;0;0;false;85530;6119522901;-73.787308;45.684947;85503;6119522914;-73.784435;45.687316;0;10;11;9395166;Bus 28 : TERREBONNE OUEST;"";EXO;28 N;Station de métro Cartier;rue Moise Proulx / rue Beauchemin
676083614;"{\"type\":\"LineString\",\"coordinates\":[[-73.7842841,45.6876558],[-73.7849166,45.6871681]]}";3;Rang Saint-François;1;50;false;false;false;false;false;false;37.0;0;0;0;0;0;false;85530;6119522901;-73.787308;45.684947;85503;6119522914;-73.784435;45.687316;1;10;11;9395166;Bus 28 : TERREBONNE OUEST;"";EXO;28 N;Station de métro Cartier;rue Moise Proulx / rue Beauchemin
676083614;"{\"type\":\"LineString\",\"coordinates\":[[-73.7842841,45.6876558],[-73.7849166,45.6871681]]}";1;Rang Saint-François;1;50;false;false;false;false;false;false;37.0;0;0;0;0;0;false;85503;6119522914;-73.784435;45.687316;85504;6119522913;-73.787621;45.690183;1;11;12;9395166;Bus 28 : TERREBONNE OUEST;"";EXO;28 N;Station de métro Cartier;rue Moise Proulx / rue Beauchemin
46500676;"{\"type\":\"LineString\",\"coordinates\":[[-73.7842841,45.6876558],[-73.7878227,45.6902199],[-73.7912573,45.6927174]]}";2;Rue Johanne;2;50;false;false;true;false;false;false;391.0;0;0;0;0;0;false;85503;6119522914;-73.784435;45.687316;85504;6119522913;-73.787621;45.690183;1;11;12;9395166;Bus 28 : TERREBONNE OUEST;"";EXO;28 N;Station de métro Cartier;rue Moise Proulx / rue Beauchemin
676083617;"{\"type\":\"LineString\",\"coordinates\":[[-73.7986793,45.6979299],[-73.7985846,45.6980183]]}";1;Rue Marie-Josée;2;50;false;false;true;false;false;false;13.0;0;0;0;0;0;false;85506;6119522911;-73.798398;45.698002;85542;6119522897;-73.800218;45.696889;2;15;16;9395166;Bus 28 : TERREBONNE OUEST;"";EXO;28 N;Station de métro Cartier;rue Moise Proulx / rue Beauchemin
164553227;"{\"type\":\"LineString\",\"coordinates\":[[-73.8062294,45.6955062],[-73.8057623,45.6958954],[-73.805342,45.6961629],[-73.8050882,45.6962937],[-73.8048362,45.6963917],[-73.8031276,45.6965394],[-73.8016066,45.6966549],[-73.8003711,45.6967679],[-73.8000726,45.6967988],[-73.7998976,45.6968503],[-73.799738,45.6969413],[-73.7986793,45.6979299]]}";2;Rue Marie-Josée;2;50;false;false;true;false;false;false;690.0;0;0;0;0;0;false;85506;6119522911;-73.798398;45.698002;85542;6119522897;-73.800218;45.696889;2;15;16;9395166;Bus 28 : TERREBONNE OUEST;"";EXO;28 N;Station de métro Cartier;rue Moise Proulx / rue Beauchemin
164553227;"{\"type\":\"LineString\",\"coordinates\":[[-73.8062294,45.6955062],[-73.8057623,45.6958954],[-73.805342,45.6961629],[-73.8050882,45.6962937],[-73.8048362,45.6963917],[-73.8031276,45.6965394],[-73.8016066,45.6966549],[-73.8003711,45.6967679],[-73.8000726,45.6967988],[-73.7998976,45.6968503],[-73.799738,45.6969413],[-73.7986793,45.6979299]]}";1;Rue Marie-Josée;2;50;false;false;true;false;false;false;345.0;0;0;0;0;0;false;85544;6119522895;-73.806124;45.695696;82086;6119525266;-73.808735;45.697253;1;18;19;9395166;Bus 28 : TERREBONNE OUEST;"";EXO;28 N;Station de métro Cartier;rue Moise Proulx / rue Beauchemin
297969688;"{\"type\":\"LineString\",\"coordinates\":[[-73.8062294,45.6955062],[-73.8071992,45.6961158],[-73.8078031,45.6964954],[-73.8086427,45.6970165]]}";2;Montée Gagnon;2;50;false;false;true;false;false;false;252.0;1;0;0;0;0;false;85544;6119522895;-73.806124;45.695696;82086;6119525266;-73.808735;45.697253;0;18;19;9395166;Bus 28 : TERREBONNE OUEST;"";EXO;28 N;Station de métro Cartier;rue Moise Proulx / rue Beauchemin
676652949;"{\"type\":\"LineString\",\"coordinates\":[[-73.8086427,45.6970165],[-73.8091038,45.6973076],[-73.8096709,45.6976818],[-73.811615,45.6989646],[-73.8125592,45.6995826]]}";3;Montée Gagnon;2;90;false;false;true;false;false;false;209.0;1;0;0;0;0;false;85544;6119522895;-73.806124;45.695696;82086;6119525266;-73.808735;45.697253;1;18;19;9395166;Bus 28 : TERREBONNE OUEST;"";EXO;28 N;Station de métro Cartier;rue Moise Proulx / rue Beauchemin
679593562;"{\"type\":\"LineString\",\"coordinates\":[[-73.8125592,45.6995826],[-73.8137352,45.700361]]}";1;Montée Gagnon;2;90;false;false;true;false;false;false;126.0;0;0;0;0;0;false;82087;6119525265;-73.812389;45.699543;85545;6119522894;-73.814425;45.704799;2;20;21;9395166;Bus 28 : TERREBONNE OUEST;"";EXO;28 N;Station de métro Cartier;rue Moise Proulx / rue Beauchemin
46500948;"{\"type\":\"LineString\",\"coordinates\":[[-73.8137352,45.700361],[-73.8133026,45.7007499],[-73.8135235,45.7016487],[-73.8145221,45.7048454],[-73.8148342,45.7058837],[-73.8148062,45.7059915],[-73.8147539,45.7060359],[-73.8145085,45.7060964],[-73.8136526,45.7062358],[-73.812743,45.7063571],[-73.8122925,45.7063974]]}";2;Rue Marc;2;50;false;false;true;false;false;false;852.0;0;0;0;0;0;false;82087;6119525265;-73.812389;45.699543;85545;6119522894;-73.814425;45.704799;2;20;21;9395166;Bus 28 : TERREBONNE OUEST;"";EXO;28 N;Station de métro Cartier;rue Moise Proulx / rue Beauchemin
676652951;"{\"type\":\"LineString\",\"coordinates\":[[-73.8120482,45.7058008],[-73.8121613,45.705919],[-73.8122925,45.7063974]]}";1;Rue du Goéland;2;50;false;false;true;false;false;false;70.0;0;0;0;0;0;false;85546;6119522893;-73.812407;45.706365;85547;6119522892;-73.80796;45.70554;2;22;23;9395166;Bus 28 : TERREBONNE OUEST;"";EXO;28 N;Station de métro Cartier;rue Moise Proulx / rue Beauchemin
46500936;"{\"type\":\"LineString\",\"coordinates\":[[-73.8092606,45.7064018],[-73.8095485,45.7061528],[-73.8097561,45.706056],[-73.8108388,45.7058872],[-73.8113544,45.7058026],[-73.8119079,45.7057543],[-73.8120482,45.7058008]]}";2;Rue de l'Étourneau;2;50;false;false;true;false;false;false;238.0;0;0;0;0;0;false;85546;6119522893;-73.812407;45.706365;85547;6119522892;-73.80796;45.70554;0;22;23;9395166;Bus 28 : TERREBONNE OUEST;"";EXO;28 N;Station de métro Cartier;rue Moise Proulx / rue Beauchemin
676652952;"{\"type\":\"LineString\",\"coordinates\":[[-73.8078676,45.7054512],[-73.8079395,45.705695],[-73.8081665,45.7058954],[-73.8087004,45.706162],[-73.8092606,45.7064018]]}";3;Rue Bigras;2;50;false;false;true;false;false;false;159.0;0;0;0;0;0;false;85546;6119522893;-73.812407;45.706365;85547;6119522892;-73.80796;45.70554;2;22;23;9395166;Bus 28 : TERREBONNE OUEST;"";EXO;28 N;Station de métro Cartier;rue Moise Proulx / rue Beauchemin
676652955;"{\"type\":\"LineString\",\"coordinates\":[[-73.8014931,45.7005398],[-73.8009039,45.7005891],[-73.7979333,45.7008377],[-73.7952051,45.70107],[-73.7935765,45.7012261],[-73.7922445,45.7013537],[-73.7912325,45.7014375]]}";1;Chemin Saint-Roch;2;50;false;false;true;false;false;false;402.5;0;0;0;0;0;false;85508;6119522910;-73.792316;45.701264;85509;6119522909;-73.788285;45.701802;1;29;30;9395166;Bus 28 : TERREBONNE OUEST;"";EXO;28 N;Station de métro Cartier;rue Moise Proulx / rue Beauchemin
676652945;"{\"type\":\"LineString\",\"coordinates\":[[-73.7912325,45.7014375],[-73.7894003,45.7016027],[-73.7884865,45.701683]]}";2;Chemin Saint-Roch;2;50;false;false;true;false;false;false;216.0;0;0;0;0;0;false;85508;6119522910;-73.792316;45.701264;85509;6119522909;-73.788285;45.701802;0;29;30;9395166;Bus 28 : TERREBONNE OUEST;"";EXO;28 N;Station de métro Cartier;rue Moise Proulx / rue Beauchemin
46500747;"{\"type\":\"LineString\",\"coordinates\":[[-73.7832685,45.697833],[-73.7848838,45.6990249],[-73.7867039,45.7003678],[-73.7884865,45.701683]]}";3;Rue Lamothe;2;50;false;false;true;false;false;false;295.0;0;0;0;0;0;false;85508;6119522910;-73.792316;45.701264;85509;6119522909;-73.788285;45.701802;1;29;30;9395166;Bus 28 : TERREBONNE OUEST;"";EXO;28 N;Station de métro Cartier;rue Moise Proulx / rue Beauchemin
46500747;"{\"type\":\"LineString\",\"coordinates\":[[-73.7832685,45.697833],[-73.7848838,45.6990249],[-73.7867039,45.7003678],[-73.7884865,45.701683]]}";1;Rue Lamothe;2;50;false;false;true;false;false;false;295.0;0;0;0;0;0;false;84254;6119522919;-73.783552;45.697911;84255;6119522918;-73.784839;45.696829;1;31;32;9395166;Bus 28 : TERREBONNE OUEST;"";EXO;28 N;Station de métro Cartier;rue Moise Proulx / rue Beauchemin
46500887;"{\"type\":\"LineString\",\"coordinates\":[[-73.7848681,45.6967481],[-73.7838051,45.6974691],[-73.7832685,45.697833]]}";2;Rue Moïse-Proulx;2;50;false;false;true;false;false;false;174.0;0;0;0;0;0;false;84254;6119522919;-73.783552;45.697911;84255;6119522918;-73.784839;45.696829;1;31;32;9395166;Bus 28 : TERREBONNE OUEST;"";EXO;28 N;Station de métro Cartier;rue Moise Proulx / rue Beauchemin
