way_id;shape;index;name;nb_lanes;legal_speed;speed_zone_30;oneway;shares_bike;bike_box;bus_lane;dedicated_bus_lane;length;nb_traffic_signals;nb_crossings;nb_stops;nb_give_ways;nb_lvl_crossings;roundabout;stop_id_orig;node_id_orig;coord_x_orig;coord_y_orig;stop_id_dest;node_id_dest;coord_x_dest;coord_y_dest;nb_neighbouring_ways_bus_stop;order_orig;order_dest;id_line;line_name;colour;operator;ref;from;to
20709111;"{\"type\":\"LineString\",\"coordinates\":[[-6.0585705,53.3729919],[-6.0585205,53.3729697],[-6.0584383,53.3729333],[-6.0583843,53.3728912],[-6.0583532,53.3728565],[-6.0583439,53.3728172],[-6.0583551,53.3727747],[-6.0583635,53.3727426],[-6.0583874,53.3726902],[-6.0584809,53.3725854]]}";1;Old Thormanby Road;2;50;false;false;true;false;false;false;54.0;0;0;1;0;0;false;567;687803809;-6.0586424;53.3725104;574;946859706;-6.0642793;53.3846555;1;0;1;449611;31 - Howth Summit - Howth - Talbot Street;"";Dublin Bus;31;Howth Summit;Talbot Street
3819276;"{\"type\":\"LineString\",\"coordinates\":[[-6.057524,53.3801112],[-6.0574624,53.3799963],[-6.0573619,53.3798086],[-6.0572709,53.3796388],[-6.0572305,53.3795634],[-6.057197,53.3794672],[-6.0571333,53.3792268],[-6.057108,53.3791312],[-6.0570786,53.3790205],[-6.0570624,53.3789592],[-6.0570301,53.3788695],[-6.0570028,53.3787936],[-6.0569998,53.3787886],[-6.0569497,53.3787035],[-6.056931,53.3786719],[-6.0568566,53.37856],[-6.0568113,53.3784917],[-6.056748,53.3783964],[-6.05673,53.3783693],[-6.0567056,53.3783326],[-6.0566205,53.3782043],[-6.0565165,53.3780858],[-6.0564928,53.3780589],[-6.0563117,53.3778526],[-6.0562681,53.3778082],[-6.0561504,53.3776885],[-6.0560068,53.3775424],[-6.0559344,53.3774718],[-6.0558659,53.3774043],[-6.055846,53.3773847],[-6.0558197,53.3773588],[-6.0557427,53.3772829],[-6.0556159,53.377158],[-6.055577,53.3771196],[-6.0555463,53.3770894],[-6.0553731,53.37692],[-6.0553408,53.3768884],[-6.0550384,53.3765926],[-6.0549567,53.3764973],[-6.0549271,53.3764542],[-6.0548895,53.3763993],[-6.0548521,53.3763157],[-6.0548363,53.3762805],[-6.0548166,53.3762148],[-6.0547919,53.3761323],[-6.0547823,53.3761003],[-6.0547664,53.3760181],[-6.0547596,53.3759828],[-6.0547373,53.375867],[-6.0547321,53.37584],[-6.0547194,53.3757741],[-6.0546826,53.3755834],[-6.0546776,53.3755574],[-6.0546584,53.3754575],[-6.0546358,53.3753404],[-6.0546312,53.3753168],[-6.0546074,53.3751932],[-6.0545893,53.3750993],[-6.0545704,53.3750011],[-6.0545612,53.3749536],[-6.0545617,53.3747759],[-6.0545619,53.37472],[-6.054562,53.3746861],[-6.0546003,53.374608],[-6.054679,53.3745005],[-6.0547792,53.3743918],[-6.0547979,53.3743746],[-6.0548791,53.3742995],[-6.0549667,53.3742328],[-6.0551385,53.3741484],[-6.0552206,53.3741177],[-6.0552467,53.374108],[-6.0553019,53.3740873],[-6.0554564,53.3740322],[-6.0555192,53.3740098],[-6.0556891,53.3739493],[-6.0558833,53.3738901],[-6.0559156,53.3738803],[-6.0559366,53.3738739],[-6.056002,53.373854],[-6.056155,53.3738074],[-6.0561713,53.3738024],[-6.0563853,53.3737378],[-6.0565224,53.3736964],[-6.0567815,53.3736182],[-6.0570267,53.3735442],[-6.0574401,53.3734174],[-6.0579471,53.3732661],[-6.0582737,53.3731578],[-6.0584433,53.3730717],[-6.0585705,53.3729919]]}";2;Thormanby Road;2;50;false;false;true;false;false;false;988.0;0;0;0;0;0;false;567;687803809;-6.0586424;53.3725104;574;946859706;-6.0642793;53.3846555;0;0;1;449611;31 - Howth Summit - Howth - Talbot Street;"";Dublin Bus;31;Howth Summit;Talbot Street
779940630;"{\"type\":\"LineString\",\"coordinates\":[[-6.0576931,53.3804357],[-6.0576068,53.380267],[-6.057524,53.3801112]]}";3;Thormanby Road;2;50;false;false;true;false;false;false;39.0;0;0;0;0;0;false;567;687803809;-6.0586424;53.3725104;574;946859706;-6.0642793;53.3846555;0;0;1;449611;31 - Howth Summit - Howth - Talbot Street;"";Dublin Bus;31;Howth Summit;Talbot Street
779940631;"{\"type\":\"LineString\",\"coordinates\":[[-6.058311,53.3811525],[-6.0581058,53.3809864],[-6.0580729,53.3809544],[-6.058003,53.3808864],[-6.0579144,53.3807815],[-6.0577654,53.3805487],[-6.0577056,53.3804553],[-6.0576931,53.3804357]]}";4;Thormanby Road;2;50;false;false;true;false;false;false;91.0;0;0;0;0;0;false;567;687803809;-6.0586424;53.3725104;574;946859706;-6.0642793;53.3846555;0;0;1;449611;31 - Howth Summit - Howth - Talbot Street;"";Dublin Bus;31;Howth Summit;Talbot Street
3819277;"{\"type\":\"LineString\",\"coordinates\":[[-6.0646726,53.3851855],[-6.0644697,53.3850303],[-6.0643734,53.3849381],[-6.0643127,53.3848639],[-6.0642418,53.3847177],[-6.0642241,53.3846698],[-6.0641642,53.3845036],[-6.0641451,53.3844511],[-6.0641147,53.3843673],[-6.0640815,53.3842799],[-6.0640413,53.3841913],[-6.0639866,53.3841149],[-6.0639258,53.3840541],[-6.0638235,53.3839727],[-6.0637826,53.3839401],[-6.0636682,53.3838785],[-6.0635326,53.3838207],[-6.0633853,53.3837695],[-6.0633309,53.3837506],[-6.0631513,53.3836881],[-6.0631279,53.38368],[-6.0629585,53.3836219],[-6.0627892,53.3835638],[-6.0626389,53.3835123],[-6.0623914,53.3834345],[-6.0622065,53.3833763],[-6.0621489,53.3833582],[-6.0618728,53.3832923],[-6.0618317,53.3832825],[-6.0616003,53.3832414],[-6.0615446,53.3832335],[-6.0614103,53.3832144],[-6.061238,53.3831899],[-6.0611134,53.3831722],[-6.0610485,53.3831598],[-6.0609871,53.3831481],[-6.060876,53.3831268],[-6.0607099,53.3830858],[-6.0606915,53.3830792],[-6.0606451,53.3830625],[-6.0606247,53.3830552],[-6.0604726,53.3829905],[-6.0603974,53.3829345],[-6.0603452,53.3828957],[-6.0601758,53.3827349],[-6.0598828,53.3824566],[-6.0597989,53.3823784],[-6.0597857,53.3823661],[-6.0597562,53.3823386],[-6.0596574,53.3822464],[-6.0596469,53.3822367],[-6.059581,53.3821753],[-6.0594559,53.3820588],[-6.0593494,53.3819645],[-6.0592228,53.3818621],[-6.0591267,53.3817841],[-6.0590524,53.381728],[-6.0590069,53.3816936],[-6.0588569,53.3815803],[-6.0588146,53.3815483],[-6.058311,53.3811525]]}";5;Thormanby Road;2;50;false;false;true;false;false;false;327.5;1;1;0;0;0;false;567;687803809;-6.0586424;53.3725104;574;946859706;-6.0642793;53.3846555;1;0;1;449611;31 - Howth Summit - Howth - Talbot Street;"";Dublin Bus;31;Howth Summit;Talbot Street
3819277;"{\"type\":\"LineString\",\"coordinates\":[[-6.0646726,53.3851855],[-6.0644697,53.3850303],[-6.0643734,53.3849381],[-6.0643127,53.3848639],[-6.0642418,53.3847177],[-6.0642241,53.3846698],[-6.0641642,53.3845036],[-6.0641451,53.3844511],[-6.0641147,53.3843673],[-6.0640815,53.3842799],[-6.0640413,53.3841913],[-6.0639866,53.3841149],[-6.0639258,53.3840541],[-6.0638235,53.3839727],[-6.0637826,53.3839401],[-6.0636682,53.3838785],[-6.0635326,53.3838207],[-6.0633853,53.3837695],[-6.0633309,53.3837506],[-6.0631513,53.3836881],[-6.0631279,53.38368],[-6.0629585,53.3836219],[-6.0627892,53.3835638],[-6.0626389,53.3835123],[-6.0623914,53.3834345],[-6.0622065,53.3833763],[-6.0621489,53.3833582],[-6.0618728,53.3832923],[-6.0618317,53.3832825],[-6.0616003,53.3832414],[-6.0615446,53.3832335],[-6.0614103,53.3832144],[-6.061238,53.3831899],[-6.0611134,53.3831722],[-6.0610485,53.3831598],[-6.0609871,53.3831481],[-6.060876,53.3831268],[-6.0607099,53.3830858],[-6.0606915,53.3830792],[-6.0606451,53.3830625],[-6.0606247,53.3830552],[-6.0604726,53.3829905],[-6.0603974,53.3829345],[-6.0603452,53.3828957],[-6.0601758,53.3827349],[-6.0598828,53.3824566],[-6.0597989,53.3823784],[-6.0597857,53.3823661],[-6.0597562,53.3823386],[-6.0596574,53.3822464],[-6.0596469,53.3822367],[-6.059581,53.3821753],[-6.0594559,53.3820588],[-6.0593494,53.3819645],[-6.0592228,53.3818621],[-6.0591267,53.3817841],[-6.0590524,53.381728],[-6.0590069,53.3816936],[-6.0588569,53.3815803],[-6.0588146,53.3815483],[-6.058311,53.3811525]]}";1;Thormanby Road;2;50;false;false;true;false;false;false;327.5;1;1;0;0;0;false;574;946859706;-6.0642793;53.3846555;576;3642841651;-6.0663398;53.3877594;1;1;2;449611;31 - Howth Summit - Howth - Talbot Street;"";Dublin Bus;31;Howth Summit;Talbot Street
686517828;"{\"type\":\"LineString\",\"coordinates\":[[-6.0653482,53.3860651],[-6.0653338,53.3860549],[-6.0652531,53.3859875],[-6.065184,53.3859152],[-6.0651053,53.3858398],[-6.0650615,53.3857693],[-6.065033,53.3857058],[-6.0649072,53.385471],[-6.064819,53.3853355],[-6.0648045,53.3853132],[-6.0647734,53.3852826],[-6.0647491,53.3852587],[-6.0647019,53.3852089],[-6.0646726,53.3851855]]}";2;Main Street;2;50;false;false;true;false;false;false;110.0;0;1;0;0;0;false;574;946859706;-6.0642793;53.3846555;576;3642841651;-6.0663398;53.3877594;0;1;2;449611;31 - Howth Summit - Howth - Talbot Street;"";Dublin Bus;31;Howth Summit;Talbot Street
686517829;"{\"type\":\"LineString\",\"coordinates\":[[-6.0654828,53.3861886],[-6.0653482,53.3860651]]}";3;Main Street;2;50;false;false;true;false;false;false;17.0;0;0;0;0;0;false;574;946859706;-6.0642793;53.3846555;576;3642841651;-6.0663398;53.3877594;0;1;2;449611;31 - Howth Summit - Howth - Talbot Street;"";Dublin Bus;31;Howth Summit;Talbot Street
3819274;"{\"type\":\"LineString\",\"coordinates\":[[-6.0646935,53.3883203],[-6.0646894,53.3882986],[-6.0646853,53.3882768],[-6.0646969,53.3882333],[-6.0647632,53.3881708],[-6.064973,53.3879739],[-6.0650143,53.3879331],[-6.0652243,53.3876448],[-6.0655199,53.3872364],[-6.0655435,53.3871758],[-6.0655625,53.3870977],[-6.0655831,53.3870134],[-6.0655848,53.3868008],[-6.065585,53.3867639],[-6.0655864,53.3865453],[-6.0655604,53.3863582],[-6.0655109,53.3862271],[-6.0654828,53.3861886]]}";4;Abbey Street;2;50;false;false;true;false;false;false;254.0;0;1;0;1;0;false;574;946859706;-6.0642793;53.3846555;576;3642841651;-6.0663398;53.3877594;0;1;2;449611;31 - Howth Summit - Howth - Talbot Street;"";Dublin Bus;31;Howth Summit;Talbot Street
52301968;"{\"type\":\"LineString\",\"coordinates\":[[-6.0647107,53.3883711],[-6.0647018,53.388356],[-6.0646935,53.3883203]]}";5;Abbey Street;2;50;false;false;true;false;false;false;6.0;0;0;0;0;0;false;574;946859706;-6.0642793;53.3846555;576;3642841651;-6.0663398;53.3877594;0;1;2;449611;31 - Howth Summit - Howth - Talbot Street;"";Dublin Bus;31;Howth Summit;Talbot Street
690038676;"{\"type\":\"LineString\",\"coordinates\":[[-6.0711974,53.3885426],[-6.0710587,53.3885243],[-6.0709201,53.3885004],[-6.0707453,53.3884544],[-6.0705389,53.3883818],[-6.070476,53.3883598],[-6.0700158,53.3881779],[-6.0697735,53.3880822],[-6.0694621,53.3879792],[-6.0690135,53.3878919],[-6.0686267,53.3878312],[-6.06829,53.3878093],[-6.0679055,53.3877791],[-6.0672614,53.3877534],[-6.067132,53.3877545],[-6.0669068,53.3877564],[-6.0665882,53.3877831],[-6.0665402,53.3877915],[-6.0663635,53.3878226],[-6.0661303,53.387887],[-6.065959,53.3879431],[-6.0659462,53.3879473],[-6.0657885,53.3880087],[-6.0657051,53.3880412],[-6.0656117,53.388084],[-6.065357,53.388224],[-6.0653328,53.3882367],[-6.0651296,53.3883071],[-6.0649815,53.3883387],[-6.0647107,53.3883711]]}";6;Harbour Road;2;50;false;false;true;false;false;false;236.5;0;4;0;0;0;false;574;946859706;-6.0642793;53.3846555;576;3642841651;-6.0663398;53.3877594;1;1;2;449611;31 - Howth Summit - Howth - Talbot Street;"";Dublin Bus;31;Howth Summit;Talbot Street
690038676;"{\"type\":\"LineString\",\"coordinates\":[[-6.0711974,53.3885426],[-6.0710587,53.3885243],[-6.0709201,53.3885004],[-6.0707453,53.3884544],[-6.0705389,53.3883818],[-6.070476,53.3883598],[-6.0700158,53.3881779],[-6.0697735,53.3880822],[-6.0694621,53.3879792],[-6.0690135,53.3878919],[-6.0686267,53.3878312],[-6.06829,53.3878093],[-6.0679055,53.3877791],[-6.0672614,53.3877534],[-6.067132,53.3877545],[-6.0669068,53.3877564],[-6.0665882,53.3877831],[-6.0665402,53.3877915],[-6.0663635,53.3878226],[-6.0661303,53.387887],[-6.065959,53.3879431],[-6.0659462,53.3879473],[-6.0657885,53.3880087],[-6.0657051,53.3880412],[-6.0656117,53.388084],[-6.065357,53.388224],[-6.0653328,53.3882367],[-6.0651296,53.3883071],[-6.0649815,53.3883387],[-6.0647107,53.3883711]]}";1;Harbour Road;2;50;false;false;true;false;false;false;236.5;0;4;0;0;0;false;576;3642841651;-6.0663398;53.3877594;581;681781843;-6.0840038;53.390022;1;2;3;449611;31 - Howth Summit - Howth - Talbot Street;"";Dublin Bus;31;Howth Summit;Talbot Street
26966663;"{\"type\":\"LineString\",\"coordinates\":[[-6.072553,53.3887076],[-6.0722444,53.3886706],[-6.0719269,53.3886322],[-6.071596,53.3885924],[-6.0711974,53.3885426]]}";2;Harbour Road;2;50;false;false;true;false;false;false;93.0;0;1;0;0;0;false;576;3642841651;-6.0663398;53.3877594;581;681781843;-6.0840038;53.390022;0;2;3;449611;31 - Howth Summit - Howth - Talbot Street;"";Dublin Bus;31;Howth Summit;Talbot Street
708789975;"{\"type\":\"LineString\",\"coordinates\":[[-6.0737274,53.3887088],[-6.0735867,53.3887126],[-6.0730767,53.3887211],[-6.0728961,53.3887241],[-6.0727307,53.3887185],[-6.072553,53.3887076]]}";3;Harbour Road;2;50;false;false;true;false;false;false;79.0;0;0;0;0;0;false;576;3642841651;-6.0663398;53.3877594;581;681781843;-6.0840038;53.390022;0;2;3;449611;31 - Howth Summit - Howth - Talbot Street;"";Dublin Bus;31;Howth Summit;Talbot Street
52301967;"{\"type\":\"LineString\",\"coordinates\":[[-6.0746011,53.3887024],[-6.0742419,53.3887024],[-6.0741469,53.3887021],[-6.0737274,53.3887088]]}";4;Howth Road;2;50;false;false;true;false;false;false;59.0;0;1;0;0;0;false;576;3642841651;-6.0663398;53.3877594;581;681781843;-6.0840038;53.390022;0;2;3;449611;31 - Howth Summit - Howth - Talbot Street;"";Dublin Bus;31;Howth Summit;Talbot Street
54057553;"{\"type\":\"LineString\",\"coordinates\":[[-6.0773628,53.3889399],[-6.0770318,53.3889078],[-6.0766823,53.3888552],[-6.0764035,53.3888135],[-6.0763014,53.3887984],[-6.0761132,53.3887706],[-6.0760069,53.3887611],[-6.0757833,53.3887412],[-6.0757597,53.3887399],[-6.0755182,53.3887271],[-6.0754716,53.3887246],[-6.0750317,53.3887122],[-6.0746011,53.3887024]]}";5;Howth Road;2;50;false;false;false;false;false;false;188.0;0;0;0;0;0;false;576;3642841651;-6.0663398;53.3877594;581;681781843;-6.0840038;53.390022;0;2;3;449611;31 - Howth Summit - Howth - Talbot Street;"";Dublin Bus;31;Howth Summit;Talbot Street
26966664;"{\"type\":\"LineString\",\"coordinates\":[[-6.0796604,53.3888104],[-6.0794462,53.3888311],[-6.079061,53.3888755],[-6.0783998,53.3889424],[-6.0780015,53.3889556],[-6.0777063,53.388954],[-6.0773628,53.3889399]]}";6;Harbour Road;2;50;false;false;false;false;false;false;156.0;0;1;0;0;0;false;576;3642841651;-6.0663398;53.3877594;581;681781843;-6.0840038;53.390022;0;2;3;449611;31 - Howth Summit - Howth - Talbot Street;"";Dublin Bus;31;Howth Summit;Talbot Street
359606868;"{\"type\":\"LineString\",\"coordinates\":[[-6.0845406,53.390412],[-6.084406,53.3903541],[-6.0842982,53.3902898],[-6.0839527,53.3900614],[-6.0835334,53.389779],[-6.083261,53.3896124],[-6.0829977,53.389483],[-6.0828616,53.3894237],[-6.0826047,53.3893285],[-6.0823367,53.3892314],[-6.0819231,53.3890986],[-6.0816605,53.3890176],[-6.0813801,53.3889458],[-6.0810806,53.388885],[-6.0807037,53.3888292],[-6.0805244,53.3888171],[-6.0803042,53.3888062],[-6.0799909,53.3888],[-6.0797602,53.3888073],[-6.0796604,53.3888104]]}";7;Howth Road;2;60;false;false;false;false;false;false;194.5;0;0;0;0;0;false;576;3642841651;-6.0663398;53.3877594;581;681781843;-6.0840038;53.390022;1;2;3;449611;31 - Howth Summit - Howth - Talbot Street;"";Dublin Bus;31;Howth Summit;Talbot Street
359606868;"{\"type\":\"LineString\",\"coordinates\":[[-6.0845406,53.390412],[-6.084406,53.3903541],[-6.0842982,53.3902898],[-6.0839527,53.3900614],[-6.0835334,53.389779],[-6.083261,53.3896124],[-6.0829977,53.389483],[-6.0828616,53.3894237],[-6.0826047,53.3893285],[-6.0823367,53.3892314],[-6.0819231,53.3890986],[-6.0816605,53.3890176],[-6.0813801,53.3889458],[-6.0810806,53.388885],[-6.0807037,53.3888292],[-6.0805244,53.3888171],[-6.0803042,53.3888062],[-6.0799909,53.3888],[-6.0797602,53.3888073],[-6.0796604,53.3888104]]}";1;Howth Road;2;60;false;false;false;false;false;false;194.5;0;0;0;0;0;false;581;681781843;-6.0840038;53.390022;585;2263493332;-6.1108862;53.3893296;1;3;4;449611;31 - Howth Summit - Howth - Talbot Street;"";Dublin Bus;31;Howth Summit;Talbot Street
54057186;"{\"type\":\"LineString\",\"coordinates\":[[-6.0939065,53.3910441],[-6.0922755,53.3910093],[-6.0921343,53.3910016],[-6.092047,53.3909968],[-6.0910378,53.3909414],[-6.0906759,53.3909184],[-6.0860827,53.3906259],[-6.0860111,53.3906213],[-6.0859174,53.3906153],[-6.0855885,53.3905883],[-6.0850978,53.3905479],[-6.0848815,53.39051],[-6.0847105,53.3904704],[-6.0845406,53.390412]]}";2;Howth Road;2;60;false;false;false;false;false;false;634.0;0;0;0;0;0;false;581;681781843;-6.0840038;53.390022;585;2263493332;-6.1108862;53.3893296;0;3;4;449611;31 - Howth Summit - Howth - Talbot Street;"";Dublin Bus;31;Howth Summit;Talbot Street
782545501;"{\"type\":\"LineString\",\"coordinates\":[[-6.0948397,53.3910691],[-6.0939065,53.3910441]]}";3;Howth Road;2;50;false;false;false;false;false;false;63.0;0;0;0;0;0;false;581;681781843;-6.0840038;53.390022;585;2263493332;-6.1108862;53.3893296;0;3;4;449611;31 - Howth Summit - Howth - Talbot Street;"";Dublin Bus;31;Howth Summit;Talbot Street
782545500;"{\"type\":\"LineString\",\"coordinates\":[[-6.0954166,53.391085],[-6.0948397,53.3910691]]}";4;Howth Road;2;50;false;false;false;false;false;false;39.0;0;0;0;0;0;false;581;681781843;-6.0840038;53.390022;585;2263493332;-6.1108862;53.3893296;0;3;4;449611;31 - Howth Summit - Howth - Talbot Street;"";Dublin Bus;31;Howth Summit;Talbot Street
359606869;"{\"type\":\"LineString\",\"coordinates\":[[-6.1073446,53.3897271],[-6.106779,53.3897825],[-6.1065473,53.3898052],[-6.1057165,53.3898781],[-6.1053972,53.3899025],[-6.1051251,53.3899227],[-6.1047838,53.3899479],[-6.1045384,53.3899686],[-6.1043551,53.3899875],[-6.1042691,53.3899943],[-6.1039803,53.3900258],[-6.1036138,53.3900694],[-6.1031615,53.3901501],[-6.1030272,53.3901833],[-6.1027779,53.390245],[-6.1025307,53.3903062],[-6.1024698,53.390322],[-6.1019533,53.3904556],[-6.1014742,53.3905519],[-6.1009347,53.3906604],[-6.1008161,53.3906829],[-6.1002804,53.3907845],[-6.1000707,53.3908243],[-6.0998821,53.39086],[-6.0995343,53.390926],[-6.0994764,53.390937],[-6.0987637,53.391057],[-6.098339,53.3911239],[-6.0982616,53.3911361],[-6.0980366,53.3911462],[-6.0977704,53.3911497],[-6.0974895,53.3911433],[-6.0970459,53.3911309],[-6.0968804,53.3911254],[-6.0954166,53.391085]]}";5;Howth Road;2;50;false;false;false;false;false;false;822.0;1;3;0;0;0;false;581;681781843;-6.0840038;53.390022;585;2263493332;-6.1108862;53.3893296;0;3;4;449611;31 - Howth Summit - Howth - Talbot Street;"";Dublin Bus;31;Howth Summit;Talbot Street
814531587;"{\"type\":\"LineString\",\"coordinates\":[[-6.110053,53.3894726],[-6.1099363,53.3894859],[-6.1098738,53.389493],[-6.1090406,53.3895715],[-6.1088548,53.3895861],[-6.1086514,53.3896029],[-6.1084905,53.3896162],[-6.1083559,53.3896292],[-6.1081889,53.3896464],[-6.1080728,53.3896566],[-6.1079321,53.3896674],[-6.1073446,53.3897271]]}";6;Howth Road;2;50;false;false;true;false;false;false;184.0;0;0;0;0;0;false;581;681781843;-6.0840038;53.390022;585;2263493332;-6.1108862;53.3893296;0;3;4;449611;31 - Howth Summit - Howth - Talbot Street;"";Dublin Bus;31;Howth Summit;Talbot Street
54057187;"{\"type\":\"LineString\",\"coordinates\":[[-6.1102584,53.3894493],[-6.110053,53.3894726]]}";7;Howth Road;2;50;false;false;true;false;false;false;15.0;1;0;0;0;0;false;581;681781843;-6.0840038;53.390022;585;2263493332;-6.1108862;53.3893296;0;3;4;449611;31 - Howth Summit - Howth - Talbot Street;"";Dublin Bus;31;Howth Summit;Talbot Street
782545503;"{\"type\":\"LineString\",\"coordinates\":[[-6.1124576,53.3892335],[-6.1123717,53.3892397],[-6.1119182,53.3892806],[-6.1116426,53.3893054],[-6.1112341,53.3893422],[-6.1110144,53.3893617],[-6.1108934,53.3893725],[-6.1107037,53.3893893],[-6.1106068,53.3893996],[-6.1102584,53.3894493]]}";8;Dublin Road;3;50;false;false;false;false;false;false;75.0;1;1;0;0;0;false;581;681781843;-6.0840038;53.390022;585;2263493332;-6.1108862;53.3893296;1;3;4;449611;31 - Howth Summit - Howth - Talbot Street;"";Dublin Bus;31;Howth Summit;Talbot Street
782545503;"{\"type\":\"LineString\",\"coordinates\":[[-6.1124576,53.3892335],[-6.1123717,53.3892397],[-6.1119182,53.3892806],[-6.1116426,53.3893054],[-6.1112341,53.3893422],[-6.1110144,53.3893617],[-6.1108934,53.3893725],[-6.1107037,53.3893893],[-6.1106068,53.3893996],[-6.1102584,53.3894493]]}";1;Dublin Road;3;50;false;false;false;false;false;false;75.0;1;1;0;0;0;false;585;2263493332;-6.1108862;53.3893296;586;681705819;-6.1168331;53.3887888;1;4;5;449611;31 - Howth Summit - Howth - Talbot Street;"";Dublin Bus;31;Howth Summit;Talbot Street
359606866;"{\"type\":\"LineString\",\"coordinates\":[[-6.117396,53.3888359],[-6.1168281,53.3888368],[-6.1163508,53.3888534],[-6.1158655,53.3889027],[-6.1157075,53.3889188],[-6.1153118,53.3889562],[-6.1147291,53.3890112],[-6.1144523,53.3890374],[-6.1143379,53.3890482],[-6.1142485,53.3890567],[-6.1138619,53.3890931],[-6.1135362,53.3891257],[-6.1133496,53.3891443],[-6.1132163,53.3891576],[-6.1124576,53.3892335]]}";2;Dublin Road;2;50;false;false;false;false;false;false;167.5;0;1;0;0;0;false;585;2263493332;-6.1108862;53.3893296;586;681705819;-6.1168331;53.3887888;1;4;5;449611;31 - Howth Summit - Howth - Talbot Street;"";Dublin Bus;31;Howth Summit;Talbot Street
359606866;"{\"type\":\"LineString\",\"coordinates\":[[-6.117396,53.3888359],[-6.1168281,53.3888368],[-6.1163508,53.3888534],[-6.1158655,53.3889027],[-6.1157075,53.3889188],[-6.1153118,53.3889562],[-6.1147291,53.3890112],[-6.1144523,53.3890374],[-6.1143379,53.3890482],[-6.1142485,53.3890567],[-6.1138619,53.3890931],[-6.1135362,53.3891257],[-6.1133496,53.3891443],[-6.1132163,53.3891576],[-6.1124576,53.3892335]]}";1;Dublin Road;2;50;false;false;false;false;false;false;167.5;0;1;0;0;0;false;586;681705819;-6.1168331;53.3887888;587;681705809;-6.1251421;53.3883249;1;5;6;449611;31 - Howth Summit - Howth - Talbot Street;"";Dublin Bus;31;Howth Summit;Talbot Street
3819214;"{\"type\":\"LineString\",\"coordinates\":[[-6.1243186,53.3884662],[-6.1240754,53.388495],[-6.1231025,53.3885902],[-6.1226574,53.3886337],[-6.1216881,53.3887282],[-6.1209412,53.3887818],[-6.1202469,53.3888095],[-6.1200207,53.3888202],[-6.1199011,53.3888234],[-6.1197791,53.3888267],[-6.119467,53.3888325],[-6.1187397,53.3888344],[-6.1183579,53.3888354],[-6.118112,53.3888406],[-6.1179485,53.3888394],[-6.1174363,53.3888358],[-6.117396,53.3888359]]}";2;Dublin Road;2;50;false;false;true;false;false;false;467.0;2;1;0;0;0;false;586;681705819;-6.1168331;53.3887888;587;681705809;-6.1251421;53.3883249;0;5;6;449611;31 - Howth Summit - Howth - Talbot Street;"";Dublin Bus;31;Howth Summit;Talbot Street
3819213;"{\"type\":\"LineString\",\"coordinates\":[[-6.1243186,53.3884662],[-6.1246015,53.3884324],[-6.1251506,53.3883684],[-6.1259176,53.3882806],[-6.1259813,53.3882732],[-6.1265393,53.3882087],[-6.1267837,53.3881786],[-6.1268486,53.3881706],[-6.1270527,53.3881455],[-6.1273097,53.3881139],[-6.1275242,53.3880875],[-6.1276033,53.3880768],[-6.1278897,53.3880425],[-6.1282899,53.3879866],[-6.1292975,53.3878457],[-6.1300639,53.3877345],[-6.1309614,53.3875879],[-6.1314573,53.3874926],[-6.1316788,53.3874445],[-6.1320987,53.3873532],[-6.1333792,53.3870477],[-6.1335132,53.3870157],[-6.1341888,53.3868677],[-6.1352564,53.3866273]]}";3;Dublin Road;2;60;false;false;true;false;false;false;381.5;2;0;0;0;0;false;586;681705819;-6.1168331;53.3887888;587;681705809;-6.1251421;53.3883249;1;5;6;449611;31 - Howth Summit - Howth - Talbot Street;"";Dublin Bus;31;Howth Summit;Talbot Street
3819213;"{\"type\":\"LineString\",\"coordinates\":[[-6.1243186,53.3884662],[-6.1246015,53.3884324],[-6.1251506,53.3883684],[-6.1259176,53.3882806],[-6.1259813,53.3882732],[-6.1265393,53.3882087],[-6.1267837,53.3881786],[-6.1268486,53.3881706],[-6.1270527,53.3881455],[-6.1273097,53.3881139],[-6.1275242,53.3880875],[-6.1276033,53.3880768],[-6.1278897,53.3880425],[-6.1282899,53.3879866],[-6.1292975,53.3878457],[-6.1300639,53.3877345],[-6.1309614,53.3875879],[-6.1314573,53.3874926],[-6.1316788,53.3874445],[-6.1320987,53.3873532],[-6.1333792,53.3870477],[-6.1335132,53.3870157],[-6.1341888,53.3868677],[-6.1352564,53.3866273]]}";1;Dublin Road;2;60;false;false;true;false;false;false;381.5;2;0;0;0;0;false;"";681715406;-6.1342437;53.3868043;"";681715398;-6.137246;53.3861693;1;8;9;449611;31 - Howth Summit - Howth - Talbot Street;"";Dublin Bus;31;Howth Summit;Talbot Street
54054200;"{\"type\":\"LineString\",\"coordinates\":[[-6.1352564,53.3866273],[-6.1366396,53.3863401],[-6.1372626,53.3862084],[-6.137743,53.3861131],[-6.1378455,53.386092],[-6.1384303,53.3859718],[-6.1393362,53.3857742],[-6.1394429,53.3857506],[-6.1403526,53.3855494],[-6.1409858,53.3853844],[-6.141241,53.3853112],[-6.1416531,53.3851971],[-6.1423065,53.3850109],[-6.142832,53.384852],[-6.1430295,53.3847911]]}";2;Dublin Road;2;60;false;false;true;false;false;false;280.5;2;0;0;0;0;false;"";681715406;-6.1342437;53.3868043;"";681715398;-6.137246;53.3861693;1;8;9;449611;31 - Howth Summit - Howth - Talbot Street;"";Dublin Bus;31;Howth Summit;Talbot Street
54054200;"{\"type\":\"LineString\",\"coordinates\":[[-6.1352564,53.3866273],[-6.1366396,53.3863401],[-6.1372626,53.3862084],[-6.137743,53.3861131],[-6.1378455,53.386092],[-6.1384303,53.3859718],[-6.1393362,53.3857742],[-6.1394429,53.3857506],[-6.1403526,53.3855494],[-6.1409858,53.3853844],[-6.141241,53.3853112],[-6.1416531,53.3851971],[-6.1423065,53.3850109],[-6.142832,53.384852],[-6.1430295,53.3847911]]}";1;Dublin Road;2;60;false;false;true;false;false;false;280.5;2;0;0;0;0;false;"";681715398;-6.137246;53.3861693;"";681715390;-6.1446794;53.3841639;1;9;10;449611;31 - Howth Summit - Howth - Talbot Street;"";Dublin Bus;31;Howth Summit;Talbot Street
4522749;"{\"type\":\"LineString\",\"coordinates\":[[-6.1430295,53.3847911],[-6.1431664,53.3847411],[-6.1432899,53.384696],[-6.1441741,53.3843975],[-6.1446991,53.3842069],[-6.1447401,53.3841931],[-6.1461276,53.3836574],[-6.1471971,53.3832444],[-6.148342,53.3828095],[-6.1484146,53.3827821],[-6.1493435,53.3824311],[-6.1495466,53.3823512]]}";2;Howth Road;2;60;false;false;true;false;false;false;258.0;2;0;0;0;0;false;"";681715398;-6.137246;53.3861693;"";681715390;-6.1446794;53.3841639;1;9;10;449611;31 - Howth Summit - Howth - Talbot Street;"";Dublin Bus;31;Howth Summit;Talbot Street
4522749;"{\"type\":\"LineString\",\"coordinates\":[[-6.1430295,53.3847911],[-6.1431664,53.3847411],[-6.1432899,53.384696],[-6.1441741,53.3843975],[-6.1446991,53.3842069],[-6.1447401,53.3841931],[-6.1461276,53.3836574],[-6.1471971,53.3832444],[-6.148342,53.3828095],[-6.1484146,53.3827821],[-6.1493435,53.3824311],[-6.1495466,53.3823512]]}";1;Howth Road;2;60;false;false;true;false;false;false;258.0;2;0;0;0;0;false;"";681715390;-6.1446794;53.3841639;"";681768150;-6.1511424;53.3819342;1;10;11;449611;31 - Howth Summit - Howth - Talbot Street;"";Dublin Bus;31;Howth Summit;Talbot Street
360692759;"{\"type\":\"LineString\",\"coordinates\":[[-6.1507209,53.3820825],[-6.1506101,53.3821369],[-6.15051,53.3822038],[-6.1503239,53.3823562],[-6.1501949,53.3824164],[-6.1500688,53.382448],[-6.1498878,53.3824486],[-6.1497126,53.3824187],[-6.1496458,53.3824075],[-6.1495885,53.3823842],[-6.1495466,53.3823512]]}";2;Howth Road;1;60;false;false;true;false;false;false;100.0;1;1;0;0;0;false;"";681715390;-6.1446794;53.3841639;"";681768150;-6.1511424;53.3819342;0;10;11;449611;31 - Howth Summit - Howth - Talbot Street;"";Dublin Bus;31;Howth Summit;Talbot Street
334005033;"{\"type\":\"LineString\",\"coordinates\":[[-6.1604321,53.3804639],[-6.1597431,53.3805609],[-6.1592594,53.3806297],[-6.1576535,53.3808579],[-6.1566997,53.3810017],[-6.1565966,53.3810184],[-6.1561156,53.3810964],[-6.1557482,53.381156],[-6.1556983,53.3811648],[-6.1555657,53.3811882],[-6.1552938,53.3812362],[-6.1552553,53.381243],[-6.1550461,53.3812799],[-6.1549704,53.3812933],[-6.1548946,53.3813065],[-6.1544731,53.3813801],[-6.1541054,53.3814443],[-6.1523721,53.3817469],[-6.1520411,53.381809],[-6.1516068,53.3818906],[-6.1512749,53.3819529],[-6.1512404,53.3819596],[-6.1511688,53.3819747],[-6.1508926,53.3820307],[-6.1508042,53.3820574],[-6.1507209,53.3820825]]}";3;Howth Road;2;60;false;false;false;false;false;false;338.0;0;1;0;0;0;false;"";681715390;-6.1446794;53.3841639;"";681768150;-6.1511424;53.3819342;1;10;11;449611;31 - Howth Summit - Howth - Talbot Street;"";Dublin Bus;31;Howth Summit;Talbot Street
334005033;"{\"type\":\"LineString\",\"coordinates\":[[-6.1604321,53.3804639],[-6.1597431,53.3805609],[-6.1592594,53.3806297],[-6.1576535,53.3808579],[-6.1566997,53.3810017],[-6.1565966,53.3810184],[-6.1561156,53.3810964],[-6.1557482,53.381156],[-6.1556983,53.3811648],[-6.1555657,53.3811882],[-6.1552938,53.3812362],[-6.1552553,53.381243],[-6.1550461,53.3812799],[-6.1549704,53.3812933],[-6.1548946,53.3813065],[-6.1544731,53.3813801],[-6.1541054,53.3814443],[-6.1523721,53.3817469],[-6.1520411,53.381809],[-6.1516068,53.3818906],[-6.1512749,53.3819529],[-6.1512404,53.3819596],[-6.1511688,53.3819747],[-6.1508926,53.3820307],[-6.1508042,53.3820574],[-6.1507209,53.3820825]]}";1;Howth Road;2;60;false;false;false;false;false;false;338.0;0;1;0;0;0;false;"";681768149;-6.1592506;53.3805855;"";681768137;-6.1618203;53.380222;1;13;14;449611;31 - Howth Summit - Howth - Talbot Street;"";Dublin Bus;31;Howth Summit;Talbot Street
334005030;"{\"type\":\"LineString\",\"coordinates\":[[-6.1607134,53.3804273],[-6.1604321,53.3804639]]}";2;Howth Road;1;60;false;false;false;false;false;false;20.0;0;0;0;0;0;false;"";681768149;-6.1592506;53.3805855;"";681768137;-6.1618203;53.380222;0;13;14;449611;31 - Howth Summit - Howth - Talbot Street;"";Dublin Bus;31;Howth Summit;Talbot Street
49214036;"{\"type\":\"LineString\",\"coordinates\":[[-6.162961,53.3801957],[-6.1619095,53.3802838],[-6.1618332,53.3802925],[-6.1616664,53.3803116],[-6.1614902,53.3803318],[-6.1612239,53.3803645],[-6.1607877,53.3804182],[-6.1607134,53.3804273]]}";3;Howth Road;2;60;false;false;false;false;false;false;76.5;0;0;0;0;0;false;"";681768149;-6.1592506;53.3805855;"";681768137;-6.1618203;53.380222;1;13;14;449611;31 - Howth Summit - Howth - Talbot Street;"";Dublin Bus;31;Howth Summit;Talbot Street
49214036;"{\"type\":\"LineString\",\"coordinates\":[[-6.162961,53.3801957],[-6.1619095,53.3802838],[-6.1618332,53.3802925],[-6.1616664,53.3803116],[-6.1614902,53.3803318],[-6.1612239,53.3803645],[-6.1607877,53.3804182],[-6.1607134,53.3804273]]}";1;Howth Road;2;60;false;false;false;false;false;false;76.5;0;0;0;0;0;false;"";681768137;-6.1618203;53.380222;"";681768135;-6.1656085;53.3798902;1;14;15;449611;31 - Howth Summit - Howth - Talbot Street;"";Dublin Bus;31;Howth Summit;Talbot Street
276822957;"{\"type\":\"LineString\",\"coordinates\":[[-6.1643982,53.3800688],[-6.1641906,53.3800879],[-6.162961,53.3801957]]}";2;Howth Road;1;60;false;false;false;false;false;false;98.0;0;0;0;0;0;false;"";681768137;-6.1618203;53.380222;"";681768135;-6.1656085;53.3798902;0;14;15;449611;31 - Howth Summit - Howth - Talbot Street;"";Dublin Bus;31;Howth Summit;Talbot Street
360460527;"{\"type\":\"LineString\",\"coordinates\":[[-6.1686095,53.3798378],[-6.1679634,53.3798272],[-6.1674355,53.3798315],[-6.1668663,53.3798489],[-6.1662435,53.3798925],[-6.1656201,53.3799505],[-6.16487,53.3800202],[-6.1645855,53.3800495],[-6.1643982,53.3800688]]}";3;Howth Road;1;50;false;false;false;false;false;false;142.5;0;1;0;0;0;false;"";681768137;-6.1618203;53.380222;"";681768135;-6.1656085;53.3798902;1;14;15;449611;31 - Howth Summit - Howth - Talbot Street;"";Dublin Bus;31;Howth Summit;Talbot Street
360460527;"{\"type\":\"LineString\",\"coordinates\":[[-6.1686095,53.3798378],[-6.1679634,53.3798272],[-6.1674355,53.3798315],[-6.1668663,53.3798489],[-6.1662435,53.3798925],[-6.1656201,53.3799505],[-6.16487,53.3800202],[-6.1645855,53.3800495],[-6.1643982,53.3800688]]}";1;Howth Road;1;50;false;false;false;false;false;false;142.5;0;1;0;0;0;false;"";681768135;-6.1656085;53.3798902;"";681768131;-6.1693534;53.3798436;1;15;16;449611;31 - Howth Summit - Howth - Talbot Street;"";Dublin Bus;31;Howth Summit;Talbot Street
490391371;"{\"type\":\"LineString\",\"coordinates\":[[-6.175086,53.3803449],[-6.1748188,53.3803496],[-6.1744011,53.3803582],[-6.173866,53.3803691],[-6.1736521,53.3803735],[-6.1734961,53.3803782],[-6.1734719,53.380378],[-6.1733012,53.3803765],[-6.1731161,53.3803697],[-6.1729366,53.3803631],[-6.172713,53.3803469],[-6.1725078,53.3803282],[-6.1723449,53.3803134],[-6.1722359,53.3802997],[-6.1716499,53.3802029],[-6.1706808,53.3800448],[-6.1701456,53.3799679],[-6.1696772,53.3799197],[-6.169345,53.379887],[-6.1691798,53.3798707],[-6.1686095,53.3798378]]}";2;Howth Road;1;50;false;false;false;false;false;false;220.5;1;0;0;0;0;false;"";681768135;-6.1656085;53.3798902;"";681768131;-6.1693534;53.3798436;1;15;16;449611;31 - Howth Summit - Howth - Talbot Street;"";Dublin Bus;31;Howth Summit;Talbot Street
490391371;"{\"type\":\"LineString\",\"coordinates\":[[-6.175086,53.3803449],[-6.1748188,53.3803496],[-6.1744011,53.3803582],[-6.173866,53.3803691],[-6.1736521,53.3803735],[-6.1734961,53.3803782],[-6.1734719,53.380378],[-6.1733012,53.3803765],[-6.1731161,53.3803697],[-6.1729366,53.3803631],[-6.172713,53.3803469],[-6.1725078,53.3803282],[-6.1723449,53.3803134],[-6.1722359,53.3802997],[-6.1716499,53.3802029],[-6.1706808,53.3800448],[-6.1701456,53.3799679],[-6.1696772,53.3799197],[-6.169345,53.379887],[-6.1691798,53.3798707],[-6.1686095,53.3798378]]}";1;Howth Road;1;50;false;false;false;false;false;false;220.5;1;0;0;0;0;false;"";681768132;-6.1731115;53.3803181;"";681768128;-6.1760925;53.380244;1;17;18;449611;31 - Howth Summit - Howth - Talbot Street;"";Dublin Bus;31;Howth Summit;Talbot Street
755704091;"{\"type\":\"LineString\",\"coordinates\":[[-6.1766801,53.38027],[-6.1765804,53.3802783],[-6.1763541,53.3803035],[-6.1761071,53.3803192],[-6.1759968,53.3803262],[-6.1757683,53.3803324],[-6.175371,53.3803409],[-6.175086,53.3803449]]}";2;Howth Road;2;50;false;false;false;false;false;false;54.0;1;0;0;0;0;false;"";681768132;-6.1731115;53.3803181;"";681768128;-6.1760925;53.380244;1;17;18;449611;31 - Howth Summit - Howth - Talbot Street;"";Dublin Bus;31;Howth Summit;Talbot Street
755704091;"{\"type\":\"LineString\",\"coordinates\":[[-6.1766801,53.38027],[-6.1765804,53.3802783],[-6.1763541,53.3803035],[-6.1761071,53.3803192],[-6.1759968,53.3803262],[-6.1757683,53.3803324],[-6.175371,53.3803409],[-6.175086,53.3803449]]}";1;Howth Road;2;50;false;false;false;false;false;false;54.0;1;0;0;0;0;false;"";681768128;-6.1760925;53.380244;"";681768123;-6.1793922;53.3793008;1;18;19;449611;31 - Howth Summit - Howth - Talbot Street;"";Dublin Bus;31;Howth Summit;Talbot Street
755704090;"{\"type\":\"LineString\",\"coordinates\":[[-6.1768233,53.3802459],[-6.1766801,53.38027]]}";2;Howth Road;2;50;false;false;false;false;false;false;10.0;0;0;0;0;0;false;"";681768128;-6.1760925;53.380244;"";681768123;-6.1793922;53.3793008;0;18;19;449611;31 - Howth Summit - Howth - Talbot Street;"";Dublin Bus;31;Howth Summit;Talbot Street
490391375;"{\"type\":\"LineString\",\"coordinates\":[[-6.1783106,53.3798587],[-6.1782909,53.379867],[-6.1779302,53.3799885],[-6.177625,53.3800808],[-6.1775223,53.3801061],[-6.1774959,53.3801128],[-6.1773858,53.3801406],[-6.1772808,53.3801636],[-6.1772468,53.3801703],[-6.1770094,53.3802171],[-6.1768233,53.3802459]]}";3;Howth Road;2;50;false;false;false;false;false;false;110.0;0;1;0;0;0;false;"";681768128;-6.1760925;53.380244;"";681768123;-6.1793922;53.3793008;0;18;19;449611;31 - Howth Summit - Howth - Talbot Street;"";Dublin Bus;31;Howth Summit;Talbot Street
3794329;"{\"type\":\"LineString\",\"coordinates\":[[-6.1789456,53.3795796],[-6.1787284,53.3796772],[-6.1783106,53.3798587]]}";4;Howth Road;3;50;false;false;false;false;false;false;53.0;0;0;0;0;0;false;"";681768128;-6.1760925;53.380244;"";681768123;-6.1793922;53.3793008;0;18;19;449611;31 - Howth Summit - Howth - Talbot Street;"";Dublin Bus;31;Howth Summit;Talbot Street
128777043;"{\"type\":\"LineString\",\"coordinates\":[[-6.1789456,53.3795796],[-6.1794377,53.3793672],[-6.1796191,53.379299]]}";5;Howth Road;2;50;false;false;false;false;false;false;28.0;0;0;0;0;0;false;"";681768128;-6.1760925;53.380244;"";681768123;-6.1793922;53.3793008;1;18;19;449611;31 - Howth Summit - Howth - Talbot Street;"";Dublin Bus;31;Howth Summit;Talbot Street
360460526;"{\"type\":\"LineString\",\"coordinates\":[[-6.1874551,53.3774467],[-6.187678,53.3774156],[-6.1879942,53.3773694],[-6.1885248,53.3772614],[-6.1892723,53.3770591],[-6.1894817,53.3769984],[-6.1898153,53.3768728],[-6.1900655,53.3767518],[-6.1903284,53.3766053]]}";1;Howth Road;3;50;false;false;false;false;false;false;218.0;1;0;0;0;0;false;"";681768118;-6.1874082;53.3773572;"";681768117;-6.190799;53.3763068;2;21;22;449611;31 - Howth Summit - Howth - Talbot Street;"";Dublin Bus;31;Howth Summit;Talbot Street
490391385;"{\"type\":\"LineString\",\"coordinates\":[[-6.1903284,53.3766053],[-6.1905578,53.3765028],[-6.1908718,53.3763544],[-6.1912076,53.3762202],[-6.1913827,53.3761635],[-6.1915304,53.3761156],[-6.1918659,53.3760262],[-6.19196,53.3760034],[-6.192158,53.3759563],[-6.1922699,53.3759361],[-6.1924931,53.3758908],[-6.1929415,53.3758099]]}";2;Howth Road;3;50;false;false;false;false;false;false;199.0;0;0;0;0;0;false;"";681768118;-6.1874082;53.3773572;"";681768117;-6.190799;53.3763068;2;21;22;449611;31 - Howth Summit - Howth - Talbot Street;"";Dublin Bus;31;Howth Summit;Talbot Street
490391385;"{\"type\":\"LineString\",\"coordinates\":[[-6.1903284,53.3766053],[-6.1905578,53.3765028],[-6.1908718,53.3763544],[-6.1912076,53.3762202],[-6.1913827,53.3761635],[-6.1915304,53.3761156],[-6.1918659,53.3760262],[-6.19196,53.3760034],[-6.192158,53.3759563],[-6.1922699,53.3759361],[-6.1924931,53.3758908],[-6.1929415,53.3758099]]}";1;Howth Road;3;50;false;false;false;false;false;false;99.5;0;0;0;0;0;false;"";681768117;-6.190799;53.3763068;"";681768113;-6.1935043;53.3756328;1;22;23;449611;31 - Howth Summit - Howth - Talbot Street;"";Dublin Bus;31;Howth Summit;Talbot Street
360679895;"{\"type\":\"LineString\",\"coordinates\":[[-6.1929415,53.3758099],[-6.1930688,53.3757869],[-6.1931167,53.3757789],[-6.1935486,53.3756957],[-6.1938811,53.3756316]]}";2;Howth Road;2;50;false;false;false;false;false;false;33.5;0;0;0;0;0;false;"";681768117;-6.190799;53.3763068;"";681768113;-6.1935043;53.3756328;1;22;23;449611;31 - Howth Summit - Howth - Talbot Street;"";Dublin Bus;31;Howth Summit;Talbot Street
360679895;"{\"type\":\"LineString\",\"coordinates\":[[-6.1929415,53.3758099],[-6.1930688,53.3757869],[-6.1931167,53.3757789],[-6.1935486,53.3756957],[-6.1938811,53.3756316]]}";1;Howth Road;2;50;false;false;false;false;false;false;33.5;0;0;0;0;0;false;"";681768113;-6.1935043;53.3756328;"";681768112;-6.1978268;53.3746719;1;23;24;449611;31 - Howth Summit - Howth - Talbot Street;"";Dublin Bus;31;Howth Summit;Talbot Street
276819907;"{\"type\":\"LineString\",\"coordinates\":[[-6.1938811,53.3756316],[-6.1939204,53.375625],[-6.1948304,53.3754716],[-6.1948595,53.3754656]]}";2;Howth Road;2;50;false;false;false;false;false;false;69.0;1;0;0;0;0;false;"";681768113;-6.1935043;53.3756328;"";681768112;-6.1978268;53.3746719;0;23;24;449611;31 - Howth Summit - Howth - Talbot Street;"";Dublin Bus;31;Howth Summit;Talbot Street
197052261;"{\"type\":\"LineString\",\"coordinates\":[[-6.1948595,53.3754656],[-6.1958947,53.3752564],[-6.1960868,53.3752122],[-6.1961675,53.3751936],[-6.1963534,53.375149],[-6.1965693,53.3751001]]}";3;Howth Road;2;50;false;false;false;false;false;false;122.0;0;0;0;0;0;false;"";681768113;-6.1935043;53.3756328;"";681768112;-6.1978268;53.3746719;0;23;24;449611;31 - Howth Summit - Howth - Talbot Street;"";Dublin Bus;31;Howth Summit;Talbot Street
360679897;"{\"type\":\"LineString\",\"coordinates\":[[-6.1965693,53.3751001],[-6.1966298,53.3750849],[-6.1968609,53.3750267],[-6.1975958,53.374817],[-6.1978739,53.3747307],[-6.1981442,53.3746468],[-6.1986694,53.3744588],[-6.1989809,53.3743337],[-6.1990644,53.3742935],[-6.1993001,53.3741798],[-6.1996052,53.3740269]]}";4;Howth Road;3;50;false;false;false;false;false;false;119.0;0;0;0;0;0;false;"";681768113;-6.1935043;53.3756328;"";681768112;-6.1978268;53.3746719;1;23;24;449611;31 - Howth Summit - Howth - Talbot Street;"";Dublin Bus;31;Howth Summit;Talbot Street
360679897;"{\"type\":\"LineString\",\"coordinates\":[[-6.1965693,53.3751001],[-6.1966298,53.3750849],[-6.1968609,53.3750267],[-6.1975958,53.374817],[-6.1978739,53.3747307],[-6.1981442,53.3746468],[-6.1986694,53.3744588],[-6.1989809,53.3743337],[-6.1990644,53.3742935],[-6.1993001,53.3741798],[-6.1996052,53.3740269]]}";1;Howth Road;3;50;false;false;false;false;false;false;119.0;0;0;0;0;0;false;"";681768112;-6.1978268;53.3746719;"";681768107;-6.2020617;53.3724985;1;24;25;449611;31 - Howth Summit - Howth - Talbot Street;"";Dublin Bus;31;Howth Summit;Talbot Street
360679894;"{\"type\":\"LineString\",\"coordinates\":[[-6.1996052,53.3740269],[-6.2000245,53.3737898],[-6.2003336,53.3736333]]}";2;Howth Road;2;50;false;false;false;false;false;false;66.0;0;0;0;0;0;false;"";681768112;-6.1978268;53.3746719;"";681768107;-6.2020617;53.3724985;0;24;25;449611;31 - Howth Summit - Howth - Talbot Street;"";Dublin Bus;31;Howth Summit;Talbot Street
360679893;"{\"type\":\"LineString\",\"coordinates\":[[-6.2003336,53.3736333],[-6.2005369,53.3735299],[-6.2007097,53.3734452],[-6.2010824,53.37327],[-6.2012233,53.3732079],[-6.201509,53.3730819],[-6.2017028,53.3729887],[-6.2018319,53.3729144],[-6.2019453,53.3728354],[-6.2020146,53.3727548],[-6.2021171,53.3726021],[-6.2021593,53.3725292],[-6.2022625,53.372351],[-6.2023402,53.3722002],[-6.2024179,53.3720038],[-6.2024946,53.3717731],[-6.2025076,53.3717423],[-6.2025157,53.371723]]}";3;Howth Road;2;50;false;false;false;false;false;false;136.0;0;0;0;0;0;false;"";681768112;-6.1978268;53.3746719;"";681768107;-6.2020617;53.3724985;1;24;25;449611;31 - Howth Summit - Howth - Talbot Street;"";Dublin Bus;31;Howth Summit;Talbot Street
360679893;"{\"type\":\"LineString\",\"coordinates\":[[-6.2003336,53.3736333],[-6.2005369,53.3735299],[-6.2007097,53.3734452],[-6.2010824,53.37327],[-6.2012233,53.3732079],[-6.201509,53.3730819],[-6.2017028,53.3729887],[-6.2018319,53.3729144],[-6.2019453,53.3728354],[-6.2020146,53.3727548],[-6.2021171,53.3726021],[-6.2021593,53.3725292],[-6.2022625,53.372351],[-6.2023402,53.3722002],[-6.2024179,53.3720038],[-6.2024946,53.3717731],[-6.2025076,53.3717423],[-6.2025157,53.371723]]}";1;Howth Road;2;50;false;false;false;false;false;false;136.0;0;0;0;0;0;false;"";681768107;-6.2020617;53.3724985;"";386172704;-6.2044699;53.3710682;1;25;26;449611;31 - Howth Summit - Howth - Talbot Street;"";Dublin Bus;31;Howth Summit;Talbot Street
360692761;"{\"type\":\"LineString\",\"coordinates\":[[-6.2025157,53.371723],[-6.2025168,53.3716979],[-6.2025161,53.3716695],[-6.2025076,53.3716351],[-6.2025095,53.3716174],[-6.2025694,53.3715146],[-6.2026001,53.371471],[-6.2026442,53.371431]]}";2;Howth Road;2;50;false;true;true;false;false;false;35.0;1;0;0;0;0;false;"";681768107;-6.2020617;53.3724985;"";386172704;-6.2044699;53.3710682;0;25;26;449611;31 - Howth Summit - Howth - Talbot Street;"";Dublin Bus;31;Howth Summit;Talbot Street
360692762;"{\"type\":\"LineString\",\"coordinates\":[[-6.2026442,53.371431],[-6.2027066,53.3713847],[-6.202805,53.37134],[-6.2029124,53.3712941],[-6.2030499,53.3712533],[-6.2032522,53.3712315],[-6.2034214,53.3712214],[-6.2035273,53.3712258],[-6.2036058,53.3712239]]}";3;Howth Road;2;50;false;true;true;false;false;false;72.0;0;0;0;0;0;false;"";681768107;-6.2020617;53.3724985;"";386172704;-6.2044699;53.3710682;0;25;26;449611;31 - Howth Summit - Howth - Talbot Street;"";Dublin Bus;31;Howth Summit;Talbot Street
317675348;"{\"type\":\"LineString\",\"coordinates\":[[-6.2036058,53.3712239],[-6.2039344,53.3711904],[-6.2044932,53.3711335],[-6.2048003,53.3711022],[-6.2048777,53.3710943],[-6.2052385,53.3710621],[-6.2056765,53.3710221],[-6.2059683,53.3710019]]}";4;Howth Road;3;50;false;false;false;false;false;false;80.5;1;0;0;0;0;false;"";681768107;-6.2020617;53.3724985;"";386172704;-6.2044699;53.3710682;1;25;26;449611;31 - Howth Summit - Howth - Talbot Street;"";Dublin Bus;31;Howth Summit;Talbot Street
317675348;"{\"type\":\"LineString\",\"coordinates\":[[-6.2036058,53.3712239],[-6.2039344,53.3711904],[-6.2044932,53.3711335],[-6.2048003,53.3711022],[-6.2048777,53.3710943],[-6.2052385,53.3710621],[-6.2056765,53.3710221],[-6.2059683,53.3710019]]}";1;Howth Road;3;50;false;false;false;false;false;false;80.5;1;0;0;0;0;false;"";386172704;-6.2044699;53.3710682;609;1517811931;-6.208486;53.3699295;1;26;27;449611;31 - Howth Summit - Howth - Talbot Street;"";Dublin Bus;31;Howth Summit;Talbot Street
363177780;"{\"type\":\"LineString\",\"coordinates\":[[-6.2059683,53.3710019],[-6.2064013,53.370993]]}";2;Howth Road;2;50;false;false;false;false;false;false;30.0;0;0;0;0;0;false;"";386172704;-6.2044699;53.3710682;609;1517811931;-6.208486;53.3699295;0;26;27;449611;31 - Howth Summit - Howth - Talbot Street;"";Dublin Bus;31;Howth Summit;Talbot Street
368176069;"{\"type\":\"LineString\",\"coordinates\":[[-6.2082873,53.3700882],[-6.2079191,53.3702982],[-6.2075096,53.3705319],[-6.2073343,53.3706325],[-6.2069948,53.3708177],[-6.2068703,53.370885],[-6.2067241,53.3709467],[-6.2066841,53.3709558],[-6.2065951,53.3709736],[-6.2064848,53.3709867],[-6.2064013,53.370993]]}";3;Howth Road;3;50;false;false;true;false;false;false;165.0;1;0;0;0;0;false;"";386172704;-6.2044699;53.3710682;609;1517811931;-6.208486;53.3699295;0;26;27;449611;31 - Howth Summit - Howth - Talbot Street;"";Dublin Bus;31;Howth Summit;Talbot Street
540660006;"{\"type\":\"LineString\",\"coordinates\":[[-6.2097805,53.3692407],[-6.2095395,53.3693707],[-6.2092936,53.3695063],[-6.2091564,53.3695821],[-6.2089706,53.3696846],[-6.2085223,53.3699494],[-6.2082873,53.3700882]]}";4;Howth Road;1;50;false;false;true;false;false;false;69.0;0;0;0;0;0;false;"";386172704;-6.2044699;53.3710682;609;1517811931;-6.208486;53.3699295;1;26;27;449611;31 - Howth Summit - Howth - Talbot Street;"";Dublin Bus;31;Howth Summit;Talbot Street
540660006;"{\"type\":\"LineString\",\"coordinates\":[[-6.2097805,53.3692407],[-6.2095395,53.3693707],[-6.2092936,53.3695063],[-6.2091564,53.3695821],[-6.2089706,53.3696846],[-6.2085223,53.3699494],[-6.2082873,53.3700882]]}";1;Howth Road;1;50;false;false;true;false;false;false;69.0;0;0;0;0;0;false;609;1517811931;-6.208486;53.3699295;610;1517811912;-6.2114516;53.3683569;1;27;28;449611;31 - Howth Summit - Howth - Talbot Street;"";Dublin Bus;31;Howth Summit;Talbot Street
540660005;"{\"type\":\"LineString\",\"coordinates\":[[-6.2111038,53.3685704],[-6.2108924,53.3686713],[-6.2107279,53.3687498],[-6.2107125,53.3687574],[-6.2105491,53.3688375],[-6.2103572,53.3689382],[-6.2101293,53.3690579],[-6.2098896,53.3691837],[-6.2097805,53.3692407]]}";2;Howth Road;1;50;false;false;true;false;false;false;117.0;0;0;0;0;0;false;609;1517811931;-6.208486;53.3699295;610;1517811912;-6.2114516;53.3683569;0;27;28;449611;31 - Howth Summit - Howth - Talbot Street;"";Dublin Bus;31;Howth Summit;Talbot Street
593493972;"{\"type\":\"LineString\",\"coordinates\":[[-6.2117292,53.3683006],[-6.2114916,53.3683966],[-6.2111038,53.3685704]]}";3;Howth Road;1;50;false;false;true;false;false;false;26.0;0;0;0;0;0;false;609;1517811931;-6.208486;53.3699295;610;1517811912;-6.2114516;53.3683569;1;27;28;449611;31 - Howth Summit - Howth - Talbot Street;"";Dublin Bus;31;Howth Summit;Talbot Street
593493973;"{\"type\":\"LineString\",\"coordinates\":[[-6.211852,53.3682512],[-6.2117292,53.3683006]]}";1;Howth Road;1;50;false;false;false;false;false;false;10.0;0;0;0;0;0;false;610;1517811912;-6.2114516;53.3683569;611;1517811851;-6.2188397;53.3667449;2;28;29;449611;31 - Howth Summit - Howth - Talbot Street;"";Dublin Bus;31;Howth Summit;Talbot Street
593493971;"{\"type\":\"LineString\",\"coordinates\":[[-6.2119645,53.3682077],[-6.211852,53.3682512]]}";2;Howth Road;1;50;false;false;false;false;false;false;9.0;0;0;0;0;0;false;610;1517811912;-6.2114516;53.3683569;611;1517811851;-6.2188397;53.3667449;0;28;29;449611;31 - Howth Summit - Howth - Talbot Street;"";Dublin Bus;31;Howth Summit;Talbot Street
593493974;"{\"type\":\"LineString\",\"coordinates\":[[-6.2121645,53.3681336],[-6.2120331,53.3681803],[-6.2119645,53.3682077]]}";3;Howth Road;1;50;false;false;false;false;false;false;16.0;1;1;0;0;0;false;610;1517811912;-6.2114516;53.3683569;611;1517811851;-6.2188397;53.3667449;0;28;29;449611;31 - Howth Summit - Howth - Talbot Street;"";Dublin Bus;31;Howth Summit;Talbot Street
317675347;"{\"type\":\"LineString\",\"coordinates\":[[-6.2132023,53.3677877],[-6.2128424,53.3679086],[-6.2127133,53.3679514],[-6.2121645,53.3681336]]}";4;Howth Road;1;50;false;false;false;false;false;false;80.0;1;0;0;0;0;false;610;1517811912;-6.2114516;53.3683569;611;1517811851;-6.2188397;53.3667449;0;28;29;449611;31 - Howth Summit - Howth - Talbot Street;"";Dublin Bus;31;Howth Summit;Talbot Street
540660003;"{\"type\":\"LineString\",\"coordinates\":[[-6.2196951,53.366793],[-6.2196107,53.3667917],[-6.2193323,53.3667938],[-6.2190566,53.366801],[-6.2189281,53.3668129],[-6.2188708,53.3668214],[-6.2188188,53.3668294],[-6.2186339,53.3668726],[-6.2184784,53.3669225],[-6.218166,53.3670439],[-6.2179501,53.3671095],[-6.2178266,53.367138],[-6.2176767,53.3671587],[-6.217503,53.3671833],[-6.2173532,53.3671953],[-6.2169842,53.3671956],[-6.2166525,53.3671988],[-6.2163415,53.3672085],[-6.2161713,53.3672132],[-6.2160508,53.3672184],[-6.2155319,53.3672616],[-6.2153993,53.3672742],[-6.2151583,53.3673109],[-6.2151022,53.3673199],[-6.2147673,53.3673737],[-6.2144058,53.3674424],[-6.2141503,53.3675082],[-6.2138699,53.3675863],[-6.2132023,53.3677877]]}";5;Howth Road;1;50;false;false;false;false;false;false;457.0;1;0;0;0;0;false;610;1517811912;-6.2114516;53.3683569;611;1517811851;-6.2188397;53.3667449;2;28;29;449611;31 - Howth Summit - Howth - Talbot Street;"";Dublin Bus;31;Howth Summit;Talbot Street
540660003;"{\"type\":\"LineString\",\"coordinates\":[[-6.2196951,53.366793],[-6.2196107,53.3667917],[-6.2193323,53.3667938],[-6.2190566,53.366801],[-6.2189281,53.3668129],[-6.2188708,53.3668214],[-6.2188188,53.3668294],[-6.2186339,53.3668726],[-6.2184784,53.3669225],[-6.218166,53.3670439],[-6.2179501,53.3671095],[-6.2178266,53.367138],[-6.2176767,53.3671587],[-6.217503,53.3671833],[-6.2173532,53.3671953],[-6.2169842,53.3671956],[-6.2166525,53.3671988],[-6.2163415,53.3672085],[-6.2161713,53.3672132],[-6.2160508,53.3672184],[-6.2155319,53.3672616],[-6.2153993,53.3672742],[-6.2151583,53.3673109],[-6.2151022,53.3673199],[-6.2147673,53.3673737],[-6.2144058,53.3674424],[-6.2141503,53.3675082],[-6.2138699,53.3675863],[-6.2132023,53.3677877]]}";1;Howth Road;1;50;false;false;false;false;false;false;228.5;1;0;0;0;0;false;611;1517811851;-6.2188397;53.3667449;"";3652524798;-6.2242205;53.3657369;1;29;30;449611;31 - Howth Summit - Howth - Talbot Street;"";Dublin Bus;31;Howth Summit;Talbot Street
540660004;"{\"type\":\"LineString\",\"coordinates\":[[-6.2200344,53.3667897],[-6.2196951,53.366793]]}";2;Howth Road;1;50;false;false;true;false;false;false;23.0;0;0;0;0;0;false;611;1517811851;-6.2188397;53.3667449;"";3652524798;-6.2242205;53.3657369;0;29;30;449611;31 - Howth Summit - Howth - Talbot Street;"";Dublin Bus;31;Howth Summit;Talbot Street
360692760;"{\"type\":\"LineString\",\"coordinates\":[[-6.2235634,53.3660756],[-6.2232735,53.3661881],[-6.2225825,53.3664562],[-6.2222637,53.3665618],[-6.2219958,53.3666298],[-6.2217296,53.366687],[-6.2213744,53.3667402],[-6.2212993,53.3667472],[-6.2211279,53.366764],[-6.2210454,53.3667709],[-6.2200344,53.3667897]]}";3;Howth Road;2;50;false;false;false;false;false;false;256.0;1;0;0;0;0;false;611;1517811851;-6.2188397;53.3667449;"";3652524798;-6.2242205;53.3657369;0;29;30;449611;31 - Howth Summit - Howth - Talbot Street;"";Dublin Bus;31;Howth Summit;Talbot Street
128777044;"{\"type\":\"LineString\",\"coordinates\":[[-6.2278412,53.3641497],[-6.2278151,53.3641978],[-6.2277512,53.3642486],[-6.2268141,53.3646643],[-6.226739,53.3646976],[-6.226234,53.3649229],[-6.2251378,53.3654118],[-6.224359,53.3657408],[-6.2242671,53.3657795],[-6.2236161,53.3660534],[-6.2235634,53.3660756]]}";4;Howth Road;2;50;false;false;true;false;false;false;180.5;2;0;0;0;0;false;611;1517811851;-6.2188397;53.3667449;"";3652524798;-6.2242205;53.3657369;1;29;30;449611;31 - Howth Summit - Howth - Talbot Street;"";Dublin Bus;31;Howth Summit;Talbot Street
128777044;"{\"type\":\"LineString\",\"coordinates\":[[-6.2278412,53.3641497],[-6.2278151,53.3641978],[-6.2277512,53.3642486],[-6.2268141,53.3646643],[-6.226739,53.3646976],[-6.226234,53.3649229],[-6.2251378,53.3654118],[-6.224359,53.3657408],[-6.2242671,53.3657795],[-6.2236161,53.3660534],[-6.2235634,53.3660756]]}";1;Howth Road;2;50;false;false;true;false;false;false;180.5;2;0;0;0;0;false;"";4825838711;-6.2267663;53.3646164;614;1698153817;-6.2334431;53.3636266;1;31;32;449611;31 - Howth Summit - Howth - Talbot Street;"";Dublin Bus;31;Howth Summit;Talbot Street
586889650;"{\"type\":\"LineString\",\"coordinates\":[[-6.2289754,53.3642701],[-6.2278412,53.3641497]]}";2;Clontarf Road;5;50;false;false;false;false;false;false;78.0;1;0;0;0;0;false;"";4825838711;-6.2267663;53.3646164;614;1698153817;-6.2334431;53.3636266;0;31;32;449611;31 - Howth Summit - Howth - Talbot Street;"";Dublin Bus;31;Howth Summit;Talbot Street
368177065;"{\"type\":\"LineString\",\"coordinates\":[[-6.2291068,53.3642807],[-6.2289754,53.3642701]]}";3;Clontarf Road;5;50;false;false;false;false;false;false;9.0;0;0;0;0;0;false;"";4825838711;-6.2267663;53.3646164;614;1698153817;-6.2334431;53.3636266;0;31;32;449611;31 - Howth Summit - Howth - Talbot Street;"";Dublin Bus;31;Howth Summit;Talbot Street
4521773;"{\"type\":\"LineString\",\"coordinates\":[[-6.2298176,53.3643593],[-6.2291068,53.3642807]]}";4;Clontarf Road;5;50;false;false;false;false;false;false;49.0;1;0;0;0;0;false;"";4825838711;-6.2267663;53.3646164;614;1698153817;-6.2334431;53.3636266;0;31;32;449611;31 - Howth Summit - Howth - Talbot Street;"";Dublin Bus;31;Howth Summit;Talbot Street
197048019;"{\"type\":\"LineString\",\"coordinates\":[[-6.2329627,53.3638733],[-6.2327655,53.3639237],[-6.2326329,53.3639576],[-6.2318186,53.364153],[-6.2315617,53.3642009],[-6.2309918,53.3642942],[-6.2305584,53.3643355],[-6.2301531,53.3643532],[-6.2298176,53.3643593]]}";5;Marino Mart;6;50;false;false;true;false;false;false;220.0;1;0;0;0;0;false;"";4825838711;-6.2267663;53.3646164;614;1698153817;-6.2334431;53.3636266;0;31;32;449611;31 - Howth Summit - Howth - Talbot Street;"";Dublin Bus;31;Howth Summit;Talbot Street
146465050;"{\"type\":\"LineString\",\"coordinates\":[[-6.2332619,53.3637949],[-6.2329627,53.3638733]]}";6;Marino Mart;5;50;false;false;true;false;false;false;22.0;0;0;0;0;0;false;"";4825838711;-6.2267663;53.3646164;614;1698153817;-6.2334431;53.3636266;0;31;32;449611;31 - Howth Summit - Howth - Talbot Street;"";Dublin Bus;31;Howth Summit;Talbot Street
368990036;"{\"type\":\"LineString\",\"coordinates\":[[-6.234743,53.3633522],[-6.2342918,53.3634823],[-6.2335724,53.3636985],[-6.2332619,53.3637949]]}";7;Fairview;6;50;false;false;true;false;false;false;55.5;0;0;0;0;0;false;"";4825838711;-6.2267663;53.3646164;614;1698153817;-6.2334431;53.3636266;1;31;32;449611;31 - Howth Summit - Howth - Talbot Street;"";Dublin Bus;31;Howth Summit;Talbot Street
368990036;"{\"type\":\"LineString\",\"coordinates\":[[-6.234743,53.3633522],[-6.2342918,53.3634823],[-6.2335724,53.3636985],[-6.2332619,53.3637949]]}";1;Fairview;6;50;false;false;true;false;false;false;55.5;0;0;0;0;0;false;614;1698153817;-6.2334431;53.3636266;615;1509385831;-6.2372844;53.3619551;1;32;33;449611;31 - Howth Summit - Howth - Talbot Street;"";Dublin Bus;31;Howth Summit;Talbot Street
22716429;"{\"type\":\"LineString\",\"coordinates\":[[-6.2364566,53.362849],[-6.2359464,53.3630073],[-6.235517,53.36313],[-6.2351937,53.3632223],[-6.234743,53.3633522]]}";2;Fairview;5;50;false;false;true;false;false;false;128.0;1;0;0;0;0;false;614;1698153817;-6.2334431;53.3636266;615;1509385831;-6.2372844;53.3619551;0;32;33;449611;31 - Howth Summit - Howth - Talbot Street;"";Dublin Bus;31;Howth Summit;Talbot Street
442928296;"{\"type\":\"LineString\",\"coordinates\":[[-6.2368792,53.3624417],[-6.2366371,53.362675],[-6.2364566,53.362849]]}";3;Annesley Bridge Road;4;50;false;false;true;false;false;false;54.0;1;0;0;0;0;false;614;1698153817;-6.2334431;53.3636266;615;1509385831;-6.2372844;53.3619551;0;32;33;449611;31 - Howth Summit - Howth - Talbot Street;"";Dublin Bus;31;Howth Summit;Talbot Street
4287188;"{\"type\":\"LineString\",\"coordinates\":[[-6.2385622,53.3610019],[-6.2384712,53.361078],[-6.2384312,53.3611116],[-6.2381319,53.3613631],[-6.2378516,53.3615991],[-6.2376588,53.3617555],[-6.2374039,53.3619789],[-6.2368792,53.3624417]]}";4;Annesley Bridge Road;5;50;false;false;true;false;false;false;98.5;0;0;0;0;0;false;614;1698153817;-6.2334431;53.3636266;615;1509385831;-6.2372844;53.3619551;1;32;33;449611;31 - Howth Summit - Howth - Talbot Street;"";Dublin Bus;31;Howth Summit;Talbot Street
4287188;"{\"type\":\"LineString\",\"coordinates\":[[-6.2385622,53.3610019],[-6.2384712,53.361078],[-6.2384312,53.3611116],[-6.2381319,53.3613631],[-6.2378516,53.3615991],[-6.2376588,53.3617555],[-6.2374039,53.3619789],[-6.2368792,53.3624417]]}";1;Annesley Bridge Road;5;50;false;false;true;false;false;false;98.5;0;0;0;0;0;false;615;1509385831;-6.2372844;53.3619551;616;1701510130;-6.2396233;53.3598235;1;33;34;449611;31 - Howth Summit - Howth - Talbot Street;"";Dublin Bus;31;Howth Summit;Talbot Street
379071734;"{\"type\":\"LineString\",\"coordinates\":[[-6.2386869,53.3608994],[-6.2385622,53.3610019]]}";2;Annesley Bridge;5;50;false;false;true;false;false;false;15.0;0;0;0;0;0;false;615;1509385831;-6.2372844;53.3619551;616;1701510130;-6.2396233;53.3598235;0;33;34;449611;31 - Howth Summit - Howth - Talbot Street;"";Dublin Bus;31;Howth Summit;Talbot Street
317219085;"{\"type\":\"LineString\",\"coordinates\":[[-6.2387285,53.3608653],[-6.2386869,53.3608994]]}";3;Annesley Bridge;5;50;false;false;true;false;false;false;5.0;0;0;0;0;0;false;615;1509385831;-6.2372844;53.3619551;616;1701510130;-6.2396233;53.3598235;0;33;34;449611;31 - Howth Summit - Howth - Talbot Street;"";Dublin Bus;31;Howth Summit;Talbot Street
4937391;"{\"type\":\"LineString\",\"coordinates\":[[-6.2389493,53.3606838],[-6.2387285,53.3608653]]}";4;Annesley Bridge;5;50;false;false;true;false;false;false;26.0;0;0;0;0;0;false;615;1509385831;-6.2372844;53.3619551;616;1701510130;-6.2396233;53.3598235;0;33;34;449611;31 - Howth Summit - Howth - Talbot Street;"";Dublin Bus;31;Howth Summit;Talbot Street
4937390;"{\"type\":\"LineString\",\"coordinates\":[[-6.2390148,53.3606292],[-6.2389493,53.3606838]]}";5;Annesley Bridge Road;5;50;false;false;true;false;false;false;8.0;1;0;0;0;0;false;615;1509385831;-6.2372844;53.3619551;616;1701510130;-6.2396233;53.3598235;0;33;34;449611;31 - Howth Summit - Howth - Talbot Street;"";Dublin Bus;31;Howth Summit;Talbot Street
37096954;"{\"type\":\"LineString\",\"coordinates\":[[-6.2393619,53.3602691],[-6.2393368,53.3602973],[-6.2390148,53.3606292]]}";6;North Strand Road;5;50;false;false;true;false;false;false;47.0;1;0;0;0;0;false;615;1509385831;-6.2372844;53.3619551;616;1701510130;-6.2396233;53.3598235;0;33;34;449611;31 - Howth Summit - Howth - Talbot Street;"";Dublin Bus;31;Howth Summit;Talbot Street
37812705;"{\"type\":\"LineString\",\"coordinates\":[[-6.2399931,53.3596662],[-6.2398718,53.3597745],[-6.2397449,53.3598965],[-6.2395592,53.3600684],[-6.2393619,53.3602691]]}";7;North Strand Road;6;50;false;false;true;false;false;false;40.0;0;0;0;0;0;false;615;1509385831;-6.2372844;53.3619551;616;1701510130;-6.2396233;53.3598235;1;33;34;449611;31 - Howth Summit - Howth - Talbot Street;"";Dublin Bus;31;Howth Summit;Talbot Street
37812705;"{\"type\":\"LineString\",\"coordinates\":[[-6.2399931,53.3596662],[-6.2398718,53.3597745],[-6.2397449,53.3598965],[-6.2395592,53.3600684],[-6.2393619,53.3602691]]}";1;North Strand Road;6;50;false;false;true;false;false;false;40.0;0;0;0;0;0;false;616;1701510130;-6.2396233;53.3598235;617;3255990358;-6.2419715;53.3578986;1;34;35;449611;31 - Howth Summit - Howth - Talbot Street;"";Dublin Bus;31;Howth Summit;Talbot Street
37691265;"{\"type\":\"LineString\",\"coordinates\":[[-6.2402921,53.3594225],[-6.2401285,53.3595559],[-6.2399931,53.3596662]]}";2;North Strand Road;1;50;false;false;true;false;false;false;34.0;1;1;0;0;0;false;616;1701510130;-6.2396233;53.3598235;617;3255990358;-6.2419715;53.3578986;0;34;35;449611;31 - Howth Summit - Howth - Talbot Street;"";Dublin Bus;31;Howth Summit;Talbot Street
481221022;"{\"type\":\"LineString\",\"coordinates\":[[-6.2403848,53.3593319],[-6.2402921,53.3594225]]}";3;North Strand Road;4;50;false;false;true;false;false;false;12.0;1;0;0;0;0;false;616;1701510130;-6.2396233;53.3598235;617;3255990358;-6.2419715;53.3578986;0;34;35;449611;31 - Howth Summit - Howth - Talbot Street;"";Dublin Bus;31;Howth Summit;Talbot Street
375581292;"{\"type\":\"LineString\",\"coordinates\":[[-6.2406104,53.3591044],[-6.2405626,53.3591582],[-6.2403848,53.3593319]]}";4;North Strand Road;4;50;false;false;true;false;false;false;30.0;0;0;0;0;0;false;616;1701510130;-6.2396233;53.3598235;617;3255990358;-6.2419715;53.3578986;0;34;35;449611;31 - Howth Summit - Howth - Talbot Street;"";Dublin Bus;31;Howth Summit;Talbot Street
375581291;"{\"type\":\"LineString\",\"coordinates\":[[-6.2411525,53.3586229],[-6.2410033,53.3587408],[-6.2407429,53.3589741],[-6.2406104,53.3591044]]}";5;North Strand Road;4;50;false;false;true;false;false;false;66.0;0;0;0;0;0;false;616;1701510130;-6.2396233;53.3598235;617;3255990358;-6.2419715;53.3578986;0;34;35;449611;31 - Howth Summit - Howth - Talbot Street;"";Dublin Bus;31;Howth Summit;Talbot Street
4287187;"{\"type\":\"LineString\",\"coordinates\":[[-6.2440112,53.3566966],[-6.2439907,53.3567109],[-6.2439701,53.3567252],[-6.2438134,53.3568295],[-6.2433013,53.3571552],[-6.2428201,53.3574756],[-6.2427373,53.3575342],[-6.2426136,53.3576186],[-6.242318,53.3578072],[-6.242179,53.3578988],[-6.2420588,53.3579854],[-6.2416794,53.3582301],[-6.2411525,53.3586229]]}";6;North Strand Road;4;50;false;false;true;false;false;false;144.5;1;0;0;0;0;false;616;1701510130;-6.2396233;53.3598235;617;3255990358;-6.2419715;53.3578986;1;34;35;449611;31 - Howth Summit - Howth - Talbot Street;"";Dublin Bus;31;Howth Summit;Talbot Street
4287187;"{\"type\":\"LineString\",\"coordinates\":[[-6.2440112,53.3566966],[-6.2439907,53.3567109],[-6.2439701,53.3567252],[-6.2438134,53.3568295],[-6.2433013,53.3571552],[-6.2428201,53.3574756],[-6.2427373,53.3575342],[-6.2426136,53.3576186],[-6.242318,53.3578072],[-6.242179,53.3578988],[-6.2420588,53.3579854],[-6.2416794,53.3582301],[-6.2411525,53.3586229]]}";1;North Strand Road;4;50;false;false;true;false;false;false;144.5;1;0;0;0;0;false;617;3255990358;-6.2419715;53.3578986;618;3057394042;-6.2448512;53.3560494;1;35;36;449611;31 - Howth Summit - Howth - Talbot Street;"";Dublin Bus;31;Howth Summit;Talbot Street
128947808;"{\"type\":\"LineString\",\"coordinates\":[[-6.2440112,53.3566966],[-6.2441549,53.3565972],[-6.2442545,53.3565305]]}";2;North Strand Road;4;50;false;false;true;false;false;false;25.0;0;0;0;0;0;false;617;3255990358;-6.2419715;53.3578986;618;3057394042;-6.2448512;53.3560494;0;35;36;449611;31 - Howth Summit - Howth - Talbot Street;"";Dublin Bus;31;Howth Summit;Talbot Street
482926564;"{\"type\":\"LineString\",\"coordinates\":[[-6.2442545,53.3565305],[-6.2442572,53.356529]]}";3;North Strand Road;4;50;false;false;true;false;false;false;1.0;0;0;0;0;0;false;617;3255990358;-6.2419715;53.3578986;618;3057394042;-6.2448512;53.3560494;0;35;36;449611;31 - Howth Summit - Howth - Talbot Street;"";Dublin Bus;31;Howth Summit;Talbot Street
317219095;"{\"type\":\"LineString\",\"coordinates\":[[-6.2442572,53.356529],[-6.2443719,53.3564514]]}";4;Newcomen Bridge;4;50;false;false;true;false;false;false;12.0;0;0;0;0;0;false;617;3255990358;-6.2419715;53.3578986;618;3057394042;-6.2448512;53.3560494;0;35;36;449611;31 - Howth Summit - Howth - Talbot Street;"";Dublin Bus;31;Howth Summit;Talbot Street
502143950;"{\"type\":\"LineString\",\"coordinates\":[[-6.244431,53.3564115],[-6.2443719,53.3564514]]}";5;North Strand Road;4;50;false;false;true;false;false;false;6.0;0;0;0;0;0;false;617;3255990358;-6.2419715;53.3578986;618;3057394042;-6.2448512;53.3560494;0;35;36;449611;31 - Howth Summit - Howth - Talbot Street;"";Dublin Bus;31;Howth Summit;Talbot Street
37720965;"{\"type\":\"LineString\",\"coordinates\":[[-6.2451039,53.3559576],[-6.2448331,53.3561421],[-6.2446829,53.3562416],[-6.244431,53.3564115]]}";6;North Strand Road;4;50;false;false;true;false;false;false;34.0;0;0;0;0;0;false;617;3255990358;-6.2419715;53.3578986;618;3057394042;-6.2448512;53.3560494;1;35;36;449611;31 - Howth Summit - Howth - Talbot Street;"";Dublin Bus;31;Howth Summit;Talbot Street
37866821;"{\"type\":\"LineString\",\"coordinates\":[[-6.246288,53.3550671],[-6.2461724,53.355154],[-6.2455796,53.3555999],[-6.2454208,53.3557193],[-6.2451039,53.3559576]]}";1;North Strand Road;4;50;false;false;true;false;false;false;128.0;0;0;0;0;0;false;618;3057394042;-6.2448512;53.3560494;619;995503686;-6.2473311;53.3539584;2;36;37;449611;31 - Howth Summit - Howth - Talbot Street;"";Dublin Bus;31;Howth Summit;Talbot Street
130277328;"{\"type\":\"LineString\",\"coordinates\":[[-6.2466832,53.3547073],[-6.2464207,53.3549463],[-6.246288,53.3550671]]}";2;North Strand Road;4;50;false;false;true;false;false;false;49.0;1;0;0;0;0;false;618;3057394042;-6.2448512;53.3560494;619;995503686;-6.2473311;53.3539584;0;36;37;449611;31 - Howth Summit - Howth - Talbot Street;"";Dublin Bus;31;Howth Summit;Talbot Street
354359921;"{\"type\":\"LineString\",\"coordinates\":[[-6.2482417,53.3532579],[-6.2480663,53.3534157],[-6.2479425,53.3535212],[-6.2477435,53.3537091],[-6.2476425,53.3538045],[-6.2474421,53.3539932],[-6.2467814,53.3546178],[-6.2466832,53.3547073]]}";3;Amiens Street;4;50;false;false;true;false;false;false;194.0;1;0;0;0;0;false;618;3057394042;-6.2448512;53.3560494;619;995503686;-6.2473311;53.3539584;2;36;37;449611;31 - Howth Summit - Howth - Talbot Street;"";Dublin Bus;31;Howth Summit;Talbot Street
354359921;"{\"type\":\"LineString\",\"coordinates\":[[-6.2482417,53.3532579],[-6.2480663,53.3534157],[-6.2479425,53.3535212],[-6.2477435,53.3537091],[-6.2476425,53.3538045],[-6.2474421,53.3539932],[-6.2467814,53.3546178],[-6.2466832,53.3547073]]}";1;Amiens Street;4;50;false;false;true;false;false;false;97.0;1;0;0;0;0;false;619;995503686;-6.2473311;53.3539584;675;249429118;-6.2486223;53.3527999;1;37;38;449611;31 - Howth Summit - Howth - Talbot Street;"";Dublin Bus;31;Howth Summit;Talbot Street
354359922;"{\"type\":\"LineString\",\"coordinates\":[[-6.2486188,53.3529497],[-6.2482417,53.3532579]]}";2;Amiens Street;3;50;false;false;true;false;false;false;43.0;0;0;0;0;0;false;619;995503686;-6.2473311;53.3539584;675;249429118;-6.2486223;53.3527999;0;37;38;449611;31 - Howth Summit - Howth - Talbot Street;"";Dublin Bus;31;Howth Summit;Talbot Street
520012242;"{\"type\":\"LineString\",\"coordinates\":[[-6.2488824,53.3527225],[-6.2487534,53.3528355],[-6.2486188,53.3529497]]}";3;Amiens Street;3;50;false;false;true;false;false;false;15.5;0;0;0;0;0;false;619;995503686;-6.2473311;53.3539584;675;249429118;-6.2486223;53.3527999;1;37;38;449611;31 - Howth Summit - Howth - Talbot Street;"";Dublin Bus;31;Howth Summit;Talbot Street
354359922;"{\"type\":\"LineString\",\"coordinates\":[[-6.2486188,53.3529497],[-6.2482417,53.3532579]]}";1;Amiens Street;3;50;false;false;true;false;false;false;43.0;0;0;0;0;0;false;675;249429118;-6.2486223;53.3527999;620;4684511728;-6.2528079;53.350953;2;38;39;449611;31 - Howth Summit - Howth - Talbot Street;"";Dublin Bus;31;Howth Summit;Talbot Street
520012242;"{\"type\":\"LineString\",\"coordinates\":[[-6.2488824,53.3527225],[-6.2487534,53.3528355],[-6.2486188,53.3529497]]}";2;Amiens Street;3;50;false;false;true;false;false;false;31.0;0;0;0;0;0;false;675;249429118;-6.2486223;53.3527999;620;4684511728;-6.2528079;53.350953;0;38;39;449611;31 - Howth Summit - Howth - Talbot Street;"";Dublin Bus;31;Howth Summit;Talbot Street
37865180;"{\"type\":\"LineString\",\"coordinates\":[[-6.2494985,53.3521529],[-6.249236,53.3524035],[-6.2489537,53.3526565],[-6.2488824,53.3527225]]}";3;Amiens Street;3;50;false;false;true;false;false;false;77.0;0;1;0;0;0;false;675;249429118;-6.2486223;53.3527999;620;4684511728;-6.2528079;53.350953;0;38;39;449611;31 - Howth Summit - Howth - Talbot Street;"";Dublin Bus;31;Howth Summit;Talbot Street
37865179;"{\"type\":\"LineString\",\"coordinates\":[[-6.2497435,53.3518457],[-6.2497261,53.351872],[-6.2494985,53.3521529]]}";4;Amiens Street;4;50;false;false;true;false;false;false;39.0;0;0;0;0;0;false;675;249429118;-6.2486223;53.3527999;620;4684511728;-6.2528079;53.350953;0;38;39;449611;31 - Howth Summit - Howth - Talbot Street;"";Dublin Bus;31;Howth Summit;Talbot Street
37865178;"{\"type\":\"LineString\",\"coordinates\":[[-6.2500678,53.3513705],[-6.2500118,53.3514696],[-6.2498406,53.3517174],[-6.2497435,53.3518457]]}";5;Amiens Street;5;50;false;false;true;false;false;false;58.0;1;0;0;0;0;false;675;249429118;-6.2486223;53.3527999;620;4684511728;-6.2528079;53.350953;0;38;39;449611;31 - Howth Summit - Howth - Talbot Street;"";Dublin Bus;31;Howth Summit;Talbot Street
50214631;"{\"type\":\"LineString\",\"coordinates\":[[-6.2500678,53.3513705],[-6.2502517,53.351399],[-6.2503298,53.3514111],[-6.2504867,53.351415],[-6.2506263,53.3513849],[-6.2507508,53.3513236],[-6.2511367,53.3512594],[-6.251187,53.351251]]}";6;Talbot Street;1;30;false;true;true;false;false;false;80.0;1;0;0;0;0;false;675;249429118;-6.2486223;53.3527999;620;4684511728;-6.2528079;53.350953;0;38;39;449611;31 - Howth Summit - Howth - Talbot Street;"";Dublin Bus;31;Howth Summit;Talbot Street
584286612;"{\"type\":\"LineString\",\"coordinates\":[[-6.251187,53.351251],[-6.2513925,53.351217],[-6.2516543,53.3511778],[-6.2522025,53.3510978],[-6.2522591,53.351056],[-6.2524118,53.3510339],[-6.2528073,53.3509702],[-6.2528129,53.3509693],[-6.2530002,53.3509413],[-6.2530513,53.3509412]]}";7;Talbot Street;1;30;false;true;true;false;false;false;131.0;0;0;0;0;0;false;675;249429118;-6.2486223;53.3527999;620;4684511728;-6.2528079;53.350953;2;38;39;449611;31 - Howth Summit - Howth - Talbot Street;"";Dublin Bus;31;Howth Summit;Talbot Street
584286613;"{\"type\":\"LineString\",\"coordinates\":[[-6.2530513,53.3509412],[-6.2531516,53.350939],[-6.253572,53.3508659],[-6.2536518,53.3508653]]}";1;Talbot Street;1;30;false;true;true;false;false;false;42.0;0;0;0;0;0;false;620;4684511728;-6.2528079;53.350953;621;3248525113;-6.2562658;53.3503826;2;39;40;449611;31 - Howth Summit - Howth - Talbot Street;"";Dublin Bus;31;Howth Summit;Talbot Street
481221021;"{\"type\":\"LineString\",\"coordinates\":[[-6.2536518,53.3508653],[-6.2537052,53.3508663],[-6.2539188,53.3508295]]}";2;Talbot Street;1;30;false;true;true;false;false;false;19.0;0;0;0;0;0;false;620;4684511728;-6.2528079;53.350953;621;3248525113;-6.2562658;53.3503826;0;39;40;449611;31 - Howth Summit - Howth - Talbot Street;"";Dublin Bus;31;Howth Summit;Talbot Street
529166770;"{\"type\":\"LineString\",\"coordinates\":[[-6.2539188,53.3508295],[-6.2544091,53.3507411]]}";3;Talbot Street;1;30;false;true;true;false;false;false;35.0;1;0;0;0;0;false;620;4684511728;-6.2528079;53.350953;621;3248525113;-6.2562658;53.3503826;0;39;40;449611;31 - Howth Summit - Howth - Talbot Street;"";Dublin Bus;31;Howth Summit;Talbot Street
125865744;"{\"type\":\"LineString\",\"coordinates\":[[-6.2544091,53.3507411],[-6.2545649,53.3507135],[-6.2553821,53.3505686],[-6.2562826,53.3504395],[-6.2575357,53.3502487],[-6.2580896,53.3501584],[-6.2581183,53.3501521],[-6.2581589,53.3501431],[-6.2582119,53.3501328]]}";4;Talbot Street;1;30;false;true;true;false;false;false;264.0;1;2;0;0;0;false;620;4684511728;-6.2528079;53.350953;621;3248525113;-6.2562658;53.3503826;1;39;40;449611;31 - Howth Summit - Howth - Talbot Street;"";Dublin Bus;31;Howth Summit;Talbot Street
