way_id;shape;index;name;nb_lanes;legal_speed;speed_zone_30;oneway;shares_bike;bike_box;bus_lane;dedicated_bus_lane;length;nb_traffic_signals;nb_crossings;nb_stops;nb_give_ways;nb_lvl_crossings;roundabout;stop_id_orig;node_id_orig;coord_x_orig;coord_y_orig;stop_id_dest;node_id_dest;coord_x_dest;coord_y_dest;nb_neighbouring_ways_bus_stop;order_orig;order_dest;id_line;line_name;colour;operator;ref;from;to
231766477;"{\"type\":\"LineString\",\"coordinates\":[[-6.2724071,53.3674695],[-6.2718438,53.3674129],[-6.27165,53.3673816],[-6.2713684,53.3673361],[-6.2709385,53.3672241]]}";1;Prospect Way;3;30;false;true;true;false;false;false;103.0;0;0;0;0;0;false;200;1423541928;-6.2716346;53.3674515;150;1427533511;-6.2649939;53.3756865;1;0;1;6075051;9 - Limekiln Avenue to Charlestown;"";Dublin Bus;9;Limekiln Avenue;Charlestown
156177849;"{\"type\":\"LineString\",\"coordinates\":[[-6.2709385,53.3672241],[-6.2707799,53.3672301],[-6.2706978,53.3672546],[-6.2706031,53.3673212]]}";2;Botanic Road;1;30;false;true;true;false;false;false;27.0;0;0;0;0;0;false;200;1423541928;-6.2716346;53.3674515;150;1427533511;-6.2649939;53.3756865;0;0;1;6075051;9 - Limekiln Avenue to Charlestown;"";Dublin Bus;9;Limekiln Avenue;Charlestown
14507246;"{\"type\":\"LineString\",\"coordinates\":[[-6.2698883,53.3684863],[-6.269951,53.3684018],[-6.2699896,53.3683497],[-6.2700383,53.3682731],[-6.2701223,53.3681408],[-6.2701379,53.3681165],[-6.2702229,53.3679836],[-6.2703416,53.367783],[-6.2705454,53.3674387],[-6.2706031,53.3673212]]}";3;Botanic Road;3;50;false;false;true;false;false;false;140.0;0;0;0;0;0;false;200;1423541928;-6.2716346;53.3674515;150;1427533511;-6.2649939;53.3756865;0;0;1;6075051;9 - Limekiln Avenue to Charlestown;"";Dublin Bus;9;Limekiln Avenue;Charlestown
368877930;"{\"type\":\"LineString\",\"coordinates\":[[-6.2689481,53.369859],[-6.2690404,53.3697323],[-6.2691327,53.3696055],[-6.2691924,53.3694969],[-6.2696137,53.368861],[-6.2696575,53.3687976],[-6.2698883,53.3684863]]}";4;Botanic Road;2;50;false;false;true;false;false;false;167.0;0;1;0;0;0;false;200;1423541928;-6.2716346;53.3674515;150;1427533511;-6.2649939;53.3756865;0;0;1;6075051;9 - Limekiln Avenue to Charlestown;"";Dublin Bus;9;Limekiln Avenue;Charlestown
3787625;"{\"type\":\"LineString\",\"coordinates\":[[-6.2684868,53.3703094],[-6.2685512,53.3702533],[-6.2688273,53.3699755],[-6.2689481,53.369859]]}";5;Botanic Road;2;50;false;false;true;false;false;false;60.0;1;0;0;0;0;false;200;1423541928;-6.2716346;53.3674515;150;1427533511;-6.2649939;53.3756865;0;0;1;6075051;9 - Limekiln Avenue to Charlestown;"";Dublin Bus;9;Limekiln Avenue;Charlestown
378882696;"{\"type\":\"LineString\",\"coordinates\":[[-6.2665438,53.3718443],[-6.2666286,53.371769],[-6.2666519,53.3717483],[-6.267126,53.3713512],[-6.2678993,53.3707122],[-6.2680415,53.3706028],[-6.2682726,53.3704248],[-6.2682857,53.3704177],[-6.2684868,53.3703094]]}";6;Saint Mobhi Road;2;50;false;false;false;false;false;false;217.0;2;2;0;0;0;false;200;1423541928;-6.2716346;53.3674515;150;1427533511;-6.2649939;53.3756865;0;0;1;6075051;9 - Limekiln Avenue to Charlestown;"";Dublin Bus;9;Limekiln Avenue;Charlestown
43188147;"{\"type\":\"LineString\",\"coordinates\":[[-6.2659192,53.3725199],[-6.2659354,53.3724668],[-6.2659499,53.3724358],[-6.2659667,53.3723999],[-6.2659849,53.3723762],[-6.2660367,53.3723086],[-6.2661328,53.37221],[-6.2662313,53.3721259],[-6.2664651,53.371909],[-6.2664872,53.3718908],[-6.2665438,53.3718443]]}";7;Saint Mobhi Road;3;50;false;false;false;false;false;false;88.0;1;1;0;0;0;false;200;1423541928;-6.2716346;53.3674515;150;1427533511;-6.2649939;53.3756865;0;0;1;6075051;9 - Limekiln Avenue to Charlestown;"";Dublin Bus;9;Limekiln Avenue;Charlestown
673195938;"{\"type\":\"LineString\",\"coordinates\":[[-6.2659024,53.3726221],[-6.2659192,53.3725199]]}";8;Dean Swift Bridge;3;50;false;false;true;false;false;false;12.0;0;0;0;0;0;false;200;1423541928;-6.2716346;53.3674515;150;1427533511;-6.2649939;53.3756865;0;0;1;6075051;9 - Limekiln Avenue to Charlestown;"";Dublin Bus;9;Limekiln Avenue;Charlestown
3810271;"{\"type\":\"LineString\",\"coordinates\":[[-6.2646874,53.3761563],[-6.2648828,53.3756898],[-6.2648946,53.3756603],[-6.2649313,53.3755687],[-6.26508,53.3752504],[-6.2655834,53.3741668],[-6.2656148,53.3740636],[-6.2656282,53.374019],[-6.2658071,53.3733567],[-6.2658232,53.373203],[-6.2658419,53.3730245],[-6.2658429,53.3730175],[-6.2658779,53.3727646],[-6.2658975,53.3726575],[-6.2659024,53.3726221]]}";9;Saint Mobhi Road;3;50;false;false;true;false;false;false;203.0;2;0;0;0;0;false;200;1423541928;-6.2716346;53.3674515;150;1427533511;-6.2649939;53.3756865;1;0;1;6075051;9 - Limekiln Avenue to Charlestown;"";Dublin Bus;9;Limekiln Avenue;Charlestown
3810271;"{\"type\":\"LineString\",\"coordinates\":[[-6.2646874,53.3761563],[-6.2648828,53.3756898],[-6.2648946,53.3756603],[-6.2649313,53.3755687],[-6.26508,53.3752504],[-6.2655834,53.3741668],[-6.2656148,53.3740636],[-6.2656282,53.374019],[-6.2658071,53.3733567],[-6.2658232,53.373203],[-6.2658419,53.3730245],[-6.2658429,53.3730175],[-6.2658779,53.3727646],[-6.2658975,53.3726575],[-6.2659024,53.3726221]]}";1;Saint Mobhi Road;3;50;false;false;true;false;false;false;203.0;2;0;0;0;0;false;149;1423546559;-6.2659086;53.3731965;148;3058734358;-6.2680762;53.3706571;1;2;3;6075051;9 - Limekiln Avenue to Charlestown;"";Dublin Bus;9;Limekiln Avenue;Charlestown
673195938;"{\"type\":\"LineString\",\"coordinates\":[[-6.2659024,53.3726221],[-6.2659192,53.3725199]]}";2;Dean Swift Bridge;3;50;false;false;true;false;false;false;12.0;0;0;0;0;0;false;149;1423546559;-6.2659086;53.3731965;148;3058734358;-6.2680762;53.3706571;0;2;3;6075051;9 - Limekiln Avenue to Charlestown;"";Dublin Bus;9;Limekiln Avenue;Charlestown
43188147;"{\"type\":\"LineString\",\"coordinates\":[[-6.2659192,53.3725199],[-6.2659354,53.3724668],[-6.2659499,53.3724358],[-6.2659667,53.3723999],[-6.2659849,53.3723762],[-6.2660367,53.3723086],[-6.2661328,53.37221],[-6.2662313,53.3721259],[-6.2664651,53.371909],[-6.2664872,53.3718908],[-6.2665438,53.3718443]]}";3;Saint Mobhi Road;3;50;false;false;false;false;false;false;88.0;1;1;0;0;0;false;149;1423546559;-6.2659086;53.3731965;148;3058734358;-6.2680762;53.3706571;0;2;3;6075051;9 - Limekiln Avenue to Charlestown;"";Dublin Bus;9;Limekiln Avenue;Charlestown
378882696;"{\"type\":\"LineString\",\"coordinates\":[[-6.2665438,53.3718443],[-6.2666286,53.371769],[-6.2666519,53.3717483],[-6.267126,53.3713512],[-6.2678993,53.3707122],[-6.2680415,53.3706028],[-6.2682726,53.3704248],[-6.2682857,53.3704177],[-6.2684868,53.3703094]]}";4;Saint Mobhi Road;2;50;false;false;false;false;false;false;108.5;2;2;0;0;0;false;149;1423546559;-6.2659086;53.3731965;148;3058734358;-6.2680762;53.3706571;1;2;3;6075051;9 - Limekiln Avenue to Charlestown;"";Dublin Bus;9;Limekiln Avenue;Charlestown
378882696;"{\"type\":\"LineString\",\"coordinates\":[[-6.2665438,53.3718443],[-6.2666286,53.371769],[-6.2666519,53.3717483],[-6.267126,53.3713512],[-6.2678993,53.3707122],[-6.2680415,53.3706028],[-6.2682726,53.3704248],[-6.2682857,53.3704177],[-6.2684868,53.3703094]]}";1;Saint Mobhi Road;2;50;false;false;false;false;false;false;108.5;2;2;0;0;0;false;148;3058734358;-6.2680762;53.3706571;199;1427528406;-6.272288;53.3635526;1;3;4;6075051;9 - Limekiln Avenue to Charlestown;"";Dublin Bus;9;Limekiln Avenue;Charlestown
3787625;"{\"type\":\"LineString\",\"coordinates\":[[-6.2684868,53.3703094],[-6.2685512,53.3702533],[-6.2688273,53.3699755],[-6.2689481,53.369859]]}";2;Botanic Road;2;50;false;false;true;false;false;false;60.0;1;0;0;0;0;false;148;3058734358;-6.2680762;53.3706571;199;1427528406;-6.272288;53.3635526;0;3;4;6075051;9 - Limekiln Avenue to Charlestown;"";Dublin Bus;9;Limekiln Avenue;Charlestown
368877930;"{\"type\":\"LineString\",\"coordinates\":[[-6.2689481,53.369859],[-6.2690404,53.3697323],[-6.2691327,53.3696055],[-6.2691924,53.3694969],[-6.2696137,53.368861],[-6.2696575,53.3687976],[-6.2698883,53.3684863]]}";3;Botanic Road;2;50;false;false;true;false;false;false;167.0;0;1;0;0;0;false;148;3058734358;-6.2680762;53.3706571;199;1427528406;-6.272288;53.3635526;0;3;4;6075051;9 - Limekiln Avenue to Charlestown;"";Dublin Bus;9;Limekiln Avenue;Charlestown
14507246;"{\"type\":\"LineString\",\"coordinates\":[[-6.2698883,53.3684863],[-6.269951,53.3684018],[-6.2699896,53.3683497],[-6.2700383,53.3682731],[-6.2701223,53.3681408],[-6.2701379,53.3681165],[-6.2702229,53.3679836],[-6.2703416,53.367783],[-6.2705454,53.3674387],[-6.2706031,53.3673212]]}";4;Botanic Road;3;50;false;false;true;false;false;false;140.0;0;0;0;0;0;false;148;3058734358;-6.2680762;53.3706571;199;1427528406;-6.272288;53.3635526;0;3;4;6075051;9 - Limekiln Avenue to Charlestown;"";Dublin Bus;9;Limekiln Avenue;Charlestown
156177849;"{\"type\":\"LineString\",\"coordinates\":[[-6.2709385,53.3672241],[-6.2707799,53.3672301],[-6.2706978,53.3672546],[-6.2706031,53.3673212]]}";5;Botanic Road;1;30;false;true;true;false;false;false;27.0;0;0;0;0;0;false;148;3058734358;-6.2680762;53.3706571;199;1427528406;-6.272288;53.3635526;0;3;4;6075051;9 - Limekiln Avenue to Charlestown;"";Dublin Bus;9;Limekiln Avenue;Charlestown
231766477;"{\"type\":\"LineString\",\"coordinates\":[[-6.2724071,53.3674695],[-6.2718438,53.3674129],[-6.27165,53.3673816],[-6.2713684,53.3673361],[-6.2709385,53.3672241]]}";6;Prospect Way;3;30;false;true;true;false;false;false;103.0;0;0;0;0;0;false;148;3058734358;-6.2680762;53.3706571;199;1427528406;-6.272288;53.3635526;0;3;4;6075051;9 - Limekiln Avenue to Charlestown;"";Dublin Bus;9;Limekiln Avenue;Charlestown
231766476;"{\"type\":\"LineString\",\"coordinates\":[[-6.2726986,53.3673072],[-6.2726569,53.3673638],[-6.2726428,53.3673837],[-6.272629,53.3674031],[-6.2725635,53.3674352],[-6.2724071,53.3674695]]}";7;Prospect Way;1;30;false;true;true;false;false;false;29.0;0;1;0;0;0;false;148;3058734358;-6.2680762;53.3706571;199;1427528406;-6.272288;53.3635526;0;3;4;6075051;9 - Limekiln Avenue to Charlestown;"";Dublin Bus;9;Limekiln Avenue;Charlestown
672335042;"{\"type\":\"LineString\",\"coordinates\":[[-6.2724529,53.3670219],[-6.2726986,53.3673072]]}";8;Finglas Road;2;50;false;true;true;false;false;false;36.0;0;0;0;0;0;false;148;3058734358;-6.2680762;53.3706571;199;1427528406;-6.272288;53.3635526;0;3;4;6075051;9 - Limekiln Avenue to Charlestown;"";Dublin Bus;9;Limekiln Avenue;Charlestown
672335043;"{\"type\":\"LineString\",\"coordinates\":[[-6.2718366,53.3661092],[-6.2720034,53.3663686],[-6.2721321,53.3665447],[-6.2722293,53.3666906],[-6.2722714,53.3667538],[-6.2724529,53.3670219]]}";9;Finglas Road;2;50;false;true;true;false;false;false;111.0;0;0;0;0;0;false;148;3058734358;-6.2680762;53.3706571;199;1427528406;-6.272288;53.3635526;0;3;4;6075051;9 - Limekiln Avenue to Charlestown;"";Dublin Bus;9;Limekiln Avenue;Charlestown
282605989;"{\"type\":\"LineString\",\"coordinates\":[[-6.2717847,53.3660087],[-6.2718366,53.3661092]]}";10;Finglas Road;2;50;false;true;true;false;false;false;12.0;0;0;0;0;0;false;148;3058734358;-6.2680762;53.3706571;199;1427528406;-6.272288;53.3635526;0;3;4;6075051;9 - Limekiln Avenue to Charlestown;"";Dublin Bus;9;Limekiln Avenue;Charlestown
3663493;"{\"type\":\"LineString\",\"coordinates\":[[-6.2716513,53.3656405],[-6.2717394,53.365891],[-6.2717847,53.3660087]]}";11;Prospect Road;2;50;false;true;true;false;false;false;43.0;1;0;0;0;0;false;148;3058734358;-6.2680762;53.3706571;199;1427528406;-6.272288;53.3635526;0;3;4;6075051;9 - Limekiln Avenue to Charlestown;"";Dublin Bus;9;Limekiln Avenue;Charlestown
372690317;"{\"type\":\"LineString\",\"coordinates\":[[-6.2717097,53.3652937],[-6.2716921,53.3653834],[-6.2716757,53.3654679],[-6.2716513,53.3656405]]}";12;Prospect Road;4;50;false;false;true;false;false;false;40.0;0;0;0;0;0;false;148;3058734358;-6.2680762;53.3706571;199;1427528406;-6.272288;53.3635526;0;3;4;6075051;9 - Limekiln Avenue to Charlestown;"";Dublin Bus;9;Limekiln Avenue;Charlestown
32024889;"{\"type\":\"LineString\",\"coordinates\":[[-6.271745,53.365113],[-6.2717097,53.3652937]]}";13;Prospect Road;4;50;false;false;true;false;false;false;21.0;0;0;0;0;0;false;148;3058734358;-6.2680762;53.3706571;199;1427528406;-6.272288;53.3635526;0;3;4;6075051;9 - Limekiln Avenue to Charlestown;"";Dublin Bus;9;Limekiln Avenue;Charlestown
4937072;"{\"type\":\"LineString\",\"coordinates\":[[-6.2717563,53.3650001],[-6.271745,53.365113]]}";14;Prospect Road;3;50;false;false;true;false;false;false;13.0;0;0;0;0;0;false;148;3058734358;-6.2680762;53.3706571;199;1427528406;-6.272288;53.3635526;0;3;4;6075051;9 - Limekiln Avenue to Charlestown;"";Dublin Bus;9;Limekiln Avenue;Charlestown
4937071;"{\"type\":\"LineString\",\"coordinates\":[[-6.2717652,53.3648962],[-6.2717563,53.3650001]]}";15;Prospect Road;4;50;false;false;true;false;false;false;12.0;0;0;0;0;0;false;148;3058734358;-6.2680762;53.3706571;199;1427528406;-6.272288;53.3635526;0;3;4;6075051;9 - Limekiln Avenue to Charlestown;"";Dublin Bus;9;Limekiln Avenue;Charlestown
3785459;"{\"type\":\"LineString\",\"coordinates\":[[-6.2717705,53.3646389],[-6.2717652,53.3648962]]}";16;Prospect Road;4;50;false;false;true;false;false;false;29.0;1;0;0;0;0;false;148;3058734358;-6.2680762;53.3706571;199;1427528406;-6.272288;53.3635526;0;3;4;6075051;9 - Limekiln Avenue to Charlestown;"";Dublin Bus;9;Limekiln Avenue;Charlestown
302340423;"{\"type\":\"LineString\",\"coordinates\":[[-6.2717728,53.3645742],[-6.2717705,53.3646389]]}";17;Prospect Road;4;50;false;false;true;false;false;false;8.0;1;0;0;0;0;false;148;3058734358;-6.2680762;53.3706571;199;1427528406;-6.272288;53.3635526;0;3;4;6075051;9 - Limekiln Avenue to Charlestown;"";Dublin Bus;9;Limekiln Avenue;Charlestown
55814728;"{\"type\":\"LineString\",\"coordinates\":[[-6.2717778,53.3644786],[-6.2717746,53.3645405],[-6.2717728,53.3645742]]}";18;Prospect Road;3;50;false;false;true;false;false;false;11.0;0;1;0;0;0;false;148;3058734358;-6.2680762;53.3706571;199;1427528406;-6.272288;53.3635526;0;3;4;6075051;9 - Limekiln Avenue to Charlestown;"";Dublin Bus;9;Limekiln Avenue;Charlestown
4937070;"{\"type\":\"LineString\",\"coordinates\":[[-6.2717932,53.3644128],[-6.2717793,53.3644563],[-6.2717778,53.3644786]]}";19;Prospect Road;3;50;false;false;true;false;false;false;8.0;0;0;0;0;0;false;148;3058734358;-6.2680762;53.3706571;199;1427528406;-6.272288;53.3635526;0;3;4;6075051;9 - Limekiln Avenue to Charlestown;"";Dublin Bus;9;Limekiln Avenue;Charlestown
683409080;"{\"type\":\"LineString\",\"coordinates\":[[-6.2718216,53.3643486],[-6.2717932,53.3644128]]}";20;Cross Guns Bridge;3;50;false;false;false;false;false;false;8.0;0;0;0;0;0;false;148;3058734358;-6.2680762;53.3706571;199;1427528406;-6.272288;53.3635526;0;3;4;6075051;9 - Limekiln Avenue to Charlestown;"";Dublin Bus;9;Limekiln Avenue;Charlestown
227712172;"{\"type\":\"LineString\",\"coordinates\":[[-6.2718526,53.3642819],[-6.2718216,53.3643486]]}";21;Cross Guns Bridge;3;50;false;false;false;false;false;false;8.0;0;0;0;0;0;false;148;3058734358;-6.2680762;53.3706571;199;1427528406;-6.272288;53.3635526;0;3;4;6075051;9 - Limekiln Avenue to Charlestown;"";Dublin Bus;9;Limekiln Avenue;Charlestown
4937069;"{\"type\":\"LineString\",\"coordinates\":[[-6.271861,53.3642637],[-6.2718526,53.3642819]]}";22;Cross Guns Bridge;3;50;false;false;true;false;false;false;3.0;0;0;0;0;0;false;148;3058734358;-6.2680762;53.3706571;199;1427528406;-6.272288;53.3635526;0;3;4;6075051;9 - Limekiln Avenue to Charlestown;"";Dublin Bus;9;Limekiln Avenue;Charlestown
367873918;"{\"type\":\"LineString\",\"coordinates\":[[-6.2718858,53.3642196],[-6.271861,53.3642637]]}";23;Phibsborough Road;3;50;false;false;true;false;false;false;6.0;0;0;0;0;0;false;148;3058734358;-6.2680762;53.3706571;199;1427528406;-6.272288;53.3635526;0;3;4;6075051;9 - Limekiln Avenue to Charlestown;"";Dublin Bus;9;Limekiln Avenue;Charlestown
32117788;"{\"type\":\"LineString\",\"coordinates\":[[-6.2727129,53.3613956],[-6.2727184,53.3615687],[-6.2727417,53.3621534],[-6.2727459,53.3622355],[-6.2727363,53.362334],[-6.2727309,53.3623898],[-6.2727299,53.3624004],[-6.2726884,53.3625327],[-6.2726515,53.3626091],[-6.2725809,53.3627553],[-6.2724166,53.3630954],[-6.2723829,53.3631642],[-6.2721935,53.3635494],[-6.2721563,53.3636251],[-6.2720859,53.3637834],[-6.2719642,53.3640427],[-6.2718858,53.3642196]]}";24;Phibsborough Road;4;50;false;false;true;false;false;false;162.5;1;1;0;0;0;false;148;3058734358;-6.2680762;53.3706571;199;1427528406;-6.272288;53.3635526;1;3;4;6075051;9 - Limekiln Avenue to Charlestown;"";Dublin Bus;9;Limekiln Avenue;Charlestown
32117788;"{\"type\":\"LineString\",\"coordinates\":[[-6.2727129,53.3613956],[-6.2727184,53.3615687],[-6.2727417,53.3621534],[-6.2727459,53.3622355],[-6.2727363,53.362334],[-6.2727309,53.3623898],[-6.2727299,53.3624004],[-6.2726884,53.3625327],[-6.2726515,53.3626091],[-6.2725809,53.3627553],[-6.2724166,53.3630954],[-6.2723829,53.3631642],[-6.2721935,53.3635494],[-6.2721563,53.3636251],[-6.2720859,53.3637834],[-6.2719642,53.3640427],[-6.2718858,53.3642196]]}";1;Phibsborough Road;4;50;false;false;true;false;false;false;162.5;1;1;0;0;0;false;198;970849429;-6.272809;53.3616452;197;990277875;-6.2731884;53.3590228;1;5;6;6075051;9 - Limekiln Avenue to Charlestown;"";Dublin Bus;9;Limekiln Avenue;Charlestown
3787117;"{\"type\":\"LineString\",\"coordinates\":[[-6.2726879,53.3607926],[-6.2726956,53.3608849],[-6.2726975,53.3609075],[-6.2727111,53.3612774],[-6.2727112,53.3613492],[-6.2727129,53.3613956]]}";2;Phibsborough Road;1;50;false;false;true;false;false;false;68.0;1;1;0;0;0;false;198;970849429;-6.272809;53.3616452;197;990277875;-6.2731884;53.3590228;0;5;6;6075051;9 - Limekiln Avenue to Charlestown;"";Dublin Bus;9;Limekiln Avenue;Charlestown
4395775;"{\"type\":\"LineString\",\"coordinates\":[[-6.2726879,53.3607926],[-6.2726757,53.3606612],[-6.2726755,53.3603732],[-6.2726754,53.3601939],[-6.2726762,53.3601666],[-6.2726783,53.3600947],[-6.2726857,53.3598417],[-6.2727004,53.359752],[-6.272717,53.3596513],[-6.2727205,53.3596298],[-6.2728661,53.3593645]]}";3;Phibsborough Road;3;50;false;false;true;false;false;false;162.0;1;0;0;0;0;false;198;970849429;-6.272809;53.3616452;197;990277875;-6.2731884;53.3590228;0;5;6;6075051;9 - Limekiln Avenue to Charlestown;"";Dublin Bus;9;Limekiln Avenue;Charlestown
632121623;"{\"type\":\"LineString\",\"coordinates\":[[-6.2728661,53.3593645],[-6.2730425,53.359079],[-6.27308,53.3590047],[-6.2731182,53.3589291],[-6.273203,53.3587613],[-6.2732357,53.3586828],[-6.2733554,53.3583666],[-6.2733824,53.358268],[-6.2734519,53.3578663],[-6.2734694,53.3577771]]}";4;Phibsborough Road;3;50;false;false;true;false;false;false;92.0;0;1;0;0;0;false;198;970849429;-6.272809;53.3616452;197;990277875;-6.2731884;53.3590228;1;5;6;6075051;9 - Limekiln Avenue to Charlestown;"";Dublin Bus;9;Limekiln Avenue;Charlestown
632121623;"{\"type\":\"LineString\",\"coordinates\":[[-6.2728661,53.3593645],[-6.2730425,53.359079],[-6.27308,53.3590047],[-6.2731182,53.3589291],[-6.273203,53.3587613],[-6.2732357,53.3586828],[-6.2733554,53.3583666],[-6.2733824,53.358268],[-6.2734519,53.3578663],[-6.2734694,53.3577771]]}";1;Phibsborough Road;3;50;false;false;true;false;false;false;92.0;0;1;0;0;0;false;197;990277875;-6.2731884;53.3590228;196;991616834;-6.2737206;53.3569349;1;6;7;6075051;9 - Limekiln Avenue to Charlestown;"";Dublin Bus;9;Limekiln Avenue;Charlestown
32117786;"{\"type\":\"LineString\",\"coordinates\":[[-6.2734694,53.3577771],[-6.2734881,53.3576837],[-6.2735423,53.3574365],[-6.2735673,53.3572301],[-6.2735961,53.3569924],[-6.2736047,53.356889],[-6.2736133,53.3567855],[-6.2736065,53.3565269],[-6.273594,53.3562856],[-6.2735517,53.3558743],[-6.2734856,53.3551394],[-6.2734795,53.3550716],[-6.2734598,53.3549486],[-6.2734267,53.3547427],[-6.273405,53.3546516],[-6.2733693,53.3545735],[-6.2732947,53.3544436]]}";2;Phibsborough Road;3;50;false;false;true;false;false;false;188.0;1;0;0;0;0;false;197;990277875;-6.2731884;53.3590228;196;991616834;-6.2737206;53.3569349;1;6;7;6075051;9 - Limekiln Avenue to Charlestown;"";Dublin Bus;9;Limekiln Avenue;Charlestown
32117786;"{\"type\":\"LineString\",\"coordinates\":[[-6.2734694,53.3577771],[-6.2734881,53.3576837],[-6.2735423,53.3574365],[-6.2735673,53.3572301],[-6.2735961,53.3569924],[-6.2736047,53.356889],[-6.2736133,53.3567855],[-6.2736065,53.3565269],[-6.273594,53.3562856],[-6.2735517,53.3558743],[-6.2734856,53.3551394],[-6.2734795,53.3550716],[-6.2734598,53.3549486],[-6.2734267,53.3547427],[-6.273405,53.3546516],[-6.2733693,53.3545735],[-6.2732947,53.3544436]]}";1;Phibsborough Road;3;50;false;false;true;false;false;false;188.0;1;0;0;0;0;false;195;1100941783;-6.273569;53.3549612;194;650345850;-6.2698599;53.3550191;1;8;9;6075051;9 - Limekiln Avenue to Charlestown;"";Dublin Bus;9;Limekiln Avenue;Charlestown
317183878;"{\"type\":\"LineString\",\"coordinates\":[[-6.2732947,53.3544436],[-6.2732193,53.3543355]]}";2;Constitution Hill;3;50;false;false;true;false;false;false;14.0;2;0;0;0;0;false;195;1100941783;-6.273569;53.3549612;194;650345850;-6.2698599;53.3550191;0;8;9;6075051;9 - Limekiln Avenue to Charlestown;"";Dublin Bus;9;Limekiln Avenue;Charlestown
547843611;"{\"type\":\"LineString\",\"coordinates\":[[-6.2728762,53.3544247],[-6.2730061,53.3543913],[-6.2732193,53.3543355]]}";3;Western Way;2;30;false;true;true;false;false;false;26.0;1;1;0;0;0;false;195;1100941783;-6.273569;53.3549612;194;650345850;-6.2698599;53.3550191;0;8;9;6075051;9 - Limekiln Avenue to Charlestown;"";Dublin Bus;9;Limekiln Avenue;Charlestown
261557471;"{\"type\":\"LineString\",\"coordinates\":[[-6.2725173,53.3546101],[-6.2725238,53.3545411],[-6.2728762,53.3544247]]}";4;Western Way;2;30;false;true;true;false;false;false;35.0;0;0;0;0;0;false;195;1100941783;-6.273569;53.3549612;194;650345850;-6.2698599;53.3550191;0;8;9;6075051;9 - Limekiln Avenue to Charlestown;"";Dublin Bus;9;Limekiln Avenue;Charlestown
4395692;"{\"type\":\"LineString\",\"coordinates\":[[-6.2725173,53.3546101],[-6.2724869,53.354682]]}";5;Western Way;2;30;false;false;true;false;false;false;9.0;0;0;0;0;0;false;195;1100941783;-6.273569;53.3549612;194;650345850;-6.2698599;53.3550191;0;8;9;6075051;9 - Limekiln Avenue to Charlestown;"";Dublin Bus;9;Limekiln Avenue;Charlestown
338040884;"{\"type\":\"LineString\",\"coordinates\":[[-6.2724869,53.354682],[-6.2724369,53.3548255],[-6.272366,53.354951],[-6.2723368,53.3549737],[-6.2722362,53.3550519],[-6.2720984,53.3551339],[-6.2719755,53.3551871],[-6.2719142,53.3552136],[-6.2717071,53.3552676],[-6.2714885,53.3552967],[-6.2712538,53.3552991],[-6.271006,53.35528],[-6.2707059,53.3552321],[-6.2706685,53.3552261],[-6.2698362,53.3550718],[-6.2696297,53.3550335],[-6.2694351,53.3549987],[-6.2692743,53.3549572]]}";6;Western Way;2;30;false;false;true;false;false;false;129.5;0;0;0;0;0;false;195;1100941783;-6.273569;53.3549612;194;650345850;-6.2698599;53.3550191;1;8;9;6075051;9 - Limekiln Avenue to Charlestown;"";Dublin Bus;9;Limekiln Avenue;Charlestown
338040884;"{\"type\":\"LineString\",\"coordinates\":[[-6.2724869,53.354682],[-6.2724369,53.3548255],[-6.272366,53.354951],[-6.2723368,53.3549737],[-6.2722362,53.3550519],[-6.2720984,53.3551339],[-6.2719755,53.3551871],[-6.2719142,53.3552136],[-6.2717071,53.3552676],[-6.2714885,53.3552967],[-6.2712538,53.3552991],[-6.271006,53.35528],[-6.2707059,53.3552321],[-6.2706685,53.3552261],[-6.2698362,53.3550718],[-6.2696297,53.3550335],[-6.2694351,53.3549987],[-6.2692743,53.3549572]]}";1;Western Way;2;30;false;false;true;false;false;false;129.5;0;0;0;0;0;false;194;650345850;-6.2698599;53.3550191;201;663813639;-6.2701242;53.3682845;1;9;10;6075051;9 - Limekiln Avenue to Charlestown;"";Dublin Bus;9;Limekiln Avenue;Charlestown
4395692;"{\"type\":\"LineString\",\"coordinates\":[[-6.2725173,53.3546101],[-6.2724869,53.354682]]}";2;Western Way;2;30;false;false;true;false;false;false;9.0;0;0;0;0;0;false;194;650345850;-6.2698599;53.3550191;201;663813639;-6.2701242;53.3682845;0;9;10;6075051;9 - Limekiln Avenue to Charlestown;"";Dublin Bus;9;Limekiln Avenue;Charlestown
261557471;"{\"type\":\"LineString\",\"coordinates\":[[-6.2725173,53.3546101],[-6.2725238,53.3545411],[-6.2728762,53.3544247]]}";3;Western Way;2;30;false;true;true;false;false;false;35.0;0;0;0;0;0;false;194;650345850;-6.2698599;53.3550191;201;663813639;-6.2701242;53.3682845;0;9;10;6075051;9 - Limekiln Avenue to Charlestown;"";Dublin Bus;9;Limekiln Avenue;Charlestown
547843611;"{\"type\":\"LineString\",\"coordinates\":[[-6.2728762,53.3544247],[-6.2730061,53.3543913],[-6.2732193,53.3543355]]}";4;Western Way;2;30;false;true;true;false;false;false;26.0;1;1;0;0;0;false;194;650345850;-6.2698599;53.3550191;201;663813639;-6.2701242;53.3682845;0;9;10;6075051;9 - Limekiln Avenue to Charlestown;"";Dublin Bus;9;Limekiln Avenue;Charlestown
317183878;"{\"type\":\"LineString\",\"coordinates\":[[-6.2732947,53.3544436],[-6.2732193,53.3543355]]}";5;Constitution Hill;3;50;false;false;true;false;false;false;14.0;2;0;0;0;0;false;194;650345850;-6.2698599;53.3550191;201;663813639;-6.2701242;53.3682845;0;9;10;6075051;9 - Limekiln Avenue to Charlestown;"";Dublin Bus;9;Limekiln Avenue;Charlestown
32117786;"{\"type\":\"LineString\",\"coordinates\":[[-6.2734694,53.3577771],[-6.2734881,53.3576837],[-6.2735423,53.3574365],[-6.2735673,53.3572301],[-6.2735961,53.3569924],[-6.2736047,53.356889],[-6.2736133,53.3567855],[-6.2736065,53.3565269],[-6.273594,53.3562856],[-6.2735517,53.3558743],[-6.2734856,53.3551394],[-6.2734795,53.3550716],[-6.2734598,53.3549486],[-6.2734267,53.3547427],[-6.273405,53.3546516],[-6.2733693,53.3545735],[-6.2732947,53.3544436]]}";6;Phibsborough Road;3;50;false;false;true;false;false;false;376.0;1;0;0;0;0;false;194;650345850;-6.2698599;53.3550191;201;663813639;-6.2701242;53.3682845;0;9;10;6075051;9 - Limekiln Avenue to Charlestown;"";Dublin Bus;9;Limekiln Avenue;Charlestown
632121623;"{\"type\":\"LineString\",\"coordinates\":[[-6.2728661,53.3593645],[-6.2730425,53.359079],[-6.27308,53.3590047],[-6.2731182,53.3589291],[-6.273203,53.3587613],[-6.2732357,53.3586828],[-6.2733554,53.3583666],[-6.2733824,53.358268],[-6.2734519,53.3578663],[-6.2734694,53.3577771]]}";7;Phibsborough Road;3;50;false;false;true;false;false;false;184.0;0;1;0;0;0;false;194;650345850;-6.2698599;53.3550191;201;663813639;-6.2701242;53.3682845;0;9;10;6075051;9 - Limekiln Avenue to Charlestown;"";Dublin Bus;9;Limekiln Avenue;Charlestown
4395775;"{\"type\":\"LineString\",\"coordinates\":[[-6.2726879,53.3607926],[-6.2726757,53.3606612],[-6.2726755,53.3603732],[-6.2726754,53.3601939],[-6.2726762,53.3601666],[-6.2726783,53.3600947],[-6.2726857,53.3598417],[-6.2727004,53.359752],[-6.272717,53.3596513],[-6.2727205,53.3596298],[-6.2728661,53.3593645]]}";8;Phibsborough Road;3;50;false;false;true;false;false;false;162.0;1;0;0;0;0;false;194;650345850;-6.2698599;53.3550191;201;663813639;-6.2701242;53.3682845;0;9;10;6075051;9 - Limekiln Avenue to Charlestown;"";Dublin Bus;9;Limekiln Avenue;Charlestown
3787117;"{\"type\":\"LineString\",\"coordinates\":[[-6.2726879,53.3607926],[-6.2726956,53.3608849],[-6.2726975,53.3609075],[-6.2727111,53.3612774],[-6.2727112,53.3613492],[-6.2727129,53.3613956]]}";9;Phibsborough Road;1;50;false;false;true;false;false;false;68.0;1;1;0;0;0;false;194;650345850;-6.2698599;53.3550191;201;663813639;-6.2701242;53.3682845;0;9;10;6075051;9 - Limekiln Avenue to Charlestown;"";Dublin Bus;9;Limekiln Avenue;Charlestown
32117788;"{\"type\":\"LineString\",\"coordinates\":[[-6.2727129,53.3613956],[-6.2727184,53.3615687],[-6.2727417,53.3621534],[-6.2727459,53.3622355],[-6.2727363,53.362334],[-6.2727309,53.3623898],[-6.2727299,53.3624004],[-6.2726884,53.3625327],[-6.2726515,53.3626091],[-6.2725809,53.3627553],[-6.2724166,53.3630954],[-6.2723829,53.3631642],[-6.2721935,53.3635494],[-6.2721563,53.3636251],[-6.2720859,53.3637834],[-6.2719642,53.3640427],[-6.2718858,53.3642196]]}";10;Phibsborough Road;4;50;false;false;true;false;false;false;325.0;1;1;0;0;0;false;194;650345850;-6.2698599;53.3550191;201;663813639;-6.2701242;53.3682845;0;9;10;6075051;9 - Limekiln Avenue to Charlestown;"";Dublin Bus;9;Limekiln Avenue;Charlestown
367873918;"{\"type\":\"LineString\",\"coordinates\":[[-6.2718858,53.3642196],[-6.271861,53.3642637]]}";11;Phibsborough Road;3;50;false;false;true;false;false;false;6.0;0;0;0;0;0;false;194;650345850;-6.2698599;53.3550191;201;663813639;-6.2701242;53.3682845;0;9;10;6075051;9 - Limekiln Avenue to Charlestown;"";Dublin Bus;9;Limekiln Avenue;Charlestown
4937069;"{\"type\":\"LineString\",\"coordinates\":[[-6.271861,53.3642637],[-6.2718526,53.3642819]]}";12;Cross Guns Bridge;3;50;false;false;true;false;false;false;3.0;0;0;0;0;0;false;194;650345850;-6.2698599;53.3550191;201;663813639;-6.2701242;53.3682845;0;9;10;6075051;9 - Limekiln Avenue to Charlestown;"";Dublin Bus;9;Limekiln Avenue;Charlestown
227712172;"{\"type\":\"LineString\",\"coordinates\":[[-6.2718526,53.3642819],[-6.2718216,53.3643486]]}";13;Cross Guns Bridge;3;50;false;false;false;false;false;false;8.0;0;0;0;0;0;false;194;650345850;-6.2698599;53.3550191;201;663813639;-6.2701242;53.3682845;0;9;10;6075051;9 - Limekiln Avenue to Charlestown;"";Dublin Bus;9;Limekiln Avenue;Charlestown
683409080;"{\"type\":\"LineString\",\"coordinates\":[[-6.2718216,53.3643486],[-6.2717932,53.3644128]]}";14;Cross Guns Bridge;3;50;false;false;false;false;false;false;8.0;0;0;0;0;0;false;194;650345850;-6.2698599;53.3550191;201;663813639;-6.2701242;53.3682845;0;9;10;6075051;9 - Limekiln Avenue to Charlestown;"";Dublin Bus;9;Limekiln Avenue;Charlestown
4937070;"{\"type\":\"LineString\",\"coordinates\":[[-6.2717932,53.3644128],[-6.2717793,53.3644563],[-6.2717778,53.3644786]]}";15;Prospect Road;3;50;false;false;true;false;false;false;8.0;0;0;0;0;0;false;194;650345850;-6.2698599;53.3550191;201;663813639;-6.2701242;53.3682845;0;9;10;6075051;9 - Limekiln Avenue to Charlestown;"";Dublin Bus;9;Limekiln Avenue;Charlestown
55814728;"{\"type\":\"LineString\",\"coordinates\":[[-6.2717778,53.3644786],[-6.2717746,53.3645405],[-6.2717728,53.3645742]]}";16;Prospect Road;3;50;false;false;true;false;false;false;11.0;0;1;0;0;0;false;194;650345850;-6.2698599;53.3550191;201;663813639;-6.2701242;53.3682845;0;9;10;6075051;9 - Limekiln Avenue to Charlestown;"";Dublin Bus;9;Limekiln Avenue;Charlestown
302340423;"{\"type\":\"LineString\",\"coordinates\":[[-6.2717728,53.3645742],[-6.2717705,53.3646389]]}";17;Prospect Road;4;50;false;false;true;false;false;false;8.0;1;0;0;0;0;false;194;650345850;-6.2698599;53.3550191;201;663813639;-6.2701242;53.3682845;0;9;10;6075051;9 - Limekiln Avenue to Charlestown;"";Dublin Bus;9;Limekiln Avenue;Charlestown
3785459;"{\"type\":\"LineString\",\"coordinates\":[[-6.2717705,53.3646389],[-6.2717652,53.3648962]]}";18;Prospect Road;4;50;false;false;true;false;false;false;29.0;1;0;0;0;0;false;194;650345850;-6.2698599;53.3550191;201;663813639;-6.2701242;53.3682845;0;9;10;6075051;9 - Limekiln Avenue to Charlestown;"";Dublin Bus;9;Limekiln Avenue;Charlestown
4937071;"{\"type\":\"LineString\",\"coordinates\":[[-6.2717652,53.3648962],[-6.2717563,53.3650001]]}";19;Prospect Road;4;50;false;false;true;false;false;false;12.0;0;0;0;0;0;false;194;650345850;-6.2698599;53.3550191;201;663813639;-6.2701242;53.3682845;0;9;10;6075051;9 - Limekiln Avenue to Charlestown;"";Dublin Bus;9;Limekiln Avenue;Charlestown
4937072;"{\"type\":\"LineString\",\"coordinates\":[[-6.2717563,53.3650001],[-6.271745,53.365113]]}";20;Prospect Road;3;50;false;false;true;false;false;false;13.0;0;0;0;0;0;false;194;650345850;-6.2698599;53.3550191;201;663813639;-6.2701242;53.3682845;0;9;10;6075051;9 - Limekiln Avenue to Charlestown;"";Dublin Bus;9;Limekiln Avenue;Charlestown
32024889;"{\"type\":\"LineString\",\"coordinates\":[[-6.271745,53.365113],[-6.2717097,53.3652937]]}";21;Prospect Road;4;50;false;false;true;false;false;false;21.0;0;0;0;0;0;false;194;650345850;-6.2698599;53.3550191;201;663813639;-6.2701242;53.3682845;0;9;10;6075051;9 - Limekiln Avenue to Charlestown;"";Dublin Bus;9;Limekiln Avenue;Charlestown
372690317;"{\"type\":\"LineString\",\"coordinates\":[[-6.2717097,53.3652937],[-6.2716921,53.3653834],[-6.2716757,53.3654679],[-6.2716513,53.3656405]]}";22;Prospect Road;4;50;false;false;true;false;false;false;40.0;0;0;0;0;0;false;194;650345850;-6.2698599;53.3550191;201;663813639;-6.2701242;53.3682845;0;9;10;6075051;9 - Limekiln Avenue to Charlestown;"";Dublin Bus;9;Limekiln Avenue;Charlestown
3663493;"{\"type\":\"LineString\",\"coordinates\":[[-6.2716513,53.3656405],[-6.2717394,53.365891],[-6.2717847,53.3660087]]}";23;Prospect Road;2;50;false;true;true;false;false;false;43.0;1;0;0;0;0;false;194;650345850;-6.2698599;53.3550191;201;663813639;-6.2701242;53.3682845;0;9;10;6075051;9 - Limekiln Avenue to Charlestown;"";Dublin Bus;9;Limekiln Avenue;Charlestown
282605989;"{\"type\":\"LineString\",\"coordinates\":[[-6.2717847,53.3660087],[-6.2718366,53.3661092]]}";24;Finglas Road;2;50;false;true;true;false;false;false;12.0;0;0;0;0;0;false;194;650345850;-6.2698599;53.3550191;201;663813639;-6.2701242;53.3682845;0;9;10;6075051;9 - Limekiln Avenue to Charlestown;"";Dublin Bus;9;Limekiln Avenue;Charlestown
672335043;"{\"type\":\"LineString\",\"coordinates\":[[-6.2718366,53.3661092],[-6.2720034,53.3663686],[-6.2721321,53.3665447],[-6.2722293,53.3666906],[-6.2722714,53.3667538],[-6.2724529,53.3670219]]}";25;Finglas Road;2;50;false;true;true;false;false;false;111.0;0;0;0;0;0;false;194;650345850;-6.2698599;53.3550191;201;663813639;-6.2701242;53.3682845;0;9;10;6075051;9 - Limekiln Avenue to Charlestown;"";Dublin Bus;9;Limekiln Avenue;Charlestown
672335042;"{\"type\":\"LineString\",\"coordinates\":[[-6.2724529,53.3670219],[-6.2726986,53.3673072]]}";26;Finglas Road;2;50;false;true;true;false;false;false;36.0;0;0;0;0;0;false;194;650345850;-6.2698599;53.3550191;201;663813639;-6.2701242;53.3682845;0;9;10;6075051;9 - Limekiln Avenue to Charlestown;"";Dublin Bus;9;Limekiln Avenue;Charlestown
231766476;"{\"type\":\"LineString\",\"coordinates\":[[-6.2726986,53.3673072],[-6.2726569,53.3673638],[-6.2726428,53.3673837],[-6.272629,53.3674031],[-6.2725635,53.3674352],[-6.2724071,53.3674695]]}";27;Prospect Way;1;30;false;true;true;false;false;false;29.0;0;1;0;0;0;false;194;650345850;-6.2698599;53.3550191;201;663813639;-6.2701242;53.3682845;0;9;10;6075051;9 - Limekiln Avenue to Charlestown;"";Dublin Bus;9;Limekiln Avenue;Charlestown
231766477;"{\"type\":\"LineString\",\"coordinates\":[[-6.2724071,53.3674695],[-6.2718438,53.3674129],[-6.27165,53.3673816],[-6.2713684,53.3673361],[-6.2709385,53.3672241]]}";28;Prospect Way;3;30;false;true;true;false;false;false;103.0;0;0;0;0;0;false;194;650345850;-6.2698599;53.3550191;201;663813639;-6.2701242;53.3682845;0;9;10;6075051;9 - Limekiln Avenue to Charlestown;"";Dublin Bus;9;Limekiln Avenue;Charlestown
156177849;"{\"type\":\"LineString\",\"coordinates\":[[-6.2709385,53.3672241],[-6.2707799,53.3672301],[-6.2706978,53.3672546],[-6.2706031,53.3673212]]}";29;Botanic Road;1;30;false;true;true;false;false;false;27.0;0;0;0;0;0;false;194;650345850;-6.2698599;53.3550191;201;663813639;-6.2701242;53.3682845;0;9;10;6075051;9 - Limekiln Avenue to Charlestown;"";Dublin Bus;9;Limekiln Avenue;Charlestown
14507246;"{\"type\":\"LineString\",\"coordinates\":[[-6.2698883,53.3684863],[-6.269951,53.3684018],[-6.2699896,53.3683497],[-6.2700383,53.3682731],[-6.2701223,53.3681408],[-6.2701379,53.3681165],[-6.2702229,53.3679836],[-6.2703416,53.367783],[-6.2705454,53.3674387],[-6.2706031,53.3673212]]}";30;Botanic Road;3;50;false;false;true;false;false;false;70.0;0;0;0;0;0;false;194;650345850;-6.2698599;53.3550191;201;663813639;-6.2701242;53.3682845;1;9;10;6075051;9 - Limekiln Avenue to Charlestown;"";Dublin Bus;9;Limekiln Avenue;Charlestown
14507246;"{\"type\":\"LineString\",\"coordinates\":[[-6.2698883,53.3684863],[-6.269951,53.3684018],[-6.2699896,53.3683497],[-6.2700383,53.3682731],[-6.2701223,53.3681408],[-6.2701379,53.3681165],[-6.2702229,53.3679836],[-6.2703416,53.367783],[-6.2705454,53.3674387],[-6.2706031,53.3673212]]}";1;Botanic Road;3;50;false;false;true;false;false;false;70.0;0;0;0;0;0;false;201;663813639;-6.2701242;53.3682845;27;1139531750;-6.2665362;53.3794576;1;10;11;6075051;9 - Limekiln Avenue to Charlestown;"";Dublin Bus;9;Limekiln Avenue;Charlestown
368877930;"{\"type\":\"LineString\",\"coordinates\":[[-6.2689481,53.369859],[-6.2690404,53.3697323],[-6.2691327,53.3696055],[-6.2691924,53.3694969],[-6.2696137,53.368861],[-6.2696575,53.3687976],[-6.2698883,53.3684863]]}";2;Botanic Road;2;50;false;false;true;false;false;false;167.0;0;1;0;0;0;false;201;663813639;-6.2701242;53.3682845;27;1139531750;-6.2665362;53.3794576;0;10;11;6075051;9 - Limekiln Avenue to Charlestown;"";Dublin Bus;9;Limekiln Avenue;Charlestown
3787625;"{\"type\":\"LineString\",\"coordinates\":[[-6.2684868,53.3703094],[-6.2685512,53.3702533],[-6.2688273,53.3699755],[-6.2689481,53.369859]]}";3;Botanic Road;2;50;false;false;true;false;false;false;60.0;1;0;0;0;0;false;201;663813639;-6.2701242;53.3682845;27;1139531750;-6.2665362;53.3794576;0;10;11;6075051;9 - Limekiln Avenue to Charlestown;"";Dublin Bus;9;Limekiln Avenue;Charlestown
378882696;"{\"type\":\"LineString\",\"coordinates\":[[-6.2665438,53.3718443],[-6.2666286,53.371769],[-6.2666519,53.3717483],[-6.267126,53.3713512],[-6.2678993,53.3707122],[-6.2680415,53.3706028],[-6.2682726,53.3704248],[-6.2682857,53.3704177],[-6.2684868,53.3703094]]}";4;Saint Mobhi Road;2;50;false;false;false;false;false;false;217.0;2;2;0;0;0;false;201;663813639;-6.2701242;53.3682845;27;1139531750;-6.2665362;53.3794576;0;10;11;6075051;9 - Limekiln Avenue to Charlestown;"";Dublin Bus;9;Limekiln Avenue;Charlestown
43188147;"{\"type\":\"LineString\",\"coordinates\":[[-6.2659192,53.3725199],[-6.2659354,53.3724668],[-6.2659499,53.3724358],[-6.2659667,53.3723999],[-6.2659849,53.3723762],[-6.2660367,53.3723086],[-6.2661328,53.37221],[-6.2662313,53.3721259],[-6.2664651,53.371909],[-6.2664872,53.3718908],[-6.2665438,53.3718443]]}";5;Saint Mobhi Road;3;50;false;false;false;false;false;false;88.0;1;1;0;0;0;false;201;663813639;-6.2701242;53.3682845;27;1139531750;-6.2665362;53.3794576;0;10;11;6075051;9 - Limekiln Avenue to Charlestown;"";Dublin Bus;9;Limekiln Avenue;Charlestown
673195938;"{\"type\":\"LineString\",\"coordinates\":[[-6.2659024,53.3726221],[-6.2659192,53.3725199]]}";6;Dean Swift Bridge;3;50;false;false;true;false;false;false;12.0;0;0;0;0;0;false;201;663813639;-6.2701242;53.3682845;27;1139531750;-6.2665362;53.3794576;0;10;11;6075051;9 - Limekiln Avenue to Charlestown;"";Dublin Bus;9;Limekiln Avenue;Charlestown
3810271;"{\"type\":\"LineString\",\"coordinates\":[[-6.2646874,53.3761563],[-6.2648828,53.3756898],[-6.2648946,53.3756603],[-6.2649313,53.3755687],[-6.26508,53.3752504],[-6.2655834,53.3741668],[-6.2656148,53.3740636],[-6.2656282,53.374019],[-6.2658071,53.3733567],[-6.2658232,53.373203],[-6.2658419,53.3730245],[-6.2658429,53.3730175],[-6.2658779,53.3727646],[-6.2658975,53.3726575],[-6.2659024,53.3726221]]}";7;Saint Mobhi Road;3;50;false;false;true;false;false;false;406.0;2;0;0;0;0;false;201;663813639;-6.2701242;53.3682845;27;1139531750;-6.2665362;53.3794576;0;10;11;6075051;9 - Limekiln Avenue to Charlestown;"";Dublin Bus;9;Limekiln Avenue;Charlestown
672308963;"{\"type\":\"LineString\",\"coordinates\":[[-6.2648753,53.3771233],[-6.2648558,53.3770293],[-6.2647653,53.3766146],[-6.2646874,53.3761563]]}";8;Saint Mobhi Road;3;50;false;false;false;false;false;false;110.0;0;1;0;0;0;false;201;663813639;-6.2701242;53.3682845;27;1139531750;-6.2665362;53.3794576;0;10;11;6075051;9 - Limekiln Avenue to Charlestown;"";Dublin Bus;9;Limekiln Avenue;Charlestown
3809961;"{\"type\":\"LineString\",\"coordinates\":[[-6.2652269,53.378614],[-6.2652288,53.378511],[-6.2648753,53.3771233]]}";9;Saint Mobhi Road;2;50;false;false;false;false;false;false;169.0;1;0;0;0;0;false;201;663813639;-6.2701242;53.3682845;27;1139531750;-6.2665362;53.3794576;0;10;11;6075051;9 - Limekiln Avenue to Charlestown;"";Dublin Bus;9;Limekiln Avenue;Charlestown
3810272;"{\"type\":\"LineString\",\"coordinates\":[[-6.2652269,53.378614],[-6.2654322,53.3786478],[-6.2657402,53.3786985],[-6.2658322,53.3787136]]}";10;Griffith Avenue;2;50;false;true;true;false;false;false;43.0;1;0;0;0;0;false;201;663813639;-6.2701242;53.3682845;27;1139531750;-6.2665362;53.3794576;0;10;11;6075051;9 - Limekiln Avenue to Charlestown;"";Dublin Bus;9;Limekiln Avenue;Charlestown
739695224;"{\"type\":\"LineString\",\"coordinates\":[[-6.2658322,53.3787136],[-6.2663651,53.3788013],[-6.2664543,53.3788121]]}";11;Griffith Avenue;4;50;false;true;true;false;false;false;44.0;0;0;0;0;0;false;201;663813639;-6.2701242;53.3682845;27;1139531750;-6.2665362;53.3794576;0;10;11;6075051;9 - Limekiln Avenue to Charlestown;"";Dublin Bus;9;Limekiln Avenue;Charlestown
673883138;"{\"type\":\"LineString\",\"coordinates\":[[-6.2664543,53.3788121],[-6.2666858,53.3789543],[-6.2667156,53.3789766],[-6.2667334,53.378996],[-6.2667429,53.3790132],[-6.2667511,53.3790307],[-6.2667481,53.3790654]]}";12;Ballymun Road;2;50;false;true;true;false;false;false;36.0;1;0;0;0;0;false;201;663813639;-6.2701242;53.3682845;27;1139531750;-6.2665362;53.3794576;0;10;11;6075051;9 - Limekiln Avenue to Charlestown;"";Dublin Bus;9;Limekiln Avenue;Charlestown
3818451;"{\"type\":\"LineString\",\"coordinates\":[[-6.2667481,53.3790654],[-6.2666496,53.3791811],[-6.2665557,53.3792893]]}";13;Ballymun Road;3;50;false;true;true;false;false;false;29.0;0;0;0;0;0;false;201;663813639;-6.2701242;53.3682845;27;1139531750;-6.2665362;53.3794576;0;10;11;6075051;9 - Limekiln Avenue to Charlestown;"";Dublin Bus;9;Limekiln Avenue;Charlestown
680345795;"{\"type\":\"LineString\",\"coordinates\":[[-6.2665557,53.3792893],[-6.2664526,53.3794098],[-6.2662913,53.3795985]]}";14;Ballymun Road;3;50;false;true;true;false;false;false;19.5;0;0;0;0;0;false;201;663813639;-6.2701242;53.3682845;27;1139531750;-6.2665362;53.3794576;1;10;11;6075051;9 - Limekiln Avenue to Charlestown;"";Dublin Bus;9;Limekiln Avenue;Charlestown
3818451;"{\"type\":\"LineString\",\"coordinates\":[[-6.2667481,53.3790654],[-6.2666496,53.3791811],[-6.2665557,53.3792893]]}";1;Ballymun Road;3;50;false;true;true;false;false;false;29.0;0;0;0;0;0;false;27;1139531750;-6.2665362;53.3794576;28;1427534219;-6.2659763;53.3815678;2;11;12;6075051;9 - Limekiln Avenue to Charlestown;"";Dublin Bus;9;Limekiln Avenue;Charlestown
680345795;"{\"type\":\"LineString\",\"coordinates\":[[-6.2665557,53.3792893],[-6.2664526,53.3794098],[-6.2662913,53.3795985]]}";2;Ballymun Road;3;50;false;true;true;false;false;false;39.0;0;0;0;0;0;false;27;1139531750;-6.2665362;53.3794576;28;1427534219;-6.2659763;53.3815678;0;11;12;6075051;9 - Limekiln Avenue to Charlestown;"";Dublin Bus;9;Limekiln Avenue;Charlestown
672339514;"{\"type\":\"LineString\",\"coordinates\":[[-6.2662913,53.3795985],[-6.2662601,53.379643]]}";3;Ballymun Road;3;50;false;true;true;false;false;false;6.0;0;0;0;0;0;false;27;1139531750;-6.2665362;53.3794576;28;1427534219;-6.2659763;53.3815678;0;11;12;6075051;9 - Limekiln Avenue to Charlestown;"";Dublin Bus;9;Limekiln Avenue;Charlestown
98479825;"{\"type\":\"LineString\",\"coordinates\":[[-6.2662601,53.379643],[-6.2660855,53.3798825],[-6.2660088,53.3800437],[-6.2659556,53.3802131],[-6.2659299,53.3803924],[-6.2659144,53.3806468]]}";4;Ballymun Road;2;50;false;true;false;false;false;false;117.0;1;0;0;0;0;false;27;1139531750;-6.2665362;53.3794576;28;1427534219;-6.2659763;53.3815678;0;11;12;6075051;9 - Limekiln Avenue to Charlestown;"";Dublin Bus;9;Limekiln Avenue;Charlestown
603910759;"{\"type\":\"LineString\",\"coordinates\":[[-6.2659144,53.3806468],[-6.2659141,53.3806719],[-6.2658943,53.3809184],[-6.2658788,53.3812907],[-6.2658743,53.381411],[-6.2658636,53.3815389],[-6.2658475,53.3817316]]}";5;Ballymun Road;3;50;false;true;false;false;false;false;122.0;1;0;0;0;0;false;27;1139531750;-6.2665362;53.3794576;28;1427534219;-6.2659763;53.3815678;2;11;12;6075051;9 - Limekiln Avenue to Charlestown;"";Dublin Bus;9;Limekiln Avenue;Charlestown
603910759;"{\"type\":\"LineString\",\"coordinates\":[[-6.2659144,53.3806468],[-6.2659141,53.3806719],[-6.2658943,53.3809184],[-6.2658788,53.3812907],[-6.2658743,53.381411],[-6.2658636,53.3815389],[-6.2658475,53.3817316]]}";1;Ballymun Road;3;50;false;true;false;false;false;false;61.0;1;0;0;0;0;false;28;1427534219;-6.2659763;53.3815678;29;944515533;-6.2656595;53.3835246;1;12;13;6075051;9 - Limekiln Avenue to Charlestown;"";Dublin Bus;9;Limekiln Avenue;Charlestown
673136294;"{\"type\":\"LineString\",\"coordinates\":[[-6.2658475,53.3817316],[-6.2658243,53.3819619]]}";2;Ballymun Road;3;50;false;true;false;false;false;false;26.0;0;0;0;0;0;false;28;1427534219;-6.2659763;53.3815678;29;944515533;-6.2656595;53.3835246;0;12;13;6075051;9 - Limekiln Avenue to Charlestown;"";Dublin Bus;9;Limekiln Avenue;Charlestown
673136295;"{\"type\":\"LineString\",\"coordinates\":[[-6.2658243,53.3819619],[-6.2658034,53.3822109],[-6.2657183,53.3828902],[-6.2655901,53.3834775],[-6.2653705,53.3844832],[-6.2652897,53.3848331],[-6.2652601,53.3850224],[-6.2652269,53.3852352],[-6.2651872,53.3855531],[-6.2651441,53.3859289]]}";3;Ballymun Road;3;50;false;true;false;false;false;false;223.5;1;1;0;0;0;false;28;1427534219;-6.2659763;53.3815678;29;944515533;-6.2656595;53.3835246;1;12;13;6075051;9 - Limekiln Avenue to Charlestown;"";Dublin Bus;9;Limekiln Avenue;Charlestown
673136295;"{\"type\":\"LineString\",\"coordinates\":[[-6.2658243,53.3819619],[-6.2658034,53.3822109],[-6.2657183,53.3828902],[-6.2655901,53.3834775],[-6.2653705,53.3844832],[-6.2652897,53.3848331],[-6.2652601,53.3850224],[-6.2652269,53.3852352],[-6.2651872,53.3855531],[-6.2651441,53.3859289]]}";1;Ballymun Road;3;50;false;true;false;false;false;false;223.5;1;1;0;0;0;false;29;944515533;-6.2656595;53.3835246;90;1427536832;-6.2652528;53.3864159;1;13;14;6075051;9 - Limekiln Avenue to Charlestown;"";Dublin Bus;9;Limekiln Avenue;Charlestown
493540020;"{\"type\":\"LineString\",\"coordinates\":[[-6.2651441,53.3859289],[-6.2651407,53.3860323],[-6.2651333,53.3862062],[-6.2651479,53.3864195],[-6.2651625,53.3866327],[-6.2652332,53.3870318],[-6.2653452,53.3875712],[-6.2653834,53.3878083],[-6.2653819,53.3880173],[-6.2653601,53.3881915],[-6.2653433,53.3882544],[-6.2653056,53.3883865],[-6.2652153,53.3885744],[-6.2651823,53.388643],[-6.2650002,53.3890047],[-6.2649204,53.3891728]]}";2;Ballymun Road;3;50;false;true;false;false;false;false;184.5;2;1;0;0;0;false;29;944515533;-6.2656595;53.3835246;90;1427536832;-6.2652528;53.3864159;1;13;14;6075051;9 - Limekiln Avenue to Charlestown;"";Dublin Bus;9;Limekiln Avenue;Charlestown
493540020;"{\"type\":\"LineString\",\"coordinates\":[[-6.2651441,53.3859289],[-6.2651407,53.3860323],[-6.2651333,53.3862062],[-6.2651479,53.3864195],[-6.2651625,53.3866327],[-6.2652332,53.3870318],[-6.2653452,53.3875712],[-6.2653834,53.3878083],[-6.2653819,53.3880173],[-6.2653601,53.3881915],[-6.2653433,53.3882544],[-6.2653056,53.3883865],[-6.2652153,53.3885744],[-6.2651823,53.388643],[-6.2650002,53.3890047],[-6.2649204,53.3891728]]}";1;Ballymun Road;3;50;false;true;false;false;false;false;184.5;2;1;0;0;0;false;91;1427536833;-6.2653964;53.3884158;4680;1496722658;-6.2653224;53.3850511;1;15;16;6075051;9 - Limekiln Avenue to Charlestown;"";Dublin Bus;9;Limekiln Avenue;Charlestown
673136295;"{\"type\":\"LineString\",\"coordinates\":[[-6.2658243,53.3819619],[-6.2658034,53.3822109],[-6.2657183,53.3828902],[-6.2655901,53.3834775],[-6.2653705,53.3844832],[-6.2652897,53.3848331],[-6.2652601,53.3850224],[-6.2652269,53.3852352],[-6.2651872,53.3855531],[-6.2651441,53.3859289]]}";2;Ballymun Road;3;50;false;true;false;false;false;false;447.0;1;1;0;0;0;false;91;1427536833;-6.2653964;53.3884158;4680;1496722658;-6.2653224;53.3850511;1;15;16;6075051;9 - Limekiln Avenue to Charlestown;"";Dublin Bus;9;Limekiln Avenue;Charlestown
