way_id;shape;index;name;nb_lanes;legal_speed;speed_zone_30;oneway;shares_bike;bike_box;bus_lane;dedicated_bus_lane;length;nb_traffic_signals;nb_crossings;nb_stops;nb_give_ways;nb_lvl_crossings;roundabout;stop_id_orig;node_id_orig;coord_x_orig;coord_y_orig;stop_id_dest;node_id_dest;coord_x_dest;coord_y_dest;nb_neighbouring_ways_bus_stop;ordre_orig;ordre_dest;id_line;line_name;colour;operator;ref;from;to
694140516;"{\"type\":\"LineString\",\"coordinates\":[[-73.780623,45.5327578],[-73.7807277,45.5327067],[-73.7808751,45.5326662]]}";1;Rue Montgolfier;1;50;false;false;true;false;false;false;23.0;0;0;0;0;0;false;46383;6269510995;-73.78064;45.532811;42509;6269511003;-73.77854;45.532093;1;0;1;9312803;Bus : 20 E - Direction Métro Cartier;"";STL;20E;Boucle Montgolfier;Métro Cartier Quai:2
669898480;"{\"type\":\"LineString\",\"coordinates\":[[-73.7808609,45.5326124],[-73.7808751,45.5326662]]}";2;Rue Montgolfier;2;50;false;false;true;false;false;false;7.0;0;0;0;0;0;false;46383;6269510995;-73.78064;45.532811;42509;6269511003;-73.77854;45.532093;0;0;1;9312803;Bus : 20 E - Direction Métro Cartier;"";STL;20E;Boucle Montgolfier;Métro Cartier Quai:2
45590289;"{\"type\":\"LineString\",\"coordinates\":[[-73.7807617,45.5322214],[-73.7808222,45.5324642],[-73.7808609,45.5326124]]}";3;Rue Montgolfier;2;50;false;false;true;false;false;false;45.0;0;0;0;0;0;false;46383;6269510995;-73.78064;45.532811;42509;6269511003;-73.77854;45.532093;0;0;1;9312803;Bus : 20 E - Direction Métro Cartier;"";STL;20E;Boucle Montgolfier;Métro Cartier Quai:2
694140517;"{\"type\":\"LineString\",\"coordinates\":[[-73.7806729,45.531894],[-73.7807617,45.5322214]]}";4;Rue Montgolfier;2;50;false;false;true;false;false;false;38.0;1;0;0;0;0;false;46383;6269510995;-73.78064;45.532811;42509;6269511003;-73.77854;45.532093;0;0;1;9312803;Bus : 20 E - Direction Métro Cartier;"";STL;20E;Boucle Montgolfier;Métro Cartier Quai:2
45590569;"{\"type\":\"LineString\",\"coordinates\":[[-73.780612,45.5317752],[-73.7806729,45.531894]]}";5;Rue Montgolfier;1;50;false;false;true;false;false;false;15.0;2;0;0;0;0;false;46383;6269510995;-73.78064;45.532811;42509;6269511003;-73.77854;45.532093;0;0;1;9312803;Bus : 20 E - Direction Métro Cartier;"";STL;20E;Boucle Montgolfier;Métro Cartier Quai:2
292641474;"{\"type\":\"LineString\",\"coordinates\":[[-73.780612,45.5317752],[-73.7804318,45.5318075],[-73.7797987,45.531921],[-73.7792105,45.5320264],[-73.7783189,45.5321863]]}";6;Boulevard Notre-Dame;1;50;false;true;true;false;false;false;92.5;2;0;0;0;0;false;46383;6269510995;-73.78064;45.532811;42509;6269511003;-73.77854;45.532093;1;0;1;9312803;Bus : 20 E - Direction Métro Cartier;"";STL;20E;Boucle Montgolfier;Métro Cartier Quai:2
292641474;"{\"type\":\"LineString\",\"coordinates\":[[-73.780612,45.5317752],[-73.7804318,45.5318075],[-73.7797987,45.531921],[-73.7792105,45.5320264],[-73.7783189,45.5321863]]}";1;Boulevard Notre-Dame;1;50;false;true;true;false;false;false;92.5;2;0;0;0;0;false;42509;6269511003;-73.77854;45.532093;42507;6269510988;-73.77567;45.532604;1;1;2;9312803;Bus : 20 E - Direction Métro Cartier;"";STL;20E;Boucle Montgolfier;Métro Cartier Quai:2
669709370;"{\"type\":\"LineString\",\"coordinates\":[[-73.7783189,45.5321863],[-73.7730075,45.5331381]]}";2;Boulevard Notre-Dame;1;50;false;true;true;false;false;false;214.0;1;0;0;0;0;false;42509;6269511003;-73.77854;45.532093;42507;6269510988;-73.77567;45.532604;1;1;2;9312803;Bus : 20 E - Direction Métro Cartier;"";STL;20E;Boucle Montgolfier;Métro Cartier Quai:2
45590210;"{\"type\":\"LineString\",\"coordinates\":[[-73.7730075,45.5331381],[-73.7724856,45.5332575],[-73.7722492,45.533353],[-73.7703522,45.5342147],[-73.7696562,45.5345309],[-73.7688769,45.5348377],[-73.7676877,45.5352865],[-73.7672051,45.5354688],[-73.7650075,45.5362906]]}";1;Boulevard Notre-Dame;2;50;false;true;true;false;false;false;359.0;1;0;0;0;0;false;42500;6269510847;-73.76728;45.535351;41057;6269510842;-73.765;45.535968;1;5;6;9312803;Bus : 20 E - Direction Métro Cartier;"";STL;20E;Boucle Montgolfier;Métro Cartier Quai:2
45592609;"{\"type\":\"LineString\",\"coordinates\":[[-73.7631077,45.5318905],[-73.7633171,45.5322063],[-73.7635846,45.5324795],[-73.7643566,45.5332233],[-73.7644356,45.5333866],[-73.7644353,45.5335343],[-73.7643698,45.5339251],[-73.7642645,45.5344469],[-73.7643101,45.5345725],[-73.7647264,45.5356542],[-73.7650075,45.5362906]]}";2;100e Avenue;2;50;false;false;true;false;false;false;264.5;1;0;0;0;0;false;42500;6269510847;-73.76728;45.535351;41057;6269510842;-73.765;45.535968;1;5;6;9312803;Bus : 20 E - Direction Métro Cartier;"";STL;20E;Boucle Montgolfier;Métro Cartier Quai:2
45568232;"{\"type\":\"LineString\",\"coordinates\":[[-73.7595263,45.5283437],[-73.7598527,45.5286669],[-73.7599385,45.5287519],[-73.7601631,45.5289744],[-73.7603921,45.5292011],[-73.7614089,45.5302081],[-73.7619259,45.5307201],[-73.762417,45.5312065],[-73.7629088,45.5316936],[-73.7631077,45.5318905]]}";1;100e Avenue;2;50;false;false;true;false;false;false;241.5;0;0;0;0;0;false;41058;6269511053;-73.75979;45.5285;42055;6269511071;-73.76019;45.527727;1;10;11;9312803;Bus : 20 E - Direction Métro Cartier;"";STL;20E;Boucle Montgolfier;Métro Cartier Quai:2
684761969;"{\"type\":\"LineString\",\"coordinates\":[[-73.7594757,45.5282394],[-73.7595263,45.5283437]]}";2;100e Avenue;2;50;false;false;true;false;false;false;13.0;0;0;0;0;0;false;41058;6269511053;-73.75979;45.5285;42055;6269511071;-73.76019;45.527727;0;10;11;9312803;Bus : 20 E - Direction Métro Cartier;"";STL;20E;Boucle Montgolfier;Métro Cartier Quai:2
455250071;"{\"type\":\"LineString\",\"coordinates\":[[-73.759941,45.5278762],[-73.7594757,45.5282394]]}";3;Boulevard Lévesque Ouest;2;50;false;false;true;false;false;false;55.0;0;0;0;0;0;false;41058;6269511053;-73.75979;45.5285;42055;6269511071;-73.76019;45.527727;0;10;11;9312803;Bus : 20 E - Direction Métro Cartier;"";STL;20E;Boucle Montgolfier;Métro Cartier Quai:2
94780900;"{\"type\":\"LineString\",\"coordinates\":[[-73.761409,45.5263341],[-73.761111,45.5267216],[-73.7610121,45.5268501],[-73.7608325,45.5270405],[-73.7605701,45.5273071],[-73.7602786,45.5275719],[-73.759941,45.5278762]]}";4;Boulevard Lévesque Ouest;2;50;false;false;true;false;false;false;103.5;0;0;0;0;0;false;41058;6269511053;-73.75979;45.5285;42055;6269511071;-73.76019;45.527727;1;10;11;9312803;Bus : 20 E - Direction Métro Cartier;"";STL;20E;Boucle Montgolfier;Métro Cartier Quai:2
94780900;"{\"type\":\"LineString\",\"coordinates\":[[-73.761409,45.5263341],[-73.761111,45.5267216],[-73.7610121,45.5268501],[-73.7608325,45.5270405],[-73.7605701,45.5273071],[-73.7602786,45.5275719],[-73.759941,45.5278762]]}";1;Boulevard Lévesque Ouest;2;50;false;false;true;false;false;false;103.5;0;0;0;0;0;false;42055;6269511071;-73.76019;45.527727;41730;6269511914;-73.76128;45.525646;1;11;12;9312803;Bus : 20 E - Direction Métro Cartier;"";STL;20E;Boucle Montgolfier;Métro Cartier Quai:2
466315655;"{\"type\":\"LineString\",\"coordinates\":[[-73.7615516,45.5261486],[-73.761409,45.5263341]]}";2;Boulevard Lévesque Ouest;2;50;false;false;true;false;false;false;24.0;0;0;0;0;0;false;42055;6269511071;-73.76019;45.527727;41730;6269511914;-73.76128;45.525646;0;11;12;9312803;Bus : 20 E - Direction Métro Cartier;"";STL;20E;Boucle Montgolfier;Métro Cartier Quai:2
45568225;"{\"type\":\"LineString\",\"coordinates\":[[-73.7615516,45.5261486],[-73.7614931,45.5259356],[-73.7599544,45.5244111],[-73.7596616,45.5242328],[-73.7591698,45.5240485],[-73.7589363,45.5239459],[-73.7587565,45.5238358],[-73.7584021,45.5235451],[-73.7582302,45.5234273],[-73.7579256,45.5232981]]}";3;Promenade des Îles;1;50;false;true;true;false;false;false;217.5;0;0;0;0;0;false;42055;6269511071;-73.76019;45.527727;41730;6269511914;-73.76128;45.525646;1;11;12;9312803;Bus : 20 E - Direction Métro Cartier;"";STL;20E;Boucle Montgolfier;Métro Cartier Quai:2
45568202;"{\"type\":\"LineString\",\"coordinates\":[[-73.7579256,45.5232981],[-73.7575596,45.52314],[-73.7573687,45.5230839],[-73.7572794,45.5230763]]}";1;Promenade des Îles;1;50;false;true;false;false;false;false;57.0;0;0;0;0;0;false;41734;6269511948;-73.75817;45.523323;41736;6269511951;-73.75602;45.523121;2;14;15;9312803;Bus : 20 E - Direction Métro Cartier;"";STL;20E;Boucle Montgolfier;Métro Cartier Quai:2
45568176;"{\"type\":\"LineString\",\"coordinates\":[[-73.7572794,45.5230763],[-73.7567691,45.5230669]]}";2;Promenade des Îles;1;50;false;true;false;false;false;false;40.0;0;0;0;0;0;false;41734;6269511948;-73.75817;45.523323;41736;6269511951;-73.75602;45.523121;0;14;15;9312803;Bus : 20 E - Direction Métro Cartier;"";STL;20E;Boucle Montgolfier;Métro Cartier Quai:2
45568363;"{\"type\":\"LineString\",\"coordinates\":[[-73.7567691,45.5230669],[-73.7566264,45.5230668],[-73.756367,45.5230845],[-73.7561508,45.5231517],[-73.7559693,45.5232487],[-73.7558985,45.5232934],[-73.7554621,45.5236032],[-73.7553885,45.5236376],[-73.7550481,45.5237967],[-73.754624,45.5238641],[-73.7542129,45.5238866]]}";3;Promenade des Îles;1;50;false;true;false;false;false;false;229.0;0;0;0;0;0;false;41734;6269511948;-73.75817;45.523323;41736;6269511951;-73.75602;45.523121;2;14;15;9312803;Bus : 20 E - Direction Métro Cartier;"";STL;20E;Boucle Montgolfier;Métro Cartier Quai:2
45568363;"{\"type\":\"LineString\",\"coordinates\":[[-73.7567691,45.5230669],[-73.7566264,45.5230668],[-73.756367,45.5230845],[-73.7561508,45.5231517],[-73.7559693,45.5232487],[-73.7558985,45.5232934],[-73.7554621,45.5236032],[-73.7553885,45.5236376],[-73.7550481,45.5237967],[-73.754624,45.5238641],[-73.7542129,45.5238866]]}";1;Promenade des Îles;1;50;false;true;false;false;false;false;114.5;0;0;0;0;0;false;41736;6269511951;-73.75602;45.523121;41723;6269511942;-73.75262;45.523884;1;15;16;9312803;Bus : 20 E - Direction Métro Cartier;"";STL;20E;Boucle Montgolfier;Métro Cartier Quai:2
45568329;"{\"type\":\"LineString\",\"coordinates\":[[-73.7542129,45.5238866],[-73.7531298,45.5239382]]}";2;Promenade des Îles;1;50;false;true;false;false;false;false;85.0;0;0;0;0;0;false;41736;6269511951;-73.75602;45.523121;41723;6269511942;-73.75262;45.523884;0;15;16;9312803;Bus : 20 E - Direction Métro Cartier;"";STL;20E;Boucle Montgolfier;Métro Cartier Quai:2
45568107;"{\"type\":\"LineString\",\"coordinates\":[[-73.7531298,45.5239382],[-73.7524832,45.5239523]]}";3;Promenade des Îles;1;50;false;true;false;false;false;false;25.5;0;0;0;0;0;false;41736;6269511951;-73.75602;45.523121;41723;6269511942;-73.75262;45.523884;1;15;16;9312803;Bus : 20 E - Direction Métro Cartier;"";STL;20E;Boucle Montgolfier;Métro Cartier Quai:2
712295996;"{\"type\":\"LineString\",\"coordinates\":[[-73.7524832,45.5239523],[-73.7523454,45.5239554],[-73.7516719,45.52396],[-73.7514559,45.5239837],[-73.7513192,45.5240148],[-73.7512135,45.5240609],[-73.7510644,45.524177],[-73.7509497,45.5242967],[-73.7508646,45.5243966]]}";1;Promenade des Îles;1;50;false;true;false;false;false;false;148.0;0;0;0;0;0;false;41723;6269511942;-73.75262;45.523884;41725;6269511892;-73.75021;45.526508;2;16;17;9312803;Bus : 20 E - Direction Métro Cartier;"";STL;20E;Boucle Montgolfier;Métro Cartier Quai:2
712295994;"{\"type\":\"LineString\",\"coordinates\":[[-73.7508646,45.5243966],[-73.7508039,45.5244884],[-73.7507448,45.5246552]]}";2;Promenade des Îles;1;50;false;true;false;false;false;false;31.0;0;0;0;0;0;false;41723;6269511942;-73.75262;45.523884;41725;6269511892;-73.75021;45.526508;0;16;17;9312803;Bus : 20 E - Direction Métro Cartier;"";STL;20E;Boucle Montgolfier;Métro Cartier Quai:2
539073853;"{\"type\":\"LineString\",\"coordinates\":[[-73.7507448,45.5246552],[-73.750633,45.5254593]]}";3;Promenade des Îles;1;50;false;true;false;false;false;false;90.0;0;0;0;0;0;false;41723;6269511942;-73.75262;45.523884;41725;6269511892;-73.75021;45.526508;0;16;17;9312803;Bus : 20 E - Direction Métro Cartier;"";STL;20E;Boucle Montgolfier;Métro Cartier Quai:2
45568352;"{\"type\":\"LineString\",\"coordinates\":[[-73.750633,45.5254593],[-73.7505783,45.5258041],[-73.7505318,45.5259718],[-73.7504642,45.5261696],[-73.7502107,45.5267106],[-73.749949,45.5271274],[-73.74963,45.527459],[-73.7494504,45.5276857],[-73.7493863,45.5278343]]}";4;Promenade des Îles;1;50;false;true;false;false;false;false;285.0;0;0;0;0;0;false;41723;6269511942;-73.75262;45.523884;41725;6269511892;-73.75021;45.526508;2;16;17;9312803;Bus : 20 E - Direction Métro Cartier;"";STL;20E;Boucle Montgolfier;Métro Cartier Quai:2
45568352;"{\"type\":\"LineString\",\"coordinates\":[[-73.750633,45.5254593],[-73.7505783,45.5258041],[-73.7505318,45.5259718],[-73.7504642,45.5261696],[-73.7502107,45.5267106],[-73.749949,45.5271274],[-73.74963,45.527459],[-73.7494504,45.5276857],[-73.7493863,45.5278343]]}";1;Promenade des Îles;1;50;false;true;false;false;false;false;142.5;0;0;0;0;0;false;41725;6269511892;-73.75021;45.526508;41727;6269511050;-73.75048;45.529396;1;17;18;9312803;Bus : 20 E - Direction Métro Cartier;"";STL;20E;Boucle Montgolfier;Métro Cartier Quai:2
520074453;"{\"type\":\"LineString\",\"coordinates\":[[-73.7493863,45.5278343],[-73.7493965,45.527995],[-73.7494586,45.5281581],[-73.7495892,45.5283524],[-73.750422,45.5292243]]}";2;Promenade des Îles;1;50;false;true;false;false;false;false;178.0;0;0;0;0;0;false;41725;6269511892;-73.75021;45.526508;41727;6269511050;-73.75048;45.529396;0;17;18;9312803;Bus : 20 E - Direction Métro Cartier;"";STL;20E;Boucle Montgolfier;Métro Cartier Quai:2
94780852;"{\"type\":\"LineString\",\"coordinates\":[[-73.750422,45.5292243],[-73.7508409,45.5296696]]}";3;Promenade des Îles;1;50;false;true;true;false;false;false;30.0;0;0;0;0;0;false;41725;6269511892;-73.75021;45.526508;41727;6269511050;-73.75048;45.529396;1;17;18;9312803;Bus : 20 E - Direction Métro Cartier;"";STL;20E;Boucle Montgolfier;Métro Cartier Quai:2
520074453;"{\"type\":\"LineString\",\"coordinates\":[[-73.7493863,45.5278343],[-73.7493965,45.527995],[-73.7494586,45.5281581],[-73.7495892,45.5283524],[-73.750422,45.5292243]]}";1;Promenade des Îles;1;50;false;true;false;false;false;false;178.0;0;0;0;0;0;false;41727;6269511050;-73.75048;45.529396;42119;6269511040;-73.74934;45.530235;2;18;19;9312803;Bus : 20 E - Direction Métro Cartier;"";STL;20E;Boucle Montgolfier;Métro Cartier Quai:2
94780852;"{\"type\":\"LineString\",\"coordinates\":[[-73.750422,45.5292243],[-73.7508409,45.5296696]]}";2;Promenade des Îles;1;50;false;true;true;false;false;false;60.0;0;0;0;0;0;false;41727;6269511050;-73.75048;45.529396;42119;6269511040;-73.74934;45.530235;0;18;19;9312803;Bus : 20 E - Direction Métro Cartier;"";STL;20E;Boucle Montgolfier;Métro Cartier Quai:2
45568104;"{\"type\":\"LineString\",\"coordinates\":[[-73.7508409,45.5296696],[-73.7492991,45.5303462]]}";3;Boulevard Lévesque Ouest;2;50;false;false;true;false;false;false;142.0;0;0;0;0;0;false;41727;6269511050;-73.75048;45.529396;42119;6269511040;-73.74934;45.530235;2;18;19;9312803;Bus : 20 E - Direction Métro Cartier;"";STL;20E;Boucle Montgolfier;Métro Cartier Quai:2
45601153;"{\"type\":\"LineString\",\"coordinates\":[[-73.7492991,45.5303462],[-73.7487442,45.5305968],[-73.7483208,45.5308116],[-73.7478517,45.531082]]}";1;Boulevard Lévesque Ouest;2;50;false;false;true;false;false;false;140.0;0;0;0;0;0;false;42119;6269511040;-73.74934;45.530235;42006;6269511008;-73.74708;45.531401;2;19;20;9312803;Bus : 20 E - Direction Métro Cartier;"";STL;20E;Boucle Montgolfier;Métro Cartier Quai:2
45601166;"{\"type\":\"LineString\",\"coordinates\":[[-73.7478517,45.531082],[-73.7474289,45.5313014],[-73.7471718,45.5314466],[-73.7469894,45.5315464],[-73.7467646,45.5316709],[-73.7466328,45.5317415],[-73.7463643,45.5318895],[-73.7460803,45.5320351]]}";2;C;2;50;false;false;false;false;false;false;175.0;0;0;0;0;0;false;42119;6269511040;-73.74934;45.530235;42006;6269511008;-73.74708;45.531401;2;19;20;9312803;Bus : 20 E - Direction Métro Cartier;"";STL;20E;Boucle Montgolfier;Métro Cartier Quai:2
45601166;"{\"type\":\"LineString\",\"coordinates\":[[-73.7478517,45.531082],[-73.7474289,45.5313014],[-73.7471718,45.5314466],[-73.7469894,45.5315464],[-73.7467646,45.5316709],[-73.7466328,45.5317415],[-73.7463643,45.5318895],[-73.7460803,45.5320351]]}";1;C;2;50;false;false;false;false;false;false;87.5;0;0;0;0;0;false;42006;6269511008;-73.74708;45.531401;45046;6269510989;-73.74542;45.532295;1;20;21;9312803;Bus : 20 E - Direction Métro Cartier;"";STL;20E;Boucle Montgolfier;Métro Cartier Quai:2
518075294;"{\"type\":\"LineString\",\"coordinates\":[[-73.7460803,45.5320351],[-73.7455069,45.5323255],[-73.7452888,45.5324276]]}";2;Boulevard Lévesque Ouest;2;50;false;false;false;false;false;false;38.0;0;0;0;0;0;false;42006;6269511008;-73.74708;45.531401;45046;6269510989;-73.74542;45.532295;1;20;21;9312803;Bus : 20 E - Direction Métro Cartier;"";STL;20E;Boucle Montgolfier;Métro Cartier Quai:2
45601163;"{\"type\":\"LineString\",\"coordinates\":[[-73.7452888,45.5324276],[-73.7450353,45.532546],[-73.7449013,45.5326075],[-73.7446183,45.5327197],[-73.7435688,45.533094],[-73.7434677,45.533129],[-73.7426005,45.5334322],[-73.7419755,45.5336344],[-73.7408815,45.5340513],[-73.740205,45.5343446],[-73.7401469,45.5343698],[-73.7400306,45.5344087],[-73.7398612,45.534462],[-73.7395421,45.534525],[-73.7394201,45.5345422]]}";1;Boulevard Lévesque Ouest;2;50;false;false;false;false;false;false;258.5;0;1;0;0;0;false;42050;6269510875;-73.74092;45.53397;42053;6269510849;-73.73713;45.535008;1;23;24;9312803;Bus : 20 E - Direction Métro Cartier;"";STL;20E;Boucle Montgolfier;Métro Cartier Quai:2
518597251;"{\"type\":\"LineString\",\"coordinates\":[[-73.7394201,45.5345422],[-73.73931,45.5345603],[-73.7385862,45.5346795],[-73.7384314,45.5347093],[-73.7379104,45.5348241],[-73.7376477,45.534911],[-73.7372225,45.5350807],[-73.7369971,45.5351792],[-73.7364589,45.5353827],[-73.7361614,45.5354757]]}";2;Boulevard Lévesque Ouest;2;50;false;false;false;false;false;false;138.5;1;1;0;0;0;false;42050;6269510875;-73.74092;45.53397;42053;6269510849;-73.73713;45.535008;1;23;24;9312803;Bus : 20 E - Direction Métro Cartier;"";STL;20E;Boucle Montgolfier;Métro Cartier Quai:2
518597251;"{\"type\":\"LineString\",\"coordinates\":[[-73.7394201,45.5345422],[-73.73931,45.5345603],[-73.7385862,45.5346795],[-73.7384314,45.5347093],[-73.7379104,45.5348241],[-73.7376477,45.534911],[-73.7372225,45.5350807],[-73.7369971,45.5351792],[-73.7364589,45.5353827],[-73.7361614,45.5354757]]}";1;Boulevard Lévesque Ouest;2;50;false;false;false;false;false;false;138.5;1;1;0;0;0;false;42053;6269510849;-73.73713;45.535008;42056;6269510834;-73.73458;45.53588;1;24;25;9312803;Bus : 20 E - Direction Métro Cartier;"";STL;20E;Boucle Montgolfier;Métro Cartier Quai:2
45601143;"{\"type\":\"LineString\",\"coordinates\":[[-73.7361614,45.5354757],[-73.7354656,45.5356413],[-73.7352034,45.5357224],[-73.734949,45.5358318],[-73.7343517,45.536145],[-73.7340423,45.5363226],[-73.7337403,45.5364891]]}";2;Boulevard Lévesque Ouest;2;50;false;false;true;false;false;false;111.5;1;0;0;0;0;false;42053;6269510849;-73.73713;45.535008;42056;6269510834;-73.73458;45.53588;1;24;25;9312803;Bus : 20 E - Direction Métro Cartier;"";STL;20E;Boucle Montgolfier;Métro Cartier Quai:2
45601143;"{\"type\":\"LineString\",\"coordinates\":[[-73.7361614,45.5354757],[-73.7354656,45.5356413],[-73.7352034,45.5357224],[-73.734949,45.5358318],[-73.7343517,45.536145],[-73.7340423,45.5363226],[-73.7337403,45.5364891]]}";1;Boulevard Lévesque Ouest;2;50;false;false;true;false;false;false;111.5;1;0;0;0;0;false;42056;6269510834;-73.73458;45.53588;42058;6269510831;-73.73307;45.536586;1;25;26;9312803;Bus : 20 E - Direction Métro Cartier;"";STL;20E;Boucle Montgolfier;Métro Cartier Quai:2
45601162;"{\"type\":\"LineString\",\"coordinates\":[[-73.7337403,45.5364891],[-73.733316,45.5366123],[-73.733135,45.5366463],[-73.7329723,45.5366672]]}";2;Boulevard Lévesque Ouest;2;50;false;true;true;false;false;false;32.0;0;0;0;0;0;false;42056;6269510834;-73.73458;45.53588;42058;6269510831;-73.73307;45.536586;1;25;26;9312803;Bus : 20 E - Direction Métro Cartier;"";STL;20E;Boucle Montgolfier;Métro Cartier Quai:2
45601157;"{\"type\":\"LineString\",\"coordinates\":[[-73.7329723,45.5366672],[-73.7328669,45.536673],[-73.7326036,45.5366831],[-73.7322511,45.5366865],[-73.7319809,45.5367005]]}";1;Boulevard Lévesque Ouest;2;50;false;true;false;false;false;false;78.0;1;0;0;0;0;false;42058;6269510831;-73.73307;45.536586;46347;6269510828;-73.73073;45.536771;2;26;27;9312803;Bus : 20 E - Direction Métro Cartier;"";STL;20E;Boucle Montgolfier;Métro Cartier Quai:2
46094577;"{\"type\":\"LineString\",\"coordinates\":[[-73.7319809,45.5367005],[-73.7316697,45.5367094],[-73.7313307,45.53675],[-73.7311308,45.5367742]]}";2;Boulevard Lévesque Ouest;2;50;false;true;false;false;false;false;67.0;2;0;0;0;0;false;42058;6269510831;-73.73307;45.536586;46347;6269510828;-73.73073;45.536771;0;26;27;9312803;Bus : 20 E - Direction Métro Cartier;"";STL;20E;Boucle Montgolfier;Métro Cartier Quai:2
100018578;"{\"type\":\"LineString\",\"coordinates\":[[-73.7311308,45.5367742],[-73.7310304,45.5367942],[-73.7308768,45.5368327],[-73.7306084,45.5369263],[-73.7303796,45.5370695],[-73.730094,45.537372]]}";3;Boulevard Lévesque Ouest;2;50;false;true;false;false;false;false;109.0;0;0;0;0;0;false;42058;6269510831;-73.73307;45.536586;46347;6269510828;-73.73073;45.536771;2;26;27;9312803;Bus : 20 E - Direction Métro Cartier;"";STL;20E;Boucle Montgolfier;Métro Cartier Quai:2
100018578;"{\"type\":\"LineString\",\"coordinates\":[[-73.7311308,45.5367742],[-73.7310304,45.5367942],[-73.7308768,45.5368327],[-73.7306084,45.5369263],[-73.7303796,45.5370695],[-73.730094,45.537372]]}";1;Boulevard Lévesque Ouest;2;50;false;true;false;false;false;false;54.5;0;0;0;0;0;false;46347;6269510828;-73.73073;45.536771;42060;6269510788;-73.72906;45.538205;1;27;28;9312803;Bus : 20 E - Direction Métro Cartier;"";STL;20E;Boucle Montgolfier;Métro Cartier Quai:2
455461120;"{\"type\":\"LineString\",\"coordinates\":[[-73.727354,45.5393983],[-73.7275956,45.5392923],[-73.728307,45.5388656],[-73.7284367,45.538765],[-73.7285646,45.5386809],[-73.7288815,45.5384624],[-73.7290363,45.5383373],[-73.7295121,45.5379942],[-73.7295732,45.5379502],[-73.7298588,45.537697],[-73.7299205,45.5376117],[-73.730094,45.537372]]}";2;Boulevard Lévesque Ouest;2;50;false;false;false;false;false;false;157.0;0;0;0;0;0;false;46347;6269510828;-73.73073;45.536771;42060;6269510788;-73.72906;45.538205;1;27;28;9312803;Bus : 20 E - Direction Métro Cartier;"";STL;20E;Boucle Montgolfier;Métro Cartier Quai:2
455461120;"{\"type\":\"LineString\",\"coordinates\":[[-73.727354,45.5393983],[-73.7275956,45.5392923],[-73.728307,45.5388656],[-73.7284367,45.538765],[-73.7285646,45.5386809],[-73.7288815,45.5384624],[-73.7290363,45.5383373],[-73.7295121,45.5379942],[-73.7295732,45.5379502],[-73.7298588,45.537697],[-73.7299205,45.5376117],[-73.730094,45.537372]]}";1;Boulevard Lévesque Ouest;2;50;false;false;false;false;false;false;157.0;0;0;0;0;0;false;42062;6269510778;-73.72765;45.539108;42065;6269510763;-73.72457;45.539771;1;29;30;9312803;Bus : 20 E - Direction Métro Cartier;"";STL;20E;Boucle Montgolfier;Métro Cartier Quai:2
465362910;"{\"type\":\"LineString\",\"coordinates\":[[-73.7269968,45.5394969],[-73.727354,45.5393983]]}";2;Boulevard Lévesque Ouest;2;50;false;false;false;false;false;false;30.0;0;0;0;0;0;false;42062;6269510778;-73.72765;45.539108;42065;6269510763;-73.72457;45.539771;0;29;30;9312803;Bus : 20 E - Direction Métro Cartier;"";STL;20E;Boucle Montgolfier;Métro Cartier Quai:2
455461125;"{\"type\":\"LineString\",\"coordinates\":[[-73.7228812,45.5396399],[-73.7232491,45.5396293],[-73.7235111,45.5396703],[-73.7237317,45.5397195],[-73.7241456,45.5398123],[-73.7243742,45.5398465],[-73.7245632,45.5398672],[-73.7249334,45.5398473],[-73.7253081,45.5398277],[-73.7256064,45.5398049],[-73.7258868,45.539757],[-73.7264797,45.5396553],[-73.7269968,45.5394969]]}";3;Boulevard Lévesque Ouest;2;50;false;false;false;false;false;false;165.5;0;0;0;0;0;false;42062;6269510778;-73.72765;45.539108;42065;6269510763;-73.72457;45.539771;1;29;30;9312803;Bus : 20 E - Direction Métro Cartier;"";STL;20E;Boucle Montgolfier;Métro Cartier Quai:2
455461125;"{\"type\":\"LineString\",\"coordinates\":[[-73.7228812,45.5396399],[-73.7232491,45.5396293],[-73.7235111,45.5396703],[-73.7237317,45.5397195],[-73.7241456,45.5398123],[-73.7243742,45.5398465],[-73.7245632,45.5398672],[-73.7249334,45.5398473],[-73.7253081,45.5398277],[-73.7256064,45.5398049],[-73.7258868,45.539757],[-73.7264797,45.5396553],[-73.7269968,45.5394969]]}";1;Boulevard Lévesque Ouest;2;50;false;false;false;false;false;false;165.5;0;0;0;0;0;false;42065;6269510763;-73.72457;45.539771;42618;6269510764;-73.7219;45.539731;1;30;31;9312803;Bus : 20 E - Direction Métro Cartier;"";STL;20E;Boucle Montgolfier;Métro Cartier Quai:2
46094574;"{\"type\":\"LineString\",\"coordinates\":[[-73.7217877,45.5397868],[-73.7225101,45.53969],[-73.7228812,45.5396399]]}";2;Boulevard Lévesque Ouest;2;50;false;false;true;false;false;false;43.5;0;0;0;0;0;false;42065;6269510763;-73.72457;45.539771;42618;6269510764;-73.7219;45.539731;1;30;31;9312803;Bus : 20 E - Direction Métro Cartier;"";STL;20E;Boucle Montgolfier;Métro Cartier Quai:2
46094581;"{\"type\":\"LineString\",\"coordinates\":[[-73.7216025,45.5398159],[-73.7217877,45.5397868]]}";1;Boulevard Lévesque Ouest;2;50;false;false;true;false;false;false;15.0;0;0;0;0;0;false;42618;6269510764;-73.7219;45.539731;42615;6269510754;-73.71822;45.540647;2;31;32;9312803;Bus : 20 E - Direction Métro Cartier;"";STL;20E;Boucle Montgolfier;Métro Cartier Quai:2
29082176;"{\"type\":\"LineString\",\"coordinates\":[[-73.7012269,45.5495688],[-73.7013856,45.5494979],[-73.7016082,45.5493964],[-73.7017462,45.5493453],[-73.7020557,45.5492331],[-73.7028856,45.5489116],[-73.7036914,45.5485171],[-73.7046025,45.5481487],[-73.7047939,45.5480716],[-73.7057046,45.5476886],[-73.7058575,45.547617],[-73.7066032,45.5472728],[-73.7069584,45.5471524],[-73.7073269,45.5469773],[-73.707598,45.5467922],[-73.7078548,45.5466169],[-73.7079107,45.5465788],[-73.7079477,45.5465536],[-73.7081967,45.5463836],[-73.7083186,45.5463004],[-73.7086151,45.5460979],[-73.7086988,45.5460408],[-73.7090807,45.5457801],[-73.7096216,45.5454723],[-73.7103521,45.5450565],[-73.7106817,45.5448642],[-73.7113159,45.5444724],[-73.7118844,45.5441114],[-73.7125164,45.5436191],[-73.7131281,45.5430827],[-73.7133062,45.5429192],[-73.7136919,45.5425258],[-73.7139457,45.5422589],[-73.7142597,45.5419413],[-73.714357,45.5418688],[-73.7146312,45.5417298],[-73.7147709,45.5416684],[-73.71514,45.541533],[-73.7151804,45.5415181],[-73.7155638,45.5414143],[-73.7157802,45.5413557],[-73.7162818,45.5412227],[-73.7178495,45.5408026],[-73.717916,45.540786],[-73.7180667,45.5407527],[-73.7186259,45.5406406],[-73.7189641,45.5405473],[-73.7192674,45.5404279],[-73.7196231,45.5402523],[-73.7199222,45.5401652],[-73.7204564,45.5400379],[-73.7205284,45.5400168],[-73.7216025,45.5398159]]}";2;Boulevard des Prairies;2;50;false;false;true;false;false;false;1963.0;0;0;0;0;0;false;42618;6269510764;-73.7219;45.539731;42615;6269510754;-73.71822;45.540647;2;31;32;9312803;Bus : 20 E - Direction Métro Cartier;"";STL;20E;Boucle Montgolfier;Métro Cartier Quai:2
29082176;"{\"type\":\"LineString\",\"coordinates\":[[-73.7012269,45.5495688],[-73.7013856,45.5494979],[-73.7016082,45.5493964],[-73.7017462,45.5493453],[-73.7020557,45.5492331],[-73.7028856,45.5489116],[-73.7036914,45.5485171],[-73.7046025,45.5481487],[-73.7047939,45.5480716],[-73.7057046,45.5476886],[-73.7058575,45.547617],[-73.7066032,45.5472728],[-73.7069584,45.5471524],[-73.7073269,45.5469773],[-73.707598,45.5467922],[-73.7078548,45.5466169],[-73.7079107,45.5465788],[-73.7079477,45.5465536],[-73.7081967,45.5463836],[-73.7083186,45.5463004],[-73.7086151,45.5460979],[-73.7086988,45.5460408],[-73.7090807,45.5457801],[-73.7096216,45.5454723],[-73.7103521,45.5450565],[-73.7106817,45.5448642],[-73.7113159,45.5444724],[-73.7118844,45.5441114],[-73.7125164,45.5436191],[-73.7131281,45.5430827],[-73.7133062,45.5429192],[-73.7136919,45.5425258],[-73.7139457,45.5422589],[-73.7142597,45.5419413],[-73.714357,45.5418688],[-73.7146312,45.5417298],[-73.7147709,45.5416684],[-73.71514,45.541533],[-73.7151804,45.5415181],[-73.7155638,45.5414143],[-73.7157802,45.5413557],[-73.7162818,45.5412227],[-73.7178495,45.5408026],[-73.717916,45.540786],[-73.7180667,45.5407527],[-73.7186259,45.5406406],[-73.7189641,45.5405473],[-73.7192674,45.5404279],[-73.7196231,45.5402523],[-73.7199222,45.5401652],[-73.7204564,45.5400379],[-73.7205284,45.5400168],[-73.7216025,45.5398159]]}";1;Boulevard des Prairies;2;50;false;false;true;false;false;false;981.5;0;0;0;0;0;false;42599;6269510640;-73.70297;45.54881;42597;6269510628;-73.70111;45.549554;1;40;41;9312803;Bus : 20 E - Direction Métro Cartier;"";STL;20E;Boucle Montgolfier;Métro Cartier Quai:2
46087899;"{\"type\":\"LineString\",\"coordinates\":[[-73.7012269,45.5495688],[-73.7010407,45.5496635],[-73.7009612,45.5497079],[-73.7009207,45.5497316],[-73.7002731,45.5501374]]}";2;Boulevard des Prairies;2;50;false;false;true;false;false;false;49.0;0;0;0;0;0;false;42599;6269510640;-73.70297;45.54881;42597;6269510628;-73.70111;45.549554;1;40;41;9312803;Bus : 20 E - Direction Métro Cartier;"";STL;20E;Boucle Montgolfier;Métro Cartier Quai:2
29082176;"{\"type\":\"LineString\",\"coordinates\":[[-73.7012269,45.5495688],[-73.7013856,45.5494979],[-73.7016082,45.5493964],[-73.7017462,45.5493453],[-73.7020557,45.5492331],[-73.7028856,45.5489116],[-73.7036914,45.5485171],[-73.7046025,45.5481487],[-73.7047939,45.5480716],[-73.7057046,45.5476886],[-73.7058575,45.547617],[-73.7066032,45.5472728],[-73.7069584,45.5471524],[-73.7073269,45.5469773],[-73.707598,45.5467922],[-73.7078548,45.5466169],[-73.7079107,45.5465788],[-73.7079477,45.5465536],[-73.7081967,45.5463836],[-73.7083186,45.5463004],[-73.7086151,45.5460979],[-73.7086988,45.5460408],[-73.7090807,45.5457801],[-73.7096216,45.5454723],[-73.7103521,45.5450565],[-73.7106817,45.5448642],[-73.7113159,45.5444724],[-73.7118844,45.5441114],[-73.7125164,45.5436191],[-73.7131281,45.5430827],[-73.7133062,45.5429192],[-73.7136919,45.5425258],[-73.7139457,45.5422589],[-73.7142597,45.5419413],[-73.714357,45.5418688],[-73.7146312,45.5417298],[-73.7147709,45.5416684],[-73.71514,45.541533],[-73.7151804,45.5415181],[-73.7155638,45.5414143],[-73.7157802,45.5413557],[-73.7162818,45.5412227],[-73.7178495,45.5408026],[-73.717916,45.540786],[-73.7180667,45.5407527],[-73.7186259,45.5406406],[-73.7189641,45.5405473],[-73.7192674,45.5404279],[-73.7196231,45.5402523],[-73.7199222,45.5401652],[-73.7204564,45.5400379],[-73.7205284,45.5400168],[-73.7216025,45.5398159]]}";1;Boulevard des Prairies;2;50;false;false;true;false;false;false;1963.0;0;0;0;0;0;false;42597;6269510628;-73.70111;45.549554;42594;6269510602;-73.69944;45.550525;2;41;42;9312803;Bus : 20 E - Direction Métro Cartier;"";STL;20E;Boucle Montgolfier;Métro Cartier Quai:2
46087899;"{\"type\":\"LineString\",\"coordinates\":[[-73.7012269,45.5495688],[-73.7010407,45.5496635],[-73.7009612,45.5497079],[-73.7009207,45.5497316],[-73.7002731,45.5501374]]}";2;Boulevard des Prairies;2;50;false;false;true;false;false;false;98.0;0;0;0;0;0;false;42597;6269510628;-73.70111;45.549554;42594;6269510602;-73.69944;45.550525;0;41;42;9312803;Bus : 20 E - Direction Métro Cartier;"";STL;20E;Boucle Montgolfier;Métro Cartier Quai:2
46087900;"{\"type\":\"LineString\",\"coordinates\":[[-73.7002731,45.5501374],[-73.6999266,45.5503297],[-73.6994322,45.5505944]]}";3;Boulevard des Prairies;2;50;false;false;true;false;false;false;83.0;0;0;1;0;0;false;42597;6269510628;-73.70111;45.549554;42594;6269510602;-73.69944;45.550525;2;41;42;9312803;Bus : 20 E - Direction Métro Cartier;"";STL;20E;Boucle Montgolfier;Métro Cartier Quai:2
45608712;"{\"type\":\"LineString\",\"coordinates\":[[-73.6994322,45.5505944],[-73.6990853,45.5507429],[-73.6986879,45.5509129],[-73.698203,45.5511204],[-73.697806,45.5512716],[-73.6973378,45.5514166],[-73.6969001,45.5515106],[-73.696358,45.5515891],[-73.6958575,45.5516616],[-73.6958134,45.551668],[-73.6951133,45.5517693],[-73.6938913,45.5518122],[-73.6927925,45.5518507],[-73.6914227,45.551808],[-73.6912039,45.551816],[-73.6910161,45.5518229],[-73.6907741,45.5518318],[-73.6907002,45.5518345],[-73.6904866,45.5518423],[-73.6891771,45.5519623],[-73.688456,45.5521161],[-73.6880815,45.5522562]]}";1;Boulevard des Prairies;2;50;false;false;true;false;false;false;461.0;0;0;1;0;0;false;42588;6269510575;-73.6884;45.552092;42586;6269510564;-73.68677;45.552805;1;45;46;9312803;Bus : 20 E - Direction Métro Cartier;"";STL;20E;Boucle Montgolfier;Métro Cartier Quai:2
29016236;"{\"type\":\"LineString\",\"coordinates\":[[-73.6798904,45.5559635],[-73.6805358,45.5556311],[-73.6806231,45.555589],[-73.6806697,45.5555666],[-73.6814265,45.5552305],[-73.681528,45.5551902],[-73.6822413,45.5549069],[-73.6830094,45.5546106],[-73.6837605,45.5542584],[-73.6840434,45.5541258],[-73.6847185,45.5538058],[-73.6850878,45.553641],[-73.6853977,45.5535027],[-73.6856364,45.5533962],[-73.6857544,45.5533435],[-73.686409,45.5530337],[-73.6865389,45.5529752],[-73.6866352,45.5529308],[-73.6871875,45.5526763],[-73.6879777,45.5522996],[-73.6880815,45.5522562]]}";2;Boulevard des Prairies;2;50;false;false;true;false;false;false;380.5;0;0;1;0;0;false;42588;6269510575;-73.6884;45.552092;42586;6269510564;-73.68677;45.552805;1;45;46;9312803;Bus : 20 E - Direction Métro Cartier;"";STL;20E;Boucle Montgolfier;Métro Cartier Quai:2
29016236;"{\"type\":\"LineString\",\"coordinates\":[[-73.6798904,45.5559635],[-73.6805358,45.5556311],[-73.6806231,45.555589],[-73.6806697,45.5555666],[-73.6814265,45.5552305],[-73.681528,45.5551902],[-73.6822413,45.5549069],[-73.6830094,45.5546106],[-73.6837605,45.5542584],[-73.6840434,45.5541258],[-73.6847185,45.5538058],[-73.6850878,45.553641],[-73.6853977,45.5535027],[-73.6856364,45.5533962],[-73.6857544,45.5533435],[-73.686409,45.5530337],[-73.6865389,45.5529752],[-73.6866352,45.5529308],[-73.6871875,45.5526763],[-73.6879777,45.5522996],[-73.6880815,45.5522562]]}";1;Boulevard des Prairies;2;50;false;false;true;false;false;false;380.5;0;0;1;0;0;false;42617;6269510488;-73.68053;45.555544;42619;6269510334;-73.67736;45.558067;1;49;50;9312803;Bus : 20 E - Direction Métro Cartier;"";STL;20E;Boucle Montgolfier;Métro Cartier Quai:2
455479834;"{\"type\":\"LineString\",\"coordinates\":[[-73.6794886,45.556189],[-73.6798904,45.5559635]]}";2;Boulevard des Prairies;2;50;false;false;false;false;false;false;41.0;0;0;1;0;0;false;42617;6269510488;-73.68053;45.555544;42619;6269510334;-73.67736;45.558067;0;49;50;9312803;Bus : 20 E - Direction Métro Cartier;"";STL;20E;Boucle Montgolfier;Métro Cartier Quai:2
46086123;"{\"type\":\"LineString\",\"coordinates\":[[-73.6773892,45.5582125],[-73.6776738,45.5577837],[-73.6780219,45.5573397],[-73.6782299,45.5570996],[-73.6783851,45.5569589],[-73.6787409,45.5566586],[-73.6794886,45.556189]]}";3;Boulevard des Prairies;2;50;false;false;false;false;false;false;141.0;0;0;1;0;0;false;42617;6269510488;-73.68053;45.555544;42619;6269510334;-73.67736;45.558067;1;49;50;9312803;Bus : 20 E - Direction Métro Cartier;"";STL;20E;Boucle Montgolfier;Métro Cartier Quai:2
29016311;"{\"type\":\"LineString\",\"coordinates\":[[-73.6789202,45.5601661],[-73.6788221,45.5600498],[-73.6787519,45.5599492],[-73.6785968,45.5596953],[-73.678411,45.5593914],[-73.6779102,45.5586694],[-73.6777968,45.5585363],[-73.6776225,45.5583954],[-73.6773892,45.5582125]]}";1;Rue Saint-Hubert;2;50;false;false;false;false;false;false;125.0;0;0;1;0;0;false;46418;6269510301;-73.67828;45.559379;42794;6269510265;-73.67968;45.560951;1;51;52;9312803;Bus : 20 E - Direction Métro Cartier;"";STL;20E;Boucle Montgolfier;Métro Cartier Quai:2
478051944;"{\"type\":\"LineString\",\"coordinates\":[[-73.6791483,45.5603832],[-73.6789202,45.5601661]]}";2;Rue Saint-Hubert;2;50;false;false;false;false;false;false;30.0;1;0;0;0;0;false;46418;6269510301;-73.67828;45.559379;42794;6269510265;-73.67968;45.560951;0;51;52;9312803;Bus : 20 E - Direction Métro Cartier;"";STL;20E;Boucle Montgolfier;Métro Cartier Quai:2
478051945;"{\"type\":\"LineString\",\"coordinates\":[[-73.6799014,45.5610385],[-73.679803,45.5609529],[-73.6797477,45.5609048],[-73.6791483,45.5603832]]}";3;Rue Saint-Hubert;1;50;false;false;false;false;false;false;47.0;1;0;0;0;0;false;46418;6269510301;-73.67828;45.559379;42794;6269510265;-73.67968;45.560951;1;51;52;9312803;Bus : 20 E - Direction Métro Cartier;"";STL;20E;Boucle Montgolfier;Métro Cartier Quai:2
38311579;"{\"type\":\"LineString\",\"coordinates\":[[-73.6799014,45.5610385],[-73.6799939,45.5611189],[-73.6802218,45.5613173],[-73.6805434,45.5615971]]}";1;Rue Saint-Hubert;1;50;false;false;true;false;false;false;80.0;1;0;0;0;0;false;42794;6269510265;-73.67968;45.560951;"47128;47170;47120;47012;47002;47173;47058;47158;47141;47102;47122;47911;47133;47160;47163;47127;47137;47117;47031;47143;47174;47124;47112;47070;47148;47017";6269510222;-73.6825;45.559923;2;52;53;9312803;Bus : 20 E - Direction Métro Cartier;"";STL;20E;Boucle Montgolfier;Métro Cartier Quai:2
292641475;"{\"type\":\"LineString\",\"coordinates\":[[-73.6806516,45.5616861],[-73.6805434,45.5615971]]}";2;Rue Saint-Hubert;1;50;false;false;true;false;false;false;13.0;2;0;0;0;0;false;42794;6269510265;-73.67968;45.560951;"47128;47170;47120;47012;47002;47173;47058;47158;47141;47102;47122;47911;47133;47160;47163;47127;47137;47117;47031;47143;47174;47124;47112;47070;47148;47017";6269510222;-73.6825;45.559923;0;52;53;9312803;Bus : 20 E - Direction Métro Cartier;"";STL;20E;Boucle Montgolfier;Métro Cartier Quai:2
46088915;"{\"type\":\"LineString\",\"coordinates\":[[-73.6806516,45.5616861],[-73.680801,45.5616127],[-73.6811135,45.5614588],[-73.68169,45.5611749],[-73.6818442,45.561099]]}";3;Boulevard Cartier Ouest;2;50;false;true;true;false;false;false;114.0;3;0;0;0;0;false;42794;6269510265;-73.67968;45.560951;"47128;47170;47120;47012;47002;47173;47058;47158;47141;47102;47122;47911;47133;47160;47163;47127;47137;47117;47031;47143;47174;47124;47112;47070;47148;47017";6269510222;-73.6825;45.559923;0;52;53;9312803;Bus : 20 E - Direction Métro Cartier;"";STL;20E;Boucle Montgolfier;Métro Cartier Quai:2
259643625;"{\"type\":\"LineString\",\"coordinates\":[[-73.6818442,45.561099],[-73.6826796,45.5606463],[-73.6831194,45.5604083]]}";4;Boulevard Cartier Ouest;2;50;false;true;true;false;false;false;126.0;2;0;0;0;0;false;42794;6269510265;-73.67968;45.560951;"47128;47170;47120;47012;47002;47173;47058;47158;47141;47102;47122;47911;47133;47160;47163;47127;47137;47117;47031;47143;47174;47124;47112;47070;47148;47017";6269510222;-73.6825;45.559923;0;52;53;9312803;Bus : 20 E - Direction Métro Cartier;"";STL;20E;Boucle Montgolfier;Métro Cartier Quai:2
259643631;"{\"type\":\"LineString\",\"coordinates\":[[-73.6831194,45.5604083],[-73.6830194,45.5603075]]}";5;"";1;50;false;false;true;false;false;false;14.0;2;0;0;0;0;false;42794;6269510265;-73.67968;45.560951;"47128;47170;47120;47012;47002;47173;47058;47158;47141;47102;47122;47911;47133;47160;47163;47127;47137;47117;47031;47143;47174;47124;47112;47070;47148;47017";6269510222;-73.6825;45.559923;0;52;53;9312803;Bus : 20 E - Direction Métro Cartier;"";STL;20E;Boucle Montgolfier;Métro Cartier Quai:2
242652088;"{\"type\":\"LineString\",\"coordinates\":[[-73.6830194,45.5603075],[-73.6828755,45.560162]]}";6;"";1;50;false;false;true;false;false;false;20.0;1;0;0;0;0;false;42794;6269510265;-73.67968;45.560951;"47128;47170;47120;47012;47002;47173;47058;47158;47141;47102;47122;47911;47133;47160;47163;47127;47137;47117;47031;47143;47174;47124;47112;47070;47148;47017";6269510222;-73.6825;45.559923;0;52;53;9312803;Bus : 20 E - Direction Métro Cartier;"";STL;20E;Boucle Montgolfier;Métro Cartier Quai:2
259643630;"{\"type\":\"LineString\",\"coordinates\":[[-73.683108,45.5597546],[-73.6832991,45.5596564],[-73.6834151,45.5595825],[-73.6834772,45.5596133],[-73.6835498,45.5596565],[-73.6835923,45.5597297],[-73.6835737,45.5597964],[-73.6834678,45.5598527],[-73.6828755,45.560162]]}";7;"";1;50;false;false;true;false;false;false;129.0;0;0;0;0;0;false;42794;6269510265;-73.67968;45.560951;"47128;47170;47120;47012;47002;47173;47058;47158;47141;47102;47122;47911;47133;47160;47163;47127;47137;47117;47031;47143;47174;47124;47112;47070;47148;47017";6269510222;-73.6825;45.559923;0;52;53;9312803;Bus : 20 E - Direction Métro Cartier;"";STL;20E;Boucle Montgolfier;Métro Cartier Quai:2
694196043;"{\"type\":\"LineString\",\"coordinates\":[[-73.6829383,45.5598439],[-73.683108,45.5597546]]}";8;"";1;50;false;false;true;false;false;false;17.0;0;0;0;0;0;false;42794;6269510265;-73.67968;45.560951;"47128;47170;47120;47012;47002;47173;47058;47158;47141;47102;47122;47911;47133;47160;47163;47127;47137;47117;47031;47143;47174;47124;47112;47070;47148;47017";6269510222;-73.6825;45.559923;0;52;53;9312803;Bus : 20 E - Direction Métro Cartier;"";STL;20E;Boucle Montgolfier;Métro Cartier Quai:2
694409795;"{\"type\":\"LineString\",\"coordinates\":[[-73.6827819,45.5599253],[-73.6829383,45.5598439]]}";9;"";1;50;false;false;true;false;false;false;16.0;0;0;0;0;0;false;42794;6269510265;-73.67968;45.560951;"47128;47170;47120;47012;47002;47173;47058;47158;47141;47102;47122;47911;47133;47160;47163;47127;47137;47117;47031;47143;47174;47124;47112;47070;47148;47017";6269510222;-73.6825;45.559923;0;52;53;9312803;Bus : 20 E - Direction Métro Cartier;"";STL;20E;Boucle Montgolfier;Métro Cartier Quai:2
669902223;"{\"type\":\"LineString\",\"coordinates\":[[-73.6826117,45.5600129],[-73.6827819,45.5599253]]}";10;"";1;50;false;false;true;false;false;false;17.0;0;0;0;0;0;false;42794;6269510265;-73.67968;45.560951;"47128;47170;47120;47012;47002;47173;47058;47158;47141;47102;47122;47911;47133;47160;47163;47127;47137;47117;47031;47143;47174;47124;47112;47070;47148;47017";6269510222;-73.6825;45.559923;1;52;53;9312803;Bus : 20 E - Direction Métro Cartier;"";STL;20E;Boucle Montgolfier;Métro Cartier Quai:2
