way_id;shape;index;name;nb_lanes;legal_speed;speed_zone_30;oneway;shares_bike;bike_box;bus_lane;dedicated_bus_lane;length;nb_traffic_signals;nb_crossings;nb_stops;nb_give_ways;nb_lvl_crossings;roundabout;stop_id_orig;node_id_orig;coord_x_orig;coord_y_orig;stop_id_dest;node_id_dest;coord_x_dest;coord_y_dest;nb_neighbouring_ways_bus_stop;order_orig;order_dest;id_line;line_name;colour;operator;ref;from;to
368646813;"{\"type\":\"LineString\",\"coordinates\":[[-6.264529,53.3285866],[-6.2645463,53.328483],[-6.2645551,53.3284341],[-6.2646112,53.3281222],[-6.2646325,53.328013],[-6.2646627,53.327858],[-6.2647032,53.3276164],[-6.2647272,53.3274732],[-6.2647928,53.3270822],[-6.2648284,53.32691],[-6.264851,53.3267868],[-6.2650513,53.3256942],[-6.2651149,53.3253791],[-6.2651734,53.3250898],[-6.2651821,53.325035],[-6.265285,53.3245111],[-6.2653083,53.3243927],[-6.2653123,53.3243724],[-6.2653554,53.324153],[-6.2653786,53.3240348]]}";1;Rathmines Road Lower;3;50;false;false;false;false;false;false;514.0;1;3;0;0;0;false;1071;564399647;-6.2648684;53.3272759;4528;778699194;-6.2645541;53.328936;1;1;2;7389000;Bus 15: Ballycullen Rd. => Clongriffin;"";Dublin Bus;15;Ballycullen Rd.;Clongriffin
4287295;"{\"type\":\"LineString\",\"coordinates\":[[-6.2642913,53.3299349],[-6.2643038,53.3298619],[-6.2643502,53.329588],[-6.2643689,53.3294778],[-6.2644189,53.3291837],[-6.264529,53.3285866]]}";2;Rathmines Road Lower;3;50;false;false;false;false;false;false;76.0;1;0;0;0;0;false;1071;564399647;-6.2648684;53.3272759;4528;778699194;-6.2645541;53.328936;1;1;2;7389000;Bus 15: Ballycullen Rd. => Clongriffin;"";Dublin Bus;15;Ballycullen Rd.;Clongriffin
4287295;"{\"type\":\"LineString\",\"coordinates\":[[-6.2642913,53.3299349],[-6.2643038,53.3298619],[-6.2643502,53.329588],[-6.2643689,53.3294778],[-6.2644189,53.3291837],[-6.264529,53.3285866]]}";1;Rathmines Road Lower;3;50;false;false;false;false;false;false;76.0;1;0;0;0;0;false;4528;778699194;-6.2645541;53.328936;497;249429127;-6.250723;53.3504995;1;2;3;7389000;Bus 15: Ballycullen Rd. => Clongriffin;"";Dublin Bus;15;Ballycullen Rd.;Clongriffin
13866426;"{\"type\":\"LineString\",\"coordinates\":[[-6.264275,53.3300179],[-6.2642913,53.3299349]]}";2;La Touche Bridge;3;30;false;false;true;false;false;false;10.0;1;0;0;0;0;false;4528;778699194;-6.2645541;53.328936;497;249429127;-6.250723;53.3504995;0;2;3;7389000;Bus 15: Ballycullen Rd. => Clongriffin;"";Dublin Bus;15;Ballycullen Rd.;Clongriffin
683994813;"{\"type\":\"LineString\",\"coordinates\":[[-6.2642778,53.330079],[-6.264275,53.3300179]]}";3;La Touche Bridge;3;30;false;false;true;false;false;false;7.0;0;0;0;0;0;false;4528;778699194;-6.2645541;53.328936;497;249429127;-6.250723;53.3504995;0;2;3;7389000;Bus 15: Ballycullen Rd. => Clongriffin;"";Dublin Bus;15;Ballycullen Rd.;Clongriffin
4628799;"{\"type\":\"LineString\",\"coordinates\":[[-6.2642811,53.3301572],[-6.2642778,53.330079]]}";4;La Touche Bridge;3;30;false;false;true;false;false;false;9.0;0;0;0;0;0;false;4528;778699194;-6.2645541;53.328936;497;249429127;-6.250723;53.3504995;0;2;3;7389000;Bus 15: Ballycullen Rd. => Clongriffin;"";Dublin Bus;15;Ballycullen Rd.;Clongriffin
238334895;"{\"type\":\"LineString\",\"coordinates\":[[-6.2642926,53.3302157],[-6.2642856,53.3301802],[-6.2642811,53.3301572]]}";5;La Touche Bridge;3;30;false;false;true;false;false;false;7.0;1;0;0;0;0;false;4528;778699194;-6.2645541;53.328936;497;249429127;-6.250723;53.3504995;0;2;3;7389000;Bus 15: Ballycullen Rd. => Clongriffin;"";Dublin Bus;15;Ballycullen Rd.;Clongriffin
13873181;"{\"type\":\"LineString\",\"coordinates\":[[-6.2645251,53.3311096],[-6.2644223,53.3307346],[-6.2643999,53.3306602],[-6.2643011,53.3302788],[-6.2642926,53.3302157]]}";6;Richmond Street South;3;50;false;false;true;false;false;false;102.0;1;1;0;0;0;false;4528;778699194;-6.2645541;53.328936;497;249429127;-6.250723;53.3504995;0;2;3;7389000;Bus 15: Ballycullen Rd. => Clongriffin;"";Dublin Bus;15;Ballycullen Rd.;Clongriffin
13873180;"{\"type\":\"LineString\",\"coordinates\":[[-6.2645251,53.3311096],[-6.2645639,53.3311753],[-6.2646091,53.3313558]]}";7;Richmond Street South;1;50;false;true;false;false;false;false;29.0;0;0;0;0;0;false;4528;778699194;-6.2645541;53.328936;497;249429127;-6.250723;53.3504995;0;2;3;7389000;Bus 15: Ballycullen Rd. => Clongriffin;"";Dublin Bus;15;Ballycullen Rd.;Clongriffin
709339166;"{\"type\":\"LineString\",\"coordinates\":[[-6.2646091,53.3313558],[-6.2646044,53.3314356]]}";8;Richmond Street South;1;50;false;true;false;false;false;false;9.0;0;0;0;0;0;false;4528;778699194;-6.2645541;53.328936;497;249429127;-6.250723;53.3504995;0;2;3;7389000;Bus 15: Ballycullen Rd. => Clongriffin;"";Dublin Bus;15;Ballycullen Rd.;Clongriffin
13873182;"{\"type\":\"LineString\",\"coordinates\":[[-6.2646655,53.3317939],[-6.2646044,53.3314356]]}";9;Richmond Street South;2;50;false;false;true;false;false;false;41.0;0;0;0;0;0;false;4528;778699194;-6.2645541;53.328936;497;249429127;-6.250723;53.3504995;0;2;3;7389000;Bus 15: Ballycullen Rd. => Clongriffin;"";Dublin Bus;15;Ballycullen Rd.;Clongriffin
5976025;"{\"type\":\"LineString\",\"coordinates\":[[-6.2646655,53.3317939],[-6.264835,53.3324947],[-6.2648597,53.3325969]]}";10;Richmond Street South;2;50;false;true;true;false;false;false;91.0;1;0;0;0;0;false;4528;778699194;-6.2645541;53.328936;497;249429127;-6.250723;53.3504995;0;2;3;7389000;Bus 15: Ballycullen Rd. => Clongriffin;"";Dublin Bus;15;Ballycullen Rd.;Clongriffin
4628793;"{\"type\":\"LineString\",\"coordinates\":[[-6.2648597,53.3325969],[-6.2651057,53.3335086]]}";11;Camden Street Upper;3;30;false;true;true;false;false;false;104.0;2;0;0;0;0;false;4528;778699194;-6.2645541;53.328936;497;249429127;-6.250723;53.3504995;0;2;3;7389000;Bus 15: Ballycullen Rd. => Clongriffin;"";Dublin Bus;15;Ballycullen Rd.;Clongriffin
59416356;"{\"type\":\"LineString\",\"coordinates\":[[-6.2651057,53.3335086],[-6.265206,53.3338135],[-6.2651742,53.333871]]}";12;Camden Street Lower;1;30;false;true;true;false;false;false;42.0;1;0;0;0;0;false;4528;778699194;-6.2645541;53.328936;497;249429127;-6.250723;53.3504995;0;2;3;7389000;Bus 15: Ballycullen Rd. => Clongriffin;"";Dublin Bus;15;Ballycullen Rd.;Clongriffin
75741007;"{\"type\":\"LineString\",\"coordinates\":[[-6.2652779,53.3341412],[-6.2652722,53.3340684],[-6.2652571,53.3340264],[-6.2651742,53.333871]]}";13;Camden Street Lower;3;30;false;false;true;false;false;false;32.0;0;0;0;0;0;false;4528;778699194;-6.2645541;53.328936;497;249429127;-6.250723;53.3504995;0;2;3;7389000;Bus 15: Ballycullen Rd. => Clongriffin;"";Dublin Bus;15;Ballycullen Rd.;Clongriffin
4628792;"{\"type\":\"LineString\",\"coordinates\":[[-6.2652056,53.3354833],[-6.2652279,53.3352373],[-6.2652338,53.3351251],[-6.2652546,53.3347258],[-6.26526,53.3346632],[-6.2652617,53.3346431],[-6.2652787,53.3342509],[-6.2652778,53.3341951],[-6.2652779,53.3341412]]}";14;Camden Street Lower;4;30;false;false;true;false;false;false;151.0;0;1;0;0;0;false;4528;778699194;-6.2645541;53.328936;497;249429127;-6.250723;53.3504995;0;2;3;7389000;Bus 15: Ballycullen Rd. => Clongriffin;"";Dublin Bus;15;Ballycullen Rd.;Clongriffin
77616869;"{\"type\":\"LineString\",\"coordinates\":[[-6.2654495,53.3364281],[-6.2653561,53.336168],[-6.265339,53.3361203],[-6.265207,53.3356182],[-6.2652064,53.3355641],[-6.2652062,53.3355438],[-6.2652056,53.3354833]]}";15;Camden Street Lower;3;30;false;false;true;false;false;false;108.0;0;1;0;0;0;false;4528;778699194;-6.2645541;53.328936;497;249429127;-6.250723;53.3504995;0;2;3;7389000;Bus 15: Ballycullen Rd. => Clongriffin;"";Dublin Bus;15;Ballycullen Rd.;Clongriffin
532427445;"{\"type\":\"LineString\",\"coordinates\":[[-6.2657367,53.3374278],[-6.2656096,53.3369777],[-6.2655083,53.3366034],[-6.2654495,53.3364281]]}";16;Wexford Street;2;30;false;false;true;false;false;false;114.0;0;0;0;0;0;false;4528;778699194;-6.2645541;53.328936;497;249429127;-6.250723;53.3504995;0;2;3;7389000;Bus 15: Ballycullen Rd. => Clongriffin;"";Dublin Bus;15;Ballycullen Rd.;Clongriffin
5826349;"{\"type\":\"LineString\",\"coordinates\":[[-6.2657971,53.3376138],[-6.2657367,53.3374278]]}";17;Wexford Street;2;30;false;false;true;false;false;false;22.0;1;0;0;0;0;false;4528;778699194;-6.2645541;53.328936;497;249429127;-6.250723;53.3504995;0;2;3;7389000;Bus 15: Ballycullen Rd. => Clongriffin;"";Dublin Bus;15;Ballycullen Rd.;Clongriffin
5976022;"{\"type\":\"LineString\",\"coordinates\":[[-6.2657971,53.3376138],[-6.2658551,53.3377832]]}";18;Redmonds Hill;3;30;false;false;true;false;false;false;20.0;1;0;0;0;0;false;4528;778699194;-6.2645541;53.328936;497;249429127;-6.250723;53.3504995;0;2;3;7389000;Bus 15: Ballycullen Rd. => Clongriffin;"";Dublin Bus;15;Ballycullen Rd.;Clongriffin
341583777;"{\"type\":\"LineString\",\"coordinates\":[[-6.2658551,53.3377832],[-6.265943,53.3380251],[-6.2660752,53.3383892]]}";19;Redmonds Hill;3;30;false;false;true;false;false;false;70.0;0;0;0;0;0;false;4528;778699194;-6.2645541;53.328936;497;249429127;-6.250723;53.3504995;0;2;3;7389000;Bus 15: Ballycullen Rd. => Clongriffin;"";Dublin Bus;15;Ballycullen Rd.;Clongriffin
3791744;"{\"type\":\"LineString\",\"coordinates\":[[-6.2660752,53.3383892],[-6.2660989,53.3384454],[-6.2661022,53.338532]]}";20;Aungier Street;3;30;false;false;true;false;false;false;17.0;0;0;0;0;0;false;4528;778699194;-6.2645541;53.328936;497;249429127;-6.250723;53.3504995;0;2;3;7389000;Bus 15: Ballycullen Rd. => Clongriffin;"";Dublin Bus;15;Ballycullen Rd.;Clongriffin
532427444;"{\"type\":\"LineString\",\"coordinates\":[[-6.2661022,53.338532],[-6.2659588,53.3391577],[-6.2659077,53.3393903],[-6.2658639,53.3395894],[-6.2658319,53.3397359],[-6.2657997,53.3398737],[-6.2657421,53.3401448],[-6.2656749,53.3404613],[-6.2656141,53.3406712]]}";21;Aungier Street;3;30;false;false;false;false;false;false;242.0;3;0;0;0;0;false;4528;778699194;-6.2645541;53.328936;497;249429127;-6.250723;53.3504995;0;2;3;7389000;Bus 15: Ballycullen Rd. => Clongriffin;"";Dublin Bus;15;Ballycullen Rd.;Clongriffin
554991019;"{\"type\":\"LineString\",\"coordinates\":[[-6.2656141,53.3406712],[-6.265404,53.3414662]]}";22;Aungier Street;2;30;false;false;false;false;false;false;91.0;2;0;0;0;0;false;4528;778699194;-6.2645541;53.328936;497;249429127;-6.250723;53.3504995;0;2;3;7389000;Bus 15: Ballycullen Rd. => Clongriffin;"";Dublin Bus;15;Ballycullen Rd.;Clongriffin
5826896;"{\"type\":\"LineString\",\"coordinates\":[[-6.265404,53.3414662],[-6.2653785,53.3415003],[-6.2651756,53.3416728],[-6.2647743,53.3420481],[-6.2646944,53.3421317],[-6.2646287,53.3422258],[-6.2645738,53.342338],[-6.2645185,53.3424536]]}";23;South Great George's Street;3;30;false;false;true;false;false;false;127.0;1;0;0;0;0;false;4528;778699194;-6.2645541;53.328936;497;249429127;-6.250723;53.3504995;0;2;3;7389000;Bus 15: Ballycullen Rd. => Clongriffin;"";Dublin Bus;15;Ballycullen Rd.;Clongriffin
369564011;"{\"type\":\"LineString\",\"coordinates\":[[-6.2645185,53.3424536],[-6.26447,53.3425848],[-6.2644369,53.3427788],[-6.2644216,53.3429968]]}";24;South Great George's Street;3;30;false;false;true;false;false;false;62.0;0;0;0;0;0;false;4528;778699194;-6.2645541;53.328936;497;249429127;-6.250723;53.3504995;0;2;3;7389000;Bus 15: Ballycullen Rd. => Clongriffin;"";Dublin Bus;15;Ballycullen Rd.;Clongriffin
317003249;"{\"type\":\"LineString\",\"coordinates\":[[-6.2644216,53.3429968],[-6.264419,53.3430446],[-6.2644192,53.3430603],[-6.2644271,53.3435595],[-6.26444,53.3438399],[-6.2644509,53.3441775]]}";25;South Great George's Street;3;30;false;false;true;false;false;false;133.0;1;1;0;0;0;false;4528;778699194;-6.2645541;53.328936;497;249429127;-6.250723;53.3504995;0;2;3;7389000;Bus 15: Ballycullen Rd. => Clongriffin;"";Dublin Bus;15;Ballycullen Rd.;Clongriffin
3791745;"{\"type\":\"LineString\",\"coordinates\":[[-6.2644509,53.3441775],[-6.2642788,53.3441799],[-6.26387,53.3441912],[-6.263792,53.3441935],[-6.2633394,53.3442105],[-6.2626055,53.34424],[-6.2624409,53.344246]]}";26;Dame Street;4;30;false;false;true;false;false;false;135.0;1;0;0;0;0;false;4528;778699194;-6.2645541;53.328936;497;249429127;-6.250723;53.3504995;0;2;3;7389000;Bus 15: Ballycullen Rd. => Clongriffin;"";Dublin Bus;15;Ballycullen Rd.;Clongriffin
304634278;"{\"type\":\"LineString\",\"coordinates\":[[-6.2624409,53.344246],[-6.2621664,53.3442638],[-6.2618465,53.3442846]]}";27;College Green;4;30;false;false;true;false;false;false;41.0;0;1;0;0;0;false;4528;778699194;-6.2645541;53.328936;497;249429127;-6.250723;53.3504995;0;2;3;7389000;Bus 15: Ballycullen Rd. => Clongriffin;"";Dublin Bus;15;Ballycullen Rd.;Clongriffin
4476043;"{\"type\":\"LineString\",\"coordinates\":[[-6.2618465,53.3442846],[-6.2613411,53.3443634],[-6.2611187,53.3443923],[-6.2609368,53.344416],[-6.260868,53.3444237]]}";28;College Green;2;30;false;true;true;false;false;false;68.0;0;1;0;0;0;false;4528;778699194;-6.2645541;53.328936;497;249429127;-6.250723;53.3504995;0;2;3;7389000;Bus 15: Ballycullen Rd. => Clongriffin;"";Dublin Bus;15;Ballycullen Rd.;Clongriffin
4476041;"{\"type\":\"LineString\",\"coordinates\":[[-6.260868,53.3444237],[-6.2602695,53.3444626],[-6.260186,53.3444694],[-6.2600844,53.3444774],[-6.259977,53.3444838]]}";29;College Green;2;30;false;true;true;false;false;false;61.0;0;0;0;0;0;false;4528;778699194;-6.2645541;53.328936;497;249429127;-6.250723;53.3504995;0;2;3;7389000;Bus 15: Ballycullen Rd. => Clongriffin;"";Dublin Bus;15;Ballycullen Rd.;Clongriffin
55979303;"{\"type\":\"LineString\",\"coordinates\":[[-6.259977,53.3444838],[-6.259922,53.3444923],[-6.2597771,53.3445198],[-6.259706,53.3445363],[-6.2596846,53.3445428],[-6.2595472,53.344589]]}";30;College Green;1;30;false;true;true;false;false;false;32.0;1;1;0;0;0;false;4528;778699194;-6.2645541;53.328936;497;249429127;-6.250723;53.3504995;0;2;3;7389000;Bus 15: Ballycullen Rd. => Clongriffin;"";Dublin Bus;15;Ballycullen Rd.;Clongriffin
68747753;"{\"type\":\"LineString\",\"coordinates\":[[-6.2595472,53.344589],[-6.2595095,53.3446074],[-6.2593771,53.344684]]}";31;College Green;1;30;false;true;true;false;false;false;16.0;0;0;0;0;0;false;4528;778699194;-6.2645541;53.328936;497;249429127;-6.250723;53.3504995;0;2;3;7389000;Bus 15: Ballycullen Rd. => Clongriffin;"";Dublin Bus;15;Ballycullen Rd.;Clongriffin
4475677;"{\"type\":\"LineString\",\"coordinates\":[[-6.2593771,53.344684],[-6.2592915,53.3447707],[-6.259227,53.3448434]]}";32;College Green;3;30;false;false;true;false;false;false;21.0;0;0;0;0;0;false;4528;778699194;-6.2645541;53.328936;497;249429127;-6.250723;53.3504995;0;2;3;7389000;Bus 15: Ballycullen Rd. => Clongriffin;"";Dublin Bus;15;Ballycullen Rd.;Clongriffin
24953749;"{\"type\":\"LineString\",\"coordinates\":[[-6.259227,53.3448434],[-6.2591901,53.3449181],[-6.2591764,53.3449632],[-6.2591547,53.3450569],[-6.2591382,53.3452495],[-6.2591475,53.3453253]]}";33;Westmoreland Street;1;30;false;true;true;false;false;false;55.0;1;1;0;0;0;false;4528;778699194;-6.2645541;53.328936;497;249429127;-6.250723;53.3504995;0;2;3;7389000;Bus 15: Ballycullen Rd. => Clongriffin;"";Dublin Bus;15;Ballycullen Rd.;Clongriffin
488735970;"{\"type\":\"LineString\",\"coordinates\":[[-6.2591475,53.3453253],[-6.2591428,53.3456406],[-6.2591418,53.3456882]]}";34;Westmoreland Street;3;30;false;true;true;false;false;false;41.0;1;0;0;0;0;false;4528;778699194;-6.2645541;53.328936;497;249429127;-6.250723;53.3504995;0;2;3;7389000;Bus 15: Ballycullen Rd. => Clongriffin;"";Dublin Bus;15;Ballycullen Rd.;Clongriffin
675882488;"{\"type\":\"LineString\",\"coordinates\":[[-6.2591418,53.3456882],[-6.2591395,53.3458327],[-6.2591388,53.3458795],[-6.2591385,53.3458965],[-6.2591326,53.3462654],[-6.2591279,53.3465631],[-6.2591207,53.3468036]]}";35;Westmoreland Street;3;30;false;true;true;false;false;false;125.0;0;2;0;0;0;false;4528;778699194;-6.2645541;53.328936;497;249429127;-6.250723;53.3504995;0;2;3;7389000;Bus 15: Ballycullen Rd. => Clongriffin;"";Dublin Bus;15;Ballycullen Rd.;Clongriffin
488735972;"{\"type\":\"LineString\",\"coordinates\":[[-6.2591207,53.3468036],[-6.25911,53.3469351]]}";36;Westmoreland Street;3;30;false;true;true;false;false;false;15.0;1;1;0;0;0;false;4528;778699194;-6.2645541;53.328936;497;249429127;-6.250723;53.3504995;0;2;3;7389000;Bus 15: Ballycullen Rd. => Clongriffin;"";Dublin Bus;15;Ballycullen Rd.;Clongriffin
23920340;"{\"type\":\"LineString\",\"coordinates\":[[-6.25911,53.3469351],[-6.2591077,53.3469658],[-6.259105,53.3469963],[-6.2591073,53.3470255],[-6.2591091,53.3470394]]}";37;O'Connell Bridge;4;30;false;true;true;false;false;false;12.0;1;0;0;0;0;false;4528;778699194;-6.2645541;53.328936;497;249429127;-6.250723;53.3504995;0;2;3;7389000;Bus 15: Ballycullen Rd. => Clongriffin;"";Dublin Bus;15;Ballycullen Rd.;Clongriffin
585256046;"{\"type\":\"LineString\",\"coordinates\":[[-6.2591091,53.3470394],[-6.2591165,53.3470523],[-6.2593219,53.3474353],[-6.2593277,53.3474463]]}";38;O'Connell Bridge;4;30;false;true;true;false;false;false;48.0;0;0;0;0;0;false;4528;778699194;-6.2645541;53.328936;497;249429127;-6.250723;53.3504995;0;2;3;7389000;Bus 15: Ballycullen Rd. => Clongriffin;"";Dublin Bus;15;Ballycullen Rd.;Clongriffin
585256047;"{\"type\":\"LineString\",\"coordinates\":[[-6.2593277,53.3474463],[-6.2593376,53.3474646],[-6.2593486,53.3474852],[-6.2593766,53.3475251]]}";39;O'Connell Bridge;2;30;false;true;true;false;false;false;10.0;0;0;0;0;0;false;4528;778699194;-6.2645541;53.328936;497;249429127;-6.250723;53.3504995;0;2;3;7389000;Bus 15: Ballycullen Rd. => Clongriffin;"";Dublin Bus;15;Ballycullen Rd.;Clongriffin
585508291;"{\"type\":\"LineString\",\"coordinates\":[[-6.2593766,53.3475251],[-6.2593657,53.3475277],[-6.2593198,53.3475387]]}";40;Bachelors Walk;1;30;false;true;true;false;false;false;5.0;1;0;0;0;0;false;4528;778699194;-6.2645541;53.328936;497;249429127;-6.250723;53.3504995;0;2;3;7389000;Bus 15: Ballycullen Rd. => Clongriffin;"";Dublin Bus;15;Ballycullen Rd.;Clongriffin
4401701;"{\"type\":\"LineString\",\"coordinates\":[[-6.2593198,53.3475387],[-6.2592619,53.3475525]]}";41;Bachelor's Walk;1;30;false;true;true;false;false;false;5.0;1;0;0;0;0;false;4528;778699194;-6.2645541;53.328936;497;249429127;-6.250723;53.3504995;0;2;3;7389000;Bus 15: Ballycullen Rd. => Clongriffin;"";Dublin Bus;15;Ballycullen Rd.;Clongriffin
717426630;"{\"type\":\"LineString\",\"coordinates\":[[-6.2592619,53.3475525],[-6.2591013,53.3475905]]}";42;Bachelor's Walk;1;30;false;true;true;false;false;false;12.0;1;0;0;0;0;false;4528;778699194;-6.2645541;53.328936;497;249429127;-6.250723;53.3504995;0;2;3;7389000;Bus 15: Ballycullen Rd. => Clongriffin;"";Dublin Bus;15;Ballycullen Rd.;Clongriffin
3788065;"{\"type\":\"LineString\",\"coordinates\":[[-6.2591013,53.3475905],[-6.2589759,53.3476208],[-6.2586239,53.3477049],[-6.2583905,53.3477594]]}";43;Eden Quay;2;30;false;true;true;false;false;false;52.0;1;1;0;0;0;false;4528;778699194;-6.2645541;53.328936;497;249429127;-6.250723;53.3504995;0;2;3;7389000;Bus 15: Ballycullen Rd. => Clongriffin;"";Dublin Bus;15;Ballycullen Rd.;Clongriffin
70410612;"{\"type\":\"LineString\",\"coordinates\":[[-6.2583905,53.3477594],[-6.2576656,53.3479096],[-6.2576104,53.3479201],[-6.2573793,53.3479618],[-6.2573305,53.3479706]]}";44;Eden Quay;2;30;false;true;true;false;false;false;75.0;1;1;0;0;0;false;4528;778699194;-6.2645541;53.328936;497;249429127;-6.250723;53.3504995;0;2;3;7389000;Bus 15: Ballycullen Rd. => Clongriffin;"";Dublin Bus;15;Ballycullen Rd.;Clongriffin
285487940;"{\"type\":\"LineString\",\"coordinates\":[[-6.2573305,53.3479706],[-6.2571141,53.3480063],[-6.2557574,53.3482121]]}";45;Eden Quay;2;30;false;true;true;false;false;false;109.0;0;1;0;0;0;false;4528;778699194;-6.2645541;53.328936;497;249429127;-6.250723;53.3504995;0;2;3;7389000;Bus 15: Ballycullen Rd. => Clongriffin;"";Dublin Bus;15;Ballycullen Rd.;Clongriffin
229727179;"{\"type\":\"LineString\",\"coordinates\":[[-6.2557574,53.3482121],[-6.2551721,53.3483343],[-6.2551524,53.3483442],[-6.2549481,53.3484474]]}";46;Eden Quay;2;30;false;true;true;false;false;false;62.0;0;1;0;0;0;false;4528;778699194;-6.2645541;53.328936;497;249429127;-6.250723;53.3504995;0;2;3;7389000;Bus 15: Ballycullen Rd. => Clongriffin;"";Dublin Bus;15;Ballycullen Rd.;Clongriffin
3789703;"{\"type\":\"LineString\",\"coordinates\":[[-6.2549481,53.3484474],[-6.2549494,53.3485299],[-6.2549455,53.3486352],[-6.254946,53.3486617]]}";47;Beresford Place;4;50;false;true;true;false;false;false;25.0;0;0;0;0;0;false;4528;778699194;-6.2645541;53.328936;497;249429127;-6.250723;53.3504995;0;2;3;7389000;Bus 15: Ballycullen Rd. => Clongriffin;"";Dublin Bus;15;Ballycullen Rd.;Clongriffin
41851537;"{\"type\":\"LineString\",\"coordinates\":[[-6.254946,53.3486617],[-6.2546727,53.3490413],[-6.254637,53.3490672]]}";48;Beresford Place;2;50;false;true;true;false;false;false;51.0;1;0;0;0;0;false;4528;778699194;-6.2645541;53.328936;497;249429127;-6.250723;53.3504995;0;2;3;7389000;Bus 15: Ballycullen Rd. => Clongriffin;"";Dublin Bus;15;Ballycullen Rd.;Clongriffin
768702579;"{\"type\":\"LineString\",\"coordinates\":[[-6.254637,53.3490672],[-6.2545394,53.349138],[-6.254395,53.349195]]}";49;Beresford Place;2;50;false;true;true;false;false;false;22.0;0;0;0;0;0;false;4528;778699194;-6.2645541;53.328936;497;249429127;-6.250723;53.3504995;0;2;3;7389000;Bus 15: Ballycullen Rd. => Clongriffin;"";Dublin Bus;15;Ballycullen Rd.;Clongriffin
474506101;"{\"type\":\"LineString\",\"coordinates\":[[-6.254395,53.349195],[-6.2538579,53.3493391],[-6.2535621,53.3493945],[-6.2534785,53.3494054],[-6.2533276,53.3494209]]}";50;Beresford Place;2;50;false;true;true;false;false;false;77.0;0;0;0;0;0;false;4528;778699194;-6.2645541;53.328936;497;249429127;-6.250723;53.3504995;0;2;3;7389000;Bus 15: Ballycullen Rd. => Clongriffin;"";Dublin Bus;15;Ballycullen Rd.;Clongriffin
83806415;"{\"type\":\"LineString\",\"coordinates\":[[-6.2533276,53.3494209],[-6.2532096,53.3494338],[-6.252925,53.3494562],[-6.2526505,53.3494455]]}";51;Beresford Place;4;50;false;true;true;false;false;false;46.0;0;0;0;0;0;false;4528;778699194;-6.2645541;53.328936;497;249429127;-6.250723;53.3504995;0;2;3;7389000;Bus 15: Ballycullen Rd. => Clongriffin;"";Dublin Bus;15;Ballycullen Rd.;Clongriffin
49961185;"{\"type\":\"LineString\",\"coordinates\":[[-6.2526505,53.3494455],[-6.2523082,53.3493942]]}";52;Memorial Road;4;50;false;true;true;false;false;false;24.0;0;0;0;0;0;false;4528;778699194;-6.2645541;53.328936;497;249429127;-6.250723;53.3504995;0;2;3;7389000;Bus 15: Ballycullen Rd. => Clongriffin;"";Dublin Bus;15;Ballycullen Rd.;Clongriffin
114207515;"{\"type\":\"LineString\",\"coordinates\":[[-6.2523082,53.3493942],[-6.2522257,53.3493837],[-6.2520191,53.3493614],[-6.2517991,53.3493568],[-6.2516364,53.3493856],[-6.2514792,53.3494368]]}";53;Amiens Street;2;50;false;true;true;false;false;false;58.0;0;1;0;0;0;false;4528;778699194;-6.2645541;53.328936;497;249429127;-6.250723;53.3504995;0;2;3;7389000;Bus 15: Ballycullen Rd. => Clongriffin;"";Dublin Bus;15;Ballycullen Rd.;Clongriffin
4385840;"{\"type\":\"LineString\",\"coordinates\":[[-6.2509814,53.3498562],[-6.2510383,53.3497894],[-6.2510776,53.3497433],[-6.2511441,53.3496709],[-6.2514792,53.3494368]]}";54;Amiens Street;5;50;false;false;true;false;false;false;58.0;1;0;0;0;0;false;4528;778699194;-6.2645541;53.328936;497;249429127;-6.250723;53.3504995;0;2;3;7389000;Bus 15: Ballycullen Rd. => Clongriffin;"";Dublin Bus;15;Ballycullen Rd.;Clongriffin
4263427;"{\"type\":\"LineString\",\"coordinates\":[[-6.2509814,53.3498562],[-6.250932,53.3499211],[-6.2509252,53.3499319],[-6.2509193,53.3499412],[-6.2508963,53.3499778],[-6.2508905,53.349988],[-6.2508232,53.3501058],[-6.2507515,53.3502263],[-6.250693,53.3503237],[-6.2506765,53.3503501],[-6.2506075,53.3504606],[-6.2505976,53.3504764]]}";55;Amiens Street;4;50;false;false;true;false;false;false;37.5;1;0;0;0;0;false;4528;778699194;-6.2645541;53.328936;497;249429127;-6.250723;53.3504995;1;2;3;7389000;Bus 15: Ballycullen Rd. => Clongriffin;"";Dublin Bus;15;Ballycullen Rd.;Clongriffin
4263427;"{\"type\":\"LineString\",\"coordinates\":[[-6.2509814,53.3498562],[-6.250932,53.3499211],[-6.2509252,53.3499319],[-6.2509193,53.3499412],[-6.2508963,53.3499778],[-6.2508905,53.349988],[-6.2508232,53.3501058],[-6.2507515,53.3502263],[-6.250693,53.3503237],[-6.2506765,53.3503501],[-6.2506075,53.3504606],[-6.2505976,53.3504764]]}";1;Amiens Street;4;50;false;false;true;false;false;false;75.0;1;0;0;0;0;false;497;249429127;-6.250723;53.3504995;515;249429116;-6.2481829;53.3534668;2;3;4;7389000;Bus 15: Ballycullen Rd. => Clongriffin;"";Dublin Bus;15;Ballycullen Rd.;Clongriffin
627577866;"{\"type\":\"LineString\",\"coordinates\":[[-6.2505976,53.3504764],[-6.2505313,53.3505804],[-6.2504947,53.3506378],[-6.2502891,53.3509732],[-6.250277,53.350993],[-6.2501154,53.3512846],[-6.2500678,53.3513705]]}";2;Amiens Street;4;50;false;false;true;false;false;false;107.0;1;1;0;0;0;false;497;249429127;-6.250723;53.3504995;515;249429116;-6.2481829;53.3534668;0;3;4;7389000;Bus 15: Ballycullen Rd. => Clongriffin;"";Dublin Bus;15;Ballycullen Rd.;Clongriffin
37865178;"{\"type\":\"LineString\",\"coordinates\":[[-6.2500678,53.3513705],[-6.2500118,53.3514696],[-6.2498406,53.3517174],[-6.2497435,53.3518457]]}";3;Amiens Street;5;50;false;false;true;false;false;false;58.0;1;0;0;0;0;false;497;249429127;-6.250723;53.3504995;515;249429116;-6.2481829;53.3534668;0;3;4;7389000;Bus 15: Ballycullen Rd. => Clongriffin;"";Dublin Bus;15;Ballycullen Rd.;Clongriffin
37865179;"{\"type\":\"LineString\",\"coordinates\":[[-6.2497435,53.3518457],[-6.2497261,53.351872],[-6.2494985,53.3521529]]}";4;Amiens Street;4;50;false;false;true;false;false;false;39.0;0;0;0;0;0;false;497;249429127;-6.250723;53.3504995;515;249429116;-6.2481829;53.3534668;0;3;4;7389000;Bus 15: Ballycullen Rd. => Clongriffin;"";Dublin Bus;15;Ballycullen Rd.;Clongriffin
37865180;"{\"type\":\"LineString\",\"coordinates\":[[-6.2494985,53.3521529],[-6.249236,53.3524035],[-6.2489537,53.3526565],[-6.2488824,53.3527225]]}";5;Amiens Street;3;50;false;false;true;false;false;false;77.0;0;1;0;0;0;false;497;249429127;-6.250723;53.3504995;515;249429116;-6.2481829;53.3534668;0;3;4;7389000;Bus 15: Ballycullen Rd. => Clongriffin;"";Dublin Bus;15;Ballycullen Rd.;Clongriffin
520012242;"{\"type\":\"LineString\",\"coordinates\":[[-6.2488824,53.3527225],[-6.2487534,53.3528355],[-6.2486188,53.3529497]]}";6;Amiens Street;3;50;false;false;true;false;false;false;31.0;0;0;0;0;0;false;497;249429127;-6.250723;53.3504995;515;249429116;-6.2481829;53.3534668;0;3;4;7389000;Bus 15: Ballycullen Rd. => Clongriffin;"";Dublin Bus;15;Ballycullen Rd.;Clongriffin
354359922;"{\"type\":\"LineString\",\"coordinates\":[[-6.2486188,53.3529497],[-6.2482417,53.3532579]]}";7;Amiens Street;3;50;false;false;true;false;false;false;43.0;0;0;0;0;0;false;497;249429127;-6.250723;53.3504995;515;249429116;-6.2481829;53.3534668;0;3;4;7389000;Bus 15: Ballycullen Rd. => Clongriffin;"";Dublin Bus;15;Ballycullen Rd.;Clongriffin
354359921;"{\"type\":\"LineString\",\"coordinates\":[[-6.2482417,53.3532579],[-6.2480663,53.3534157],[-6.2479425,53.3535212],[-6.2477435,53.3537091],[-6.2476425,53.3538045],[-6.2474421,53.3539932],[-6.2467814,53.3546178],[-6.2466832,53.3547073]]}";8;Amiens Street;4;50;false;false;true;false;false;false;194.0;1;0;0;0;0;false;497;249429127;-6.250723;53.3504995;515;249429116;-6.2481829;53.3534668;2;3;4;7389000;Bus 15: Ballycullen Rd. => Clongriffin;"";Dublin Bus;15;Ballycullen Rd.;Clongriffin
354359921;"{\"type\":\"LineString\",\"coordinates\":[[-6.2482417,53.3532579],[-6.2480663,53.3534157],[-6.2479425,53.3535212],[-6.2477435,53.3537091],[-6.2476425,53.3538045],[-6.2474421,53.3539932],[-6.2467814,53.3546178],[-6.2466832,53.3547073]]}";1;Amiens Street;4;50;false;false;true;false;false;false;97.0;1;0;0;0;0;false;515;249429116;-6.2481829;53.3534668;516;3477753537;-6.2457032;53.3556769;1;4;5;7389000;Bus 15: Ballycullen Rd. => Clongriffin;"";Dublin Bus;15;Ballycullen Rd.;Clongriffin
130277328;"{\"type\":\"LineString\",\"coordinates\":[[-6.2466832,53.3547073],[-6.2464207,53.3549463],[-6.246288,53.3550671]]}";2;North Strand Road;4;50;false;false;true;false;false;false;49.0;1;0;0;0;0;false;515;249429116;-6.2481829;53.3534668;516;3477753537;-6.2457032;53.3556769;0;4;5;7389000;Bus 15: Ballycullen Rd. => Clongriffin;"";Dublin Bus;15;Ballycullen Rd.;Clongriffin
37866821;"{\"type\":\"LineString\",\"coordinates\":[[-6.246288,53.3550671],[-6.2461724,53.355154],[-6.2455796,53.3555999],[-6.2454208,53.3557193],[-6.2451039,53.3559576]]}";3;North Strand Road;4;50;false;false;true;false;false;false;64.0;0;0;0;0;0;false;515;249429116;-6.2481829;53.3534668;516;3477753537;-6.2457032;53.3556769;1;4;5;7389000;Bus 15: Ballycullen Rd. => Clongriffin;"";Dublin Bus;15;Ballycullen Rd.;Clongriffin
37866821;"{\"type\":\"LineString\",\"coordinates\":[[-6.246288,53.3550671],[-6.2461724,53.355154],[-6.2455796,53.3555999],[-6.2454208,53.3557193],[-6.2451039,53.3559576]]}";1;North Strand Road;4;50;false;false;true;false;false;false;64.0;0;0;0;0;0;false;516;3477753537;-6.2457032;53.3556769;4384;249428137;-6.2426969;53.3576664;1;5;6;7389000;Bus 15: Ballycullen Rd. => Clongriffin;"";Dublin Bus;15;Ballycullen Rd.;Clongriffin
37720965;"{\"type\":\"LineString\",\"coordinates\":[[-6.2451039,53.3559576],[-6.2448331,53.3561421],[-6.2446829,53.3562416],[-6.244431,53.3564115]]}";2;North Strand Road;4;50;false;false;true;false;false;false;68.0;0;0;0;0;0;false;516;3477753537;-6.2457032;53.3556769;4384;249428137;-6.2426969;53.3576664;0;5;6;7389000;Bus 15: Ballycullen Rd. => Clongriffin;"";Dublin Bus;15;Ballycullen Rd.;Clongriffin
502143950;"{\"type\":\"LineString\",\"coordinates\":[[-6.244431,53.3564115],[-6.2443719,53.3564514]]}";3;North Strand Road;4;50;false;false;true;false;false;false;6.0;0;0;0;0;0;false;516;3477753537;-6.2457032;53.3556769;4384;249428137;-6.2426969;53.3576664;0;5;6;7389000;Bus 15: Ballycullen Rd. => Clongriffin;"";Dublin Bus;15;Ballycullen Rd.;Clongriffin
317219095;"{\"type\":\"LineString\",\"coordinates\":[[-6.2442572,53.356529],[-6.2443719,53.3564514]]}";4;Newcomen Bridge;4;50;false;false;true;false;false;false;12.0;0;0;0;0;0;false;516;3477753537;-6.2457032;53.3556769;4384;249428137;-6.2426969;53.3576664;0;5;6;7389000;Bus 15: Ballycullen Rd. => Clongriffin;"";Dublin Bus;15;Ballycullen Rd.;Clongriffin
482926564;"{\"type\":\"LineString\",\"coordinates\":[[-6.2442545,53.3565305],[-6.2442572,53.356529]]}";5;North Strand Road;4;50;false;false;true;false;false;false;1.0;0;0;0;0;0;false;516;3477753537;-6.2457032;53.3556769;4384;249428137;-6.2426969;53.3576664;0;5;6;7389000;Bus 15: Ballycullen Rd. => Clongriffin;"";Dublin Bus;15;Ballycullen Rd.;Clongriffin
128947808;"{\"type\":\"LineString\",\"coordinates\":[[-6.2440112,53.3566966],[-6.2441549,53.3565972],[-6.2442545,53.3565305]]}";6;North Strand Road;4;50;false;false;true;false;false;false;25.0;0;0;0;0;0;false;516;3477753537;-6.2457032;53.3556769;4384;249428137;-6.2426969;53.3576664;0;5;6;7389000;Bus 15: Ballycullen Rd. => Clongriffin;"";Dublin Bus;15;Ballycullen Rd.;Clongriffin
4287187;"{\"type\":\"LineString\",\"coordinates\":[[-6.2440112,53.3566966],[-6.2439907,53.3567109],[-6.2439701,53.3567252],[-6.2438134,53.3568295],[-6.2433013,53.3571552],[-6.2428201,53.3574756],[-6.2427373,53.3575342],[-6.2426136,53.3576186],[-6.242318,53.3578072],[-6.242179,53.3578988],[-6.2420588,53.3579854],[-6.2416794,53.3582301],[-6.2411525,53.3586229]]}";7;North Strand Road;4;50;false;false;true;false;false;false;144.5;1;0;0;0;0;false;516;3477753537;-6.2457032;53.3556769;4384;249428137;-6.2426969;53.3576664;1;5;6;7389000;Bus 15: Ballycullen Rd. => Clongriffin;"";Dublin Bus;15;Ballycullen Rd.;Clongriffin
4287187;"{\"type\":\"LineString\",\"coordinates\":[[-6.2440112,53.3566966],[-6.2439907,53.3567109],[-6.2439701,53.3567252],[-6.2438134,53.3568295],[-6.2433013,53.3571552],[-6.2428201,53.3574756],[-6.2427373,53.3575342],[-6.2426136,53.3576186],[-6.242318,53.3578072],[-6.242179,53.3578988],[-6.2420588,53.3579854],[-6.2416794,53.3582301],[-6.2411525,53.3586229]]}";1;North Strand Road;4;50;false;false;true;false;false;false;144.5;1;0;0;0;0;false;4384;249428137;-6.2426969;53.3576664;519;249455004;-6.2395616;53.3602981;1;6;7;7389000;Bus 15: Ballycullen Rd. => Clongriffin;"";Dublin Bus;15;Ballycullen Rd.;Clongriffin
375581291;"{\"type\":\"LineString\",\"coordinates\":[[-6.2411525,53.3586229],[-6.2410033,53.3587408],[-6.2407429,53.3589741],[-6.2406104,53.3591044]]}";2;North Strand Road;4;50;false;false;true;false;false;false;66.0;0;0;0;0;0;false;4384;249428137;-6.2426969;53.3576664;519;249455004;-6.2395616;53.3602981;0;6;7;7389000;Bus 15: Ballycullen Rd. => Clongriffin;"";Dublin Bus;15;Ballycullen Rd.;Clongriffin
375581292;"{\"type\":\"LineString\",\"coordinates\":[[-6.2406104,53.3591044],[-6.2405626,53.3591582],[-6.2403848,53.3593319]]}";3;North Strand Road;4;50;false;false;true;false;false;false;30.0;0;0;0;0;0;false;4384;249428137;-6.2426969;53.3576664;519;249455004;-6.2395616;53.3602981;0;6;7;7389000;Bus 15: Ballycullen Rd. => Clongriffin;"";Dublin Bus;15;Ballycullen Rd.;Clongriffin
481221022;"{\"type\":\"LineString\",\"coordinates\":[[-6.2403848,53.3593319],[-6.2402921,53.3594225]]}";4;North Strand Road;4;50;false;false;true;false;false;false;12.0;1;0;0;0;0;false;4384;249428137;-6.2426969;53.3576664;519;249455004;-6.2395616;53.3602981;0;6;7;7389000;Bus 15: Ballycullen Rd. => Clongriffin;"";Dublin Bus;15;Ballycullen Rd.;Clongriffin
37691265;"{\"type\":\"LineString\",\"coordinates\":[[-6.2402921,53.3594225],[-6.2401285,53.3595559],[-6.2399931,53.3596662]]}";5;North Strand Road;1;50;false;false;true;false;false;false;34.0;1;1;0;0;0;false;4384;249428137;-6.2426969;53.3576664;519;249455004;-6.2395616;53.3602981;0;6;7;7389000;Bus 15: Ballycullen Rd. => Clongriffin;"";Dublin Bus;15;Ballycullen Rd.;Clongriffin
37812705;"{\"type\":\"LineString\",\"coordinates\":[[-6.2399931,53.3596662],[-6.2398718,53.3597745],[-6.2397449,53.3598965],[-6.2395592,53.3600684],[-6.2393619,53.3602691]]}";6;North Strand Road;6;50;false;false;true;false;false;false;40.0;0;0;0;0;0;false;4384;249428137;-6.2426969;53.3576664;519;249455004;-6.2395616;53.3602981;1;6;7;7389000;Bus 15: Ballycullen Rd. => Clongriffin;"";Dublin Bus;15;Ballycullen Rd.;Clongriffin
37096954;"{\"type\":\"LineString\",\"coordinates\":[[-6.2393619,53.3602691],[-6.2393368,53.3602973],[-6.2390148,53.3606292]]}";1;North Strand Road;5;50;false;false;true;false;false;false;47.0;1;0;0;0;0;false;519;249455004;-6.2395616;53.3602981;521;681751693;-6.2379476;53.3616457;2;7;8;7389000;Bus 15: Ballycullen Rd. => Clongriffin;"";Dublin Bus;15;Ballycullen Rd.;Clongriffin
4937390;"{\"type\":\"LineString\",\"coordinates\":[[-6.2390148,53.3606292],[-6.2389493,53.3606838]]}";2;Annesley Bridge Road;5;50;false;false;true;false;false;false;8.0;1;0;0;0;0;false;519;249455004;-6.2395616;53.3602981;521;681751693;-6.2379476;53.3616457;0;7;8;7389000;Bus 15: Ballycullen Rd. => Clongriffin;"";Dublin Bus;15;Ballycullen Rd.;Clongriffin
4937391;"{\"type\":\"LineString\",\"coordinates\":[[-6.2389493,53.3606838],[-6.2387285,53.3608653]]}";3;Annesley Bridge;5;50;false;false;true;false;false;false;26.0;0;0;0;0;0;false;519;249455004;-6.2395616;53.3602981;521;681751693;-6.2379476;53.3616457;0;7;8;7389000;Bus 15: Ballycullen Rd. => Clongriffin;"";Dublin Bus;15;Ballycullen Rd.;Clongriffin
317219085;"{\"type\":\"LineString\",\"coordinates\":[[-6.2387285,53.3608653],[-6.2386869,53.3608994]]}";4;Annesley Bridge;5;50;false;false;true;false;false;false;5.0;0;0;0;0;0;false;519;249455004;-6.2395616;53.3602981;521;681751693;-6.2379476;53.3616457;0;7;8;7389000;Bus 15: Ballycullen Rd. => Clongriffin;"";Dublin Bus;15;Ballycullen Rd.;Clongriffin
379071734;"{\"type\":\"LineString\",\"coordinates\":[[-6.2386869,53.3608994],[-6.2385622,53.3610019]]}";5;Annesley Bridge;5;50;false;false;true;false;false;false;15.0;0;0;0;0;0;false;519;249455004;-6.2395616;53.3602981;521;681751693;-6.2379476;53.3616457;0;7;8;7389000;Bus 15: Ballycullen Rd. => Clongriffin;"";Dublin Bus;15;Ballycullen Rd.;Clongriffin
4287188;"{\"type\":\"LineString\",\"coordinates\":[[-6.2385622,53.3610019],[-6.2384712,53.361078],[-6.2384312,53.3611116],[-6.2381319,53.3613631],[-6.2378516,53.3615991],[-6.2376588,53.3617555],[-6.2374039,53.3619789],[-6.2368792,53.3624417]]}";6;Annesley Bridge Road;5;50;false;false;true;false;false;false;197.0;0;0;0;0;0;false;519;249455004;-6.2395616;53.3602981;521;681751693;-6.2379476;53.3616457;2;7;8;7389000;Bus 15: Ballycullen Rd. => Clongriffin;"";Dublin Bus;15;Ballycullen Rd.;Clongriffin
4287188;"{\"type\":\"LineString\",\"coordinates\":[[-6.2385622,53.3610019],[-6.2384712,53.361078],[-6.2384312,53.3611116],[-6.2381319,53.3613631],[-6.2378516,53.3615991],[-6.2376588,53.3617555],[-6.2374039,53.3619789],[-6.2368792,53.3624417]]}";1;Annesley Bridge Road;5;50;false;false;true;false;false;false;98.5;0;0;0;0;0;false;521;681751693;-6.2379476;53.3616457;522;249426898;-6.2352414;53.3633034;1;8;9;7389000;Bus 15: Ballycullen Rd. => Clongriffin;"";Dublin Bus;15;Ballycullen Rd.;Clongriffin
442928296;"{\"type\":\"LineString\",\"coordinates\":[[-6.2368792,53.3624417],[-6.2366371,53.362675],[-6.2364566,53.362849]]}";2;Annesley Bridge Road;4;50;false;false;true;false;false;false;54.0;1;0;0;0;0;false;521;681751693;-6.2379476;53.3616457;522;249426898;-6.2352414;53.3633034;0;8;9;7389000;Bus 15: Ballycullen Rd. => Clongriffin;"";Dublin Bus;15;Ballycullen Rd.;Clongriffin
22716429;"{\"type\":\"LineString\",\"coordinates\":[[-6.2364566,53.362849],[-6.2359464,53.3630073],[-6.235517,53.36313],[-6.2351937,53.3632223],[-6.234743,53.3633522]]}";3;Fairview;5;50;false;false;true;false;false;false;64.0;1;0;0;0;0;false;521;681751693;-6.2379476;53.3616457;522;249426898;-6.2352414;53.3633034;1;8;9;7389000;Bus 15: Ballycullen Rd. => Clongriffin;"";Dublin Bus;15;Ballycullen Rd.;Clongriffin
22716429;"{\"type\":\"LineString\",\"coordinates\":[[-6.2364566,53.362849],[-6.2359464,53.3630073],[-6.235517,53.36313],[-6.2351937,53.3632223],[-6.234743,53.3633522]]}";1;Fairview;5;50;false;false;true;false;false;false;64.0;1;0;0;0;0;false;522;249426898;-6.2352414;53.3633034;523;249426548;-6.2316023;53.3642757;1;9;10;7389000;Bus 15: Ballycullen Rd. => Clongriffin;"";Dublin Bus;15;Ballycullen Rd.;Clongriffin
368990036;"{\"type\":\"LineString\",\"coordinates\":[[-6.234743,53.3633522],[-6.2342918,53.3634823],[-6.2335724,53.3636985],[-6.2332619,53.3637949]]}";2;Fairview;6;50;false;false;true;false;false;false;111.0;0;0;0;0;0;false;522;249426898;-6.2352414;53.3633034;523;249426548;-6.2316023;53.3642757;0;9;10;7389000;Bus 15: Ballycullen Rd. => Clongriffin;"";Dublin Bus;15;Ballycullen Rd.;Clongriffin
146465050;"{\"type\":\"LineString\",\"coordinates\":[[-6.2332619,53.3637949],[-6.2329627,53.3638733]]}";3;Marino Mart;5;50;false;false;true;false;false;false;22.0;0;0;0;0;0;false;522;249426898;-6.2352414;53.3633034;523;249426548;-6.2316023;53.3642757;0;9;10;7389000;Bus 15: Ballycullen Rd. => Clongriffin;"";Dublin Bus;15;Ballycullen Rd.;Clongriffin
197048019;"{\"type\":\"LineString\",\"coordinates\":[[-6.2329627,53.3638733],[-6.2327655,53.3639237],[-6.2326329,53.3639576],[-6.2318186,53.364153],[-6.2315617,53.3642009],[-6.2309918,53.3642942],[-6.2305584,53.3643355],[-6.2301531,53.3643532],[-6.2298176,53.3643593]]}";4;Marino Mart;6;50;false;false;true;false;false;false;110.0;1;0;0;0;0;false;522;249426898;-6.2352414;53.3633034;523;249426548;-6.2316023;53.3642757;1;9;10;7389000;Bus 15: Ballycullen Rd. => Clongriffin;"";Dublin Bus;15;Ballycullen Rd.;Clongriffin
197048019;"{\"type\":\"LineString\",\"coordinates\":[[-6.2329627,53.3638733],[-6.2327655,53.3639237],[-6.2326329,53.3639576],[-6.2318186,53.364153],[-6.2315617,53.3642009],[-6.2309918,53.3642942],[-6.2305584,53.3643355],[-6.2301531,53.3643532],[-6.2298176,53.3643593]]}";1;Marino Mart;6;50;false;false;true;false;false;false;110.0;1;0;0;0;0;false;523;249426548;-6.2316023;53.3642757;669;249426203;-6.2286847;53.3663202;1;10;11;7389000;Bus 15: Ballycullen Rd. => Clongriffin;"";Dublin Bus;15;Ballycullen Rd.;Clongriffin
3818324;"{\"type\":\"LineString\",\"coordinates\":[[-6.2298176,53.3643593],[-6.22963,53.3644894],[-6.2294875,53.364615],[-6.2294597,53.3646395],[-6.2293384,53.3647896],[-6.2292855,53.3648599]]}";2;Malahide Road;4;50;false;false;true;false;false;false;67.0;2;0;0;0;0;false;523;249426548;-6.2316023;53.3642757;669;249426203;-6.2286847;53.3663202;0;10;11;7389000;Bus 15: Ballycullen Rd. => Clongriffin;"";Dublin Bus;15;Ballycullen Rd.;Clongriffin
360696797;"{\"type\":\"LineString\",\"coordinates\":[[-6.2292855,53.3648599],[-6.2292127,53.3651874],[-6.2291433,53.3653726],[-6.2289794,53.3657324],[-6.2288907,53.3658899],[-6.2287939,53.3660445],[-6.2286036,53.3663091],[-6.2283054,53.3667262],[-6.2282882,53.3667522],[-6.228019,53.3671343],[-6.2278836,53.3673136],[-6.2277239,53.3674803],[-6.2275532,53.3676339],[-6.2274843,53.3676984],[-6.227407,53.3677631]]}";3;Malahide Road;3;50;false;false;false;false;false;false;176.0;1;0;0;0;0;false;523;249426548;-6.2316023;53.3642757;669;249426203;-6.2286847;53.3663202;1;10;11;7389000;Bus 15: Ballycullen Rd. => Clongriffin;"";Dublin Bus;15;Ballycullen Rd.;Clongriffin
360696797;"{\"type\":\"LineString\",\"coordinates\":[[-6.2292855,53.3648599],[-6.2292127,53.3651874],[-6.2291433,53.3653726],[-6.2289794,53.3657324],[-6.2288907,53.3658899],[-6.2287939,53.3660445],[-6.2286036,53.3663091],[-6.2283054,53.3667262],[-6.2282882,53.3667522],[-6.228019,53.3671343],[-6.2278836,53.3673136],[-6.2277239,53.3674803],[-6.2275532,53.3676339],[-6.2274843,53.3676984],[-6.227407,53.3677631]]}";1;Malahide Road;3;50;false;false;false;false;false;false;176.0;1;0;0;0;0;false;669;249426203;-6.2286847;53.3663202;670;1705715762;-6.2258818;53.369036;1;11;12;7389000;Bus 15: Ballycullen Rd. => Clongriffin;"";Dublin Bus;15;Ballycullen Rd.;Clongriffin
326993767;"{\"type\":\"LineString\",\"coordinates\":[[-6.227407,53.3677631],[-6.2273532,53.3678049]]}";2;Malahide Road;3;50;false;false;false;false;false;false;6.0;0;0;0;0;0;false;669;249426203;-6.2286847;53.3663202;670;1705715762;-6.2258818;53.369036;0;11;12;7389000;Bus 15: Ballycullen Rd. => Clongriffin;"";Dublin Bus;15;Ballycullen Rd.;Clongriffin
56760196;"{\"type\":\"LineString\",\"coordinates\":[[-6.2273532,53.3678049],[-6.2271191,53.3680074],[-6.2269107,53.3681727],[-6.2268155,53.3682409]]}";3;Malahide Road;2;50;false;true;false;false;false;false;61.0;0;0;0;0;0;false;669;249426203;-6.2286847;53.3663202;670;1705715762;-6.2258818;53.369036;0;11;12;7389000;Bus 15: Ballycullen Rd. => Clongriffin;"";Dublin Bus;15;Ballycullen Rd.;Clongriffin
378875552;"{\"type\":\"LineString\",\"coordinates\":[[-6.2268155,53.3682409],[-6.2265201,53.3684526],[-6.2263944,53.3685392]]}";4;Malahide Road;2;50;false;true;false;false;false;false;44.0;1;0;0;0;0;false;669;249426203;-6.2286847;53.3663202;670;1705715762;-6.2258818;53.369036;0;11;12;7389000;Bus 15: Ballycullen Rd. => Clongriffin;"";Dublin Bus;15;Ballycullen Rd.;Clongriffin
370960886;"{\"type\":\"LineString\",\"coordinates\":[[-6.2263944,53.3685392],[-6.2262352,53.3686574],[-6.2258012,53.3690018],[-6.2257597,53.3690347],[-6.2255993,53.3691792],[-6.2249087,53.3698795],[-6.2248501,53.3699389],[-6.2248209,53.3699685],[-6.2246647,53.3701268]]}";5;Malahide Road;2;50;false;true;false;false;false;false;106.5;1;1;0;0;0;false;669;249426203;-6.2286847;53.3663202;670;1705715762;-6.2258818;53.369036;1;11;12;7389000;Bus 15: Ballycullen Rd. => Clongriffin;"";Dublin Bus;15;Ballycullen Rd.;Clongriffin
370960886;"{\"type\":\"LineString\",\"coordinates\":[[-6.2263944,53.3685392],[-6.2262352,53.3686574],[-6.2258012,53.3690018],[-6.2257597,53.3690347],[-6.2255993,53.3691792],[-6.2249087,53.3698795],[-6.2248501,53.3699389],[-6.2248209,53.3699685],[-6.2246647,53.3701268]]}";1;Malahide Road;2;50;false;true;false;false;false;false;106.5;1;1;0;0;0;false;670;1705715762;-6.2258818;53.369036;671;1705715778;-6.2241657;53.3707027;1;12;13;7389000;Bus 15: Ballycullen Rd. => Clongriffin;"";Dublin Bus;15;Ballycullen Rd.;Clongriffin
368177064;"{\"type\":\"LineString\",\"coordinates\":[[-6.2246647,53.3701268],[-6.2241151,53.3706837],[-6.2240313,53.3707686],[-6.2239457,53.3708451],[-6.2233301,53.3714789],[-6.223313,53.3714962],[-6.2226467,53.3721455],[-6.2224534,53.372331]]}";2;Malahide Road;2;50;false;true;false;false;false;false;144.0;0;1;0;0;0;false;670;1705715762;-6.2258818;53.369036;671;1705715778;-6.2241657;53.3707027;1;12;13;7389000;Bus 15: Ballycullen Rd. => Clongriffin;"";Dublin Bus;15;Ballycullen Rd.;Clongriffin
368177064;"{\"type\":\"LineString\",\"coordinates\":[[-6.2246647,53.3701268],[-6.2241151,53.3706837],[-6.2240313,53.3707686],[-6.2239457,53.3708451],[-6.2233301,53.3714789],[-6.223313,53.3714962],[-6.2226467,53.3721455],[-6.2224534,53.372331]]}";1;Malahide Road;2;50;false;true;false;false;false;false;144.0;0;1;0;0;0;false;671;1705715778;-6.2241657;53.3707027;4382;1705715810;-6.219607;53.3750394;1;13;14;7389000;Bus 15: Ballycullen Rd. => Clongriffin;"";Dublin Bus;15;Ballycullen Rd.;Clongriffin
368941619;"{\"type\":\"LineString\",\"coordinates\":[[-6.2224534,53.372331],[-6.2220222,53.3727743],[-6.2217444,53.3730258]]}";2;Malahide Road;2;50;false;true;false;false;false;false;92.0;0;1;0;0;0;false;671;1705715778;-6.2241657;53.3707027;4382;1705715810;-6.219607;53.3750394;0;13;14;7389000;Bus 15: Ballycullen Rd. => Clongriffin;"";Dublin Bus;15;Ballycullen Rd.;Clongriffin
750263307;"{\"type\":\"LineString\",\"coordinates\":[[-6.2217444,53.3730258],[-6.2214925,53.3731575]]}";3;Malahide Road;2;50;false;true;false;false;false;false;23.0;0;1;0;0;0;false;671;1705715778;-6.2241657;53.3707027;4382;1705715810;-6.219607;53.3750394;0;13;14;7389000;Bus 15: Ballycullen Rd. => Clongriffin;"";Dublin Bus;15;Ballycullen Rd.;Clongriffin
56722994;"{\"type\":\"LineString\",\"coordinates\":[[-6.2214925,53.3731575],[-6.2214248,53.3732001]]}";4;Malahide Road;4;50;false;false;true;false;false;false;7.0;0;0;0;0;0;false;671;1705715778;-6.2241657;53.3707027;4382;1705715810;-6.219607;53.3750394;0;13;14;7389000;Bus 15: Ballycullen Rd. => Clongriffin;"";Dublin Bus;15;Ballycullen Rd.;Clongriffin
317675351;"{\"type\":\"LineString\",\"coordinates\":[[-6.2214248,53.3732001],[-6.2211514,53.3733719],[-6.2210749,53.3734221],[-6.2209495,53.373511],[-6.2205741,53.3737771],[-6.2203594,53.3739673],[-6.2201855,53.3741611],[-6.2200469,53.3743417],[-6.2199785,53.3744294],[-6.2198848,53.3745331]]}";5;Malahide Road;4;50;false;false;true;false;false;false;183.0;0;1;0;0;0;false;671;1705715778;-6.2241657;53.3707027;4382;1705715810;-6.219607;53.3750394;0;13;14;7389000;Bus 15: Ballycullen Rd. => Clongriffin;"";Dublin Bus;15;Ballycullen Rd.;Clongriffin
342674852;"{\"type\":\"LineString\",\"coordinates\":[[-6.2198848,53.3745331],[-6.2198983,53.3746079],[-6.2197718,53.3747594],[-6.2197503,53.3747818],[-6.2196393,53.3748969],[-6.2195034,53.3750114],[-6.2192033,53.3752643],[-6.219073,53.3753617],[-6.2189255,53.375456],[-6.218782,53.3754956]]}";6;Malahide Road;2;50;false;true;false;false;false;false;67.5;1;1;0;0;0;false;671;1705715778;-6.2241657;53.3707027;4382;1705715810;-6.219607;53.3750394;1;13;14;7389000;Bus 15: Ballycullen Rd. => Clongriffin;"";Dublin Bus;15;Ballycullen Rd.;Clongriffin
342674852;"{\"type\":\"LineString\",\"coordinates\":[[-6.2198848,53.3745331],[-6.2198983,53.3746079],[-6.2197718,53.3747594],[-6.2197503,53.3747818],[-6.2196393,53.3748969],[-6.2195034,53.3750114],[-6.2192033,53.3752643],[-6.219073,53.3753617],[-6.2189255,53.375456],[-6.218782,53.3754956]]}";1;Malahide Road;2;50;false;true;false;false;false;false;67.5;1;1;0;0;0;false;4382;1705715810;-6.219607;53.3750394;1196;3498162062;-6.2149557;53.3777491;1;14;15;7389000;Bus 15: Ballycullen Rd. => Clongriffin;"";Dublin Bus;15;Ballycullen Rd.;Clongriffin
378875553;"{\"type\":\"LineString\",\"coordinates\":[[-6.218782,53.3754956],[-6.2185639,53.3756327],[-6.218121,53.3758694],[-6.2179832,53.3759431],[-6.217939,53.3759626]]}";2;Malahide Road;4;50;false;false;true;false;false;false;78.0;1;0;0;0;0;false;4382;1705715810;-6.219607;53.3750394;1196;3498162062;-6.2149557;53.3777491;0;14;15;7389000;Bus 15: Ballycullen Rd. => Clongriffin;"";Dublin Bus;15;Ballycullen Rd.;Clongriffin
4900226;"{\"type\":\"LineString\",\"coordinates\":[[-6.217939,53.3759626],[-6.2177354,53.3760647],[-6.2176743,53.3760958],[-6.2172619,53.3763062],[-6.2171093,53.3763819],[-6.216388,53.3767513],[-6.216217,53.3768452],[-6.2160418,53.3769407],[-6.2154624,53.3773138]]}";3;Malahide Road;4;50;false;false;true;false;false;false;225.0;0;0;0;0;0;false;4382;1705715810;-6.219607;53.3750394;1196;3498162062;-6.2149557;53.3777491;0;14;15;7389000;Bus 15: Ballycullen Rd. => Clongriffin;"";Dublin Bus;15;Ballycullen Rd.;Clongriffin
317127410;"{\"type\":\"LineString\",\"coordinates\":[[-6.2154624,53.3773138],[-6.2153418,53.3773956],[-6.2150837,53.3775704],[-6.2148518,53.3777296],[-6.2147124,53.3778155],[-6.2145596,53.3778982],[-6.2143413,53.3779918],[-6.2141135,53.3780799],[-6.2134056,53.3783374],[-6.2131872,53.3784154]]}";4;Malahide Road;4;50;false;false;true;false;false;false;99.0;1;0;0;0;0;false;4382;1705715810;-6.219607;53.3750394;1196;3498162062;-6.2149557;53.3777491;1;14;15;7389000;Bus 15: Ballycullen Rd. => Clongriffin;"";Dublin Bus;15;Ballycullen Rd.;Clongriffin
317127410;"{\"type\":\"LineString\",\"coordinates\":[[-6.2154624,53.3773138],[-6.2153418,53.3773956],[-6.2150837,53.3775704],[-6.2148518,53.3777296],[-6.2147124,53.3778155],[-6.2145596,53.3778982],[-6.2143413,53.3779918],[-6.2141135,53.3780799],[-6.2134056,53.3783374],[-6.2131872,53.3784154]]}";1;Malahide Road;4;50;false;false;true;false;false;false;99.0;1;0;0;0;0;false;1196;3498162062;-6.2149557;53.3777491;1197;1426962252;-6.2117371;53.3792121;1;15;16;7389000;Bus 15: Ballycullen Rd. => Clongriffin;"";Dublin Bus;15;Ballycullen Rd.;Clongriffin
317675352;"{\"type\":\"LineString\",\"coordinates\":[[-6.2131872,53.3784154],[-6.2130144,53.3784773],[-6.2127798,53.3785797],[-6.2126384,53.3786415],[-6.2122777,53.3788273],[-6.2117732,53.3791054],[-6.2116685,53.3791624],[-6.2113685,53.3793259],[-6.2111193,53.3794637],[-6.2105571,53.3797962],[-6.2103169,53.3799382]]}";2;Malahide Road;4;50;false;false;true;false;false;false;129.0;2;0;0;0;0;false;1196;3498162062;-6.2149557;53.3777491;1197;1426962252;-6.2117371;53.3792121;1;15;16;7389000;Bus 15: Ballycullen Rd. => Clongriffin;"";Dublin Bus;15;Ballycullen Rd.;Clongriffin
317675352;"{\"type\":\"LineString\",\"coordinates\":[[-6.2131872,53.3784154],[-6.2130144,53.3784773],[-6.2127798,53.3785797],[-6.2126384,53.3786415],[-6.2122777,53.3788273],[-6.2117732,53.3791054],[-6.2116685,53.3791624],[-6.2113685,53.3793259],[-6.2111193,53.3794637],[-6.2105571,53.3797962],[-6.2103169,53.3799382]]}";1;Malahide Road;4;50;false;false;true;false;false;false;129.0;2;0;0;0;0;false;1197;1426962252;-6.2117371;53.3792121;1198;1426962299;-6.20692;53.3825369;1;16;17;7389000;Bus 15: Ballycullen Rd. => Clongriffin;"";Dublin Bus;15;Ballycullen Rd.;Clongriffin
129313733;"{\"type\":\"LineString\",\"coordinates\":[[-6.2103169,53.3799382],[-6.2101497,53.3800278],[-6.2099629,53.3801446],[-6.2097378,53.380295],[-6.2094769,53.3804881],[-6.2092685,53.3806481],[-6.2089901,53.3808551],[-6.2086539,53.381121],[-6.2084975,53.3812475],[-6.2082938,53.3814123],[-6.2080493,53.3815844]]}";2;Malahide Road;3;50;false;false;false;false;false;false;240.0;1;1;0;0;0;false;1197;1426962252;-6.2117371;53.3792121;1198;1426962299;-6.20692;53.3825369;0;16;17;7389000;Bus 15: Ballycullen Rd. => Clongriffin;"";Dublin Bus;15;Ballycullen Rd.;Clongriffin
157072278;"{\"type\":\"LineString\",\"coordinates\":[[-6.2080493,53.3815844],[-6.2078781,53.3817176],[-6.2077128,53.3818462],[-6.2074974,53.3820156],[-6.2072642,53.3821871],[-6.2071541,53.3822582],[-6.2071179,53.3822816],[-6.2068112,53.3824344],[-6.206648,53.3825157],[-6.2062154,53.3826938],[-6.2059287,53.38279]]}";3;Malahide Road;4;50;false;false;true;false;false;false;99.5;0;0;0;0;0;false;1197;1426962252;-6.2117371;53.3792121;1198;1426962299;-6.20692;53.3825369;1;16;17;7389000;Bus 15: Ballycullen Rd. => Clongriffin;"";Dublin Bus;15;Ballycullen Rd.;Clongriffin
157072278;"{\"type\":\"LineString\",\"coordinates\":[[-6.2080493,53.3815844],[-6.2078781,53.3817176],[-6.2077128,53.3818462],[-6.2074974,53.3820156],[-6.2072642,53.3821871],[-6.2071541,53.3822582],[-6.2071179,53.3822816],[-6.2068112,53.3824344],[-6.206648,53.3825157],[-6.2062154,53.3826938],[-6.2059287,53.38279]]}";1;Malahide Road;4;50;false;false;true;false;false;false;99.5;0;0;0;0;0;false;1198;1426962299;-6.20692;53.3825369;1199;3498180243;-6.2027619;53.3849689;1;17;18;7389000;Bus 15: Ballycullen Rd. => Clongriffin;"";Dublin Bus;15;Ballycullen Rd.;Clongriffin
361316722;"{\"type\":\"LineString\",\"coordinates\":[[-6.2059287,53.38279],[-6.2057573,53.3828588],[-6.2055133,53.3829361]]}";2;Malahide Road;3;50;false;false;true;false;false;false;33.0;0;1;0;0;0;false;1198;1426962299;-6.20692;53.3825369;1199;3498180243;-6.2027619;53.3849689;0;17;18;7389000;Bus 15: Ballycullen Rd. => Clongriffin;"";Dublin Bus;15;Ballycullen Rd.;Clongriffin
317675329;"{\"type\":\"LineString\",\"coordinates\":[[-6.2055133,53.3829361],[-6.2055373,53.3829904],[-6.2055353,53.3830294],[-6.2055183,53.3830671],[-6.2054918,53.3830972],[-6.2054556,53.3831234]]}";3;Artane Roundabout;2;50;false;false;true;false;false;false;23.0;0;0;0;0;0;true;1198;1426962299;-6.20692;53.3825369;1199;3498180243;-6.2027619;53.3849689;0;17;18;7389000;Bus 15: Ballycullen Rd. => Clongriffin;"";Dublin Bus;15;Ballycullen Rd.;Clongriffin
515121890;"{\"type\":\"LineString\",\"coordinates\":[[-6.2054556,53.3831234],[-6.205377,53.3831561],[-6.2053141,53.3831684],[-6.2052482,53.3831716],[-6.2051904,53.3831666],[-6.2051356,53.3831545]]}";4;Artane Roundabout;2;50;false;false;true;false;false;false;24.0;0;0;0;0;0;true;1198;1426962299;-6.20692;53.3825369;1199;3498180243;-6.2027619;53.3849689;0;17;18;7389000;Bus 15: Ballycullen Rd. => Clongriffin;"";Dublin Bus;15;Ballycullen Rd.;Clongriffin
22370539;"{\"type\":\"LineString\",\"coordinates\":[[-6.2051356,53.3831545],[-6.205025,53.3831482],[-6.2048872,53.3831606],[-6.2047262,53.3831953],[-6.2046854,53.383211],[-6.2045039,53.383281],[-6.2042816,53.3833827]]}";5;Malahide Road;2;50;false;true;true;false;false;false;65.0;0;0;0;0;0;false;1198;1426962299;-6.20692;53.3825369;1199;3498180243;-6.2027619;53.3849689;0;17;18;7389000;Bus 15: Ballycullen Rd. => Clongriffin;"";Dublin Bus;15;Ballycullen Rd.;Clongriffin
33924698;"{\"type\":\"LineString\",\"coordinates\":[[-6.2042816,53.3833827],[-6.2040697,53.3834775],[-6.2038279,53.383601]]}";6;Malahide Road;2;60;false;true;false;false;false;false;40.0;0;0;0;0;0;false;1198;1426962299;-6.20692;53.3825369;1199;3498180243;-6.2027619;53.3849689;0;17;18;7389000;Bus 15: Ballycullen Rd. => Clongriffin;"";Dublin Bus;15;Ballycullen Rd.;Clongriffin
645524995;"{\"type\":\"LineString\",\"coordinates\":[[-6.2038279,53.383601],[-6.2036612,53.3836936],[-6.2035222,53.3838092],[-6.2033198,53.3840067],[-6.2031962,53.3841561],[-6.2026962,53.38496],[-6.2025295,53.3852364],[-6.2023316,53.3855548],[-6.2021601,53.3857952],[-6.2019816,53.3860081],[-6.20175,53.3862608],[-6.2013657,53.386656],[-6.2012488,53.3867442],[-6.2010524,53.3868813],[-6.2007955,53.3870605],[-6.2000093,53.3875903],[-6.1993149,53.3881268],[-6.1989408,53.3884415],[-6.1984719,53.3888358],[-6.1982513,53.38901],[-6.1976715,53.3894482]]}";7;Malahide Road;2;60;false;true;false;false;false;false;391.0;1;2;0;0;0;false;1198;1426962299;-6.20692;53.3825369;1199;3498180243;-6.2027619;53.3849689;1;17;18;7389000;Bus 15: Ballycullen Rd. => Clongriffin;"";Dublin Bus;15;Ballycullen Rd.;Clongriffin
645524995;"{\"type\":\"LineString\",\"coordinates\":[[-6.2038279,53.383601],[-6.2036612,53.3836936],[-6.2035222,53.3838092],[-6.2033198,53.3840067],[-6.2031962,53.3841561],[-6.2026962,53.38496],[-6.2025295,53.3852364],[-6.2023316,53.3855548],[-6.2021601,53.3857952],[-6.2019816,53.3860081],[-6.20175,53.3862608],[-6.2013657,53.386656],[-6.2012488,53.3867442],[-6.2010524,53.3868813],[-6.2007955,53.3870605],[-6.2000093,53.3875903],[-6.1993149,53.3881268],[-6.1989408,53.3884415],[-6.1984719,53.3888358],[-6.1982513,53.38901],[-6.1976715,53.3894482]]}";1;Malahide Road;2;60;false;true;false;false;false;false;391.0;1;2;0;0;0;false;4385;4842760274;-6.1990062;53.3884635;1201;687571626;-6.1961822;53.3907528;1;20;21;7389000;Bus 15: Ballycullen Rd. => Clongriffin;"";Dublin Bus;15;Ballycullen Rd.;Clongriffin
3753933;"{\"type\":\"LineString\",\"coordinates\":[[-6.1976715,53.3894482],[-6.1974971,53.389579],[-6.1970273,53.3899635],[-6.1960956,53.3907189],[-6.195978,53.3908142],[-6.1956665,53.3910579],[-6.1954123,53.3912423]]}";2;Malahide Road;2;60;false;true;false;false;false;false;126.0;1;1;0;0;0;false;4385;4842760274;-6.1990062;53.3884635;1201;687571626;-6.1961822;53.3907528;1;20;21;7389000;Bus 15: Ballycullen Rd. => Clongriffin;"";Dublin Bus;15;Ballycullen Rd.;Clongriffin
3753933;"{\"type\":\"LineString\",\"coordinates\":[[-6.1976715,53.3894482],[-6.1974971,53.389579],[-6.1970273,53.3899635],[-6.1960956,53.3907189],[-6.195978,53.3908142],[-6.1956665,53.3910579],[-6.1954123,53.3912423]]}";1;Malahide Road;2;60;false;true;false;false;false;false;126.0;1;1;0;0;0;false;1201;687571626;-6.1961822;53.3907528;1202;687571631;-6.1934681;53.3924508;1;21;22;7389000;Bus 15: Ballycullen Rd. => Clongriffin;"";Dublin Bus;15;Ballycullen Rd.;Clongriffin
49175391;"{\"type\":\"LineString\",\"coordinates\":[[-6.1954123,53.3912423],[-6.1952619,53.391347]]}";2;Malahide Road;2;60;false;true;true;false;false;false;16.0;0;0;0;0;0;false;1201;687571626;-6.1961822;53.3907528;1202;687571631;-6.1934681;53.3924508;0;21;22;7389000;Bus 15: Ballycullen Rd. => Clongriffin;"";Dublin Bus;15;Ballycullen Rd.;Clongriffin
515104074;"{\"type\":\"LineString\",\"coordinates\":[[-6.1952619,53.391347],[-6.1949694,53.3915558]]}";3;Malahide Road;2;60;false;true;false;false;false;false;31.0;0;0;0;0;0;false;1201;687571626;-6.1961822;53.3907528;1202;687571631;-6.1934681;53.3924508;0;21;22;7389000;Bus 15: Ballycullen Rd. => Clongriffin;"";Dublin Bus;15;Ballycullen Rd.;Clongriffin
49175380;"{\"type\":\"LineString\",\"coordinates\":[[-6.1949694,53.3915558],[-6.1947959,53.3916567],[-6.194234,53.3919833],[-6.1935416,53.3923438],[-6.1934083,53.3924088],[-6.1931981,53.392511],[-6.1929849,53.3926148],[-6.1928824,53.3926647],[-6.1913485,53.3933493],[-6.190777,53.3936202],[-6.1904885,53.3937741],[-6.1902359,53.393924],[-6.1899798,53.394086],[-6.1895909,53.3943356],[-6.1893299,53.3945317],[-6.1892635,53.3945869],[-6.1890203,53.3947972],[-6.1888577,53.3949469],[-6.1885355,53.395281],[-6.1881843,53.3956953],[-6.1875916,53.3964413],[-6.1873709,53.3967217],[-6.1872235,53.396909],[-6.1871192,53.3970955],[-6.187088,53.3972236],[-6.1870837,53.3973532]]}";4;Malahide Road;2;60;false;true;false;false;false;false;429.5;0;0;0;0;0;false;1201;687571626;-6.1961822;53.3907528;1202;687571631;-6.1934681;53.3924508;1;21;22;7389000;Bus 15: Ballycullen Rd. => Clongriffin;"";Dublin Bus;15;Ballycullen Rd.;Clongriffin
49175380;"{\"type\":\"LineString\",\"coordinates\":[[-6.1949694,53.3915558],[-6.1947959,53.3916567],[-6.194234,53.3919833],[-6.1935416,53.3923438],[-6.1934083,53.3924088],[-6.1931981,53.392511],[-6.1929849,53.3926148],[-6.1928824,53.3926647],[-6.1913485,53.3933493],[-6.190777,53.3936202],[-6.1904885,53.3937741],[-6.1902359,53.393924],[-6.1899798,53.394086],[-6.1895909,53.3943356],[-6.1893299,53.3945317],[-6.1892635,53.3945869],[-6.1890203,53.3947972],[-6.1888577,53.3949469],[-6.1885355,53.395281],[-6.1881843,53.3956953],[-6.1875916,53.3964413],[-6.1873709,53.3967217],[-6.1872235,53.396909],[-6.1871192,53.3970955],[-6.187088,53.3972236],[-6.1870837,53.3973532]]}";1;Malahide Road;2;60;false;true;false;false;false;false;429.5;0;0;0;0;0;false;1203;687571641;-6.1874761;53.3967525;6115;687572786;-6.1842988;53.4000546;1;23;24;7389000;Bus 15: Ballycullen Rd. => Clongriffin;"";Dublin Bus;15;Ballycullen Rd.;Clongriffin
515104101;"{\"type\":\"LineString\",\"coordinates\":[[-6.1870837,53.3973532],[-6.1870959,53.397386],[-6.1870958,53.3974587]]}";2;Darndale Roundabout;2;60;false;false;true;false;false;false;12.0;0;0;0;0;0;true;1203;687571641;-6.1874761;53.3967525;6115;687572786;-6.1842988;53.4000546;0;23;24;7389000;Bus 15: Ballycullen Rd. => Clongriffin;"";Dublin Bus;15;Ballycullen Rd.;Clongriffin
2684994;"{\"type\":\"LineString\",\"coordinates\":[[-6.1870958,53.3974587],[-6.187076,53.3975048],[-6.1870348,53.3975541],[-6.1869718,53.3975989],[-6.1868929,53.3976333]]}";3;Darndale Roundabout;2;60;false;false;true;false;false;false;25.0;0;0;0;0;0;true;1203;687571641;-6.1874761;53.3967525;6115;687572786;-6.1842988;53.4000546;0;23;24;7389000;Bus 15: Ballycullen Rd. => Clongriffin;"";Dublin Bus;15;Ballycullen Rd.;Clongriffin
498016717;"{\"type\":\"LineString\",\"coordinates\":[[-6.1868929,53.3976333],[-6.1867932,53.397657]]}";4;Darndale Roundabout;2;60;false;false;true;false;false;false;8.0;0;0;0;0;0;true;1203;687571641;-6.1874761;53.3967525;6115;687572786;-6.1842988;53.4000546;0;23;24;7389000;Bus 15: Ballycullen Rd. => Clongriffin;"";Dublin Bus;15;Ballycullen Rd.;Clongriffin
3753934;"{\"type\":\"LineString\",\"coordinates\":[[-6.1867932,53.397657],[-6.1866668,53.3977172],[-6.1865714,53.3978031],[-6.1865538,53.3978221],[-6.1863879,53.3980014],[-6.1861479,53.3982872],[-6.1857703,53.3986901],[-6.1854694,53.3990044],[-6.1851191,53.3993143]]}";5;Malahide Road;3;60;false;true;false;false;false;false;218.0;0;0;0;0;0;false;1203;687571641;-6.1874761;53.3967525;6115;687572786;-6.1842988;53.4000546;0;23;24;7389000;Bus 15: Ballycullen Rd. => Clongriffin;"";Dublin Bus;15;Ballycullen Rd.;Clongriffin
334819736;"{\"type\":\"LineString\",\"coordinates\":[[-6.1851191,53.3993143],[-6.1848676,53.3995282],[-6.1845911,53.3997597],[-6.1844866,53.399834],[-6.1842719,53.3999866],[-6.1842031,53.400032],[-6.1838036,53.4002954],[-6.1829261,53.4008196],[-6.1828533,53.4008623],[-6.1825607,53.4010338],[-6.1818731,53.4014542],[-6.180651,53.4022013],[-6.1804187,53.4023508]]}";6;Malahide Road;3;60;false;true;false;false;false;false;232.5;0;1;0;0;0;false;1203;687571641;-6.1874761;53.3967525;6115;687572786;-6.1842988;53.4000546;1;23;24;7389000;Bus 15: Ballycullen Rd. => Clongriffin;"";Dublin Bus;15;Ballycullen Rd.;Clongriffin
334819736;"{\"type\":\"LineString\",\"coordinates\":[[-6.1851191,53.3993143],[-6.1848676,53.3995282],[-6.1845911,53.3997597],[-6.1844866,53.399834],[-6.1842719,53.3999866],[-6.1842031,53.400032],[-6.1838036,53.4002954],[-6.1829261,53.4008196],[-6.1828533,53.4008623],[-6.1825607,53.4010338],[-6.1818731,53.4014542],[-6.180651,53.4022013],[-6.1804187,53.4023508]]}";1;Malahide Road;3;60;false;true;false;false;false;false;232.5;0;1;0;0;0;false;1205;687572789;-6.1818417;53.401536;"";3825229963;-6.1635321;53.3994117;1;25;26;7389000;Bus 15: Ballycullen Rd. => Clongriffin;"";Dublin Bus;15;Ballycullen Rd.;Clongriffin
33924943;"{\"type\":\"LineString\",\"coordinates\":[[-6.1804187,53.4023508],[-6.1802961,53.4024506],[-6.1801161,53.4025841]]}";2;Malahide Road;4;60;false;true;true;false;false;false;34.0;0;0;0;0;0;false;1205;687572789;-6.1818417;53.401536;"";3825229963;-6.1635321;53.3994117;0;25;26;7389000;Bus 15: Ballycullen Rd. => Clongriffin;"";Dublin Bus;15;Ballycullen Rd.;Clongriffin
506844135;"{\"type\":\"LineString\",\"coordinates\":[[-6.1801161,53.4025841],[-6.1798193,53.4028447],[-6.1796861,53.4029573]]}";3;Malahide Road;3;50;false;true;true;false;false;false;51.0;1;0;0;0;0;false;1205;687572789;-6.1818417;53.401536;"";3825229963;-6.1635321;53.3994117;0;25;26;7389000;Bus 15: Ballycullen Rd. => Clongriffin;"";Dublin Bus;15;Ballycullen Rd.;Clongriffin
572209081;"{\"type\":\"LineString\",\"coordinates\":[[-6.1796861,53.4029573],[-6.1796143,53.4030262]]}";4;Malahide Road;2;50;false;true;true;false;false;false;10.0;0;0;0;0;0;false;1205;687572789;-6.1818417;53.401536;"";3825229963;-6.1635321;53.3994117;0;25;26;7389000;Bus 15: Ballycullen Rd. => Clongriffin;"";Dublin Bus;15;Ballycullen Rd.;Clongriffin
572209083;"{\"type\":\"LineString\",\"coordinates\":[[-6.1796143,53.4030262],[-6.1794444,53.4029634]]}";5;Northern Cross Route Extension;2;50;false;true;true;false;false;false;14.0;0;0;0;0;0;false;1205;687572789;-6.1818417;53.401536;"";3825229963;-6.1635321;53.3994117;0;25;26;7389000;Bus 15: Ballycullen Rd. => Clongriffin;"";Dublin Bus;15;Ballycullen Rd.;Clongriffin
572209082;"{\"type\":\"LineString\",\"coordinates\":[[-6.1794444,53.4029634],[-6.1793344,53.4029227],[-6.1788145,53.4027321]]}";6;Clarehall Avenue;2;50;false;true;true;false;false;false;50.0;0;0;0;0;0;false;1205;687572789;-6.1818417;53.401536;"";3825229963;-6.1635321;53.3994117;0;25;26;7389000;Bus 15: Ballycullen Rd. => Clongriffin;"";Dublin Bus;15;Ballycullen Rd.;Clongriffin
564467438;"{\"type\":\"LineString\",\"coordinates\":[[-6.1788145,53.4027321],[-6.1782072,53.4025735],[-6.1777234,53.4024923],[-6.1770468,53.4024126],[-6.1764471,53.4023895],[-6.1758213,53.4023653],[-6.1744751,53.4022936],[-6.1727308,53.4022031],[-6.1720163,53.4021101],[-6.1717735,53.4020621]]}";7;Clarehall Avenue;2;60;false;true;true;false;false;false;481.0;0;1;0;0;0;false;1205;687572789;-6.1818417;53.401536;"";3825229963;-6.1635321;53.3994117;0;25;26;7389000;Bus 15: Ballycullen Rd. => Clongriffin;"";Dublin Bus;15;Ballycullen Rd.;Clongriffin
658237775;"{\"type\":\"LineString\",\"coordinates\":[[-6.1717735,53.4020621],[-6.1714521,53.4019861],[-6.1711131,53.401877],[-6.1707781,53.4018129]]}";8;Clarehall Avenue;2;50;false;true;true;false;false;false;73.0;0;0;0;0;0;false;1205;687572789;-6.1818417;53.401536;"";3825229963;-6.1635321;53.3994117;0;25;26;7389000;Bus 15: Ballycullen Rd. => Clongriffin;"";Dublin Bus;15;Ballycullen Rd.;Clongriffin
506780988;"{\"type\":\"LineString\",\"coordinates\":[[-6.1707781,53.4018129],[-6.1707273,53.4018338],[-6.1706711,53.401849],[-6.1706142,53.4018577],[-6.1705412,53.4018605],[-6.1704688,53.4018542],[-6.1703647,53.4018269],[-6.1702812,53.4017816],[-6.1702267,53.4017231],[-6.1702104,53.4016856]]}";9;Clarehall Avenue;2;60;false;false;true;false;false;false;49.0;0;0;0;0;0;true;1205;687572789;-6.1818417;53.401536;"";3825229963;-6.1635321;53.3994117;0;25;26;7389000;Bus 15: Ballycullen Rd. => Clongriffin;"";Dublin Bus;15;Ballycullen Rd.;Clongriffin
564467440;"{\"type\":\"LineString\",\"coordinates\":[[-6.1702104,53.4016856],[-6.1700782,53.4015865],[-6.1697438,53.4014149],[-6.1690477,53.4011668],[-6.1670682,53.4004527],[-6.1649838,53.3997872],[-6.1632416,53.3992841],[-6.1628255,53.3991699],[-6.1624132,53.3990568],[-6.1621877,53.3989919],[-6.1620516,53.3989849],[-6.1619503,53.3989807]]}";10;Clarehall Avenue;2;60;false;true;true;false;false;false;317.5;0;1;0;0;0;false;1205;687572789;-6.1818417;53.401536;"";3825229963;-6.1635321;53.3994117;1;25;26;7389000;Bus 15: Ballycullen Rd. => Clongriffin;"";Dublin Bus;15;Ballycullen Rd.;Clongriffin
564467440;"{\"type\":\"LineString\",\"coordinates\":[[-6.1702104,53.4016856],[-6.1700782,53.4015865],[-6.1697438,53.4014149],[-6.1690477,53.4011668],[-6.1670682,53.4004527],[-6.1649838,53.3997872],[-6.1632416,53.3992841],[-6.1628255,53.3991699],[-6.1624132,53.3990568],[-6.1621877,53.3989919],[-6.1620516,53.3989849],[-6.1619503,53.3989807]]}";1;Clarehall Avenue;2;60;false;true;true;false;false;false;317.5;0;1;0;0;0;false;"";3825229963;-6.1635321;53.3994117;6315;598161341;-6.1623993;53.4014945;1;26;27;7389000;Bus 15: Ballycullen Rd. => Clongriffin;"";Dublin Bus;15;Ballycullen Rd.;Clongriffin
506780989;"{\"type\":\"LineString\",\"coordinates\":[[-6.1619503,53.3989807],[-6.1618942,53.3990176],[-6.1617857,53.3990535],[-6.1616636,53.3990664]]}";2;"";2;50;false;false;true;false;false;false;23.0;0;0;0;0;0;true;"";3825229963;-6.1635321;53.3994117;6315;598161341;-6.1623993;53.4014945;0;26;27;7389000;Bus 15: Ballycullen Rd. => Clongriffin;"";Dublin Bus;15;Ballycullen Rd.;Clongriffin
334580911;"{\"type\":\"LineString\",\"coordinates\":[[-6.1616636,53.3990664],[-6.1616657,53.3991625],[-6.1616669,53.3992211],[-6.161705,53.3993806],[-6.1617279,53.3994575],[-6.1617508,53.3995343],[-6.1619698,53.4003514]]}";3;The Hole in the Wall Road;3;50;false;false;true;false;false;false;146.0;0;1;0;0;0;false;"";3825229963;-6.1635321;53.3994117;6315;598161341;-6.1623993;53.4014945;0;26;27;7389000;Bus 15: Ballycullen Rd. => Clongriffin;"";Dublin Bus;15;Ballycullen Rd.;Clongriffin
647028261;"{\"type\":\"LineString\",\"coordinates\":[[-6.1619698,53.4003514],[-6.1621574,53.4010511],[-6.1622795,53.4015087],[-6.1623924,53.4019915],[-6.1624975,53.4024974],[-6.1625199,53.4026052]]}";4;The Hole in the Wall Road;4;50;false;false;true;false;false;false;128.0;1;0;0;0;0;false;"";3825229963;-6.1635321;53.3994117;6315;598161341;-6.1623993;53.4014945;1;26;27;7389000;Bus 15: Ballycullen Rd. => Clongriffin;"";Dublin Bus;15;Ballycullen Rd.;Clongriffin
647028261;"{\"type\":\"LineString\",\"coordinates\":[[-6.1619698,53.4003514],[-6.1621574,53.4010511],[-6.1622795,53.4015087],[-6.1623924,53.4019915],[-6.1624975,53.4024974],[-6.1625199,53.4026052]]}";1;The Hole in the Wall Road;4;50;false;false;true;false;false;false;128.0;1;0;0;0;0;false;6315;598161341;-6.1623993;53.4014945;6316;598161345;-6.1573716;53.4029017;1;27;28;7389000;Bus 15: Ballycullen Rd. => Clongriffin;"";Dublin Bus;15;Ballycullen Rd.;Clongriffin
506780991;"{\"type\":\"LineString\",\"coordinates\":[[-6.1625199,53.4026052],[-6.1625415,53.4027059]]}";2;The Hole in the Wall Road;3;50;false;false;false;false;false;false;12.0;2;0;0;0;0;false;6315;598161341;-6.1623993;53.4014945;6316;598161345;-6.1573716;53.4029017;0;27;28;7389000;Bus 15: Ballycullen Rd. => Clongriffin;"";Dublin Bus;15;Ballycullen Rd.;Clongriffin
117590954;"{\"type\":\"LineString\",\"coordinates\":[[-6.1625415,53.4027059],[-6.162281,53.4027366],[-6.1615895,53.4027967],[-6.1608029,53.4028162],[-6.1598638,53.4028358],[-6.158299,53.4028447],[-6.1581855,53.4028453]]}";3;Main Street;2;50;false;true;false;false;false;false;293.0;1;0;0;0;0;false;6315;598161341;-6.1623993;53.4014945;6316;598161345;-6.1573716;53.4029017;0;27;28;7389000;Bus 15: Ballycullen Rd. => Clongriffin;"";Dublin Bus;15;Ballycullen Rd.;Clongriffin
553492232;"{\"type\":\"LineString\",\"coordinates\":[[-6.1581855,53.4028453],[-6.1573708,53.4028786],[-6.1567501,53.4028994],[-6.156367,53.4029123],[-6.1556496,53.4028923],[-6.1555401,53.4028892],[-6.1550112,53.4028534],[-6.1546366,53.4028103],[-6.1542948,53.4027598],[-6.1532397,53.4026411],[-6.15293,53.4026063],[-6.1520666,53.4025227],[-6.1519214,53.4025081],[-6.1518183,53.4024978],[-6.1516593,53.4024978],[-6.1515373,53.4025221]]}";4;Main Street;2;30;false;true;true;false;false;false;225.0;0;0;0;0;0;false;6315;598161341;-6.1623993;53.4014945;6316;598161345;-6.1573716;53.4029017;1;27;28;7389000;Bus 15: Ballycullen Rd. => Clongriffin;"";Dublin Bus;15;Ballycullen Rd.;Clongriffin
553492232;"{\"type\":\"LineString\",\"coordinates\":[[-6.1581855,53.4028453],[-6.1573708,53.4028786],[-6.1567501,53.4028994],[-6.156367,53.4029123],[-6.1556496,53.4028923],[-6.1555401,53.4028892],[-6.1550112,53.4028534],[-6.1546366,53.4028103],[-6.1542948,53.4027598],[-6.1532397,53.4026411],[-6.15293,53.4026063],[-6.1520666,53.4025227],[-6.1519214,53.4025081],[-6.1518183,53.4024978],[-6.1516593,53.4024978],[-6.1515373,53.4025221]]}";1;Main Street;2;30;false;true;true;false;false;false;225.0;0;0;0;0;0;false;6316;598161345;-6.1573716;53.4029017;6317;598161340;-6.1514587;53.4028402;1;28;29;7389000;Bus 15: Ballycullen Rd. => Clongriffin;"";Dublin Bus;15;Ballycullen Rd.;Clongriffin
529166746;"{\"type\":\"LineString\",\"coordinates\":[[-6.1515373,53.4025221],[-6.1514983,53.4025669],[-6.1514708,53.4026196],[-6.1513867,53.4027501],[-6.1513344,53.4028313]]}";2;Station Square;2;30;false;true;true;false;false;false;38.0;0;0;0;0;0;false;6316;598161345;-6.1573716;53.4029017;6317;598161340;-6.1514587;53.4028402;1;28;29;7389000;Bus 15: Ballycullen Rd. => Clongriffin;"";Dublin Bus;15;Ballycullen Rd.;Clongriffin
