way_id;shape;index;name;nb_lanes;legal_speed;speed_zone_30;oneway;shares_bike;bike_box;bus_lane;dedicated_bus_lane;length;nb_traffic_signals;nb_crossings;nb_stops;nb_give_ways;nb_lvl_crossings;roundabout;stop_id_orig;node_id_orig;coord_x_orig;coord_y_orig;stop_id_dest;node_id_dest;coord_x_dest;coord_y_dest;nb_neighbouring_ways_bus_stop;ordre_orig;ordre_dest;id_line;line_name;colour;operator;ref;from;to
676886069;"{\"type\":\"LineString\",\"coordinates\":[[-73.9119794,45.545115],[-73.9119546,45.5447484]]}";1;Boulevard de Deux-Montagnes;1;50;false;true;false;false;false;false;41.0;0;0;0;0;0;false;81013;4335419374;-73.912033;45.545111;81014;6119526185;-73.912799;45.542484;1;0;1;9397388;Bus 90 : TERMINUS /ST-EUSTACHE;"";EXO;90 E;Gare Deux-Montagnes;Terminus Saint-Eustache
131984201;"{\"type\":\"LineString\",\"coordinates\":[[-73.9119546,45.5447484],[-73.9119503,45.5446734]]}";2;Boulevard de Deux-Montagnes;1;50;false;true;false;false;false;false;9.0;0;1;0;0;0;false;81013;4335419374;-73.912033;45.545111;81014;6119526185;-73.912799;45.542484;0;0;1;9397388;Bus 90 : TERMINUS /ST-EUSTACHE;"";EXO;90 E;Gare Deux-Montagnes;Terminus Saint-Eustache
742610245;"{\"type\":\"LineString\",\"coordinates\":[[-73.9119503,45.5446734],[-73.9119296,45.5443536],[-73.9119046,45.543928],[-73.9119127,45.5437798],[-73.9119456,45.5436291],[-73.9120162,45.5433915],[-73.912105,45.5432017],[-73.9123044,45.5428861],[-73.9124524,45.5426781],[-73.9125755,45.5425051],[-73.912653,45.5423976]]}";3;Boulevard de Deux-Montagnes;1;50;false;true;true;false;false;false;265.0;0;1;0;0;0;false;81013;4335419374;-73.912033;45.545111;81014;6119526185;-73.912799;45.542484;0;0;1;9397388;Bus 90 : TERMINUS /ST-EUSTACHE;"";EXO;90 E;Gare Deux-Montagnes;Terminus Saint-Eustache
30620693;"{\"type\":\"LineString\",\"coordinates\":[[-73.912653,45.5423976],[-73.9130633,45.5425024],[-73.9132241,45.5425362],[-73.9133838,45.54257],[-73.9143474,45.5427745],[-73.9152941,45.542975],[-73.915444,45.5430068],[-73.9174276,45.5434209],[-73.9176915,45.5434607],[-73.9181571,45.5434975],[-73.9200616,45.5434915]]}";4;20e Avenue;1;50;false;true;true;false;false;false;298.0;1;0;0;0;0;false;81013;4335419374;-73.912033;45.545111;81014;6119526185;-73.912799;45.542484;1;0;1;9397388;Bus 90 : TERMINUS /ST-EUSTACHE;"";EXO;90 E;Gare Deux-Montagnes;Terminus Saint-Eustache
742610245;"{\"type\":\"LineString\",\"coordinates\":[[-73.9119503,45.5446734],[-73.9119296,45.5443536],[-73.9119046,45.543928],[-73.9119127,45.5437798],[-73.9119456,45.5436291],[-73.9120162,45.5433915],[-73.912105,45.5432017],[-73.9123044,45.5428861],[-73.9124524,45.5426781],[-73.9125755,45.5425051],[-73.912653,45.5423976]]}";1;Boulevard de Deux-Montagnes;1;50;false;true;true;false;false;false;265.0;0;1;0;0;0;false;81014;6119526185;-73.912799;45.542484;80198;6119527018;-73.915474;45.543053;2;1;2;9397388;Bus 90 : TERMINUS /ST-EUSTACHE;"";EXO;90 E;Gare Deux-Montagnes;Terminus Saint-Eustache
30620693;"{\"type\":\"LineString\",\"coordinates\":[[-73.912653,45.5423976],[-73.9130633,45.5425024],[-73.9132241,45.5425362],[-73.9133838,45.54257],[-73.9143474,45.5427745],[-73.9152941,45.542975],[-73.915444,45.5430068],[-73.9174276,45.5434209],[-73.9176915,45.5434607],[-73.9181571,45.5434975],[-73.9200616,45.5434915]]}";2;20e Avenue;1;50;false;true;true;false;false;false;596.0;1;0;0;0;0;false;81014;6119526185;-73.912799;45.542484;80198;6119527018;-73.915474;45.543053;2;1;2;9397388;Bus 90 : TERMINUS /ST-EUSTACHE;"";EXO;90 E;Gare Deux-Montagnes;Terminus Saint-Eustache
30620693;"{\"type\":\"LineString\",\"coordinates\":[[-73.912653,45.5423976],[-73.9130633,45.5425024],[-73.9132241,45.5425362],[-73.9133838,45.54257],[-73.9143474,45.5427745],[-73.9152941,45.542975],[-73.915444,45.5430068],[-73.9174276,45.5434209],[-73.9176915,45.5434607],[-73.9181571,45.5434975],[-73.9200616,45.5434915]]}";1;20e Avenue;1;50;false;true;true;false;false;false;298.0;1;0;0;0;0;false;81015;6119526084;-73.917835;45.543532;81016;6119526083;-73.924035;45.546997;1;3;4;9397388;Bus 90 : TERMINUS /ST-EUSTACHE;"";EXO;90 E;Gare Deux-Montagnes;Terminus Saint-Eustache
41740047;"{\"type\":\"LineString\",\"coordinates\":[[-73.9200616,45.5434915],[-73.9201095,45.5437848],[-73.9201304,45.543905],[-73.9201579,45.5440441],[-73.9201991,45.5441844],[-73.9202494,45.5443301],[-73.9203314,45.5444939]]}";2;Boulevard des Promenades;2;50;false;true;true;false;false;false;114.0;0;0;0;0;0;false;81015;6119526084;-73.917835;45.543532;81016;6119526083;-73.924035;45.546997;0;3;4;9397388;Bus 90 : TERMINUS /ST-EUSTACHE;"";EXO;90 E;Gare Deux-Montagnes;Terminus Saint-Eustache
293133319;"{\"type\":\"LineString\",\"coordinates\":[[-73.9203314,45.5444939],[-73.9204254,45.5446555],[-73.9206256,45.5449446],[-73.9207535,45.5451075],[-73.9208783,45.5452338],[-73.921097,45.5454193],[-73.9213762,45.5456222],[-73.9217024,45.5458507],[-73.9222517,45.5461091],[-73.9227581,45.5463255],[-73.9234361,45.5466141],[-73.9241116,45.5468982]]}";3;Boulevard des Promenades;2;50;false;true;true;false;false;false;408.0;0;0;0;0;0;false;81015;6119526084;-73.917835;45.543532;81016;6119526083;-73.924035;45.546997;0;3;4;9397388;Bus 90 : TERMINUS /ST-EUSTACHE;"";EXO;90 E;Gare Deux-Montagnes;Terminus Saint-Eustache
30185254;"{\"type\":\"LineString\",\"coordinates\":[[-73.9241116,45.5468982],[-73.9240108,45.5471127],[-73.923964,45.5472322],[-73.9239689,45.5473596],[-73.9239769,45.5474177],[-73.9240197,45.5476031]]}";4;Boulevard Industriel;1;50;false;true;true;false;false;false;40.5;0;0;0;0;0;false;81015;6119526084;-73.917835;45.543532;81016;6119526083;-73.924035;45.546997;1;3;4;9397388;Bus 90 : TERMINUS /ST-EUSTACHE;"";EXO;90 E;Gare Deux-Montagnes;Terminus Saint-Eustache
293133319;"{\"type\":\"LineString\",\"coordinates\":[[-73.9203314,45.5444939],[-73.9204254,45.5446555],[-73.9206256,45.5449446],[-73.9207535,45.5451075],[-73.9208783,45.5452338],[-73.921097,45.5454193],[-73.9213762,45.5456222],[-73.9217024,45.5458507],[-73.9222517,45.5461091],[-73.9227581,45.5463255],[-73.9234361,45.5466141],[-73.9241116,45.5468982]]}";1;Boulevard des Promenades;2;50;false;true;true;false;false;false;408.0;0;0;0;0;0;false;81016;6119526083;-73.924035;45.546997;81017;6119526082;-73.921003;45.550228;2;4;5;9397388;Bus 90 : TERMINUS /ST-EUSTACHE;"";EXO;90 E;Gare Deux-Montagnes;Terminus Saint-Eustache
30185254;"{\"type\":\"LineString\",\"coordinates\":[[-73.9241116,45.5468982],[-73.9240108,45.5471127],[-73.923964,45.5472322],[-73.9239689,45.5473596],[-73.9239769,45.5474177],[-73.9240197,45.5476031]]}";2;Boulevard Industriel;1;50;false;true;true;false;false;false;81.0;0;0;0;0;0;false;81016;6119526083;-73.924035;45.546997;81017;6119526082;-73.921003;45.550228;0;4;5;9397388;Bus 90 : TERMINUS /ST-EUSTACHE;"";EXO;90 E;Gare Deux-Montagnes;Terminus Saint-Eustache
368474513;"{\"type\":\"LineString\",\"coordinates\":[[-73.9240197,45.5476031],[-73.9240573,45.5477809],[-73.924132,45.5480673],[-73.9241912,45.5482712],[-73.9242089,45.5483596],[-73.9242148,45.548457],[-73.9242128,45.5485556],[-73.9242102,45.5485773],[-73.9242023,45.5486435],[-73.9241702,45.5487575],[-73.9241154,45.5488878],[-73.9240446,45.5489986],[-73.9239518,45.5491183],[-73.9238636,45.5492062],[-73.9237594,45.5492879],[-73.9236565,45.5493511],[-73.9236184,45.5493745],[-73.9234679,45.5494411],[-73.9232978,45.5495052],[-73.9231565,45.5495445],[-73.9229857,45.5495847],[-73.9228416,45.5496124],[-73.9225793,45.5496521],[-73.9223317,45.5496892],[-73.9221538,45.5497216],[-73.9219064,45.5497859],[-73.9218747,45.5497982],[-73.9217779,45.5498359],[-73.9215833,45.5499262],[-73.9214384,45.5500116],[-73.9213171,45.5500904],[-73.9211968,45.5501834],[-73.9211008,45.5502698],[-73.9209964,45.550385],[-73.9209145,45.5504919],[-73.9208402,45.5505984],[-73.9207658,45.5507417],[-73.9207198,45.5508601],[-73.9206774,45.5509955],[-73.9206453,45.5511342],[-73.9206016,45.5514707],[-73.920598,45.5515773],[-73.9206114,45.5518405],[-73.9206342,45.5520363],[-73.9206689,45.5522029],[-73.9213921,45.5549108],[-73.9215907,45.5557104],[-73.9217455,45.5562674],[-73.9219469,45.5570541],[-73.9219927,45.5572186],[-73.9220457,45.5574091],[-73.9221917,45.5577637],[-73.9223108,45.5579887],[-73.9224649,45.5582421],[-73.9226731,45.5585375],[-73.922872,45.5587755],[-73.923108,45.5590171]]}";3;Boulevard Industriel;1;50;false;false;true;false;false;false;1447.0;0;0;0;0;0;false;81016;6119526083;-73.924035;45.546997;81017;6119526082;-73.921003;45.550228;2;4;5;9397388;Bus 90 : TERMINUS /ST-EUSTACHE;"";EXO;90 E;Gare Deux-Montagnes;Terminus Saint-Eustache
368474513;"{\"type\":\"LineString\",\"coordinates\":[[-73.9240197,45.5476031],[-73.9240573,45.5477809],[-73.924132,45.5480673],[-73.9241912,45.5482712],[-73.9242089,45.5483596],[-73.9242148,45.548457],[-73.9242128,45.5485556],[-73.9242102,45.5485773],[-73.9242023,45.5486435],[-73.9241702,45.5487575],[-73.9241154,45.5488878],[-73.9240446,45.5489986],[-73.9239518,45.5491183],[-73.9238636,45.5492062],[-73.9237594,45.5492879],[-73.9236565,45.5493511],[-73.9236184,45.5493745],[-73.9234679,45.5494411],[-73.9232978,45.5495052],[-73.9231565,45.5495445],[-73.9229857,45.5495847],[-73.9228416,45.5496124],[-73.9225793,45.5496521],[-73.9223317,45.5496892],[-73.9221538,45.5497216],[-73.9219064,45.5497859],[-73.9218747,45.5497982],[-73.9217779,45.5498359],[-73.9215833,45.5499262],[-73.9214384,45.5500116],[-73.9213171,45.5500904],[-73.9211968,45.5501834],[-73.9211008,45.5502698],[-73.9209964,45.550385],[-73.9209145,45.5504919],[-73.9208402,45.5505984],[-73.9207658,45.5507417],[-73.9207198,45.5508601],[-73.9206774,45.5509955],[-73.9206453,45.5511342],[-73.9206016,45.5514707],[-73.920598,45.5515773],[-73.9206114,45.5518405],[-73.9206342,45.5520363],[-73.9206689,45.5522029],[-73.9213921,45.5549108],[-73.9215907,45.5557104],[-73.9217455,45.5562674],[-73.9219469,45.5570541],[-73.9219927,45.5572186],[-73.9220457,45.5574091],[-73.9221917,45.5577637],[-73.9223108,45.5579887],[-73.9224649,45.5582421],[-73.9226731,45.5585375],[-73.922872,45.5587755],[-73.923108,45.5590171]]}";1;Boulevard Industriel;1;50;false;false;true;false;false;false;723.5;0;0;0;0;0;false;81019;6119526080;-73.922831;45.558926;81137;6119525775;-73.930256;45.557634;1;8;9;9397388;Bus 90 : TERMINUS /ST-EUSTACHE;"";EXO;90 E;Gare Deux-Montagnes;Terminus Saint-Eustache
46704236;"{\"type\":\"LineString\",\"coordinates\":[[-73.9303596,45.5576029],[-73.9291326,45.5577579],[-73.9289076,45.5577864],[-73.9288601,45.5577924],[-73.9286227,45.5578224],[-73.9280562,45.557894],[-73.9278383,45.5579215],[-73.9277531,45.5579323],[-73.9274197,45.5579744],[-73.9269982,45.5580276],[-73.92675,45.558059],[-73.9264162,45.5581012],[-73.9259399,45.5581614],[-73.9256272,45.5582009],[-73.9248819,45.5582951],[-73.9248243,45.5583023],[-73.9247273,45.5583146],[-73.9244943,45.5583589],[-73.9242837,45.5584314],[-73.9241444,45.5584975],[-73.9239556,45.5585872],[-73.9239469,45.5585914],[-73.9237024,45.5587154],[-73.923108,45.5590171]]}";2;Rue Poirier;2;50;false;false;true;false;false;false;298.5;0;0;0;0;0;false;81019;6119526080;-73.922831;45.558926;81137;6119525775;-73.930256;45.557634;1;8;9;9397388;Bus 90 : TERMINUS /ST-EUSTACHE;"";EXO;90 E;Gare Deux-Montagnes;Terminus Saint-Eustache
479558073;"{\"type\":\"LineString\",\"coordinates\":[[-73.9310878,45.5603349],[-73.9308207,45.5593328],[-73.9307081,45.5589106],[-73.9306166,45.5585673],[-73.9306074,45.5585326],[-73.9305366,45.5582671],[-73.9303596,45.5576029]]}";1;Allée du Golf;1;50;false;false;true;false;false;false;309.0;0;0;0;0;0;false;81137;6119525775;-73.930256;45.557634;80941;6301958149;-73.929718;45.560625;2;9;10;9397388;Bus 90 : TERMINUS /ST-EUSTACHE;"";EXO;90 E;Gare Deux-Montagnes;Terminus Saint-Eustache
746142548;"{\"type\":\"LineString\",\"coordinates\":[[-73.9249885,45.561288],[-73.9255794,45.5611606],[-73.9259922,45.5610716],[-73.9263252,45.5609998],[-73.9264299,45.5609847],[-73.9265379,45.5609691],[-73.9266628,45.560961],[-73.9268869,45.5609464],[-73.9271782,45.5609478],[-73.9273027,45.5609484],[-73.9275609,45.5609497],[-73.9278033,45.5609431],[-73.9280407,45.5609232],[-73.9284397,45.5608694],[-73.9291777,45.5607698],[-73.9293358,45.5607485],[-73.9294765,45.5607295],[-73.9302016,45.5606317],[-73.9302473,45.5606255],[-73.9304652,45.5605961],[-73.9307197,45.5605603],[-73.9308252,45.5605328],[-73.9309094,45.5604879],[-73.9310878,45.5603349]]}";2;Rue Robinson;2;50;false;false;true;false;false;false;496.0;0;0;0;0;0;false;81137;6119525775;-73.930256;45.557634;80941;6301958149;-73.929718;45.560625;2;9;10;9397388;Bus 90 : TERMINUS /ST-EUSTACHE;"";EXO;90 E;Gare Deux-Montagnes;Terminus Saint-Eustache
746142548;"{\"type\":\"LineString\",\"coordinates\":[[-73.9249885,45.561288],[-73.9255794,45.5611606],[-73.9259922,45.5610716],[-73.9263252,45.5609998],[-73.9264299,45.5609847],[-73.9265379,45.5609691],[-73.9266628,45.560961],[-73.9268869,45.5609464],[-73.9271782,45.5609478],[-73.9273027,45.5609484],[-73.9275609,45.5609497],[-73.9278033,45.5609431],[-73.9280407,45.5609232],[-73.9284397,45.5608694],[-73.9291777,45.5607698],[-73.9293358,45.5607485],[-73.9294765,45.5607295],[-73.9302016,45.5606317],[-73.9302473,45.5606255],[-73.9304652,45.5605961],[-73.9307197,45.5605603],[-73.9308252,45.5605328],[-73.9309094,45.5604879],[-73.9310878,45.5603349]]}";1;Rue Robinson;2;50;false;false;true;false;false;false;248.0;0;0;0;0;0;false;80941;6301958149;-73.929718;45.560625;81020;6119526079;-73.925186;45.562283;1;10;11;9397388;Bus 90 : TERMINUS /ST-EUSTACHE;"";EXO;90 E;Gare Deux-Montagnes;Terminus Saint-Eustache
479558072;"{\"type\":\"LineString\",\"coordinates\":[[-73.9248793,45.5613136],[-73.9249885,45.561288]]}";2;Rue Robinson;2;50;false;false;true;false;false;false;9.0;0;0;0;0;0;false;80941;6301958149;-73.929718;45.560625;81020;6119526079;-73.925186;45.562283;0;10;11;9397388;Bus 90 : TERMINUS /ST-EUSTACHE;"";EXO;90 E;Gare Deux-Montagnes;Terminus Saint-Eustache
676890390;"{\"type\":\"LineString\",\"coordinates\":[[-73.9248793,45.5613136],[-73.9249898,45.5615872],[-73.9251656,45.5620223],[-73.9251979,45.5621155],[-73.9253151,45.5624543],[-73.9255294,45.5632965],[-73.9256374,45.5640353],[-73.9256309,45.5645021],[-73.9255444,45.5650337],[-73.9254606,45.5653086],[-73.9253271,45.565647],[-73.9251393,45.5661232]]}";3;Boulevard Industriel;1;50;false;false;true;false;false;false;273.0;0;0;0;0;0;false;80941;6301958149;-73.929718;45.560625;81020;6119526079;-73.925186;45.562283;1;10;11;9397388;Bus 90 : TERMINUS /ST-EUSTACHE;"";EXO;90 E;Gare Deux-Montagnes;Terminus Saint-Eustache
676890390;"{\"type\":\"LineString\",\"coordinates\":[[-73.9248793,45.5613136],[-73.9249898,45.5615872],[-73.9251656,45.5620223],[-73.9251979,45.5621155],[-73.9253151,45.5624543],[-73.9255294,45.5632965],[-73.9256374,45.5640353],[-73.9256309,45.5645021],[-73.9255444,45.5650337],[-73.9254606,45.5653086],[-73.9253271,45.565647],[-73.9251393,45.5661232]]}";1;Boulevard Industriel;1;50;false;false;true;false;false;false;273.0;0;0;0;0;0;false;81314;6119525356;-73.925449;45.564835;81021;6119526078;-73.924915;45.56628;1;12;13;9397388;Bus 90 : TERMINUS /ST-EUSTACHE;"";EXO;90 E;Gare Deux-Montagnes;Terminus Saint-Eustache
142075782;"{\"type\":\"LineString\",\"coordinates\":[[-73.9251393,45.5661232],[-73.9250227,45.5663939]]}";2;Boulevard Industriel;1;50;false;false;true;false;false;false;16.0;0;0;0;0;0;false;81314;6119525356;-73.925449;45.564835;81021;6119526078;-73.924915;45.56628;1;12;13;9397388;Bus 90 : TERMINUS /ST-EUSTACHE;"";EXO;90 E;Gare Deux-Montagnes;Terminus Saint-Eustache
142075783;"{\"type\":\"LineString\",\"coordinates\":[[-73.9250227,45.5663939],[-73.9249542,45.5665529]]}";1;Boulevard Industriel;1;50;false;false;true;false;false;false;19.0;1;0;0;0;0;false;81021;6119526078;-73.924915;45.56628;81076;6119526029;-73.924955;45.56971;2;13;14;9397388;Bus 90 : TERMINUS /ST-EUSTACHE;"";EXO;90 E;Gare Deux-Montagnes;Terminus Saint-Eustache
94596627;"{\"type\":\"LineString\",\"coordinates\":[[-73.9249542,45.5665529],[-73.9248162,45.5666215],[-73.924734,45.5668029],[-73.9244218,45.5675337],[-73.9240481,45.5680491]]}";2;Boulevard Industriel;1;50;false;true;true;false;false;false;184.0;1;0;0;0;0;false;81021;6119526078;-73.924915;45.56628;81076;6119526029;-73.924955;45.56971;0;13;14;9397388;Bus 90 : TERMINUS /ST-EUSTACHE;"";EXO;90 E;Gare Deux-Montagnes;Terminus Saint-Eustache
676890377;"{\"type\":\"LineString\",\"coordinates\":[[-73.9241704,45.5681142],[-73.9240481,45.5680491]]}";3;Boulevard Louis-Joseph-Papineau;1;40;false;false;false;false;false;false;12.0;0;0;0;0;0;false;81021;6119526078;-73.924915;45.56628;81076;6119526029;-73.924955;45.56971;0;13;14;9397388;Bus 90 : TERMINUS /ST-EUSTACHE;"";EXO;90 E;Gare Deux-Montagnes;Terminus Saint-Eustache
51798651;"{\"type\":\"LineString\",\"coordinates\":[[-73.9274104,45.5769068],[-73.9272044,45.5766785],[-73.9270928,45.5765523],[-73.927007,45.5763901],[-73.9269298,45.5761378],[-73.9267066,45.5753207],[-73.9264658,45.5744258],[-73.9263101,45.5738287],[-73.9259903,45.5725816],[-73.9259537,45.572475],[-73.9259011,45.5723269],[-73.9258299,45.5722023],[-73.9257108,45.5720261],[-73.9256287,45.5718754],[-73.9255171,45.571559],[-73.9253076,45.5707004],[-73.9250824,45.5698438],[-73.9249439,45.5692228],[-73.9247421,45.5686852],[-73.9246632,45.5685197],[-73.924593,45.5684252],[-73.9244883,45.5683308],[-73.9242871,45.5681942],[-73.9241704,45.5681142]]}";4;Boulevard Louis-Joseph-Papineau;1;40;false;false;false;false;false;false;1020.0;0;0;0;0;0;false;81021;6119526078;-73.924915;45.56628;81076;6119526029;-73.924955;45.56971;2;13;14;9397388;Bus 90 : TERMINUS /ST-EUSTACHE;"";EXO;90 E;Gare Deux-Montagnes;Terminus Saint-Eustache
676890380;"{\"type\":\"LineString\",\"coordinates\":[[-73.9243865,45.5810228],[-73.925275,45.5805895]]}";1;Boulevard Léveillé;1;40;false;false;false;false;false;false;85.0;0;0;0;0;0;false;81089;6119526016;-73.925401;45.580642;81090;6119526015;-73.922482;45.581835;2;29;30;9397388;Bus 90 : TERMINUS /ST-EUSTACHE;"";EXO;90 E;Gare Deux-Montagnes;Terminus Saint-Eustache
289788550;"{\"type\":\"LineString\",\"coordinates\":[[-73.9230436,45.5816577],[-73.9243865,45.5810228]]}";2;Boulevard Léveillé;2;40;false;false;true;false;false;false;127.0;0;0;0;0;0;false;81089;6119526016;-73.925401;45.580642;81090;6119526015;-73.922482;45.581835;0;29;30;9397388;Bus 90 : TERMINUS /ST-EUSTACHE;"";EXO;90 E;Gare Deux-Montagnes;Terminus Saint-Eustache
41551255;"{\"type\":\"LineString\",\"coordinates\":[[-73.922307,45.5820018],[-73.9230436,45.5816577]]}";3;Boulevard Léveillé;1;40;false;false;true;false;false;false;69.0;1;0;0;0;0;false;81089;6119526016;-73.925401;45.580642;81090;6119526015;-73.922482;45.581835;2;29;30;9397388;Bus 90 : TERMINUS /ST-EUSTACHE;"";EXO;90 E;Gare Deux-Montagnes;Terminus Saint-Eustache
41551255;"{\"type\":\"LineString\",\"coordinates\":[[-73.922307,45.5820018],[-73.9230436,45.5816577]]}";1;Boulevard Léveillé;1;40;false;false;true;false;false;false;34.5;1;0;0;0;0;false;81090;6119526015;-73.922482;45.581835;81091;6119526014;-73.918958;45.578415;1;30;31;9397388;Bus 90 : TERMINUS /ST-EUSTACHE;"";EXO;90 E;Gare Deux-Montagnes;Terminus Saint-Eustache
376720456;"{\"type\":\"LineString\",\"coordinates\":[[-73.922307,45.5820018],[-73.9208553,45.5805247],[-73.9207377,45.5804051],[-73.920564,45.5802283],[-73.920335,45.5799953],[-73.9201141,45.5797705],[-73.9196345,45.5792825],[-73.9187641,45.5783971],[-73.9182977,45.5779223],[-73.9175808,45.5771928],[-73.9172851,45.5768919],[-73.9170848,45.5766881],[-73.9166961,45.5762927],[-73.916573,45.5761672],[-73.9164338,45.5760256],[-73.9158292,45.5754104]]}";2;Boulevard Arthur-Sauvé;4;50;false;false;true;false;false;false;445.0;3;0;0;0;0;false;81090;6119526015;-73.922482;45.581835;81091;6119526014;-73.918958;45.578415;1;30;31;9397388;Bus 90 : TERMINUS /ST-EUSTACHE;"";EXO;90 E;Gare Deux-Montagnes;Terminus Saint-Eustache
371430504;"{\"type\":\"LineString\",\"coordinates\":[[-73.9158292,45.5754104],[-73.9157543,45.5752761],[-73.9144287,45.573948]]}";1;Boulevard Arthur-Sauvé;2;50;false;true;true;false;false;false;197.0;1;0;0;0;0;false;81092;6119526013;-73.915952;45.575417;81093;6119526012;-73.914421;45.573871;2;32;33;9397388;Bus 90 : TERMINUS /ST-EUSTACHE;"";EXO;90 E;Gare Deux-Montagnes;Terminus Saint-Eustache
676886062;"{\"type\":\"LineString\",\"coordinates\":[[-73.9144287,45.573948],[-73.9138977,45.5734124],[-73.9138173,45.5733312]]}";2;Boulevard Arthur-Sauvé;3;50;false;true;true;false;false;false;84.0;2;0;0;0;0;false;81092;6119526013;-73.915952;45.575417;81093;6119526012;-73.914421;45.573871;2;32;33;9397388;Bus 90 : TERMINUS /ST-EUSTACHE;"";EXO;90 E;Gare Deux-Montagnes;Terminus Saint-Eustache
371430504;"{\"type\":\"LineString\",\"coordinates\":[[-73.9158292,45.5754104],[-73.9157543,45.5752761],[-73.9144287,45.573948]]}";1;Boulevard Arthur-Sauvé;2;50;false;true;true;false;false;false;197.0;1;0;0;0;0;false;81093;6119526012;-73.914421;45.573871;81283;6119525380;-73.91272;45.572118;2;33;34;9397388;Bus 90 : TERMINUS /ST-EUSTACHE;"";EXO;90 E;Gare Deux-Montagnes;Terminus Saint-Eustache
676886062;"{\"type\":\"LineString\",\"coordinates\":[[-73.9144287,45.573948],[-73.9138977,45.5734124],[-73.9138173,45.5733312]]}";2;Boulevard Arthur-Sauvé;3;50;false;true;true;false;false;false;84.0;2;0;0;0;0;false;81093;6119526012;-73.914421;45.573871;81283;6119525380;-73.91272;45.572118;0;33;34;9397388;Bus 90 : TERMINUS /ST-EUSTACHE;"";EXO;90 E;Gare Deux-Montagnes;Terminus Saint-Eustache
165209595;"{\"type\":\"LineString\",\"coordinates\":[[-73.9138173,45.5733312],[-73.9132411,45.5727501],[-73.912573,45.5720761],[-73.9117299,45.5712257]]}";3;Boulevard Arthur-Sauvé;3;50;false;true;true;false;false;false;285.0;3;0;0;0;0;false;81093;6119526012;-73.914421;45.573871;81283;6119525380;-73.91272;45.572118;2;33;34;9397388;Bus 90 : TERMINUS /ST-EUSTACHE;"";EXO;90 E;Gare Deux-Montagnes;Terminus Saint-Eustache
676886061;"{\"type\":\"LineString\",\"coordinates\":[[-73.9117299,45.5712257],[-73.9115214,45.5710153],[-73.9112325,45.5707239]]}";1;Boulevard Arthur-Sauvé;3;50;false;true;true;false;false;false;68.0;1;0;0;0;0;false;83226;6119522952;-73.911891;45.571292;81135;6119525777;-73.907336;45.566671;2;35;36;9397388;Bus 90 : TERMINUS /ST-EUSTACHE;"";EXO;90 E;Gare Deux-Montagnes;Terminus Saint-Eustache
128245205;"{\"type\":\"LineString\",\"coordinates\":[[-73.9112325,45.5707239],[-73.9110144,45.5705127],[-73.9107827,45.5702723],[-73.9107054,45.5701221],[-73.9107054,45.5699238],[-73.9108023,45.5693463],[-73.9108258,45.5690496],[-73.9108074,45.5688481],[-73.9107424,45.5686871]]}";2;Boulevard Arthur-Sauvé;3;50;false;true;true;false;false;false;240.0;1;0;0;0;0;false;83226;6119522952;-73.911891;45.571292;81135;6119525777;-73.907336;45.566671;0;35;36;9397388;Bus 90 : TERMINUS /ST-EUSTACHE;"";EXO;90 E;Gare Deux-Montagnes;Terminus Saint-Eustache
676858048;"{\"type\":\"LineString\",\"coordinates\":[[-73.9107424,45.5686871],[-73.9106444,45.5685204],[-73.9104732,45.5683182],[-73.9102455,45.5681616],[-73.9102145,45.5681485],[-73.909989,45.5680529],[-73.9096603,45.5679396],[-73.9091517,45.5678333]]}";3;Boulevard Arthur-Sauvé;3;50;false;true;true;false;false;false;165.0;2;0;0;0;0;false;83226;6119522952;-73.911891;45.571292;81135;6119525777;-73.907336;45.566671;0;35;36;9397388;Bus 90 : TERMINUS /ST-EUSTACHE;"";EXO;90 E;Gare Deux-Montagnes;Terminus Saint-Eustache
676848398;"{\"type\":\"LineString\",\"coordinates\":[[-73.9091517,45.5678333],[-73.9085928,45.5677279],[-73.9082936,45.5676225],[-73.9079674,45.5674363],[-73.9071957,45.5666589],[-73.9063203,45.5657771],[-73.905709,45.5651613],[-73.9055767,45.565043],[-73.9053496,45.5648104],[-73.9044752,45.5639305],[-73.9043303,45.5637847],[-73.9036115,45.5630613],[-73.9032296,45.5626651],[-73.9027029,45.5621767],[-73.9025962,45.5620777],[-73.902441,45.5619306],[-73.9021917,45.5617312],[-73.9018118,45.5615074],[-73.9014061,45.5613128]]}";4;Boulevard Arthur-Sauvé;1;50;false;true;true;false;false;false;959.0;5;0;0;0;0;false;83226;6119522952;-73.911891;45.571292;81135;6119525777;-73.907336;45.566671;2;35;36;9397388;Bus 90 : TERMINUS /ST-EUSTACHE;"";EXO;90 E;Gare Deux-Montagnes;Terminus Saint-Eustache
677253517;"{\"type\":\"LineString\",\"coordinates\":[[-73.8986809,45.5608756],[-73.8982312,45.5609342]]}";1;Boulevard Arthur-Sauvé;1;50;false;true;true;false;false;false;36.0;1;0;0;0;0;false;81162;6119525757;-73.898798;45.560811;81163;6119525756;-73.895763;45.561281;2;40;41;9397388;Bus 90 : TERMINUS /ST-EUSTACHE;"";EXO;90 E;Gare Deux-Montagnes;Terminus Saint-Eustache
677250675;"{\"type\":\"LineString\",\"coordinates\":[[-73.8982312,45.5609342],[-73.8979925,45.5609652],[-73.89748,45.5610544],[-73.896483,45.5612224],[-73.8962587,45.5612529],[-73.8956287,45.5613385],[-73.8948514,45.5614658],[-73.8940975,45.5615893]]}";2;Boulevard Arthur-Sauvé;1;50;false;true;true;false;false;false;331.0;2;0;0;0;0;false;81162;6119525757;-73.898798;45.560811;81163;6119525756;-73.895763;45.561281;2;40;41;9397388;Bus 90 : TERMINUS /ST-EUSTACHE;"";EXO;90 E;Gare Deux-Montagnes;Terminus Saint-Eustache
677250675;"{\"type\":\"LineString\",\"coordinates\":[[-73.8982312,45.5609342],[-73.8979925,45.5609652],[-73.89748,45.5610544],[-73.896483,45.5612224],[-73.8962587,45.5612529],[-73.8956287,45.5613385],[-73.8948514,45.5614658],[-73.8940975,45.5615893]]}";1;Boulevard Arthur-Sauvé;1;50;false;true;true;false;false;false;165.5;2;0;0;0;0;false;81163;6119525756;-73.895763;45.561281;81000;6119526196;-73.892828;45.561425;1;41;42;9397388;Bus 90 : TERMINUS /ST-EUSTACHE;"";EXO;90 E;Gare Deux-Montagnes;Terminus Saint-Eustache
676848395;"{\"type\":\"LineString\",\"coordinates\":[[-73.8940975,45.5615893],[-73.8941016,45.5613774],[-73.8940785,45.5612464],[-73.8940342,45.5611575],[-73.8939193,45.5610459],[-73.8937986,45.5609543]]}";2;Rue Dorion;1;50;false;false;true;false;false;false;78.0;1;0;0;0;0;false;81163;6119525756;-73.895763;45.561281;81000;6119526196;-73.892828;45.561425;0;41;42;9397388;Bus 90 : TERMINUS /ST-EUSTACHE;"";EXO;90 E;Gare Deux-Montagnes;Terminus Saint-Eustache
138428141;"{\"type\":\"LineString\",\"coordinates\":[[-73.8937986,45.5609543],[-73.8936234,45.560945],[-73.8935657,45.560978],[-73.8935027,45.5610387],[-73.8934764,45.5611104],[-73.8934449,45.5611912],[-73.8933793,45.5612519],[-73.893319,45.5612978],[-73.8932807,45.5613137]]}";3;"";1;50;false;false;true;false;true;false;65.0;0;0;0;0;0;false;81163;6119525756;-73.895763;45.561281;81000;6119526196;-73.892828;45.561425;0;41;42;9397388;Bus 90 : TERMINUS /ST-EUSTACHE;"";EXO;90 E;Gare Deux-Montagnes;Terminus Saint-Eustache
676886050;"{\"type\":\"LineString\",\"coordinates\":[[-73.8932807,45.5613137],[-73.8931903,45.5613511],[-73.8930223,45.5613915],[-73.8928026,45.5614415]]}";4;"";1;50;false;false;true;false;true;false;41.0;0;1;0;0;0;false;81163;6119525756;-73.895763;45.561281;81000;6119526196;-73.892828;45.561425;1;41;42;9397388;Bus 90 : TERMINUS /ST-EUSTACHE;"";EXO;90 E;Gare Deux-Montagnes;Terminus Saint-Eustache
