way_id;shape;index;name;nb_lanes;legal_speed;speed_zone_30;oneway;shares_bike;bike_box;bus_lane;dedicated_bus_lane;length;nb_traffic_signals;nb_crossings;nb_stops;nb_give_ways;nb_lvl_crossings;roundabout;stop_id_orig;node_id_orig;coord_x_orig;coord_y_orig;stop_id_dest;node_id_dest;coord_x_dest;coord_y_dest;nb_neighbouring_ways_bus_stop;ordre_orig;ordre_dest;id_line;line_name;colour;operator;ref;from;to
507634381;"{\"type\":\"LineString\",\"coordinates\":[[-74.041385,45.4142938],[-74.0412083,45.4144034],[-74.0407248,45.4146469],[-74.0403231,45.4148492],[-74.040158,45.4149323],[-74.0397343,45.4151457],[-74.0393798,45.4153243],[-74.0393169,45.415356],[-74.039279,45.4153751],[-74.038879,45.4155765],[-74.0386272,45.4156727],[-74.0383785,45.41573],[-74.0380316,45.4157563],[-74.0377763,45.4157332],[-74.0374634,45.4156304],[-74.0372119,45.4154973],[-74.0369435,45.4152731],[-74.0368104,45.415149],[-74.0367507,45.4150911],[-74.0356985,45.4140704],[-74.0355701,45.4139729],[-74.0354661,45.4138938],[-74.0352814,45.4138215],[-74.0349498,45.4137563],[-74.0330508,45.4137624],[-74.0328062,45.4137678],[-74.0325779,45.4137729],[-74.0320306,45.41382],[-74.0312807,45.4139284],[-74.0308378,45.4140266],[-74.0303193,45.4141787],[-74.0278555,45.4150285],[-74.0270979,45.4152474],[-74.0269049,45.4153031],[-74.0259999,45.4155284],[-74.0255136,45.4156319],[-74.0244157,45.4158656],[-74.023503,45.4160248],[-74.0227955,45.4161482],[-74.0220798,45.4162519],[-74.020767,45.4164421],[-74.0197002,45.4166122],[-74.0183229,45.4167992]]}";1;Chemin Dumberry;2;50;false;false;true;false;false;false;2009.0;1;0;0;0;0;false;72798;6133272657;-74.019926;45.416513;72799;6133272656;-74.016547;45.418444;1;10;11;9466680;Bus 7 : Direction Pointe-Claire;"";EXO;7 E;Gare Vaudreuil;boul. Brunswick / rue Auto Plaza
385925716;"{\"type\":\"LineString\",\"coordinates\":[[-74.0183229,45.4167992],[-74.0179839,45.4168314],[-74.0174743,45.4169068],[-74.017367,45.4169331],[-74.0173027,45.4169595],[-74.0172598,45.4170009],[-74.0171856,45.4171331]]}";2;Chemin Dumberry;1;50;false;true;true;false;false;false;104.0;0;0;0;0;0;false;72798;6133272657;-74.019926;45.416513;72799;6133272656;-74.016547;45.418444;0;10;11;9466680;Bus 7 : Direction Pointe-Claire;"";EXO;7 E;Gare Vaudreuil;boul. Brunswick / rue Auto Plaza
385925718;"{\"type\":\"LineString\",\"coordinates\":[[-74.0171856,45.4171331],[-74.0171116,45.4175593]]}";3;Chemin Dumberry;1;50;false;false;true;false;false;false;48.0;0;0;0;0;0;false;72798;6133272657;-74.019926;45.416513;72799;6133272656;-74.016547;45.418444;0;10;11;9466680;Bus 7 : Direction Pointe-Claire;"";EXO;7 E;Gare Vaudreuil;boul. Brunswick / rue Auto Plaza
385925720;"{\"type\":\"LineString\",\"coordinates\":[[-74.0171116,45.4175593],[-74.0170594,45.4178599],[-74.0170285,45.418036],[-74.0169727,45.4182273],[-74.0168736,45.4183534],[-74.0167374,45.418436],[-74.0165764,45.4185055],[-74.0163803,45.4185478]]}";4;Chemin Dumberry;1;50;false;false;true;false;false;false;68.0;0;0;0;0;0;false;72798;6133272657;-74.019926;45.416513;72799;6133272656;-74.016547;45.418444;1;10;11;9466680;Bus 7 : Direction Pointe-Claire;"";EXO;7 E;Gare Vaudreuil;boul. Brunswick / rue Auto Plaza
385347338;"{\"type\":\"LineString\",\"coordinates\":[[-74.0159884,45.415913],[-74.0160989,45.4161811]]}";1;Boulevard de la Cité-des-Jeunes;1;50;false;true;true;false;false;false;32.0;0;0;0;0;0;false;72805;6133272650;-74.016062;45.416064;72452;6133274299;-73.939836;45.413955;2;12;13;9466680;Bus 7 : Direction Pointe-Claire;"";EXO;7 E;Gare Vaudreuil;boul. Brunswick / rue Auto Plaza
385347341;"{\"type\":\"LineString\",\"coordinates\":[[-74.0160989,45.4161811],[-74.0157828,45.4162468],[-74.015372,45.4163777],[-74.0151021,45.4164367],[-74.0148247,45.4164995],[-74.0133293,45.4167635],[-74.0118351,45.4169953],[-74.0103387,45.4173008]]}";2;"";1;50;false;true;true;false;false;false;469.0;0;0;0;0;0;false;72805;6133272650;-74.016062;45.416064;72452;6133274299;-73.939836;45.413955;0;12;13;9466680;Bus 7 : Direction Pointe-Claire;"";EXO;7 E;Gare Vaudreuil;boul. Brunswick / rue Auto Plaza
682295372;"{\"type\":\"LineString\",\"coordinates\":[[-74.0103387,45.4173008],[-74.0101299,45.4173314]]}";3;Autoroute Félix-Leclerc;3;100;false;true;true;false;false;false;17.0;0;0;0;0;0;false;72805;6133272650;-74.016062;45.416064;72452;6133274299;-73.939836;45.413955;0;12;13;9466680;Bus 7 : Direction Pointe-Claire;"";EXO;7 E;Gare Vaudreuil;boul. Brunswick / rue Auto Plaza
543295637;"{\"type\":\"LineString\",\"coordinates\":[[-74.0101299,45.4173314],[-74.0067804,45.4178826]]}";4;Autoroute Félix-Leclerc;3;100;false;true;true;false;false;false;270.0;0;0;0;0;0;false;72805;6133272650;-74.016062;45.416064;72452;6133274299;-73.939836;45.413955;0;12;13;9466680;Bus 7 : Direction Pointe-Claire;"";EXO;7 E;Gare Vaudreuil;boul. Brunswick / rue Auto Plaza
20944936;"{\"type\":\"LineString\",\"coordinates\":[[-74.0067804,45.4178826],[-74.0060461,45.4179904]]}";5;Autoroute Transcanadienne;3;100;false;true;true;false;false;false;59.0;0;0;0;0;0;false;72805;6133272650;-74.016062;45.416064;72452;6133274299;-73.939836;45.413955;0;12;13;9466680;Bus 7 : Direction Pointe-Claire;"";EXO;7 E;Gare Vaudreuil;boul. Brunswick / rue Auto Plaza
202903293;"{\"type\":\"LineString\",\"coordinates\":[[-74.0060461,45.4179904],[-74.0047807,45.418172]]}";6;Autoroute Félix-Leclerc;3;100;false;true;true;false;false;false;102.0;0;0;0;0;0;false;72805;6133272650;-74.016062;45.416064;72452;6133274299;-73.939836;45.413955;0;12;13;9466680;Bus 7 : Direction Pointe-Claire;"";EXO;7 E;Gare Vaudreuil;boul. Brunswick / rue Auto Plaza
47466809;"{\"type\":\"LineString\",\"coordinates\":[[-74.0047807,45.418172],[-74.0035865,45.4183366]]}";7;Pont de l'Île Thomas;3;100;false;true;true;false;false;false;96.0;0;0;0;0;0;false;72805;6133272650;-74.016062;45.416064;72452;6133274299;-73.939836;45.413955;0;12;13;9466680;Bus 7 : Direction Pointe-Claire;"";EXO;7 E;Gare Vaudreuil;boul. Brunswick / rue Auto Plaza
627193942;"{\"type\":\"LineString\",\"coordinates\":[[-74.0035865,45.4183366],[-74.0002449,45.4187973],[-73.9972944,45.419106],[-73.9923517,45.419517]]}";8;Autoroute Félix-Leclerc;3;100;false;true;true;false;false;false;889.0;0;0;0;0;0;false;72805;6133272650;-74.016062;45.416064;72452;6133274299;-73.939836;45.413955;0;12;13;9466680;Bus 7 : Direction Pointe-Claire;"";EXO;7 E;Gare Vaudreuil;boul. Brunswick / rue Auto Plaza
627193937;"{\"type\":\"LineString\",\"coordinates\":[[-73.9923517,45.419517],[-73.967586,45.4215762]]}";9;Pont de l'Île-aux-Tourtes;3;100;false;true;true;false;false;false;1951.0;0;0;0;0;0;false;72805;6133272650;-74.016062;45.416064;72452;6133274299;-73.939836;45.413955;0;12;13;9466680;Bus 7 : Direction Pointe-Claire;"";EXO;7 E;Gare Vaudreuil;boul. Brunswick / rue Auto Plaza
605583450;"{\"type\":\"LineString\",\"coordinates\":[[-73.967586,45.4215762],[-73.9656705,45.4217285],[-73.965431,45.4217437],[-73.9652176,45.421754],[-73.9650192,45.4217607],[-73.9648134,45.4217634],[-73.964626,45.4217655],[-73.9644381,45.4217657],[-73.9642425,45.4217621],[-73.9640241,45.4217548],[-73.9638506,45.4217455],[-73.9635336,45.4217257],[-73.9632542,45.4217079],[-73.9622531,45.4216349],[-73.9613944,45.4215688],[-73.9594916,45.4214131],[-73.9577191,45.4212708],[-73.9563565,45.4211691]]}";10;Autoroute Félix-Leclerc;3;100;false;true;false;false;false;false;883.0;0;0;0;0;0;false;72805;6133272650;-74.016062;45.416064;72452;6133274299;-73.939836;45.413955;0;12;13;9466680;Bus 7 : Direction Pointe-Claire;"";EXO;7 E;Gare Vaudreuil;boul. Brunswick / rue Auto Plaza
437540336;"{\"type\":\"LineString\",\"coordinates\":[[-73.9563565,45.4211691],[-73.9546123,45.4209467],[-73.9532576,45.4207723],[-73.9523689,45.4206586],[-73.951931,45.4205998],[-73.9516104,45.4205576],[-73.9513515,45.4205318]]}";11;"";1;50;false;true;true;false;false;false;398.0;0;0;0;0;0;false;72805;6133272650;-74.016062;45.416064;72452;6133274299;-73.939836;45.413955;0;12;13;9466680;Bus 7 : Direction Pointe-Claire;"";EXO;7 E;Gare Vaudreuil;boul. Brunswick / rue Auto Plaza
455677640;"{\"type\":\"LineString\",\"coordinates\":[[-73.9513515,45.4205318],[-73.9510925,45.4205059],[-73.950786,45.42048],[-73.9483627,45.4202798]]}";12;"";1;50;false;true;true;false;false;false;236.0;0;0;0;0;0;false;72805;6133272650;-74.016062;45.416064;72452;6133274299;-73.939836;45.413955;0;12;13;9466680;Bus 7 : Direction Pointe-Claire;"";EXO;7 E;Gare Vaudreuil;boul. Brunswick / rue Auto Plaza
682295357;"{\"type\":\"LineString\",\"coordinates\":[[-73.9483627,45.4202798],[-73.946777,45.4201661]]}";13;"";1;50;false;true;true;false;false;false;125.0;0;0;0;0;0;false;72805;6133272650;-74.016062;45.416064;72452;6133274299;-73.939836;45.413955;0;12;13;9466680;Bus 7 : Direction Pointe-Claire;"";EXO;7 E;Gare Vaudreuil;boul. Brunswick / rue Auto Plaza
21167059;"{\"type\":\"LineString\",\"coordinates\":[[-73.946777,45.4201661],[-73.9461603,45.4201188],[-73.9442824,45.4199784],[-73.9439974,45.4199521],[-73.9436453,45.4199151],[-73.9417007,45.4197578],[-73.9411653,45.4197337],[-73.9407491,45.4197151]]}";14;"";1;50;false;true;true;false;false;false;475.0;0;0;0;0;0;false;72805;6133272650;-74.016062;45.416064;72452;6133274299;-73.939836;45.413955;0;12;13;9466680;Bus 7 : Direction Pointe-Claire;"";EXO;7 E;Gare Vaudreuil;boul. Brunswick / rue Auto Plaza
682295356;"{\"type\":\"LineString\",\"coordinates\":[[-73.9407491,45.4197151],[-73.9407176,45.4195431]]}";15;Rue Poultry Cottages;1;50;false;false;false;false;false;false;20.0;0;0;0;0;0;false;72805;6133272650;-74.016062;45.416064;72452;6133274299;-73.939836;45.413955;0;12;13;9466680;Bus 7 : Direction Pointe-Claire;"";EXO;7 E;Gare Vaudreuil;boul. Brunswick / rue Auto Plaza
474313552;"{\"type\":\"LineString\",\"coordinates\":[[-73.9407176,45.4195431],[-73.9406755,45.4193134],[-73.9398891,45.4150187],[-73.9398081,45.4145764]]}";16;Rue Poultry Cottages;1;50;false;false;true;false;false;false;557.0;0;0;1;0;0;false;72805;6133272650;-74.016062;45.416064;72452;6133274299;-73.939836;45.413955;0;12;13;9466680;Bus 7 : Direction Pointe-Claire;"";EXO;7 E;Gare Vaudreuil;boul. Brunswick / rue Auto Plaza
474313551;"{\"type\":\"LineString\",\"coordinates\":[[-73.9398081,45.4145764],[-73.9397689,45.4143523],[-73.9397477,45.4142439],[-73.9396924,45.4140424]]}";17;Rue Poultry Cottages;1;50;false;false;true;false;false;false;61.0;0;0;1;0;0;false;72805;6133272650;-74.016062;45.416064;72452;6133274299;-73.939836;45.413955;0;12;13;9466680;Bus 7 : Direction Pointe-Claire;"";EXO;7 E;Gare Vaudreuil;boul. Brunswick / rue Auto Plaza
21908729;"{\"type\":\"LineString\",\"coordinates\":[[-73.9396924,45.4140424],[-73.9396109,45.4138334],[-73.9395978,45.4137913],[-73.9394728,45.413399],[-73.9394277,45.413241],[-73.9394016,45.4131433],[-73.9393849,45.4130672],[-73.939351,45.4129026],[-73.939323,45.4127595],[-73.939254,45.4123847],[-73.93915,45.4118218]]}";18;Rue Poultry Cottages;1;50;false;false;false;false;false;false;251.0;0;1;0;0;0;false;72805;6133272650;-74.016062;45.416064;72452;6133274299;-73.939836;45.413955;2;12;13;9466680;Bus 7 : Direction Pointe-Claire;"";EXO;7 E;Gare Vaudreuil;boul. Brunswick / rue Auto Plaza
474313551;"{\"type\":\"LineString\",\"coordinates\":[[-73.9398081,45.4145764],[-73.9397689,45.4143523],[-73.9397477,45.4142439],[-73.9396924,45.4140424]]}";1;Rue Poultry Cottages;1;50;false;false;true;false;false;false;61.0;0;0;1;0;0;false;72452;6133274299;-73.939836;45.413955;72453;6133274298;-73.940924;45.406939;2;13;14;9466680;Bus 7 : Direction Pointe-Claire;"";EXO;7 E;Gare Vaudreuil;boul. Brunswick / rue Auto Plaza
21908729;"{\"type\":\"LineString\",\"coordinates\":[[-73.9396924,45.4140424],[-73.9396109,45.4138334],[-73.9395978,45.4137913],[-73.9394728,45.413399],[-73.9394277,45.413241],[-73.9394016,45.4131433],[-73.9393849,45.4130672],[-73.939351,45.4129026],[-73.939323,45.4127595],[-73.939254,45.4123847],[-73.93915,45.4118218]]}";2;Rue Poultry Cottages;1;50;false;false;false;false;false;false;251.0;0;1;0;0;0;false;72452;6133274299;-73.939836;45.413955;72453;6133274298;-73.940924;45.406939;0;13;14;9466680;Bus 7 : Direction Pointe-Claire;"";EXO;7 E;Gare Vaudreuil;boul. Brunswick / rue Auto Plaza
21908742;"{\"type\":\"LineString\",\"coordinates\":[[-73.93915,45.4118218],[-73.9389009,45.4104226]]}";3;Rue Poultry Cottages;1;50;false;false;false;false;false;false;157.0;0;0;0;0;0;false;72452;6133274299;-73.939836;45.413955;72453;6133274298;-73.940924;45.406939;0;13;14;9466680;Bus 7 : Direction Pointe-Claire;"";EXO;7 E;Gare Vaudreuil;boul. Brunswick / rue Auto Plaza
451883388;"{\"type\":\"LineString\",\"coordinates\":[[-73.9403123,45.4080692],[-73.9402363,45.4080765],[-73.940016,45.4080942],[-73.9396588,45.4081247],[-73.939614,45.4081303],[-73.9395858,45.4081373],[-73.9395384,45.4081536],[-73.9394886,45.4081772],[-73.9394562,45.4081963],[-73.9389245,45.4085098],[-73.9388299,45.408576],[-73.9387912,45.4086135],[-73.9387673,45.4086447],[-73.9387561,45.4086673],[-73.9387467,45.4086924],[-73.9387257,45.4088358],[-73.9387224,45.4088731],[-73.938718,45.4090241],[-73.9387181,45.4091267],[-73.9387218,45.4091979],[-73.9387288,45.4093005],[-73.9389009,45.4104226]]}";4;Rue Poultry Cottages;2;50;false;false;true;false;false;false;342.0;0;4;1;0;0;false;72452;6133274299;-73.939836;45.413955;72453;6133274298;-73.940924;45.406939;0;13;14;9466680;Bus 7 : Direction Pointe-Claire;"";EXO;7 E;Gare Vaudreuil;boul. Brunswick / rue Auto Plaza
682295370;"{\"type\":\"LineString\",\"coordinates\":[[-73.9431593,45.4067327],[-73.9431679,45.4067727],[-73.9432546,45.4072548],[-73.9433112,45.4075898],[-73.9433126,45.4076294],[-73.943312,45.4076537],[-73.9433046,45.4076941],[-73.9432885,45.4077223],[-73.9432682,45.4077414],[-73.94324,45.407755],[-73.9432076,45.4077622],[-73.9430748,45.4077933],[-73.943031,45.4078026],[-73.9429826,45.4078106],[-73.9423755,45.4078674],[-73.942212,45.407891],[-73.9420198,45.4079092],[-73.9405242,45.4080493],[-73.9403595,45.4080648],[-73.9403123,45.4080692]]}";5;Rue Poultry Cottages;2;50;false;false;true;false;false;false;349.0;0;1;0;0;0;false;72452;6133274299;-73.939836;45.413955;72453;6133274298;-73.940924;45.406939;0;13;14;9466680;Bus 7 : Direction Pointe-Claire;"";EXO;7 E;Gare Vaudreuil;boul. Brunswick / rue Auto Plaza
110168221;"{\"type\":\"LineString\",\"coordinates\":[[-73.9431593,45.4067327],[-73.943113,45.4067284],[-73.9430655,45.4067214],[-73.9429587,45.4067034],[-73.9429019,45.4066983],[-73.9428412,45.4066983],[-73.9422369,45.4067484],[-73.9416919,45.4067959],[-73.9413588,45.4069439],[-73.9413045,45.4069592],[-73.9412401,45.4069733],[-73.9411551,45.4069884],[-73.9409377,45.4070286]]}";6;"";1;50;false;false;true;false;false;false;181.0;0;0;0;0;0;false;72452;6133274299;-73.939836;45.413955;72453;6133274298;-73.940924;45.406939;2;13;14;9466680;Bus 7 : Direction Pointe-Claire;"";EXO;7 E;Gare Vaudreuil;boul. Brunswick / rue Auto Plaza
683983706;"{\"type\":\"LineString\",\"coordinates\":[[-73.9409377,45.4070286],[-73.940737,45.4070916],[-73.9406617,45.40713],[-73.9405939,45.4071762]]}";1;"";1;50;false;false;true;false;false;false;32.0;0;1;0;0;0;false;72453;6133274298;-73.940924;45.406939;72281;6133274743;-73.833016;45.466567;2;14;15;9466680;Bus 7 : Direction Pointe-Claire;"";EXO;7 E;Gare Vaudreuil;boul. Brunswick / rue Auto Plaza
110168221;"{\"type\":\"LineString\",\"coordinates\":[[-73.9431593,45.4067327],[-73.943113,45.4067284],[-73.9430655,45.4067214],[-73.9429587,45.4067034],[-73.9429019,45.4066983],[-73.9428412,45.4066983],[-73.9422369,45.4067484],[-73.9416919,45.4067959],[-73.9413588,45.4069439],[-73.9413045,45.4069592],[-73.9412401,45.4069733],[-73.9411551,45.4069884],[-73.9409377,45.4070286]]}";2;"";1;50;false;false;true;false;false;false;181.0;0;0;0;0;0;false;72453;6133274298;-73.940924;45.406939;72281;6133274743;-73.833016;45.466567;0;14;15;9466680;Bus 7 : Direction Pointe-Claire;"";EXO;7 E;Gare Vaudreuil;boul. Brunswick / rue Auto Plaza
682295370;"{\"type\":\"LineString\",\"coordinates\":[[-73.9431593,45.4067327],[-73.9431679,45.4067727],[-73.9432546,45.4072548],[-73.9433112,45.4075898],[-73.9433126,45.4076294],[-73.943312,45.4076537],[-73.9433046,45.4076941],[-73.9432885,45.4077223],[-73.9432682,45.4077414],[-73.94324,45.407755],[-73.9432076,45.4077622],[-73.9430748,45.4077933],[-73.943031,45.4078026],[-73.9429826,45.4078106],[-73.9423755,45.4078674],[-73.942212,45.407891],[-73.9420198,45.4079092],[-73.9405242,45.4080493],[-73.9403595,45.4080648],[-73.9403123,45.4080692]]}";3;Rue Poultry Cottages;2;50;false;false;true;false;false;false;349.0;0;1;0;0;0;false;72453;6133274298;-73.940924;45.406939;72281;6133274743;-73.833016;45.466567;0;14;15;9466680;Bus 7 : Direction Pointe-Claire;"";EXO;7 E;Gare Vaudreuil;boul. Brunswick / rue Auto Plaza
451883388;"{\"type\":\"LineString\",\"coordinates\":[[-73.9403123,45.4080692],[-73.9402363,45.4080765],[-73.940016,45.4080942],[-73.9396588,45.4081247],[-73.939614,45.4081303],[-73.9395858,45.4081373],[-73.9395384,45.4081536],[-73.9394886,45.4081772],[-73.9394562,45.4081963],[-73.9389245,45.4085098],[-73.9388299,45.408576],[-73.9387912,45.4086135],[-73.9387673,45.4086447],[-73.9387561,45.4086673],[-73.9387467,45.4086924],[-73.9387257,45.4088358],[-73.9387224,45.4088731],[-73.938718,45.4090241],[-73.9387181,45.4091267],[-73.9387218,45.4091979],[-73.9387288,45.4093005],[-73.9389009,45.4104226]]}";4;Rue Poultry Cottages;2;50;false;false;true;false;false;false;342.0;0;4;1;0;0;false;72453;6133274298;-73.940924;45.406939;72281;6133274743;-73.833016;45.466567;0;14;15;9466680;Bus 7 : Direction Pointe-Claire;"";EXO;7 E;Gare Vaudreuil;boul. Brunswick / rue Auto Plaza
21908742;"{\"type\":\"LineString\",\"coordinates\":[[-73.93915,45.4118218],[-73.9389009,45.4104226]]}";5;Rue Poultry Cottages;1;50;false;false;false;false;false;false;157.0;0;0;0;0;0;false;72453;6133274298;-73.940924;45.406939;72281;6133274743;-73.833016;45.466567;0;14;15;9466680;Bus 7 : Direction Pointe-Claire;"";EXO;7 E;Gare Vaudreuil;boul. Brunswick / rue Auto Plaza
21908729;"{\"type\":\"LineString\",\"coordinates\":[[-73.9396924,45.4140424],[-73.9396109,45.4138334],[-73.9395978,45.4137913],[-73.9394728,45.413399],[-73.9394277,45.413241],[-73.9394016,45.4131433],[-73.9393849,45.4130672],[-73.939351,45.4129026],[-73.939323,45.4127595],[-73.939254,45.4123847],[-73.93915,45.4118218]]}";6;Rue Poultry Cottages;1;50;false;false;false;false;false;false;251.0;0;1;0;0;0;false;72453;6133274298;-73.940924;45.406939;72281;6133274743;-73.833016;45.466567;0;14;15;9466680;Bus 7 : Direction Pointe-Claire;"";EXO;7 E;Gare Vaudreuil;boul. Brunswick / rue Auto Plaza
474313551;"{\"type\":\"LineString\",\"coordinates\":[[-73.9398081,45.4145764],[-73.9397689,45.4143523],[-73.9397477,45.4142439],[-73.9396924,45.4140424]]}";7;Rue Poultry Cottages;1;50;false;false;true;false;false;false;61.0;0;0;1;0;0;false;72453;6133274298;-73.940924;45.406939;72281;6133274743;-73.833016;45.466567;0;14;15;9466680;Bus 7 : Direction Pointe-Claire;"";EXO;7 E;Gare Vaudreuil;boul. Brunswick / rue Auto Plaza
474313552;"{\"type\":\"LineString\",\"coordinates\":[[-73.9407176,45.4195431],[-73.9406755,45.4193134],[-73.9398891,45.4150187],[-73.9398081,45.4145764]]}";8;Rue Poultry Cottages;1;50;false;false;true;false;false;false;557.0;0;0;1;0;0;false;72453;6133274298;-73.940924;45.406939;72281;6133274743;-73.833016;45.466567;0;14;15;9466680;Bus 7 : Direction Pointe-Claire;"";EXO;7 E;Gare Vaudreuil;boul. Brunswick / rue Auto Plaza
682295356;"{\"type\":\"LineString\",\"coordinates\":[[-73.9407491,45.4197151],[-73.9407176,45.4195431]]}";9;Rue Poultry Cottages;1;50;false;false;false;false;false;false;20.0;0;0;0;0;0;false;72453;6133274298;-73.940924;45.406939;72281;6133274743;-73.833016;45.466567;0;14;15;9466680;Bus 7 : Direction Pointe-Claire;"";EXO;7 E;Gare Vaudreuil;boul. Brunswick / rue Auto Plaza
583576908;"{\"type\":\"LineString\",\"coordinates\":[[-73.9407491,45.4197151],[-73.9403317,45.4197072],[-73.9401631,45.4197029],[-73.9390333,45.419674],[-73.9389035,45.4196701],[-73.9387813,45.4196642],[-73.9383436,45.4196445],[-73.9369596,45.4195973]]}";10;"";1;50;false;true;true;false;false;false;297.0;0;0;0;0;0;false;72453;6133274298;-73.940924;45.406939;72281;6133274743;-73.833016;45.466567;0;14;15;9466680;Bus 7 : Direction Pointe-Claire;"";EXO;7 E;Gare Vaudreuil;boul. Brunswick / rue Auto Plaza
433804738;"{\"type\":\"LineString\",\"coordinates\":[[-73.9369596,45.4195973],[-73.9364424,45.4195523],[-73.9359088,45.4195182],[-73.9356796,45.4195071],[-73.9354608,45.4194995],[-73.9353389,45.4194976],[-73.9350466,45.419493],[-73.9347857,45.4194931],[-73.9342908,45.4195071],[-73.9340578,45.4195175],[-73.9337671,45.4195335],[-73.933492,45.4195589],[-73.933193,45.4195885],[-73.9329167,45.4196265],[-73.9326709,45.4196627],[-73.9324116,45.4197023],[-73.9321689,45.4197453],[-73.9319235,45.4197908],[-73.9317032,45.4198347],[-73.9314266,45.4198948],[-73.9311645,45.4199614],[-73.9309117,45.4200277],[-73.9308148,45.4200565],[-73.9305948,45.4201224],[-73.9303578,45.4201939],[-73.9300871,45.4202831],[-73.9297837,45.4203919],[-73.9294098,45.4205356],[-73.9292131,45.4206153],[-73.9289642,45.4207243],[-73.9287556,45.4208223],[-73.928523,45.4209342],[-73.9277776,45.4213138],[-73.9268808,45.4217974],[-73.9259137,45.4223143],[-73.9247156,45.42296]]}";11;Autoroute Félix-Leclerc;3;100;false;true;false;false;false;false;1067.0;0;0;0;0;0;false;72453;6133274298;-73.940924;45.406939;72281;6133274743;-73.833016;45.466567;0;14;15;9466680;Bus 7 : Direction Pointe-Claire;"";EXO;7 E;Gare Vaudreuil;boul. Brunswick / rue Auto Plaza
465396757;"{\"type\":\"LineString\",\"coordinates\":[[-73.9247156,45.42296],[-73.9234191,45.4236539],[-73.9220365,45.4244007]]}";12;Autoroute Félix-Leclerc;3;100;false;true;false;false;false;false;264.0;0;0;0;0;0;false;72453;6133274298;-73.940924;45.406939;72281;6133274743;-73.833016;45.466567;0;14;15;9466680;Bus 7 : Direction Pointe-Claire;"";EXO;7 E;Gare Vaudreuil;boul. Brunswick / rue Auto Plaza
465396754;"{\"type\":\"LineString\",\"coordinates\":[[-73.9220365,45.4244007],[-73.9206661,45.4251586]]}";13;Autoroute Félix-Leclerc;3;100;false;true;false;false;false;false;137.0;0;0;0;0;0;false;72453;6133274298;-73.940924;45.406939;72281;6133274743;-73.833016;45.466567;0;14;15;9466680;Bus 7 : Direction Pointe-Claire;"";EXO;7 E;Gare Vaudreuil;boul. Brunswick / rue Auto Plaza
21167768;"{\"type\":\"LineString\",\"coordinates\":[[-73.9206661,45.4251586],[-73.9193815,45.4257208],[-73.9189363,45.42593],[-73.9176265,45.4265803],[-73.9174152,45.4266703],[-73.9171012,45.4267914]]}";14;"";1;50;false;true;true;false;false;false;333.0;0;0;0;0;0;false;72453;6133274298;-73.940924;45.406939;72281;6133274743;-73.833016;45.466567;0;14;15;9466680;Bus 7 : Direction Pointe-Claire;"";EXO;7 E;Gare Vaudreuil;boul. Brunswick / rue Auto Plaza
197392232;"{\"type\":\"LineString\",\"coordinates\":[[-73.9171012,45.4267914],[-73.9168694,45.4269115],[-73.9161355,45.4272916]]}";15;Voie de Service Sud;2;50;false;true;false;false;false;false;94.0;0;0;0;0;0;false;72453;6133274298;-73.940924;45.406939;72281;6133274743;-73.833016;45.466567;0;14;15;9466680;Bus 7 : Direction Pointe-Claire;"";EXO;7 E;Gare Vaudreuil;boul. Brunswick / rue Auto Plaza
197392229;"{\"type\":\"LineString\",\"coordinates\":[[-73.9161355,45.4272916],[-73.9157168,45.42754],[-73.914997,45.4279236],[-73.9142879,45.4283111],[-73.9135327,45.4286911]]}";16;Voie de Service Sud;1;50;false;true;false;false;false;false;257.0;0;0;0;0;0;false;72453;6133274298;-73.940924;45.406939;72281;6133274743;-73.833016;45.466567;0;14;15;9466680;Bus 7 : Direction Pointe-Claire;"";EXO;7 E;Gare Vaudreuil;boul. Brunswick / rue Auto Plaza
197534962;"{\"type\":\"LineString\",\"coordinates\":[[-73.9135327,45.4286911],[-73.9110263,45.4300234],[-73.9097744,45.4306958],[-73.9075129,45.4319207],[-73.9071261,45.4321294],[-73.9070779,45.4321554],[-73.9061308,45.4326564],[-73.9059439,45.4327574],[-73.9058574,45.4328042],[-73.9052505,45.433114],[-73.9051401,45.4331727],[-73.9049318,45.4332833],[-73.9046424,45.4334258],[-73.904357,45.4335586],[-73.9040678,45.4336858],[-73.9026067,45.4343443]]}";17;Voie de Service Sud;2;50;false;true;false;false;false;false;1061.0;0;0;0;0;0;false;72453;6133274298;-73.940924;45.406939;72281;6133274743;-73.833016;45.466567;0;14;15;9466680;Bus 7 : Direction Pointe-Claire;"";EXO;7 E;Gare Vaudreuil;boul. Brunswick / rue Auto Plaza
21163579;"{\"type\":\"LineString\",\"coordinates\":[[-73.9026067,45.4343443],[-73.9021521,45.4345561],[-73.9017598,45.4347236],[-73.9014034,45.4348671],[-73.9008733,45.4350647],[-73.9002203,45.4352723],[-73.8988347,45.4357437]]}";18;"";1;50;false;true;true;false;false;false;334.0;0;0;0;0;0;false;72453;6133274298;-73.940924;45.406939;72281;6133274743;-73.833016;45.466567;0;14;15;9466680;Bus 7 : Direction Pointe-Claire;"";EXO;7 E;Gare Vaudreuil;boul. Brunswick / rue Auto Plaza
682295368;"{\"type\":\"LineString\",\"coordinates\":[[-73.8988347,45.4357437],[-73.898051,45.4359516],[-73.8972879,45.4361445],[-73.8962812,45.4363809],[-73.8944204,45.4368047]]}";19;Autoroute Félix-Leclerc;3;100;false;true;false;false;false;false;365.0;0;0;0;0;0;false;72453;6133274298;-73.940924;45.406939;72281;6133274743;-73.833016;45.466567;0;14;15;9466680;Bus 7 : Direction Pointe-Claire;"";EXO;7 E;Gare Vaudreuil;boul. Brunswick / rue Auto Plaza
433805455;"{\"type\":\"LineString\",\"coordinates\":[[-73.8944204,45.4368047],[-73.8933392,45.4370542],[-73.8925481,45.4372469],[-73.8919554,45.4373976],[-73.8909776,45.4376611],[-73.8897282,45.4380258],[-73.8884845,45.4384224],[-73.8872955,45.4388289],[-73.8867642,45.4390227],[-73.8864905,45.4391246],[-73.8859481,45.4393309],[-73.8855914,45.4394684],[-73.8851614,45.43964],[-73.8848542,45.4397662],[-73.8843373,45.4399844],[-73.8834858,45.4403543],[-73.8825932,45.4407648],[-73.8818564,45.4411217],[-73.8808469,45.441615],[-73.8800955,45.4419851],[-73.8791137,45.4424668],[-73.8783985,45.4428181],[-73.8776203,45.4432078],[-73.8766694,45.443665],[-73.8760978,45.4439539],[-73.8751498,45.4444187],[-73.8736235,45.4451703],[-73.87217,45.4458845],[-73.8704383,45.4467351],[-73.8689969,45.4474439],[-73.8675799,45.4481318],[-73.8672226,45.4483051]]}";20;Autoroute Félix-Leclerc;3;100;false;true;false;false;false;false;2493.0;0;0;0;0;0;false;72453;6133274298;-73.940924;45.406939;72281;6133274743;-73.833016;45.466567;0;14;15;9466680;Bus 7 : Direction Pointe-Claire;"";EXO;7 E;Gare Vaudreuil;boul. Brunswick / rue Auto Plaza
20893798;"{\"type\":\"LineString\",\"coordinates\":[[-73.8672226,45.4483051],[-73.8647537,45.4493902],[-73.8645234,45.4494892],[-73.8640841,45.4496851],[-73.8627296,45.4502532]]}";21;"";1;50;false;true;true;false;false;false;413.0;0;0;0;0;0;false;72453;6133274298;-73.940924;45.406939;72281;6133274743;-73.833016;45.466567;0;14;15;9466680;Bus 7 : Direction Pointe-Claire;"";EXO;7 E;Gare Vaudreuil;boul. Brunswick / rue Auto Plaza
539342129;"{\"type\":\"LineString\",\"coordinates\":[[-73.8627296,45.4502532],[-73.8616729,45.4508148]]}";22;Voie de Service Sud;2;50;false;true;true;false;false;false;104.0;0;0;0;0;0;false;72453;6133274298;-73.940924;45.406939;72281;6133274743;-73.833016;45.466567;0;14;15;9466680;Bus 7 : Direction Pointe-Claire;"";EXO;7 E;Gare Vaudreuil;boul. Brunswick / rue Auto Plaza
197462321;"{\"type\":\"LineString\",\"coordinates\":[[-73.8616729,45.4508148],[-73.8599665,45.4517053],[-73.8590145,45.4521676],[-73.858824,45.452256],[-73.8585264,45.452376]]}";23;Voie de Service Sud;1;50;false;true;true;false;false;false;302.0;0;0;0;0;0;false;72453;6133274298;-73.940924;45.406939;72281;6133274743;-73.833016;45.466567;0;14;15;9466680;Bus 7 : Direction Pointe-Claire;"";EXO;7 E;Gare Vaudreuil;boul. Brunswick / rue Auto Plaza
197462318;"{\"type\":\"LineString\",\"coordinates\":[[-73.8585264,45.452376],[-73.8576453,45.4527327],[-73.857166,45.4529096],[-73.8570182,45.4529615],[-73.856829,45.4530226],[-73.8565997,45.4530913],[-73.8561019,45.45324],[-73.8559938,45.4532655],[-73.8558159,45.4533013],[-73.8550018,45.4534556]]}";24;Voie de Service Sud;2;50;false;true;true;false;false;false;302.0;0;0;0;0;0;false;72453;6133274298;-73.940924;45.406939;72281;6133274743;-73.833016;45.466567;0;14;15;9466680;Bus 7 : Direction Pointe-Claire;"";EXO;7 E;Gare Vaudreuil;boul. Brunswick / rue Auto Plaza
682295367;"{\"type\":\"LineString\",\"coordinates\":[[-73.8550018,45.4534556],[-73.8541309,45.4536235],[-73.8536962,45.4537164],[-73.8533626,45.4537878],[-73.8523117,45.4540099],[-73.8519492,45.4540895]]}";25;Voie de Service Sud;2;50;false;true;true;false;false;false;249.0;0;0;0;0;0;false;72453;6133274298;-73.940924;45.406939;72281;6133274743;-73.833016;45.466567;0;14;15;9466680;Bus 7 : Direction Pointe-Claire;"";EXO;7 E;Gare Vaudreuil;boul. Brunswick / rue Auto Plaza
197462322;"{\"type\":\"LineString\",\"coordinates\":[[-73.8519492,45.4540895],[-73.8500333,45.4545871],[-73.8491374,45.4547969],[-73.8479532,45.455064],[-73.8474719,45.4551807],[-73.8469355,45.4553218],[-73.8457928,45.4555902],[-73.8453281,45.4557582]]}";26;"";1;50;false;true;true;false;false;false;551.0;0;0;0;0;0;false;72453;6133274298;-73.940924;45.406939;72281;6133274743;-73.833016;45.466567;0;14;15;9466680;Bus 7 : Direction Pointe-Claire;"";EXO;7 E;Gare Vaudreuil;boul. Brunswick / rue Auto Plaza
607186662;"{\"type\":\"LineString\",\"coordinates\":[[-73.8453281,45.4557582],[-73.8440566,45.4560066]]}";27;Autoroute Félix-Leclerc;4;100;false;true;false;false;false;false;104.0;0;0;0;0;0;false;72453;6133274298;-73.940924;45.406939;72281;6133274743;-73.833016;45.466567;0;14;15;9466680;Bus 7 : Direction Pointe-Claire;"";EXO;7 E;Gare Vaudreuil;boul. Brunswick / rue Auto Plaza
465382882;"{\"type\":\"LineString\",\"coordinates\":[[-73.8440566,45.4560066],[-73.8439163,45.4560365],[-73.8428245,45.4562786]]}";28;Autoroute Félix-Leclerc;4;100;false;true;false;false;false;false;101.0;0;0;0;0;0;false;72453;6133274298;-73.940924;45.406939;72281;6133274743;-73.833016;45.466567;0;14;15;9466680;Bus 7 : Direction Pointe-Claire;"";EXO;7 E;Gare Vaudreuil;boul. Brunswick / rue Auto Plaza
8293363;"{\"type\":\"LineString\",\"coordinates\":[[-73.8428245,45.4562786],[-73.8406131,45.4566985],[-73.8397005,45.4569365],[-73.8389933,45.4571589],[-73.8382745,45.4574309],[-73.8376817,45.4576736],[-73.8368207,45.4580612],[-73.8360181,45.4583913]]}";29;"";1;50;false;true;true;false;false;false;586.0;0;0;0;0;0;false;72453;6133274298;-73.940924;45.406939;72281;6133274743;-73.833016;45.466567;0;14;15;9466680;Bus 7 : Direction Pointe-Claire;"";EXO;7 E;Gare Vaudreuil;boul. Brunswick / rue Auto Plaza
14060959;"{\"type\":\"LineString\",\"coordinates\":[[-73.8360181,45.4583913],[-73.8357763,45.4585108],[-73.8356146,45.4585962],[-73.8338542,45.4594946],[-73.8322917,45.4602809],[-73.8319161,45.460463],[-73.8312578,45.4607821]]}";30;Voie de Service Sud;1;50;false;true;true;false;false;false;458.0;0;0;0;0;0;false;72453;6133274298;-73.940924;45.406939;72281;6133274743;-73.833016;45.466567;0;14;15;9466680;Bus 7 : Direction Pointe-Claire;"";EXO;7 E;Gare Vaudreuil;boul. Brunswick / rue Auto Plaza
8290407;"{\"type\":\"LineString\",\"coordinates\":[[-73.8312578,45.4607821],[-73.8309773,45.4609238],[-73.8307815,45.4610227],[-73.8295213,45.4616594],[-73.8282599,45.4623213],[-73.8281228,45.4623935]]}";31;Voie de Service Sud;1;50;false;true;true;false;false;false;304.0;0;0;0;0;0;false;72453;6133274298;-73.940924;45.406939;72281;6133274743;-73.833016;45.466567;0;14;15;9466680;Bus 7 : Direction Pointe-Claire;"";EXO;7 E;Gare Vaudreuil;boul. Brunswick / rue Auto Plaza
8292655;"{\"type\":\"LineString\",\"coordinates\":[[-73.8281228,45.4623935],[-73.8274169,45.4625845],[-73.8271127,45.4626237],[-73.8268242,45.4626222],[-73.8255155,45.4625216],[-73.8252863,45.4625288],[-73.8250922,45.4625725],[-73.8249081,45.4626505],[-73.8247827,45.4627164],[-73.8246473,45.4628259],[-73.8245846,45.4628766]]}";32;"";2;50;false;true;true;false;false;false;296.0;1;0;0;0;0;false;72453;6133274298;-73.940924;45.406939;72281;6133274743;-73.833016;45.466567;0;14;15;9466680;Bus 7 : Direction Pointe-Claire;"";EXO;7 E;Gare Vaudreuil;boul. Brunswick / rue Auto Plaza
455092414;"{\"type\":\"LineString\",\"coordinates\":[[-73.8245846,45.4628766],[-73.8244875,45.4629517]]}";33;"";2;50;false;true;true;false;false;false;12.0;2;0;0;0;0;false;72453;6133274298;-73.940924;45.406939;72281;6133274743;-73.833016;45.466567;0;14;15;9466680;Bus 7 : Direction Pointe-Claire;"";EXO;7 E;Gare Vaudreuil;boul. Brunswick / rue Auto Plaza
455092413;"{\"type\":\"LineString\",\"coordinates\":[[-73.8244875,45.4629517],[-73.8246915,45.4631561]]}";34;Boulevard Saint-Jean;3;50;false;true;true;false;false;false;28.0;1;0;0;0;0;false;72453;6133274298;-73.940924;45.406939;72281;6133274743;-73.833016;45.466567;0;14;15;9466680;Bus 7 : Direction Pointe-Claire;"";EXO;7 E;Gare Vaudreuil;boul. Brunswick / rue Auto Plaza
466603192;"{\"type\":\"LineString\",\"coordinates\":[[-73.8246915,45.4631561],[-73.8251545,45.4636202]]}";35;Boulevard Saint-Jean;3;50;false;true;true;false;false;false;63.0;0;0;0;0;0;false;72453;6133274298;-73.940924;45.406939;72281;6133274743;-73.833016;45.466567;0;14;15;9466680;Bus 7 : Direction Pointe-Claire;"";EXO;7 E;Gare Vaudreuil;boul. Brunswick / rue Auto Plaza
51541224;"{\"type\":\"LineString\",\"coordinates\":[[-73.8251545,45.4636202],[-73.8259657,45.4644332]]}";36;Boulevard Saint-Jean;1;50;false;true;true;false;false;false;111.0;0;0;0;0;0;false;72453;6133274298;-73.940924;45.406939;72281;6133274743;-73.833016;45.466567;0;14;15;9466680;Bus 7 : Direction Pointe-Claire;"";EXO;7 E;Gare Vaudreuil;boul. Brunswick / rue Auto Plaza
455093633;"{\"type\":\"LineString\",\"coordinates\":[[-73.8259657,45.4644332],[-73.8261477,45.4646169]]}";37;Boulevard Saint-Jean;3;50;false;true;true;false;false;false;25.0;0;0;0;0;0;false;72453;6133274298;-73.940924;45.406939;72281;6133274743;-73.833016;45.466567;0;14;15;9466680;Bus 7 : Direction Pointe-Claire;"";EXO;7 E;Gare Vaudreuil;boul. Brunswick / rue Auto Plaza
455093635;"{\"type\":\"LineString\",\"coordinates\":[[-73.8261477,45.4646169],[-73.8266651,45.4651393]]}";38;Boulevard Saint-Jean;3;50;false;true;true;false;false;false;71.0;1;0;0;0;0;false;72453;6133274298;-73.940924;45.406939;72281;6133274743;-73.833016;45.466567;0;14;15;9466680;Bus 7 : Direction Pointe-Claire;"";EXO;7 E;Gare Vaudreuil;boul. Brunswick / rue Auto Plaza
433010315;"{\"type\":\"LineString\",\"coordinates\":[[-73.8266651,45.4651393],[-73.827203,45.4656823]]}";39;Boulevard Saint-Jean;3;50;false;true;true;false;false;false;74.0;1;0;0;0;0;false;72453;6133274298;-73.940924;45.406939;72281;6133274743;-73.833016;45.466567;0;14;15;9466680;Bus 7 : Direction Pointe-Claire;"";EXO;7 E;Gare Vaudreuil;boul. Brunswick / rue Auto Plaza
455093632;"{\"type\":\"LineString\",\"coordinates\":[[-73.827203,45.4656823],[-73.8278712,45.466353],[-73.8279535,45.4664355]]}";40;Boulevard Saint-Jean;3;50;false;true;true;false;false;false;103.0;2;0;0;0;0;false;72453;6133274298;-73.940924;45.406939;72281;6133274743;-73.833016;45.466567;0;14;15;9466680;Bus 7 : Direction Pointe-Claire;"";EXO;7 E;Gare Vaudreuil;boul. Brunswick / rue Auto Plaza
433010733;"{\"type\":\"LineString\",\"coordinates\":[[-73.8279535,45.4664355],[-73.8284442,45.4669312]]}";41;Boulevard Saint-Jean;3;50;false;true;true;false;false;false;68.0;1;0;0;0;0;false;72453;6133274298;-73.940924;45.406939;72281;6133274743;-73.833016;45.466567;0;14;15;9466680;Bus 7 : Direction Pointe-Claire;"";EXO;7 E;Gare Vaudreuil;boul. Brunswick / rue Auto Plaza
455094140;"{\"type\":\"LineString\",\"coordinates\":[[-73.8284442,45.4669312],[-73.8290954,45.4675833]]}";42;Boulevard Saint-Jean;3;50;false;true;true;false;false;false;89.0;1;0;0;0;0;false;72453;6133274298;-73.940924;45.406939;72281;6133274743;-73.833016;45.466567;0;14;15;9466680;Bus 7 : Direction Pointe-Claire;"";EXO;7 E;Gare Vaudreuil;boul. Brunswick / rue Auto Plaza
453998058;"{\"type\":\"LineString\",\"coordinates\":[[-73.8290954,45.4675833],[-73.8291839,45.467684]]}";43;Boulevard Saint-Jean;3;50;false;true;true;false;false;false;14.0;2;0;0;0;0;false;72453;6133274298;-73.940924;45.406939;72281;6133274743;-73.833016;45.466567;0;14;15;9466680;Bus 7 : Direction Pointe-Claire;"";EXO;7 E;Gare Vaudreuil;boul. Brunswick / rue Auto Plaza
453987651;"{\"type\":\"LineString\",\"coordinates\":[[-73.8291839,45.467684],[-73.8293553,45.4678529]]}";44;Boulevard Saint-Jean;3;50;false;true;true;false;false;false;24.0;1;0;0;0;0;false;72453;6133274298;-73.940924;45.406939;72281;6133274743;-73.833016;45.466567;0;14;15;9466680;Bus 7 : Direction Pointe-Claire;"";EXO;7 E;Gare Vaudreuil;boul. Brunswick / rue Auto Plaza
453997474;"{\"type\":\"LineString\",\"coordinates\":[[-73.8293553,45.4678529],[-73.8298014,45.4682925]]}";45;Boulevard Saint-Jean;3;50;false;true;true;false;false;false;60.0;0;0;0;0;0;false;72453;6133274298;-73.940924;45.406939;72281;6133274743;-73.833016;45.466567;0;14;15;9466680;Bus 7 : Direction Pointe-Claire;"";EXO;7 E;Gare Vaudreuil;boul. Brunswick / rue Auto Plaza
453992173;"{\"type\":\"LineString\",\"coordinates\":[[-73.8298014,45.4682925],[-73.8301112,45.4685979]]}";46;Boulevard Saint-Jean;3;50;false;true;true;false;false;false;42.0;0;0;0;0;0;false;72453;6133274298;-73.940924;45.406939;72281;6133274743;-73.833016;45.466567;0;14;15;9466680;Bus 7 : Direction Pointe-Claire;"";EXO;7 E;Gare Vaudreuil;boul. Brunswick / rue Auto Plaza
453992174;"{\"type\":\"LineString\",\"coordinates\":[[-73.8301112,45.4685979],[-73.8303689,45.4688518]]}";47;Boulevard Saint-Jean;3;50;false;true;true;false;false;false;35.0;0;0;0;0;0;false;72453;6133274298;-73.940924;45.406939;72281;6133274743;-73.833016;45.466567;0;14;15;9466680;Bus 7 : Direction Pointe-Claire;"";EXO;7 E;Gare Vaudreuil;boul. Brunswick / rue Auto Plaza
466381143;"{\"type\":\"LineString\",\"coordinates\":[[-73.8303689,45.4688518],[-73.8309971,45.4694708]]}";48;Boulevard Saint-Jean;3;50;false;true;true;false;false;false;85.0;0;0;0;0;0;false;72453;6133274298;-73.940924;45.406939;72281;6133274743;-73.833016;45.466567;0;14;15;9466680;Bus 7 : Direction Pointe-Claire;"";EXO;7 E;Gare Vaudreuil;boul. Brunswick / rue Auto Plaza
453987652;"{\"type\":\"LineString\",\"coordinates\":[[-73.8309971,45.4694708],[-73.8311617,45.4696331]]}";49;Boulevard Saint-Jean;3;50;false;true;true;false;false;false;23.0;1;0;0;0;0;false;72453;6133274298;-73.940924;45.406939;72281;6133274743;-73.833016;45.466567;0;14;15;9466680;Bus 7 : Direction Pointe-Claire;"";EXO;7 E;Gare Vaudreuil;boul. Brunswick / rue Auto Plaza
453988221;"{\"type\":\"LineString\",\"coordinates\":[[-73.8311617,45.4696331],[-73.8313138,45.4695559]]}";50;Avenue Labrosse;4;50;false;false;true;false;false;false;15.0;2;0;0;0;0;false;72453;6133274298;-73.940924;45.406939;72281;6133274743;-73.833016;45.466567;0;14;15;9466680;Bus 7 : Direction Pointe-Claire;"";EXO;7 E;Gare Vaudreuil;boul. Brunswick / rue Auto Plaza
453987650;"{\"type\":\"LineString\",\"coordinates\":[[-73.8313138,45.4695559],[-73.8324666,45.4689317],[-73.8327439,45.4687816],[-73.8328414,45.4687288],[-73.8328921,45.4687014],[-73.8331611,45.4685558],[-73.8333754,45.4684397],[-73.8342725,45.467954]]}";51;Avenue Labrosse;4;40;false;false;true;false;false;false;292.0;1;0;0;0;0;false;72453;6133274298;-73.940924;45.406939;72281;6133274743;-73.833016;45.466567;0;14;15;9466680;Bus 7 : Direction Pointe-Claire;"";EXO;7 E;Gare Vaudreuil;boul. Brunswick / rue Auto Plaza
455243730;"{\"type\":\"LineString\",\"coordinates\":[[-73.8342725,45.467954],[-73.8340849,45.467768],[-73.8337985,45.4674842],[-73.8336745,45.4673613]]}";52;Avenue Auto-Plaza;4;40;false;false;true;false;false;false;81.0;0;0;0;0;0;false;72453;6133274298;-73.940924;45.406939;72281;6133274743;-73.833016;45.466567;0;14;15;9466680;Bus 7 : Direction Pointe-Claire;"";EXO;7 E;Gare Vaudreuil;boul. Brunswick / rue Auto Plaza
684244548;"{\"type\":\"LineString\",\"coordinates\":[[-73.8336745,45.4673613],[-73.8333252,45.467015],[-73.8330201,45.4667126],[-73.8329205,45.4666139]]}";53;Avenue Auto-Plaza;4;40;false;false;true;false;false;false;102.0;0;0;0;0;0;false;72453;6133274298;-73.940924;45.406939;72281;6133274743;-73.833016;45.466567;1;14;15;9466680;Bus 7 : Direction Pointe-Claire;"";EXO;7 E;Gare Vaudreuil;boul. Brunswick / rue Auto Plaza
