way_id;shape;index;name;nb_lanes;legal_speed;speed_zone_30;oneway;shares_bike;bike_box;bus_lane;dedicated_bus_lane;length;nb_traffic_signals;nb_crossings;nb_stops;nb_give_ways;nb_lvl_crossings;roundabout;stop_id_orig;node_id_orig;coord_x_orig;coord_y_orig;stop_id_dest;node_id_dest;coord_x_dest;coord_y_dest;nb_neighbouring_ways_bus_stop;ordre_orig;ordre_dest;id_line;line_name;colour;operator;ref;from;to
678900150;"{\"type\":\"LineString\",\"coordinates\":[[-73.6543098,45.6979415],[-73.654154,45.6979414],[-73.6533204,45.6979395],[-73.6532321,45.6979644],[-73.6531831,45.6979995],[-73.6531647,45.6980517],[-73.6531659,45.6981074]]}";1;BUS;1;50;false;true;true;false;true;false;103.0;0;1;0;0;0;false;84875;6129482927;-73.652978;45.698038;84845;6129482950;-73.648509;45.703368;1;0;1;9434813;Bus 3 : TERREBONNE / MASCOUCHE;"";EXO;3;Terminus Terrebonne;Terminus Terrebonne
679579096;"{\"type\":\"LineString\",\"coordinates\":[[-73.6544566,45.6979421],[-73.6543098,45.6979415]]}";2;BUS;1;50;false;true;true;false;true;false;12.0;0;0;0;0;0;false;84875;6129482927;-73.652978;45.698038;84845;6129482950;-73.648509;45.703368;0;0;1;9434813;Bus 3 : TERREBONNE / MASCOUCHE;"";EXO;3;Terminus Terrebonne;Terminus Terrebonne
810021669;"{\"type\":\"LineString\",\"coordinates\":[[-73.6544536,45.6980164],[-73.6544566,45.6979421]]}";3;Côte de Terrebonne;1;50;false;true;false;false;false;false;9.0;0;0;0;0;0;false;84875;6129482927;-73.652978;45.698038;84845;6129482950;-73.648509;45.703368;0;0;1;9434813;Bus 3 : TERREBONNE / MASCOUCHE;"";EXO;3;Terminus Terrebonne;Terminus Terrebonne
679579107;"{\"type\":\"LineString\",\"coordinates\":[[-73.6544516,45.6980667],[-73.6544536,45.6980164]]}";4;Côte de Terrebonne;1;50;false;true;false;false;false;false;6.0;0;0;0;0;0;false;84875;6129482927;-73.652978;45.698038;84845;6129482950;-73.648509;45.703368;0;0;1;9434813;Bus 3 : TERREBONNE / MASCOUCHE;"";EXO;3;Terminus Terrebonne;Terminus Terrebonne
810018731;"{\"type\":\"LineString\",\"coordinates\":[[-73.6544061,45.6991935],[-73.6544516,45.6980667]]}";5;Côte de Terrebonne;2;50;false;true;false;false;false;false;126.0;0;0;0;0;0;false;84875;6129482927;-73.652978;45.698038;84845;6129482950;-73.648509;45.703368;0;0;1;9434813;Bus 3 : TERREBONNE / MASCOUCHE;"";EXO;3;Terminus Terrebonne;Terminus Terrebonne
678900124;"{\"type\":\"LineString\",\"coordinates\":[[-73.6543935,45.6995058],[-73.6543959,45.6994455],[-73.6544061,45.6991935]]}";6;Côte de Terrebonne;2;50;false;true;true;false;false;false;35.0;0;1;0;0;0;false;84875;6129482927;-73.652978;45.698038;84845;6129482950;-73.648509;45.703368;0;0;1;9434813;Bus 3 : TERREBONNE / MASCOUCHE;"";EXO;3;Terminus Terrebonne;Terminus Terrebonne
678903376;"{\"type\":\"LineString\",\"coordinates\":[[-73.6543243,45.699648],[-73.6543935,45.6995058]]}";7;Côte de Terrebonne;1;50;false;true;true;false;false;false;17.0;0;0;0;0;0;false;84875;6129482927;-73.652978;45.698038;84845;6129482950;-73.648509;45.703368;0;0;1;9434813;Bus 3 : TERREBONNE / MASCOUCHE;"";EXO;3;Terminus Terrebonne;Terminus Terrebonne
177354201;"{\"type\":\"LineString\",\"coordinates\":[[-73.6522207,45.6997971],[-73.6541584,45.6996598],[-73.6541994,45.6996569],[-73.6543243,45.699648]]}";8;Boulevard des Seigneurs;3;50;false;true;false;false;false;false;165.0;1;1;0;0;0;false;84875;6129482927;-73.652978;45.698038;84845;6129482950;-73.648509;45.703368;0;0;1;9434813;Bus 3 : TERREBONNE / MASCOUCHE;"";EXO;3;Terminus Terrebonne;Terminus Terrebonne
177354202;"{\"type\":\"LineString\",\"coordinates\":[[-73.6515641,45.6998436],[-73.6522207,45.6997971]]}";9;Boulevard des Seigneurs;1;50;false;true;false;false;false;false;52.0;0;0;0;0;0;false;84875;6129482927;-73.652978;45.698038;84845;6129482950;-73.648509;45.703368;0;0;1;9434813;Bus 3 : TERREBONNE / MASCOUCHE;"";EXO;3;Terminus Terrebonne;Terminus Terrebonne
460511882;"{\"type\":\"LineString\",\"coordinates\":[[-73.6494132,45.6999961],[-73.6515641,45.6998436]]}";10;Boulevard des Seigneurs;1;50;false;true;false;false;false;false;169.0;1;0;0;0;0;false;84875;6129482927;-73.652978;45.698038;84845;6129482950;-73.648509;45.703368;0;0;1;9434813;Bus 3 : TERREBONNE / MASCOUCHE;"";EXO;3;Terminus Terrebonne;Terminus Terrebonne
32824035;"{\"type\":\"LineString\",\"coordinates\":[[-73.6478477,45.7001344],[-73.6494132,45.6999961]]}";11;Boulevard des Seigneurs;1;50;false;true;false;false;false;false;123.0;1;0;0;0;0;false;84875;6129482927;-73.652978;45.698038;84845;6129482950;-73.648509;45.703368;0;0;1;9434813;Bus 3 : TERREBONNE / MASCOUCHE;"";EXO;3;Terminus Terrebonne;Terminus Terrebonne
473308959;"{\"type\":\"LineString\",\"coordinates\":[[-73.6473356,45.7002084],[-73.6478477,45.7001344]]}";12;Boulevard des Seigneurs;1;50;false;true;false;false;false;false;41.0;1;0;0;0;0;false;84875;6129482927;-73.652978;45.698038;84845;6129482950;-73.648509;45.703368;0;0;1;9434813;Bus 3 : TERREBONNE / MASCOUCHE;"";EXO;3;Terminus Terrebonne;Terminus Terrebonne
472911203;"{\"type\":\"LineString\",\"coordinates\":[[-73.6471985,45.7002328],[-73.6473356,45.7002084]]}";13;Boulevard des Seigneurs;1;50;false;true;false;false;false;false;12.0;2;0;0;0;0;false;84875;6129482927;-73.652978;45.698038;84845;6129482950;-73.648509;45.703368;0;0;1;9434813;Bus 3 : TERREBONNE / MASCOUCHE;"";EXO;3;Terminus Terrebonne;Terminus Terrebonne
318831350;"{\"type\":\"LineString\",\"coordinates\":[[-73.6471433,45.7001298],[-73.6471985,45.7002328]]}";14;Boulevard Moody;1;50;false;true;true;false;false;false;13.0;2;0;0;0;0;false;84875;6129482927;-73.652978;45.698038;84845;6129482950;-73.648509;45.703368;0;0;1;9434813;Bus 3 : TERREBONNE / MASCOUCHE;"";EXO;3;Terminus Terrebonne;Terminus Terrebonne
472911232;"{\"type\":\"LineString\",\"coordinates\":[[-73.6471985,45.7002328],[-73.6477334,45.7012803],[-73.6478326,45.7014771],[-73.6483726,45.7025494],[-73.6484323,45.7026679],[-73.6493168,45.7044241],[-73.6493513,45.7044925],[-73.6497353,45.705255],[-73.6497821,45.7053479]]}";15;Boulevard Moody;1;50;false;true;true;false;false;false;603.0;1;0;0;0;0;false;84875;6129482927;-73.652978;45.698038;84845;6129482950;-73.648509;45.703368;2;0;1;9434813;Bus 3 : TERREBONNE / MASCOUCHE;"";EXO;3;Terminus Terrebonne;Terminus Terrebonne
472911232;"{\"type\":\"LineString\",\"coordinates\":[[-73.6471985,45.7002328],[-73.6477334,45.7012803],[-73.6478326,45.7014771],[-73.6483726,45.7025494],[-73.6484323,45.7026679],[-73.6493168,45.7044241],[-73.6493513,45.7044925],[-73.6497353,45.705255],[-73.6497821,45.7053479]]}";1;Boulevard Moody;1;50;false;true;true;false;false;false;301.5;1;0;0;0;0;false;84845;6129482950;-73.648509;45.703368;85003;6129482230;-73.651438;45.708897;1;1;2;9434813;Bus 3 : TERREBONNE / MASCOUCHE;"";EXO;3;Terminus Terrebonne;Terminus Terrebonne
472911220;"{\"type\":\"LineString\",\"coordinates\":[[-73.6497821,45.7053479],[-73.6500752,45.7059296]]}";2;Boulevard Moody;1;50;false;true;true;false;false;false;69.0;0;0;0;0;0;false;84845;6129482950;-73.648509;45.703368;85003;6129482230;-73.651438;45.708897;0;1;2;9434813;Bus 3 : TERREBONNE / MASCOUCHE;"";EXO;3;Terminus Terrebonne;Terminus Terrebonne
472911209;"{\"type\":\"LineString\",\"coordinates\":[[-73.6500752,45.7059296],[-73.650433,45.70664]]}";3;Boulevard Moody;1;50;false;true;true;false;false;false;84.0;0;0;0;0;0;false;84845;6129482950;-73.648509;45.703368;85003;6129482230;-73.651438;45.708897;0;1;2;9434813;Bus 3 : TERREBONNE / MASCOUCHE;"";EXO;3;Terminus Terrebonne;Terminus Terrebonne
472911216;"{\"type\":\"LineString\",\"coordinates\":[[-73.650433,45.70664],[-73.650833,45.7074341]]}";4;Boulevard Moody;1;50;false;true;true;false;false;false;94.0;0;0;0;0;0;false;84845;6129482950;-73.648509;45.703368;85003;6129482230;-73.651438;45.708897;0;1;2;9434813;Bus 3 : TERREBONNE / MASCOUCHE;"";EXO;3;Terminus Terrebonne;Terminus Terrebonne
472911204;"{\"type\":\"LineString\",\"coordinates\":[[-73.650833,45.7074341],[-73.6510172,45.7078]]}";5;Boulevard Moody;1;50;false;true;true;false;false;false;44.0;0;0;0;0;0;false;84845;6129482950;-73.648509;45.703368;85003;6129482230;-73.651438;45.708897;0;1;2;9434813;Bus 3 : TERREBONNE / MASCOUCHE;"";EXO;3;Terminus Terrebonne;Terminus Terrebonne
472911217;"{\"type\":\"LineString\",\"coordinates\":[[-73.6510172,45.7078],[-73.6514243,45.708608],[-73.6516513,45.7090587]]}";6;Boulevard Moody;1;50;false;true;true;false;false;false;74.5;0;0;0;0;0;false;84845;6129482950;-73.648509;45.703368;85003;6129482230;-73.651438;45.708897;1;1;2;9434813;Bus 3 : TERREBONNE / MASCOUCHE;"";EXO;3;Terminus Terrebonne;Terminus Terrebonne
472911217;"{\"type\":\"LineString\",\"coordinates\":[[-73.6510172,45.7078],[-73.6514243,45.708608],[-73.6516513,45.7090587]]}";1;Boulevard Moody;1;50;false;true;true;false;false;false;74.5;0;0;0;0;0;false;85003;6129482230;-73.651438;45.708897;84997;6129482235;-73.653977;45.714228;1;2;3;9434813;Bus 3 : TERREBONNE / MASCOUCHE;"";EXO;3;Terminus Terrebonne;Terminus Terrebonne
500135972;"{\"type\":\"LineString\",\"coordinates\":[[-73.6516513,45.7090587],[-73.651701,45.7091625],[-73.65187,45.7094671],[-73.6522013,45.7100069]]}";2;Chemin Gascon;1;50;false;true;true;false;false;false;114.0;0;0;0;0;0;false;85003;6129482230;-73.651438;45.708897;84997;6129482235;-73.653977;45.714228;0;2;3;9434813;Bus 3 : TERREBONNE / MASCOUCHE;"";EXO;3;Terminus Terrebonne;Terminus Terrebonne
473290135;"{\"type\":\"LineString\",\"coordinates\":[[-73.6522013,45.7100069],[-73.6522575,45.7101334],[-73.6525375,45.710764],[-73.6536254,45.7131908]]}";3;Chemin Gascon;1;50;false;false;true;false;false;false;371.0;0;0;0;0;0;false;85003;6129482230;-73.651438;45.708897;84997;6129482235;-73.653977;45.714228;0;2;3;9434813;Bus 3 : TERREBONNE / MASCOUCHE;"";EXO;3;Terminus Terrebonne;Terminus Terrebonne
473290122;"{\"type\":\"LineString\",\"coordinates\":[[-73.6536254,45.7131908],[-73.6535888,45.7134149],[-73.6537658,45.713782],[-73.6539174,45.7141303],[-73.6539794,45.7142644],[-73.6540317,45.7143728],[-73.6541179,45.7145423],[-73.6542453,45.714783],[-73.6543767,45.715018],[-73.6545518,45.7152469]]}";4;Chemin Gascon;1;50;false;true;true;false;false;false;121.5;0;0;0;0;0;false;85003;6129482230;-73.651438;45.708897;84997;6129482235;-73.653977;45.714228;1;2;3;9434813;Bus 3 : TERREBONNE / MASCOUCHE;"";EXO;3;Terminus Terrebonne;Terminus Terrebonne
473290122;"{\"type\":\"LineString\",\"coordinates\":[[-73.6536254,45.7131908],[-73.6535888,45.7134149],[-73.6537658,45.713782],[-73.6539174,45.7141303],[-73.6539794,45.7142644],[-73.6540317,45.7143728],[-73.6541179,45.7145423],[-73.6542453,45.714783],[-73.6543767,45.715018],[-73.6545518,45.7152469]]}";1;Chemin Gascon;1;50;false;true;true;false;false;false;121.5;0;0;0;0;0;false;84997;6129482235;-73.653977;45.714228;84788;6129483598;-73.654992;45.716305;1;3;4;9434813;Bus 3 : TERREBONNE / MASCOUCHE;"";EXO;3;Terminus Terrebonne;Terminus Terrebonne
473290132;"{\"type\":\"LineString\",\"coordinates\":[[-73.6545518,45.7152469],[-73.6551261,45.7164157],[-73.6560712,45.7176675],[-73.6564652,45.718081],[-73.6569773,45.7184906]]}";2;Chemin Gascon;1;50;false;false;true;false;false;false;205.5;0;0;0;0;0;false;84997;6129482235;-73.653977;45.714228;84788;6129483598;-73.654992;45.716305;1;3;4;9434813;Bus 3 : TERREBONNE / MASCOUCHE;"";EXO;3;Terminus Terrebonne;Terminus Terrebonne
473290132;"{\"type\":\"LineString\",\"coordinates\":[[-73.6545518,45.7152469],[-73.6551261,45.7164157],[-73.6560712,45.7176675],[-73.6564652,45.718081],[-73.6569773,45.7184906]]}";1;Chemin Gascon;1;50;false;false;true;false;false;false;205.5;0;0;0;0;0;false;84788;6129483598;-73.654992;45.716305;84993;6129482238;-73.657292;45.718789;1;4;5;9434813;Bus 3 : TERREBONNE / MASCOUCHE;"";EXO;3;Terminus Terrebonne;Terminus Terrebonne
678900134;"{\"type\":\"LineString\",\"coordinates\":[[-73.6569773,45.7184906],[-73.6571129,45.7185979],[-73.6575531,45.7188768],[-73.6582981,45.7193752],[-73.6588368,45.7197388]]}";2;Chemin Gascon;1;50;false;false;true;false;false;false;100.5;0;0;0;0;0;false;84788;6129483598;-73.654992;45.716305;84993;6129482238;-73.657292;45.718789;1;4;5;9434813;Bus 3 : TERREBONNE / MASCOUCHE;"";EXO;3;Terminus Terrebonne;Terminus Terrebonne
678900134;"{\"type\":\"LineString\",\"coordinates\":[[-73.6569773,45.7184906],[-73.6571129,45.7185979],[-73.6575531,45.7188768],[-73.6582981,45.7193752],[-73.6588368,45.7197388]]}";1;Chemin Gascon;1;50;false;false;true;false;false;false;100.5;0;0;0;0;0;false;84993;6129482238;-73.657292;45.718789;84994;6129482237;-73.658453;45.719846;1;5;6;9434813;Bus 3 : TERREBONNE / MASCOUCHE;"";EXO;3;Terminus Terrebonne;Terminus Terrebonne
455482405;"{\"type\":\"LineString\",\"coordinates\":[[-73.6588368,45.7197388],[-73.65854,45.7199576],[-73.6584267,45.720093],[-73.6581919,45.7205731],[-73.6581229,45.7207252],[-73.6577839,45.7214124],[-73.6575015,45.7220883],[-73.6573852,45.7224202],[-73.6573539,45.7225413],[-73.6573368,45.7226724],[-73.6573555,45.7234229],[-73.657367,45.7238876]]}";2;Chemin des Anglais;4;50;false;false;true;false;false;false;243.0;0;0;0;0;0;false;84993;6129482238;-73.657292;45.718789;84994;6129482237;-73.658453;45.719846;1;5;6;9434813;Bus 3 : TERREBONNE / MASCOUCHE;"";EXO;3;Terminus Terrebonne;Terminus Terrebonne
455482405;"{\"type\":\"LineString\",\"coordinates\":[[-73.6588368,45.7197388],[-73.65854,45.7199576],[-73.6584267,45.720093],[-73.6581919,45.7205731],[-73.6581229,45.7207252],[-73.6577839,45.7214124],[-73.6575015,45.7220883],[-73.6573852,45.7224202],[-73.6573539,45.7225413],[-73.6573368,45.7226724],[-73.6573555,45.7234229],[-73.657367,45.7238876]]}";1;Chemin des Anglais;4;50;false;false;true;false;false;false;243.0;0;0;0;0;0;false;84141;6129484955;-73.657658;45.721247;84619;6129484189;-73.65724;45.726224;1;7;8;9434813;Bus 3 : TERREBONNE / MASCOUCHE;"";EXO;3;Terminus Terrebonne;Terminus Terrebonne
455482393;"{\"type\":\"LineString\",\"coordinates\":[[-73.657367,45.7238876],[-73.6573104,45.7239534]]}";2;Chemin des Anglais;1;50;false;true;true;false;false;false;9.0;0;0;0;0;0;false;84141;6129484955;-73.657658;45.721247;84619;6129484189;-73.65724;45.726224;0;7;8;9434813;Bus 3 : TERREBONNE / MASCOUCHE;"";EXO;3;Terminus Terrebonne;Terminus Terrebonne
455482406;"{\"type\":\"LineString\",\"coordinates\":[[-73.6573104,45.7239534],[-73.6573158,45.7241622],[-73.6573078,45.7243504],[-73.6573103,45.7244466]]}";3;Chemin des Anglais;2;50;false;true;true;false;false;false;55.0;0;0;0;0;0;false;84141;6129484955;-73.657658;45.721247;84619;6129484189;-73.65724;45.726224;0;7;8;9434813;Bus 3 : TERREBONNE / MASCOUCHE;"";EXO;3;Terminus Terrebonne;Terminus Terrebonne
680728728;"{\"type\":\"LineString\",\"coordinates\":[[-73.6573103,45.7244466],[-73.6573131,45.7246668],[-73.6573141,45.7253835]]}";4;Chemin des Anglais;2;50;false;true;true;false;false;false;105.0;0;0;0;0;0;false;84141;6129484955;-73.657658;45.721247;84619;6129484189;-73.65724;45.726224;0;7;8;9434813;Bus 3 : TERREBONNE / MASCOUCHE;"";EXO;3;Terminus Terrebonne;Terminus Terrebonne
455482399;"{\"type\":\"LineString\",\"coordinates\":[[-73.6573141,45.7253835],[-73.6573209,45.7256136]]}";5;Chemin des Anglais;1;50;false;true;true;false;false;false;26.0;0;0;0;0;0;false;84141;6129484955;-73.657658;45.721247;84619;6129484189;-73.65724;45.726224;0;7;8;9434813;Bus 3 : TERREBONNE / MASCOUCHE;"";EXO;3;Terminus Terrebonne;Terminus Terrebonne
680913802;"{\"type\":\"LineString\",\"coordinates\":[[-73.6573209,45.7256136],[-73.6573313,45.7265054]]}";6;Chemin des Anglais;1;50;false;true;true;false;false;false;50.0;1;0;0;0;0;false;84141;6129484955;-73.657658;45.721247;84619;6129484189;-73.65724;45.726224;1;7;8;9434813;Bus 3 : TERREBONNE / MASCOUCHE;"";EXO;3;Terminus Terrebonne;Terminus Terrebonne
473599260;"{\"type\":\"LineString\",\"coordinates\":[[-73.6176781,45.7275635],[-73.6179291,45.7271253],[-73.6181587,45.7267463],[-73.6183781,45.726361],[-73.6187592,45.7256995],[-73.6188817,45.7254775],[-73.6192211,45.7248954],[-73.6194053,45.7245686],[-73.6195814,45.7242263],[-73.6198805,45.7236363]]}";1;Montée Masson;1;50;false;true;false;false;false;false;234.5;3;0;0;0;0;false;85518;6129481069;-73.619909;45.72392;85358;6129481600;-73.620708;45.722731;1;60;61;9434813;Bus 3 : TERREBONNE / MASCOUCHE;"";EXO;3;Terminus Terrebonne;Terminus Terrebonne
680605796;"{\"type\":\"LineString\",\"coordinates\":[[-73.6198805,45.7236363],[-73.619918,45.7235609],[-73.6202222,45.7230218],[-73.6205719,45.7225028],[-73.6209144,45.7219415],[-73.6209108,45.7218122]]}";2;Montée Masson;1;50;false;true;false;false;false;false;110.0;2;0;0;0;0;false;85518;6129481069;-73.619909;45.72392;85358;6129481600;-73.620708;45.722731;1;60;61;9434813;Bus 3 : TERREBONNE / MASCOUCHE;"";EXO;3;Terminus Terrebonne;Terminus Terrebonne
680605796;"{\"type\":\"LineString\",\"coordinates\":[[-73.6198805,45.7236363],[-73.619918,45.7235609],[-73.6202222,45.7230218],[-73.6205719,45.7225028],[-73.6209144,45.7219415],[-73.6209108,45.7218122]]}";1;Montée Masson;1;50;false;true;false;false;false;false;110.0;2;0;0;0;0;false;85358;6129481600;-73.620708;45.722731;84193;6129484917;-73.622814;45.718889;1;61;62;9434813;Bus 3 : TERREBONNE / MASCOUCHE;"";EXO;3;Terminus Terrebonne;Terminus Terrebonne
473599259;"{\"type\":\"LineString\",\"coordinates\":[[-73.6227373,45.7187397],[-73.6224907,45.7191552],[-73.6219511,45.7200641],[-73.6219307,45.7200989],[-73.6209108,45.7218122]]}";2;Montée Masson;1;50;false;false;false;false;false;false;185.0;0;0;0;0;0;false;85358;6129481600;-73.620708;45.722731;84193;6129484917;-73.622814;45.718889;1;61;62;9434813;Bus 3 : TERREBONNE / MASCOUCHE;"";EXO;3;Terminus Terrebonne;Terminus Terrebonne
409568341;"{\"type\":\"LineString\",\"coordinates\":[[-73.6239635,45.7166602],[-73.6236547,45.7171817],[-73.6235192,45.7174105],[-73.6227373,45.7187397]]}";1;Montée Masson;1;50;false;false;false;false;false;false;250.0;0;0;0;0;0;false;84193;6129484917;-73.622814;45.718889;84148;6129484948;-73.627898;45.71003;2;62;63;9434813;Bus 3 : TERREBONNE / MASCOUCHE;"";EXO;3;Terminus Terrebonne;Terminus Terrebonne
472893523;"{\"type\":\"LineString\",\"coordinates\":[[-73.6242635,45.7161559],[-73.6239635,45.7166602]]}";2;Montée Masson;1;50;false;false;false;false;false;false;61.0;1;0;0;0;0;false;84193;6129484917;-73.622814;45.718889;84148;6129484948;-73.627898;45.71003;0;62;63;9434813;Bus 3 : TERREBONNE / MASCOUCHE;"";EXO;3;Terminus Terrebonne;Terminus Terrebonne
131545382;"{\"type\":\"LineString\",\"coordinates\":[[-73.6243937,45.7159304],[-73.6243107,45.716071],[-73.6242635,45.7161559]]}";3;Montée Masson;1;50;false;false;false;false;false;false;28.0;2;0;0;0;0;false;84193;6129484917;-73.622814;45.718889;84148;6129484948;-73.627898;45.71003;0;62;63;9434813;Bus 3 : TERREBONNE / MASCOUCHE;"";EXO;3;Terminus Terrebonne;Terminus Terrebonne
750534929;"{\"type\":\"LineString\",\"coordinates\":[[-73.6247643,45.7151921],[-73.6243937,45.7159304]]}";4;Montée Masson;1;50;false;false;true;false;false;false;87.0;0;0;0;0;0;false;84193;6129484917;-73.622814;45.718889;84148;6129484948;-73.627898;45.71003;0;62;63;9434813;Bus 3 : TERREBONNE / MASCOUCHE;"";EXO;3;Terminus Terrebonne;Terminus Terrebonne
52956459;"{\"type\":\"LineString\",\"coordinates\":[[-73.6252879,45.714292],[-73.6248598,45.715019],[-73.6247643,45.7151921]]}";5;Montée Masson;1;50;false;false;false;false;false;false;108.0;0;0;0;0;0;false;84193;6129484917;-73.622814;45.718889;84148;6129484948;-73.627898;45.71003;0;62;63;9434813;Bus 3 : TERREBONNE / MASCOUCHE;"";EXO;3;Terminus Terrebonne;Terminus Terrebonne
52956458;"{\"type\":\"LineString\",\"coordinates\":[[-73.6260419,45.7129857],[-73.6252879,45.714292]]}";6;Montée Masson;1;50;false;false;false;false;false;false;157.0;0;0;0;0;0;false;84193;6129484917;-73.622814;45.718889;84148;6129484948;-73.627898;45.71003;0;62;63;9434813;Bus 3 : TERREBONNE / MASCOUCHE;"";EXO;3;Terminus Terrebonne;Terminus Terrebonne
473276294;"{\"type\":\"LineString\",\"coordinates\":[[-73.6266956,45.7117945],[-73.6263203,45.7124881],[-73.6260419,45.7129857]]}";7;Montée Masson;1;50;false;false;false;false;false;false;142.0;0;0;0;0;0;false;84193;6129484917;-73.622814;45.718889;84148;6129484948;-73.627898;45.71003;0;62;63;9434813;Bus 3 : TERREBONNE / MASCOUCHE;"";EXO;3;Terminus Terrebonne;Terminus Terrebonne
473276299;"{\"type\":\"LineString\",\"coordinates\":[[-73.6266956,45.7117945],[-73.6268581,45.711626],[-73.627015,45.7113957],[-73.6270537,45.711328],[-73.6271527,45.7111547],[-73.6273133,45.7108956]]}";8;Montée Masson;1;50;false;true;true;false;false;false;112.0;1;0;0;0;0;false;84193;6129484917;-73.622814;45.718889;84148;6129484948;-73.627898;45.71003;0;62;63;9434813;Bus 3 : TERREBONNE / MASCOUCHE;"";EXO;3;Terminus Terrebonne;Terminus Terrebonne
473276303;"{\"type\":\"LineString\",\"coordinates\":[[-73.6273133,45.7108956],[-73.6273875,45.7107876],[-73.6275542,45.7105261],[-73.627736,45.7102111]]}";9;Montée Masson;1;50;false;true;true;false;false;false;83.0;2;0;0;0;0;false;84193;6129484917;-73.622814;45.718889;84148;6129484948;-73.627898;45.71003;0;62;63;9434813;Bus 3 : TERREBONNE / MASCOUCHE;"";EXO;3;Terminus Terrebonne;Terminus Terrebonne
473276286;"{\"type\":\"LineString\",\"coordinates\":[[-73.627736,45.7102111],[-73.6277547,45.7100564]]}";10;Montée Masson;1;50;false;true;true;false;false;false;18.0;0;0;0;0;0;false;84193;6129484917;-73.622814;45.718889;84148;6129484948;-73.627898;45.71003;0;62;63;9434813;Bus 3 : TERREBONNE / MASCOUCHE;"";EXO;3;Terminus Terrebonne;Terminus Terrebonne
465001677;"{\"type\":\"LineString\",\"coordinates\":[[-73.6309058,45.7046633],[-73.6308035,45.7048244],[-73.6307369,45.7049292],[-73.6305107,45.705294],[-73.6292295,45.7074307],[-73.6286056,45.7085278],[-73.6277547,45.7100564]]}";11;Montée Masson;1;50;false;false;true;false;false;false;648.0;0;0;0;0;0;false;84193;6129484917;-73.622814;45.718889;84148;6129484948;-73.627898;45.71003;2;62;63;9434813;Bus 3 : TERREBONNE / MASCOUCHE;"";EXO;3;Terminus Terrebonne;Terminus Terrebonne
473276286;"{\"type\":\"LineString\",\"coordinates\":[[-73.627736,45.7102111],[-73.6277547,45.7100564]]}";1;Montée Masson;1;50;false;true;true;false;false;false;18.0;0;0;0;0;0;false;84148;6129484948;-73.627898;45.71003;84146;6129484950;-73.629261;45.707635;2;63;64;9434813;Bus 3 : TERREBONNE / MASCOUCHE;"";EXO;3;Terminus Terrebonne;Terminus Terrebonne
465001677;"{\"type\":\"LineString\",\"coordinates\":[[-73.6309058,45.7046633],[-73.6308035,45.7048244],[-73.6307369,45.7049292],[-73.6305107,45.705294],[-73.6292295,45.7074307],[-73.6286056,45.7085278],[-73.6277547,45.7100564]]}";2;Montée Masson;1;50;false;false;true;false;false;false;648.0;0;0;0;0;0;false;84148;6129484948;-73.627898;45.71003;84146;6129484950;-73.629261;45.707635;2;63;64;9434813;Bus 3 : TERREBONNE / MASCOUCHE;"";EXO;3;Terminus Terrebonne;Terminus Terrebonne
465001677;"{\"type\":\"LineString\",\"coordinates\":[[-73.6309058,45.7046633],[-73.6308035,45.7048244],[-73.6307369,45.7049292],[-73.6305107,45.705294],[-73.6292295,45.7074307],[-73.6286056,45.7085278],[-73.6277547,45.7100564]]}";1;Montée Masson;1;50;false;false;true;false;false;false;324.0;0;0;0;0;0;false;84144;6129484952;-73.630796;45.705098;85054;6129482191;-73.632095;45.704265;1;65;66;9434813;Bus 3 : TERREBONNE / MASCOUCHE;"";EXO;3;Terminus Terrebonne;Terminus Terrebonne
465001678;"{\"type\":\"LineString\",\"coordinates\":[[-73.6309058,45.7046633],[-73.6311012,45.704502],[-73.6313026,45.7043608],[-73.6315858,45.7042366],[-73.6318635,45.7041842]]}";2;Montée Masson;1;50;false;true;true;false;false;false;95.0;1;0;0;0;0;false;84144;6129484952;-73.630796;45.705098;85054;6129482191;-73.632095;45.704265;0;65;66;9434813;Bus 3 : TERREBONNE / MASCOUCHE;"";EXO;3;Terminus Terrebonne;Terminus Terrebonne
465001675;"{\"type\":\"LineString\",\"coordinates\":[[-73.6318635,45.7041842],[-73.632787,45.7039925]]}";3;Boulevard des Seigneurs;1;50;false;true;false;false;false;false;37.5;1;0;0;0;0;false;84144;6129484952;-73.630796;45.705098;85054;6129482191;-73.632095;45.704265;1;65;66;9434813;Bus 3 : TERREBONNE / MASCOUCHE;"";EXO;3;Terminus Terrebonne;Terminus Terrebonne
465001675;"{\"type\":\"LineString\",\"coordinates\":[[-73.6318635,45.7041842],[-73.632787,45.7039925]]}";1;Boulevard des Seigneurs;1;50;false;true;false;false;false;false;37.5;1;0;0;0;0;false;85054;6129482191;-73.632095;45.704265;84767;6129483618;-73.634191;45.703923;1;66;67;9434813;Bus 3 : TERREBONNE / MASCOUCHE;"";EXO;3;Terminus Terrebonne;Terminus Terrebonne
131542124;"{\"type\":\"LineString\",\"coordinates\":[[-73.632787,45.7039925],[-73.6335209,45.7038618],[-73.6342379,45.7037341],[-73.6346956,45.7036296],[-73.6351031,45.7035168],[-73.6354829,45.7034116],[-73.6359476,45.7032827],[-73.6367516,45.7030599],[-73.6367698,45.7030549],[-73.6371282,45.7029561],[-73.6376233,45.7028196],[-73.6381702,45.7026645],[-73.6384063,45.7025976],[-73.6389572,45.7024414],[-73.6393032,45.702352],[-73.6397405,45.702239],[-73.6399318,45.7021895],[-73.6399849,45.7021737],[-73.6400141,45.7021658],[-73.6414232,45.7017913],[-73.6415446,45.7017554],[-73.6418259,45.7016749],[-73.6433584,45.7012364],[-73.6444405,45.7009407],[-73.6449106,45.700813]]}";2;Boulevard des Seigneurs;1;50;false;true;false;false;false;false;504.5;2;0;0;0;0;false;85054;6129482191;-73.632095;45.704265;84767;6129483618;-73.634191;45.703923;1;66;67;9434813;Bus 3 : TERREBONNE / MASCOUCHE;"";EXO;3;Terminus Terrebonne;Terminus Terrebonne
131542124;"{\"type\":\"LineString\",\"coordinates\":[[-73.632787,45.7039925],[-73.6335209,45.7038618],[-73.6342379,45.7037341],[-73.6346956,45.7036296],[-73.6351031,45.7035168],[-73.6354829,45.7034116],[-73.6359476,45.7032827],[-73.6367516,45.7030599],[-73.6367698,45.7030549],[-73.6371282,45.7029561],[-73.6376233,45.7028196],[-73.6381702,45.7026645],[-73.6384063,45.7025976],[-73.6389572,45.7024414],[-73.6393032,45.702352],[-73.6397405,45.702239],[-73.6399318,45.7021895],[-73.6399849,45.7021737],[-73.6400141,45.7021658],[-73.6414232,45.7017913],[-73.6415446,45.7017554],[-73.6418259,45.7016749],[-73.6433584,45.7012364],[-73.6444405,45.7009407],[-73.6449106,45.700813]]}";1;Boulevard des Seigneurs;1;50;false;true;false;false;false;false;504.5;2;0;0;0;0;false;84761;6129483624;-73.644391;45.701077;84848;6129482948;-73.6460676;45.7005612;1;71;72;9434813;Bus 3 : TERREBONNE / MASCOUCHE;"";EXO;3;Terminus Terrebonne;Terminus Terrebonne
607279034;"{\"type\":\"LineString\",\"coordinates\":[[-73.6449106,45.700813],[-73.6461642,45.7004378]]}";2;Boulevard des Seigneurs;1;50;false;true;false;false;false;false;53.5;0;0;0;0;0;false;84761;6129483624;-73.644391;45.701077;84848;6129482948;-73.6460676;45.7005612;1;71;72;9434813;Bus 3 : TERREBONNE / MASCOUCHE;"";EXO;3;Terminus Terrebonne;Terminus Terrebonne
564292181;"{\"type\":\"LineString\",\"coordinates\":[[-73.6461642,45.7004378],[-73.6471985,45.7002328]]}";1;Boulevard des Seigneurs;1;50;false;true;false;false;false;false;84.0;1;0;0;0;0;false;84848;6129482948;-73.6460676;45.7005612;84875;6129482927;-73.652978;45.698038;2;72;73;9434813;Bus 3 : TERREBONNE / MASCOUCHE;"";EXO;3;Terminus Terrebonne;Terminus Terrebonne
318831350;"{\"type\":\"LineString\",\"coordinates\":[[-73.6471433,45.7001298],[-73.6471985,45.7002328]]}";2;Boulevard Moody;1;50;false;true;true;false;false;false;13.0;2;0;0;0;0;false;84848;6129482948;-73.6460676;45.7005612;84875;6129482927;-73.652978;45.698038;0;72;73;9434813;Bus 3 : TERREBONNE / MASCOUCHE;"";EXO;3;Terminus Terrebonne;Terminus Terrebonne
473307650;"{\"type\":\"LineString\",\"coordinates\":[[-73.6472709,45.700104],[-73.6471433,45.7001298]]}";3;Boulevard des Seigneurs;1;50;false;true;true;false;false;false;11.0;2;0;0;0;0;false;84848;6129482948;-73.6460676;45.7005612;84875;6129482927;-73.652978;45.698038;0;72;73;9434813;Bus 3 : TERREBONNE / MASCOUCHE;"";EXO;3;Terminus Terrebonne;Terminus Terrebonne
177354198;"{\"type\":\"LineString\",\"coordinates\":[[-73.6515759,45.6997044],[-73.6494691,45.6998431],[-73.6487887,45.6998996],[-73.6478927,45.6999889],[-73.647631,45.7000313],[-73.6472709,45.700104]]}";4;Boulevard des Seigneurs;1;50;false;true;true;false;false;false;339.0;1;0;0;0;0;false;84848;6129482948;-73.6460676;45.7005612;84875;6129482927;-73.652978;45.698038;0;72;73;9434813;Bus 3 : TERREBONNE / MASCOUCHE;"";EXO;3;Terminus Terrebonne;Terminus Terrebonne
177354199;"{\"type\":\"LineString\",\"coordinates\":[[-73.6521925,45.6996607],[-73.6515759,45.6997044]]}";5;Boulevard des Seigneurs;1;50;false;true;true;false;false;false;49.0;0;0;0;0;0;false;84848;6129482948;-73.6460676;45.7005612;84875;6129482927;-73.652978;45.698038;0;72;73;9434813;Bus 3 : TERREBONNE / MASCOUCHE;"";EXO;3;Terminus Terrebonne;Terminus Terrebonne
678903390;"{\"type\":\"LineString\",\"coordinates\":[[-73.6537781,45.6995483],[-73.6521925,45.6996607]]}";6;Boulevard des Seigneurs;1;50;false;true;true;false;false;false;125.0;0;0;0;0;0;false;84848;6129482948;-73.6460676;45.7005612;84875;6129482927;-73.652978;45.698038;0;72;73;9434813;Bus 3 : TERREBONNE / MASCOUCHE;"";EXO;3;Terminus Terrebonne;Terminus Terrebonne
465271486;"{\"type\":\"LineString\",\"coordinates\":[[-73.654274,45.6990998],[-73.654223,45.6993046],[-73.6541742,45.6993736],[-73.6540355,45.6994644],[-73.6539119,45.699513],[-73.6537781,45.6995483]]}";7;"";1;50;false;true;true;false;false;false;69.0;0;1;0;0;0;false;84848;6129482948;-73.6460676;45.7005612;84875;6129482927;-73.652978;45.698038;0;72;73;9434813;Bus 3 : TERREBONNE / MASCOUCHE;"";EXO;3;Terminus Terrebonne;Terminus Terrebonne
517535442;"{\"type\":\"LineString\",\"coordinates\":[[-73.6543058,45.6980697],[-73.654274,45.6990998]]}";8;Côte de Terrebonne;1;50;false;true;true;false;false;false;115.0;0;0;0;0;0;false;84848;6129482948;-73.6460676;45.7005612;84875;6129482927;-73.652978;45.698038;0;72;73;9434813;Bus 3 : TERREBONNE / MASCOUCHE;"";EXO;3;Terminus Terrebonne;Terminus Terrebonne
35166453;"{\"type\":\"LineString\",\"coordinates\":[[-73.6536637,45.6981433],[-73.6539212,45.6980774],[-73.6541513,45.6980734],[-73.6542646,45.6980714],[-73.6543058,45.6980697]]}";9;BUS;1;50;false;true;true;false;true;false;52.0;0;1;0;0;0;false;84848;6129482948;-73.6460676;45.7005612;84875;6129482927;-73.652978;45.698038;0;72;73;9434813;Bus 3 : TERREBONNE / MASCOUCHE;"";EXO;3;Terminus Terrebonne;Terminus Terrebonne
680430226;"{\"type\":\"LineString\",\"coordinates\":[[-73.6531659,45.6981074],[-73.6531964,45.6981594],[-73.6533077,45.6981896],[-73.653539,45.6981751],[-73.6536637,45.6981433]]}";10;BUS;1;50;false;true;true;false;true;false;44.0;0;0;0;0;0;false;84848;6129482948;-73.6460676;45.7005612;84875;6129482927;-73.652978;45.698038;0;72;73;9434813;Bus 3 : TERREBONNE / MASCOUCHE;"";EXO;3;Terminus Terrebonne;Terminus Terrebonne
678900150;"{\"type\":\"LineString\",\"coordinates\":[[-73.6543098,45.6979415],[-73.654154,45.6979414],[-73.6533204,45.6979395],[-73.6532321,45.6979644],[-73.6531831,45.6979995],[-73.6531647,45.6980517],[-73.6531659,45.6981074]]}";11;BUS;1;50;false;true;true;false;true;false;103.0;0;1;0;0;0;false;84848;6129482948;-73.6460676;45.7005612;84875;6129482927;-73.652978;45.698038;1;72;73;9434813;Bus 3 : TERREBONNE / MASCOUCHE;"";EXO;3;Terminus Terrebonne;Terminus Terrebonne
