way_id;shape;index;name;nb_lanes;legal_speed;speed_zone_30;oneway;shares_bike;bike_box;bus_lane;dedicated_bus_lane;length;nb_traffic_signals;nb_crossings;nb_stops;nb_give_ways;nb_lvl_crossings;roundabout;stop_id_orig;node_id_orig;coord_x_orig;coord_y_orig;stop_id_dest;node_id_dest;coord_x_dest;coord_y_dest;nb_neighbouring_ways_bus_stop;ordre_orig;ordre_dest;id_line;line_name;colour;operator;ref;from;to
680965943;"{\"type\":\"LineString\",\"coordinates\":[[-73.5772737,45.706521],[-73.5772521,45.7067863]]}";1;Montée Dumais;1;50;false;false;false;false;false;false;30.0;0;0;0;0;0;false;85495;6129481079;-73.577027;45.706591;85497;6129481078;-73.577991;45.699188;1;0;1;9452582;Bus 140 : TERMINUS RADISSON;"";EXO;140 O;montée Dumais / des Rives;Terminus Radisson
26143574;"{\"type\":\"LineString\",\"coordinates\":[[-73.5778952,45.6989078],[-73.5777508,45.7006776],[-73.5776506,45.7019044],[-73.5775243,45.7034522],[-73.5774997,45.7037526],[-73.577405,45.7049136],[-73.5773978,45.7050013],[-73.5773348,45.7057726],[-73.5772951,45.7062592],[-73.5772737,45.706521]]}";2;Montée Dumais;1;50;false;false;false;false;false;false;423.5;0;0;0;0;0;false;85495;6129481079;-73.577027;45.706591;85497;6129481078;-73.577991;45.699188;1;0;1;9452582;Bus 140 : TERMINUS RADISSON;"";EXO;140 O;montée Dumais / des Rives;Terminus Radisson
26143574;"{\"type\":\"LineString\",\"coordinates\":[[-73.5778952,45.6989078],[-73.5777508,45.7006776],[-73.5776506,45.7019044],[-73.5775243,45.7034522],[-73.5774997,45.7037526],[-73.577405,45.7049136],[-73.5773978,45.7050013],[-73.5773348,45.7057726],[-73.5772951,45.7062592],[-73.5772737,45.706521]]}";1;Montée Dumais;1;50;false;false;false;false;false;false;423.5;0;0;0;0;0;false;85497;6129481078;-73.577991;45.699188;84083;6129485001;-73.57367;45.69946;1;1;2;9452582;Bus 140 : TERMINUS RADISSON;"";EXO;140 O;montée Dumais / des Rives;Terminus Radisson
104524663;"{\"type\":\"LineString\",\"coordinates\":[[-73.5189799,45.7060855],[-73.5197783,45.7058376],[-73.5200776,45.7057426],[-73.5203585,45.7056747],[-73.5210005,45.7055873],[-73.5214544,45.7055668],[-73.5215625,45.7055666],[-73.5219463,45.7056068],[-73.5224245,45.7057047],[-73.5225569,45.7057318],[-73.5228828,45.7058041],[-73.5229368,45.7058188],[-73.5230348,45.705841],[-73.5234006,45.7059221],[-73.5237599,45.7059621],[-73.5241388,45.7059672],[-73.5244993,45.7059375],[-73.5249265,45.7058698],[-73.525302,45.7057728],[-73.5257454,45.7056026],[-73.5281231,45.7044988],[-73.5284696,45.7043379],[-73.5293822,45.7039727],[-73.5326245,45.702764],[-73.535246,45.7017665],[-73.5359805,45.7015268],[-73.5362062,45.7014642],[-73.537032,45.7012352],[-73.5387638,45.7009003],[-73.5397551,45.7007207],[-73.5420778,45.7002998],[-73.5431338,45.7001799],[-73.5439662,45.7001515],[-73.5450224,45.7001695],[-73.5459076,45.7002449],[-73.5466808,45.7003516],[-73.5484904,45.7006357],[-73.5502499,45.7009774],[-73.5543762,45.7019033],[-73.5545243,45.7019365],[-73.5547609,45.7020016],[-73.555058,45.7020785],[-73.5552608,45.7021141],[-73.5554427,45.7021163],[-73.5557365,45.7020945],[-73.5566104,45.7019779],[-73.5569018,45.7019365],[-73.5575799,45.7018766],[-73.5592234,45.7018138],[-73.5610303,45.7017447],[-73.5619229,45.7016967],[-73.5627019,45.7017177],[-73.563382,45.7017192],[-73.5635664,45.7017057],[-73.5641717,45.7016368],[-73.5657252,45.701439],[-73.5672616,45.7012292],[-73.5678339,45.7011179],[-73.5684323,45.70098],[-73.5685576,45.7009534],[-73.5690468,45.7008276],[-73.569579,45.7006657],[-73.5699309,45.7005398],[-73.569998,45.7005201],[-73.5701122,45.7004866],[-73.5707897,45.7002786],[-73.5723835,45.6999148],[-73.5724028,45.6999104],[-73.5728921,45.6997665],[-73.572935,45.69976],[-73.5734242,45.6996227],[-73.5748232,45.699227],[-73.5756042,45.6991431],[-73.5763157,45.6990667],[-73.5764969,45.6990472],[-73.5777782,45.6989271],[-73.5778952,45.6989078]]}";2;Chemin Saint-Charles;2;50;false;false;false;false;false;false;2416.5;0;0;1;0;0;false;85497;6129481078;-73.577991;45.699188;84083;6129485001;-73.57367;45.69946;1;1;2;9452582;Bus 140 : TERMINUS RADISSON;"";EXO;140 O;montée Dumais / des Rives;Terminus Radisson
49009262;"{\"type\":\"LineString\",\"coordinates\":[[-73.5123163,45.7082382],[-73.5131179,45.707817],[-73.5135083,45.707651],[-73.5137199,45.7075771],[-73.5141275,45.7074871],[-73.5157543,45.7070622],[-73.5159176,45.7070195],[-73.5164836,45.706865],[-73.5170592,45.7067078],[-73.5174759,45.7065708],[-73.5184208,45.7062603],[-73.5186642,45.7061803],[-73.5189799,45.7060855]]}";1;Chemin Saint-Charles;2;50;false;false;false;false;false;false;574.0;0;0;1;0;0;false;84089;6129484995;-73.5190571;45.7059715;84830;6127178745;-73.503607;45.716615;2;7;8;9452582;Bus 140 : TERMINUS RADISSON;"";EXO;140 O;montée Dumais / des Rives;Terminus Radisson
453680864;"{\"type\":\"LineString\",\"coordinates\":[[-73.5120878,45.7083817],[-73.5123163,45.7082382]]}";2;Chemin Saint-Charles;2;50;false;false;false;false;false;false;24.0;1;0;0;0;0;false;84089;6129484995;-73.5190571;45.7059715;84830;6127178745;-73.503607;45.716615;0;7;8;9452582;Bus 140 : TERMINUS RADISSON;"";EXO;140 O;montée Dumais / des Rives;Terminus Radisson
49009251;"{\"type\":\"LineString\",\"coordinates\":[[-73.5120878,45.7083817],[-73.5119451,45.7083142],[-73.5118278,45.7082796],[-73.5117091,45.7082571],[-73.511573,45.7082458],[-73.5114167,45.7082664],[-73.511288,45.7083039],[-73.5111217,45.7083788],[-73.5109929,45.7085015],[-73.5106791,45.7088396],[-73.5105168,45.7089782],[-73.5103438,45.7091159],[-73.5101373,45.709231],[-73.509241,45.709749]]}";3;Chemin Saint-Charles;2;50;false;true;false;false;false;false;296.0;1;0;0;0;0;false;84089;6129484995;-73.5190571;45.7059715;84830;6127178745;-73.503607;45.716615;0;7;8;9452582;Bus 140 : TERMINUS RADISSON;"";EXO;140 O;montée Dumais / des Rives;Terminus Radisson
163649766;"{\"type\":\"LineString\",\"coordinates\":[[-73.509241,45.709749],[-73.5078361,45.7105075]]}";4;Chemin Saint-Charles;2;50;false;true;false;false;false;false;138.0;0;0;0;0;0;false;84089;6129484995;-73.5190571;45.7059715;84830;6127178745;-73.503607;45.716615;0;7;8;9452582;Bus 140 : TERMINUS RADISSON;"";EXO;140 O;montée Dumais / des Rives;Terminus Radisson
163649786;"{\"type\":\"LineString\",\"coordinates\":[[-73.5078361,45.7105075],[-73.505901,45.7116509],[-73.5055194,45.711918]]}";5;Chemin Saint-Charles;2;50;false;true;false;false;false;false;239.0;0;0;0;0;0;false;84089;6129484995;-73.5190571;45.7059715;84830;6127178745;-73.503607;45.716615;0;7;8;9452582;Bus 140 : TERMINUS RADISSON;"";EXO;140 O;montée Dumais / des Rives;Terminus Radisson
163649770;"{\"type\":\"LineString\",\"coordinates\":[[-73.5055194,45.711918],[-73.50597,45.7117255],[-73.5078798,45.7106791]]}";6;Chemin Saint-Charles;2;50;false;true;true;false;false;false;230.0;0;0;0;0;0;false;84089;6129484995;-73.5190571;45.7059715;84830;6127178745;-73.503607;45.716615;0;7;8;9452582;Bus 140 : TERMINUS RADISSON;"";EXO;140 O;montée Dumais / des Rives;Terminus Radisson
163649774;"{\"type\":\"LineString\",\"coordinates\":[[-73.505166,45.7120855],[-73.5052939,45.7120279],[-73.5055194,45.711918]]}";7;Chemin Saint-Charles;4;50;false;false;true;false;false;false;34.0;1;0;0;0;0;false;84089;6129484995;-73.5190571;45.7059715;84830;6127178745;-73.503607;45.716615;0;7;8;9452582;Bus 140 : TERMINUS RADISSON;"";EXO;140 O;montée Dumais / des Rives;Terminus Radisson
163649772;"{\"type\":\"LineString\",\"coordinates\":[[-73.5049666,45.7121523],[-73.505166,45.7120855]]}";8;Chemin Saint-Charles;4;50;false;false;true;false;false;false;18.0;0;0;0;0;0;false;84089;6129484995;-73.5190571;45.7059715;84830;6127178745;-73.503607;45.716615;0;7;8;9452582;Bus 140 : TERMINUS RADISSON;"";EXO;140 O;montée Dumais / des Rives;Terminus Radisson
163649768;"{\"type\":\"LineString\",\"coordinates\":[[-73.5041371,45.7124126],[-73.5048155,45.7122039],[-73.5048781,45.7121831],[-73.5049666,45.7121523]]}";9;Chemin Saint-Charles;3;50;false;false;true;false;false;false;71.0;1;1;0;0;0;false;84089;6129484995;-73.5190571;45.7059715;84830;6127178745;-73.503607;45.716615;0;7;8;9452582;Bus 140 : TERMINUS RADISSON;"";EXO;140 O;montée Dumais / des Rives;Terminus Radisson
32797988;"{\"type\":\"LineString\",\"coordinates\":[[-73.5049666,45.7121523],[-73.5049627,45.7126054]]}";10;Rue des Migrateurs;1;50;false;true;true;false;false;false;51.0;0;0;0;0;0;false;84089;6129484995;-73.5190571;45.7059715;84830;6127178745;-73.503607;45.716615;0;7;8;9452582;Bus 140 : TERMINUS RADISSON;"";EXO;140 O;montée Dumais / des Rives;Terminus Radisson
680965930;"{\"type\":\"LineString\",\"coordinates\":[[-73.5049627,45.7126054],[-73.5049514,45.7139379]]}";11;Rue des Migrateurs;1;50;false;true;true;false;false;false;148.0;1;0;0;0;0;false;84089;6129484995;-73.5190571;45.7059715;84830;6127178745;-73.503607;45.716615;0;7;8;9452582;Bus 140 : TERMINUS RADISSON;"";EXO;140 O;montée Dumais / des Rives;Terminus Radisson
163649781;"{\"type\":\"LineString\",\"coordinates\":[[-73.5049514,45.7139379],[-73.5049509,45.7140329],[-73.5049456,45.7147873],[-73.5048546,45.7151342],[-73.5046559,45.7156001],[-73.5045245,45.7157932],[-73.5043071,45.7160112],[-73.5035804,45.7166742]]}";12;Rue des Migrateurs;1;50;false;true;true;false;false;false;334.0;2;0;0;0;0;false;84089;6129484995;-73.5190571;45.7059715;84830;6127178745;-73.503607;45.716615;2;7;8;9452582;Bus 140 : TERMINUS RADISSON;"";EXO;140 O;montée Dumais / des Rives;Terminus Radisson
177365959;"{\"type\":\"LineString\",\"coordinates\":[[-73.5035804,45.7166742],[-73.5029292,45.7163377],[-73.5021185,45.7158764],[-73.5017605,45.7156939],[-73.5016605,45.7156665],[-73.5015508,45.7156561],[-73.5014591,45.7156511],[-73.5013462,45.7156597],[-73.4999259,45.7160611]]}";1;Rue du Bruant;1;50;false;false;true;false;false;false;165.5;0;0;0;0;0;false;85013;6129482221;-73.500133;45.715909;84796;6127178746;-73.498242;45.713891;1;9;10;9452582;Bus 140 : TERMINUS RADISSON;"";EXO;140 O;montée Dumais / des Rives;Terminus Radisson
177365956;"{\"type\":\"LineString\",\"coordinates\":[[-73.4999259,45.7160611],[-73.4994471,45.7152691]]}";2;Rue du Chène Blanc;1;50;false;false;true;false;false;false;96.0;0;0;0;0;0;false;85013;6129482221;-73.500133;45.715909;84796;6127178746;-73.498242;45.713891;0;9;10;9452582;Bus 140 : TERMINUS RADISSON;"";EXO;140 O;montée Dumais / des Rives;Terminus Radisson
679842987;"{\"type\":\"LineString\",\"coordinates\":[[-73.4990409,45.7153836],[-73.4990852,45.7153714],[-73.4994471,45.7152691]]}";3;Rue du Campagnol;1;50;false;false;true;false;false;false;35.0;0;0;0;0;0;false;85013;6129482221;-73.500133;45.715909;84796;6127178746;-73.498242;45.713891;0;9;10;9452582;Bus 140 : TERMINUS RADISSON;"";EXO;140 O;montée Dumais / des Rives;Terminus Radisson
177365965;"{\"type\":\"LineString\",\"coordinates\":[[-73.4990409,45.7153836],[-73.4986289,45.714683],[-73.4983143,45.714148],[-73.4981606,45.7138865]]}";4;Allée du Grand-Pic;1;50;false;false;true;false;false;false;90.0;0;0;0;0;0;false;85013;6129482221;-73.500133;45.715909;84796;6127178746;-73.498242;45.713891;1;9;10;9452582;Bus 140 : TERMINUS RADISSON;"";EXO;140 O;montée Dumais / des Rives;Terminus Radisson
474826047;"{\"type\":\"LineString\",\"coordinates\":[[-73.4981606,45.7138865],[-73.4981487,45.7137881],[-73.4980872,45.7136585],[-73.4980964,45.7135668]]}";1;Allée du Grand-Pic;1;50;false;true;true;false;false;false;37.0;0;0;0;0;0;false;84796;6127178746;-73.498242;45.713891;85093;6129481669;-73.512002;45.709807;2;10;11;9452582;Bus 140 : TERMINUS RADISSON;"";EXO;140 O;montée Dumais / des Rives;Terminus Radisson
679842986;"{\"type\":\"LineString\",\"coordinates\":[[-73.4980964,45.7135668],[-73.498109,45.7135448],[-73.4981147,45.7135214]]}";2;"";1;50;false;false;true;false;false;false;6.0;0;0;0;0;0;true;84796;6127178746;-73.498242;45.713891;85093;6129481669;-73.512002;45.709807;0;10;11;9452582;Bus 140 : TERMINUS RADISSON;"";EXO;140 O;montée Dumais / des Rives;Terminus Radisson
474826052;"{\"type\":\"LineString\",\"coordinates\":[[-73.4981147,45.7135214],[-73.4982288,45.7134654],[-73.498431,45.7133924],[-73.4985568,45.7133442]]}";3;Chemin Saint-Charles;1;50;false;true;true;false;false;false;40.0;0;0;0;0;0;false;84796;6127178746;-73.498242;45.713891;85093;6129481669;-73.512002;45.709807;0;10;11;9452582;Bus 140 : TERMINUS RADISSON;"";EXO;140 O;montée Dumais / des Rives;Terminus Radisson
241805717;"{\"type\":\"LineString\",\"coordinates\":[[-73.4985568,45.7133442],[-73.4992076,45.7131492],[-73.5000104,45.7129536],[-73.5007783,45.7127945],[-73.5019699,45.7126269],[-73.5025357,45.712569],[-73.503028,45.7125328],[-73.5036063,45.712503],[-73.5038546,45.7124718],[-73.504045,45.7124332],[-73.5041371,45.7124126]]}";4;Chemin Saint-Charles;2;50;false;false;true;false;false;false;449.0;0;0;0;0;0;false;84796;6127178746;-73.498242;45.713891;85093;6129481669;-73.512002;45.709807;0;10;11;9452582;Bus 140 : TERMINUS RADISSON;"";EXO;140 O;montée Dumais / des Rives;Terminus Radisson
163649768;"{\"type\":\"LineString\",\"coordinates\":[[-73.5041371,45.7124126],[-73.5048155,45.7122039],[-73.5048781,45.7121831],[-73.5049666,45.7121523]]}";5;Chemin Saint-Charles;3;50;false;false;true;false;false;false;71.0;1;1;0;0;0;false;84796;6127178746;-73.498242;45.713891;85093;6129481669;-73.512002;45.709807;0;10;11;9452582;Bus 140 : TERMINUS RADISSON;"";EXO;140 O;montée Dumais / des Rives;Terminus Radisson
163649772;"{\"type\":\"LineString\",\"coordinates\":[[-73.5049666,45.7121523],[-73.505166,45.7120855]]}";6;Chemin Saint-Charles;4;50;false;false;true;false;false;false;18.0;0;0;0;0;0;false;84796;6127178746;-73.498242;45.713891;85093;6129481669;-73.512002;45.709807;0;10;11;9452582;Bus 140 : TERMINUS RADISSON;"";EXO;140 O;montée Dumais / des Rives;Terminus Radisson
163649774;"{\"type\":\"LineString\",\"coordinates\":[[-73.505166,45.7120855],[-73.5052939,45.7120279],[-73.5055194,45.711918]]}";7;Chemin Saint-Charles;4;50;false;false;true;false;false;false;34.0;1;0;0;0;0;false;84796;6127178746;-73.498242;45.713891;85093;6129481669;-73.512002;45.709807;0;10;11;9452582;Bus 140 : TERMINUS RADISSON;"";EXO;140 O;montée Dumais / des Rives;Terminus Radisson
163649770;"{\"type\":\"LineString\",\"coordinates\":[[-73.5055194,45.711918],[-73.50597,45.7117255],[-73.5078798,45.7106791]]}";8;Chemin Saint-Charles;2;50;false;true;true;false;false;false;230.0;0;0;0;0;0;false;84796;6127178746;-73.498242;45.713891;85093;6129481669;-73.512002;45.709807;0;10;11;9452582;Bus 140 : TERMINUS RADISSON;"";EXO;140 O;montée Dumais / des Rives;Terminus Radisson
49009282;"{\"type\":\"LineString\",\"coordinates\":[[-73.5078798,45.7106791],[-73.5091957,45.7099494]]}";9;Chemin Saint-Charles;2;50;false;true;true;false;false;false;131.0;0;0;0;0;0;false;84796;6127178746;-73.498242;45.713891;85093;6129481669;-73.512002;45.709807;0;10;11;9452582;Bus 140 : TERMINUS RADISSON;"";EXO;140 O;montée Dumais / des Rives;Terminus Radisson
49009283;"{\"type\":\"LineString\",\"coordinates\":[[-73.5091957,45.7099494],[-73.5103532,45.7092727],[-73.5105182,45.7091594],[-73.5106496,45.7090461],[-73.5108856,45.7088354],[-73.5110962,45.7086087],[-73.51117,45.708546],[-73.5113067,45.7084411],[-73.5113778,45.7084046],[-73.5114717,45.7083774],[-73.5115515,45.7083695],[-73.5116655,45.7083741],[-73.5117507,45.7083887],[-73.5118606,45.7084158],[-73.5119652,45.7084594]]}";10;Chemin Saint-Charles;2;50;false;true;true;false;false;false;292.0;1;0;0;0;0;false;84796;6127178746;-73.498242;45.713891;85093;6129481669;-73.512002;45.709807;0;10;11;9452582;Bus 140 : TERMINUS RADISSON;"";EXO;140 O;montée Dumais / des Rives;Terminus Radisson
32792564;"{\"type\":\"LineString\",\"coordinates\":[[-73.5119652,45.7084594],[-73.5120323,45.7085193],[-73.51209,45.70859],[-73.5121217,45.7086677],[-73.5121354,45.7087608],[-73.5121069,45.7094204],[-73.5120914,45.7097793],[-73.5120856,45.7099151]]}";11;Montée des Pionniers;2;50;false;true;true;false;false;false;166.0;2;0;0;0;0;false;84796;6127178746;-73.498242;45.713891;85093;6129481669;-73.512002;45.709807;2;10;11;9452582;Bus 140 : TERMINUS RADISSON;"";EXO;140 O;montée Dumais / des Rives;Terminus Radisson
468695022;"{\"type\":\"LineString\",\"coordinates\":[[-73.5120856,45.7099151],[-73.5120688,45.7108139],[-73.5120522,45.7117072],[-73.5120325,45.7127598],[-73.5120301,45.7128878]]}";1;Montée des Pionniers;1;50;false;true;true;false;false;false;331.0;1;0;0;0;0;false;85093;6129481669;-73.512002;45.709807;85099;6129481663;-73.513323;45.712983;2;11;12;9452582;Bus 140 : TERMINUS RADISSON;"";EXO;140 O;montée Dumais / des Rives;Terminus Radisson
453686961;"{\"type\":\"LineString\",\"coordinates\":[[-73.5122054,45.7128888],[-73.5120301,45.7128878]]}";2;Rue des Fleurs;1;50;false;false;true;false;false;false;14.0;0;0;0;0;0;false;85093;6129481669;-73.512002;45.709807;85099;6129481663;-73.513323;45.712983;0;11;12;9452582;Bus 140 : TERMINUS RADISSON;"";EXO;140 O;montée Dumais / des Rives;Terminus Radisson
679842979;"{\"type\":\"LineString\",\"coordinates\":[[-73.5188419,45.7119837],[-73.5178947,45.7125581],[-73.5173609,45.7127507],[-73.5170164,45.7128436],[-73.5166397,45.7129096],[-73.5162579,45.7129138],[-73.5145083,45.7129018],[-73.5135082,45.7128961],[-73.5123379,45.7128895],[-73.5122054,45.7128888]]}";3;Rue des Fleurs;1;50;false;false;true;false;false;false;549.0;1;1;0;0;0;false;85093;6129481669;-73.512002;45.709807;85099;6129481663;-73.513323;45.712983;2;11;12;9452582;Bus 140 : TERMINUS RADISSON;"";EXO;140 O;montée Dumais / des Rives;Terminus Radisson
45178153;"{\"type\":\"LineString\",\"coordinates\":[[-73.5080276,45.7222977],[-73.5081377,45.7222997],[-73.5088839,45.7223135],[-73.5103577,45.7223407],[-73.5115106,45.722362],[-73.513404,45.7223969],[-73.5135759,45.7224001]]}";1;Rue de la Soeur-Marie-Rose;1;50;false;false;true;false;false;false;216.0;1;0;0;0;0;false;85251;6129481615;-73.50917;45.7222;85803;6129480784;-73.5077207;45.7238518;1;24;25;9452582;Bus 140 : TERMINUS RADISSON;"";EXO;140 O;montée Dumais / des Rives;Terminus Radisson
480347614;"{\"type\":\"LineString\",\"coordinates\":[[-73.5080276,45.7222977],[-73.5078723,45.7222927]]}";2;Rue Yves-Blais;1;50;false;false;true;false;false;false;13.0;0;0;0;0;0;false;85251;6129481615;-73.50917;45.7222;85803;6129480784;-73.5077207;45.7238518;0;24;25;9452582;Bus 140 : TERMINUS RADISSON;"";EXO;140 O;montée Dumais / des Rives;Terminus Radisson
480347612;"{\"type\":\"LineString\",\"coordinates\":[[-73.5078723,45.7222927],[-73.5078105,45.7238818],[-73.5078065,45.7239866]]}";3;Montée des Pionniers;1;50;false;true;true;false;false;false;94.5;1;0;0;0;0;false;85251;6129481615;-73.50917;45.7222;85803;6129480784;-73.5077207;45.7238518;1;24;25;9452582;Bus 140 : TERMINUS RADISSON;"";EXO;140 O;montée Dumais / des Rives;Terminus Radisson
679842974;"{\"type\":\"LineString\",\"coordinates\":[[-73.5078065,45.7239866],[-73.5077806,45.7246518],[-73.5077542,45.7253317],[-73.507753,45.7253624],[-73.5077503,45.7254319]]}";1;Montée des Pionniers;1;50;false;true;true;false;false;false;161.0;1;1;0;0;0;false;85803;6129480784;-73.5077207;45.7238518;85079;6129481678;-73.5074625;45.725616;2;25;26;9452582;Bus 140 : TERMINUS RADISSON;"";EXO;140 O;montée Dumais / des Rives;Terminus Radisson
45178173;"{\"type\":\"LineString\",\"coordinates\":[[-73.5077503,45.7254319],[-73.5077483,45.7254995],[-73.5077458,45.7255778],[-73.5077193,45.7263254],[-73.5077136,45.7264949],[-73.507717,45.7265318],[-73.5077454,45.7268426],[-73.5077673,45.7270828],[-73.5078577,45.7273496],[-73.507955,45.7275544],[-73.508084,45.7277493],[-73.5082554,45.7279327],[-73.5084176,45.7280619],[-73.5086688,45.7281911],[-73.5091998,45.7284008],[-73.5098405,45.7286692],[-73.510521,45.7289639],[-73.5106495,45.7290196]]}";2;Montée des Pionniers;1;50;false;true;true;false;false;false;509.0;1;1;0;0;0;false;85803;6129480784;-73.5077207;45.7238518;85079;6129481678;-73.5074625;45.725616;2;25;26;9452582;Bus 140 : TERMINUS RADISSON;"";EXO;140 O;montée Dumais / des Rives;Terminus Radisson
473786461;"{\"type\":\"LineString\",\"coordinates\":[[-73.5100767,45.7286061],[-73.5092738,45.728305],[-73.5087601,45.7281022],[-73.5085319,45.7279807],[-73.5083789,45.7278639],[-73.5082286,45.7276882],[-73.5081002,45.7275129],[-73.5079927,45.7273011],[-73.5079467,45.7271275],[-73.5079217,45.7270646],[-73.5079012,45.7268404],[-73.5078695,45.7264927],[-73.5078886,45.7258455],[-73.5078976,45.7256029],[-73.5078985,45.725579],[-73.5079006,45.7255023],[-73.5079027,45.725436]]}";1;Montée des Pionniers;1;50;false;true;true;false;false;false;217.5;1;1;0;0;0;false;85087;6127178740;-73.508003;45.726046;85086;6127178741;-73.5080861;45.7236325;1;28;29;9452582;Bus 140 : TERMINUS RADISSON;"";EXO;140 O;montée Dumais / des Rives;Terminus Radisson
473786462;"{\"type\":\"LineString\",\"coordinates\":[[-73.5079027,45.725436],[-73.5079056,45.7253636],[-73.5079338,45.724654],[-73.5079554,45.7241112],[-73.5079604,45.7239874]]}";2;Montée des Pionniers;1;50;false;true;true;false;false;false;161.0;1;1;0;0;0;false;85087;6127178740;-73.508003;45.726046;85086;6127178741;-73.5080861;45.7236325;0;28;29;9452582;Bus 140 : TERMINUS RADISSON;"";EXO;140 O;montée Dumais / des Rives;Terminus Radisson
681719386;"{\"type\":\"LineString\",\"coordinates\":[[-73.5079604,45.7239874],[-73.508022,45.7224383],[-73.5080276,45.7222977]]}";3;Montée des Pionniers;1;50;false;true;true;false;false;false;94.0;1;0;0;0;0;false;85087;6127178740;-73.508003;45.726046;85086;6127178741;-73.5080861;45.7236325;1;28;29;9452582;Bus 140 : TERMINUS RADISSON;"";EXO;140 O;montée Dumais / des Rives;Terminus Radisson
681719386;"{\"type\":\"LineString\",\"coordinates\":[[-73.5079604,45.7239874],[-73.508022,45.7224383],[-73.5080276,45.7222977]]}";1;Montée des Pionniers;1;50;false;true;true;false;false;false;94.0;1;0;0;0;0;false;85086;6127178741;-73.5080861;45.7236325;85253;6127178738;-73.5084908;45.7212236;1;29;30;9452582;Bus 140 : TERMINUS RADISSON;"";EXO;140 O;montée Dumais / des Rives;Terminus Radisson
480347614;"{\"type\":\"LineString\",\"coordinates\":[[-73.5080276,45.7222977],[-73.5078723,45.7222927]]}";2;Rue Yves-Blais;1;50;false;false;true;false;false;false;13.0;0;0;0;0;0;false;85086;6127178741;-73.5080861;45.7236325;85253;6127178738;-73.5084908;45.7212236;0;29;30;9452582;Bus 140 : TERMINUS RADISSON;"";EXO;140 O;montée Dumais / des Rives;Terminus Radisson
453682035;"{\"type\":\"LineString\",\"coordinates\":[[-73.5080276,45.7222977],[-73.5080621,45.721704],[-73.5080884,45.7215765],[-73.5081331,45.721466],[-73.5082297,45.7213425],[-73.508338,45.7212428],[-73.5084959,45.7210972],[-73.5086101,45.720992]]}";3;Montée des Pionniers;1;50;false;true;true;false;false;false;79.0;1;0;0;0;0;false;85086;6127178741;-73.5080861;45.7236325;85253;6127178738;-73.5084908;45.7212236;1;29;30;9452582;Bus 140 : TERMINUS RADISSON;"";EXO;140 O;montée Dumais / des Rives;Terminus Radisson
453682035;"{\"type\":\"LineString\",\"coordinates\":[[-73.5080276,45.7222977],[-73.5080621,45.721704],[-73.5080884,45.7215765],[-73.5081331,45.721466],[-73.5082297,45.7213425],[-73.508338,45.7212428],[-73.5084959,45.7210972],[-73.5086101,45.720992]]}";1;Montée des Pionniers;1;50;false;true;true;false;false;false;79.0;1;0;0;0;0;false;85253;6127178738;-73.5084908;45.7212236;84125;6127178747;-73.511228;45.718186;1;30;31;9452582;Bus 140 : TERMINUS RADISSON;"";EXO;140 O;montée Dumais / des Rives;Terminus Radisson
453682034;"{\"type\":\"LineString\",\"coordinates\":[[-73.5086101,45.720992],[-73.5095048,45.7202071],[-73.509878,45.7198563],[-73.5101607,45.7195324],[-73.5105395,45.7190933],[-73.5110682,45.7183706],[-73.5111396,45.7182638],[-73.5112261,45.7181344]]}";2;Montée des Pionniers;1;50;false;true;true;false;false;false;189.5;1;0;0;0;0;false;85253;6127178738;-73.5084908;45.7212236;84125;6127178747;-73.511228;45.718186;1;30;31;9452582;Bus 140 : TERMINUS RADISSON;"";EXO;140 O;montée Dumais / des Rives;Terminus Radisson
474806365;"{\"type\":\"LineString\",\"coordinates\":[[-73.5112261,45.7181344],[-73.5112624,45.7180597]]}";1;Montée des Pionniers;1;50;false;true;true;false;false;false;9.0;0;0;0;0;0;false;84125;6127178747;-73.511228;45.718186;85078;692318999;-73.539382;45.589483;2;31;32;9452582;Bus 140 : TERMINUS RADISSON;"";EXO;140 O;montée Dumais / des Rives;Terminus Radisson
24574942;"{\"type\":\"LineString\",\"coordinates\":[[-73.5112624,45.7180597],[-73.5115107,45.7175999],[-73.511659,45.7172707],[-73.5118335,45.7168086],[-73.5119783,45.7163346],[-73.5120906,45.7158383],[-73.512159,45.7152865],[-73.5121807,45.7143091],[-73.5121841,45.7141582]]}";2;Montée des Pionniers;1;50;false;true;true;false;false;false;443.0;1;0;0;0;0;false;84125;6127178747;-73.511228;45.718186;85078;692318999;-73.539382;45.589483;0;31;32;9452582;Bus 140 : TERMINUS RADISSON;"";EXO;140 O;montée Dumais / des Rives;Terminus Radisson
453683695;"{\"type\":\"LineString\",\"coordinates\":[[-73.5121841,45.7141582],[-73.5121878,45.7140545]]}";3;Montée des Pionniers;1;50;false;true;true;false;false;false;12.0;0;0;0;0;0;false;84125;6127178747;-73.511228;45.718186;85078;692318999;-73.539382;45.589483;0;31;32;9452582;Bus 140 : TERMINUS RADISSON;"";EXO;140 O;montée Dumais / des Rives;Terminus Radisson
453683701;"{\"type\":\"LineString\",\"coordinates\":[[-73.5121878,45.7140545],[-73.5120158,45.7140505]]}";4;"";1;50;false;true;true;false;false;false;14.0;0;0;0;0;0;false;84125;6127178747;-73.511228;45.718186;85078;692318999;-73.539382;45.589483;0;31;32;9452582;Bus 140 : TERMINUS RADISSON;"";EXO;140 O;montée Dumais / des Rives;Terminus Radisson
453683705;"{\"type\":\"LineString\",\"coordinates\":[[-73.5120158,45.7140505],[-73.5115857,45.7140404]]}";5;"";1;50;false;true;true;false;false;false;34.0;0;0;0;0;0;false;84125;6127178747;-73.511228;45.718186;85078;692318999;-73.539382;45.589483;0;31;32;9452582;Bus 140 : TERMINUS RADISSON;"";EXO;140 O;montée Dumais / des Rives;Terminus Radisson
49009492;"{\"type\":\"LineString\",\"coordinates\":[[-73.5115857,45.7140404],[-73.5099721,45.7140464],[-73.5096803,45.7140104],[-73.5094928,45.7139231],[-73.5093971,45.7138486],[-73.5091308,45.7136031],[-73.5090022,45.7133512],[-73.508817,45.7119144]]}";6;"";1;50;false;true;true;false;false;false;402.0;0;0;0;0;0;false;84125;6127178747;-73.511228;45.718186;85078;692318999;-73.539382;45.589483;0;31;32;9452582;Bus 140 : TERMINUS RADISSON;"";EXO;140 O;montée Dumais / des Rives;Terminus Radisson
472576375;"{\"type\":\"LineString\",\"coordinates\":[[-73.508817,45.7119144],[-73.508821,45.7104092],[-73.508766,45.709485],[-73.5087213,45.7087342],[-73.5087226,45.7072519]]}";7;Autoroute Félix-Leclerc;2;100;false;true;true;false;false;false;518.0;0;0;0;0;0;false;84125;6127178747;-73.511228;45.718186;85078;692318999;-73.539382;45.589483;0;31;32;9452582;Bus 140 : TERMINUS RADISSON;"";EXO;140 O;montée Dumais / des Rives;Terminus Radisson
20944678;"{\"type\":\"LineString\",\"coordinates\":[[-73.5087226,45.7072519],[-73.5089857,45.6977357]]}";8;Pont Charles-De-Gaulle;3;100;false;true;true;false;false;false;1057.0;0;0;0;0;0;false;84125;6127178747;-73.511228;45.718186;85078;692318999;-73.539382;45.589483;0;31;32;9452582;Bus 140 : TERMINUS RADISSON;"";EXO;140 O;montée Dumais / des Rives;Terminus Radisson
472547284;"{\"type\":\"LineString\",\"coordinates\":[[-73.5089857,45.6977357],[-73.5091077,45.6963811],[-73.5092345,45.6957611],[-73.5094289,45.6951146],[-73.5099649,45.6938621],[-73.514235,45.6846137],[-73.5173249,45.6778975],[-73.51786,45.6767307]]}";9;Autoroute Métropolitaine;3;100;false;true;true;false;false;false;2439.0;0;0;0;0;0;false;84125;6127178747;-73.511228;45.718186;85078;692318999;-73.539382;45.589483;0;31;32;9452582;Bus 140 : TERMINUS RADISSON;"";EXO;140 O;montée Dumais / des Rives;Terminus Radisson
472547281;"{\"type\":\"LineString\",\"coordinates\":[[-73.51786,45.6767307],[-73.5183841,45.6755962]]}";10;Autoroute Métropolitaine;3;100;false;true;true;false;false;false;133.0;0;0;0;0;0;false;84125;6127178747;-73.511228;45.718186;85078;692318999;-73.539382;45.589483;0;31;32;9452582;Bus 140 : TERMINUS RADISSON;"";EXO;140 O;montée Dumais / des Rives;Terminus Radisson
680965939;"{\"type\":\"LineString\",\"coordinates\":[[-73.5183841,45.6755962],[-73.5188913,45.6744942],[-73.5193165,45.6732687],[-73.5195243,45.6720727],[-73.5195028,45.6707907],[-73.5193097,45.6694338],[-73.5190882,45.668225]]}";11;Autoroute Métropolitaine;3;100;false;true;true;false;false;false;832.0;0;0;0;0;0;false;84125;6127178747;-73.511228;45.718186;85078;692318999;-73.539382;45.589483;0;31;32;9452582;Bus 140 : TERMINUS RADISSON;"";EXO;140 O;montée Dumais / des Rives;Terminus Radisson
46619026;"{\"type\":\"LineString\",\"coordinates\":[[-73.5190882,45.668225],[-73.5189823,45.6661934]]}";12;"";1;50;false;true;true;false;false;false;226.0;0;0;0;0;0;false;84125;6127178747;-73.511228;45.718186;85078;692318999;-73.539382;45.589483;0;31;32;9452582;Bus 140 : TERMINUS RADISSON;"";EXO;140 O;montée Dumais / des Rives;Terminus Radisson
48938934;"{\"type\":\"LineString\",\"coordinates\":[[-73.5189823,45.6661934],[-73.5188521,45.6655259],[-73.5187556,45.6651118],[-73.5185944,45.6644201],[-73.5184479,45.6635718],[-73.5183835,45.6626864],[-73.5185123,45.6613427],[-73.5188384,45.660179],[-73.5194265,45.6589274],[-73.5199415,45.6579881],[-73.5203061,45.6575154],[-73.520993,45.6567678],[-73.5210357,45.6567176],[-73.5212417,45.6565076],[-73.5215078,45.6562076]]}";13;Boulevard Métropolitain;1;50;false;true;true;false;false;false;1165.0;0;0;0;0;0;false;84125;6127178747;-73.511228;45.718186;85078;692318999;-73.539382;45.589483;0;31;32;9452582;Bus 140 : TERMINUS RADISSON;"";EXO;140 O;montée Dumais / des Rives;Terminus Radisson
680965937;"{\"type\":\"LineString\",\"coordinates\":[[-73.5215078,45.6562076],[-73.5227154,45.654861],[-73.523211,45.6543084],[-73.5268522,45.6502454]]}";14;Boulevard Métropolitain;1;50;false;true;true;false;false;false;783.0;0;0;0;0;0;false;84125;6127178747;-73.511228;45.718186;85078;692318999;-73.539382;45.589483;0;31;32;9452582;Bus 140 : TERMINUS RADISSON;"";EXO;140 O;montée Dumais / des Rives;Terminus Radisson
32795099;"{\"type\":\"LineString\",\"coordinates\":[[-73.5268522,45.6502454],[-73.5275577,45.6496379],[-73.5279063,45.6494467],[-73.5282631,45.6493417],[-73.5286097,45.6492846],[-73.5293145,45.6491692]]}";15;"";1;50;false;true;true;false;false;false;236.0;0;0;0;0;0;false;84125;6127178747;-73.511228;45.718186;85078;692318999;-73.539382;45.589483;0;31;32;9452582;Bus 140 : TERMINUS RADISSON;"";EXO;140 O;montée Dumais / des Rives;Terminus Radisson
400634984;"{\"type\":\"LineString\",\"coordinates\":[[-73.5293145,45.6491692],[-73.5294593,45.6490867],[-73.5295479,45.6490135],[-73.5296069,45.6489517],[-73.5296415,45.6488759]]}";16;"";1;50;false;true;true;false;false;false;43.0;0;0;0;0;0;false;84125;6127178747;-73.511228;45.718186;85078;692318999;-73.539382;45.589483;0;31;32;9452582;Bus 140 : TERMINUS RADISSON;"";EXO;140 O;montée Dumais / des Rives;Terminus Radisson
453708245;"{\"type\":\"LineString\",\"coordinates\":[[-73.5296415,45.6488759],[-73.5296534,45.6487425]]}";17;"";1;50;false;true;true;false;false;false;15.0;0;0;0;0;0;false;84125;6127178747;-73.511228;45.718186;85078;692318999;-73.539382;45.589483;0;31;32;9452582;Bus 140 : TERMINUS RADISSON;"";EXO;140 O;montée Dumais / des Rives;Terminus Radisson
680965935;"{\"type\":\"LineString\",\"coordinates\":[[-73.5296534,45.6487425],[-73.5290034,45.6484492]]}";18;Boulevard Saint-Jean-Baptiste;1;50;false;true;true;false;false;false;61.0;0;0;0;0;0;false;84125;6127178747;-73.511228;45.718186;85078;692318999;-73.539382;45.589483;0;31;32;9452582;Bus 140 : TERMINUS RADISSON;"";EXO;140 O;montée Dumais / des Rives;Terminus Radisson
49742210;"{\"type\":\"LineString\",\"coordinates\":[[-73.5290034,45.6484492],[-73.5277038,45.6478782]]}";19;Boulevard Saint-Jean-Baptiste;1;50;false;true;true;false;false;false;120.0;0;0;0;0;0;false;84125;6127178747;-73.511228;45.718186;85078;692318999;-73.539382;45.589483;0;31;32;9452582;Bus 140 : TERMINUS RADISSON;"";EXO;140 O;montée Dumais / des Rives;Terminus Radisson
453706093;"{\"type\":\"LineString\",\"coordinates\":[[-73.5277038,45.6478782],[-73.5270616,45.6475892]]}";20;Boulevard Saint-Jean-Baptiste;1;50;false;true;true;false;false;false;60.0;0;0;0;0;0;false;84125;6127178747;-73.511228;45.718186;85078;692318999;-73.539382;45.589483;0;31;32;9452582;Bus 140 : TERMINUS RADISSON;"";EXO;140 O;montée Dumais / des Rives;Terminus Radisson
453706807;"{\"type\":\"LineString\",\"coordinates\":[[-73.5270616,45.6475892],[-73.5261307,45.6471704]]}";21;Boulevard Saint-Jean-Baptiste;1;50;false;true;true;false;false;false;87.0;0;0;0;0;0;false;84125;6127178747;-73.511228;45.718186;85078;692318999;-73.539382;45.589483;0;31;32;9452582;Bus 140 : TERMINUS RADISSON;"";EXO;140 O;montée Dumais / des Rives;Terminus Radisson
453706434;"{\"type\":\"LineString\",\"coordinates\":[[-73.5261307,45.6471704],[-73.5238884,45.6462141]]}";22;Boulevard Saint-Jean-Baptiste;1;50;false;true;true;false;false;false;205.0;0;0;0;0;0;false;84125;6127178747;-73.511228;45.718186;85078;692318999;-73.539382;45.589483;0;31;32;9452582;Bus 140 : TERMINUS RADISSON;"";EXO;140 O;montée Dumais / des Rives;Terminus Radisson
453706431;"{\"type\":\"LineString\",\"coordinates\":[[-73.5238884,45.6462141],[-73.5229951,45.6458051]]}";23;Boulevard Saint-Jean-Baptiste;1;50;false;true;true;false;false;false;84.0;0;0;0;0;0;false;84125;6127178747;-73.511228;45.718186;85078;692318999;-73.539382;45.589483;0;31;32;9452582;Bus 140 : TERMINUS RADISSON;"";EXO;140 O;montée Dumais / des Rives;Terminus Radisson
453484220;"{\"type\":\"LineString\",\"coordinates\":[[-73.5229951,45.6458051],[-73.5214257,45.6450865],[-73.5209445,45.6449076],[-73.519589,45.6446578],[-73.5187522,45.6445153],[-73.5176652,45.6443364],[-73.5160979,45.6440784],[-73.5156889,45.644011],[-73.5139867,45.6437308]]}";24;Boulevard Saint-Jean-Baptiste;1;50;false;true;true;false;false;false;746.0;0;0;0;0;0;false;84125;6127178747;-73.511228;45.718186;85078;692318999;-73.539382;45.589483;0;31;32;9452582;Bus 140 : TERMINUS RADISSON;"";EXO;140 O;montée Dumais / des Rives;Terminus Radisson
453507341;"{\"type\":\"LineString\",\"coordinates\":[[-73.5139867,45.6437308],[-73.5143042,45.6428197],[-73.514567,45.6420657]]}";25;Rue Sherbrooke Est;1;50;false;true;true;false;false;false;191.0;0;0;0;0;0;false;84125;6127178747;-73.511228;45.718186;85078;692318999;-73.539382;45.589483;0;31;32;9452582;Bus 140 : TERMINUS RADISSON;"";EXO;140 O;montée Dumais / des Rives;Terminus Radisson
453507338;"{\"type\":\"LineString\",\"coordinates\":[[-73.514567,45.6420657],[-73.5147859,45.6413773]]}";26;Rue Sherbrooke Est;1;50;false;true;true;false;false;false;79.0;0;0;0;0;0;false;84125;6127178747;-73.511228;45.718186;85078;692318999;-73.539382;45.589483;0;31;32;9452582;Bus 140 : TERMINUS RADISSON;"";EXO;140 O;montée Dumais / des Rives;Terminus Radisson
453508390;"{\"type\":\"LineString\",\"coordinates\":[[-73.5147859,45.6413773],[-73.5149146,45.641]]}";27;Rue Sherbrooke Est;1;50;false;true;true;false;false;false;44.0;0;0;0;0;0;false;84125;6127178747;-73.511228;45.718186;85078;692318999;-73.539382;45.589483;0;31;32;9452582;Bus 140 : TERMINUS RADISSON;"";EXO;140 O;montée Dumais / des Rives;Terminus Radisson
453508393;"{\"type\":\"LineString\",\"coordinates\":[[-73.5149146,45.641],[-73.514994,45.6407677],[-73.5150057,45.6407332]]}";28;Rue Sherbrooke Est;1;50;false;true;true;false;false;false;31.0;0;0;0;0;0;false;84125;6127178747;-73.511228;45.718186;85078;692318999;-73.539382;45.589483;0;31;32;9452582;Bus 140 : TERMINUS RADISSON;"";EXO;140 O;montée Dumais / des Rives;Terminus Radisson
453508742;"{\"type\":\"LineString\",\"coordinates\":[[-73.5150057,45.6407332],[-73.5152398,45.6400445]]}";29;Rue Sherbrooke Est;1;50;false;true;true;false;false;false;79.0;0;0;0;0;0;false;84125;6127178747;-73.511228;45.718186;85078;692318999;-73.539382;45.589483;0;31;32;9452582;Bus 140 : TERMINUS RADISSON;"";EXO;140 O;montée Dumais / des Rives;Terminus Radisson
453484224;"{\"type\":\"LineString\",\"coordinates\":[[-73.5152398,45.6400445],[-73.5156763,45.6387606],[-73.5162336,45.6371898],[-73.516359,45.6368023],[-73.5162869,45.6365859]]}";30;Rue Sherbrooke Est;1;50;false;true;true;false;false;false;396.0;0;0;0;0;0;false;84125;6127178747;-73.511228;45.718186;85078;692318999;-73.539382;45.589483;0;31;32;9452582;Bus 140 : TERMINUS RADISSON;"";EXO;140 O;montée Dumais / des Rives;Terminus Radisson
453482699;"{\"type\":\"LineString\",\"coordinates\":[[-73.5163446,45.6362112],[-73.5162869,45.6365859]]}";31;Rue Sherbrooke Est;4;50;false;false;true;false;false;false;42.0;0;0;0;0;0;false;84125;6127178747;-73.511228;45.718186;85078;692318999;-73.539382;45.589483;0;31;32;9452582;Bus 140 : TERMINUS RADISSON;"";EXO;140 O;montée Dumais / des Rives;Terminus Radisson
453482702;"{\"type\":\"LineString\",\"coordinates\":[[-73.5164072,45.6358051],[-73.5163446,45.6362112]]}";32;Rue Sherbrooke Est;4;50;false;false;true;false;false;false;46.0;0;0;0;0;0;false;84125;6127178747;-73.511228;45.718186;85078;692318999;-73.539382;45.589483;0;31;32;9452582;Bus 140 : TERMINUS RADISSON;"";EXO;140 O;montée Dumais / des Rives;Terminus Radisson
453482701;"{\"type\":\"LineString\",\"coordinates\":[[-73.5163948,45.6355357],[-73.5164072,45.6358051]]}";33;Rue Sherbrooke Est;4;50;false;false;true;false;false;false;30.0;0;0;0;0;0;false;84125;6127178747;-73.511228;45.718186;85078;692318999;-73.539382;45.589483;0;31;32;9452582;Bus 140 : TERMINUS RADISSON;"";EXO;140 O;montée Dumais / des Rives;Terminus Radisson
453485942;"{\"type\":\"LineString\",\"coordinates\":[[-73.5159994,45.6335074],[-73.5161924,45.6343265],[-73.5163716,45.6350302],[-73.5163948,45.6355357]]}";34;Rue Sherbrooke Est;4;50;false;false;true;false;false;false;228.0;0;0;0;0;0;false;84125;6127178747;-73.511228;45.718186;85078;692318999;-73.539382;45.589483;0;31;32;9452582;Bus 140 : TERMINUS RADISSON;"";EXO;140 O;montée Dumais / des Rives;Terminus Radisson
453485941;"{\"type\":\"LineString\",\"coordinates\":[[-73.5159675,45.6331826],[-73.5159994,45.6335074]]}";35;Rue Sherbrooke Est;4;50;false;false;true;false;false;false;37.0;0;0;0;0;0;false;84125;6127178747;-73.511228;45.718186;85078;692318999;-73.539382;45.589483;0;31;32;9452582;Bus 140 : TERMINUS RADISSON;"";EXO;140 O;montée Dumais / des Rives;Terminus Radisson
20314465;"{\"type\":\"LineString\",\"coordinates\":[[-73.5249442,45.6139287],[-73.5229667,45.6175721],[-73.5207654,45.6216941],[-73.5200889,45.6237052],[-73.520004,45.6239015],[-73.5188645,45.6272051],[-73.5187623,45.6274268],[-73.5173945,45.6298793],[-73.5167669,45.631021],[-73.5167142,45.6311229],[-73.5161175,45.6322774],[-73.515934,45.6328421],[-73.5159675,45.6331826]]}";36;Rue Sherbrooke Est;4;50;false;false;true;false;false;false;2257.0;2;0;0;0;0;false;84125;6127178747;-73.511228;45.718186;85078;692318999;-73.539382;45.589483;0;31;32;9452582;Bus 140 : TERMINUS RADISSON;"";EXO;140 O;montée Dumais / des Rives;Terminus Radisson
459568603;"{\"type\":\"LineString\",\"coordinates\":[[-73.5249442,45.6139287],[-73.5251331,45.6137185],[-73.5253914,45.613262],[-73.5258056,45.6125302],[-73.526177,45.611874],[-73.5264316,45.6113828],[-73.5266893,45.6108955],[-73.52702,45.6102781],[-73.5273217,45.6097225]]}";37;Rue Sherbrooke Est;2;50;false;true;true;false;false;false;504.0;2;0;0;0;0;false;84125;6127178747;-73.511228;45.718186;85078;692318999;-73.539382;45.589483;0;31;32;9452582;Bus 140 : TERMINUS RADISSON;"";EXO;140 O;montée Dumais / des Rives;Terminus Radisson
459568600;"{\"type\":\"LineString\",\"coordinates\":[[-73.5273217,45.6097225],[-73.5277142,45.6089995]]}";38;Rue Sherbrooke Est;2;50;false;true;true;false;false;false;86.0;0;0;0;0;0;false;84125;6127178747;-73.511228;45.718186;85078;692318999;-73.539382;45.589483;0;31;32;9452582;Bus 140 : TERMINUS RADISSON;"";EXO;140 O;montée Dumais / des Rives;Terminus Radisson
459570327;"{\"type\":\"LineString\",\"coordinates\":[[-73.5277142,45.6089995],[-73.5278165,45.6088072],[-73.528033,45.6083711],[-73.5280864,45.6082908],[-73.5283821,45.6077725],[-73.5286906,45.6072544]]}";39;Rue Sherbrooke Est;2;50;false;true;true;false;false;false;209.0;1;0;0;0;0;false;84125;6127178747;-73.511228;45.718186;85078;692318999;-73.539382;45.589483;0;31;32;9452582;Bus 140 : TERMINUS RADISSON;"";EXO;140 O;montée Dumais / des Rives;Terminus Radisson
459570326;"{\"type\":\"LineString\",\"coordinates\":[[-73.5286906,45.6072544],[-73.5291077,45.6065532]]}";40;Rue Sherbrooke Est;2;50;false;true;true;false;false;false;85.0;0;0;0;0;0;false;84125;6127178747;-73.511228;45.718186;85078;692318999;-73.539382;45.589483;0;31;32;9452582;Bus 140 : TERMINUS RADISSON;"";EXO;140 O;montée Dumais / des Rives;Terminus Radisson
459570319;"{\"type\":\"LineString\",\"coordinates\":[[-73.5291077,45.6065532],[-73.5295088,45.6058788],[-73.5298847,45.6052356],[-73.5302701,45.6045936]]}";41;Rue Sherbrooke Est;2;50;false;true;true;false;false;false;236.0;0;0;0;0;0;false;84125;6127178747;-73.511228;45.718186;85078;692318999;-73.539382;45.589483;0;31;32;9452582;Bus 140 : TERMINUS RADISSON;"";EXO;140 O;montée Dumais / des Rives;Terminus Radisson
607792919;"{\"type\":\"LineString\",\"coordinates\":[[-73.5302701,45.6045936],[-73.5304253,45.6043284],[-73.5306628,45.6039224],[-73.5310652,45.6032435]]}";42;Rue Sherbrooke Est;2;50;false;true;true;false;false;false;163.0;0;0;0;0;0;false;84125;6127178747;-73.511228;45.718186;85078;692318999;-73.539382;45.589483;0;31;32;9452582;Bus 140 : TERMINUS RADISSON;"";EXO;140 O;montée Dumais / des Rives;Terminus Radisson
459570318;"{\"type\":\"LineString\",\"coordinates\":[[-73.5310652,45.6032435],[-73.5315348,45.6024632]]}";43;Rue Sherbrooke Est;2;50;false;true;true;false;false;false;95.0;0;0;0;0;0;false;84125;6127178747;-73.511228;45.718186;85078;692318999;-73.539382;45.589483;0;31;32;9452582;Bus 140 : TERMINUS RADISSON;"";EXO;140 O;montée Dumais / des Rives;Terminus Radisson
459570315;"{\"type\":\"LineString\",\"coordinates\":[[-73.5315348,45.6024632],[-73.5319548,45.6017337],[-73.5323433,45.6010928],[-73.5324038,45.6009929]]}";44;Rue Sherbrooke Est;2;50;false;true;true;false;false;false;177.0;0;1;0;0;0;false;84125;6127178747;-73.511228;45.718186;85078;692318999;-73.539382;45.589483;0;31;32;9452582;Bus 140 : TERMINUS RADISSON;"";EXO;140 O;montée Dumais / des Rives;Terminus Radisson
459570314;"{\"type\":\"LineString\",\"coordinates\":[[-73.5324038,45.6009929],[-73.5324253,45.6009575],[-73.5328341,45.6002844]]}";45;Rue Sherbrooke Est;2;50;false;true;true;false;false;false;86.0;0;1;0;0;0;false;84125;6127178747;-73.511228;45.718186;85078;692318999;-73.539382;45.589483;0;31;32;9452582;Bus 140 : TERMINUS RADISSON;"";EXO;140 O;montée Dumais / des Rives;Terminus Radisson
20213150;"{\"type\":\"LineString\",\"coordinates\":[[-73.5328341,45.6002844],[-73.5332674,45.5995773],[-73.5336469,45.5989463]]}";46;Rue Sherbrooke Est;2;50;false;true;true;false;false;false;162.0;0;0;0;0;0;false;84125;6127178747;-73.511228;45.718186;85078;692318999;-73.539382;45.589483;0;31;32;9452582;Bus 140 : TERMINUS RADISSON;"";EXO;140 O;montée Dumais / des Rives;Terminus Radisson
459571182;"{\"type\":\"LineString\",\"coordinates\":[[-73.5336469,45.5989463],[-73.5343114,45.5978491]]}";47;Rue Sherbrooke Est;2;50;false;true;true;false;false;false;133.0;0;0;0;0;0;false;84125;6127178747;-73.511228;45.718186;85078;692318999;-73.539382;45.589483;0;31;32;9452582;Bus 140 : TERMINUS RADISSON;"";EXO;140 O;montée Dumais / des Rives;Terminus Radisson
452652543;"{\"type\":\"LineString\",\"coordinates\":[[-73.5343114,45.5978491],[-73.534752,45.5971593]]}";48;Rue Sherbrooke Est;2;50;false;true;true;false;false;false;84.0;0;0;0;0;0;false;84125;6127178747;-73.511228;45.718186;85078;692318999;-73.539382;45.589483;0;31;32;9452582;Bus 140 : TERMINUS RADISSON;"";EXO;140 O;montée Dumais / des Rives;Terminus Radisson
452652544;"{\"type\":\"LineString\",\"coordinates\":[[-73.534752,45.5971593],[-73.5350983,45.5966052],[-73.5351548,45.5965148]]}";49;Rue Sherbrooke Est;2;50;false;true;true;false;false;false;79.0;1;0;0;0;0;false;84125;6127178747;-73.511228;45.718186;85078;692318999;-73.539382;45.589483;0;31;32;9452582;Bus 140 : TERMINUS RADISSON;"";EXO;140 O;montée Dumais / des Rives;Terminus Radisson
452652540;"{\"type\":\"LineString\",\"coordinates\":[[-73.5351548,45.5965148],[-73.5354812,45.5959845]]}";50;Rue Sherbrooke Est;2;50;false;true;true;false;false;false;65.0;1;0;0;0;0;false;84125;6127178747;-73.511228;45.718186;85078;692318999;-73.539382;45.589483;0;31;32;9452582;Bus 140 : TERMINUS RADISSON;"";EXO;140 O;montée Dumais / des Rives;Terminus Radisson
452652546;"{\"type\":\"LineString\",\"coordinates\":[[-73.5354812,45.5959845],[-73.5358085,45.5954308]]}";51;Rue Sherbrooke Est;2;50;false;true;true;false;false;false;67.0;0;0;0;0;0;false;84125;6127178747;-73.511228;45.718186;85078;692318999;-73.539382;45.589483;0;31;32;9452582;Bus 140 : TERMINUS RADISSON;"";EXO;140 O;montée Dumais / des Rives;Terminus Radisson
455478688;"{\"type\":\"LineString\",\"coordinates\":[[-73.5358085,45.5954308],[-73.5358557,45.5953589]]}";52;Rue Sherbrooke Est;2;50;false;true;true;false;false;false;9.0;1;0;0;0;0;false;84125;6127178747;-73.511228;45.718186;85078;692318999;-73.539382;45.589483;0;31;32;9452582;Bus 140 : TERMINUS RADISSON;"";EXO;140 O;montée Dumais / des Rives;Terminus Radisson
452652536;"{\"type\":\"LineString\",\"coordinates\":[[-73.5358557,45.5953589],[-73.5361342,45.5948815]]}";53;Rue Sherbrooke Est;2;50;false;true;true;false;false;false;58.0;2;0;0;0;0;false;84125;6127178747;-73.511228;45.718186;85078;692318999;-73.539382;45.589483;0;31;32;9452582;Bus 140 : TERMINUS RADISSON;"";EXO;140 O;montée Dumais / des Rives;Terminus Radisson
393698268;"{\"type\":\"LineString\",\"coordinates\":[[-73.5361342,45.5948815],[-73.5363621,45.5944918],[-73.5364829,45.5942947]]}";54;Rue Sherbrooke Est;2;50;false;true;true;false;false;false;71.0;1;0;0;0;0;false;84125;6127178747;-73.511228;45.718186;85078;692318999;-73.539382;45.589483;0;31;32;9452582;Bus 140 : TERMINUS RADISSON;"";EXO;140 O;montée Dumais / des Rives;Terminus Radisson
455314972;"{\"type\":\"LineString\",\"coordinates\":[[-73.5364829,45.5942947],[-73.5365547,45.5941627]]}";55;Rue Sherbrooke Est;2;50;false;true;true;false;false;false;16.0;1;0;0;0;0;false;84125;6127178747;-73.511228;45.718186;85078;692318999;-73.539382;45.589483;0;31;32;9452582;Bus 140 : TERMINUS RADISSON;"";EXO;140 O;montée Dumais / des Rives;Terminus Radisson
511856226;"{\"type\":\"LineString\",\"coordinates\":[[-73.5365547,45.5941627],[-73.5367103,45.5938648],[-73.5368661,45.5935767]]}";56;Rue Sherbrooke Est;2;50;false;true;true;false;false;false;70.0;1;0;0;0;0;false;84125;6127178747;-73.511228;45.718186;85078;692318999;-73.539382;45.589483;0;31;32;9452582;Bus 140 : TERMINUS RADISSON;"";EXO;140 O;montée Dumais / des Rives;Terminus Radisson
27439805;"{\"type\":\"LineString\",\"coordinates\":[[-73.5368661,45.5935767],[-73.5372284,45.5929627]]}";57;Rue Sherbrooke Est;1;50;false;true;true;false;false;false;74.0;0;0;0;0;0;false;84125;6127178747;-73.511228;45.718186;85078;692318999;-73.539382;45.589483;0;31;32;9452582;Bus 140 : TERMINUS RADISSON;"";EXO;140 O;montée Dumais / des Rives;Terminus Radisson
452610968;"{\"type\":\"LineString\",\"coordinates\":[[-73.5372284,45.5929627],[-73.5373335,45.5927856],[-73.5375787,45.5923593]]}";58;Rue Sherbrooke Est;2;50;false;true;true;false;false;false;73.0;1;0;0;0;0;false;84125;6127178747;-73.511228;45.718186;85078;692318999;-73.539382;45.589483;0;31;32;9452582;Bus 140 : TERMINUS RADISSON;"";EXO;140 O;montée Dumais / des Rives;Terminus Radisson
455414957;"{\"type\":\"LineString\",\"coordinates\":[[-73.5375787,45.5923593],[-73.538308,45.5911737]]}";59;Rue Sherbrooke Est;2;50;false;true;true;false;false;false;144.0;1;0;0;0;0;false;84125;6127178747;-73.511228;45.718186;85078;692318999;-73.539382;45.589483;0;31;32;9452582;Bus 140 : TERMINUS RADISSON;"";EXO;140 O;montée Dumais / des Rives;Terminus Radisson
459586697;"{\"type\":\"LineString\",\"coordinates\":[[-73.538308,45.5911737],[-73.538472,45.5908911]]}";60;Rue Sherbrooke Est;2;50;false;true;true;false;false;false;34.0;0;0;0;0;0;false;84125;6127178747;-73.511228;45.718186;85078;692318999;-73.539382;45.589483;0;31;32;9452582;Bus 140 : TERMINUS RADISSON;"";EXO;140 O;montée Dumais / des Rives;Terminus Radisson
452610967;"{\"type\":\"LineString\",\"coordinates\":[[-73.538472,45.5908911],[-73.539051,45.5899151]]}";61;Rue Sherbrooke Est;2;50;false;true;true;false;false;false;118.0;0;0;0;0;0;false;84125;6127178747;-73.511228;45.718186;85078;692318999;-73.539382;45.589483;0;31;32;9452582;Bus 140 : TERMINUS RADISSON;"";EXO;140 O;montée Dumais / des Rives;Terminus Radisson
455314963;"{\"type\":\"LineString\",\"coordinates\":[[-73.539051,45.5899151],[-73.5393,45.5895081]]}";62;Rue Sherbrooke Est;2;50;false;true;true;false;false;false;50.0;0;0;0;0;0;false;84125;6127178747;-73.511228;45.718186;85078;692318999;-73.539382;45.589483;0;31;32;9452582;Bus 140 : TERMINUS RADISSON;"";EXO;140 O;montée Dumais / des Rives;Terminus Radisson
695763675;"{\"type\":\"LineString\",\"coordinates\":[[-73.5393,45.5895081],[-73.5396653,45.588906]]}";63;Rue Sherbrooke Est;2;50;false;true;true;false;false;false;73.0;0;0;0;0;0;false;84125;6127178747;-73.511228;45.718186;85078;692318999;-73.539382;45.589483;1;31;32;9452582;Bus 140 : TERMINUS RADISSON;"";EXO;140 O;montée Dumais / des Rives;Terminus Radisson
