way_id;shape;index;name;nb_lanes;legal_speed;speed_zone_30;oneway;shares_bike;bike_box;bus_lane;dedicated_bus_lane;length;nb_traffic_signals;nb_crossings;nb_stops;nb_give_ways;nb_lvl_crossings;roundabout;stop_id_orig;node_id_orig;coord_x_orig;coord_y_orig;stop_id_dest;node_id_dest;coord_x_dest;coord_y_dest;nb_neighbouring_ways_bus_stop;order_orig;order_dest;id_line;line_name;colour;operator;ref;from;to
200170062;"{\"type\":\"LineString\",\"coordinates\":[[-6.3144937,53.373552],[-6.314093,53.3735812],[-6.3132931,53.3736217],[-6.3127165,53.3736424],[-6.3124539,53.37365],[-6.312293,53.3736465],[-6.312146,53.3736309],[-6.3118765,53.3735892],[-6.3117814,53.3735745],[-6.3115274,53.3735326],[-6.3114016,53.3735239],[-6.3112032,53.3735101]]}";1;Ashington Park;2;30;false;false;true;false;false;false;223.0;0;0;0;0;0;false;4525;2102384047;-6.3114061;53.3734448;4526;440848066;-6.3151972;53.3721953;1;0;1;2690893;122 towards Drimnagh;"";Dublin Bus;122;Ashington;Drimnagh Road
3761190;"{\"type\":\"LineString\",\"coordinates\":[[-6.3163867,53.3705945],[-6.3162793,53.3707505],[-6.3162213,53.3708348],[-6.3158595,53.3713487],[-6.3154802,53.3719143],[-6.3151082,53.372427],[-6.3147708,53.3729218],[-6.3146959,53.3730182],[-6.3146123,53.3731504],[-6.3145183,53.3733173],[-6.3144978,53.3733893],[-6.3144867,53.3735163],[-6.3144937,53.373552]]}";2;Ashington Avenue;2;30;false;false;true;false;false;false;178.5;0;0;1;0;0;false;4525;2102384047;-6.3114061;53.3734448;4526;440848066;-6.3151972;53.3721953;1;0;1;2690893;122 towards Drimnagh;"";Dublin Bus;122;Ashington;Drimnagh Road
3761190;"{\"type\":\"LineString\",\"coordinates\":[[-6.3163867,53.3705945],[-6.3162793,53.3707505],[-6.3162213,53.3708348],[-6.3158595,53.3713487],[-6.3154802,53.3719143],[-6.3151082,53.372427],[-6.3147708,53.3729218],[-6.3146959,53.3730182],[-6.3146123,53.3731504],[-6.3145183,53.3733173],[-6.3144978,53.3733893],[-6.3144867,53.3735163],[-6.3144937,53.373552]]}";1;Ashington Avenue;2;30;false;false;true;false;false;false;178.5;0;0;1;0;0;false;4526;440848066;-6.3151972;53.3721953;16;440849958;-6.3056261;53.3664267;1;1;2;2690893;122 towards Drimnagh;"";Dublin Bus;122;Ashington;Drimnagh Road
3761189;"{\"type\":\"LineString\",\"coordinates\":[[-6.3181143,53.3677898],[-6.317988,53.3679704],[-6.3178012,53.3682694],[-6.3175433,53.3686886],[-6.3174649,53.3688204],[-6.3173265,53.3690377],[-6.3171863,53.3692781],[-6.3170568,53.3694931],[-6.3167997,53.3699116],[-6.3167829,53.3699389],[-6.3163867,53.3705945]]}";2;Kinvara Avenue;2;30;false;false;true;false;false;false;335.0;2;0;0;0;0;false;4526;440848066;-6.3151972;53.3721953;16;440849958;-6.3056261;53.3664267;0;1;2;2690893;122 towards Drimnagh;"";Dublin Bus;122;Ashington;Drimnagh Road
4253693;"{\"type\":\"LineString\",\"coordinates\":[[-6.3082836,53.3649239],[-6.3084887,53.3649816],[-6.3085744,53.3650096],[-6.309231,53.3652238],[-6.3096409,53.3653566],[-6.3102151,53.3655577],[-6.3104373,53.3656316],[-6.3109708,53.3658052],[-6.3113683,53.3659413],[-6.3116609,53.3660415],[-6.3119681,53.3661467],[-6.3122773,53.3662525],[-6.3125257,53.3663376],[-6.3125855,53.3663536],[-6.3129526,53.3664727],[-6.3130209,53.3664952],[-6.3131299,53.3665302],[-6.3134558,53.3666405],[-6.3137726,53.3667502],[-6.3143289,53.3669184],[-6.3147455,53.3670247],[-6.3149653,53.3670808],[-6.3154472,53.3671937],[-6.3174968,53.3676544],[-6.3175271,53.3676614],[-6.317638,53.3676854],[-6.3178501,53.3677292],[-6.3179092,53.3677414],[-6.3181143,53.3677898]]}";3;Navan Road;1;50;false;false;false;false;false;false;735.0;2;1;0;0;0;false;4526;440848066;-6.3151972;53.3721953;16;440849958;-6.3056261;53.3664267;0;1;2;2690893;122 towards Drimnagh;"";Dublin Bus;122;Ashington;Drimnagh Road
37692143;"{\"type\":\"LineString\",\"coordinates\":[[-6.3082836,53.3649239],[-6.3080675,53.3650758],[-6.3080222,53.3651051],[-6.3077868,53.3652573],[-6.3071782,53.3656416],[-6.3068503,53.365853],[-6.3063089,53.3661151],[-6.3057081,53.3663419],[-6.3053146,53.3664888],[-6.3048219,53.366658],[-6.3045649,53.3667423],[-6.3037681,53.3670038],[-6.3026908,53.3673306]]}";4;Nephin Road;1;50;false;false;true;false;false;false;233.5;1;1;0;0;0;false;4526;440848066;-6.3151972;53.3721953;16;440849958;-6.3056261;53.3664267;1;1;2;2690893;122 towards Drimnagh;"";Dublin Bus;122;Ashington;Drimnagh Road
37692143;"{\"type\":\"LineString\",\"coordinates\":[[-6.3082836,53.3649239],[-6.3080675,53.3650758],[-6.3080222,53.3651051],[-6.3077868,53.3652573],[-6.3071782,53.3656416],[-6.3068503,53.365853],[-6.3063089,53.3661151],[-6.3057081,53.3663419],[-6.3053146,53.3664888],[-6.3048219,53.366658],[-6.3045649,53.3667423],[-6.3037681,53.3670038],[-6.3026908,53.3673306]]}";1;Nephin Road;1;50;false;false;true;false;false;false;233.5;1;1;0;0;0;false;16;440849958;-6.3056261;53.3664267;74;2102390446;-6.2954487;53.36717;1;2;3;2690893;122 towards Drimnagh;"";Dublin Bus;122;Ashington;Drimnagh Road
200170063;"{\"type\":\"LineString\",\"coordinates\":[[-6.3026908,53.3673306],[-6.3026955,53.3673506],[-6.3026936,53.3673714],[-6.30268,53.3673991],[-6.3026544,53.3674237],[-6.3026135,53.3674455]]}";2;The Bogie's Roundabout;1;50;false;false;true;false;false;false;15.0;0;0;0;0;0;true;16;440849958;-6.3056261;53.3664267;74;2102390446;-6.2954487;53.36717;0;2;3;2690893;122 towards Drimnagh;"";Dublin Bus;122;Ashington;Drimnagh Road
318765006;"{\"type\":\"LineString\",\"coordinates\":[[-6.3026135,53.3674455],[-6.3025783,53.367456],[-6.3025366,53.367462],[-6.3025039,53.3674625],[-6.3024724,53.3674596],[-6.3024423,53.3674534],[-6.3024119,53.3674431],[-6.3023855,53.3674295],[-6.3023623,53.3674115],[-6.302346,53.3673911],[-6.3023366,53.3673659]]}";3;The Bogie's Roundabout;1;50;false;false;true;false;false;false;25.0;0;0;0;0;0;true;16;440849958;-6.3056261;53.3664267;74;2102390446;-6.2954487;53.36717;0;2;3;2690893;122 towards Drimnagh;"";Dublin Bus;122;Ashington;Drimnagh Road
3708470;"{\"type\":\"LineString\",\"coordinates\":[[-6.3023366,53.3673659],[-6.3022603,53.3673656],[-6.3013045,53.3673524]]}";4;Fassaugh Avenue;1;50;false;false;true;false;false;false;70.0;0;0;0;0;0;false;16;440849958;-6.3056261;53.3664267;74;2102390446;-6.2954487;53.36717;0;2;3;2690893;122 towards Drimnagh;"";Dublin Bus;122;Ashington;Drimnagh Road
318765000;"{\"type\":\"LineString\",\"coordinates\":[[-6.3013045,53.3673524],[-6.3001914,53.3673269],[-6.3000079,53.3673223],[-6.299766,53.3673159],[-6.2993206,53.3673126],[-6.2988294,53.3672951],[-6.298622,53.3672877],[-6.2984346,53.36728],[-6.2979058,53.3672584],[-6.2972749,53.367221],[-6.2960096,53.3671587],[-6.2958467,53.3671509],[-6.29475,53.3670729],[-6.294105,53.367014],[-6.2937225,53.3669663],[-6.2934019,53.3669186],[-6.2926446,53.3667943],[-6.2920173,53.3666783]]}";5;Fassaugh Avenue;2;50;false;false;true;false;false;false;315.0;2;1;0;0;0;false;16;440849958;-6.3056261;53.3664267;74;2102390446;-6.2954487;53.36717;1;2;3;2690893;122 towards Drimnagh;"";Dublin Bus;122;Ashington;Drimnagh Road
318765000;"{\"type\":\"LineString\",\"coordinates\":[[-6.3013045,53.3673524],[-6.3001914,53.3673269],[-6.3000079,53.3673223],[-6.299766,53.3673159],[-6.2993206,53.3673126],[-6.2988294,53.3672951],[-6.298622,53.3672877],[-6.2984346,53.36728],[-6.2979058,53.3672584],[-6.2972749,53.367221],[-6.2960096,53.3671587],[-6.2958467,53.3671509],[-6.29475,53.3670729],[-6.294105,53.367014],[-6.2937225,53.3669663],[-6.2934019,53.3669186],[-6.2926446,53.3667943],[-6.2920173,53.3666783]]}";1;Fassaugh Avenue;2;50;false;false;true;false;false;false;315.0;2;1;0;0;0;false;73;2102387264;-6.3007942;53.3673833;5149;6179374967;-6.3237237;53.3290656;1;4;5;2690893;122 towards Drimnagh;"";Dublin Bus;122;Ashington;Drimnagh Road
201392270;"{\"type\":\"LineString\",\"coordinates\":[[-6.2927544,53.3659472],[-6.2927109,53.3659715],[-6.2925094,53.3661076],[-6.2923427,53.3662626],[-6.2921807,53.3664469],[-6.2921012,53.3665587],[-6.2920173,53.3666783]]}";2;Carnlough Road;2;30;false;false;true;false;false;false;97.0;1;0;0;0;0;false;73;2102387264;-6.3007942;53.3673833;5149;6179374967;-6.3237237;53.3290656;0;4;5;2690893;122 towards Drimnagh;"";Dublin Bus;122;Ashington;Drimnagh Road
201392272;"{\"type\":\"LineString\",\"coordinates\":[[-6.2941528,53.3636585],[-6.2941192,53.3638648],[-6.294003,53.3641476],[-6.293558,53.364912],[-6.2934028,53.3652267],[-6.2933847,53.3652633],[-6.2932686,53.3654862],[-6.2931817,53.365652],[-6.2931469,53.3656948],[-6.2931148,53.3657343],[-6.2927544,53.3659472]]}";3;Carnlough Road;2;30;false;false;true;false;false;false;278.0;0;0;0;0;0;false;73;2102387264;-6.3007942;53.3673833;5149;6179374967;-6.3237237;53.3290656;0;4;5;2690893;122 towards Drimnagh;"";Dublin Bus;122;Ashington;Drimnagh Road
201392271;"{\"type\":\"LineString\",\"coordinates\":[[-6.2934061,53.3617723],[-6.29341,53.3617944],[-6.2934237,53.3618722],[-6.2935834,53.3621666],[-6.2938465,53.3625186],[-6.2939293,53.3626456],[-6.294055,53.3629202],[-6.2940996,53.3631204],[-6.294141,53.363361],[-6.2941544,53.3636203],[-6.2941528,53.3636585]]}";4;Carnlough Road;2;30;false;false;true;false;false;false;220.0;0;0;0;0;0;false;73;2102387264;-6.3007942;53.3673833;5149;6179374967;-6.3237237;53.3290656;0;4;5;2690893;122 towards Drimnagh;"";Dublin Bus;122;Ashington;Drimnagh Road
4215661;"{\"type\":\"LineString\",\"coordinates\":[[-6.2933682,53.3614243],[-6.2933712,53.3614631],[-6.2934029,53.3617419],[-6.2934061,53.3617723]]}";5;Carnlough Road;2;30;false;false;true;false;false;false;40.0;0;0;1;0;0;false;73;2102387264;-6.3007942;53.3673833;5149;6179374967;-6.3237237;53.3290656;0;4;5;2690893;122 towards Drimnagh;"";Dublin Bus;122;Ashington;Drimnagh Road
200170059;"{\"type\":\"LineString\",\"coordinates\":[[-6.2933682,53.3614243],[-6.2930926,53.3614117],[-6.2929951,53.3614073]]}";6;Cabra Road;2;50;false;false;true;false;false;false;26.0;0;0;0;0;0;false;73;2102387264;-6.3007942;53.3673833;5149;6179374967;-6.3237237;53.3290656;0;4;5;2690893;122 towards Drimnagh;"";Dublin Bus;122;Ashington;Drimnagh Road
5825855;"{\"type\":\"LineString\",\"coordinates\":[[-6.2929951,53.3614073],[-6.2927407,53.3613985]]}";7;Cabra Road;2;50;false;false;true;false;false;false;18.0;0;0;0;0;0;false;73;2102387264;-6.3007942;53.3673833;5149;6179374967;-6.3237237;53.3290656;0;4;5;2690893;122 towards Drimnagh;"";Dublin Bus;122;Ashington;Drimnagh Road
326785829;"{\"type\":\"LineString\",\"coordinates\":[[-6.2927407,53.3613985],[-6.2927315,53.3613983],[-6.2925838,53.3613936]]}";8;Cabra Road;2;50;false;false;true;false;false;false;11.0;0;0;0;0;0;false;73;2102387264;-6.3007942;53.3673833;5149;6179374967;-6.3237237;53.3290656;0;4;5;2690893;122 towards Drimnagh;"";Dublin Bus;122;Ashington;Drimnagh Road
4395597;"{\"type\":\"LineString\",\"coordinates\":[[-6.2925838,53.3613936],[-6.2921077,53.3613768],[-6.2917548,53.3613626],[-6.2913532,53.3613465],[-6.2912337,53.3613417]]}";9;Cabra Road;2;50;false;false;true;false;false;false;91.0;0;0;0;0;0;false;73;2102387264;-6.3007942;53.3673833;5149;6179374967;-6.3237237;53.3290656;0;4;5;2690893;122 towards Drimnagh;"";Dublin Bus;122;Ashington;Drimnagh Road
543359812;"{\"type\":\"LineString\",\"coordinates\":[[-6.2912337,53.3613417],[-6.2910938,53.3613386],[-6.2908503,53.3613326]]}";10;Cabra Road;2;50;false;false;true;false;false;false;26.0;1;0;0;0;0;false;73;2102387264;-6.3007942;53.3673833;5149;6179374967;-6.3237237;53.3290656;0;4;5;2690893;122 towards Drimnagh;"";Dublin Bus;122;Ashington;Drimnagh Road
543359813;"{\"type\":\"LineString\",\"coordinates\":[[-6.2908503,53.3613326],[-6.2905588,53.3613213],[-6.289782,53.3613005],[-6.2891677,53.3612791],[-6.2879784,53.3612267],[-6.2861314,53.3611619],[-6.2856723,53.3611436],[-6.2855435,53.3611385],[-6.2847963,53.3611192],[-6.2841563,53.361092],[-6.2835464,53.3610661],[-6.2833187,53.3610562],[-6.2826416,53.3610344],[-6.2818402,53.3610006],[-6.2811353,53.3609751],[-6.2807536,53.3609606],[-6.279441,53.3609148],[-6.2794175,53.360914]]}";11;Cabra Road;2;50;false;false;true;false;false;false;768.0;3;1;0;0;0;false;73;2102387264;-6.3007942;53.3673833;5149;6179374967;-6.3237237;53.3290656;0;4;5;2690893;122 towards Drimnagh;"";Dublin Bus;122;Ashington;Drimnagh Road
39247678;"{\"type\":\"LineString\",\"coordinates\":[[-6.2794175,53.360914],[-6.2792852,53.3609084],[-6.2792066,53.3609054]]}";12;Cabra Road;2;50;false;false;true;false;false;false;15.0;0;1;0;0;0;false;73;2102387264;-6.3007942;53.3673833;5149;6179374967;-6.3237237;53.3290656;0;4;5;2690893;122 towards Drimnagh;"";Dublin Bus;122;Ashington;Drimnagh Road
39247679;"{\"type\":\"LineString\",\"coordinates\":[[-6.2792066,53.3609054],[-6.2791403,53.360902],[-6.2777623,53.3608436],[-6.2773159,53.3608245],[-6.2770216,53.360813]]}";13;Cabra Road;2;50;false;false;true;false;false;false;147.0;0;1;0;0;0;false;73;2102387264;-6.3007942;53.3673833;5149;6179374967;-6.3237237;53.3290656;0;4;5;2690893;122 towards Drimnagh;"";Dublin Bus;122;Ashington;Drimnagh Road
83517075;"{\"type\":\"LineString\",\"coordinates\":[[-6.2770216,53.360813],[-6.2764089,53.3607987],[-6.2760714,53.360789],[-6.275529,53.3607806],[-6.2751154,53.3607759]]}";14;Dalymount;2;50;false;false;true;false;false;false;128.0;1;1;0;0;0;false;73;2102387264;-6.3007942;53.3673833;5149;6179374967;-6.3237237;53.3290656;0;4;5;2690893;122 towards Drimnagh;"";Dublin Bus;122;Ashington;Drimnagh Road
4395609;"{\"type\":\"LineString\",\"coordinates\":[[-6.2751154,53.3607759],[-6.2744461,53.3607829],[-6.273971,53.3607879],[-6.2737893,53.3607948],[-6.2729553,53.3607967],[-6.2726879,53.3607926]]}";15;North Circular Road;2;50;false;false;true;false;false;false;163.0;2;0;0;0;0;false;73;2102387264;-6.3007942;53.3673833;5149;6179374967;-6.3237237;53.3290656;0;4;5;2690893;122 towards Drimnagh;"";Dublin Bus;122;Ashington;Drimnagh Road
4395931;"{\"type\":\"LineString\",\"coordinates\":[[-6.2726879,53.3607926],[-6.2716717,53.3607283],[-6.2713934,53.3607062]]}";16;North Circular Road;1;50;false;false;true;false;false;false;88.0;1;0;0;0;0;false;73;2102387264;-6.3007942;53.3673833;5149;6179374967;-6.3237237;53.3290656;0;4;5;2690893;122 towards Drimnagh;"";Dublin Bus;122;Ashington;Drimnagh Road
32117787;"{\"type\":\"LineString\",\"coordinates\":[[-6.2713934,53.3607062],[-6.2713183,53.3607002]]}";17;North Circular Road;1;50;false;false;true;false;false;false;6.0;0;0;0;0;0;false;73;2102387264;-6.3007942;53.3673833;5149;6179374967;-6.3237237;53.3290656;0;4;5;2690893;122 towards Drimnagh;"";Dublin Bus;122;Ashington;Drimnagh Road
317183888;"{\"type\":\"LineString\",\"coordinates\":[[-6.2713183,53.3607002],[-6.2710835,53.360682]]}";18;Blaquiere Bridge;1;50;false;false;true;false;false;false;16.0;0;1;0;0;0;false;73;2102387264;-6.3007942;53.3673833;5149;6179374967;-6.3237237;53.3290656;0;4;5;2690893;122 towards Drimnagh;"";Dublin Bus;122;Ashington;Drimnagh Road
264822873;"{\"type\":\"LineString\",\"coordinates\":[[-6.2710835,53.360682],[-6.2709908,53.3606741]]}";19;North Circular Road;1;50;false;false;true;false;false;false;7.0;0;1;0;0;0;false;73;2102387264;-6.3007942;53.3673833;5149;6179374967;-6.3237237;53.3290656;0;4;5;2690893;122 towards Drimnagh;"";Dublin Bus;122;Ashington;Drimnagh Road
317183891;"{\"type\":\"LineString\",\"coordinates\":[[-6.2709908,53.3606741],[-6.2705833,53.3606417],[-6.2704785,53.3606334],[-6.2701799,53.3606103],[-6.2696708,53.3605583]]}";20;North Circular Road;1;50;false;false;true;false;false;false;90.0;1;0;0;0;0;false;73;2102387264;-6.3007942;53.3673833;5149;6179374967;-6.3237237;53.3290656;0;4;5;2690893;122 towards Drimnagh;"";Dublin Bus;122;Ashington;Drimnagh Road
384401184;"{\"type\":\"LineString\",\"coordinates\":[[-6.2696708,53.3605583],[-6.2693636,53.3605434],[-6.2680622,53.3604501],[-6.2673243,53.3603995],[-6.26652,53.3603291],[-6.2661667,53.3603043],[-6.2661347,53.3603018],[-6.2656715,53.3602641],[-6.2654744,53.3602481]]}";21;North Circular Road;1;50;false;false;true;false;false;false;284.0;1;1;0;0;0;false;73;2102387264;-6.3007942;53.3673833;5149;6179374967;-6.3237237;53.3290656;0;4;5;2690893;122 towards Drimnagh;"";Dublin Bus;122;Ashington;Drimnagh Road
4395933;"{\"type\":\"LineString\",\"coordinates\":[[-6.2654744,53.3602481],[-6.2654214,53.3602438],[-6.2651881,53.3602249],[-6.2650516,53.3602135],[-6.2646298,53.3601784],[-6.2644492,53.3601634],[-6.264154,53.3601388],[-6.2640631,53.3601312],[-6.2634834,53.3600847],[-6.2629869,53.3600371],[-6.2619921,53.3599148],[-6.2616123,53.3598473],[-6.2613238,53.359764]]}";22;North Circular Road;2;50;false;false;true;false;false;false;285.0;1;0;0;0;0;false;73;2102387264;-6.3007942;53.3673833;5149;6179374967;-6.3237237;53.3290656;0;4;5;2690893;122 towards Drimnagh;"";Dublin Bus;122;Ashington;Drimnagh Road
37747728;"{\"type\":\"LineString\",\"coordinates\":[[-6.2620421,53.359035],[-6.261748,53.3593341],[-6.2613238,53.359764]]}";23;Dorset Street Lower;3;50;false;true;true;false;false;false;95.0;2;0;0;0;0;false;73;2102387264;-6.3007942;53.3673833;5149;6179374967;-6.3237237;53.3290656;0;4;5;2690893;122 towards Drimnagh;"";Dublin Bus;122;Ashington;Drimnagh Road
4385874;"{\"type\":\"LineString\",\"coordinates\":[[-6.2639091,53.3575103],[-6.2632318,53.3580527],[-6.2627403,53.3584509],[-6.2620421,53.359035]]}";24;Dorset Street Lower;2;50;false;true;true;false;false;false;212.0;2;0;0;0;0;false;73;2102387264;-6.3007942;53.3673833;5149;6179374967;-6.3237237;53.3290656;0;4;5;2690893;122 towards Drimnagh;"";Dublin Bus;122;Ashington;Drimnagh Road
37747498;"{\"type\":\"LineString\",\"coordinates\":[[-6.2639758,53.3573649],[-6.2639091,53.3575103]]}";25;Dorset Street Upper;2;50;false;true;true;false;false;false;17.0;1;0;0;0;0;false;73;2102387264;-6.3007942;53.3673833;5149;6179374967;-6.3237237;53.3290656;0;4;5;2690893;122 towards Drimnagh;"";Dublin Bus;122;Ashington;Drimnagh Road
37747137;"{\"type\":\"LineString\",\"coordinates\":[[-6.2639758,53.3573649],[-6.2641277,53.3572046],[-6.2642936,53.357035],[-6.2644595,53.3568653]]}";26;Dorset Street Upper;4;50;false;false;true;false;false;false;65.0;0;0;0;0;0;false;73;2102387264;-6.3007942;53.3673833;5149;6179374967;-6.3237237;53.3290656;0;4;5;2690893;122 towards Drimnagh;"";Dublin Bus;122;Ashington;Drimnagh Road
384401180;"{\"type\":\"LineString\",\"coordinates\":[[-6.2644595,53.3568653],[-6.2645466,53.3567755],[-6.2645656,53.3567559],[-6.264688,53.3566296]]}";27;Dorset Street Upper;4;50;false;false;true;false;false;false;31.0;0;0;0;0;0;false;73;2102387264;-6.3007942;53.3673833;5149;6179374967;-6.3237237;53.3290656;0;4;5;2690893;122 towards Drimnagh;"";Dublin Bus;122;Ashington;Drimnagh Road
150800557;"{\"type\":\"LineString\",\"coordinates\":[[-6.264688,53.3566296],[-6.2651532,53.3561317],[-6.26526,53.3560174]]}";28;Dorset Street Upper;4;50;false;false;true;false;false;false;79.0;1;1;0;0;0;false;73;2102387264;-6.3007942;53.3673833;5149;6179374967;-6.3237237;53.3290656;0;4;5;2690893;122 towards Drimnagh;"";Dublin Bus;122;Ashington;Drimnagh Road
3789941;"{\"type\":\"LineString\",\"coordinates\":[[-6.26526,53.3560174],[-6.2651653,53.3559503],[-6.2651565,53.3559441],[-6.2648955,53.3557336],[-6.264483,53.3553754]]}";29;North Frederick Street;2;30;false;false;true;false;true;false;89.0;1;1;0;0;0;false;73;2102387264;-6.3007942;53.3673833;5149;6179374967;-6.3237237;53.3290656;0;4;5;2690893;122 towards Drimnagh;"";Dublin Bus;122;Ashington;Drimnagh Road
37692391;"{\"type\":\"LineString\",\"coordinates\":[[-6.264483,53.3553754],[-6.2640683,53.3550078],[-6.2636602,53.3546521],[-6.2635999,53.3545965],[-6.2635331,53.354535]]}";30;North Frederick Street;2;30;false;false;true;false;false;false;114.0;1;1;0;0;0;false;73;2102387264;-6.3007942;53.3673833;5149;6179374967;-6.3237237;53.3290656;0;4;5;2690893;122 towards Drimnagh;"";Dublin Bus;122;Ashington;Drimnagh Road
151368;"{\"type\":\"LineString\",\"coordinates\":[[-6.2635331,53.354535],[-6.2634588,53.3544568]]}";31;Parnell Square East;2;30;false;false;true;false;false;false;11.0;2;0;0;0;0;false;73;2102387264;-6.3007942;53.3673833;5149;6179374967;-6.3237237;53.3290656;0;4;5;2690893;122 towards Drimnagh;"";Dublin Bus;122;Ashington;Drimnagh Road
319624628;"{\"type\":\"LineString\",\"coordinates\":[[-6.2634588,53.3544568],[-6.2634187,53.3544235],[-6.2631289,53.3541832]]}";32;Parnell Square East;2;30;false;true;true;false;false;false;38.0;1;1;0;0;0;false;73;2102387264;-6.3007942;53.3673833;5149;6179374967;-6.3237237;53.3290656;0;4;5;2690893;122 towards Drimnagh;"";Dublin Bus;122;Ashington;Drimnagh Road
49961187;"{\"type\":\"LineString\",\"coordinates\":[[-6.2631289,53.3541832],[-6.262998,53.3540721],[-6.2622261,53.3534172],[-6.2621675,53.3533675],[-6.2619459,53.3531795]]}";33;Parnell Square East;2;30;false;true;true;false;false;false;138.0;0;0;0;0;0;false;73;2102387264;-6.3007942;53.3673833;5149;6179374967;-6.3237237;53.3290656;0;4;5;2690893;122 towards Drimnagh;"";Dublin Bus;122;Ashington;Drimnagh Road
14047793;"{\"type\":\"LineString\",\"coordinates\":[[-6.2619459,53.3531795],[-6.2617474,53.352997]]}";34;Cavendish Row;2;30;false;true;true;false;false;false;25.0;0;0;0;0;0;false;73;2102387264;-6.3007942;53.3673833;5149;6179374967;-6.3237237;53.3290656;0;4;5;2690893;122 towards Drimnagh;"";Dublin Bus;122;Ashington;Drimnagh Road
37692415;"{\"type\":\"LineString\",\"coordinates\":[[-6.2617474,53.352997],[-6.2614498,53.3527615],[-6.261428,53.3527492]]}";35;Cavendish Row;2;30;false;true;true;false;false;false;36.0;1;0;0;0;0;false;73;2102387264;-6.3007942;53.3673833;5149;6179374967;-6.3237237;53.3290656;0;4;5;2690893;122 towards Drimnagh;"";Dublin Bus;122;Ashington;Drimnagh Road
578973715;"{\"type\":\"LineString\",\"coordinates\":[[-6.261428,53.3527492],[-6.2613994,53.3526827],[-6.2613621,53.3525959],[-6.2613445,53.352555]]}";36;Cavendish Row;2;30;false;true;true;false;false;false;23.0;2;0;0;0;0;false;73;2102387264;-6.3007942;53.3673833;5149;6179374967;-6.3237237;53.3290656;0;4;5;2690893;122 towards Drimnagh;"";Dublin Bus;122;Ashington;Drimnagh Road
3788405;"{\"type\":\"LineString\",\"coordinates\":[[-6.2613445,53.352555],[-6.2612725,53.3523923],[-6.2612001,53.3522278],[-6.2611234,53.3520535],[-6.2610744,53.3519419]]}";37;O'Connell Street Upper;2;30;false;true;true;false;false;false;72.0;2;2;0;0;0;false;73;2102387264;-6.3007942;53.3673833;5149;6179374967;-6.3237237;53.3290656;0;4;5;2690893;122 towards Drimnagh;"";Dublin Bus;122;Ashington;Drimnagh Road
49961189;"{\"type\":\"LineString\",\"coordinates\":[[-6.2610744,53.3519419],[-6.2608416,53.351421],[-6.2607686,53.3512564],[-6.2603792,53.3503787],[-6.2603097,53.3502191],[-6.260128,53.349819]]}";38;O'Connell Street Upper;2;30;false;true;true;false;false;false;247.0;2;0;0;0;0;false;73;2102387264;-6.3007942;53.3673833;5149;6179374967;-6.3237237;53.3290656;0;4;5;2690893;122 towards Drimnagh;"";Dublin Bus;122;Ashington;Drimnagh Road
49961184;"{\"type\":\"LineString\",\"coordinates\":[[-6.260128,53.349819],[-6.2597827,53.3490115],[-6.2597226,53.3488709],[-6.259606,53.3486178],[-6.2595533,53.3485006],[-6.2595282,53.3484455]]}";39;O'Connell Street Lower;2;30;false;true;true;false;false;false;160.0;2;0;0;0;0;false;73;2102387264;-6.3007942;53.3673833;5149;6179374967;-6.3237237;53.3290656;0;4;5;2690893;122 towards Drimnagh;"";Dublin Bus;122;Ashington;Drimnagh Road
717822540;"{\"type\":\"LineString\",\"coordinates\":[[-6.2595282,53.3484455],[-6.2595121,53.348415],[-6.2595044,53.3483991]]}";40;O'Connell Street Lower;2;30;false;true;true;false;false;false;6.0;1;0;0;0;0;false;73;2102387264;-6.3007942;53.3673833;5149;6179374967;-6.3237237;53.3290656;0;4;5;2690893;122 towards Drimnagh;"";Dublin Bus;122;Ashington;Drimnagh Road
677070804;"{\"type\":\"LineString\",\"coordinates\":[[-6.2595044,53.3483991],[-6.2594958,53.3483813],[-6.2594756,53.3483466],[-6.2593649,53.348122]]}";41;O'Connell Street Lower;2;30;false;true;false;false;false;false;33.0;0;0;0;0;0;false;73;2102387264;-6.3007942;53.3673833;5149;6179374967;-6.3237237;53.3290656;0;4;5;2690893;122 towards Drimnagh;"";Dublin Bus;122;Ashington;Drimnagh Road
369897004;"{\"type\":\"LineString\",\"coordinates\":[[-6.2593649,53.348122],[-6.2591517,53.3476853],[-6.2591013,53.3475905]]}";42;O'Connell Street Lower;2;30;false;true;false;false;false;false;63.0;1;0;0;0;0;false;73;2102387264;-6.3007942;53.3673833;5149;6179374967;-6.3237237;53.3290656;0;4;5;2690893;122 towards Drimnagh;"";Dublin Bus;122;Ashington;Drimnagh Road
3787954;"{\"type\":\"LineString\",\"coordinates\":[[-6.2591013,53.3475905],[-6.2590532,53.3475]]}";43;O'Connell Bridge;1;30;false;true;true;false;false;false;11.0;1;0;0;0;0;false;73;2102387264;-6.3007942;53.3673833;5149;6179374967;-6.3237237;53.3290656;0;4;5;2690893;122 towards Drimnagh;"";Dublin Bus;122;Ashington;Drimnagh Road
4414300;"{\"type\":\"LineString\",\"coordinates\":[[-6.2590532,53.3475],[-6.2590471,53.3474886],[-6.2589617,53.3473272]]}";44;O'Connell Bridge;4;30;false;true;true;false;false;false;21.0;0;0;0;0;0;false;73;2102387264;-6.3007942;53.3673833;5149;6179374967;-6.3237237;53.3290656;0;4;5;2690893;122 towards Drimnagh;"";Dublin Bus;122;Ashington;Drimnagh Road
632640318;"{\"type\":\"LineString\",\"coordinates\":[[-6.2589617,53.3473272],[-6.2589448,53.3472978]]}";45;O'Connell Bridge;4;30;false;true;true;false;false;false;4.0;0;0;0;0;0;false;73;2102387264;-6.3007942;53.3673833;5149;6179374967;-6.3237237;53.3290656;0;4;5;2690893;122 towards Drimnagh;"";Dublin Bus;122;Ashington;Drimnagh Road
369897003;"{\"type\":\"LineString\",\"coordinates\":[[-6.2589448,53.3472978],[-6.2589186,53.347248],[-6.2588438,53.3471061],[-6.2588369,53.3470931]]}";46;O'Connell Bridge;4;30;false;true;true;false;false;false;25.0;0;1;0;0;0;false;73;2102387264;-6.3007942;53.3673833;5149;6179374967;-6.3237237;53.3290656;0;4;5;2690893;122 towards Drimnagh;"";Dublin Bus;122;Ashington;Drimnagh Road
23920383;"{\"type\":\"LineString\",\"coordinates\":[[-6.2588369,53.3470931],[-6.258792,53.3470086]]}";47;O'Connell Bridge;1;30;false;true;true;false;false;false;10.0;1;1;0;0;0;false;73;2102387264;-6.3007942;53.3673833;5149;6179374967;-6.3237237;53.3290656;0;4;5;2690893;122 towards Drimnagh;"";Dublin Bus;122;Ashington;Drimnagh Road
4074523;"{\"type\":\"LineString\",\"coordinates\":[[-6.258792,53.3470086],[-6.2587358,53.3469124],[-6.2586477,53.3467807]]}";48;D'Olier Street;4;30;false;true;true;false;false;false;28.0;1;1;0;0;0;false;73;2102387264;-6.3007942;53.3673833;5149;6179374967;-6.3237237;53.3290656;0;4;5;2690893;122 towards Drimnagh;"";Dublin Bus;122;Ashington;Drimnagh Road
514848250;"{\"type\":\"LineString\",\"coordinates\":[[-6.2586477,53.3467807],[-6.2585335,53.3467035]]}";49;D'Olier Street;3;30;false;true;true;false;false;false;12.0;0;0;0;0;0;false;73;2102387264;-6.3007942;53.3673833;5149;6179374967;-6.3237237;53.3290656;0;4;5;2690893;122 towards Drimnagh;"";Dublin Bus;122;Ashington;Drimnagh Road
375737373;"{\"type\":\"LineString\",\"coordinates\":[[-6.2585335,53.3467035],[-6.2584476,53.3466455],[-6.2583354,53.3465697],[-6.2582454,53.3465089],[-6.258029,53.3463627],[-6.2579451,53.346306]]}";50;D'Olier Street;3;30;false;true;true;false;false;false;60.0;0;0;0;0;0;false;73;2102387264;-6.3007942;53.3673833;5149;6179374967;-6.3237237;53.3290656;0;4;5;2690893;122 towards Drimnagh;"";Dublin Bus;122;Ashington;Drimnagh Road
24960743;"{\"type\":\"LineString\",\"coordinates\":[[-6.2579451,53.346306],[-6.2578166,53.3462191],[-6.2575509,53.3460397],[-6.2573464,53.3459015]]}";51;D'Olier Street;3;30;false;true;true;false;false;false;61.0;1;0;0;0;0;false;73;2102387264;-6.3007942;53.3673833;5149;6179374967;-6.3237237;53.3290656;0;4;5;2690893;122 towards Drimnagh;"";Dublin Bus;122;Ashington;Drimnagh Road
24953717;"{\"type\":\"LineString\",\"coordinates\":[[-6.2573464,53.3459015],[-6.2572963,53.3458532],[-6.2572785,53.3458214],[-6.2572721,53.3457912],[-6.257284,53.3457487],[-6.2573108,53.3457101],[-6.2573757,53.3456588],[-6.257516,53.3456107]]}";52;College Street;3;30;false;true;true;false;false;false;42.0;1;0;0;0;0;false;73;2102387264;-6.3007942;53.3673833;5149;6179374967;-6.3237237;53.3290656;0;4;5;2690893;122 towards Drimnagh;"";Dublin Bus;122;Ashington;Drimnagh Road
4472591;"{\"type\":\"LineString\",\"coordinates\":[[-6.257516,53.3456107],[-6.25775,53.3455594],[-6.2579,53.3455086],[-6.2584602,53.3453218]]}";53;College Street;3;30;false;true;true;false;false;false;72.0;0;0;0;0;0;false;73;2102387264;-6.3007942;53.3673833;5149;6179374967;-6.3237237;53.3290656;0;4;5;2690893;122 towards Drimnagh;"";Dublin Bus;122;Ashington;Drimnagh Road
24973956;"{\"type\":\"LineString\",\"coordinates\":[[-6.2584602,53.3453218],[-6.2586704,53.3452032],[-6.2589964,53.3450327],[-6.2590981,53.3449653],[-6.259227,53.3448434]]}";54;College Street;1;30;false;true;true;false;false;false;75.0;1;0;0;0;0;false;73;2102387264;-6.3007942;53.3673833;5149;6179374967;-6.3237237;53.3290656;0;4;5;2690893;122 towards Drimnagh;"";Dublin Bus;122;Ashington;Drimnagh Road
4475677;"{\"type\":\"LineString\",\"coordinates\":[[-6.2593771,53.344684],[-6.2592915,53.3447707],[-6.259227,53.3448434]]}";55;College Green;3;30;false;false;true;false;false;false;21.0;0;0;0;0;0;false;73;2102387264;-6.3007942;53.3673833;5149;6179374967;-6.3237237;53.3290656;0;4;5;2690893;122 towards Drimnagh;"";Dublin Bus;122;Ashington;Drimnagh Road
68748138;"{\"type\":\"LineString\",\"coordinates\":[[-6.2593771,53.344684],[-6.2594288,53.3446069],[-6.2594528,53.3445365],[-6.2594674,53.3444768]]}";56;College Green;2;30;false;false;true;false;false;false;25.0;0;0;0;0;0;false;73;2102387264;-6.3007942;53.3673833;5149;6179374967;-6.3237237;53.3290656;0;4;5;2690893;122 towards Drimnagh;"";Dublin Bus;122;Ashington;Drimnagh Road
769021487;"{\"type\":\"LineString\",\"coordinates\":[[-6.2594674,53.3444768],[-6.2594708,53.3444255]]}";57;College Green;2;30;false;false;true;false;false;false;6.0;0;0;0;0;0;false;73;2102387264;-6.3007942;53.3673833;5149;6179374967;-6.3237237;53.3290656;0;4;5;2690893;122 towards Drimnagh;"";Dublin Bus;122;Ashington;Drimnagh Road
4375651;"{\"type\":\"LineString\",\"coordinates\":[[-6.2594708,53.3444255],[-6.2595391,53.3443896],[-6.2596047,53.3443699],[-6.2596322,53.3443642]]}";58;College Green;1;30;false;true;true;false;false;false;13.0;1;0;0;0;0;false;73;2102387264;-6.3007942;53.3673833;5149;6179374967;-6.3237237;53.3290656;0;4;5;2690893;122 towards Drimnagh;"";Dublin Bus;122;Ashington;Drimnagh Road
532097269;"{\"type\":\"LineString\",\"coordinates\":[[-6.2596322,53.3443642],[-6.2598945,53.3443286],[-6.2599525,53.3443233],[-6.2609009,53.3442593]]}";59;College Green;2;30;false;true;true;false;false;false;86.0;2;0;0;0;0;false;73;2102387264;-6.3007942;53.3673833;5149;6179374967;-6.3237237;53.3290656;0;4;5;2690893;122 towards Drimnagh;"";Dublin Bus;122;Ashington;Drimnagh Road
52879957;"{\"type\":\"LineString\",\"coordinates\":[[-6.2609009,53.3442593],[-6.2611048,53.3442643],[-6.2618465,53.3442846]]}";60;College Green;2;30;false;true;true;false;false;false;64.0;1;1;0;0;0;false;73;2102387264;-6.3007942;53.3673833;5149;6179374967;-6.3237237;53.3290656;0;4;5;2690893;122 towards Drimnagh;"";Dublin Bus;122;Ashington;Drimnagh Road
304634278;"{\"type\":\"LineString\",\"coordinates\":[[-6.2624409,53.344246],[-6.2621664,53.3442638],[-6.2618465,53.3442846]]}";61;College Green;4;30;false;false;true;false;false;false;41.0;0;1;0;0;0;false;73;2102387264;-6.3007942;53.3673833;5149;6179374967;-6.3237237;53.3290656;0;4;5;2690893;122 towards Drimnagh;"";Dublin Bus;122;Ashington;Drimnagh Road
3791745;"{\"type\":\"LineString\",\"coordinates\":[[-6.2644509,53.3441775],[-6.2642788,53.3441799],[-6.26387,53.3441912],[-6.263792,53.3441935],[-6.2633394,53.3442105],[-6.2626055,53.34424],[-6.2624409,53.344246]]}";62;Dame Street;4;30;false;false;true;false;false;false;135.0;1;0;0;0;0;false;73;2102387264;-6.3007942;53.3673833;5149;6179374967;-6.3237237;53.3290656;0;4;5;2690893;122 towards Drimnagh;"";Dublin Bus;122;Ashington;Drimnagh Road
317003249;"{\"type\":\"LineString\",\"coordinates\":[[-6.2644216,53.3429968],[-6.264419,53.3430446],[-6.2644192,53.3430603],[-6.2644271,53.3435595],[-6.26444,53.3438399],[-6.2644509,53.3441775]]}";63;South Great George's Street;3;30;false;false;true;false;false;false;133.0;1;1;0;0;0;false;73;2102387264;-6.3007942;53.3673833;5149;6179374967;-6.3237237;53.3290656;0;4;5;2690893;122 towards Drimnagh;"";Dublin Bus;122;Ashington;Drimnagh Road
369564011;"{\"type\":\"LineString\",\"coordinates\":[[-6.2645185,53.3424536],[-6.26447,53.3425848],[-6.2644369,53.3427788],[-6.2644216,53.3429968]]}";64;South Great George's Street;3;30;false;false;true;false;false;false;62.0;0;0;0;0;0;false;73;2102387264;-6.3007942;53.3673833;5149;6179374967;-6.3237237;53.3290656;0;4;5;2690893;122 towards Drimnagh;"";Dublin Bus;122;Ashington;Drimnagh Road
5826896;"{\"type\":\"LineString\",\"coordinates\":[[-6.265404,53.3414662],[-6.2653785,53.3415003],[-6.2651756,53.3416728],[-6.2647743,53.3420481],[-6.2646944,53.3421317],[-6.2646287,53.3422258],[-6.2645738,53.342338],[-6.2645185,53.3424536]]}";65;South Great George's Street;3;30;false;false;true;false;false;false;127.0;1;0;0;0;0;false;73;2102387264;-6.3007942;53.3673833;5149;6179374967;-6.3237237;53.3290656;0;4;5;2690893;122 towards Drimnagh;"";Dublin Bus;122;Ashington;Drimnagh Road
554991019;"{\"type\":\"LineString\",\"coordinates\":[[-6.2656141,53.3406712],[-6.265404,53.3414662]]}";66;Aungier Street;2;30;false;false;false;false;false;false;91.0;2;0;0;0;0;false;73;2102387264;-6.3007942;53.3673833;5149;6179374967;-6.3237237;53.3290656;0;4;5;2690893;122 towards Drimnagh;"";Dublin Bus;122;Ashington;Drimnagh Road
532427444;"{\"type\":\"LineString\",\"coordinates\":[[-6.2661022,53.338532],[-6.2659588,53.3391577],[-6.2659077,53.3393903],[-6.2658639,53.3395894],[-6.2658319,53.3397359],[-6.2657997,53.3398737],[-6.2657421,53.3401448],[-6.2656749,53.3404613],[-6.2656141,53.3406712]]}";67;Aungier Street;3;30;false;false;false;false;false;false;242.0;3;0;0;0;0;false;73;2102387264;-6.3007942;53.3673833;5149;6179374967;-6.3237237;53.3290656;0;4;5;2690893;122 towards Drimnagh;"";Dublin Bus;122;Ashington;Drimnagh Road
3791744;"{\"type\":\"LineString\",\"coordinates\":[[-6.2660752,53.3383892],[-6.2660989,53.3384454],[-6.2661022,53.338532]]}";68;Aungier Street;3;30;false;false;true;false;false;false;17.0;0;0;0;0;0;false;73;2102387264;-6.3007942;53.3673833;5149;6179374967;-6.3237237;53.3290656;0;4;5;2690893;122 towards Drimnagh;"";Dublin Bus;122;Ashington;Drimnagh Road
341583777;"{\"type\":\"LineString\",\"coordinates\":[[-6.2658551,53.3377832],[-6.265943,53.3380251],[-6.2660752,53.3383892]]}";69;Redmonds Hill;3;30;false;false;true;false;false;false;70.0;0;0;0;0;0;false;73;2102387264;-6.3007942;53.3673833;5149;6179374967;-6.3237237;53.3290656;0;4;5;2690893;122 towards Drimnagh;"";Dublin Bus;122;Ashington;Drimnagh Road
5976022;"{\"type\":\"LineString\",\"coordinates\":[[-6.2657971,53.3376138],[-6.2658551,53.3377832]]}";70;Redmonds Hill;3;30;false;false;true;false;false;false;20.0;1;0;0;0;0;false;73;2102387264;-6.3007942;53.3673833;5149;6179374967;-6.3237237;53.3290656;0;4;5;2690893;122 towards Drimnagh;"";Dublin Bus;122;Ashington;Drimnagh Road
5826349;"{\"type\":\"LineString\",\"coordinates\":[[-6.2657971,53.3376138],[-6.2657367,53.3374278]]}";71;Wexford Street;2;30;false;false;true;false;false;false;22.0;1;0;0;0;0;false;73;2102387264;-6.3007942;53.3673833;5149;6179374967;-6.3237237;53.3290656;0;4;5;2690893;122 towards Drimnagh;"";Dublin Bus;122;Ashington;Drimnagh Road
532427445;"{\"type\":\"LineString\",\"coordinates\":[[-6.2657367,53.3374278],[-6.2656096,53.3369777],[-6.2655083,53.3366034],[-6.2654495,53.3364281]]}";72;Wexford Street;2;30;false;false;true;false;false;false;114.0;0;0;0;0;0;false;73;2102387264;-6.3007942;53.3673833;5149;6179374967;-6.3237237;53.3290656;0;4;5;2690893;122 towards Drimnagh;"";Dublin Bus;122;Ashington;Drimnagh Road
77616869;"{\"type\":\"LineString\",\"coordinates\":[[-6.2654495,53.3364281],[-6.2653561,53.336168],[-6.265339,53.3361203],[-6.265207,53.3356182],[-6.2652064,53.3355641],[-6.2652062,53.3355438],[-6.2652056,53.3354833]]}";73;Camden Street Lower;3;30;false;false;true;false;false;false;108.0;0;1;0;0;0;false;73;2102387264;-6.3007942;53.3673833;5149;6179374967;-6.3237237;53.3290656;0;4;5;2690893;122 towards Drimnagh;"";Dublin Bus;122;Ashington;Drimnagh Road
4628792;"{\"type\":\"LineString\",\"coordinates\":[[-6.2652056,53.3354833],[-6.2652279,53.3352373],[-6.2652338,53.3351251],[-6.2652546,53.3347258],[-6.26526,53.3346632],[-6.2652617,53.3346431],[-6.2652787,53.3342509],[-6.2652778,53.3341951],[-6.2652779,53.3341412]]}";74;Camden Street Lower;4;30;false;false;true;false;false;false;151.0;0;1;0;0;0;false;73;2102387264;-6.3007942;53.3673833;5149;6179374967;-6.3237237;53.3290656;0;4;5;2690893;122 towards Drimnagh;"";Dublin Bus;122;Ashington;Drimnagh Road
75741007;"{\"type\":\"LineString\",\"coordinates\":[[-6.2652779,53.3341412],[-6.2652722,53.3340684],[-6.2652571,53.3340264],[-6.2651742,53.333871]]}";75;Camden Street Lower;3;30;false;false;true;false;false;false;32.0;0;0;0;0;0;false;73;2102387264;-6.3007942;53.3673833;5149;6179374967;-6.3237237;53.3290656;0;4;5;2690893;122 towards Drimnagh;"";Dublin Bus;122;Ashington;Drimnagh Road
4628790;"{\"type\":\"LineString\",\"coordinates\":[[-6.2651742,53.333871],[-6.2650757,53.3338207],[-6.265012,53.3337555]]}";76;Charlotte Way;2;30;false;true;true;false;false;false;18.0;1;0;0;0;0;false;73;2102387264;-6.3007942;53.3673833;5149;6179374967;-6.3237237;53.3290656;0;4;5;2690893;122 towards Drimnagh;"";Dublin Bus;122;Ashington;Drimnagh Road
683385960;"{\"type\":\"LineString\",\"coordinates\":[[-6.265012,53.3337555],[-6.2648492,53.3336624]]}";77;Charlotte Way;2;30;false;true;true;false;false;false;16.0;2;0;0;0;0;false;73;2102387264;-6.3007942;53.3673833;5149;6179374967;-6.3237237;53.3290656;0;4;5;2690893;122 towards Drimnagh;"";Dublin Bus;122;Ashington;Drimnagh Road
59416359;"{\"type\":\"LineString\",\"coordinates\":[[-6.2648492,53.3336624],[-6.2645161,53.3336671],[-6.2642214,53.3336742],[-6.2640965,53.3336902],[-6.26332,53.3337895],[-6.2631819,53.3338127]]}";78;Charlotte Way;4;30;false;true;true;false;false;false;114.0;2;0;0;0;0;false;73;2102387264;-6.3007942;53.3673833;5149;6179374967;-6.3237237;53.3290656;0;4;5;2690893;122 towards Drimnagh;"";Dublin Bus;122;Ashington;Drimnagh Road
4628791;"{\"type\":\"LineString\",\"coordinates\":[[-6.2631819,53.3338127],[-6.2630658,53.3338089],[-6.2629817,53.3337902],[-6.2629554,53.3337844],[-6.2629066,53.3337491],[-6.2627606,53.3333727],[-6.2627211,53.3332709],[-6.2626268,53.3330289],[-6.2626224,53.3329911],[-6.262624,53.3329572],[-6.2626415,53.3329088],[-6.2626751,53.3328528],[-6.262817,53.3327299]]}";79;Harcourt Street;2;30;false;true;true;false;false;false;141.0;2;1;0;0;0;false;73;2102387264;-6.3007942;53.3673833;5149;6179374967;-6.3237237;53.3290656;0;4;5;2690893;122 towards Drimnagh;"";Dublin Bus;122;Ashington;Drimnagh Road
4628797;"{\"type\":\"LineString\",\"coordinates\":[[-6.262817,53.3327299],[-6.2629097,53.3327276],[-6.263246,53.3327221],[-6.2634933,53.3327098]]}";80;Harcourt Road;3;50;false;true;true;false;false;false;46.0;2;1;0;0;0;false;73;2102387264;-6.3007942;53.3673833;5149;6179374967;-6.3237237;53.3290656;0;4;5;2690893;122 towards Drimnagh;"";Dublin Bus;122;Ashington;Drimnagh Road
49974590;"{\"type\":\"LineString\",\"coordinates\":[[-6.2634933,53.3327098],[-6.2637991,53.332683],[-6.2640929,53.3326487],[-6.2644261,53.3326219]]}";81;Harcourt Road;3;50;false;true;true;false;false;false;64.0;1;0;0;0;0;false;73;2102387264;-6.3007942;53.3673833;5149;6179374967;-6.3237237;53.3290656;0;4;5;2690893;122 towards Drimnagh;"";Dublin Bus;122;Ashington;Drimnagh Road
59416357;"{\"type\":\"LineString\",\"coordinates\":[[-6.2644261,53.3326219],[-6.2647314,53.3326011],[-6.2647978,53.332599],[-6.2648597,53.3325969]]}";82;Harcourt Road;4;50;false;true;true;false;false;false;30.0;2;0;0;0;0;false;73;2102387264;-6.3007942;53.3673833;5149;6179374967;-6.3237237;53.3290656;0;4;5;2690893;122 towards Drimnagh;"";Dublin Bus;122;Ashington;Drimnagh Road
13894939;"{\"type\":\"LineString\",\"coordinates\":[[-6.2683155,53.332465],[-6.2682239,53.3324692],[-6.2669018,53.3325296],[-6.2658402,53.332568],[-6.265612,53.3325764],[-6.265012,53.3325927],[-6.2648597,53.3325969]]}";83;Harrington Street;4;50;false;false;true;false;false;false;233.0;2;0;0;0;0;false;73;2102387264;-6.3007942;53.3673833;5149;6179374967;-6.3237237;53.3290656;0;4;5;2690893;122 towards Drimnagh;"";Dublin Bus;122;Ashington;Drimnagh Road
125880830;"{\"type\":\"LineString\",\"coordinates\":[[-6.2752072,53.3322379],[-6.27495,53.3322249],[-6.2744433,53.3322168],[-6.2740977,53.3322063],[-6.2735176,53.3321888],[-6.2731122,53.3321774],[-6.2727381,53.3321693],[-6.2725171,53.3321769],[-6.2723687,53.332189],[-6.2718749,53.3322706],[-6.2715556,53.3323125],[-6.2714873,53.3323153],[-6.2713642,53.3323192],[-6.2707838,53.3323485],[-6.2701656,53.3323797],[-6.2693166,53.3324192],[-6.2691412,53.3324302],[-6.2684089,53.3324609],[-6.2683155,53.332465]]}";84;South Circular Road;3;50;false;false;true;false;false;false;465.0;2;1;0;0;0;false;73;2102387264;-6.3007942;53.3673833;5149;6179374967;-6.3237237;53.3290656;0;4;5;2690893;122 towards Drimnagh;"";Dublin Bus;122;Ashington;Drimnagh Road
384312816;"{\"type\":\"LineString\",\"coordinates\":[[-6.2752072,53.3322379],[-6.2754474,53.3322425],[-6.2755812,53.332234],[-6.2757368,53.3322166],[-6.275883,53.3321924],[-6.276247,53.3321086],[-6.2763443,53.3320862],[-6.2764744,53.3320585]]}";85;South Circular Road;3;50;false;false;true;false;false;false;89.0;1;0;0;0;0;false;73;2102387264;-6.3007942;53.3673833;5149;6179374967;-6.3237237;53.3290656;0;4;5;2690893;122 towards Drimnagh;"";Dublin Bus;122;Ashington;Drimnagh Road
563920582;"{\"type\":\"LineString\",\"coordinates\":[[-6.2764744,53.3320585],[-6.2769454,53.3319581]]}";86;South Circular Road;3;50;false;false;true;false;false;false;34.0;0;0;0;0;0;false;73;2102387264;-6.3007942;53.3673833;5149;6179374967;-6.3237237;53.3290656;0;4;5;2690893;122 towards Drimnagh;"";Dublin Bus;122;Ashington;Drimnagh Road
125873172;"{\"type\":\"LineString\",\"coordinates\":[[-6.2769454,53.3319581],[-6.2772139,53.3319048],[-6.2778384,53.3317808],[-6.2780595,53.3317345],[-6.2781613,53.3317138],[-6.278747,53.3315954],[-6.2793777,53.3314242],[-6.2795509,53.3313822],[-6.2795834,53.3313735],[-6.2802636,53.3311921],[-6.2804849,53.3311331],[-6.2807355,53.3310857],[-6.2807639,53.3310803],[-6.2808125,53.3310711],[-6.2809981,53.331064],[-6.2811288,53.3310709],[-6.2811751,53.3310753],[-6.2815935,53.3311409],[-6.2823145,53.3312727],[-6.2826819,53.3313393],[-6.2836477,53.3315146]]}";87;South Circular Road;1;50;false;false;true;false;false;false;476.0;1;1;0;0;0;false;73;2102387264;-6.3007942;53.3673833;5149;6179374967;-6.3237237;53.3290656;0;4;5;2690893;122 towards Drimnagh;"";Dublin Bus;122;Ashington;Drimnagh Road
71423403;"{\"type\":\"LineString\",\"coordinates\":[[-6.2836477,53.3315146],[-6.2853963,53.3319176],[-6.2858299,53.3320202],[-6.2863017,53.3321265],[-6.2863987,53.3321483],[-6.286475,53.3321655]]}";88;South Circular Road;1;50;false;false;true;false;false;false;204.0;1;0;0;0;0;false;73;2102387264;-6.3007942;53.3673833;5149;6179374967;-6.3237237;53.3290656;0;4;5;2690893;122 towards Drimnagh;"";Dublin Bus;122;Ashington;Drimnagh Road
369214165;"{\"type\":\"LineString\",\"coordinates\":[[-6.286475,53.3321655],[-6.2869247,53.3322802],[-6.2872396,53.3323543],[-6.2875278,53.3323784],[-6.2877538,53.3323784],[-6.2880986,53.3323769],[-6.2886389,53.3323638],[-6.2888384,53.3323667],[-6.2890988,53.3323977],[-6.2891735,53.3324126],[-6.2893062,53.3324507],[-6.2894254,53.3325113],[-6.28975,53.3326653],[-6.2904496,53.3329834],[-6.2910225,53.3332608],[-6.2910504,53.3332796]]}";89;South Circular Road;3;50;false;false;true;false;false;false;346.0;0;0;0;0;0;false;73;2102387264;-6.3007942;53.3673833;5149;6179374967;-6.3237237;53.3290656;0;4;5;2690893;122 towards Drimnagh;"";Dublin Bus;122;Ashington;Drimnagh Road
563920586;"{\"type\":\"LineString\",\"coordinates\":[[-6.2910504,53.3332796],[-6.2910587,53.3332851],[-6.2911734,53.3333621],[-6.2912109,53.333385],[-6.2913219,53.3334528]]}";90;South Circular Road;3;50;false;false;true;false;false;false;27.0;1;0;0;0;0;false;73;2102387264;-6.3007942;53.3673833;5149;6179374967;-6.3237237;53.3290656;0;4;5;2690893;122 towards Drimnagh;"";Dublin Bus;122;Ashington;Drimnagh Road
317770299;"{\"type\":\"LineString\",\"coordinates\":[[-6.2913219,53.3334528],[-6.2914005,53.3335164]]}";91;South Circular Road;1;50;false;false;true;false;false;false;9.0;2;0;0;0;0;false;73;2102387264;-6.3007942;53.3673833;5149;6179374967;-6.3237237;53.3290656;0;4;5;2690893;122 towards Drimnagh;"";Dublin Bus;122;Ashington;Drimnagh Road
563920584;"{\"type\":\"LineString\",\"coordinates\":[[-6.2926585,53.3344116],[-6.2921336,53.3340329],[-6.2917756,53.3337758],[-6.2915765,53.3336328],[-6.2914005,53.3335164]]}";92;South Circular Road;2;50;false;false;true;false;false;false;132.0;1;0;0;0;0;false;73;2102387264;-6.3007942;53.3673833;5149;6179374967;-6.3237237;53.3290656;0;4;5;2690893;122 towards Drimnagh;"";Dublin Bus;122;Ashington;Drimnagh Road
143226428;"{\"type\":\"LineString\",\"coordinates\":[[-6.2962136,53.3356475],[-6.2961151,53.335624],[-6.2954401,53.3354627],[-6.2947708,53.3353039],[-6.2943659,53.3352134],[-6.2938002,53.3350704],[-6.2936616,53.3350356],[-6.293529,53.3349909],[-6.2934022,53.334929],[-6.2933374,53.3348865],[-6.2931978,53.3347891],[-6.2928422,53.3345441],[-6.2926585,53.3344116]]}";93;South Circular Road;2;50;false;false;true;false;false;false;282.0;0;0;0;0;0;false;73;2102387264;-6.3007942;53.3673833;5149;6179374967;-6.3237237;53.3290656;0;4;5;2690893;122 towards Drimnagh;"";Dublin Bus;122;Ashington;Drimnagh Road
4934645;"{\"type\":\"LineString\",\"coordinates\":[[-6.2988224,53.3363204],[-6.2983894,53.3361702],[-6.2981652,53.3361038],[-6.2979121,53.3360409],[-6.296932,53.335818],[-6.2968327,53.3357944],[-6.2963172,53.3356721],[-6.2962136,53.3356475]]}";94;South Circular Road;1;50;false;false;true;false;false;false;191.0;0;0;0;0;0;false;73;2102387264;-6.3007942;53.3673833;5149;6179374967;-6.3237237;53.3290656;0;4;5;2690893;122 towards Drimnagh;"";Dublin Bus;122;Ashington;Drimnagh Road
200165897;"{\"type\":\"LineString\",\"coordinates\":[[-6.2988224,53.3363204],[-6.2988458,53.3363057],[-6.298876,53.3362933],[-6.2989141,53.3362844],[-6.2989546,53.3362811],[-6.2989851,53.3362825],[-6.2990147,53.3362872],[-6.299053,53.336299],[-6.2990672,53.3363055]]}";95;"";1;50;false;false;true;false;false;false;19.0;0;0;0;0;0;true;73;2102387264;-6.3007942;53.3673833;5149;6179374967;-6.3237237;53.3290656;0;4;5;2690893;122 towards Drimnagh;"";Dublin Bus;122;Ashington;Drimnagh Road
4287269;"{\"type\":\"LineString\",\"coordinates\":[[-6.2990672,53.3363055],[-6.2990955,53.3362595],[-6.2991102,53.3361712],[-6.2990674,53.3359664],[-6.2990564,53.3359229],[-6.2989085,53.3353371],[-6.2988438,53.3351421],[-6.2987192,53.3348408],[-6.298673,53.3347492],[-6.2985894,53.3345541],[-6.2985419,53.3344433],[-6.2985213,53.3343135],[-6.2985238,53.3341922],[-6.2985298,53.334152],[-6.2985424,53.334068]]}";96;Herberton Road;2;30;false;false;true;false;false;false;256.0;0;0;0;0;0;false;73;2102387264;-6.3007942;53.3673833;5149;6179374967;-6.3237237;53.3290656;0;4;5;2690893;122 towards Drimnagh;"";Dublin Bus;122;Ashington;Drimnagh Road
230478917;"{\"type\":\"LineString\",\"coordinates\":[[-6.2985424,53.334068],[-6.2985664,53.3338509]]}";97;Herberton Bridge;3;50;false;false;true;false;false;false;25.0;0;0;0;0;0;false;73;2102387264;-6.3007942;53.3673833;5149;6179374967;-6.3237237;53.3290656;0;4;5;2690893;122 towards Drimnagh;"";Dublin Bus;122;Ashington;Drimnagh Road
22978769;"{\"type\":\"LineString\",\"coordinates\":[[-6.2985664,53.3338509],[-6.2985745,53.3337075]]}";98;Herberton Road;2;50;false;false;true;false;false;false;17.0;1;0;0;0;0;false;73;2102387264;-6.3007942;53.3673833;5149;6179374967;-6.3237237;53.3290656;0;4;5;2690893;122 towards Drimnagh;"";Dublin Bus;122;Ashington;Drimnagh Road
810833309;"{\"type\":\"LineString\",\"coordinates\":[[-6.2985745,53.3337075],[-6.2985825,53.3336068],[-6.2985787,53.3335355],[-6.2985273,53.3334134]]}";99;Herberton Road;3;50;false;false;true;false;false;false;34.0;1;0;0;0;0;false;73;2102387264;-6.3007942;53.3673833;5149;6179374967;-6.3237237;53.3290656;0;4;5;2690893;122 towards Drimnagh;"";Dublin Bus;122;Ashington;Drimnagh Road
810833308;"{\"type\":\"LineString\",\"coordinates\":[[-6.2985273,53.3334134],[-6.2985116,53.3333763],[-6.2984171,53.3332013],[-6.2983788,53.3331304],[-6.2982609,53.3329587],[-6.298234,53.3329196],[-6.2981752,53.3328339],[-6.2980344,53.3326288],[-6.297993,53.3325685],[-6.2979198,53.3324457],[-6.2978702,53.3323251],[-6.2978279,53.3321034],[-6.2978049,53.3319054],[-6.2977969,53.3317155],[-6.2977908,53.3315727]]}";100;Herberton Road;2;50;false;false;true;false;false;false;215.0;0;0;0;0;0;false;73;2102387264;-6.3007942;53.3673833;5149;6179374967;-6.3237237;53.3290656;0;4;5;2690893;122 towards Drimnagh;"";Dublin Bus;122;Ashington;Drimnagh Road
368849531;"{\"type\":\"LineString\",\"coordinates\":[[-6.2977908,53.3315727],[-6.2978027,53.3315119],[-6.2978239,53.3314307],[-6.2978663,53.3312943],[-6.2979054,53.3311765]]}";101;Herberton Road;3;50;false;false;true;false;false;false;46.0;1;1;0;0;0;false;73;2102387264;-6.3007942;53.3673833;5149;6179374967;-6.3237237;53.3290656;0;4;5;2690893;122 towards Drimnagh;"";Dublin Bus;122;Ashington;Drimnagh Road
129750570;"{\"type\":\"LineString\",\"coordinates\":[[-6.2979054,53.3311765],[-6.2980826,53.3311996],[-6.2991299,53.3313359],[-6.2994074,53.331372],[-6.3008199,53.3316341],[-6.3011279,53.3316912],[-6.3017429,53.3318035],[-6.3018706,53.3318268],[-6.3025853,53.3319626],[-6.3026704,53.3319788],[-6.3031489,53.3320516],[-6.3034584,53.3321056],[-6.3035434,53.3321204],[-6.3043178,53.3322095],[-6.3048473,53.3322271],[-6.3053661,53.3322207],[-6.3058434,53.3322062]]}";102;Keeper Road;2;30;false;false;true;false;false;false;549.0;1;1;0;0;0;false;73;2102387264;-6.3007942;53.3673833;5149;6179374967;-6.3237237;53.3290656;0;4;5;2690893;122 towards Drimnagh;"";Dublin Bus;122;Ashington;Drimnagh Road
107851480;"{\"type\":\"LineString\",\"coordinates\":[[-6.3058434,53.3322062],[-6.305849,53.3324438],[-6.305842,53.3326528],[-6.3058278,53.3328429],[-6.3057822,53.3330421]]}";103;Slievenamon Road;2;30;false;false;true;false;false;false;94.0;0;0;0;0;0;false;73;2102387264;-6.3007942;53.3673833;5149;6179374967;-6.3237237;53.3290656;0;4;5;2690893;122 towards Drimnagh;"";Dublin Bus;122;Ashington;Drimnagh Road
23307470;"{\"type\":\"LineString\",\"coordinates\":[[-6.3057822,53.3330421],[-6.3058551,53.3330454],[-6.3059328,53.3330581],[-6.3060356,53.3330926],[-6.3061153,53.3331418],[-6.3061535,53.3331803],[-6.3061898,53.333257],[-6.3061834,53.3333337]]}";104;Carruth Roundabout;1;30;false;false;true;false;false;false;49.0;0;0;0;0;0;true;73;2102387264;-6.3007942;53.3673833;5149;6179374967;-6.3237237;53.3290656;0;4;5;2690893;122 towards Drimnagh;"";Dublin Bus;122;Ashington;Drimnagh Road
317145978;"{\"type\":\"LineString\",\"coordinates\":[[-6.3114637,53.3334726],[-6.3108298,53.3334997],[-6.3101861,53.3335034],[-6.3095987,53.3334896],[-6.3086513,53.3334517],[-6.3076444,53.3333992],[-6.3066282,53.3333307],[-6.3063551,53.3333261],[-6.3061834,53.3333337]]}";105;Mourne Road;2;30;false;false;true;false;false;false;356.0;0;0;0;0;0;false;73;2102387264;-6.3007942;53.3673833;5149;6179374967;-6.3237237;53.3290656;0;4;5;2690893;122 towards Drimnagh;"";Dublin Bus;122;Ashington;Drimnagh Road
23307473;"{\"type\":\"LineString\",\"coordinates\":[[-6.3167531,53.332323],[-6.3163731,53.3324575],[-6.3159325,53.3326033],[-6.3154607,53.3327275],[-6.3148385,53.3328822],[-6.3142476,53.333022],[-6.3136844,53.3331358],[-6.3130316,53.3332634],[-6.3124788,53.3333426],[-6.3118986,53.3334227],[-6.3114637,53.3334726]]}";106;Mourne Road;2;30;false;false;true;false;false;false;380.0;0;0;0;0;0;false;73;2102387264;-6.3007942;53.3673833;5149;6179374967;-6.3237237;53.3290656;0;4;5;2690893;122 towards Drimnagh;"";Dublin Bus;122;Ashington;Drimnagh Road
200160019;"{\"type\":\"LineString\",\"coordinates\":[[-6.3167531,53.332323],[-6.3167164,53.3322808],[-6.3166926,53.3322268],[-6.3166895,53.3321812],[-6.3167074,53.3321235],[-6.3167416,53.3320774],[-6.316803,53.3320296],[-6.3168579,53.3320023],[-6.3169401,53.3319763],[-6.3170412,53.331962],[-6.317174,53.3319676],[-6.317272,53.3319907],[-6.317356,53.3320286],[-6.3174046,53.3320636],[-6.317441,53.3321036]]}";107;"";1;30;false;false;true;false;false;false;87.0;0;0;0;0;0;true;73;2102387264;-6.3007942;53.3673833;5149;6179374967;-6.3237237;53.3290656;0;4;5;2690893;122 towards Drimnagh;"";Dublin Bus;122;Ashington;Drimnagh Road
23307472;"{\"type\":\"LineString\",\"coordinates\":[[-6.3234569,53.3299754],[-6.3233447,53.3299941],[-6.3226416,53.3301276],[-6.3218953,53.3302886],[-6.3211933,53.3304502],[-6.3208743,53.3305322],[-6.3204583,53.3306721],[-6.3201506,53.3308012],[-6.3199102,53.3309098],[-6.3181532,53.3317792],[-6.3179976,53.3318501],[-6.317441,53.3321036]]}";108;Mourne Road;2;30;false;false;true;false;false;false;475.0;0;0;0;0;0;false;73;2102387264;-6.3007942;53.3673833;5149;6179374967;-6.3237237;53.3290656;0;4;5;2690893;122 towards Drimnagh;"";Dublin Bus;122;Ashington;Drimnagh Road
200160018;"{\"type\":\"LineString\",\"coordinates\":[[-6.3234569,53.3299754],[-6.3234454,53.329954],[-6.3234404,53.3299318],[-6.3234481,53.3298916],[-6.3234646,53.3298668],[-6.3234895,53.3298446]]}";109;Coghlan Roundabout;1;30;false;false;true;false;false;false;16.0;0;0;0;0;0;true;73;2102387264;-6.3007942;53.3673833;5149;6179374967;-6.3237237;53.3290656;0;4;5;2690893;122 towards Drimnagh;"";Dublin Bus;122;Ashington;Drimnagh Road
200160020;"{\"type\":\"LineString\",\"coordinates\":[[-6.3234895,53.3298446],[-6.3235175,53.329828],[-6.3235501,53.3298148],[-6.3235863,53.3298055],[-6.3236247,53.3298002],[-6.3236641,53.3297993],[-6.3237031,53.3298028],[-6.3237403,53.3298105],[-6.3237746,53.3298222],[-6.3238046,53.3298375],[-6.3238294,53.3298558],[-6.323848,53.3298765]]}";110;Coghlan Roundabout;1;30;false;false;true;false;false;false;30.0;0;0;0;0;0;true;73;2102387264;-6.3007942;53.3673833;5149;6179374967;-6.3237237;53.3290656;0;4;5;2690893;122 towards Drimnagh;"";Dublin Bus;122;Ashington;Drimnagh Road
732901893;"{\"type\":\"LineString\",\"coordinates\":[[-6.3242439,53.3297811],[-6.3239711,53.3298479],[-6.323848,53.3298765]]}";111;Mourne Road;2;30;false;false;true;false;false;false;29.0;0;0;0;0;0;false;73;2102387264;-6.3007942;53.3673833;5149;6179374967;-6.3237237;53.3290656;0;4;5;2690893;122 towards Drimnagh;"";Dublin Bus;122;Ashington;Drimnagh Road
127359215;"{\"type\":\"LineString\",\"coordinates\":[[-6.3216392,53.3257552],[-6.3216566,53.3257811],[-6.3220151,53.3263154],[-6.3227171,53.3273572],[-6.3233619,53.3284026],[-6.3242193,53.3297409],[-6.3242439,53.3297811]]}";112;Errigal Road;2;30;false;false;true;false;false;false;242.0;1;0;0;1;0;false;73;2102387264;-6.3007942;53.3673833;5149;6179374967;-6.3237237;53.3290656;1;4;5;2690893;122 towards Drimnagh;"";Dublin Bus;122;Ashington;Drimnagh Road
