way_id;shape;index;name;nb_lanes;legal_speed;speed_zone_30;oneway;shares_bike;bike_box;bus_lane;dedicated_bus_lane;length;nb_traffic_signals;nb_crossings;nb_stops;nb_give_ways;nb_lvl_crossings;roundabout;stop_id_orig;node_id_orig;coord_x_orig;coord_y_orig;stop_id_dest;node_id_dest;coord_x_dest;coord_y_dest;nb_neighbouring_ways_bus_stop;ordre_orig;ordre_dest;id_line;line_name;colour;operator;ref;from;to
676886069;"{\"type\":\"LineString\",\"coordinates\":[[-73.9119794,45.545115],[-73.9119546,45.5447484]]}";1;Boulevard de Deux-Montagnes;1;50;false;true;false;false;false;false;41.0;0;0;0;0;0;false;81013;4335419374;-73.912033;45.545111;81014;6119526185;-73.912799;45.542484;1;0;1;9401671;Bus 93 : TERMINUS /ST-EUSTACHE;"";EXO;93 E;Gare Deux-Montagnes;Terminus Saint-Eustache
131984201;"{\"type\":\"LineString\",\"coordinates\":[[-73.9119546,45.5447484],[-73.9119503,45.5446734]]}";2;Boulevard de Deux-Montagnes;1;50;false;true;false;false;false;false;9.0;0;1;0;0;0;false;81013;4335419374;-73.912033;45.545111;81014;6119526185;-73.912799;45.542484;0;0;1;9401671;Bus 93 : TERMINUS /ST-EUSTACHE;"";EXO;93 E;Gare Deux-Montagnes;Terminus Saint-Eustache
742610245;"{\"type\":\"LineString\",\"coordinates\":[[-73.9119503,45.5446734],[-73.9119296,45.5443536],[-73.9119046,45.543928],[-73.9119127,45.5437798],[-73.9119456,45.5436291],[-73.9120162,45.5433915],[-73.912105,45.5432017],[-73.9123044,45.5428861],[-73.9124524,45.5426781],[-73.9125755,45.5425051],[-73.912653,45.5423976]]}";3;Boulevard de Deux-Montagnes;1;50;false;true;true;false;false;false;265.0;0;1;0;0;0;false;81013;4335419374;-73.912033;45.545111;81014;6119526185;-73.912799;45.542484;0;0;1;9401671;Bus 93 : TERMINUS /ST-EUSTACHE;"";EXO;93 E;Gare Deux-Montagnes;Terminus Saint-Eustache
30620693;"{\"type\":\"LineString\",\"coordinates\":[[-73.912653,45.5423976],[-73.9130633,45.5425024],[-73.9132241,45.5425362],[-73.9133838,45.54257],[-73.9143474,45.5427745],[-73.9152941,45.542975],[-73.915444,45.5430068],[-73.9174276,45.5434209],[-73.9176915,45.5434607],[-73.9181571,45.5434975],[-73.9200616,45.5434915]]}";4;20e Avenue;1;50;false;true;true;false;false;false;298.0;1;0;0;0;0;false;81013;4335419374;-73.912033;45.545111;81014;6119526185;-73.912799;45.542484;1;0;1;9401671;Bus 93 : TERMINUS /ST-EUSTACHE;"";EXO;93 E;Gare Deux-Montagnes;Terminus Saint-Eustache
742610245;"{\"type\":\"LineString\",\"coordinates\":[[-73.9119503,45.5446734],[-73.9119296,45.5443536],[-73.9119046,45.543928],[-73.9119127,45.5437798],[-73.9119456,45.5436291],[-73.9120162,45.5433915],[-73.912105,45.5432017],[-73.9123044,45.5428861],[-73.9124524,45.5426781],[-73.9125755,45.5425051],[-73.912653,45.5423976]]}";1;Boulevard de Deux-Montagnes;1;50;false;true;true;false;false;false;265.0;0;1;0;0;0;false;81014;6119526185;-73.912799;45.542484;80198;6119527018;-73.915474;45.543053;2;1;2;9401671;Bus 93 : TERMINUS /ST-EUSTACHE;"";EXO;93 E;Gare Deux-Montagnes;Terminus Saint-Eustache
30620693;"{\"type\":\"LineString\",\"coordinates\":[[-73.912653,45.5423976],[-73.9130633,45.5425024],[-73.9132241,45.5425362],[-73.9133838,45.54257],[-73.9143474,45.5427745],[-73.9152941,45.542975],[-73.915444,45.5430068],[-73.9174276,45.5434209],[-73.9176915,45.5434607],[-73.9181571,45.5434975],[-73.9200616,45.5434915]]}";2;20e Avenue;1;50;false;true;true;false;false;false;596.0;1;0;0;0;0;false;81014;6119526185;-73.912799;45.542484;80198;6119527018;-73.915474;45.543053;2;1;2;9401671;Bus 93 : TERMINUS /ST-EUSTACHE;"";EXO;93 E;Gare Deux-Montagnes;Terminus Saint-Eustache
30620693;"{\"type\":\"LineString\",\"coordinates\":[[-73.912653,45.5423976],[-73.9130633,45.5425024],[-73.9132241,45.5425362],[-73.9133838,45.54257],[-73.9143474,45.5427745],[-73.9152941,45.542975],[-73.915444,45.5430068],[-73.9174276,45.5434209],[-73.9176915,45.5434607],[-73.9181571,45.5434975],[-73.9200616,45.5434915]]}";1;20e Avenue;1;50;false;true;true;false;false;false;298.0;1;0;0;0;0;false;81015;6119526084;-73.917835;45.543532;80139;6119527073;-73.920465;45.542562;1;3;4;9401671;Bus 93 : TERMINUS /ST-EUSTACHE;"";EXO;93 E;Gare Deux-Montagnes;Terminus Saint-Eustache
676890392;"{\"type\":\"LineString\",\"coordinates\":[[-73.9200616,45.5434915],[-73.9202313,45.5434941]]}";2;20e Avenue;1;50;false;true;true;false;false;false;14.0;0;0;0;0;0;false;81015;6119526084;-73.917835;45.543532;80139;6119527073;-73.920465;45.542562;0;3;4;9401671;Bus 93 : TERMINUS /ST-EUSTACHE;"";EXO;93 E;Gare Deux-Montagnes;Terminus Saint-Eustache
45584290;"{\"type\":\"LineString\",\"coordinates\":[[-73.9202313,45.5434941],[-73.9202444,45.5433541]]}";3;Boulevard des Promenades;2;50;false;true;true;false;false;false;16.0;0;0;0;0;0;false;81015;6119526084;-73.917835;45.543532;80139;6119527073;-73.920465;45.542562;0;3;4;9401671;Bus 93 : TERMINUS /ST-EUSTACHE;"";EXO;93 E;Gare Deux-Montagnes;Terminus Saint-Eustache
45584308;"{\"type\":\"LineString\",\"coordinates\":[[-73.9202444,45.5433541],[-73.9202664,45.5432599],[-73.9203715,45.5428084],[-73.9204118,45.5426356],[-73.9205345,45.5423542],[-73.9205994,45.5422053],[-73.920836,45.5418925]]}";4;Boulevard des Promenades;2;50;false;true;true;false;false;false;85.5;0;0;0;0;0;false;81015;6119526084;-73.917835;45.543532;80139;6119527073;-73.920465;45.542562;1;3;4;9401671;Bus 93 : TERMINUS /ST-EUSTACHE;"";EXO;93 E;Gare Deux-Montagnes;Terminus Saint-Eustache
45584308;"{\"type\":\"LineString\",\"coordinates\":[[-73.9202444,45.5433541],[-73.9202664,45.5432599],[-73.9203715,45.5428084],[-73.9204118,45.5426356],[-73.9205345,45.5423542],[-73.9205994,45.5422053],[-73.920836,45.5418925]]}";1;Boulevard des Promenades;2;50;false;true;true;false;false;false;85.5;0;0;0;0;0;false;80139;6119527073;-73.920465;45.542562;80140;6119527072;-73.922301;45.540716;1;4;5;9401671;Bus 93 : TERMINUS /ST-EUSTACHE;"";EXO;93 E;Gare Deux-Montagnes;Terminus Saint-Eustache
45584323;"{\"type\":\"LineString\",\"coordinates\":[[-73.920836,45.5418925],[-73.9210973,45.5416249],[-73.9214095,45.5413758]]}";2;Boulevard des Promenades;2;50;false;true;true;false;false;false;73.0;1;0;0;0;0;false;80139;6119527073;-73.920465;45.542562;80140;6119527072;-73.922301;45.540716;0;4;5;9401671;Bus 93 : TERMINUS /ST-EUSTACHE;"";EXO;93 E;Gare Deux-Montagnes;Terminus Saint-Eustache
45584402;"{\"type\":\"LineString\",\"coordinates\":[[-73.9214095,45.5413758],[-73.9222688,45.5406793],[-73.9224576,45.5405262]]}";3;Boulevard des Promenades;2;50;false;true;true;false;false;false;62.5;1;0;0;0;0;false;80139;6119527073;-73.920465;45.542562;80140;6119527072;-73.922301;45.540716;1;4;5;9401671;Bus 93 : TERMINUS /ST-EUSTACHE;"";EXO;93 E;Gare Deux-Montagnes;Terminus Saint-Eustache
45584402;"{\"type\":\"LineString\",\"coordinates\":[[-73.9214095,45.5413758],[-73.9222688,45.5406793],[-73.9224576,45.5405262]]}";1;Boulevard des Promenades;2;50;false;true;true;false;false;false;62.5;1;0;0;0;0;false;80140;6119527072;-73.922301;45.540716;80141;6119527071;-73.9235784;45.5396798;1;5;6;9401671;Bus 93 : TERMINUS /ST-EUSTACHE;"";EXO;93 E;Gare Deux-Montagnes;Terminus Saint-Eustache
45584440;"{\"type\":\"LineString\",\"coordinates\":[[-73.9224576,45.5405262],[-73.9225833,45.5404226],[-73.9236298,45.5395601],[-73.924258,45.539043],[-73.9244736,45.5388654],[-73.9252196,45.5382508],[-73.9253727,45.5380676]]}";2;Boulevard des Promenades;2;50;false;true;true;false;false;false;178.0;0;0;0;0;0;false;80140;6119527072;-73.922301;45.540716;80141;6119527071;-73.9235784;45.5396798;1;5;6;9401671;Bus 93 : TERMINUS /ST-EUSTACHE;"";EXO;93 E;Gare Deux-Montagnes;Terminus Saint-Eustache
45584440;"{\"type\":\"LineString\",\"coordinates\":[[-73.9224576,45.5405262],[-73.9225833,45.5404226],[-73.9236298,45.5395601],[-73.924258,45.539043],[-73.9244736,45.5388654],[-73.9252196,45.5382508],[-73.9253727,45.5380676]]}";1;Boulevard des Promenades;2;50;false;true;true;false;false;false;178.0;0;0;0;0;0;false;80141;6119527071;-73.9235784;45.5396798;80142;6119527070;-73.926258;45.538682;1;6;7;9401671;Bus 93 : TERMINUS /ST-EUSTACHE;"";EXO;93 E;Gare Deux-Montagnes;Terminus Saint-Eustache
45584305;"{\"type\":\"LineString\",\"coordinates\":[[-73.9253727,45.5380676],[-73.9255075,45.538163],[-73.9258124,45.538388],[-73.9259707,45.5385007],[-73.9260543,45.5385603],[-73.9261172,45.5385857],[-73.9261743,45.5386087],[-73.9262515,45.5386158],[-73.9263186,45.5386144],[-73.9263918,45.5386044],[-73.926523,45.5385696],[-73.9265871,45.5385546],[-73.9266531,45.5385532],[-73.9266968,45.5385575],[-73.9267344,45.5385689],[-73.9267822,45.5385948],[-73.9271489,45.5388711],[-73.9273972,45.5390517],[-73.9277223,45.5392881],[-73.927809,45.5393512],[-73.9281859,45.5396253]]}";2;Boulevard des Pins;2;50;false;false;false;false;false;false;148.0;0;0;0;0;0;false;80141;6119527071;-73.9235784;45.5396798;80142;6119527070;-73.926258;45.538682;1;6;7;9401671;Bus 93 : TERMINUS /ST-EUSTACHE;"";EXO;93 E;Gare Deux-Montagnes;Terminus Saint-Eustache
677256834;"{\"type\":\"LineString\",\"coordinates\":[[-73.9500629,45.5321967],[-73.9494453,45.532224],[-73.9485547,45.5322697],[-73.947826,45.5323256],[-73.9472531,45.5323566],[-73.9466977,45.5323867],[-73.9454858,45.5324568],[-73.9447238,45.5324915]]}";1;Rue Laurin;1;40;false;false;false;false;false;false;419.0;0;0;0;0;0;false;80177;6119527035;-73.944826;45.532617;80178;6119527034;-73.950134;45.532194;2;16;17;9401671;Bus 93 : TERMINUS /ST-EUSTACHE;"";EXO;93 E;Gare Deux-Montagnes;Terminus Saint-Eustache
591190500;"{\"type\":\"LineString\",\"coordinates\":[[-73.9502145,45.5321929],[-73.9500629,45.5321967]]}";2;Rue Laurin;1;40;false;false;false;false;false;false;12.0;0;0;0;0;0;false;80177;6119527035;-73.944826;45.532617;80178;6119527034;-73.950134;45.532194;2;16;17;9401671;Bus 93 : TERMINUS /ST-EUSTACHE;"";EXO;93 E;Gare Deux-Montagnes;Terminus Saint-Eustache
677256834;"{\"type\":\"LineString\",\"coordinates\":[[-73.9500629,45.5321967],[-73.9494453,45.532224],[-73.9485547,45.5322697],[-73.947826,45.5323256],[-73.9472531,45.5323566],[-73.9466977,45.5323867],[-73.9454858,45.5324568],[-73.9447238,45.5324915]]}";1;Rue Laurin;1;40;false;false;false;false;false;false;419.0;0;0;0;0;0;false;80178;6119527034;-73.950134;45.532194;80179;6119527033;-73.949105;45.527827;2;17;18;9401671;Bus 93 : TERMINUS /ST-EUSTACHE;"";EXO;93 E;Gare Deux-Montagnes;Terminus Saint-Eustache
591190500;"{\"type\":\"LineString\",\"coordinates\":[[-73.9502145,45.5321929],[-73.9500629,45.5321967]]}";2;Rue Laurin;1;40;false;false;false;false;false;false;12.0;0;0;0;0;0;false;80178;6119527034;-73.950134;45.532194;80179;6119527033;-73.949105;45.527827;0;17;18;9401671;Bus 93 : TERMINUS /ST-EUSTACHE;"";EXO;93 E;Gare Deux-Montagnes;Terminus Saint-Eustache
483237565;"{\"type\":\"LineString\",\"coordinates\":[[-73.9502145,45.5321929],[-73.9499769,45.5313755],[-73.9494214,45.5294647],[-73.9489717,45.5279179],[-73.9488314,45.5274352]]}";3;Boulevard Laurette-Théoret;1;50;false;true;true;false;false;false;540.0;0;0;0;0;0;false;80178;6119527034;-73.950134;45.532194;80179;6119527033;-73.949105;45.527827;2;17;18;9401671;Bus 93 : TERMINUS /ST-EUSTACHE;"";EXO;93 E;Gare Deux-Montagnes;Terminus Saint-Eustache
483237565;"{\"type\":\"LineString\",\"coordinates\":[[-73.9502145,45.5321929],[-73.9499769,45.5313755],[-73.9494214,45.5294647],[-73.9489717,45.5279179],[-73.9488314,45.5274352]]}";1;Boulevard Laurette-Théoret;1;50;false;true;true;false;false;false;270.0;0;0;0;0;0;false;80179;6119527033;-73.949105;45.527827;80231;6119526988;-73.947685;45.526749;1;18;19;9401671;Bus 93 : TERMINUS /ST-EUSTACHE;"";EXO;93 E;Gare Deux-Montagnes;Terminus Saint-Eustache
677256829;"{\"type\":\"LineString\",\"coordinates\":[[-73.9487163,45.5274508],[-73.9488314,45.5274352]]}";2;Chemin d'Oka;1;50;false;false;false;false;false;false;10.0;0;0;0;0;0;false;80179;6119527033;-73.949105;45.527827;80231;6119526988;-73.947685;45.526749;0;18;19;9401671;Bus 93 : TERMINUS /ST-EUSTACHE;"";EXO;93 E;Gare Deux-Montagnes;Terminus Saint-Eustache
677256831;"{\"type\":\"LineString\",\"coordinates\":[[-73.9485898,45.5274679],[-73.9487163,45.5274508]]}";3;Chemin d'Oka;1;50;false;false;false;false;false;false;11.0;0;0;0;0;0;false;80179;6119527033;-73.949105;45.527827;80231;6119526988;-73.947685;45.526749;0;18;19;9401671;Bus 93 : TERMINUS /ST-EUSTACHE;"";EXO;93 E;Gare Deux-Montagnes;Terminus Saint-Eustache
44980790;"{\"type\":\"LineString\",\"coordinates\":[[-73.9485898,45.5274679],[-73.9480163,45.5270542],[-73.9475459,45.5267148],[-73.9467583,45.5261466],[-73.9459384,45.5255551],[-73.9451614,45.5249946],[-73.9443738,45.5244263],[-73.9436019,45.5238694],[-73.9431766,45.5235626],[-73.9431158,45.5234529]]}";4;34e Avenue;1;50;false;false;true;false;false;false;309.5;0;1;0;0;0;false;80179;6119527033;-73.949105;45.527827;80231;6119526988;-73.947685;45.526749;1;18;19;9401671;Bus 93 : TERMINUS /ST-EUSTACHE;"";EXO;93 E;Gare Deux-Montagnes;Terminus Saint-Eustache
44980790;"{\"type\":\"LineString\",\"coordinates\":[[-73.9485898,45.5274679],[-73.9480163,45.5270542],[-73.9475459,45.5267148],[-73.9467583,45.5261466],[-73.9459384,45.5255551],[-73.9451614,45.5249946],[-73.9443738,45.5244263],[-73.9436019,45.5238694],[-73.9431766,45.5235626],[-73.9431158,45.5234529]]}";1;34e Avenue;1;50;false;false;true;false;false;false;309.5;0;1;0;0;0;false;80180;6119527032;-73.943312;45.523569;80181;6119527031;-73.939607;45.524778;1;21;22;9401671;Bus 93 : TERMINUS /ST-EUSTACHE;"";EXO;93 E;Gare Deux-Montagnes;Terminus Saint-Eustache
181623742;"{\"type\":\"LineString\",\"coordinates\":[[-73.9431158,45.5234529],[-73.9430121,45.5235169],[-73.9427843,45.5235812],[-73.9426133,45.5235797],[-73.9419595,45.5235221],[-73.9417151,45.523512],[-73.9415462,45.5235499],[-73.9409403,45.5239205],[-73.9402523,45.5244024],[-73.9395641,45.5248617],[-73.9388617,45.5253366],[-73.9381505,45.5258218],[-73.937406,45.5263543],[-73.9366161,45.5268132],[-73.9357263,45.5273311],[-73.9346919,45.527918],[-73.9337485,45.5284307],[-73.9330868,45.528797],[-73.9330236,45.5288326],[-73.9329779,45.5288698],[-73.9329452,45.5289066],[-73.9329195,45.5289443],[-73.9329043,45.5289852],[-73.9329032,45.5290416],[-73.9329114,45.5290939],[-73.9329435,45.5292056]]}";2;Rue Louise;1;50;false;false;true;false;false;false;530.5;1;0;0;0;0;false;80180;6119527032;-73.943312;45.523569;80181;6119527031;-73.939607;45.524778;1;21;22;9401671;Bus 93 : TERMINUS /ST-EUSTACHE;"";EXO;93 E;Gare Deux-Montagnes;Terminus Saint-Eustache
813978454;"{\"type\":\"LineString\",\"coordinates\":[[-73.9104384,45.5322857],[-73.9106352,45.5322513],[-73.9111767,45.5321955],[-73.9117075,45.5321661],[-73.912243,45.532175],[-73.9138546,45.5322692],[-73.9146631,45.5323607],[-73.9169942,45.5325873],[-73.9184019,45.5327017],[-73.9195767,45.5327985],[-73.9204648,45.5328751],[-73.9210712,45.5328907],[-73.9218293,45.5328369],[-73.9222077,45.5328001],[-73.9232092,45.532597],[-73.9237508,45.5324576],[-73.924086,45.5323467],[-73.9245248,45.5322015],[-73.9251592,45.5319206],[-73.925833,45.5316081],[-73.9264399,45.5313265],[-73.9270729,45.5310316],[-73.9277055,45.5307229],[-73.928515,45.530341],[-73.9288189,45.5302067],[-73.929193,45.5300414],[-73.9294275,45.5299442],[-73.9302374,45.5296304],[-73.9304781,45.5295343],[-73.9311183,45.5294005],[-73.9318023,45.5293249],[-73.9323629,45.5292657],[-73.9324143,45.5292606],[-73.9327168,45.5292292],[-73.932808,45.5292197],[-73.9329435,45.5292056]]}";1;Chemin d'Oka;2;50;false;false;false;false;false;false;933.0;1;0;0;0;0;false;80117;6119527288;-73.911911;45.532045;80118;6119527287;-73.907532;45.532801;1;34;35;9401671;Bus 93 : TERMINUS /ST-EUSTACHE;"";EXO;93 E;Gare Deux-Montagnes;Terminus Saint-Eustache
45518771;"{\"type\":\"LineString\",\"coordinates\":[[-73.9018563,45.5347366],[-73.902393,45.5345188],[-73.902896,45.5343497],[-73.9038113,45.5340434],[-73.9052425,45.5335531],[-73.9055003,45.5334656],[-73.9061059,45.5332629],[-73.9072571,45.532935],[-73.907394,45.5328986],[-73.9075997,45.5328556],[-73.908347,45.5326815],[-73.9085646,45.5326308],[-73.9087446,45.5325965],[-73.9087831,45.5325879],[-73.9095544,45.5324422],[-73.9104384,45.5322857]]}";2;Chemin d'Oka;2;50;false;false;true;false;false;false;363.0;1;0;0;0;0;false;80117;6119527288;-73.911911;45.532045;80118;6119527287;-73.907532;45.532801;1;34;35;9401671;Bus 93 : TERMINUS /ST-EUSTACHE;"";EXO;93 E;Gare Deux-Montagnes;Terminus Saint-Eustache
45518771;"{\"type\":\"LineString\",\"coordinates\":[[-73.9018563,45.5347366],[-73.902393,45.5345188],[-73.902896,45.5343497],[-73.9038113,45.5340434],[-73.9052425,45.5335531],[-73.9055003,45.5334656],[-73.9061059,45.5332629],[-73.9072571,45.532935],[-73.907394,45.5328986],[-73.9075997,45.5328556],[-73.908347,45.5326815],[-73.9085646,45.5326308],[-73.9087446,45.5325965],[-73.9087831,45.5325879],[-73.9095544,45.5324422],[-73.9104384,45.5322857]]}";1;Chemin d'Oka;2;50;false;false;true;false;false;false;363.0;1;0;0;0;0;false;80042;6119527363;-73.902369;45.534435;80126;6119527081;-73.900078;45.535725;1;37;38;9401671;Bus 93 : TERMINUS /ST-EUSTACHE;"";EXO;93 E;Gare Deux-Montagnes;Terminus Saint-Eustache
677253532;"{\"type\":\"LineString\",\"coordinates\":[[-73.9000747,45.5358527],[-73.9010005,45.5352004],[-73.9015295,45.5348977],[-73.9018563,45.5347366]]}";2;Chemin d'Oka;2;50;false;false;true;false;false;false;93.5;1;0;0;0;0;false;80042;6119527363;-73.902369;45.534435;80126;6119527081;-73.900078;45.535725;1;37;38;9401671;Bus 93 : TERMINUS /ST-EUSTACHE;"";EXO;93 E;Gare Deux-Montagnes;Terminus Saint-Eustache
677253533;"{\"type\":\"LineString\",\"coordinates\":[[-73.8926157,45.5419689],[-73.8927269,45.5417329],[-73.8927745,45.541632],[-73.8929463,45.5414131],[-73.8930449,45.5413091],[-73.893153,45.541195],[-73.8933391,45.5410083],[-73.8945274,45.5398497],[-73.8953769,45.5389848],[-73.8958635,45.5385224],[-73.8965939,45.5378594]]}";1;Chemin d'Oka;2;50;false;false;true;false;false;false;277.0;1;0;0;0;0;false;80156;6119527056;-73.892556;45.541768;80197;6119527019;-73.891736;45.54404;1;43;44;9401671;Bus 93 : TERMINUS /ST-EUSTACHE;"";EXO;93 E;Gare Deux-Montagnes;Terminus Saint-Eustache
81721527;"{\"type\":\"LineString\",\"coordinates\":[[-73.8935452,45.5522026],[-73.8915607,45.5485412],[-73.8912944,45.5480387],[-73.891095,45.54763],[-73.8909777,45.5473755],[-73.8909345,45.5472043],[-73.8908961,45.5469098],[-73.890897,45.546738],[-73.8909228,45.5465714],[-73.8910532,45.5461379],[-73.8911297,45.5458835],[-73.891253,45.5455511],[-73.8914717,45.5449761],[-73.891653,45.5444996],[-73.8917983,45.5441177],[-73.8921227,45.5432649],[-73.8924097,45.5425104],[-73.8926157,45.5419689]]}";2;Chemin d'Oka;2;50;false;false;true;false;false;false;595.5;1;0;0;0;0;false;80156;6119527056;-73.892556;45.541768;80197;6119527019;-73.891736;45.54404;1;43;44;9401671;Bus 93 : TERMINUS /ST-EUSTACHE;"";EXO;93 E;Gare Deux-Montagnes;Terminus Saint-Eustache
81721527;"{\"type\":\"LineString\",\"coordinates\":[[-73.8935452,45.5522026],[-73.8915607,45.5485412],[-73.8912944,45.5480387],[-73.891095,45.54763],[-73.8909777,45.5473755],[-73.8909345,45.5472043],[-73.8908961,45.5469098],[-73.890897,45.546738],[-73.8909228,45.5465714],[-73.8910532,45.5461379],[-73.8911297,45.5458835],[-73.891253,45.5455511],[-73.8914717,45.5449761],[-73.891653,45.5444996],[-73.8917983,45.5441177],[-73.8921227,45.5432649],[-73.8924097,45.5425104],[-73.8926157,45.5419689]]}";1;Chemin d'Oka;2;50;false;false;true;false;false;false;595.5;1;0;0;0;0;false;80137;6119527074;-73.892619;45.550638;80135;6119527075;-73.894036;45.55314;1;46;47;9401671;Bus 93 : TERMINUS /ST-EUSTACHE;"";EXO;93 E;Gare Deux-Montagnes;Terminus Saint-Eustache
677253538;"{\"type\":\"LineString\",\"coordinates\":[[-73.8935758,45.552738],[-73.893606,45.5526017],[-73.8936031,45.5524396],[-73.8935452,45.5522026]]}";2;Chemin d'Oka;2;50;false;false;true;false;false;false;61.0;1;0;0;0;0;false;80137;6119527074;-73.892619;45.550638;80135;6119527075;-73.894036;45.55314;0;46;47;9401671;Bus 93 : TERMINUS /ST-EUSTACHE;"";EXO;93 E;Gare Deux-Montagnes;Terminus Saint-Eustache
455467982;"{\"type\":\"LineString\",\"coordinates\":[[-73.8935758,45.552738],[-73.8938923,45.5529717]]}";3;Rue Féré;2;50;false;false;true;false;false;false;36.0;1;0;0;0;0;false;80137;6119527074;-73.892619;45.550638;80135;6119527075;-73.894036;45.55314;0;46;47;9401671;Bus 93 : TERMINUS /ST-EUSTACHE;"";EXO;93 E;Gare Deux-Montagnes;Terminus Saint-Eustache
46277646;"{\"type\":\"LineString\",\"coordinates\":[[-73.8938923,45.5529717],[-73.8948788,45.5537004],[-73.8962946,45.5547614],[-73.8970869,45.5553519],[-73.8982589,45.5562363],[-73.8988796,45.5567131]]}";4;Rue Féré;2;50;false;false;true;false;false;false;285.0;0;0;0;0;0;false;80137;6119527074;-73.892619;45.550638;80135;6119527075;-73.894036;45.55314;1;46;47;9401671;Bus 93 : TERMINUS /ST-EUSTACHE;"";EXO;93 E;Gare Deux-Montagnes;Terminus Saint-Eustache
46277646;"{\"type\":\"LineString\",\"coordinates\":[[-73.8938923,45.5529717],[-73.8948788,45.5537004],[-73.8962946,45.5547614],[-73.8970869,45.5553519],[-73.8982589,45.5562363],[-73.8988796,45.5567131]]}";1;Rue Féré;2;50;false;false;true;false;false;false;285.0;0;0;0;0;0;false;81159;6119525760;-73.898108;45.556201;81216;6119525734;-73.899116;45.557038;1;50;51;9401671;Bus 93 : TERMINUS /ST-EUSTACHE;"";EXO;93 E;Gare Deux-Montagnes;Terminus Saint-Eustache
466652258;"{\"type\":\"LineString\",\"coordinates\":[[-73.8988796,45.5567131],[-73.8991525,45.5569628]]}";2;Rue Féré;2;50;false;false;true;false;false;false;35.0;0;0;0;0;0;false;81159;6119525760;-73.898108;45.556201;81216;6119525734;-73.899116;45.557038;0;50;51;9401671;Bus 93 : TERMINUS /ST-EUSTACHE;"";EXO;93 E;Gare Deux-Montagnes;Terminus Saint-Eustache
46277638;"{\"type\":\"LineString\",\"coordinates\":[[-73.8991525,45.5569628],[-73.8994212,45.5573075]]}";3;Rue Féré;2;50;false;false;true;false;false;false;22.0;0;0;0;0;0;false;81159;6119525760;-73.898108;45.556201;81216;6119525734;-73.899116;45.557038;1;50;51;9401671;Bus 93 : TERMINUS /ST-EUSTACHE;"";EXO;93 E;Gare Deux-Montagnes;Terminus Saint-Eustache
466652258;"{\"type\":\"LineString\",\"coordinates\":[[-73.8988796,45.5567131],[-73.8991525,45.5569628]]}";1;Rue Féré;2;50;false;false;true;false;false;false;35.0;0;0;0;0;0;false;81216;6119525734;-73.899116;45.557038;81160;6119525759;-73.900536;45.558876;2;51;52;9401671;Bus 93 : TERMINUS /ST-EUSTACHE;"";EXO;93 E;Gare Deux-Montagnes;Terminus Saint-Eustache
46277638;"{\"type\":\"LineString\",\"coordinates\":[[-73.8991525,45.5569628],[-73.8994212,45.5573075]]}";2;Rue Féré;2;50;false;false;true;false;false;false;44.0;0;0;0;0;0;false;81216;6119525734;-73.899116;45.557038;81160;6119525759;-73.900536;45.558876;0;51;52;9401671;Bus 93 : TERMINUS /ST-EUSTACHE;"";EXO;93 E;Gare Deux-Montagnes;Terminus Saint-Eustache
474608346;"{\"type\":\"LineString\",\"coordinates\":[[-73.8994212,45.5573075],[-73.8994389,45.5573298]]}";3;Rue Féré;2;50;false;false;true;false;false;false;3.0;0;0;0;0;0;false;81216;6119525734;-73.899116;45.557038;81160;6119525759;-73.900536;45.558876;0;51;52;9401671;Bus 93 : TERMINUS /ST-EUSTACHE;"";EXO;93 E;Gare Deux-Montagnes;Terminus Saint-Eustache
147991062;"{\"type\":\"LineString\",\"coordinates\":[[-73.8994389,45.5573298],[-73.899638,45.5576027]]}";4;Rue Féré;2;50;false;false;true;false;false;false;35.0;0;0;0;0;0;false;81216;6119525734;-73.899116;45.557038;81160;6119525759;-73.900536;45.558876;0;51;52;9401671;Bus 93 : TERMINUS /ST-EUSTACHE;"";EXO;93 E;Gare Deux-Montagnes;Terminus Saint-Eustache
677253518;"{\"type\":\"LineString\",\"coordinates\":[[-73.899638,45.5576027],[-73.9003849,45.5586018],[-73.9007748,45.5589989]]}";5;Rue Féré;2;50;false;false;true;false;false;false;179.0;1;0;0;0;0;false;81216;6119525734;-73.899116;45.557038;81160;6119525759;-73.900536;45.558876;2;51;52;9401671;Bus 93 : TERMINUS /ST-EUSTACHE;"";EXO;93 E;Gare Deux-Montagnes;Terminus Saint-Eustache
677253518;"{\"type\":\"LineString\",\"coordinates\":[[-73.899638,45.5576027],[-73.9003849,45.5586018],[-73.9007748,45.5589989]]}";1;Rue Féré;2;50;false;false;true;false;false;false;89.5;1;0;0;0;0;false;81160;6119525759;-73.900536;45.558876;81161;6119525758;-73.901414;45.561186;1;52;53;9401671;Bus 93 : TERMINUS /ST-EUSTACHE;"";EXO;93 E;Gare Deux-Montagnes;Terminus Saint-Eustache
46277642;"{\"type\":\"LineString\",\"coordinates\":[[-73.9007748,45.5589989],[-73.9018556,45.5601076],[-73.9018932,45.5601674],[-73.901918,45.5602398],[-73.9019099,45.5603254],[-73.9018789,45.5604271],[-73.9016203,45.5609272],[-73.9014061,45.5613128]]}";2;Rue Féré;2;50;false;false;true;false;false;false;145.5;2;0;0;0;0;false;81160;6119525759;-73.900536;45.558876;81161;6119525758;-73.901414;45.561186;1;52;53;9401671;Bus 93 : TERMINUS /ST-EUSTACHE;"";EXO;93 E;Gare Deux-Montagnes;Terminus Saint-Eustache
677253517;"{\"type\":\"LineString\",\"coordinates\":[[-73.8986809,45.5608756],[-73.8982312,45.5609342]]}";1;Boulevard Arthur-Sauvé;1;50;false;true;true;false;false;false;36.0;1;0;0;0;0;false;81162;6119525757;-73.898798;45.560811;81163;6119525756;-73.895763;45.561281;2;54;55;9401671;Bus 93 : TERMINUS /ST-EUSTACHE;"";EXO;93 E;Gare Deux-Montagnes;Terminus Saint-Eustache
677250675;"{\"type\":\"LineString\",\"coordinates\":[[-73.8982312,45.5609342],[-73.8979925,45.5609652],[-73.89748,45.5610544],[-73.896483,45.5612224],[-73.8962587,45.5612529],[-73.8956287,45.5613385],[-73.8948514,45.5614658],[-73.8940975,45.5615893]]}";2;Boulevard Arthur-Sauvé;1;50;false;true;true;false;false;false;331.0;2;0;0;0;0;false;81162;6119525757;-73.898798;45.560811;81163;6119525756;-73.895763;45.561281;2;54;55;9401671;Bus 93 : TERMINUS /ST-EUSTACHE;"";EXO;93 E;Gare Deux-Montagnes;Terminus Saint-Eustache
677250675;"{\"type\":\"LineString\",\"coordinates\":[[-73.8982312,45.5609342],[-73.8979925,45.5609652],[-73.89748,45.5610544],[-73.896483,45.5612224],[-73.8962587,45.5612529],[-73.8956287,45.5613385],[-73.8948514,45.5614658],[-73.8940975,45.5615893]]}";1;Boulevard Arthur-Sauvé;1;50;false;true;true;false;false;false;165.5;2;0;0;0;0;false;81163;6119525756;-73.895763;45.561281;81000;6119526196;-73.892828;45.561425;1;55;56;9401671;Bus 93 : TERMINUS /ST-EUSTACHE;"";EXO;93 E;Gare Deux-Montagnes;Terminus Saint-Eustache
676848395;"{\"type\":\"LineString\",\"coordinates\":[[-73.8940975,45.5615893],[-73.8941016,45.5613774],[-73.8940785,45.5612464],[-73.8940342,45.5611575],[-73.8939193,45.5610459],[-73.8937986,45.5609543]]}";2;Rue Dorion;1;50;false;false;true;false;false;false;78.0;1;0;0;0;0;false;81163;6119525756;-73.895763;45.561281;81000;6119526196;-73.892828;45.561425;0;55;56;9401671;Bus 93 : TERMINUS /ST-EUSTACHE;"";EXO;93 E;Gare Deux-Montagnes;Terminus Saint-Eustache
138428141;"{\"type\":\"LineString\",\"coordinates\":[[-73.8937986,45.5609543],[-73.8936234,45.560945],[-73.8935657,45.560978],[-73.8935027,45.5610387],[-73.8934764,45.5611104],[-73.8934449,45.5611912],[-73.8933793,45.5612519],[-73.893319,45.5612978],[-73.8932807,45.5613137]]}";3;"";1;50;false;false;true;false;true;false;65.0;0;0;0;0;0;false;81163;6119525756;-73.895763;45.561281;81000;6119526196;-73.892828;45.561425;0;55;56;9401671;Bus 93 : TERMINUS /ST-EUSTACHE;"";EXO;93 E;Gare Deux-Montagnes;Terminus Saint-Eustache
676886050;"{\"type\":\"LineString\",\"coordinates\":[[-73.8932807,45.5613137],[-73.8931903,45.5613511],[-73.8930223,45.5613915],[-73.8928026,45.5614415]]}";4;"";1;50;false;false;true;false;true;false;41.0;0;1;0;0;0;false;81163;6119525756;-73.895763;45.561281;81000;6119526196;-73.892828;45.561425;1;55;56;9401671;Bus 93 : TERMINUS /ST-EUSTACHE;"";EXO;93 E;Gare Deux-Montagnes;Terminus Saint-Eustache
