way_id;shape;index;name;nb_lanes;legal_speed;speed_zone_30;oneway;shares_bike;bike_box;bus_lane;dedicated_bus_lane;length;nb_traffic_signals;nb_crossings;nb_stops;nb_give_ways;nb_lvl_crossings;roundabout;stop_id_orig;node_id_orig;coord_x_orig;coord_y_orig;stop_id_dest;node_id_dest;coord_x_dest;coord_y_dest;nb_neighbouring_ways_bus_stop;ordre_orig;ordre_dest;id_line;line_name;colour;operator;ref;from;to
676886050;"{\"type\":\"LineString\",\"coordinates\":[[-73.8932807,45.5613137],[-73.8931903,45.5613511],[-73.8930223,45.5613915],[-73.8928026,45.5614415]]}";1;"";1;50;false;false;true;false;true;false;41.0;0;1;0;0;0;false;81000;6119526196;-73.892828;45.561425;81263;6119525694;-73.893298;45.563132;1;0;1;9397355;Bus 89 : GARE /DEUX-MONTAGNES;"";EXO;89 O;Terminus Saint-Eustache;Gare Deux-Montagnes
138428140;"{\"type\":\"LineString\",\"coordinates\":[[-73.8932807,45.5613137],[-73.8933872,45.5613529],[-73.8934607,45.5614209],[-73.8934449,45.5614742],[-73.8933268,45.5615404],[-73.8930801,45.5615863],[-73.8930512,45.5615899],[-73.8922743,45.5617499],[-73.8921798,45.5617444],[-73.8921352,45.5617242],[-73.8920958,45.5616672]]}";2;"";1;50;false;false;true;false;true;false;141.0;0;1;0;0;0;false;81000;6119526196;-73.892828;45.561425;81263;6119525694;-73.893298;45.563132;0;0;1;9397355;Bus 89 : GARE /DEUX-MONTAGNES;"";EXO;89 O;Terminus Saint-Eustache;Gare Deux-Montagnes
676848394;"{\"type\":\"LineString\",\"coordinates\":[[-73.8920958,45.5616672],[-73.8919894,45.5617621]]}";3;"";1;50;false;false;true;false;true;false;14.0;0;0;0;0;0;false;81000;6119526196;-73.892828;45.561425;81263;6119525694;-73.893298;45.563132;0;0;1;9397355;Bus 89 : GARE /DEUX-MONTAGNES;"";EXO;89 O;Terminus Saint-Eustache;Gare Deux-Montagnes
652937896;"{\"type\":\"LineString\",\"coordinates\":[[-73.8919894,45.5617621],[-73.8920332,45.5618071],[-73.8921041,45.561881]]}";4;Rue de Bellefeuille;2;50;false;false;true;false;false;false;16.0;1;0;0;0;0;false;81000;6119526196;-73.892828;45.561425;81263;6119525694;-73.893298;45.563132;0;0;1;9397355;Bus 89 : GARE /DEUX-MONTAGNES;"";EXO;89 O;Terminus Saint-Eustache;Gare Deux-Montagnes
652937891;"{\"type\":\"LineString\",\"coordinates\":[[-73.8921041,45.561881],[-73.8922185,45.561989]]}";5;Rue de Bellefeuille;2;50;false;false;true;false;false;false;15.0;0;0;0;0;0;false;81000;6119526196;-73.892828;45.561425;81263;6119525694;-73.893298;45.563132;0;0;1;9397355;Bus 89 : GARE /DEUX-MONTAGNES;"";EXO;89 O;Terminus Saint-Eustache;Gare Deux-Montagnes
46704327;"{\"type\":\"LineString\",\"coordinates\":[[-73.8922185,45.561989],[-73.8922934,45.5620616],[-73.893605,45.5633606]]}";6;Rue de Bellefeuille;2;30;false;false;true;false;false;false;93.5;1;0;0;0;0;false;81000;6119526196;-73.892828;45.561425;81263;6119525694;-73.893298;45.563132;1;0;1;9397355;Bus 89 : GARE /DEUX-MONTAGNES;"";EXO;89 O;Terminus Saint-Eustache;Gare Deux-Montagnes
46704327;"{\"type\":\"LineString\",\"coordinates\":[[-73.8922185,45.561989],[-73.8922934,45.5620616],[-73.893605,45.5633606]]}";1;Rue de Bellefeuille;2;30;false;false;true;false;false;false;93.5;1;0;0;0;0;false;81263;6119525694;-73.893298;45.563132;81260;6119525697;-73.891994;45.564176;1;1;2;9397355;Bus 89 : GARE /DEUX-MONTAGNES;"";EXO;89 O;Terminus Saint-Eustache;Gare Deux-Montagnes
93378552;"{\"type\":\"LineString\",\"coordinates\":[[-73.8918492,45.5643419],[-73.8927704,45.563827],[-73.893605,45.5633606]]}";2;Rue Saint-Marc;1;50;false;false;true;false;false;false;88.0;0;0;0;0;0;false;81263;6119525694;-73.893298;45.563132;81260;6119525697;-73.891994;45.564176;1;1;2;9397355;Bus 89 : GARE /DEUX-MONTAGNES;"";EXO;89 O;Terminus Saint-Eustache;Gare Deux-Montagnes
93378552;"{\"type\":\"LineString\",\"coordinates\":[[-73.8918492,45.5643419],[-73.8927704,45.563827],[-73.893605,45.5633606]]}";1;Rue Saint-Marc;1;50;false;false;true;false;false;false;88.0;0;0;0;0;0;false;81260;6119525697;-73.891994;45.564176;81261;6119525696;-73.890493;45.565095;1;2;3;9397355;Bus 89 : GARE /DEUX-MONTAGNES;"";EXO;89 O;Terminus Saint-Eustache;Gare Deux-Montagnes
93378547;"{\"type\":\"LineString\",\"coordinates\":[[-73.8900466,45.5653402],[-73.8909946,45.5648152],[-73.8914692,45.5645524],[-73.8918492,45.5643419]]}";2;Rue Saint-Marc;1;50;false;false;true;false;false;false;90.0;0;0;0;0;0;false;81260;6119525697;-73.891994;45.564176;81261;6119525696;-73.890493;45.565095;1;2;3;9397355;Bus 89 : GARE /DEUX-MONTAGNES;"";EXO;89 O;Terminus Saint-Eustache;Gare Deux-Montagnes
93378547;"{\"type\":\"LineString\",\"coordinates\":[[-73.8900466,45.5653402],[-73.8909946,45.5648152],[-73.8914692,45.5645524],[-73.8918492,45.5643419]]}";1;Rue Saint-Marc;1;50;false;false;true;false;false;false;90.0;0;0;0;0;0;false;81261;6119525696;-73.890493;45.565095;81262;6119525695;-73.886892;45.567056;1;3;4;9397355;Bus 89 : GARE /DEUX-MONTAGNES;"";EXO;89 O;Terminus Saint-Eustache;Gare Deux-Montagnes
20250232;"{\"type\":\"LineString\",\"coordinates\":[[-73.8867755,45.5671715],[-73.8875178,45.5667532],[-73.8884041,45.5662579],[-73.8893219,45.5657451],[-73.8900466,45.5653402]]}";2;Rue Saint-Marc;1;50;false;false;true;false;false;false;163.5;0;0;2;0;0;false;81261;6119525696;-73.890493;45.565095;81262;6119525695;-73.886892;45.567056;1;3;4;9397355;Bus 89 : GARE /DEUX-MONTAGNES;"";EXO;89 O;Terminus Saint-Eustache;Gare Deux-Montagnes
676886052;"{\"type\":\"LineString\",\"coordinates\":[[-73.8866581,45.5672335],[-73.8867755,45.5671715]]}";1;Rue Saint-Marc;1;50;false;false;true;false;false;false;12.0;0;0;2;0;0;false;81262;6119525695;-73.886892;45.567056;81044;6119526059;-73.887018;45.568351;2;4;5;9397355;Bus 89 : GARE /DEUX-MONTAGNES;"";EXO;89 O;Terminus Saint-Eustache;Gare Deux-Montagnes
676886047;"{\"type\":\"LineString\",\"coordinates\":[[-73.8866581,45.5672335],[-73.8870927,45.5676558],[-73.8872543,45.5678552],[-73.887316,45.5679537],[-73.8873509,45.5680507],[-73.887367,45.5681518],[-73.887371,45.5683133],[-73.8873702,45.5684211]]}";2;Boulevard Goyer;1;40;false;true;false;false;false;false;148.0;1;0;1;0;0;false;81262;6119525695;-73.886892;45.567056;81044;6119526059;-73.887018;45.568351;0;4;5;9397355;Bus 89 : GARE /DEUX-MONTAGNES;"";EXO;89 O;Terminus Saint-Eustache;Gare Deux-Montagnes
455467989;"{\"type\":\"LineString\",\"coordinates\":[[-73.8873702,45.5684211],[-73.8865885,45.5684222],[-73.8862471,45.5684588],[-73.8858703,45.568517],[-73.8855229,45.568593],[-73.8852225,45.5686889],[-73.8849347,45.5688],[-73.8845922,45.5689696],[-73.8844219,45.5690691],[-73.8842883,45.5691535],[-73.8840464,45.569331],[-73.8838318,45.5695122],[-73.8836339,45.5697003],[-73.8834137,45.5699314],[-73.8832936,45.5700756],[-73.8830407,45.570455],[-73.8827063,45.5710415],[-73.8823373,45.5716651]]}";3;Rue Saint-Laurent;1;30;false;false;false;false;false;false;583.0;1;0;2;0;0;false;81262;6119525695;-73.886892;45.567056;81044;6119526059;-73.887018;45.568351;2;4;5;9397355;Bus 89 : GARE /DEUX-MONTAGNES;"";EXO;89 O;Terminus Saint-Eustache;Gare Deux-Montagnes
455467989;"{\"type\":\"LineString\",\"coordinates\":[[-73.8873702,45.5684211],[-73.8865885,45.5684222],[-73.8862471,45.5684588],[-73.8858703,45.568517],[-73.8855229,45.568593],[-73.8852225,45.5686889],[-73.8849347,45.5688],[-73.8845922,45.5689696],[-73.8844219,45.5690691],[-73.8842883,45.5691535],[-73.8840464,45.569331],[-73.8838318,45.5695122],[-73.8836339,45.5697003],[-73.8834137,45.5699314],[-73.8832936,45.5700756],[-73.8830407,45.570455],[-73.8827063,45.5710415],[-73.8823373,45.5716651]]}";1;Rue Saint-Laurent;1;30;false;false;false;false;false;false;291.5;1;0;2;0;0;false;81046;6119526057;-73.88334;45.569979;81047;6119526056;-73.87949;45.573281;1;6;7;9397355;Bus 89 : GARE /DEUX-MONTAGNES;"";EXO;89 O;Terminus Saint-Eustache;Gare Deux-Montagnes
742060125;"{\"type\":\"LineString\",\"coordinates\":[[-73.8823373,45.5716651],[-73.8822514,45.571785],[-73.8819738,45.5720705],[-73.8817965,45.5721996],[-73.8812816,45.572506],[-73.8794963,45.5733291],[-73.8793182,45.5734136],[-73.8777575,45.5741645],[-73.8768632,45.574578],[-73.8763549,45.5748191],[-73.8755385,45.5752046],[-73.875252,45.5753399]]}";2;Rue Saint-Laurent;1;40;false;false;false;false;false;false;346.0;0;0;0;0;0;false;81046;6119526057;-73.88334;45.569979;81047;6119526056;-73.87949;45.573281;1;6;7;9397355;Bus 89 : GARE /DEUX-MONTAGNES;"";EXO;89 O;Terminus Saint-Eustache;Gare Deux-Montagnes
742060125;"{\"type\":\"LineString\",\"coordinates\":[[-73.8823373,45.5716651],[-73.8822514,45.571785],[-73.8819738,45.5720705],[-73.8817965,45.5721996],[-73.8812816,45.572506],[-73.8794963,45.5733291],[-73.8793182,45.5734136],[-73.8777575,45.5741645],[-73.8768632,45.574578],[-73.8763549,45.5748191],[-73.8755385,45.5752046],[-73.875252,45.5753399]]}";1;Rue Saint-Laurent;1;40;false;false;false;false;false;false;346.0;0;0;0;0;0;false;81049;6119526054;-73.875508;45.575184;81264;6119525693;-73.875427;45.576318;1;9;10;9397355;Bus 89 : GARE /DEUX-MONTAGNES;"";EXO;89 O;Terminus Saint-Eustache;Gare Deux-Montagnes
455467988;"{\"type\":\"LineString\",\"coordinates\":[[-73.875252,45.5753399],[-73.8748309,45.575552]]}";2;Rue Saint-Laurent;1;40;false;false;false;false;false;false;41.0;0;0;0;0;0;false;81049;6119526054;-73.875508;45.575184;81264;6119525693;-73.875427;45.576318;0;9;10;9397355;Bus 89 : GARE /DEUX-MONTAGNES;"";EXO;89 O;Terminus Saint-Eustache;Gare Deux-Montagnes
455467983;"{\"type\":\"LineString\",\"coordinates\":[[-73.8748309,45.575552],[-73.8751397,45.5758632]]}";3;25e Avenue;1;50;false;false;false;false;false;false;43.0;0;0;0;0;0;false;81049;6119526054;-73.875508;45.575184;81264;6119525693;-73.875427;45.576318;0;9;10;9397355;Bus 89 : GARE /DEUX-MONTAGNES;"";EXO;89 O;Terminus Saint-Eustache;Gare Deux-Montagnes
18834972;"{\"type\":\"LineString\",\"coordinates\":[[-73.8751397,45.5758632],[-73.875516,45.5762388],[-73.8762211,45.5769428],[-73.8772469,45.5779594],[-73.8774075,45.5781205]]}";4;25e Avenue;1;50;false;false;false;false;false;false;153.5;0;0;0;0;0;false;81049;6119526054;-73.875508;45.575184;81264;6119525693;-73.875427;45.576318;1;9;10;9397355;Bus 89 : GARE /DEUX-MONTAGNES;"";EXO;89 O;Terminus Saint-Eustache;Gare Deux-Montagnes
18834972;"{\"type\":\"LineString\",\"coordinates\":[[-73.8751397,45.5758632],[-73.875516,45.5762388],[-73.8762211,45.5769428],[-73.8772469,45.5779594],[-73.8774075,45.5781205]]}";1;25e Avenue;1;50;false;false;false;false;false;false;153.5;0;0;0;0;0;false;81264;6119525693;-73.875427;45.576318;81068;6119526036;-73.877492;45.578287;1;10;11;9397355;Bus 89 : GARE /DEUX-MONTAGNES;"";EXO;89 O;Terminus Saint-Eustache;Gare Deux-Montagnes
455467990;"{\"type\":\"LineString\",\"coordinates\":[[-73.8777232,45.5784416],[-73.8774075,45.5781205]]}";2;25e Avenue;1;50;false;true;false;false;false;false;22.0;0;0;0;0;0;false;81264;6119525693;-73.875427;45.576318;81068;6119526036;-73.877492;45.578287;1;10;11;9397355;Bus 89 : GARE /DEUX-MONTAGNES;"";EXO;89 O;Terminus Saint-Eustache;Gare Deux-Montagnes
18834972;"{\"type\":\"LineString\",\"coordinates\":[[-73.8751397,45.5758632],[-73.875516,45.5762388],[-73.8762211,45.5769428],[-73.8772469,45.5779594],[-73.8774075,45.5781205]]}";1;25e Avenue;1;50;false;false;false;false;false;false;307.0;0;0;0;0;0;false;81068;6119526036;-73.877492;45.578287;81057;6119526046;-73.880482;45.581419;2;11;12;9397355;Bus 89 : GARE /DEUX-MONTAGNES;"";EXO;89 O;Terminus Saint-Eustache;Gare Deux-Montagnes
455467990;"{\"type\":\"LineString\",\"coordinates\":[[-73.8777232,45.5784416],[-73.8774075,45.5781205]]}";2;25e Avenue;1;50;false;true;false;false;false;false;44.0;0;0;0;0;0;false;81068;6119526036;-73.877492;45.578287;81057;6119526046;-73.880482;45.581419;0;11;12;9397355;Bus 89 : GARE /DEUX-MONTAGNES;"";EXO;89 O;Terminus Saint-Eustache;Gare Deux-Montagnes
455467991;"{\"type\":\"LineString\",\"coordinates\":[[-73.8777232,45.5784416],[-73.8780508,45.5788236],[-73.8784006,45.5791813]]}";3;25e Avenue;1;50;false;true;true;false;false;false;98.0;0;0;0;0;0;false;81068;6119526036;-73.877492;45.578287;81057;6119526046;-73.880482;45.581419;0;11;12;9397355;Bus 89 : GARE /DEUX-MONTAGNES;"";EXO;89 O;Terminus Saint-Eustache;Gare Deux-Montagnes
93378542;"{\"type\":\"LineString\",\"coordinates\":[[-73.8784006,45.5791813],[-73.8787851,45.5795467],[-73.878915,45.5796836]]}";4;25e Avenue;1;50;false;true;true;false;false;false;69.0;0;0;0;0;0;false;81068;6119526036;-73.877492;45.578287;81057;6119526046;-73.880482;45.581419;0;11;12;9397355;Bus 89 : GARE /DEUX-MONTAGNES;"";EXO;89 O;Terminus Saint-Eustache;Gare Deux-Montagnes
451868750;"{\"type\":\"LineString\",\"coordinates\":[[-73.878915,45.5796836],[-73.8792672,45.5800528]]}";5;25e Avenue;2;50;false;true;true;false;false;false;50.0;0;0;0;0;0;false;81068;6119526036;-73.877492;45.578287;81057;6119526046;-73.880482;45.581419;0;11;12;9397355;Bus 89 : GARE /DEUX-MONTAGNES;"";EXO;89 O;Terminus Saint-Eustache;Gare Deux-Montagnes
45794866;"{\"type\":\"LineString\",\"coordinates\":[[-73.8792672,45.5800528],[-73.8799072,45.5807431]]}";6;25e Avenue;2;50;false;true;true;false;false;false;92.0;0;0;0;0;0;false;81068;6119526036;-73.877492;45.578287;81057;6119526046;-73.880482;45.581419;0;11;12;9397355;Bus 89 : GARE /DEUX-MONTAGNES;"";EXO;89 O;Terminus Saint-Eustache;Gare Deux-Montagnes
45794867;"{\"type\":\"LineString\",\"coordinates\":[[-73.8799072,45.5807431],[-73.880133,45.5809884]]}";7;25e Avenue;2;50;false;true;true;false;false;false;33.0;0;0;0;0;0;false;81068;6119526036;-73.877492;45.578287;81057;6119526046;-73.880482;45.581419;0;11;12;9397355;Bus 89 : GARE /DEUX-MONTAGNES;"";EXO;89 O;Terminus Saint-Eustache;Gare Deux-Montagnes
45794868;"{\"type\":\"LineString\",\"coordinates\":[[-73.880133,45.5809884],[-73.8804343,45.5813064],[-73.8806597,45.5814692]]}";8;25e Avenue;2;50;false;true;true;false;false;false;68.0;0;0;1;0;0;false;81068;6119526036;-73.877492;45.578287;81057;6119526046;-73.880482;45.581419;2;11;12;9397355;Bus 89 : GARE /DEUX-MONTAGNES;"";EXO;89 O;Terminus Saint-Eustache;Gare Deux-Montagnes
676886058;"{\"type\":\"LineString\",\"coordinates\":[[-73.9041649,45.5769167],[-73.9041703,45.5769821]]}";1;Boulevard Lavalée;1;40;false;false;false;false;false;false;8.0;0;0;2;0;0;false;81269;6119525688;-73.904013;45.577028;81179;6119525747;-73.903808;45.576009;2;21;22;9397355;Bus 89 : GARE /DEUX-MONTAGNES;"";EXO;89 O;Terminus Saint-Eustache;Gare Deux-Montagnes
94596659;"{\"type\":\"LineString\",\"coordinates\":[[-73.9022249,45.5744161],[-73.9022598,45.5744863],[-73.902379,45.574694],[-73.9024694,45.574801],[-73.9034777,45.5757754],[-73.9036567,45.575958],[-73.9038897,45.5761959],[-73.9040871,45.5764242],[-73.90413,45.5766165],[-73.9041649,45.5769167]]}";2;Boulevard Lavalée;2;40;false;false;false;false;false;false;323.0;0;1;1;0;0;false;81269;6119525688;-73.904013;45.577028;81179;6119525747;-73.903808;45.576009;2;21;22;9397355;Bus 89 : GARE /DEUX-MONTAGNES;"";EXO;89 O;Terminus Saint-Eustache;Gare Deux-Montagnes
94596659;"{\"type\":\"LineString\",\"coordinates\":[[-73.9022249,45.5744161],[-73.9022598,45.5744863],[-73.902379,45.574694],[-73.9024694,45.574801],[-73.9034777,45.5757754],[-73.9036567,45.575958],[-73.9038897,45.5761959],[-73.9040871,45.5764242],[-73.90413,45.5766165],[-73.9041649,45.5769167]]}";1;Boulevard Lavalée;2;40;false;false;false;false;false;false;161.5;0;1;1;0;0;false;81179;6119525747;-73.903808;45.576009;81072;6119526032;-73.901315;45.573149;1;22;23;9397355;Bus 89 : GARE /DEUX-MONTAGNES;"";EXO;89 O;Terminus Saint-Eustache;Gare Deux-Montagnes
41088891;"{\"type\":\"LineString\",\"coordinates\":[[-73.901116,45.5729742],[-73.9017698,45.573614],[-73.902006,45.5738612],[-73.9021044,45.5740291],[-73.9021902,45.5743275],[-73.9022249,45.5744161]]}";2;Boulevard Lavalée;1;40;false;false;true;false;false;false;92.5;0;1;1;0;0;false;81179;6119525747;-73.903808;45.576009;81072;6119526032;-73.901315;45.573149;1;22;23;9397355;Bus 89 : GARE /DEUX-MONTAGNES;"";EXO;89 O;Terminus Saint-Eustache;Gare Deux-Montagnes
41088891;"{\"type\":\"LineString\",\"coordinates\":[[-73.901116,45.5729742],[-73.9017698,45.573614],[-73.902006,45.5738612],[-73.9021044,45.5740291],[-73.9021902,45.5743275],[-73.9022249,45.5744161]]}";1;Boulevard Lavalée;1;40;false;false;true;false;false;false;92.5;0;1;1;0;0;false;81072;6119526032;-73.901315;45.573149;81270;6119525687;-73.902294;45.572638;1;23;24;9397355;Bus 89 : GARE /DEUX-MONTAGNES;"";EXO;89 O;Terminus Saint-Eustache;Gare Deux-Montagnes
676886059;"{\"type\":\"LineString\",\"coordinates\":[[-73.901116,45.5729742],[-73.9024563,45.5725731],[-73.9031944,45.5723268],[-73.9041042,45.5719843],[-73.9048349,45.5716748],[-73.9051256,45.5715517],[-73.9058241,45.571232],[-73.9059142,45.5711807],[-73.9068104,45.5707769]]}";2;Rue Dubois;1;50;false;false;true;false;false;false;254.5;0;0;2;0;0;false;81072;6119526032;-73.901315;45.573149;81270;6119525687;-73.902294;45.572638;1;23;24;9397355;Bus 89 : GARE /DEUX-MONTAGNES;"";EXO;89 O;Terminus Saint-Eustache;Gare Deux-Montagnes
575106201;"{\"type\":\"LineString\",\"coordinates\":[[-73.9100935,45.5725341],[-73.9101975,45.5723136],[-73.9103807,45.5719251],[-73.9105116,45.5718226],[-73.9112349,45.5714662],[-73.9113992,45.5713843],[-73.9115813,45.5712971]]}";1;Rue Grignon;1;50;false;false;true;false;false;false;189.0;1;0;0;0;0;false;81074;6119526030;-73.909918;45.572578;81164;6119525755;-73.912632;45.572428;2;27;28;9397355;Bus 89 : GARE /DEUX-MONTAGNES;"";EXO;89 O;Terminus Saint-Eustache;Gare Deux-Montagnes
455468612;"{\"type\":\"LineString\",\"coordinates\":[[-73.9115813,45.5712971],[-73.9119337,45.5716533],[-73.9124221,45.5721469],[-73.9133143,45.5730161],[-73.9136958,45.5733878],[-73.9137781,45.5734682]]}";2;Boulevard Arthur-Sauvé;3;50;false;true;true;false;false;false;296.0;4;0;0;0;0;false;81074;6119526030;-73.909918;45.572578;81164;6119525755;-73.912632;45.572428;2;27;28;9397355;Bus 89 : GARE /DEUX-MONTAGNES;"";EXO;89 O;Terminus Saint-Eustache;Gare Deux-Montagnes
455468612;"{\"type\":\"LineString\",\"coordinates\":[[-73.9115813,45.5712971],[-73.9119337,45.5716533],[-73.9124221,45.5721469],[-73.9133143,45.5730161],[-73.9136958,45.5733878],[-73.9137781,45.5734682]]}";1;Boulevard Arthur-Sauvé;3;50;false;true;true;false;false;false;148.0;4;0;0;0;0;false;81164;6119525755;-73.912632;45.572428;81170;6119525751;-73.914701;45.573137;1;28;29;9397355;Bus 89 : GARE /DEUX-MONTAGNES;"";EXO;89 O;Terminus Saint-Eustache;Gare Deux-Montagnes
517990952;"{\"type\":\"LineString\",\"coordinates\":[[-73.9137781,45.5734682],[-73.9138977,45.5734124],[-73.9145832,45.5730981],[-73.914688,45.57299]]}";2;Boulevard Industriel;1;50;false;true;true;false;false;false;45.0;2;0;0;0;0;false;81164;6119525755;-73.912632;45.572428;81170;6119525751;-73.914701;45.573137;1;28;29;9397355;Bus 89 : GARE /DEUX-MONTAGNES;"";EXO;89 O;Terminus Saint-Eustache;Gare Deux-Montagnes
517990955;"{\"type\":\"LineString\",\"coordinates\":[[-73.914869,45.5729076],[-73.914688,45.57299]]}";1;Boulevard Industriel;1;50;false;false;true;false;false;false;17.0;0;0;0;0;0;false;81170;6119525751;-73.914701;45.573137;81276;6119525685;-73.917786;45.571358;2;29;30;9397355;Bus 89 : GARE /DEUX-MONTAGNES;"";EXO;89 O;Terminus Saint-Eustache;Gare Deux-Montagnes
676886064;"{\"type\":\"LineString\",\"coordinates\":[[-73.9178258,45.571477],[-73.914869,45.5729076]]}";2;Boulevard Industriel;1;50;false;false;false;false;false;false;281.0;1;0;0;0;0;false;81170;6119525751;-73.914701;45.573137;81276;6119525685;-73.917786;45.571358;0;29;30;9397355;Bus 89 : GARE /DEUX-MONTAGNES;"";EXO;89 O;Terminus Saint-Eustache;Gare Deux-Montagnes
502095429;"{\"type\":\"LineString\",\"coordinates\":[[-73.9130598,45.5674059],[-73.9135939,45.5679508],[-73.9139355,45.5682993],[-73.9140865,45.5684082],[-73.9141757,45.5684726],[-73.9144678,45.5686104],[-73.9146107,45.5686528],[-73.9150638,45.5687245],[-73.9150473,45.5689949],[-73.9150909,45.5690687],[-73.9155334,45.5695107],[-73.9162074,45.5701788],[-73.9163673,45.570265],[-73.9165199,45.570391],[-73.9169574,45.5706706],[-73.9171642,45.5708324],[-73.9178258,45.571477]]}";3;Rue Bibeau;2;50;false;false;true;false;false;false;606.0;1;0;0;0;0;false;81170;6119525751;-73.914701;45.573137;81276;6119525685;-73.917786;45.571358;2;29;30;9397355;Bus 89 : GARE /DEUX-MONTAGNES;"";EXO;89 O;Terminus Saint-Eustache;Gare Deux-Montagnes
676886064;"{\"type\":\"LineString\",\"coordinates\":[[-73.9178258,45.571477],[-73.914869,45.5729076]]}";1;Boulevard Industriel;1;50;false;false;false;false;false;false;281.0;1;0;0;0;0;false;81276;6119525685;-73.917786;45.571358;81186;6119525741;-73.916533;45.570298;2;30;31;9397355;Bus 89 : GARE /DEUX-MONTAGNES;"";EXO;89 O;Terminus Saint-Eustache;Gare Deux-Montagnes
502095429;"{\"type\":\"LineString\",\"coordinates\":[[-73.9130598,45.5674059],[-73.9135939,45.5679508],[-73.9139355,45.5682993],[-73.9140865,45.5684082],[-73.9141757,45.5684726],[-73.9144678,45.5686104],[-73.9146107,45.5686528],[-73.9150638,45.5687245],[-73.9150473,45.5689949],[-73.9150909,45.5690687],[-73.9155334,45.5695107],[-73.9162074,45.5701788],[-73.9163673,45.570265],[-73.9165199,45.570391],[-73.9169574,45.5706706],[-73.9171642,45.5708324],[-73.9178258,45.571477]]}";2;Rue Bibeau;2;50;false;false;true;false;false;false;606.0;1;0;0;0;0;false;81276;6119525685;-73.917786;45.571358;81186;6119525741;-73.916533;45.570298;2;30;31;9397355;Bus 89 : GARE /DEUX-MONTAGNES;"";EXO;89 O;Terminus Saint-Eustache;Gare Deux-Montagnes
502095429;"{\"type\":\"LineString\",\"coordinates\":[[-73.9130598,45.5674059],[-73.9135939,45.5679508],[-73.9139355,45.5682993],[-73.9140865,45.5684082],[-73.9141757,45.5684726],[-73.9144678,45.5686104],[-73.9146107,45.5686528],[-73.9150638,45.5687245],[-73.9150473,45.5689949],[-73.9150909,45.5690687],[-73.9155334,45.5695107],[-73.9162074,45.5701788],[-73.9163673,45.570265],[-73.9165199,45.570391],[-73.9169574,45.5706706],[-73.9171642,45.5708324],[-73.9178258,45.571477]]}";1;Rue Bibeau;2;50;false;false;true;false;false;false;303.0;1;0;0;0;0;false;81187;6119525740;-73.915124;45.568851;81188;6119525739;-73.913108;45.567373;1;32;33;9397355;Bus 89 : GARE /DEUX-MONTAGNES;"";EXO;89 O;Terminus Saint-Eustache;Gare Deux-Montagnes
46704222;"{\"type\":\"LineString\",\"coordinates\":[[-73.9130598,45.5674059],[-73.9151667,45.5662587],[-73.9153468,45.5661627],[-73.9173487,45.5650841],[-73.9174404,45.5650684],[-73.9175707,45.5650651],[-73.9177011,45.5651052],[-73.9177994,45.56517],[-73.9194052,45.5667836],[-73.9194973,45.5668324],[-73.9195936,45.566844],[-73.9197174,45.5668208],[-73.9219461,45.5656941]]}";2;Rue du Parc;2;50;false;false;true;false;false;false;460.5;0;0;0;0;0;false;81187;6119525740;-73.915124;45.568851;81188;6119525739;-73.913108;45.567373;1;32;33;9397355;Bus 89 : GARE /DEUX-MONTAGNES;"";EXO;89 O;Terminus Saint-Eustache;Gare Deux-Montagnes
502095429;"{\"type\":\"LineString\",\"coordinates\":[[-73.9130598,45.5674059],[-73.9135939,45.5679508],[-73.9139355,45.5682993],[-73.9140865,45.5684082],[-73.9141757,45.5684726],[-73.9144678,45.5686104],[-73.9146107,45.5686528],[-73.9150638,45.5687245],[-73.9150473,45.5689949],[-73.9150909,45.5690687],[-73.9155334,45.5695107],[-73.9162074,45.5701788],[-73.9163673,45.570265],[-73.9165199,45.570391],[-73.9169574,45.5706706],[-73.9171642,45.5708324],[-73.9178258,45.571477]]}";1;Rue Bibeau;2;50;false;false;true;false;false;false;606.0;1;0;0;0;0;false;81188;6119525739;-73.913108;45.567373;81189;6119525738;-73.918632;45.566129;2;33;34;9397355;Bus 89 : GARE /DEUX-MONTAGNES;"";EXO;89 O;Terminus Saint-Eustache;Gare Deux-Montagnes
46704222;"{\"type\":\"LineString\",\"coordinates\":[[-73.9130598,45.5674059],[-73.9151667,45.5662587],[-73.9153468,45.5661627],[-73.9173487,45.5650841],[-73.9174404,45.5650684],[-73.9175707,45.5650651],[-73.9177011,45.5651052],[-73.9177994,45.56517],[-73.9194052,45.5667836],[-73.9194973,45.5668324],[-73.9195936,45.566844],[-73.9197174,45.5668208],[-73.9219461,45.5656941]]}";2;Rue du Parc;2;50;false;false;true;false;false;false;921.0;0;0;0;0;0;false;81188;6119525739;-73.913108;45.567373;81189;6119525738;-73.918632;45.566129;2;33;34;9397355;Bus 89 : GARE /DEUX-MONTAGNES;"";EXO;89 O;Terminus Saint-Eustache;Gare Deux-Montagnes
46704222;"{\"type\":\"LineString\",\"coordinates\":[[-73.9130598,45.5674059],[-73.9151667,45.5662587],[-73.9153468,45.5661627],[-73.9173487,45.5650841],[-73.9174404,45.5650684],[-73.9175707,45.5650651],[-73.9177011,45.5651052],[-73.9177994,45.56517],[-73.9194052,45.5667836],[-73.9194973,45.5668324],[-73.9195936,45.566844],[-73.9197174,45.5668208],[-73.9219461,45.5656941]]}";1;Rue du Parc;2;50;false;false;true;false;false;false;460.5;0;0;0;0;0;false;81182;6119525745;-73.919497;45.566884;81190;6119525737;-73.921922;45.565667;1;35;36;9397355;Bus 89 : GARE /DEUX-MONTAGNES;"";EXO;89 O;Terminus Saint-Eustache;Gare Deux-Montagnes
676886065;"{\"type\":\"LineString\",\"coordinates\":[[-73.9219461,45.5656941],[-73.9216218,45.5655153],[-73.919953,45.564577],[-73.9193253,45.5642488],[-73.917046,45.5630215]]}";2;Rue Saint-Eustache;4;40;false;false;false;false;false;false;242.0;0;0;0;0;0;false;81182;6119525745;-73.919497;45.566884;81190;6119525737;-73.921922;45.565667;1;35;36;9397355;Bus 89 : GARE /DEUX-MONTAGNES;"";EXO;89 O;Terminus Saint-Eustache;Gare Deux-Montagnes
46704222;"{\"type\":\"LineString\",\"coordinates\":[[-73.9130598,45.5674059],[-73.9151667,45.5662587],[-73.9153468,45.5661627],[-73.9173487,45.5650841],[-73.9174404,45.5650684],[-73.9175707,45.5650651],[-73.9177011,45.5651052],[-73.9177994,45.56517],[-73.9194052,45.5667836],[-73.9194973,45.5668324],[-73.9195936,45.566844],[-73.9197174,45.5668208],[-73.9219461,45.5656941]]}";1;Rue du Parc;2;50;false;false;true;false;false;false;921.0;0;0;0;0;0;false;81190;6119525737;-73.921922;45.565667;81054;6119526049;-73.916223;45.562584;2;36;37;9397355;Bus 89 : GARE /DEUX-MONTAGNES;"";EXO;89 O;Terminus Saint-Eustache;Gare Deux-Montagnes
676886065;"{\"type\":\"LineString\",\"coordinates\":[[-73.9219461,45.5656941],[-73.9216218,45.5655153],[-73.919953,45.564577],[-73.9193253,45.5642488],[-73.917046,45.5630215]]}";2;Rue Saint-Eustache;4;40;false;false;false;false;false;false;484.0;0;0;0;0;0;false;81190;6119525737;-73.921922;45.565667;81054;6119526049;-73.916223;45.562584;0;36;37;9397355;Bus 89 : GARE /DEUX-MONTAGNES;"";EXO;89 O;Terminus Saint-Eustache;Gare Deux-Montagnes
476098876;"{\"type\":\"LineString\",\"coordinates\":[[-73.917046,45.5630215],[-73.9163557,45.5626784],[-73.9162362,45.562619]]}";3;Rue Saint-Eustache;3;40;false;false;true;false;false;false;78.0;1;0;0;0;0;false;81190;6119525737;-73.921922;45.565667;81054;6119526049;-73.916223;45.562584;0;36;37;9397355;Bus 89 : GARE /DEUX-MONTAGNES;"";EXO;89 O;Terminus Saint-Eustache;Gare Deux-Montagnes
676886066;"{\"type\":\"LineString\",\"coordinates\":[[-73.9162362,45.562619],[-73.9161099,45.5625695],[-73.9151744,45.5622029],[-73.9144391,45.5618666],[-73.9133638,45.561399],[-73.9123579,45.5609388]]}";4;Rue Saint-Eustache;2;40;false;false;true;false;false;false;356.0;1;0;0;0;0;false;81190;6119525737;-73.921922;45.565667;81054;6119526049;-73.916223;45.562584;2;36;37;9397355;Bus 89 : GARE /DEUX-MONTAGNES;"";EXO;89 O;Terminus Saint-Eustache;Gare Deux-Montagnes
476098876;"{\"type\":\"LineString\",\"coordinates\":[[-73.917046,45.5630215],[-73.9163557,45.5626784],[-73.9162362,45.562619]]}";1;Rue Saint-Eustache;3;40;false;false;true;false;false;false;78.0;1;0;0;0;0;false;81054;6119526049;-73.916223;45.562584;81279;6119525384;-73.914657;45.561901;2;37;38;9397355;Bus 89 : GARE /DEUX-MONTAGNES;"";EXO;89 O;Terminus Saint-Eustache;Gare Deux-Montagnes
676886066;"{\"type\":\"LineString\",\"coordinates\":[[-73.9162362,45.562619],[-73.9161099,45.5625695],[-73.9151744,45.5622029],[-73.9144391,45.5618666],[-73.9133638,45.561399],[-73.9123579,45.5609388]]}";2;Rue Saint-Eustache;2;40;false;false;true;false;false;false;356.0;1;0;0;0;0;false;81054;6119526049;-73.916223;45.562584;81279;6119525384;-73.914657;45.561901;2;37;38;9397355;Bus 89 : GARE /DEUX-MONTAGNES;"";EXO;89 O;Terminus Saint-Eustache;Gare Deux-Montagnes
676886038;"{\"type\":\"LineString\",\"coordinates\":[[-73.9123579,45.5609388],[-73.9139369,45.5596711]]}";1;Boulevard Pie-XII;2;50;false;true;false;false;false;false;188.0;0;0;0;0;0;false;81023;6119526077;-73.912529;45.561005;81280;6119525383;-73.914826;45.558757;2;39;40;9397355;Bus 89 : GARE /DEUX-MONTAGNES;"";EXO;89 O;Terminus Saint-Eustache;Gare Deux-Montagnes
147991059;"{\"type\":\"LineString\",\"coordinates\":[[-73.9139369,45.5596711],[-73.9141897,45.5594725]]}";2;Boulevard Pie-XII;2;50;false;true;false;false;false;false;30.0;0;0;0;0;0;false;81023;6119526077;-73.912529;45.561005;81280;6119525383;-73.914826;45.558757;0;39;40;9397355;Bus 89 : GARE /DEUX-MONTAGNES;"";EXO;89 O;Terminus Saint-Eustache;Gare Deux-Montagnes
147991061;"{\"type\":\"LineString\",\"coordinates\":[[-73.9141897,45.5594725],[-73.9143236,45.5593553],[-73.9144569,45.5591951],[-73.9147639,45.558559]]}";3;Boulevard Pie-XII;2;50;false;true;false;false;false;false;112.0;0;0;0;0;0;false;81023;6119526077;-73.912529;45.561005;81280;6119525383;-73.914826;45.558757;2;39;40;9397355;Bus 89 : GARE /DEUX-MONTAGNES;"";EXO;89 O;Terminus Saint-Eustache;Gare Deux-Montagnes
147991061;"{\"type\":\"LineString\",\"coordinates\":[[-73.9141897,45.5594725],[-73.9143236,45.5593553],[-73.9144569,45.5591951],[-73.9147639,45.558559]]}";1;Boulevard Pie-XII;2;50;false;true;false;false;false;false;56.0;0;0;0;0;0;false;81280;6119525383;-73.914826;45.558757;81218;6119525732;-73.915441;45.556915;1;40;41;9397355;Bus 89 : GARE /DEUX-MONTAGNES;"";EXO;89 O;Terminus Saint-Eustache;Gare Deux-Montagnes
147785251;"{\"type\":\"LineString\",\"coordinates\":[[-73.9147639,45.558559],[-73.9148699,45.5582871],[-73.9151955,45.5574379]]}";2;Boulevard de Deux-Montagnes;2;50;false;true;false;false;false;false;129.0;0;0;0;0;0;false;81280;6119525383;-73.914826;45.558757;81218;6119525732;-73.915441;45.556915;0;40;41;9397355;Bus 89 : GARE /DEUX-MONTAGNES;"";EXO;89 O;Terminus Saint-Eustache;Gare Deux-Montagnes
124074646;"{\"type\":\"LineString\",\"coordinates\":[[-73.9151955,45.5574379],[-73.9153252,45.5570586],[-73.9154018,45.5568216],[-73.9154505,45.5563803],[-73.9154527,45.5559455],[-73.915433,45.5555434],[-73.9152775,45.5549424],[-73.9147832,45.5535636],[-73.9145026,45.5528318],[-73.9142352,45.5520822],[-73.9139435,45.5512603],[-73.9136765,45.5504927],[-73.913379,45.5497135],[-73.9132062,45.5492983],[-73.9129933,45.548713],[-73.9125162,45.5473831],[-73.9122769,45.5467107]]}";3;Boulevard de Deux-Montagnes;1;50;false;true;false;false;false;false;612.0;0;0;0;0;0;false;81280;6119525383;-73.914826;45.558757;81218;6119525732;-73.915441;45.556915;1;40;41;9397355;Bus 89 : GARE /DEUX-MONTAGNES;"";EXO;89 O;Terminus Saint-Eustache;Gare Deux-Montagnes
742610247;"{\"type\":\"LineString\",\"coordinates\":[[-73.9122769,45.5467107],[-73.9122582,45.5466583]]}";1;Boulevard de Deux-Montagnes;1;50;false;true;false;false;false;false;6.0;0;0;0;0;0;false;80032;6119527372;-73.912371;45.546702;81013;4335419374;-73.912033;45.545111;2;45;46;9397355;Bus 89 : GARE /DEUX-MONTAGNES;"";EXO;89 O;Terminus Saint-Eustache;Gare Deux-Montagnes
676886070;"{\"type\":\"LineString\",\"coordinates\":[[-73.9122582,45.5466583],[-73.9120456,45.5460012],[-73.9120217,45.5457624],[-73.9120127,45.5456723],[-73.9120124,45.5456287],[-73.9120075,45.5455503],[-73.9119882,45.545256]]}";2;Boulevard de Deux-Montagnes;1;50;false;true;false;false;false;false;158.0;0;0;0;0;0;false;80032;6119527372;-73.912371;45.546702;81013;4335419374;-73.912033;45.545111;0;45;46;9397355;Bus 89 : GARE /DEUX-MONTAGNES;"";EXO;89 O;Terminus Saint-Eustache;Gare Deux-Montagnes
676890374;"{\"type\":\"LineString\",\"coordinates\":[[-73.9119882,45.545256],[-73.9119794,45.545115]]}";3;Boulevard de Deux-Montagnes;1;50;false;true;false;false;false;false;16.0;0;0;0;0;0;false;80032;6119527372;-73.912371;45.546702;81013;4335419374;-73.912033;45.545111;1;45;46;9397355;Bus 89 : GARE /DEUX-MONTAGNES;"";EXO;89 O;Terminus Saint-Eustache;Gare Deux-Montagnes
