way_id;shape;index;name;nb_lanes;legal_speed;speed_zone_30;oneway;shares_bike;bike_box;bus_lane;dedicated_bus_lane;length;nb_traffic_signals;nb_crossings;nb_stops;nb_give_ways;nb_lvl_crossings;roundabout;stop_id_orig;node_id_orig;coord_x_orig;coord_y_orig;stop_id_dest;node_id_dest;coord_x_dest;coord_y_dest;nb_neighbouring_ways_bus_stop;ordre_orig;ordre_dest;id_line;line_name;colour;operator;ref;from;to
476497924;"{\"type\":\"LineString\",\"coordinates\":[[-73.5866448,45.5264053],[-73.5869462,45.5265366],[-73.5872194,45.5266555]]}";1;Rue Rivard;1;50;false;true;true;false;false;false;53.0;0;0;0;0;0;false;51974;1743386436;-73.586331;45.526764;61299;5138768221;-73.5876434;45.528923;1;0;1;4629688;Bus 47 : Masson Est;"";STM;47-E;Station Laurier Sud (Gilford / Berri);Laurier / Jeanne-d'Arc
537573934;"{\"type\":\"LineString\",\"coordinates\":[[-73.5872194,45.5266555],[-73.5873044,45.5266925],[-73.5873744,45.526723]]}";2;Rue Rivard;1;50;false;true;true;false;false;false;15.0;0;0;0;0;0;false;51974;1743386436;-73.586331;45.526764;61299;5138768221;-73.5876434;45.528923;0;0;1;4629688;Bus 47 : Masson Est;"";STM;47-E;Station Laurier Sud (Gilford / Berri);Laurier / Jeanne-d'Arc
330301176;"{\"type\":\"LineString\",\"coordinates\":[[-73.5873744,45.526723],[-73.5870802,45.5270603],[-73.5868573,45.5273158],[-73.5868255,45.5273522],[-73.5868053,45.5273754]]}";3;Boulevard Saint-Joseph Est;2;50;false;true;true;false;false;false;85.0;1;0;0;0;0;false;51974;1743386436;-73.586331;45.526764;61299;5138768221;-73.5876434;45.528923;0;0;1;4629688;Bus 47 : Masson Est;"";STM;47-E;Station Laurier Sud (Gilford / Berri);Laurier / Jeanne-d'Arc
173966352;"{\"type\":\"LineString\",\"coordinates\":[[-73.5868053,45.5273754],[-73.5867349,45.5274471],[-73.5864449,45.5277426],[-73.5864149,45.5277731]]}";4;Boulevard Saint-Joseph Est;2;50;false;true;true;false;false;false;54.0;1;1;0;0;0;false;51974;1743386436;-73.586331;45.526764;61299;5138768221;-73.5876434;45.528923;0;0;1;4629688;Bus 47 : Masson Est;"";STM;47-E;Station Laurier Sud (Gilford / Berri);Laurier / Jeanne-d'Arc
463886938;"{\"type\":\"LineString\",\"coordinates\":[[-73.5864149,45.5277731],[-73.586047,45.5281676],[-73.5860259,45.5281902]]}";5;Boulevard Saint-Joseph Est;2;50;false;true;true;false;false;false;56.0;1;0;0;0;0;false;51974;1743386436;-73.586331;45.526764;61299;5138768221;-73.5876434;45.528923;0;0;1;4629688;Bus 47 : Masson Est;"";STM;47-E;Station Laurier Sud (Gilford / Berri);Laurier / Jeanne-d'Arc
463886937;"{\"type\":\"LineString\",\"coordinates\":[[-73.5860259,45.5281902],[-73.5861637,45.5282547]]}";6;Rue Saint-Hubert;1;50;false;true;true;false;false;false;13.0;0;0;0;0;0;false;51974;1743386436;-73.586331;45.526764;61299;5138768221;-73.5876434;45.528923;0;0;1;4629688;Bus 47 : Masson Est;"";STM;47-E;Station Laurier Sud (Gilford / Berri);Laurier / Jeanne-d'Arc
330301179;"{\"type\":\"LineString\",\"coordinates\":[[-73.5861637,45.5282547],[-73.5865523,45.5284253],[-73.5866045,45.5284483],[-73.5874215,45.528807],[-73.5876493,45.528907],[-73.5877643,45.5289575]]}";7;Rue Saint-Hubert;1;50;false;true;true;false;false;false;74.0;1;1;0;0;0;false;51974;1743386436;-73.586331;45.526764;61299;5138768221;-73.5876434;45.528923;1;0;1;4629688;Bus 47 : Masson Est;"";STM;47-E;Station Laurier Sud (Gilford / Berri);Laurier / Jeanne-d'Arc
128246068;"{\"type\":\"LineString\",\"coordinates\":[[-73.5877643,45.5289575],[-73.5881646,45.5291348],[-73.5881951,45.5291447],[-73.5885127,45.5292479]]}";1;Rue Saint-Hubert;2;50;false;true;true;false;false;false;67.0;0;1;0;0;0;false;61299;5138768221;-73.5876434;45.528923;61301;5138780521;-73.5917059;45.5307331;2;1;2;4629688;Bus 47 : Masson Est;"";STM;47-E;Station Laurier Sud (Gilford / Berri);Laurier / Jeanne-d'Arc
142776465;"{\"type\":\"LineString\",\"coordinates\":[[-73.5885127,45.5292479],[-73.5900909,45.5299572],[-73.5919416,45.5307666]]}";2;Rue Saint-Hubert;1;50;false;false;true;false;false;false;317.0;2;0;0;0;0;false;61299;5138768221;-73.5876434;45.528923;61301;5138780521;-73.5917059;45.5307331;2;1;2;4629688;Bus 47 : Masson Est;"";STM;47-E;Station Laurier Sud (Gilford / Berri);Laurier / Jeanne-d'Arc
464944649;"{\"type\":\"LineString\",\"coordinates\":[[-73.5919416,45.5307666],[-73.5916792,45.531062],[-73.5914543,45.5313151]]}";1;Rue Saint-Grégoire;1;50;false;false;true;false;false;false;72.0;1;0;0;0;0;false;61301;5138780521;-73.5917059;45.5307331;61370;6010968635;-73.590915;45.531758;2;2;3;4629688;Bus 47 : Masson Est;"";STM;47-E;Station Laurier Sud (Gilford / Berri);Laurier / Jeanne-d'Arc
19939021;"{\"type\":\"LineString\",\"coordinates\":[[-73.5914543,45.5313151],[-73.5911709,45.5316054],[-73.591147,45.5316298],[-73.5908874,45.5318957]]}";2;Rue Saint-Grégoire;1;50;false;false;true;false;false;false;79.0;1;0;0;0;0;false;61301;5138780521;-73.5917059;45.5307331;61370;6010968635;-73.590915;45.531758;2;2;3;4629688;Bus 47 : Masson Est;"";STM;47-E;Station Laurier Sud (Gilford / Berri);Laurier / Jeanne-d'Arc
239893804;"{\"type\":\"LineString\",\"coordinates\":[[-73.5908874,45.5318957],[-73.5907771,45.5320186],[-73.5903407,45.5325047],[-73.5902981,45.5325507],[-73.5902923,45.532557],[-73.5902435,45.5326097]]}";1;Rue Saint-Grégoire;1;30;false;false;false;false;false;false;94.0;2;0;0;0;0;false;61370;6010968635;-73.590915;45.531758;61302;5138780522;-73.58816;45.5346991;2;3;4;4629688;Bus 47 : Masson Est;"";STM;47-E;Station Laurier Sud (Gilford / Berri);Laurier / Jeanne-d'Arc
236746031;"{\"type\":\"LineString\",\"coordinates\":[[-73.5902435,45.5326097],[-73.5901619,45.532699],[-73.5899778,45.5329006]]}";2;Rue Saint-Grégoire;1;30;false;false;true;false;false;false;39.0;1;0;0;0;0;false;61370;6010968635;-73.590915;45.531758;61302;5138780522;-73.58816;45.5346991;0;3;4;4629688;Bus 47 : Masson Est;"";STM;47-E;Station Laurier Sud (Gilford / Berri);Laurier / Jeanne-d'Arc
189587739;"{\"type\":\"LineString\",\"coordinates\":[[-73.5899778,45.5329006],[-73.5891329,45.533796],[-73.5888871,45.5340633],[-73.5888062,45.5341486],[-73.5887392,45.534219]]}";3;Rue Saint-Grégoire;1;30;false;false;false;false;false;false;176.0;0;0;0;0;0;false;61370;6010968635;-73.590915;45.531758;61302;5138780522;-73.58816;45.5346991;0;3;4;4629688;Bus 47 : Masson Est;"";STM;47-E;Station Laurier Sud (Gilford / Berri);Laurier / Jeanne-d'Arc
729922592;"{\"type\":\"LineString\",\"coordinates\":[[-73.5887392,45.534219],[-73.5887249,45.5342341],[-73.5886903,45.5342707]]}";4;Rue Saint-Grégoire;1;30;false;false;true;false;false;false;7.0;1;0;0;0;0;false;61370;6010968635;-73.590915;45.531758;61302;5138780522;-73.58816;45.5346991;0;3;4;4629688;Bus 47 : Masson Est;"";STM;47-E;Station Laurier Sud (Gilford / Berri);Laurier / Jeanne-d'Arc
464944655;"{\"type\":\"LineString\",\"coordinates\":[[-73.5886903,45.5342707],[-73.5884471,45.5345323],[-73.5881918,45.5348106]]}";5;Rue Saint-Grégoire;1;30;false;false;true;false;false;false;72.0;1;0;0;0;0;false;61370;6010968635;-73.590915;45.531758;61302;5138780522;-73.58816;45.5346991;2;3;4;4629688;Bus 47 : Masson Est;"";STM;47-E;Station Laurier Sud (Gilford / Berri);Laurier / Jeanne-d'Arc
464944644;"{\"type\":\"LineString\",\"coordinates\":[[-73.5881918,45.5348106],[-73.587803,45.5352318],[-73.5877842,45.5352521]]}";1;Rue Saint-Grégoire;1;30;false;false;true;false;false;false;59.0;0;0;0;0;0;false;61302;5138780522;-73.58816;45.5346991;51930;5138780621;-73.587229;45.535747;2;4;5;4629688;Bus 47 : Masson Est;"";STM;47-E;Station Laurier Sud (Gilford / Berri);Laurier / Jeanne-d'Arc
464944653;"{\"type\":\"LineString\",\"coordinates\":[[-73.5877842,45.5352521],[-73.58751,45.5355546],[-73.587227,45.5358523]]}";2;Rue Saint-Grégoire;1;30;false;false;true;false;false;false;80.0;1;0;0;0;0;false;61302;5138780522;-73.58816;45.5346991;51930;5138780621;-73.587229;45.535747;2;4;5;4629688;Bus 47 : Masson Est;"";STM;47-E;Station Laurier Sud (Gilford / Berri);Laurier / Jeanne-d'Arc
464944650;"{\"type\":\"LineString\",\"coordinates\":[[-73.587227,45.5358523],[-73.586943,45.5361497]]}";1;Rue Saint-Grégoire;1;30;false;false;true;false;false;false;40.0;1;0;0;0;0;false;51930;5138780621;-73.587229;45.535747;51976;6010965250;-73.585717;45.537343;2;5;6;4629688;Bus 47 : Masson Est;"";STM;47-E;Station Laurier Sud (Gilford / Berri);Laurier / Jeanne-d'Arc
488190667;"{\"type\":\"LineString\",\"coordinates\":[[-73.586943,45.5361497],[-73.5866163,45.5364918]]}";2;Rue Saint-Grégoire;1;30;false;false;true;false;false;false;46.0;0;0;0;0;0;false;51930;5138780621;-73.587229;45.535747;51976;6010965250;-73.585717;45.537343;0;5;6;4629688;Bus 47 : Masson Est;"";STM;47-E;Station Laurier Sud (Gilford / Berri);Laurier / Jeanne-d'Arc
189587738;"{\"type\":\"LineString\",\"coordinates\":[[-73.5866163,45.5364918],[-73.5863003,45.5368259],[-73.5861115,45.5370254],[-73.5859802,45.5371652],[-73.585711,45.5374481],[-73.585363,45.5378072],[-73.5852832,45.5378896]]}";3;Rue Saint-Grégoire;1;30;false;false;true;false;false;false;187.0;1;0;0;0;0;false;51930;5138780621;-73.587229;45.535747;51976;6010965250;-73.585717;45.537343;2;5;6;4629688;Bus 47 : Masson Est;"";STM;47-E;Station Laurier Sud (Gilford / Berri);Laurier / Jeanne-d'Arc
189587738;"{\"type\":\"LineString\",\"coordinates\":[[-73.5866163,45.5364918],[-73.5863003,45.5368259],[-73.5861115,45.5370254],[-73.5859802,45.5371652],[-73.585711,45.5374481],[-73.585363,45.5378072],[-73.5852832,45.5378896]]}";1;Rue Saint-Grégoire;1;30;false;false;true;false;false;false;93.5;1;0;0;0;0;false;51976;6010965250;-73.585717;45.537343;52043;5138780523;-73.583509;45.5375542;1;6;7;4629688;Bus 47 : Masson Est;"";STM;47-E;Station Laurier Sud (Gilford / Berri);Laurier / Jeanne-d'Arc
330301182;"{\"type\":\"LineString\",\"coordinates\":[[-73.58391,45.5372524],[-73.5848341,45.5376832],[-73.5852832,45.5378896]]}";2;Avenue Papineau;4;50;false;false;true;false;false;false;129.0;2;0;0;0;0;false;51976;6010965250;-73.585717;45.537343;52043;5138780523;-73.583509;45.5375542;0;6;7;4629688;Bus 47 : Masson Est;"";STM;47-E;Station Laurier Sud (Gilford / Berri);Laurier / Jeanne-d'Arc
19939508;"{\"type\":\"LineString\",\"coordinates\":[[-73.58391,45.5372524],[-73.583552,45.537643],[-73.583274,45.5379462],[-73.5828264,45.5384255]]}";3;Rue Masson;1;30;false;false;true;false;false;false;78.0;1;0;1;0;0;false;51976;6010965250;-73.585717;45.537343;52043;5138780523;-73.583509;45.5375542;1;6;7;4629688;Bus 47 : Masson Est;"";STM;47-E;Station Laurier Sud (Gilford / Berri);Laurier / Jeanne-d'Arc
19939508;"{\"type\":\"LineString\",\"coordinates\":[[-73.58391,45.5372524],[-73.583552,45.537643],[-73.583274,45.5379462],[-73.5828264,45.5384255]]}";1;Rue Masson;1;30;false;false;true;false;false;false;78.0;1;0;1;0;0;false;52043;5138780523;-73.583509;45.5375542;52090;5138773922;-73.5818463;45.5393228;1;7;8;4629688;Bus 47 : Masson Est;"";STM;47-E;Station Laurier Sud (Gilford / Berri);Laurier / Jeanne-d'Arc
236940244;"{\"type\":\"LineString\",\"coordinates\":[[-73.5828264,45.5384255],[-73.5823389,45.5389257]]}";2;Rue Masson;1;30;false;false;false;false;false;false;68.0;0;0;1;0;0;false;52043;5138780523;-73.583509;45.5375542;52090;5138773922;-73.5818463;45.5393228;0;7;8;4629688;Bus 47 : Masson Est;"";STM;47-E;Station Laurier Sud (Gilford / Berri);Laurier / Jeanne-d'Arc
236937856;"{\"type\":\"LineString\",\"coordinates\":[[-73.5823389,45.5389257],[-73.5817489,45.5395123]]}";3;Rue Masson;1;50;false;false;false;false;false;false;40.0;0;0;0;0;0;false;52043;5138780523;-73.583509;45.5375542;52090;5138773922;-73.5818463;45.5393228;1;7;8;4629688;Bus 47 : Masson Est;"";STM;47-E;Station Laurier Sud (Gilford / Berri);Laurier / Jeanne-d'Arc
236937856;"{\"type\":\"LineString\",\"coordinates\":[[-73.5823389,45.5389257],[-73.5817489,45.5395123]]}";1;Rue Masson;1;50;false;false;false;false;false;false;40.0;0;0;0;0;0;false;52090;5138773922;-73.5818463;45.5393228;52190;5138780722;-73.5783019;45.5427635;1;8;9;4629688;Bus 47 : Masson Est;"";STM;47-E;Station Laurier Sud (Gilford / Berri);Laurier / Jeanne-d'Arc
20221024;"{\"type\":\"LineString\",\"coordinates\":[[-73.5817489,45.5395123],[-73.5815953,45.539559],[-73.5813293,45.5398081],[-73.5813193,45.5398151],[-73.5809781,45.5400531],[-73.5799364,45.5410637]]}";2;Rue Masson;1;30;false;true;false;false;false;false;225.0;0;0;0;0;0;false;52090;5138773922;-73.5818463;45.5393228;52190;5138780722;-73.5783019;45.5427635;0;8;9;4629688;Bus 47 : Masson Est;"";STM;47-E;Station Laurier Sud (Gilford / Berri);Laurier / Jeanne-d'Arc
27208087;"{\"type\":\"LineString\",\"coordinates\":[[-73.5799364,45.5410637],[-73.5793106,45.5417444]]}";3;Rue Masson;1;30;false;true;false;false;false;false;90.0;0;0;0;0;0;false;52090;5138773922;-73.5818463;45.5393228;52190;5138780722;-73.5783019;45.5427635;0;8;9;4629688;Bus 47 : Masson Est;"";STM;47-E;Station Laurier Sud (Gilford / Berri);Laurier / Jeanne-d'Arc
454213136;"{\"type\":\"LineString\",\"coordinates\":[[-73.5793106,45.5417444],[-73.5782996,45.5428317]]}";4;Rue Masson;2;40;false;true;false;false;false;false;72.5;0;0;0;0;0;false;52090;5138773922;-73.5818463;45.5393228;52190;5138780722;-73.5783019;45.5427635;1;8;9;4629688;Bus 47 : Masson Est;"";STM;47-E;Station Laurier Sud (Gilford / Berri);Laurier / Jeanne-d'Arc
304120319;"{\"type\":\"LineString\",\"coordinates\":[[-73.5782996,45.5428317],[-73.5781825,45.5429581],[-73.578123,45.5430222]]}";1;Rue Masson;2;40;false;true;false;false;false;false;26.0;1;1;0;0;0;false;52190;5138780722;-73.5783019;45.5427635;61698;5138773923;-73.5771657;45.5442494;2;9;10;4629688;Bus 47 : Masson Est;"";STM;47-E;Station Laurier Sud (Gilford / Berri);Laurier / Jeanne-d'Arc
454213135;"{\"type\":\"LineString\",\"coordinates\":[[-73.578123,45.5430222],[-73.5780427,45.5431132],[-73.5775766,45.5436416]]}";2;Rue Masson;2;40;false;true;false;false;false;false;81.0;1;1;0;0;0;false;52190;5138780722;-73.5783019;45.5427635;61698;5138773923;-73.5771657;45.5442494;0;9;10;4629688;Bus 47 : Masson Est;"";STM;47-E;Station Laurier Sud (Gilford / Berri);Laurier / Jeanne-d'Arc
304120318;"{\"type\":\"LineString\",\"coordinates\":[[-73.5775766,45.5436416],[-73.5773034,45.5441156]]}";3;Rue Masson;1;40;false;false;false;false;false;false;57.0;0;0;0;0;0;false;52190;5138780722;-73.5783019;45.5427635;61698;5138773923;-73.5771657;45.5442494;0;9;10;4629688;Bus 47 : Masson Est;"";STM;47-E;Station Laurier Sud (Gilford / Berri);Laurier / Jeanne-d'Arc
463678720;"{\"type\":\"LineString\",\"coordinates\":[[-73.5773034,45.5441156],[-73.5765762,45.5453085]]}";4;Rue Masson;1;40;false;false;true;false;false;false;145.0;0;0;0;0;0;false;52190;5138780722;-73.5783019;45.5427635;61698;5138773923;-73.5771657;45.5442494;2;9;10;4629688;Bus 47 : Masson Est;"";STM;47-E;Station Laurier Sud (Gilford / Berri);Laurier / Jeanne-d'Arc
304120318;"{\"type\":\"LineString\",\"coordinates\":[[-73.5775766,45.5436416],[-73.5773034,45.5441156]]}";1;Rue Masson;1;40;false;false;false;false;false;false;57.0;0;0;0;0;0;false;61698;5138773923;-73.5771657;45.5442494;52248;5138780524;-73.5762182;45.5457478;2;10;11;4629688;Bus 47 : Masson Est;"";STM;47-E;Station Laurier Sud (Gilford / Berri);Laurier / Jeanne-d'Arc
463678720;"{\"type\":\"LineString\",\"coordinates\":[[-73.5773034,45.5441156],[-73.5765762,45.5453085]]}";2;Rue Masson;1;40;false;false;true;false;false;false;145.0;0;0;0;0;0;false;61698;5138773923;-73.5771657;45.5442494;52248;5138780524;-73.5762182;45.5457478;0;10;11;4629688;Bus 47 : Masson Est;"";STM;47-E;Station Laurier Sud (Gilford / Berri);Laurier / Jeanne-d'Arc
463678719;"{\"type\":\"LineString\",\"coordinates\":[[-73.5765762,45.5453085],[-73.5762308,45.5458704]]}";3;Rue Masson;1;40;false;false;true;false;false;false;68.0;0;0;0;0;0;false;61698;5138773923;-73.5771657;45.5442494;52248;5138780524;-73.5762182;45.5457478;2;10;11;4629688;Bus 47 : Masson Est;"";STM;47-E;Station Laurier Sud (Gilford / Berri);Laurier / Jeanne-d'Arc
463678718;"{\"type\":\"LineString\",\"coordinates\":[[-73.5762308,45.5458704],[-73.5759046,45.5464054]]}";1;Rue Masson;1;40;false;false;true;false;false;false;65.0;0;0;0;0;0;false;52248;5138780524;-73.5762182;45.5457478;52270;5138773924;-73.5755719;45.5468737;2;11;12;4629688;Bus 47 : Masson Est;"";STM;47-E;Station Laurier Sud (Gilford / Berri);Laurier / Jeanne-d'Arc
463678714;"{\"type\":\"LineString\",\"coordinates\":[[-73.5759046,45.5464054],[-73.575567,45.5469763]]}";2;Rue Masson;1;40;false;false;true;false;false;false;69.0;0;0;0;0;0;false;52248;5138780524;-73.5762182;45.5457478;52270;5138773924;-73.5755719;45.5468737;2;11;12;4629688;Bus 47 : Masson Est;"";STM;47-E;Station Laurier Sud (Gilford / Berri);Laurier / Jeanne-d'Arc
463678717;"{\"type\":\"LineString\",\"coordinates\":[[-73.575567,45.5469763],[-73.5752249,45.5475199]]}";1;Rue Masson;1;40;false;false;true;false;false;false;67.0;0;0;0;0;0;false;52270;5138773924;-73.5755719;45.5468737;52299;5138773925;-73.5745481;45.5485341;2;12;13;4629688;Bus 47 : Masson Est;"";STM;47-E;Station Laurier Sud (Gilford / Berri);Laurier / Jeanne-d'Arc
463678716;"{\"type\":\"LineString\",\"coordinates\":[[-73.5752249,45.5475199],[-73.5748827,45.5480811],[-73.5745369,45.548648]]}";2;Rue Masson;1;40;false;false;true;false;false;false;137.0;0;0;0;0;0;false;52270;5138773924;-73.5755719;45.5468737;52299;5138773925;-73.5745481;45.5485341;2;12;13;4629688;Bus 47 : Masson Est;"";STM;47-E;Station Laurier Sud (Gilford / Berri);Laurier / Jeanne-d'Arc
463678715;"{\"type\":\"LineString\",\"coordinates\":[[-73.5745369,45.548648],[-73.5741919,45.5492139]]}";1;Rue Masson;1;40;false;false;true;false;false;false;69.0;0;0;0;0;0;false;52299;5138773925;-73.5745481;45.5485341;52317;6010976323;-73.573869;45.549632;2;13;14;4629688;Bus 47 : Masson Est;"";STM;47-E;Station Laurier Sud (Gilford / Berri);Laurier / Jeanne-d'Arc
374137277;"{\"type\":\"LineString\",\"coordinates\":[[-73.5741919,45.5492139],[-73.5738685,45.5497441],[-73.5735239,45.5503092],[-73.5731437,45.5509897],[-73.5727793,45.5515736],[-73.5724591,45.5521518],[-73.5721376,45.5527415],[-73.5718294,45.5533172],[-73.5715119,45.5539277]]}";2;Rue Masson;1;40;false;false;true;false;false;false;564.0;0;0;0;0;0;false;52299;5138773925;-73.5745481;45.5485341;52317;6010976323;-73.573869;45.549632;2;13;14;4629688;Bus 47 : Masson Est;"";STM;47-E;Station Laurier Sud (Gilford / Berri);Laurier / Jeanne-d'Arc
460708331;"{\"type\":\"LineString\",\"coordinates\":[[-73.5715119,45.5539277],[-73.5711605,45.554593]]}";1;Rue Masson;1;40;false;false;true;false;false;false;79.0;0;0;0;0;0;false;52392;6010973767;-73.571509;45.553796;52426;6010977579;-73.570429;45.555825;2;17;18;4629688;Bus 47 : Masson Est;"";STM;47-E;Station Laurier Sud (Gilford / Berri);Laurier / Jeanne-d'Arc
460708330;"{\"type\":\"LineString\",\"coordinates\":[[-73.5711605,45.554593],[-73.5707946,45.5552788]]}";2;Rue Masson;1;40;false;false;true;false;false;false;82.0;0;0;0;0;0;false;52392;6010973767;-73.571509;45.553796;52426;6010977579;-73.570429;45.555825;0;17;18;4629688;Bus 47 : Masson Est;"";STM;47-E;Station Laurier Sud (Gilford / Berri);Laurier / Jeanne-d'Arc
460708329;"{\"type\":\"LineString\",\"coordinates\":[[-73.5707946,45.5552788],[-73.5704352,45.5559637]]}";3;Rue Masson;1;40;false;false;true;false;false;false;82.0;0;0;0;0;0;false;52392;6010973767;-73.571509;45.553796;52426;6010977579;-73.570429;45.555825;2;17;18;4629688;Bus 47 : Masson Est;"";STM;47-E;Station Laurier Sud (Gilford / Berri);Laurier / Jeanne-d'Arc
460708599;"{\"type\":\"LineString\",\"coordinates\":[[-73.5704352,45.5559637],[-73.5700584,45.55661]]}";1;Rue Masson;1;40;false;false;true;false;false;false;78.0;0;0;0;0;0;false;52426;6010977579;-73.570429;45.555825;52465;6010968618;-73.569304;45.557641;2;18;19;4629688;Bus 47 : Masson Est;"";STM;47-E;Station Laurier Sud (Gilford / Berri);Laurier / Jeanne-d'Arc
460708598;"{\"type\":\"LineString\",\"coordinates\":[[-73.5700584,45.55661],[-73.5696577,45.5571847]]}";2;Rue Masson;1;40;false;false;true;false;false;false;72.0;0;0;0;0;0;false;52426;6010977579;-73.570429;45.555825;52465;6010968618;-73.569304;45.557641;0;18;19;4629688;Bus 47 : Masson Est;"";STM;47-E;Station Laurier Sud (Gilford / Berri);Laurier / Jeanne-d'Arc
460708597;"{\"type\":\"LineString\",\"coordinates\":[[-73.5696577,45.5571847],[-73.5692868,45.5577804]]}";3;Rue Masson;1;40;false;false;true;false;false;false;73.0;0;0;0;0;0;false;52426;6010977579;-73.570429;45.555825;52465;6010968618;-73.569304;45.557641;2;18;19;4629688;Bus 47 : Masson Est;"";STM;47-E;Station Laurier Sud (Gilford / Berri);Laurier / Jeanne-d'Arc
330301189;"{\"type\":\"LineString\",\"coordinates\":[[-73.5684913,45.558994],[-73.5680572,45.5588548],[-73.5668848,45.5584891]]}";1;Boulevard Pie-IX;3;50;false;true;true;false;false;false;138.0;1;0;0;0;0;false;52497;6010969173;-73.56851;45.558841;52578;5062144321;-73.5660844;45.5575517;2;20;21;4629688;Bus 47 : Masson Est;"";STM;47-E;Station Laurier Sud (Gilford / Berri);Laurier / Jeanne-d'Arc
460563640;"{\"type\":\"LineString\",\"coordinates\":[[-73.5668848,45.5584891],[-73.5665968,45.5583582],[-73.5656438,45.558055]]}";2;Boulevard Pie-IX;2;50;false;true;true;false;false;false;109.0;0;0;0;0;0;false;52497;6010969173;-73.56851;45.558841;52578;5062144321;-73.5660844;45.5575517;0;20;21;4629688;Bus 47 : Masson Est;"";STM;47-E;Station Laurier Sud (Gilford / Berri);Laurier / Jeanne-d'Arc
330153493;"{\"type\":\"LineString\",\"coordinates\":[[-73.5656438,45.558055],[-73.5657106,45.557954]]}";3;Avenue Laurier Est;1;50;false;false;true;false;false;false;13.0;0;0;0;0;0;false;52497;6010969173;-73.56851;45.558841;52578;5062144321;-73.5660844;45.5575517;0;20;21;4629688;Bus 47 : Masson Est;"";STM;47-E;Station Laurier Sud (Gilford / Berri);Laurier / Jeanne-d'Arc
330153484;"{\"type\":\"LineString\",\"coordinates\":[[-73.5657106,45.557954],[-73.5658444,45.5577519],[-73.5658818,45.5576954],[-73.5659068,45.5576576],[-73.5659674,45.5575805]]}";4;Avenue Laurier Est;1;50;false;false;true;false;false;false;47.0;0;0;0;0;0;false;52497;6010969173;-73.56851;45.558841;52578;5062144321;-73.5660844;45.5575517;1;20;21;4629688;Bus 47 : Masson Est;"";STM;47-E;Station Laurier Sud (Gilford / Berri);Laurier / Jeanne-d'Arc
