way_id;shape;index;name;nb_lanes;legal_speed;speed_zone_30;oneway;shares_bike;bike_box;bus_lane;dedicated_bus_lane;length;nb_traffic_signals;nb_crossings;nb_stops;nb_give_ways;nb_lvl_crossings;roundabout;stop_id_orig;node_id_orig;coord_x_orig;coord_y_orig;stop_id_dest;node_id_dest;coord_x_dest;coord_y_dest;nb_neighbouring_ways_bus_stop;ordre_orig;ordre_dest;id_line;line_name;colour;operator;ref;from;to
681725016;"{\"type\":\"LineString\",\"coordinates\":[[-73.5015983,45.7181182],[-73.5018535,45.718082]]}";1;Rue des Migrateurs;1;50;false;true;true;false;false;false;21.0;0;0;0;0;0;false;85016;6129482219;-73.501804;45.718156;85102;6129481660;-73.503053;45.716279;1;0;1;9437998;Bus 11 : TERMINUS TERREBONNE;"";EXO;11 O;Des Migrateurs/Walmart;Terminus Terrebonne
679842990;"{\"type\":\"LineString\",\"coordinates\":[[-73.5018535,45.718082],[-73.5021671,45.7179746],[-73.5026307,45.7176949],[-73.5032849,45.7171221],[-73.5036382,45.7167877],[-73.503696,45.7167418]]}";2;Rue des Migrateurs;1;50;false;true;true;false;false;false;210.0;0;0;0;0;0;false;85016;6129482219;-73.501804;45.718156;85102;6129481660;-73.503053;45.716279;0;0;1;9437998;Bus 11 : TERMINUS TERREBONNE;"";EXO;11 O;Des Migrateurs/Walmart;Terminus Terrebonne
679842970;"{\"type\":\"LineString\",\"coordinates\":[[-73.503696,45.7167418],[-73.5035804,45.7166742]]}";3;Rue du Bruant;1;50;false;false;true;false;false;false;12.0;0;0;0;0;0;false;85016;6129482219;-73.501804;45.718156;85102;6129481660;-73.503053;45.716279;0;0;1;9437998;Bus 11 : TERMINUS TERREBONNE;"";EXO;11 O;Des Migrateurs/Walmart;Terminus Terrebonne
177365959;"{\"type\":\"LineString\",\"coordinates\":[[-73.5035804,45.7166742],[-73.5029292,45.7163377],[-73.5021185,45.7158764],[-73.5017605,45.7156939],[-73.5016605,45.7156665],[-73.5015508,45.7156561],[-73.5014591,45.7156511],[-73.5013462,45.7156597],[-73.4999259,45.7160611]]}";4;Rue du Bruant;1;50;false;false;true;false;false;false;331.0;0;0;0;0;0;false;85016;6129482219;-73.501804;45.718156;85102;6129481660;-73.503053;45.716279;2;0;1;9437998;Bus 11 : TERMINUS TERREBONNE;"";EXO;11 O;Des Migrateurs/Walmart;Terminus Terrebonne
177365959;"{\"type\":\"LineString\",\"coordinates\":[[-73.5035804,45.7166742],[-73.5029292,45.7163377],[-73.5021185,45.7158764],[-73.5017605,45.7156939],[-73.5016605,45.7156665],[-73.5015508,45.7156561],[-73.5014591,45.7156511],[-73.5013462,45.7156597],[-73.4999259,45.7160611]]}";1;Rue du Bruant;1;50;false;false;true;false;false;false;165.5;0;0;0;0;0;false;85013;6129482221;-73.500133;45.715909;84796;6127178746;-73.498242;45.713891;1;2;3;9437998;Bus 11 : TERMINUS TERREBONNE;"";EXO;11 O;Des Migrateurs/Walmart;Terminus Terrebonne
177365956;"{\"type\":\"LineString\",\"coordinates\":[[-73.4999259,45.7160611],[-73.4994471,45.7152691]]}";2;Rue du Chène Blanc;1;50;false;false;true;false;false;false;96.0;0;0;0;0;0;false;85013;6129482221;-73.500133;45.715909;84796;6127178746;-73.498242;45.713891;0;2;3;9437998;Bus 11 : TERMINUS TERREBONNE;"";EXO;11 O;Des Migrateurs/Walmart;Terminus Terrebonne
679842987;"{\"type\":\"LineString\",\"coordinates\":[[-73.4990409,45.7153836],[-73.4990852,45.7153714],[-73.4994471,45.7152691]]}";3;Rue du Campagnol;1;50;false;false;true;false;false;false;35.0;0;0;0;0;0;false;85013;6129482221;-73.500133;45.715909;84796;6127178746;-73.498242;45.713891;0;2;3;9437998;Bus 11 : TERMINUS TERREBONNE;"";EXO;11 O;Des Migrateurs/Walmart;Terminus Terrebonne
177365965;"{\"type\":\"LineString\",\"coordinates\":[[-73.4990409,45.7153836],[-73.4986289,45.714683],[-73.4983143,45.714148],[-73.4981606,45.7138865]]}";4;Allée du Grand-Pic;1;50;false;false;true;false;false;false;90.0;0;0;0;0;0;false;85013;6129482221;-73.500133;45.715909;84796;6127178746;-73.498242;45.713891;1;2;3;9437998;Bus 11 : TERMINUS TERREBONNE;"";EXO;11 O;Des Migrateurs/Walmart;Terminus Terrebonne
474826047;"{\"type\":\"LineString\",\"coordinates\":[[-73.4981606,45.7138865],[-73.4981487,45.7137881],[-73.4980872,45.7136585],[-73.4980964,45.7135668]]}";1;Allée du Grand-Pic;1;50;false;true;true;false;false;false;37.0;0;0;0;0;0;false;84796;6127178746;-73.498242;45.713891;85093;6129481669;-73.512002;45.709807;2;3;4;9437998;Bus 11 : TERMINUS TERREBONNE;"";EXO;11 O;Des Migrateurs/Walmart;Terminus Terrebonne
679842986;"{\"type\":\"LineString\",\"coordinates\":[[-73.4980964,45.7135668],[-73.498109,45.7135448],[-73.4981147,45.7135214]]}";2;"";1;50;false;false;true;false;false;false;6.0;0;0;0;0;0;true;84796;6127178746;-73.498242;45.713891;85093;6129481669;-73.512002;45.709807;0;3;4;9437998;Bus 11 : TERMINUS TERREBONNE;"";EXO;11 O;Des Migrateurs/Walmart;Terminus Terrebonne
474826052;"{\"type\":\"LineString\",\"coordinates\":[[-73.4981147,45.7135214],[-73.4982288,45.7134654],[-73.498431,45.7133924],[-73.4985568,45.7133442]]}";3;Chemin Saint-Charles;1;50;false;true;true;false;false;false;40.0;0;0;0;0;0;false;84796;6127178746;-73.498242;45.713891;85093;6129481669;-73.512002;45.709807;0;3;4;9437998;Bus 11 : TERMINUS TERREBONNE;"";EXO;11 O;Des Migrateurs/Walmart;Terminus Terrebonne
241805717;"{\"type\":\"LineString\",\"coordinates\":[[-73.4985568,45.7133442],[-73.4992076,45.7131492],[-73.5000104,45.7129536],[-73.5007783,45.7127945],[-73.5019699,45.7126269],[-73.5025357,45.712569],[-73.503028,45.7125328],[-73.5036063,45.712503],[-73.5038546,45.7124718],[-73.504045,45.7124332],[-73.5041371,45.7124126]]}";4;Chemin Saint-Charles;2;50;false;false;true;false;false;false;449.0;0;0;0;0;0;false;84796;6127178746;-73.498242;45.713891;85093;6129481669;-73.512002;45.709807;0;3;4;9437998;Bus 11 : TERMINUS TERREBONNE;"";EXO;11 O;Des Migrateurs/Walmart;Terminus Terrebonne
163649768;"{\"type\":\"LineString\",\"coordinates\":[[-73.5041371,45.7124126],[-73.5048155,45.7122039],[-73.5048781,45.7121831],[-73.5049666,45.7121523]]}";5;Chemin Saint-Charles;3;50;false;false;true;false;false;false;71.0;1;1;0;0;0;false;84796;6127178746;-73.498242;45.713891;85093;6129481669;-73.512002;45.709807;0;3;4;9437998;Bus 11 : TERMINUS TERREBONNE;"";EXO;11 O;Des Migrateurs/Walmart;Terminus Terrebonne
163649772;"{\"type\":\"LineString\",\"coordinates\":[[-73.5049666,45.7121523],[-73.505166,45.7120855]]}";6;Chemin Saint-Charles;4;50;false;false;true;false;false;false;18.0;0;0;0;0;0;false;84796;6127178746;-73.498242;45.713891;85093;6129481669;-73.512002;45.709807;0;3;4;9437998;Bus 11 : TERMINUS TERREBONNE;"";EXO;11 O;Des Migrateurs/Walmart;Terminus Terrebonne
163649774;"{\"type\":\"LineString\",\"coordinates\":[[-73.505166,45.7120855],[-73.5052939,45.7120279],[-73.5055194,45.711918]]}";7;Chemin Saint-Charles;4;50;false;false;true;false;false;false;34.0;1;0;0;0;0;false;84796;6127178746;-73.498242;45.713891;85093;6129481669;-73.512002;45.709807;0;3;4;9437998;Bus 11 : TERMINUS TERREBONNE;"";EXO;11 O;Des Migrateurs/Walmart;Terminus Terrebonne
163649770;"{\"type\":\"LineString\",\"coordinates\":[[-73.5055194,45.711918],[-73.50597,45.7117255],[-73.5078798,45.7106791]]}";8;Chemin Saint-Charles;2;50;false;true;true;false;false;false;230.0;0;0;0;0;0;false;84796;6127178746;-73.498242;45.713891;85093;6129481669;-73.512002;45.709807;0;3;4;9437998;Bus 11 : TERMINUS TERREBONNE;"";EXO;11 O;Des Migrateurs/Walmart;Terminus Terrebonne
49009282;"{\"type\":\"LineString\",\"coordinates\":[[-73.5078798,45.7106791],[-73.5091957,45.7099494]]}";9;Chemin Saint-Charles;2;50;false;true;true;false;false;false;131.0;0;0;0;0;0;false;84796;6127178746;-73.498242;45.713891;85093;6129481669;-73.512002;45.709807;0;3;4;9437998;Bus 11 : TERMINUS TERREBONNE;"";EXO;11 O;Des Migrateurs/Walmart;Terminus Terrebonne
49009283;"{\"type\":\"LineString\",\"coordinates\":[[-73.5091957,45.7099494],[-73.5103532,45.7092727],[-73.5105182,45.7091594],[-73.5106496,45.7090461],[-73.5108856,45.7088354],[-73.5110962,45.7086087],[-73.51117,45.708546],[-73.5113067,45.7084411],[-73.5113778,45.7084046],[-73.5114717,45.7083774],[-73.5115515,45.7083695],[-73.5116655,45.7083741],[-73.5117507,45.7083887],[-73.5118606,45.7084158],[-73.5119652,45.7084594]]}";10;Chemin Saint-Charles;2;50;false;true;true;false;false;false;292.0;1;0;0;0;0;false;84796;6127178746;-73.498242;45.713891;85093;6129481669;-73.512002;45.709807;0;3;4;9437998;Bus 11 : TERMINUS TERREBONNE;"";EXO;11 O;Des Migrateurs/Walmart;Terminus Terrebonne
32792564;"{\"type\":\"LineString\",\"coordinates\":[[-73.5119652,45.7084594],[-73.5120323,45.7085193],[-73.51209,45.70859],[-73.5121217,45.7086677],[-73.5121354,45.7087608],[-73.5121069,45.7094204],[-73.5120914,45.7097793],[-73.5120856,45.7099151]]}";11;Montée des Pionniers;2;50;false;true;true;false;false;false;166.0;2;0;0;0;0;false;84796;6127178746;-73.498242;45.713891;85093;6129481669;-73.512002;45.709807;2;3;4;9437998;Bus 11 : TERMINUS TERREBONNE;"";EXO;11 O;Des Migrateurs/Walmart;Terminus Terrebonne
453683698;"{\"type\":\"LineString\",\"coordinates\":[[-73.5120301,45.7128878],[-73.5120202,45.713681],[-73.5120166,45.7139811],[-73.5120158,45.7140505]]}";1;Montée des Pionniers;1;50;false;true;true;false;false;false;130.0;1;0;0;0;0;false;84122;6129484966;-73.511918;45.712782;84124;6129484965;-73.511076;45.717902;2;5;6;9437998;Bus 11 : TERMINUS TERREBONNE;"";EXO;11 O;Des Migrateurs/Walmart;Terminus Terrebonne
453683696;"{\"type\":\"LineString\",\"coordinates\":[[-73.5120158,45.7140505],[-73.5120143,45.714155]]}";2;Montée des Pionniers;1;50;false;true;true;false;false;false;12.0;0;0;0;0;0;false;84122;6129484966;-73.511918;45.712782;84124;6129484965;-73.511076;45.717902;0;5;6;9437998;Bus 11 : TERMINUS TERREBONNE;"";EXO;11 O;Des Migrateurs/Walmart;Terminus Terrebonne
453683697;"{\"type\":\"LineString\",\"coordinates\":[[-73.5120143,45.714155],[-73.5120098,45.7145143]]}";3;Montée des Pionniers;1;50;false;true;true;false;false;false;40.0;0;0;0;0;0;false;84122;6129484966;-73.511918;45.712782;84124;6129484965;-73.511076;45.717902;0;5;6;9437998;Bus 11 : TERMINUS TERREBONNE;"";EXO;11 O;Des Migrateurs/Walmart;Terminus Terrebonne
453683700;"{\"type\":\"LineString\",\"coordinates\":[[-73.5120098,45.7145143],[-73.5120016,45.7151752],[-73.512,45.7153075],[-73.5119313,45.7157341],[-73.5118424,45.716166],[-73.5116814,45.7167154],[-73.5115224,45.7171896],[-73.5113334,45.7176057],[-73.5111692,45.7179206],[-73.5111179,45.7180191]]}";4;Montée des Pionniers;1;50;false;true;true;false;false;false;398.0;1;0;0;0;0;false;84122;6129484966;-73.511918;45.712782;84124;6129484965;-73.511076;45.717902;2;5;6;9437998;Bus 11 : TERMINUS TERREBONNE;"";EXO;11 O;Des Migrateurs/Walmart;Terminus Terrebonne
474806364;"{\"type\":\"LineString\",\"coordinates\":[[-73.5111179,45.7180191],[-73.5110777,45.7180943]]}";1;Montée des Pionniers;1;50;false;true;true;false;false;false;9.0;0;0;0;0;0;false;84124;6129484965;-73.511076;45.717902;85252;6129481614;-73.508182;45.720986;2;6;7;9437998;Bus 11 : TERMINUS TERREBONNE;"";EXO;11 O;Des Migrateurs/Walmart;Terminus Terrebonne
453682032;"{\"type\":\"LineString\",\"coordinates\":[[-73.5110777,45.7180943],[-73.5109077,45.7183432],[-73.5108369,45.7184306],[-73.5098349,45.7196678],[-73.5097632,45.7197469]]}";2;Montée des Pionniers;1;50;false;true;true;false;false;false;211.0;0;0;0;0;0;false;84124;6129484965;-73.511076;45.717902;85252;6129481614;-73.508182;45.720986;0;6;7;9437998;Bus 11 : TERMINUS TERREBONNE;"";EXO;11 O;Des Migrateurs/Walmart;Terminus Terrebonne
453682036;"{\"type\":\"LineString\",\"coordinates\":[[-73.5097632,45.7197469],[-73.5085889,45.7208286],[-73.5084867,45.7209228],[-73.5081554,45.7212456],[-73.5080569,45.7213539],[-73.5079942,45.7214402],[-73.5079306,45.7215586],[-73.5078921,45.7217167],[-73.5078813,45.7220306],[-73.5078753,45.7222044],[-73.5078723,45.7222927]]}";3;Montée des Pionniers;1;50;false;true;true;false;false;false;330.0;2;0;0;0;0;false;84124;6129484965;-73.511076;45.717902;85252;6129481614;-73.508182;45.720986;2;6;7;9437998;Bus 11 : TERMINUS TERREBONNE;"";EXO;11 O;Des Migrateurs/Walmart;Terminus Terrebonne
453682036;"{\"type\":\"LineString\",\"coordinates\":[[-73.5097632,45.7197469],[-73.5085889,45.7208286],[-73.5084867,45.7209228],[-73.5081554,45.7212456],[-73.5080569,45.7213539],[-73.5079942,45.7214402],[-73.5079306,45.7215586],[-73.5078921,45.7217167],[-73.5078813,45.7220306],[-73.5078753,45.7222044],[-73.5078723,45.7222927]]}";1;Montée des Pionniers;1;50;false;true;true;false;false;false;165.0;2;0;0;0;0;false;85252;6129481614;-73.508182;45.720986;85086;6127178741;-73.5080861;45.7236325;1;7;8;9437998;Bus 11 : TERMINUS TERREBONNE;"";EXO;11 O;Des Migrateurs/Walmart;Terminus Terrebonne
480347612;"{\"type\":\"LineString\",\"coordinates\":[[-73.5078723,45.7222927],[-73.5078105,45.7238818],[-73.5078065,45.7239866]]}";2;Montée des Pionniers;1;50;false;true;true;false;false;false;189.0;1;0;0;0;0;false;85252;6129481614;-73.508182;45.720986;85086;6127178741;-73.5080861;45.7236325;0;7;8;9437998;Bus 11 : TERMINUS TERREBONNE;"";EXO;11 O;Des Migrateurs/Walmart;Terminus Terrebonne
483385701;"{\"type\":\"LineString\",\"coordinates\":[[-73.5078065,45.7239866],[-73.5079604,45.7239874]]}";3;"";1;50;false;false;true;false;false;false;12.0;0;0;0;0;0;false;85252;6129481614;-73.508182;45.720986;85086;6127178741;-73.5080861;45.7236325;0;7;8;9437998;Bus 11 : TERMINUS TERREBONNE;"";EXO;11 O;Des Migrateurs/Walmart;Terminus Terrebonne
681719386;"{\"type\":\"LineString\",\"coordinates\":[[-73.5079604,45.7239874],[-73.508022,45.7224383],[-73.5080276,45.7222977]]}";4;Montée des Pionniers;1;50;false;true;true;false;false;false;94.0;1;0;0;0;0;false;85252;6129481614;-73.508182;45.720986;85086;6127178741;-73.5080861;45.7236325;1;7;8;9437998;Bus 11 : TERMINUS TERREBONNE;"";EXO;11 O;Des Migrateurs/Walmart;Terminus Terrebonne
681719386;"{\"type\":\"LineString\",\"coordinates\":[[-73.5079604,45.7239874],[-73.508022,45.7224383],[-73.5080276,45.7222977]]}";1;Montée des Pionniers;1;50;false;true;true;false;false;false;94.0;1;0;0;0;0;false;85086;6127178741;-73.5080861;45.7236325;85112;6129481652;-73.510369;45.722466;1;8;9;9437998;Bus 11 : TERMINUS TERREBONNE;"";EXO;11 O;Des Migrateurs/Walmart;Terminus Terrebonne
45178153;"{\"type\":\"LineString\",\"coordinates\":[[-73.5080276,45.7222977],[-73.5081377,45.7222997],[-73.5088839,45.7223135],[-73.5103577,45.7223407],[-73.5115106,45.722362],[-73.513404,45.7223969],[-73.5135759,45.7224001]]}";2;Rue de la Soeur-Marie-Rose;1;50;false;false;true;false;false;false;216.0;1;0;0;0;0;false;85086;6127178741;-73.5080861;45.7236325;85112;6129481652;-73.510369;45.722466;1;8;9;9437998;Bus 11 : TERMINUS TERREBONNE;"";EXO;11 O;Des Migrateurs/Walmart;Terminus Terrebonne
104524663;"{\"type\":\"LineString\",\"coordinates\":[[-73.5189799,45.7060855],[-73.5197783,45.7058376],[-73.5200776,45.7057426],[-73.5203585,45.7056747],[-73.5210005,45.7055873],[-73.5214544,45.7055668],[-73.5215625,45.7055666],[-73.5219463,45.7056068],[-73.5224245,45.7057047],[-73.5225569,45.7057318],[-73.5228828,45.7058041],[-73.5229368,45.7058188],[-73.5230348,45.705841],[-73.5234006,45.7059221],[-73.5237599,45.7059621],[-73.5241388,45.7059672],[-73.5244993,45.7059375],[-73.5249265,45.7058698],[-73.525302,45.7057728],[-73.5257454,45.7056026],[-73.5281231,45.7044988],[-73.5284696,45.7043379],[-73.5293822,45.7039727],[-73.5326245,45.702764],[-73.535246,45.7017665],[-73.5359805,45.7015268],[-73.5362062,45.7014642],[-73.537032,45.7012352],[-73.5387638,45.7009003],[-73.5397551,45.7007207],[-73.5420778,45.7002998],[-73.5431338,45.7001799],[-73.5439662,45.7001515],[-73.5450224,45.7001695],[-73.5459076,45.7002449],[-73.5466808,45.7003516],[-73.5484904,45.7006357],[-73.5502499,45.7009774],[-73.5543762,45.7019033],[-73.5545243,45.7019365],[-73.5547609,45.7020016],[-73.555058,45.7020785],[-73.5552608,45.7021141],[-73.5554427,45.7021163],[-73.5557365,45.7020945],[-73.5566104,45.7019779],[-73.5569018,45.7019365],[-73.5575799,45.7018766],[-73.5592234,45.7018138],[-73.5610303,45.7017447],[-73.5619229,45.7016967],[-73.5627019,45.7017177],[-73.563382,45.7017192],[-73.5635664,45.7017057],[-73.5641717,45.7016368],[-73.5657252,45.701439],[-73.5672616,45.7012292],[-73.5678339,45.7011179],[-73.5684323,45.70098],[-73.5685576,45.7009534],[-73.5690468,45.7008276],[-73.569579,45.7006657],[-73.5699309,45.7005398],[-73.569998,45.7005201],[-73.5701122,45.7004866],[-73.5707897,45.7002786],[-73.5723835,45.6999148],[-73.5724028,45.6999104],[-73.5728921,45.6997665],[-73.572935,45.69976],[-73.5734242,45.6996227],[-73.5748232,45.699227],[-73.5756042,45.6991431],[-73.5763157,45.6990667],[-73.5764969,45.6990472],[-73.5777782,45.6989271],[-73.5778952,45.6989078]]}";1;Chemin Saint-Charles;2;50;false;false;false;false;false;false;2416.5;0;0;1;0;0;false;84167;6129484932;-73.577589;45.699032;84165;6129484934;-73.579881;45.698563;1;32;33;9437998;Bus 11 : TERMINUS TERREBONNE;"";EXO;11 O;Des Migrateurs/Walmart;Terminus Terrebonne
680965940;"{\"type\":\"LineString\",\"coordinates\":[[-73.5778952,45.6989078],[-73.5784192,45.6987988],[-73.5797121,45.6985262],[-73.5801238,45.6984233],[-73.5803148,45.6983551],[-73.5804881,45.6982499],[-73.5807418,45.6980422],[-73.5812087,45.6976598],[-73.5814177,45.6975031],[-73.582017,45.6970079]]}";2;Chemin Saint-Charles;2;50;false;false;false;false;false;false;199.5;0;0;0;0;0;false;84167;6129484932;-73.577589;45.699032;84165;6129484934;-73.579881;45.698563;1;32;33;9437998;Bus 11 : TERMINUS TERREBONNE;"";EXO;11 O;Des Migrateurs/Walmart;Terminus Terrebonne
32798217;"{\"type\":\"LineString\",\"coordinates\":[[-73.5858425,45.7002262],[-73.5856275,45.6999958],[-73.5855921,45.6996803],[-73.585582,45.699609],[-73.5856395,45.6989738],[-73.5856996,45.6983088],[-73.5857799,45.6974203],[-73.5858092,45.6970245],[-73.5857796,45.6968849],[-73.5857548,45.6967679],[-73.5857665,45.696626],[-73.5858117,45.6960124],[-73.5859449,45.6946808]]}";1;Rue Cantin;1;50;false;false;true;false;false;false;623.0;0;0;0;0;0;false;85259;6129481611;-73.586058;45.694692;84162;6129484937;-73.591077;45.693177;2;42;43;9437998;Bus 11 : TERMINUS TERREBONNE;"";EXO;11 O;Des Migrateurs/Walmart;Terminus Terrebonne
679842985;"{\"type\":\"LineString\",\"coordinates\":[[-73.5859449,45.6946808],[-73.5870409,45.6942429],[-73.5878651,45.6939859],[-73.5891057,45.6937201],[-73.5912255,45.6931002],[-73.5918951,45.6928948],[-73.5926763,45.6926559]]}";2;Chemin Saint-Charles;2;50;false;false;false;false;false;false;572.0;0;0;0;0;0;false;85259;6129481611;-73.586058;45.694692;84162;6129484937;-73.591077;45.693177;2;42;43;9437998;Bus 11 : TERMINUS TERREBONNE;"";EXO;11 O;Des Migrateurs/Walmart;Terminus Terrebonne
679842985;"{\"type\":\"LineString\",\"coordinates\":[[-73.5859449,45.6946808],[-73.5870409,45.6942429],[-73.5878651,45.6939859],[-73.5891057,45.6937201],[-73.5912255,45.6931002],[-73.5918951,45.6928948],[-73.5926763,45.6926559]]}";1;Chemin Saint-Charles;2;50;false;false;false;false;false;false;286.0;0;0;0;0;0;false;84162;6129484937;-73.591077;45.693177;85540;6129481055;-73.594869;45.692098;1;43;44;9437998;Bus 11 : TERMINUS TERREBONNE;"";EXO;11 O;Des Migrateurs/Walmart;Terminus Terrebonne
465030386;"{\"type\":\"LineString\",\"coordinates\":[[-73.5926763,45.6926559],[-73.5933504,45.6924494]]}";2;Chemin Saint-Charles;2;50;false;false;false;false;false;false;58.0;0;0;0;0;0;false;84162;6129484937;-73.591077;45.693177;85540;6129481055;-73.594869;45.692098;0;43;44;9437998;Bus 11 : TERMINUS TERREBONNE;"";EXO;11 O;Des Migrateurs/Walmart;Terminus Terrebonne
465030385;"{\"type\":\"LineString\",\"coordinates\":[[-73.5933504,45.6924494],[-73.5939807,45.6922548],[-73.5948919,45.6920002],[-73.5959118,45.6917152],[-73.5973109,45.6914035],[-73.5978329,45.6913396],[-73.5988522,45.6912149],[-73.5991734,45.6911756],[-73.600638,45.6910963],[-73.6011387,45.6911124],[-73.6023062,45.6912056],[-73.6039263,45.6914404],[-73.6043901,45.6915093],[-73.6051445,45.6916299],[-73.6067901,45.691965],[-73.6076086,45.6921454]]}";3;Chemin Saint-Charles;2;50;false;false;false;false;false;false;574.0;0;0;0;0;0;false;84162;6129484937;-73.591077;45.693177;85540;6129481055;-73.594869;45.692098;1;43;44;9437998;Bus 11 : TERMINUS TERREBONNE;"";EXO;11 O;Des Migrateurs/Walmart;Terminus Terrebonne
465030385;"{\"type\":\"LineString\",\"coordinates\":[[-73.5933504,45.6924494],[-73.5939807,45.6922548],[-73.5948919,45.6920002],[-73.5959118,45.6917152],[-73.5973109,45.6914035],[-73.5978329,45.6913396],[-73.5988522,45.6912149],[-73.5991734,45.6911756],[-73.600638,45.6910963],[-73.6011387,45.6911124],[-73.6023062,45.6912056],[-73.6039263,45.6914404],[-73.6043901,45.6915093],[-73.6051445,45.6916299],[-73.6067901,45.691965],[-73.6076086,45.6921454]]}";1;Chemin Saint-Charles;2;50;false;false;false;false;false;false;574.0;0;0;0;0;0;false;85522;6129481066;-73.606564;45.691986;84157;6129484941;-73.609962;45.693877;1;47;48;9437998;Bus 11 : TERMINUS TERREBONNE;"";EXO;11 O;Des Migrateurs/Walmart;Terminus Terrebonne
104524659;"{\"type\":\"LineString\",\"coordinates\":[[-73.6076086,45.6921454],[-73.6078247,45.6922335],[-73.6082539,45.6924374],[-73.6087517,45.6927731],[-73.6090319,45.6930174],[-73.6098793,45.6937563],[-73.6101112,45.6939585],[-73.61018,45.6940183],[-73.6103783,45.6941907],[-73.6106028,45.6943866]]}";2;Chemin Saint-Charles;2;50;false;false;true;false;false;false;172.0;0;0;0;0;0;false;85522;6129481066;-73.606564;45.691986;84157;6129484941;-73.609962;45.693877;1;47;48;9437998;Bus 11 : TERMINUS TERREBONNE;"";EXO;11 O;Des Migrateurs/Walmart;Terminus Terrebonne
104524659;"{\"type\":\"LineString\",\"coordinates\":[[-73.6076086,45.6921454],[-73.6078247,45.6922335],[-73.6082539,45.6924374],[-73.6087517,45.6927731],[-73.6090319,45.6930174],[-73.6098793,45.6937563],[-73.6101112,45.6939585],[-73.61018,45.6940183],[-73.6103783,45.6941907],[-73.6106028,45.6943866]]}";1;Chemin Saint-Charles;2;50;false;false;true;false;false;false;172.0;0;0;0;0;0;false;84157;6129484941;-73.609962;45.693877;84136;6129484958;-73.612132;45.695709;1;48;49;9437998;Bus 11 : TERMINUS TERREBONNE;"";EXO;11 O;Des Migrateurs/Walmart;Terminus Terrebonne
465030387;"{\"type\":\"LineString\",\"coordinates\":[[-73.6106028,45.6943866],[-73.6112299,45.6949109]]}";2;Chemin Saint-Charles;2;50;false;false;true;false;false;false;76.0;0;0;0;0;0;false;84157;6129484941;-73.609962;45.693877;84136;6129484958;-73.612132;45.695709;0;48;49;9437998;Bus 11 : TERMINUS TERREBONNE;"";EXO;11 O;Des Migrateurs/Walmart;Terminus Terrebonne
27877549;"{\"type\":\"LineString\",\"coordinates\":[[-73.6112299,45.6949109],[-73.6114079,45.6950642],[-73.6115889,45.6952201],[-73.6118929,45.6954611],[-73.6121193,45.6956125],[-73.6123486,45.695736],[-73.6124168,45.6957652],[-73.612785,45.695923],[-73.61344,45.696115],[-73.613988,45.696197],[-73.6147103,45.6961918],[-73.615478,45.6961343],[-73.6157247,45.6960833],[-73.6162968,45.6958984],[-73.6178708,45.6952371],[-73.618232,45.695123],[-73.618685,45.695012],[-73.619033,45.6949699]]}";3;Chemin Saint-Charles;2;50;false;false;true;false;false;false;345.0;0;0;0;0;0;false;84157;6129484941;-73.609962;45.693877;84136;6129484958;-73.612132;45.695709;1;48;49;9437998;Bus 11 : TERMINUS TERREBONNE;"";EXO;11 O;Des Migrateurs/Walmart;Terminus Terrebonne
32867837;"{\"type\":\"LineString\",\"coordinates\":[[-73.6151934,45.7017279],[-73.6152599,45.700493],[-73.6153008,45.6997337],[-73.6153364,45.6990747],[-73.6153729,45.6983957],[-73.61541,45.6977077],[-73.6154472,45.6970177],[-73.615478,45.6961343]]}";1;Avenue Ludovic-Laurier;1;50;false;false;false;false;false;false;311.0;0;0;0;0;0;false;85281;6129481608;-73.615022;45.701566;84151;6129484945;-73.614825;45.70442;1;53;54;9437998;Bus 11 : TERMINUS TERREBONNE;"";EXO;11 O;Des Migrateurs/Walmart;Terminus Terrebonne
51263311;"{\"type\":\"LineString\",\"coordinates\":[[-73.6151934,45.7017279],[-73.6149474,45.7045351],[-73.6148922,45.7052095],[-73.6148865,45.7056854],[-73.614896,45.7057952]]}";2;Avenue Ludovic-Laurier;1;50;false;false;false;false;false;false;226.5;0;0;0;0;0;false;85281;6129481608;-73.615022;45.701566;84151;6129484945;-73.614825;45.70442;1;53;54;9437998;Bus 11 : TERMINUS TERREBONNE;"";EXO;11 O;Des Migrateurs/Walmart;Terminus Terrebonne
51263311;"{\"type\":\"LineString\",\"coordinates\":[[-73.6151934,45.7017279],[-73.6149474,45.7045351],[-73.6148922,45.7052095],[-73.6148865,45.7056854],[-73.614896,45.7057952]]}";1;Avenue Ludovic-Laurier;1;50;false;false;false;false;false;false;226.5;0;0;0;0;0;false;84151;6129484945;-73.614825;45.70442;84210;6129484910;-73.614835;45.706482;1;54;55;9437998;Bus 11 : TERMINUS TERREBONNE;"";EXO;11 O;Des Migrateurs/Walmart;Terminus Terrebonne
473269829;"{\"type\":\"LineString\",\"coordinates\":[[-73.614896,45.7057952],[-73.6149072,45.7063316],[-73.6150321,45.7066465]]}";2;Avenue Ludovic-Laurier;1;50;false;true;false;false;false;false;48.0;0;0;0;0;0;false;84151;6129484945;-73.614825;45.70442;84210;6129484910;-73.614835;45.706482;1;54;55;9437998;Bus 11 : TERMINUS TERREBONNE;"";EXO;11 O;Des Migrateurs/Walmart;Terminus Terrebonne
473269829;"{\"type\":\"LineString\",\"coordinates\":[[-73.614896,45.7057952],[-73.6149072,45.7063316],[-73.6150321,45.7066465]]}";1;Avenue Ludovic-Laurier;1;50;false;true;false;false;false;false;48.0;0;0;0;0;0;false;84210;6129484910;-73.614835;45.706482;85789;6129480998;-73.618019;45.706682;1;55;56;9437998;Bus 11 : TERMINUS TERREBONNE;"";EXO;11 O;Des Migrateurs/Walmart;Terminus Terrebonne
473269827;"{\"type\":\"LineString\",\"coordinates\":[[-73.6150321,45.7066465],[-73.6150691,45.7067399]]}";2;Avenue Ludovic-Laurier;1;50;false;true;false;false;false;false;11.0;0;0;0;0;0;false;84210;6129484910;-73.614835;45.706482;85789;6129480998;-73.618019;45.706682;0;55;56;9437998;Bus 11 : TERMINUS TERREBONNE;"";EXO;11 O;Des Migrateurs/Walmart;Terminus Terrebonne
679842981;"{\"type\":\"LineString\",\"coordinates\":[[-73.6150691,45.7067399],[-73.6152046,45.7067149]]}";3;Grande Allée;2;50;false;true;false;false;false;false;11.0;0;0;0;0;0;false;84210;6129484910;-73.614835;45.706482;85789;6129480998;-73.618019;45.706682;0;55;56;9437998;Bus 11 : TERMINUS TERREBONNE;"";EXO;11 O;Des Migrateurs/Walmart;Terminus Terrebonne
46618263;"{\"type\":\"LineString\",\"coordinates\":[[-73.6152046,45.7067149],[-73.6160665,45.7065559],[-73.6166684,45.7065111],[-73.6173134,45.7065259],[-73.6177235,45.7065669],[-73.618363,45.7066827]]}";4;Grande Allée;2;50;false;true;false;false;false;false;125.5;0;0;0;0;0;false;84210;6129484910;-73.614835;45.706482;85789;6129480998;-73.618019;45.706682;1;55;56;9437998;Bus 11 : TERMINUS TERREBONNE;"";EXO;11 O;Des Migrateurs/Walmart;Terminus Terrebonne
46618263;"{\"type\":\"LineString\",\"coordinates\":[[-73.6152046,45.7067149],[-73.6160665,45.7065559],[-73.6166684,45.7065111],[-73.6173134,45.7065259],[-73.6177235,45.7065669],[-73.618363,45.7066827]]}";1;Grande Allée;2;50;false;true;false;false;false;false;125.5;0;0;0;0;0;false;85789;6129480998;-73.618019;45.706682;84149;6129484947;-73.619673;45.707253;1;56;57;9437998;Bus 11 : TERMINUS TERREBONNE;"";EXO;11 O;Des Migrateurs/Walmart;Terminus Terrebonne
679511687;"{\"type\":\"LineString\",\"coordinates\":[[-73.618363,45.7066827],[-73.6198411,45.7071776],[-73.6210685,45.7075934],[-73.6211032,45.7076052],[-73.6220452,45.7079243],[-73.6227493,45.7082154],[-73.6228974,45.7082766],[-73.6233542,45.7085071],[-73.6236702,45.7087179]]}";2;Grande Allée;2;50;false;true;false;false;false;false;236.5;0;0;0;0;0;false;85789;6129480998;-73.618019;45.706682;84149;6129484947;-73.619673;45.707253;1;56;57;9437998;Bus 11 : TERMINUS TERREBONNE;"";EXO;11 O;Des Migrateurs/Walmart;Terminus Terrebonne
679511687;"{\"type\":\"LineString\",\"coordinates\":[[-73.618363,45.7066827],[-73.6198411,45.7071776],[-73.6210685,45.7075934],[-73.6211032,45.7076052],[-73.6220452,45.7079243],[-73.6227493,45.7082154],[-73.6228974,45.7082766],[-73.6233542,45.7085071],[-73.6236702,45.7087179]]}";1;Grande Allée;2;50;false;true;false;false;false;false;236.5;0;0;0;0;0;false;84198;6129484915;-73.623368;45.708707;85498;6129481077;-73.625907;45.710498;1;58;59;9437998;Bus 11 : TERMINUS TERREBONNE;"";EXO;11 O;Des Migrateurs/Walmart;Terminus Terrebonne
46618282;"{\"type\":\"LineString\",\"coordinates\":[[-73.6236702,45.7087179],[-73.6244149,45.7092579],[-73.6248545,45.7096683],[-73.6250191,45.7097868],[-73.6255617,45.7101718],[-73.6261523,45.7104961],[-73.6263096,45.7105741],[-73.6267506,45.7107284],[-73.6271684,45.7108542]]}";2;Grande Allée;2;50;false;true;false;false;false;false;183.0;2;0;0;0;0;false;84198;6129484915;-73.623368;45.708707;85498;6129481077;-73.625907;45.710498;1;58;59;9437998;Bus 11 : TERMINUS TERREBONNE;"";EXO;11 O;Des Migrateurs/Walmart;Terminus Terrebonne
46618282;"{\"type\":\"LineString\",\"coordinates\":[[-73.6236702,45.7087179],[-73.6244149,45.7092579],[-73.6248545,45.7096683],[-73.6250191,45.7097868],[-73.6255617,45.7101718],[-73.6261523,45.7104961],[-73.6263096,45.7105741],[-73.6267506,45.7107284],[-73.6271684,45.7108542]]}";1;Grande Allée;2;50;false;true;false;false;false;false;183.0;2;0;0;0;0;false;85498;6129481077;-73.625907;45.710498;84148;6129484948;-73.627898;45.71003;1;59;60;9437998;Bus 11 : TERMINUS TERREBONNE;"";EXO;11 O;Des Migrateurs/Walmart;Terminus Terrebonne
135054886;"{\"type\":\"LineString\",\"coordinates\":[[-73.6271684,45.7108542],[-73.6273133,45.7108956]]}";2;"";1;50;false;true;true;false;false;false;13.0;2;0;0;0;0;false;85498;6129481077;-73.625907;45.710498;84148;6129484948;-73.627898;45.71003;0;59;60;9437998;Bus 11 : TERMINUS TERREBONNE;"";EXO;11 O;Des Migrateurs/Walmart;Terminus Terrebonne
473276303;"{\"type\":\"LineString\",\"coordinates\":[[-73.6273133,45.7108956],[-73.6273875,45.7107876],[-73.6275542,45.7105261],[-73.627736,45.7102111]]}";3;Montée Masson;1;50;false;true;true;false;false;false;83.0;2;0;0;0;0;false;85498;6129481077;-73.625907;45.710498;84148;6129484948;-73.627898;45.71003;0;59;60;9437998;Bus 11 : TERMINUS TERREBONNE;"";EXO;11 O;Des Migrateurs/Walmart;Terminus Terrebonne
473276286;"{\"type\":\"LineString\",\"coordinates\":[[-73.627736,45.7102111],[-73.6277547,45.7100564]]}";4;Montée Masson;1;50;false;true;true;false;false;false;18.0;0;0;0;0;0;false;85498;6129481077;-73.625907;45.710498;84148;6129484948;-73.627898;45.71003;0;59;60;9437998;Bus 11 : TERMINUS TERREBONNE;"";EXO;11 O;Des Migrateurs/Walmart;Terminus Terrebonne
465001677;"{\"type\":\"LineString\",\"coordinates\":[[-73.6309058,45.7046633],[-73.6308035,45.7048244],[-73.6307369,45.7049292],[-73.6305107,45.705294],[-73.6292295,45.7074307],[-73.6286056,45.7085278],[-73.6277547,45.7100564]]}";5;Montée Masson;1;50;false;false;true;false;false;false;324.0;0;0;0;0;0;false;85498;6129481077;-73.625907;45.710498;84148;6129484948;-73.627898;45.71003;1;59;60;9437998;Bus 11 : TERMINUS TERREBONNE;"";EXO;11 O;Des Migrateurs/Walmart;Terminus Terrebonne
473276286;"{\"type\":\"LineString\",\"coordinates\":[[-73.627736,45.7102111],[-73.6277547,45.7100564]]}";1;Montée Masson;1;50;false;true;true;false;false;false;18.0;0;0;0;0;0;false;84148;6129484948;-73.627898;45.71003;84146;6129484950;-73.629261;45.707635;2;60;61;9437998;Bus 11 : TERMINUS TERREBONNE;"";EXO;11 O;Des Migrateurs/Walmart;Terminus Terrebonne
465001677;"{\"type\":\"LineString\",\"coordinates\":[[-73.6309058,45.7046633],[-73.6308035,45.7048244],[-73.6307369,45.7049292],[-73.6305107,45.705294],[-73.6292295,45.7074307],[-73.6286056,45.7085278],[-73.6277547,45.7100564]]}";2;Montée Masson;1;50;false;false;true;false;false;false;648.0;0;0;0;0;0;false;84148;6129484948;-73.627898;45.71003;84146;6129484950;-73.629261;45.707635;2;60;61;9437998;Bus 11 : TERMINUS TERREBONNE;"";EXO;11 O;Des Migrateurs/Walmart;Terminus Terrebonne
465001677;"{\"type\":\"LineString\",\"coordinates\":[[-73.6309058,45.7046633],[-73.6308035,45.7048244],[-73.6307369,45.7049292],[-73.6305107,45.705294],[-73.6292295,45.7074307],[-73.6286056,45.7085278],[-73.6277547,45.7100564]]}";1;Montée Masson;1;50;false;false;true;false;false;false;324.0;0;0;0;0;0;false;84144;6129484952;-73.630796;45.705098;85054;6129482191;-73.632095;45.704265;1;62;63;9437998;Bus 11 : TERMINUS TERREBONNE;"";EXO;11 O;Des Migrateurs/Walmart;Terminus Terrebonne
465001678;"{\"type\":\"LineString\",\"coordinates\":[[-73.6309058,45.7046633],[-73.6311012,45.704502],[-73.6313026,45.7043608],[-73.6315858,45.7042366],[-73.6318635,45.7041842]]}";2;Montée Masson;1;50;false;true;true;false;false;false;95.0;1;0;0;0;0;false;84144;6129484952;-73.630796;45.705098;85054;6129482191;-73.632095;45.704265;0;62;63;9437998;Bus 11 : TERMINUS TERREBONNE;"";EXO;11 O;Des Migrateurs/Walmart;Terminus Terrebonne
465001675;"{\"type\":\"LineString\",\"coordinates\":[[-73.6318635,45.7041842],[-73.632787,45.7039925]]}";3;Boulevard des Seigneurs;1;50;false;true;false;false;false;false;37.5;1;0;0;0;0;false;84144;6129484952;-73.630796;45.705098;85054;6129482191;-73.632095;45.704265;1;62;63;9437998;Bus 11 : TERMINUS TERREBONNE;"";EXO;11 O;Des Migrateurs/Walmart;Terminus Terrebonne
465001675;"{\"type\":\"LineString\",\"coordinates\":[[-73.6318635,45.7041842],[-73.632787,45.7039925]]}";1;Boulevard des Seigneurs;1;50;false;true;false;false;false;false;37.5;1;0;0;0;0;false;85054;6129482191;-73.632095;45.704265;84767;6129483618;-73.634191;45.703923;1;63;64;9437998;Bus 11 : TERMINUS TERREBONNE;"";EXO;11 O;Des Migrateurs/Walmart;Terminus Terrebonne
131542124;"{\"type\":\"LineString\",\"coordinates\":[[-73.632787,45.7039925],[-73.6335209,45.7038618],[-73.6342379,45.7037341],[-73.6346956,45.7036296],[-73.6351031,45.7035168],[-73.6354829,45.7034116],[-73.6359476,45.7032827],[-73.6367516,45.7030599],[-73.6367698,45.7030549],[-73.6371282,45.7029561],[-73.6376233,45.7028196],[-73.6381702,45.7026645],[-73.6384063,45.7025976],[-73.6389572,45.7024414],[-73.6393032,45.702352],[-73.6397405,45.702239],[-73.6399318,45.7021895],[-73.6399849,45.7021737],[-73.6400141,45.7021658],[-73.6414232,45.7017913],[-73.6415446,45.7017554],[-73.6418259,45.7016749],[-73.6433584,45.7012364],[-73.6444405,45.7009407],[-73.6449106,45.700813]]}";2;Boulevard des Seigneurs;1;50;false;true;false;false;false;false;504.5;2;0;0;0;0;false;85054;6129482191;-73.632095;45.704265;84767;6129483618;-73.634191;45.703923;1;63;64;9437998;Bus 11 : TERMINUS TERREBONNE;"";EXO;11 O;Des Migrateurs/Walmart;Terminus Terrebonne
131542124;"{\"type\":\"LineString\",\"coordinates\":[[-73.632787,45.7039925],[-73.6335209,45.7038618],[-73.6342379,45.7037341],[-73.6346956,45.7036296],[-73.6351031,45.7035168],[-73.6354829,45.7034116],[-73.6359476,45.7032827],[-73.6367516,45.7030599],[-73.6367698,45.7030549],[-73.6371282,45.7029561],[-73.6376233,45.7028196],[-73.6381702,45.7026645],[-73.6384063,45.7025976],[-73.6389572,45.7024414],[-73.6393032,45.702352],[-73.6397405,45.702239],[-73.6399318,45.7021895],[-73.6399849,45.7021737],[-73.6400141,45.7021658],[-73.6414232,45.7017913],[-73.6415446,45.7017554],[-73.6418259,45.7016749],[-73.6433584,45.7012364],[-73.6444405,45.7009407],[-73.6449106,45.700813]]}";1;Boulevard des Seigneurs;1;50;false;true;false;false;false;false;504.5;2;0;0;0;0;false;84761;6129483624;-73.644391;45.701077;84848;6129482948;-73.6460676;45.7005612;1;68;69;9437998;Bus 11 : TERMINUS TERREBONNE;"";EXO;11 O;Des Migrateurs/Walmart;Terminus Terrebonne
607279034;"{\"type\":\"LineString\",\"coordinates\":[[-73.6449106,45.700813],[-73.6461642,45.7004378]]}";2;Boulevard des Seigneurs;1;50;false;true;false;false;false;false;53.5;0;0;0;0;0;false;84761;6129483624;-73.644391;45.701077;84848;6129482948;-73.6460676;45.7005612;1;68;69;9437998;Bus 11 : TERMINUS TERREBONNE;"";EXO;11 O;Des Migrateurs/Walmart;Terminus Terrebonne
564292181;"{\"type\":\"LineString\",\"coordinates\":[[-73.6461642,45.7004378],[-73.6471985,45.7002328]]}";1;Boulevard des Seigneurs;1;50;false;true;false;false;false;false;84.0;1;0;0;0;0;false;84848;6129482948;-73.6460676;45.7005612;84875;6129482927;-73.652978;45.698038;2;69;70;9437998;Bus 11 : TERMINUS TERREBONNE;"";EXO;11 O;Des Migrateurs/Walmart;Terminus Terrebonne
472911203;"{\"type\":\"LineString\",\"coordinates\":[[-73.6471985,45.7002328],[-73.6473356,45.7002084]]}";2;Boulevard des Seigneurs;1;50;false;true;false;false;false;false;12.0;2;0;0;0;0;false;84848;6129482948;-73.6460676;45.7005612;84875;6129482927;-73.652978;45.698038;0;69;70;9437998;Bus 11 : TERMINUS TERREBONNE;"";EXO;11 O;Des Migrateurs/Walmart;Terminus Terrebonne
473308959;"{\"type\":\"LineString\",\"coordinates\":[[-73.6473356,45.7002084],[-73.6478477,45.7001344]]}";3;Boulevard des Seigneurs;1;50;false;true;false;false;false;false;41.0;1;0;0;0;0;false;84848;6129482948;-73.6460676;45.7005612;84875;6129482927;-73.652978;45.698038;0;69;70;9437998;Bus 11 : TERMINUS TERREBONNE;"";EXO;11 O;Des Migrateurs/Walmart;Terminus Terrebonne
32824035;"{\"type\":\"LineString\",\"coordinates\":[[-73.6478477,45.7001344],[-73.6494132,45.6999961]]}";4;Boulevard des Seigneurs;1;50;false;true;false;false;false;false;123.0;1;0;0;0;0;false;84848;6129482948;-73.6460676;45.7005612;84875;6129482927;-73.652978;45.698038;0;69;70;9437998;Bus 11 : TERMINUS TERREBONNE;"";EXO;11 O;Des Migrateurs/Walmart;Terminus Terrebonne
460511882;"{\"type\":\"LineString\",\"coordinates\":[[-73.6494132,45.6999961],[-73.6515641,45.6998436]]}";5;Boulevard des Seigneurs;1;50;false;true;false;false;false;false;169.0;1;0;0;0;0;false;84848;6129482948;-73.6460676;45.7005612;84875;6129482927;-73.652978;45.698038;0;69;70;9437998;Bus 11 : TERMINUS TERREBONNE;"";EXO;11 O;Des Migrateurs/Walmart;Terminus Terrebonne
177354202;"{\"type\":\"LineString\",\"coordinates\":[[-73.6515641,45.6998436],[-73.6522207,45.6997971]]}";6;Boulevard des Seigneurs;1;50;false;true;false;false;false;false;52.0;0;0;0;0;0;false;84848;6129482948;-73.6460676;45.7005612;84875;6129482927;-73.652978;45.698038;0;69;70;9437998;Bus 11 : TERMINUS TERREBONNE;"";EXO;11 O;Des Migrateurs/Walmart;Terminus Terrebonne
177354201;"{\"type\":\"LineString\",\"coordinates\":[[-73.6522207,45.6997971],[-73.6541584,45.6996598],[-73.6541994,45.6996569],[-73.6543243,45.699648]]}";7;Boulevard des Seigneurs;3;50;false;true;false;false;false;false;165.0;1;1;0;0;0;false;84848;6129482948;-73.6460676;45.7005612;84875;6129482927;-73.652978;45.698038;0;69;70;9437998;Bus 11 : TERMINUS TERREBONNE;"";EXO;11 O;Des Migrateurs/Walmart;Terminus Terrebonne
678903376;"{\"type\":\"LineString\",\"coordinates\":[[-73.6543243,45.699648],[-73.6543935,45.6995058]]}";8;Côte de Terrebonne;1;50;false;true;true;false;false;false;17.0;0;0;0;0;0;false;84848;6129482948;-73.6460676;45.7005612;84875;6129482927;-73.652978;45.698038;0;69;70;9437998;Bus 11 : TERMINUS TERREBONNE;"";EXO;11 O;Des Migrateurs/Walmart;Terminus Terrebonne
678900124;"{\"type\":\"LineString\",\"coordinates\":[[-73.6543935,45.6995058],[-73.6543959,45.6994455],[-73.6544061,45.6991935]]}";9;Côte de Terrebonne;2;50;false;true;true;false;false;false;35.0;0;1;0;0;0;false;84848;6129482948;-73.6460676;45.7005612;84875;6129482927;-73.652978;45.698038;0;69;70;9437998;Bus 11 : TERMINUS TERREBONNE;"";EXO;11 O;Des Migrateurs/Walmart;Terminus Terrebonne
810018731;"{\"type\":\"LineString\",\"coordinates\":[[-73.6544061,45.6991935],[-73.6544516,45.6980667]]}";10;Côte de Terrebonne;2;50;false;true;false;false;false;false;126.0;0;0;0;0;0;false;84848;6129482948;-73.6460676;45.7005612;84875;6129482927;-73.652978;45.698038;0;69;70;9437998;Bus 11 : TERMINUS TERREBONNE;"";EXO;11 O;Des Migrateurs/Walmart;Terminus Terrebonne
679579107;"{\"type\":\"LineString\",\"coordinates\":[[-73.6544516,45.6980667],[-73.6544536,45.6980164]]}";11;Côte de Terrebonne;1;50;false;true;false;false;false;false;6.0;0;0;0;0;0;false;84848;6129482948;-73.6460676;45.7005612;84875;6129482927;-73.652978;45.698038;0;69;70;9437998;Bus 11 : TERMINUS TERREBONNE;"";EXO;11 O;Des Migrateurs/Walmart;Terminus Terrebonne
810021669;"{\"type\":\"LineString\",\"coordinates\":[[-73.6544536,45.6980164],[-73.6544566,45.6979421]]}";12;Côte de Terrebonne;1;50;false;true;false;false;false;false;9.0;0;0;0;0;0;false;84848;6129482948;-73.6460676;45.7005612;84875;6129482927;-73.652978;45.698038;0;69;70;9437998;Bus 11 : TERMINUS TERREBONNE;"";EXO;11 O;Des Migrateurs/Walmart;Terminus Terrebonne
679579096;"{\"type\":\"LineString\",\"coordinates\":[[-73.6544566,45.6979421],[-73.6543098,45.6979415]]}";13;BUS;1;50;false;true;true;false;true;false;12.0;0;0;0;0;0;false;84848;6129482948;-73.6460676;45.7005612;84875;6129482927;-73.652978;45.698038;0;69;70;9437998;Bus 11 : TERMINUS TERREBONNE;"";EXO;11 O;Des Migrateurs/Walmart;Terminus Terrebonne
678900150;"{\"type\":\"LineString\",\"coordinates\":[[-73.6543098,45.6979415],[-73.654154,45.6979414],[-73.6533204,45.6979395],[-73.6532321,45.6979644],[-73.6531831,45.6979995],[-73.6531647,45.6980517],[-73.6531659,45.6981074]]}";14;BUS;1;50;false;true;true;false;true;false;103.0;0;1;0;0;0;false;84848;6129482948;-73.6460676;45.7005612;84875;6129482927;-73.652978;45.698038;1;69;70;9437998;Bus 11 : TERMINUS TERREBONNE;"";EXO;11 O;Des Migrateurs/Walmart;Terminus Terrebonne
